Angle 0.070849 5.520359

4.00000 7.03348 4.00000
4.00000 7.03348 4.00000
4.00000 7.03348 4.00000
4.00000 7.03348 4.00000
4.00000 7.03348 4.00000
4.00000 7.03348 4.00000
4.00000 7.03348 4.00000
4.00000 7.03348 4.00000
4.00000 7.03348 4.00000
4.00000 7.03348 4.00000
4.00000 7.03348 4.00000
4.00000 7.03348 4.00000
4.00000 7.03348 4.00000
4.00000 7.03348 4.00000
4.00000 7.03348 4.00000
4.00000 7.03348 4.00000
4.00000 7.03347 4.00000
4.00000 7.03347 4.00000
4.00000 7.03347 4.00000
4.00000 7.03348 4.00000
4.00000 7.03348 4.00000
4.00000 7.03348 4.00000
4.00000 7.03348 4.00000
4.00000 7.03348 4.00000
4.00000 7.03348 4.00000
4.00000 7.03348 4.00000
4.00000 7.03348 4.00000
4.00000 7.03348 4.00000
4.00000 7.03348 4.00000
4.00000 7.03348 4.00000
4.00000 7.03348 4.00000
4.00000 7.03348 4.00000
4.00000 7.03349 4.00000
4.00000 7.03348 4.00000
4.00000 7.03348 4.00000
4.00000 7.03348 4.00000
4.00000 7.03348 4.00000
4.00000 7.03348 4.00000
4.00000 7.03348 4.00000
4.00000 7.03349 4.00000
4.00000 7.03348 4.00000
4.00000 7.03348 4.00000
4.00000 7.03348 4.00000
4.00000 7.03348 4.00000
4.00000 7.03349 4.00000
4.00000 7.03349 4.00000
4.00000 7.03349 4.00000
4.00000 7.03348 4.00000
4.00000 7.03348 4.00000
4.00000 7.03348 4.00000
4.00000 7.03348 4.00000
4.00000 7.03348 4.00000
4.00000 7.03348 4.00000
4.00000 7.03348 4.00000
4.00000 7.03348 4.00000
4.00000 7.03348 4.00000
4.00000 7.03348 4.00000
4.00000 7.03348 4.00000
4.00000 7.03348 4.00000
4.00000 7.03348 4.00000
4.00000 7.03348 4.00000
4.00000 7.03348 4.00000
4.00000 7.03349 4.00000
4.00000 7.03349 4.00000
4.00000 7.03349 4.00000
4.00000 7.03348 4.00000
4.00000 7.03348 4.00000
4.00000 7.03348 4.00000
4.00000 7.03348 4.00000
4.00000 7.03348 4.00000
4.00000 7.03347 4.00000
4.00000 7.03348 4.00000
4.00000 7.03348 4.00000
4.00000 7.03348 4.00000
4.00000 7.03348 4.00000
4.00000 7.03348 4.00000
4.00000 7.03348 4.00000
4.00000 7.03348 4.00000
4.00000 7.03348 4.00000
4.00000 7.03348 4.00000
4.00000 7.03348 4.00000
4.00000 7.03348 4.00000
4.00000 7.03348 4.00000
4.00000 7.03348 4.00000
4.00000 7.03348 4.00000
4.00000 7.03348 4.00000
4.00000 7.03348 4.00000
4.00000 7.03348 4.00000
4.00000 7.03348 4.00000
4.00000 7.03348 4.00000
4.00000 7.03348 4.00000
4.00000 7.03348 4.00000
4.00000 7.03348 4.00000
4.00000 7.03348 4.00000
4.00000 7.03348 4.00000
4.00000 7.03348 4.00000
4.00000 7.03348 4.00000
4.00000 7.03349 4.00000
4.00000 7.03348 4.00000
4.00000 7.03348 4.00000
4.00000 7.03348 4.00000
4.00000 7.03348 4.00000
4.00000 7.03349 4.00000
4.00000 7.03349 4.00000
4.00000 7.03348 4.00000
4.00000 7.03348 4.00000
4.00000 7.03348 4.00000
4.00000 7.03347 4.00000
4.00000 7.03346 4.00000
4.00000 7.03348 4.00000
4.00000 7.03349 4.00000
4.00000 7.03348 4.00000
4.00000 7.03348 4.00000
4.00126 7.05556 4.00126
4.00560 7.13305 4.00560
4.00988 7.21080 4.00988
4.01410 7.28876 4.01410
4.01828 7.36686 4.01828
4.02245 7.44507 4.02245
4.02661 7.52334 4.02661
4.03079 7.60161 4.03079
4.03499 7.67984 4.03499
4.03925 7.75797 4.03925
4.04359 7.83593 4.04359
4.04801 7.91368 4.04801
4.05257 7.99112 4.05257
4.05727 8.06819 4.05727
4.06216 8.14480 4.06216
4.06728 8.22083 4.06728
4.07267 8.29618 4.07267
4.07839 8.37069 4.07839
4.08450 8.44419 4.08450
4.09108 8.51650 4.09108
4.09822 8.58737 4.09822
4.10604 8.65652 4.10604
4.11458 8.72384 4.11458
4.12379 8.78950 4.12379
4.13371 8.85345 4.13371
4.14436 8.91560 4.14436
4.15579 8.97591 4.15578
4.16801 9.03432 4.16801
4.18105 9.09083 4.18105
4.19492 9.14542 4.19492
4.20964 9.19809 4.20964
4.22520 9.24888 4.22520
4.24160 9.29781 4.24160
4.25883 9.34494 4.25883
4.27687 9.39035 4.27687
4.29570 9.43409 4.29570
4.31530 9.47624 4.31530
4.33564 9.51689 4.33564
4.35669 9.55611 4.35669
4.37843 9.59397 4.37844
4.40084 9.63054 4.40084
4.42389 9.66585 4.42390
4.44759 9.69995 4.44759
4.47193 9.73280 4.47193
4.49694 9.76436 4.49694
4.52268 9.79447 4.52268
4.54929 9.82286 4.54929
4.57699 9.84897 4.57700
4.60624 9.87180 4.60624
4.63788 9.88941 4.63788
4.67350 9.89822 4.67350
7.86043 7.36553 4.01821
7.99263 7.32089 4.01582
8.11644 7.28458 4.01387
8.23413 7.25438 4.01224
8.34714 7.22885 4.01086
8.45648 7.20700 4.00967
8.56286 7.18811 4.00864
8.66682 7.17167 4.00773
8.76875 7.15728 4.00694
8.86899 7.14460 4.00624
8.96779 7.13339 4.00562
9.06536 7.12344 4.00507
9.16186 7.11458 4.00457
9.25744 7.10668 4.00413
9.35222 7.09961 4.00374
9.44630 7.09327 4.00338
9.53977 7.08758 4.00306
9.63270 7.08246 4.00278
9.72515 7.07785 4.00252
9.81718 7.07370 4.00228
9.90884 7.06995 4.00207
10.00017 7.06656 4.00188
10.09121 7.06350 4.00171
10.18199 7.06073 4.00155
10.27254 7.05822 4.00141
10.36289 7.05595 4.00128
10.45306 7.05389 4.00116
10.54307 7.05203 4.00106
10.63294 7.05033 4.00096
10.72268 7.04880 4.00087
10.81232 7.04740 4.00079
10.90186 7.04614 4.00072
10.99131 7.04499 4.00066
11.08069 7.04394 4.00060
11.17001 7.04300 4.00054
11.25926 7.04213 4.00049
11.34847 7.04135 4.00045
11.43763 7.04064 4.00041
11.52676 7.03999 4.00037
11.61585 7.03940 4.00034
11.70493 7.03886 4.00031
11.79398 7.03838 4.00028
11.88301 7.03794 4.00025
11.97203 7.03753 4.00023
12.06104 7.03717 4.00021
12.15004 7.03683 4.00019
12.23903 7.03653 4.00017
12.32803 7.03626 4.00016
12.41702 7.03600 4.00014
12.50601 7.03578 4.00013
12.59501 7.03557 4.00012
12.68401 7.03538 4.00011
12.77302 7.03521 4.00010
12.86203 7.03505 4.00009
12.95105 7.03491 4.00008
13.04008 7.03478 4.00007
13.12912 7.03466 4.00007
13.21817 7.03456 4.00006
13.30723 7.03446 4.00006
13.39630 7.03437 4.00005
13.48538 7.03429 4.00005
13.57447 7.03422 4.00004
13.66358 7.03415 4.00004
13.75270 7.03409 4.00004
13.84183 7.03403 4.00003
13.93098 7.03398 4.00003
14.02014 7.03394 4.00003
14.10931 7.03390 4.00002
14.19849 7.03386 4.00002
14.28769 7.03382 4.00002
14.37690 7.03379 4.00002
14.46613 7.03377 4.00002
14.55537 7.03374 4.00001
14.64462 7.03372 4.00001
14.73388 7.03369 4.00001
14.82316 7.03368 4.00001
14.91245 7.03366 4.00001
15.00176 7.03364 4.00001
15.09107 7.03363 4.00001
15.18040 7.03361 4.00001
15.26975 7.03360 4.00001
15.35910 7.03359 4.00001
15.44847 7.03358 4.00001
15.53785 7.03357 4.00001
15.62724 7.03356 4.00000
15.71665 7.03356 4.00000
15.80606 7.03355 4.00000
15.89549 7.03354 4.00000
15.98493 7.03354 4.00000
16.07438 7.03353 4.00000
16.16385 7.03353 4.00000
16.25332 7.03352 4.00000
16.34280 7.03352 4.00000
16.43230 7.03352 4.00000
16.52181 7.03351 4.00000
16.61132 7.03351 4.00000
16.70085 7.03351 4.00000
16.79039 7.03350 4.00000
16.87994 7.03350 4.00000
16.96950 7.03350 4.00000
17.05906 7.03350 4.00000
17.14864 7.03350 4.00000
17.23823 7.03349 4.00000
17.32783 7.03349 4.00000
17.41743 7.03349 4.00000
17.50705 7.03349 4.00000
17.59667 7.03349 4.00000
17.68631 7.03349 4.00000
17.77595 7.03349 4.00000
17.86560 7.03349 4.00000
17.95526 7.03349 4.00000
18.04493 7.03349 4.00000
18.13461 7.03349 4.00000
18.22429 7.03348 4.00000
18.31399 7.03348 4.00000
18.40369 7.03348 4.00000
18.49340 7.03348 4.00000
18.58311 7.03348 4.00000
18.67284 7.03348 4.00000
18.76257 7.03348 4.00000
18.85232 7.03348 4.00000
18.94206 7.03348 4.00000
19.03182 7.03348 4.00000
19.12158 7.03348 4.00000
19.21135 7.03348 4.00000
19.30112 7.03348 4.00000
19.39091 7.03348 4.00000
19.48070 7.03347 4.00000
19.57050 7.03347 4.00000
19.66029 7.03348 4.00000
19.75011 7.03347 4.00000
19.83992 7.03348 4.00000
19.92975 7.03347 4.00000
20.01957 7.03348 4.00000
20.10942 7.03347 4.00000
20.19926 7.03348 4.00000
20.28911 7.03347 4.00000
20.37896 7.03348 4.00000
20.46882 7.03348 4.00000
20.55869 7.03348 4.00000
20.64856 7.03348 4.00000
20.73844 7.03348 4.00000
20.82833 7.03348 4.00000
20.91822 7.03348 4.00000
21.00812 7.03348 4.00000
21.09802 7.03348 4.00000
21.18793 7.03348 4.00000
21.27784 7.03348 4.00000
21.36776 7.03348 4.00000
21.45769 7.03348 4.00000
21.54763 7.03348 4.00000
21.63756 7.03348 4.00000
21.72750 7.03348 4.00000
21.81744 7.03348 4.00000
21.90738 7.03348 4.00000
21.99734 7.03348 4.00000
22.08729 7.03348 4.00000
22.17725 7.03348 4.00000
22.26723 7.03348 4.00000
22.35720 7.03348 4.00000
22.44718 7.03347 4.00000
22.53715 7.03348 4.00000
22.62714 7.03348 4.00000
22.71713 7.03348 4.00000
22.80713 7.03348 4.00000
22.89713 7.03348 4.00000
22.98714 7.03348 4.00000
23.07715 7.03348 4.00000
23.16716 7.03348 4.00000
23.25718 7.03348 4.00000
23.34721 7.03348 4.00000
23.43723 7.03348 4.00000
23.52726 7.03348 4.00000
23.61730 7.03348 4.00000
23.70733 7.03348 4.00000
23.79738 7.03348 4.00000
23.88742 7.03348 4.00000
23.97747 7.03348 4.00000
24.06752 7.03348 4.00000
24.15758 7.03348 4.00000
24.24764 7.03348 4.00000
24.33770 7.03348 4.00000
24.42777 7.03348 4.00000
24.51784 7.03348 4.00000
24.60791 7.03348 4.00000
24.69799 7.03347 4.00000
24.78807 7.03348 4.00000
24.87815 7.03348 4.00000
24.96824 7.03348 4.00000
25.05833 7.03347 4.00000
25.14842 7.03348 4.00000
25.23852 7.03348 4.00000
25.32862 7.03348 4.00000
25.41873 7.03348 4.00000
25.50883 7.03348 4.00000
25.59894 7.03348 4.00000
25.68905 7.03349 4.00000
25.77917 7.03348 4.00000
25.86928 7.03348 4.00000
25.95941 7.03348 4.00000
26.04954 7.03348 4.00000
26.13967 7.03348 4.00000
26.22981 7.03348 4.00000
26.31995 7.03348 4.00000
26.41009 7.03348 4.00000
26.50023 7.03348 4.00000
26.59037 7.03348 4.00000
26.68052 7.03348 4.00000
26.77067 7.03348 4.00000
26.86082 7.03348 4.00000
26.95098 7.03348 4.00000
27.04113 7.03348 4.00000
27.13129 7.03348 4.00000
27.22144 7.03348 4.00000
27.31161 7.03348 4.00000
27.40176 7.03349 4.00000
27.49193 7.03349 4.00000
27.58210 7.03349 4.00000
27.67228 7.03349 4.00000
27.76246 7.03349 4.00000
27.85265 7.03348 4.00000
27.94284 7.03348 4.00000
28.03301 7.03348 4.00000
28.12319 7.03348 4.00000
28.21337 7.03348 4.00000
28.30356 7.03348 4.00000
28.39374 7.03348 4.00000
28.48393 7.03348 4.00000
28.57412 7.03348 4.00000
28.66432 7.03348 4.00000
28.75452 7.03348 4.00000
28.84472 7.03348 4.00000
28.93492 7.03348 4.00000
29.02513 7.03348 4.00000
29.11533 7.03348 4.00000
29.20554 7.03348 4.00000

Angle 0.161334 5.601987

4.00000 7.03348 4.00000
4.00000 7.03348 4.00000
4.00000 7.03348 4.00000
4.00000 7.03348 4.00000
4.00000 7.03348 4.00000
4.00000 7.03348 4.00000
4.00000 7.03348 4.00000
4.00000 7.03348 4.00000
4.00000 7.03348 4.00000
4.00000 7.03348 4.00000
4.00000 7.03348 4.00000
4.00000 7.03348 4.00000
4.00000 7.03348 4.00000
4.00000 7.03348 4.00000
4.00000 7.03348 4.00000
4.00000 7.03348 4.00000
4.00000 7.03348 4.00000
4.00000 7.03348 4.00000
4.00000 7.03349 4.00000
4.00000 7.03349 4.00000
4.00000 7.03348 4.00000
4.00000 7.03348 4.00000
4.00000 7.03348 4.00000
4.00000 7.03348 4.00000
4.00000 7.03348 4.00000
4.00000 7.03348 4.00000
4.00000 7.03348 4.00000
4.00000 7.03348 4.00000
4.00000 7.03348 4.00000
4.00000 7.03348 4.00000
4.00000 7.03348 4.00000
4.00000 7.03349 4.00000
4.00000 7.03348 4.00000
4.00000 7.03350 4.00000
4.00000 7.03348 4.00000
4.00000 7.03348 4.00000
4.00000 7.03348 4.00000
4.00000 7.03348 4.00000
4.00000 7.03348 4.00000
4.00000 7.03348 4.00000
4.00000 7.03348 4.00000
4.00000 7.03348 4.00000
4.00000 7.03349 4.00000
4.00000 7.03348 4.00000
4.00000 7.03352 4.00000
4.00000 7.03348 4.00000
4.00000 7.03348 4.00000
4.00000 7.03348 4.00000
4.00000 7.03348 4.00000
4.00000 7.03348 4.00000
4.00000 7.03348 4.00000
4.00000 7.03348 4.00000
4.00000 7.03348 4.00000
4.00000 7.03348 4.00000
4.00000 7.03348 4.00000
4.00000 7.03348 4.00000
4.00000 7.03348 4.00000
4.00000 7.03348 4.00000
4.00000 7.03348 4.00000
4.00000 7.03348 4.00000
4.00000 7.03349 4.00000
4.00000 7.03349 4.00000
4.00000 7.03348 4.00000
4.00000 7.03348 4.00000
4.00000 7.03348 4.00000
4.00000 7.03348 4.00000
4.00000 7.03348 4.00000
4.00000 7.03349 4.00000
4.00000 7.03348 4.00000
4.00000 7.03349 4.00000
4.00000 7.03348 4.00000
4.00000 7.03349 4.00000
4.00331 7.09192 4.00331
4.00761 7.16941 4.00761
4.01185 7.24714 4.01185
4.01605 7.32505 4.01605
4.02022 7.40308 4.02022
4.02437 7.48121 4.02437
4.02853 7.55937 4.02853
4.03271 7.63751 4.03271
4.03693 7.71558 4.03693
4.04122 7.79353 4.04122
4.04558 7.87129 4.04558
4.05006 7.94880 4.05006
4.05467 8.02598 4.05467
4.05945 8.10274 4.05945
4.06443 8.17900 4.06443
4.06966 8.25464 4.06966
4.07518 8.32953 4.07518
4.08106 8.40352 4.08105
4.08735 8.47642 4.08736
4.09416 8.54804 4.09416
4.10158 8.61809 4.10158
4.10972 8.68632 4.10971
4.11854 8.75284 4.11854
4.12804 8.81768 4.12804
4.13826 8.88077 4.13826
4.14923 8.94205 4.14923
4.16098 9.00147 4.16099
4.17354 9.05900 4.17354
4.18693 9.11461 4.18693
4.20115 9.16831 4.20115
4.21621 9.22011 4.21621
4.23211 9.27004 4.23211
4.24885 9.31814 4.24885
4.26641 9.36448 4.26641
4.28477 9.40912 4.28477
4.30391 9.45213 4.30391
4.32380 9.49360 4.32380
4.34442 9.53359 4.34442
4.36575 9.57219 4.36575
4.38775 9.60946 4.38775
4.41041 9.64546 4.41041
4.43371 9.68023 4.43371
4.45764 9.71378 4.45764
4.48223 9.74607 4.48224
4.50751 9.77703 4.50751
4.53357 9.80644 4.53357
4.56056 9.83395 4.56057
4.58881 9.85885 4.58880
4.61887 9.87982 4.61887
4.65187 9.89437 4.65187
4.01991 7.39727 7.77689
4.01718 7.34612 7.91556
4.01499 7.30525 8.04388
4.01318 7.27167 8.16488
4.01166 7.24354 8.28042
4.01036 7.21961 8.39175
4.00924 7.19905 8.49973
4.00826 7.18123 8.60498
4.00740 7.16566 8.70799
4.00665 7.15200 8.80913
4.00598 7.13995 8.90868
4.00539 7.12927 9.00688
4.00486 7.11979 9.10393
4.00439 7.11133 9.19997
4.00397 7.10378 9.29515
4.00359 7.09701 9.38956
4.00325 7.09095 9.48332
4.00295 7.08549 9.57649
4.00267 7.08059 9.66915
4.00242 7.07617 9.76136
4.00220 7.07218 9.85317
4.00199 7.06858 9.94462
4.00181 7.06533 10.03577
4.00164 7.06239 10.12664
4.00149 7.05973 10.21726
4.00136 7.05732 10.30766
4.00123 7.05513 10.39788
4.00112 7.05315 10.48792
4.00102 7.05135 10.57781
4.00092 7.04973 10.66757
4.00084 7.04825 10.75721
4.00076 7.04690 10.84674
4.00070 7.04568 10.93619
4.00063 7.04458 11.02555
4.00057 7.04357 11.11484
4.00052 7.04265 11.20407
4.00047 7.04183 11.29325
4.00043 7.04107 11.38238
4.00039 7.04039 11.47148
4.00036 7.03976 11.56053
4.00032 7.03920 11.64957
4.00029 7.03868 11.73857
4.00027 7.03821 11.82756
4.00024 7.03778 11.91653
4.00022 7.03739 12.00549
4.00020 7.03704 12.09444
4.00018 7.03672 12.18339
4.00017 7.03643 12.27233
4.00015 7.03616 12.36127
4.00014 7.03592 12.45021
4.00013 7.03569 12.53916
4.00011 7.03549 12.62811
4.00010 7.03532 12.71705
4.00010 7.03515 12.80601
4.00009 7.03500 12.89497
4.00008 7.03486 12.98395
4.00007 7.03473 13.07293
4.00006 7.03462 13.16192
4.00006 7.03452 13.25093
4.00005 7.03442 13.33994
4.00005 7.03434 13.42897
4.00004 7.03426 13.51801
4.00004 7.03419 13.60706
4.00004 7.03413 13.69613
4.00003 7.03406 13.78522
4.00003 7.03400 13.87431
4.00003 7.03396 13.96342
4.00003 7.03392 14.05252
4.00002 7.03388 14.14166
4.00002 7.03384 14.23081
4.00002 7.03381 14.31996
4.00002 7.03377 14.40914
4.00002 7.03375 14.49833
4.00001 7.03372 14.58753
4.00001 7.03370 14.67675
4.00001 7.03368 14.76597
4.00001 7.03367 14.85521
4.00001 7.03365 14.94447
4.00001 7.03364 15.03374
4.00001 7.03362 15.12303
4.00001 7.03361 15.21232
4.00001 7.03360 15.30164
4.00001 7.03359 15.39096
4.00001 7.03358 15.48029
4.00001 7.03357 15.56964
4.00000 7.03356 15.65900
4.00000 7.03355 15.74838
4.00000 7.03354 15.83777
4.00000 7.03354 15.92717
4.00000 7.03353 16.01658
4.00000 7.03353 16.10600
4.00000 7.03352 16.19544
4.00000 7.03352 16.28488
4.00000 7.03351 16.37434
4.00000 7.03351 16.46380
4.00000 7.03351 16.55328
4.00000 7.03351 16.64276
4.00000 7.03351 16.73226
4.00000 7.03350 16.82177
4.00000 7.03350 16.91129
4.00000 7.03350 17.00082
4.00000 7.03350 17.09035
4.00000 7.03350 17.17991
4.00000 7.03349 17.26948
4.00000 7.03349 17.35906
4.00000 7.03349 17.44864
4.00000 7.03349 17.53824
4.00000 7.03349 17.62785
4.00000 7.03349 17.71746
4.00000 7.03349 17.80708
4.00000 7.03349 17.89671
4.00000 7.03349 17.98636
4.00000 7.03349 18.07601
4.00000 7.03349 18.16566
4.00000 7.03348 18.25533
4.00000 7.03348 18.34501
4.00000 7.03348 18.43469
4.00000 7.03348 18.52438
4.00000 7.03348 18.61408
4.00000 7.03348 18.70379
4.00000 7.03348 18.79350
4.00000 7.03348 18.88322
4.00000 7.03348 18.97295
4.00000 7.03348 19.06269
4.00000 7.03348 19.15243
4.00000 7.03348 19.24218
4.00000 7.03348 19.33194
4.00000 7.03348 19.42170
4.00000 7.03348 19.51146
4.00000 7.03348 19.60124
4.00000 7.03348 19.69102
4.00000 7.03348 19.78083
4.00000 7.03348 19.87063
4.00000 7.03348 19.96043
4.00000 7.03348 20.05024
4.00000 7.03348 20.14006
4.00000 7.03348 20.22988
4.00000 7.03348 20.31972
4.00000 7.03349 20.40955
4.00000 7.03348 20.49940
4.00000 7.03347 20.58926
4.00000 7.03348 20.67912
4.00000 7.03348 20.76898
4.00000 7.03348 20.85886
4.00000 7.03348 20.94874
4.00000 7.03348 21.03863
4.00000 7.03348 21.12852
4.00000 7.03348 21.21841
4.00000 7.03348 21.30832
4.00000 7.03348 21.39822
4.00000 7.03348 21.48813
4.00000 7.03348 21.57805
4.00000 7.03348 21.66797
4.00000 7.03348 21.75789
4.00000 7.03348 21.84781
4.00000 7.03348 21.93775
4.00000 7.03348 22.02767
4.00000 7.03348 22.11762
4.00000 7.03348 22.20755
4.00000 7.03348 22.29751
4.00000 7.03348 22.38745
4.00000 7.03348 22.47741
4.00000 7.03348 22.56736
4.00000 7.03348 22.65732
4.00000 7.03348 22.74729
4.00000 7.03348 22.83726
4.00000 7.03348 22.92723
4.00000 7.03348 23.01721
4.00000 7.03348 23.10719
4.00000 7.03348 23.19718
4.00000 7.03348 23.28717
4.00000 7.03348 23.37716
4.00000 7.03348 23.46716
4.00000 7.03348 23.55717
4.00000 7.03348 23.64718
4.00000 7.03348 23.73719
4.00000 7.03348 23.82721
4.00000 7.03348 23.91723
4.00000 7.03348 24.00726
4.00000 7.03348 24.09729
4.00000 7.03348 24.18732
4.00000 7.03348 24.27736
4.00000 7.03348 24.36740
4.00000 7.03348 24.45744
4.00000 7.03348 24.54749
4.00000 7.03348 24.63754
4.00000 7.03348 24.72759
4.00000 7.03348 24.81765
4.00000 7.03348 24.90771
4.00000 7.03348 24.99777
4.00000 7.03348 25.08784
4.00000 7.03348 25.17791
4.00000 7.03348 25.26798
4.00000 7.03348 25.35806
4.00000 7.03348 25.44814
4.00000 7.03348 25.53822
4.00000 7.03348 25.62830
4.00000 7.03348 25.71839
4.00000 7.03349 25.80849
4.00000 7.03349 25.89859
4.00000 7.03349 25.98870
4.00000 7.03349 26.07881
4.00000 7.03349 26.16893
4.00000 7.03349 26.25905
4.00000 7.03349 26.34917
4.00000 7.03348 26.43930
4.00000 7.03348 26.52941
4.00000 7.03348 26.61953
4.00000 7.03348 26.70966
4.00000 7.03348 26.79979
4.00000 7.03348 26.88992
4.00000 7.03348 26.98005
4.00000 7.03348 27.07019
4.00000 7.03348 27.16032
4.00000 7.03348 27.25046
4.00000 7.03347 27.34060
4.00000 7.03348 27.43073
4.00000 7.03348 27.52088
4.00000 7.03348 27.61103
4.00000 7.03348 27.70117
4.00000 7.03348 27.79132
4.00000 7.03348 27.88147
4.00000 7.03348 27.97163
4.00000 7.03348 28.06179
4.00000 7.03348 28.15194
4.00000 7.03347 28.24210
4.00000 7.03348 28.33226
4.00000 7.03348 28.42243
4.00000 7.03348 28.51259
4.00000 7.03348 28.60277
4.00000 7.03347 28.69294
4.00000 7.03348 28.78311
4.00000 7.03348 28.87328
4.00000 7.03348 28.96347
4.00000 7.03348 29.05364
4.00000 7.03348 29.14383
4.00000 7.03348 29.23402
4.00000 7.03348 29.32421
4.00000 7.03348 29.41440
4.00000 7.03348 29.50460
4.00000 7.03348 29.59479
4.00000 7.03348 29.68499
4.00000 7.03348 29.77519
4.00000 7.03348 29.86539
4.00000 7.03348 29.95559
4.00000 7.03348 30.04580
4.00000 7.03348 30.13601
4.00000 7.03348 30.22621
4.00000 7.03348 30.31642
4.00000 7.03348 30.40664
4.00000 7.03348 30.49685
4.00000 7.03348 30.58706
4.00000 7.03348 30.67728
4.00000 7.03348 30.76750
4.00000 7.03348 30.85772
4.00000 7.03348 30.94794
4.00000 7.03348 31.03816
4.00000 7.03348 31.12839
4.00000 7.03348 31.21861
4.00000 7.03348 31.30884
4.00000 7.03348 31.39907
4.00000 7.03347 31.48930
4.00000 7.03348 31.57952
4.00000 7.03348 31.66976
4.00000 7.03348 31.75999
4.00000 7.03348 31.85023
4.00000 7.03348 31.94047
4.00000 7.03348 32.03071
4.00000 7.03348 32.12095
4.00000 7.03348 32.21120
4.00000 7.03348 32.30144
4.00000 7.03348 32.39169
4.00000 7.03348 32.48194
4.00000 7.03348 32.57219
4.00000 7.03348 32.66245
4.00000 7.03348 32.75270
4.00000 7.03348 32.84296
4.00000 7.03348 32.93322

Angle 0.729839 2.775395

4.05243 8.17244 4.05073
4.04965 8.12250 4.04797
4.04697 8.07279 4.04532
4.04438 8.02333 4.04277
4.04188 7.97418 4.04031
4.03946 7.92536 4.03793
4.03710 7.87692 4.03562
4.03482 7.82889 4.03338
4.03259 7.78130 4.03121
4.03043 7.73419 4.02909
4.02832 7.68759 4.02703
4.02625 7.64154 4.02502
4.02424 7.59606 4.02306
4.02227 7.55118 4.02115
4.02034 7.50696 4.01929
4.01845 7.46341 4.01747
4.01660 7.42058 4.01569
4.01480 7.37848 4.01395
4.01303 7.33717 4.01226
4.01130 7.29669 4.01061
4.00960 7.25707 4.00900
4.00795 7.21832 4.00743
4.00633 7.18055 4.00590
4.00475 7.14375 4.00442
4.00322 7.10799 4.00298
4.00172 7.07332 4.00159
4.00027 7.03977 4.00025
4.00000 7.03347 4.00000
4.00000 7.03348 4.00000
4.00000 7.03349 4.00000
4.00000 7.03348 4.00000
4.00000 7.03348 4.00000
4.00000 7.03346 4.00000
4.00000 7.03348 4.00000
4.00000 7.03348 4.00000
4.00000 7.03348 4.00000
4.00000 7.03347 4.00000
4.00000 7.03348 4.00000
4.00000 7.03348 4.00000
4.00000 7.03348 4.00000
4.00000 7.03348 4.00000
4.00000 7.03348 4.00000
4.00000 7.03348 4.00000
4.00000 7.03348 4.00000
4.00000 7.03348 4.00000
4.00000 7.03348 4.00000
4.00000 7.03348 4.00000
4.00000 7.03348 4.00000
4.00000 7.03348 4.00000
4.00000 7.03348 4.00000
4.00000 7.03348 4.00000
4.00000 7.03349 4.00000
4.00000 7.03348 4.00000
4.00000 7.03348 4.00000
4.00000 7.03348 4.00000
4.00000 7.03347 4.00000
4.00000 7.03348 4.00000
4.00000 7.03348 4.00000
4.00000 7.03348 4.00000
4.00000 7.03348 4.00000
4.00000 7.03348 4.00000
4.00000 7.03348 4.00000
4.00000 7.03348 4.00000
4.00000 7.03348 4.00000
4.00000 7.03348 4.00000
4.00000 7.03348 4.00000
4.00000 7.03348 4.00000
4.00000 7.03348 4.00000
4.00000 7.03348 4.00000
4.00000 7.03349 4.00000
4.00000 7.03348 4.00000
4.00000 7.03348 4.00000
4.00000 7.03348 4.00000
4.00000 7.03348 4.00000
4.00000 7.03348 4.00000
4.00000 7.03348 4.00000
4.00000 7.03348 4.00000
4.00000 7.03348 4.00000
4.00000 7.03347 4.00000
4.00000 7.03348 4.00000
4.00000 7.03348 4.00000
4.00000 7.03348 4.00000
4.00000 7.03348 4.00000
4.00000 7.03348 4.00000
4.00000 7.03348 4.00000
4.00000 7.03348 4.00000
4.00000 7.03348 4.00000
4.00000 7.03348 4.00000
4.00000 7.03348 4.00000
4.00000 7.03348 4.00000
4.00000 7.03348 4.00000
4.00000 7.03348 4.00000
4.00000 7.03348 4.00000
4.00000 7.03348 4.00000
4.00000 7.03349 4.00000
4.00000 7.03349 4.00000
4.00000 7.03348 4.00000
4.00000 7.03348 4.00000
4.00000 7.03348 4.00000
4.00000 7.03348 4.00000
4.00000 7.03348 4.00000
4.00000 7.03348 4.00000
4.00000 7.03348 4.00000
4.00000 7.03348 4.00000
4.00000 7.03348 4.00000
4.00000 7.03348 4.00000
4.00000 7.03348 4.00000
4.00000 7.03348 4.00000
4.00000 7.03348 4.00000
4.00000 7.03348 4.00000
4.00000 7.03348 4.00000
4.00000 7.03348 4.00000
4.00000 7.03348 4.00000
4.00000 7.03348 4.00000
4.00000 7.03348 4.00000
4.00000 7.03348 4.00000
4.00000 7.03348 4.00000
4.00000 7.03348 4.00000
4.00000 7.03348 4.00000
4.00000 7.03348 4.00000
4.00000 7.03348 4.00000
4.00000 7.03348 4.00000
4.00000 7.03348 4.00000
4.00000 7.03348 4.00000
4.00000 7.03348 4.00000
4.00000 7.03348 4.00000
4.00000 7.03348 4.00000
4.00000 7.03348 4.00000
4.00000 7.03348 4.00000
4.00000 7.03348 4.00000
4.00000 7.03348 4.00000
4.00000 7.03348 4.00000
4.00000 7.03350 4.00000
4.00000 7.03348 4.00000
4.00000 7.03348 4.00000
4.00000 7.03349 4.00000
4.00000 7.03348 4.00000
4.00000 7.03348 4.00000
4.00000 7.03348 4.00000
4.00000 7.03348 4.00000
4.00000 7.03347 4.00000
4.00000 7.03347 4.00000
4.00000 7.03347 4.00000
4.00000 7.03347 4.00000
4.00000 7.03348 4.00000
4.00000 7.03348 4.00000
4.00000 7.03348 4.00000
4.00000 7.03348 4.00000
4.00000 7.03349 4.00000
4.00000 7.03348 4.00000
4.00000 7.03348 4.00000
4.00000 7.03349 4.00000
4.00000 7.03349 4.00000
4.00000 7.03349 4.00000
4.00000 7.03348 4.00000
4.00000 7.03348 4.00000
4.00000 7.03349 4.00000
4.00000 7.03348 4.00000
4.00000 7.03348 4.00000
4.00000 7.03348 4.00000
4.00000 7.03347 4.00000
4.00000 7.03348 4.00000
4.00000 7.03348 4.00000
4.00000 7.03348 4.00000
4.00000 7.03348 4.00000
4.00000 7.03349 4.00000
4.00000 7.03349 4.00000
4.00000 7.03348 4.00000
4.00000 7.03348 4.00000
4.00000 7.03348 4.00000
4.00000 7.03348 4.00000
4.00000 7.03347 4.00000
4.00000 7.03348 4.00000
4.00000 7.03348 4.00000
4.00000 7.03348 4.00000
4.00000 7.03347 4.00000
4.00000 7.03348 4.00000
4.00000 7.03348 4.00000
4.00000 7.03348 4.00000
4.00000 7.03348 4.00000
4.00000 7.03349 4.00000
4.00000 7.03349 4.00000
4.00000 7.03349 4.00000
4.00000 7.03348 4.00000
4.00000 7.03349 4.00000
4.00000 7.03349 4.00000
4.00000 7.03349 4.00000
4.00000 7.03348 4.00000
4.00000 7.03348 4.00000
4.00000 7.03348 4.00000
4.00000 7.03348 4.00000
4.00000 7.03348 4.00000
4.00000 7.03348 4.00000
4.00000 7.03348 4.00000
4.00000 7.03348 4.00000
4.00000 7.03348 4.00000
4.00000 7.03348 4.00000
4.00000 7.03348 4.00000
4.00000 7.03348 4.00000
4.00000 7.03348 4.00000
4.00000 7.03348 4.00000
4.00000 7.03348 4.00000
4.00000 7.03348 4.00000
4.00000 7.03348 4.00000
4.00000 7.03348 4.00000
4.00000 7.03348 4.00000
4.00000 7.03348 4.00000
4.00000 7.03348 4.00000
4.00000 7.03348 4.00000
4.00000 7.03348 4.00000
4.00000 7.03348 4.00000
4.00000 7.03348 4.00000
4.00000 7.03348 4.00000
4.00000 7.03348 4.00000
4.00000 7.03346 4.00000
4.00000 7.03348 4.00000
4.00000 7.03348 4.00000
4.00000 7.03349 4.00000
4.00000 7.03348 4.00000
4.00032 7.04095 4.00030
4.00178 7.07452 4.00164
4.00327 7.10926 4.00304
4.00481 7.14504 4.00447
4.00639 7.18187 4.00596
4.00800 7.21969 4.00748
4.00966 7.25844 4.00905
4.01135 7.29811 4.01067
4.01309 7.33862 4.01232
4.01486 7.37996 4.01402
4.01667 7.42208 4.01575
4.01852 7.46496 4.01753
4.02041 7.50851 4.01935
4.02233 7.55277 4.02122
4.02431 7.59766 4.02313
4.02632 7.64316 4.02509
4.02839 7.68923 4.02710
4.03050 7.73585 4.02916
4.03267 7.78297 4.03128
4.03490 7.83058 4.03346
4.03719 7.87862 4.03570
4.03954 7.92708 4.03801
4.04196 7.97591 4.04040
4.04447 8.02507 4.04286
4.04706 8.07454 4.04542
4.04974 8.12427 4.04807
4.05254 8.17421 4.05083
4.05544 8.22432 4.05370
4.05847 8.27455 4.05671
4.06165 8.32485 4.05986
4.06498 8.37516 4.06317
4.06850 8.42541 4.06667
4.07221 8.47553 4.07037
4.07616 8.52544 4.07431
4.08036 8.57506 4.07851
4.08485 8.62427 4.08301
4.08968 8.67297 4.08785
4.09484 8.72122 4.09302
4.10032 8.76907 4.09853
4.10614 8.81650 4.10439
4.11233 8.86346 4.11061
4.11888 8.90993 4.11723
4.12584 8.95587 4.12425
4.13321 9.00126 4.13171
4.14101 9.04606 4.13961
4.14926 9.09027 4.14797
4.15797 9.13385 4.15681
4.16716 9.17681 4.16615
4.17682 9.21913 4.17599
4.18698 9.26082 4.18633
4.19762 9.30190 4.19719
4.20874 9.34237 4.20855
4.22034 9.38226 4.22042
4.23241 9.42163 4.23278
4.24491 9.46052 4.24560
4.25783 9.49899 4.25887
4.27112 9.53714 4.27255
4.28475 9.57505 4.28659
4.29865 9.61285 4.30094
4.31275 9.65071 4.31552
4.32695 9.68882 4.33024
4.34114 9.72743 4.34497
4.35516 9.76688 4.35956
4.36879 9.80763 4.37376
4.38172 9.85036 4.38727
4.39350 9.89605 4.39960
4.40341 9.94635 4.40996
4.41018 10.00408 4.41699
4.41143 10.07470 4.41813
4.40642 10.15990 4.41261
4.39844 10.25220 4.40397
4.38744 10.35180 4.39219
4.37334 10.45900 4.37723
4.35604 10.57423 4.35902
4.33530 10.69832 4.33734
4.31057 10.83301 4.31166
4.28058 10.98214 4.28072
4.24191 11.15591 4.24107
4.17666 11.40800 4.17468
4.00000 13.19120 4.00000
4.00000 13.19120 4.00000
4.00000 13.19120 4.00000
4.00000 13.19120 4.00000
4.00000 13.19120 4.00000
4.00000 13.19120 4.00000
4.00000 13.19120 4.00000
4.00000 13.19120 4.00000
4.00000 13.19120 4.00000
4.00000 13.19120 4.00000
4.00000 13.19120 4.00000
4.00000 13.19120 4.00000
4.00000 13.19120 4.00000
4.00112 13.19428 4.00104
4.00851 13.21555 4.00793
4.01653 13.24083 4.01552
4.02494 13.27021 4.02356
4.03347 13.30384 4.03180
4.04186 13.34191 4.03995
4.04983 13.38467 4.04773
4.05709 13.43249 4.05484
4.06334 13.48585 4.06099
4.06827 13.54539 4.06583
4.07154 13.61185 4.06906
4.07415 13.68119 4.07163
4.07671 13.75090 4.07416
4.07925 13.82096 4.07666
4.08175 13.89133 4.07913
4.08423 13.96201 4.08158
4.08670 14.03296 4.08401
4.08914 14.10416 4.08643
4.09157 14.17561 4.08883
4.09399 14.24728 4.09122
4.09639 14.31916 4.09360
4.09879 14.39124 4.09597
4.10117 14.46352 4.09834
4.10356 14.53596 4.10070
4.10594 14.60858 4.10306
4.10832 14.68136 4.10542
4.11070 14.75429 4.10778
4.11308 14.82737 4.11013
4.11546 14.90058 4.11249
4.11784 14.97393 4.11486
4.12023 15.04740 4.11722
4.12257 15.12113 4.11955
4.12464 15.19590 4.12160
4.12638 15.27180 4.12333
4.12781 15.34880 4.12474
4.12893 15.42688 4.12585
4.12974 15.50601 4.12665
4.13026 15.58613 4.12716
4.13051 15.66722 4.12739
4.13048 15.74923 4.12735
4.13020 15.83211 4.12707
4.12968 15.91582 4.12654
4.12894 16.00031 4.12579
4.12799 16.08554 4.12483
4.12685 16.17144 4.12369
4.12554 16.25798 4.12238
4.12407 16.34511 4.12090
4.12246 16.43277 4.11929
4.12072 16.52093 4.11756
4.11888 16.60954 4.11572
4.11694 16.69855 4.11378
4.11491 16.78793 4.11176
4.11282 16.87763 4.10968
4.11067 16.96763 4.10754
4.10848 17.05788 4.10536
4.10625 17.14837 4.10314
4.10400 17.23905 4.10090
4.10172 17.32990 4.09864
4.09944 17.42090 4.09637
4.09716 17.51202 4.09411
4.09487 17.60324 4.09185
4.09260 17.69455 4.08960
4.09035 17.78593 4.08736
4.08811 17.87735 4.08515
4.08589 17.96882 4.08296
4.08371 18.06031 4.08080
4.08155 18.15181 4.07867
4.07942 18.24331 4.07657
4.07733 18.33481 4.07450
4.07527 18.42629 4.07248
4.07325 18.51776 4.07049
4.07126 18.60919 4.06853
4.06932 18.70059 4.06662
4.06742 18.79195 4.06475
4.06555 18.88328 4.06292
4.06373 18.97454 4.06114
4.06195 19.06576 4.05939
4.06021 19.15692 4.05769
4.05851 19.24803 4.05602
4.05685 19.33908 4.05440
4.05523 19.43007 4.05282
4.05365 19.52100 4.05128
4.05212 19.61187 4.04978
4.05062 19.70267 4.04831
4.04916 19.79341 4.04689
4.04773 19.88408 4.04551
4.04635 19.97469 4.04416
4.04500 20.06523 4.04285
4.04369 20.15571 4.04157

Angle 0.136536 6.005639

4.00000 7.03348 4.00000
4.00000 7.03346 4.00000
4.00001 7.03361 3.99999
4.00000 7.03348 4.00000
4.00000 7.03348 4.00000
4.00000 7.03348 4.00000
4.00000 7.03348 4.00000
4.00000 7.03348 4.00000
4.00000 7.03349 4.00000
4.00000 7.03348 4.00000
4.00000 7.03348 4.00000
4.00000 7.03348 4.00000
4.00000 7.03348 4.00000
4.00000 7.03348 4.00000
4.00000 7.03348 4.00000
4.00000 7.03348 4.00000
4.00000 7.03350 4.00000
4.00000 7.03351 4.00000
4.00000 7.03351 4.00000
4.00000 7.03351 4.00000
4.00000 7.03351 4.00000
4.00000 7.03348 4.00000
4.00000 7.03348 4.00000
4.00000 7.03348 4.00000
4.00000 7.03349 4.00000
4.00000 7.03349 4.00000
4.00000 7.03349 4.00000
4.00000 7.03349 4.00000
4.00000 7.03349 4.00000
4.00000 7.03348 4.00000
4.00000 7.03348 4.00000
4.00000 7.03348 4.00000
4.00000 7.03348 4.00000
4.00000 7.03348 4.00000
4.00000 7.03348 4.00000
4.00000 7.03349 4.00000
4.00000 7.03349 4.00000
4.00000 7.03350 4.00000
4.00000 7.03348 4.00000
4.00000 7.03348 4.00000
4.00000 7.03350 4.00000
4.00000 7.03348 4.00000
4.00000 7.03348 4.00000
4.00000 7.03347 4.00000
4.00000 7.03348 4.00000
4.00000 7.03348 4.00000
4.00000 7.03348 4.00000
4.00000 7.03348 4.00000
4.00000 7.03348 4.00000
4.00000 7.03348 4.00000
4.00000 7.03348 4.00000
4.00000 7.03348 4.00000
4.00000 7.03348 4.00000
4.00000 7.03348 4.00000
4.00000 7.03347 4.00000
4.00000 7.03348 4.00000
4.00000 7.03348 4.00000
4.00000 7.03348 4.00000
4.00000 7.03348 4.00000
4.00000 7.03348 4.00000
4.00000 7.03348 4.00000
4.00000 7.03348 4.00000
4.00000 7.03348 4.00000
4.00000 7.03348 4.00000
4.00000 7.03348 4.00000
4.00000 7.03348 4.00000
4.00000 7.03348 4.00000
4.00000 7.03348 4.00000
4.00000 7.03348 4.00000
4.00000 7.03348 4.00000
4.00000 7.03348 4.00000
4.00000 7.03348 4.00000
4.00000 7.03348 4.00000
4.00000 7.03348 4.00000
4.00022 7.03726 4.00022
4.00454 7.11393 4.00454
4.00879 7.19087 4.00879
4.01298 7.26804 4.01298
4.01714 7.34538 4.01714
4.02127 7.42284 4.02127
4.02539 7.50039 4.02539
4.02952 7.57796 4.02952
4.03368 7.65552 4.03368
4.03788 7.73300 4.03788
4.04215 7.81035 4.04215
4.04651 7.88751 4.04651
4.05098 7.96441 4.05098
4.05559 8.04098 4.05559
4.06037 8.11713 4.06037
4.06536 8.19277 4.06536
4.07060 8.26778 4.07060
4.07614 8.34203 4.07614
4.08204 8.41537 4.08204
4.08838 8.48762 4.08837
4.09522 8.55856 4.09522
4.10269 8.62793 4.10269
4.11088 8.69548 4.11088
4.11973 8.76137 4.11973
4.12926 8.82560 4.12927
4.13951 8.88809 4.13951
4.15051 8.94880 4.15051
4.16228 9.00767 4.16228
4.17485 9.06467 4.17485
4.18824 9.11977 4.18824
4.20245 9.17299 4.20245
4.21750 9.22434 4.21750
4.23339 9.27384 4.23339
4.25009 9.32155 4.25009
4.26761 9.36752 4.26761
4.28592 9.41181 4.28592
4.30501 9.45450 4.30501
4.32483 9.49567 4.32483
4.34538 9.53539 4.34538
4.36663 9.57373 4.36663
4.38854 9.61076 4.38854
4.41111 9.64654 4.41111
4.43431 9.68110 4.43431
4.45814 9.71445 4.45814
4.48262 9.74657 4.48262
4.50779 9.77735 4.50779
4.53373 9.80662 4.53373
4.56065 9.83398 4.56057
4.58871 9.85877 4.58871
4.61862 9.87968 4.61862
4.65143 9.89424 4.65143
4.01996 7.39826 7.77440
4.01723 7.34710 7.91269
4.01504 7.30622 8.04064
4.01323 7.27261 8.16128
4.01171 7.24444 8.27648
4.01040 7.22048 8.38746
4.00928 7.19988 8.49510
4.00830 7.18202 8.60002
4.00745 7.16642 8.70271
4.00669 7.15272 8.80352
4.00602 7.14063 8.90274
4.00543 7.12992 9.00062
4.00490 7.12040 9.09735
4.00442 7.11191 9.19307
4.00400 7.10432 9.28793
4.00362 7.09753 9.38203
4.00328 7.09143 9.47547
4.00297 7.08595 9.56833
4.00269 7.08102 9.66068
4.00244 7.07657 9.75258
4.00222 7.07256 9.84408
4.00201 7.06894 9.93523
4.00183 7.06566 10.02607
4.00166 7.06270 10.11664
4.00151 7.06001 10.20696
4.00137 7.05758 10.29707
4.00125 7.05538 10.38698
4.00113 7.05338 10.47673
4.00103 7.05158 10.56632
4.00094 7.04993 10.65578
4.00085 7.04844 10.74513
4.00077 7.04708 10.83437
4.00070 7.04585 10.92353
4.00064 7.04473 11.01260
4.00058 7.04372 11.10161
4.00053 7.04279 11.19056
4.00048 7.04195 11.27945
4.00044 7.04118 11.36830
4.00040 7.04049 11.45712
4.00036 7.03986 11.54590
4.00033 7.03929 11.63465
4.00030 7.03876 11.72339
4.00027 7.03829 11.81210
4.00025 7.03785 11.90080
4.00023 7.03745 11.98951
4.00021 7.03710 12.07818
4.00019 7.03678 12.16686
4.00017 7.03648 12.25554
4.00016 7.03621 12.34422
4.00014 7.03596 12.43290
4.00013 7.03574 12.52158
4.00012 7.03554 12.61027
4.00010 7.03536 12.69897
4.00010 7.03518 12.78768
4.00009 7.03503 12.87639
4.00008 7.03488 12.96512
4.00007 7.03476 13.05385
4.00007 7.03464 13.14261
4.00006 7.03453 13.23137
4.00005 7.03444 13.32014
4.00005 7.03435 13.40893
4.00005 7.03427 13.49774
4.00004 7.03420 13.58656
4.00004 7.03413 13.67539
4.00003 7.03407 13.76424
4.00003 7.03403 13.85309
4.00003 7.03397 13.94198
4.00003 7.03393 14.03086
4.00002 7.03388 14.11978
4.00002 7.03385 14.20870
4.00002 7.03382 14.29764
4.00002 7.03379 14.38660
4.00002 7.03375 14.47558
4.00001 7.03374 14.56455
4.00001 7.03370 14.65356
4.00001 7.03369 14.74250
4.00001 7.03367 14.83153
4.00001 7.03366 14.92057
4.00001 7.03364 15.00963
4.00001 7.03362 15.09870
4.00001 7.03361 15.18779
4.00001 7.03360 15.27689
4.00001 7.03359 15.36601
4.00001 7.03358 15.45514
4.00001 7.03357 15.54428
4.00000 7.03356 15.63344
4.00000 7.03356 15.72261
4.00000 7.03354 15.81181
4.00000 7.03354 15.90100
4.00000 7.03354 15.99022
4.00000 7.03353 16.07945
4.00000 7.03352 16.16869
4.00000 7.03353 16.25793
4.00000 7.03352 16.34721
4.00000 7.03351 16.43648
4.00000 7.03351 16.52578
4.00000 7.03350 16.61508
4.00000 7.03351 16.70439
4.00000 7.03350 16.79372
4.00000 7.03351 16.88306
4.00000 7.03350 16.97242
4.00000 7.03350 17.06177
4.00000 7.03350 17.15115
4.00000 7.03349 17.24055
4.00000 7.03349 17.32994
4.00000 7.03349 17.41935
4.00000 7.03349 17.50878
4.00000 7.03349 17.59821
4.00000 7.03349 17.68765
4.00000 7.03349 17.77711
4.00000 7.03349 17.86657
4.00000 7.03349 17.95604
4.00000 7.03349 18.04553
4.00000 7.03349 18.13502
4.00000 7.03348 18.22452
4.00000 7.03348 18.31404
4.00000 7.03348 18.40355
4.00000 7.03348 18.49308
4.00000 7.03348 18.58261
4.00000 7.03348 18.67216
4.00000 7.03348 18.76170
4.00000 7.03348 18.85127
4.00000 7.03348 18.94083
4.00000 7.03348 19.03040
4.00000 7.03348 19.11999
4.00000 7.03348 19.20958
4.00000 7.03348 19.29918
4.00000 7.03348 19.38878
4.00000 7.03348 19.47839
4.00000 7.03348 19.56801
4.00000 7.03348 19.65763
4.00000 7.03348 19.74727
4.00000 7.03348 19.83691
4.00000 7.03348 19.92656
4.00000 7.03348 20.01621
4.00000 7.03348 20.10587
4.00000 7.03348 20.19554
4.00000 7.03348 20.28522
4.00000 7.03348 20.37491
4.00000 7.03348 20.46460
4.00000 7.03348 20.55430
4.00000 7.03348 20.64400
4.00000 7.03348 20.73372
4.00000 7.03348 20.82344
4.00000 7.03348 20.91316
4.00000 7.03348 21.00289
4.00000 7.03348 21.09263
4.00000 7.03348 21.18237
4.00000 7.03348 21.27212
4.00000 7.03348 21.36187
4.00000 7.03348 21.45164
4.00000 7.03348 21.54140
4.00000 7.03348 21.63117
4.00000 7.03348 21.72095
4.00000 7.03348 21.81073
4.00000 7.03348 21.90052
4.00000 7.03348 21.99032
4.00000 7.03348 22.08012
4.00000 7.03348 22.16992
4.00000 7.03348 22.25973
4.00000 7.03348 22.34954
4.00000 7.03348 22.43936
4.00000 7.03349 22.52918
4.00000 7.03348 22.61904
4.00000 7.03348 22.70888
4.00000 7.03348 22.79872
4.00000 7.03349 22.88856
4.00000 7.03348 22.97843
4.00000 7.03348 23.06830
4.00000 7.03348 23.15817
4.00000 7.03348 23.24804
4.00000 7.03349 23.33791
4.00000 7.03348 23.42780
4.00000 7.03348 23.51768
4.00000 7.03348 23.60756
4.00000 7.03349 23.69745
4.00000 7.03349 23.78735
4.00000 7.03349 23.87725
4.00000 7.03348 23.96717
4.00000 7.03347 24.05708
4.00000 7.03348 24.14698
4.00000 7.03348 24.23690
4.00000 7.03348 24.32682
4.00000 7.03348 24.41674
4.00000 7.03348 24.50667
4.00000 7.03348 24.59661
4.00000 7.03348 24.68654
4.00000 7.03348 24.77648
4.00000 7.03348 24.86641
4.00000 7.03348 24.95636
4.00000 7.03348 25.04631
4.00000 7.03348 25.13626
4.00000 7.03348 25.22621
4.00000 7.03348 25.31617
4.00000 7.03348 25.40614
4.00000 7.03348 25.49611
4.00000 7.03348 25.58608
4.00000 7.03348 25.67605
4.00000 7.03348 25.76603
4.00000 7.03348 25.85602
4.00000 7.03348 25.94600
4.00000 7.03348 26.03599
4.00000 7.03348 26.12599
4.00000 7.03348 26.21598
4.00000 7.03348 26.30599
4.00000 7.03348 26.39599
4.00000 7.03348 26.48600
4.00000 7.03348 26.57601
4.00000 7.03348 26.66603
4.00000 7.03348 26.75605
4.00000 7.03348 26.84607
4.00000 7.03348 26.93610
4.00000 7.03348 27.02613
4.00000 7.03348 27.11616
4.00000 7.03348 27.20620
4.00000 7.03348 27.29624
4.00000 7.03348 27.38628
4.00000 7.03348 27.47633
4.00000 7.03348 27.56638
4.00000 7.03348 27.65643
4.00000 7.03348 27.74649
4.00000 7.03348 27.83655
4.00000 7.03348 27.92662
4.00000 7.03348 28.01669
4.00000 7.03348 28.10675
4.00000 7.03348 28.19682
4.00000 7.03348 28.28690
4.00000 7.03348 28.37699
4.00000 7.03348 28.46707
4.00000 7.03348 28.55716
4.00000 7.03348 28.64725
4.00000 7.03348 28.73734
4.00000 7.03348 28.82744
4.00000 7.03348 28.91754
4.00000 7.03348 29.00765
4.00000 7.03348 29.09775
4.00000 7.03348 29.18786
4.00000 7.03348 29.27798
4.00000 7.03348 29.36810
4.00000 7.03348 29.45822
4.00000 7.03348 29.54834
4.00000 7.03348 29.63847
4.00000 7.03348 29.72860
4.00000 7.03348 29.81873
4.00000 7.03348 29.90886
4.00000 7.03348 29.99900
4.00000 7.03348 30.08914
4.00000 7.03348 30.17928
4.00000 7.03348 30.26943
4.00000 7.03348 30.35957
4.00000 7.03348 30.44972
4.00000 7.03348 30.53986
4.00000 7.03348 30.63001
4.00000 7.03348 30.72017
4.00000 7.03348 30.81033
4.00000 7.03348 30.90049
4.00000 7.03348 30.99065
4.00000 7.03348 31.08081
4.00000 7.03348 31.17098
4.00000 7.03348 31.26115
4.00000 7.03348 31.35132
4.00000 7.03348 31.44149
4.00000 7.03348 31.53166
4.00000 7.03348 31.62184
4.00000 7.03348 31.71202
4.00000 7.03348 31.80220
4.00000 7.03348 31.89239
4.00000 7.03348 31.98257
4.00000 7.03348 32.07276
4.00000 7.03348 32.16295
4.00000 7.03348 32.25313
4.00000 7.03348 32.34333
4.00000 7.03348 32.43352
4.00000 7.03348 32.52372
4.00000 7.03348 32.61392

Angle 0.181720 3.612125

4.00000 7.03348 4.00000
4.00000 7.03348 4.00000
4.00000 7.03348 4.00000
4.00000 7.03348 4.00000
4.00000 7.03348 4.00000
4.00000 7.03348 4.00000
4.00000 7.03348 4.00000
4.00000 7.03348 4.00000
4.00000 7.03348 4.00000
4.00000 7.03348 4.00000
4.00000 7.03348 4.00000
4.00000 7.03348 4.00000
4.00000 7.03348 4.00000
4.00000 7.03348 4.00000
4.00000 7.03348 4.00000
4.00000 7.03348 4.00000
4.00000 7.03348 4.00000
4.00000 7.03348 4.00000
4.00000 7.03348 4.00000
4.00000 7.03348 4.00000
4.00000 7.03348 4.00000
4.00000 7.03348 4.00000
4.00000 7.03348 4.00000
4.00000 7.03349 4.00000
4.00000 7.03348 4.00000
4.00000 7.03348 4.00000
4.00000 7.03348 4.00000
4.00000 7.03348 4.00000
4.00000 7.03348 4.00000
4.00000 7.03348 4.00000
4.00000 7.03348 4.00000
4.00000 7.03348 4.00000
4.00000 7.03348 4.00000
4.00000 7.03348 4.00000
4.00000 7.03348 4.00000
4.00000 7.03348 4.00000
4.00000 7.03349 4.00000
4.00000 7.03348 4.00000
4.00000 7.03350 4.00000
4.00000 7.03348 4.00000
4.00000 7.03348 4.00000
4.00000 7.03348 4.00000
4.00000 7.03349 4.00000
4.00000 7.03348 4.00000
4.00000 7.03348 4.00000
4.00000 7.03348 4.00000
4.00000 7.03348 4.00000
4.00000 7.03348 4.00000
4.00000 7.03348 4.00000
4.00000 7.03348 4.00000
4.00000 7.03348 4.00000
4.00000 7.03348 4.00000
4.00000 7.03348 4.00000
4.00000 7.03349 4.00000
4.00000 7.03348 4.00000
4.00000 7.03348 4.00000
4.00000 7.03347 4.00000
4.00000 7.03348 4.00000
4.00000 7.03348 4.00000
4.00000 7.03348 4.00000
4.00000 7.03350 4.00000
4.00000 7.03348 4.00000
4.00000 7.03348 4.00000
4.00000 7.03348 4.00000
4.00000 7.03348 4.00000
4.00000 7.03348 4.00000
4.00000 7.03348 4.00000
4.00000 7.03348 4.00000
4.00000 7.03348 4.00000
4.00000 7.03347 4.00000
4.00000 7.03348 4.00000
4.00000 7.03348 4.00000
4.00000 7.03348 4.00000
4.00000 7.03348 4.00000
4.00000 7.03348 4.00000
4.00000 7.03348 4.00000
4.00000 7.03348 4.00000
4.00000 7.03348 4.00000
4.00000 7.03348 4.00000
4.00000 7.03348 4.00000
4.00000 7.03348 4.00000
4.00000 7.03348 4.00000
4.00000 7.03348 4.00000
4.00000 7.03351 4.00000
4.00000 7.03348 4.00000
4.00000 7.03348 4.00000
4.00000 7.03348 4.00000
4.00000 7.03347 4.00000
4.00000 7.03348 4.00000
4.00000 7.03348 4.00000
4.00000 7.03348 4.00000
4.00000 7.03348 4.00000
4.00000 7.03347 4.00000
4.00000 7.03348 4.00000
4.00000 7.03348 4.00000
4.00000 7.03348 4.00000
4.00000 7.03348 4.00000
4.00000 7.03348 4.00000
4.00000 7.03348 4.00000
4.00000 7.03348 4.00000
4.00000 7.03348 4.00000
4.00000 7.03348 4.00000
4.00000 7.03348 4.00000
4.00000 7.03348 4.00000
4.00000 7.03348 4.00000
4.00000 7.03348 4.00000
4.00000 7.03348 4.00000
4.00000 7.03347 4.00000
4.00000 7.03347 4.00000
4.00000 7.03349 4.00000
4.00000 7.03348 4.00000
4.00000 7.03348 4.00000
4.00000 7.03348 4.00000
4.00000 7.03347 4.00000
4.00000 7.03348 4.00000
4.00000 7.03348 4.00000
4.00000 7.03349 4.00000
4.00000 7.03348 4.00000
4.00000 7.03350 4.00000
4.00000 7.03348 4.00000
4.00000 7.03348 4.00000
4.00000 7.03348 4.00000
4.00000 7.03348 4.00000
4.00000 7.03348 4.00000
4.00000 7.03348 4.00000
4.00000 7.03348 4.00000
4.00000 7.03348 4.00000
4.00000 7.03346 4.00000
4.00000 7.03348 4.00000
4.00000 7.03347 4.00000
4.00000 7.03348 4.00000
4.00000 7.03347 4.00000
4.00000 7.03350 4.00000
4.00000 7.03348 4.00000
4.00000 7.03348 4.00000
4.00000 7.03348 4.00000
4.00000 7.03348 4.00000
4.00000 7.03347 4.00000
4.00000 7.03348 4.00000
4.00000 7.03348 4.00000
4.00000 7.03348 4.00000
4.00000 7.03348 4.00000
4.00000 7.03348 4.00000
4.00000 7.03348 4.00000
4.00000 7.03348 4.00000
4.00000 7.03348 4.00000
4.00000 7.03348 4.00000
4.00000 7.03348 4.00000
4.00000 7.03353 4.00000
4.00000 7.03348 4.00000
4.00000 7.03348 4.00000
4.00000 7.03348 4.00000
4.00000 7.03347 4.00000
4.00000 7.03349 4.00000
4.00000 7.03348 4.00000
4.00000 7.03348 4.00000
4.00000 7.03349 4.00000
4.00000 7.03348 4.00000
4.00000 7.03348 4.00000
4.00000 7.03346 4.00000
4.00000 7.03348 4.00000
4.00000 7.03342 4.00000
4.00000 7.03348 4.00000
4.00000 7.03348 4.00000
4.00000 7.03349 4.00000
4.00000 7.03348 4.00000
4.00000 7.03349 4.00000
4.00000 7.03348 4.00000
4.00000 7.03348 4.00000
4.00000 7.03348 4.00000
4.00000 7.03347 4.00000
4.00000 7.03347 4.00000
4.00000 7.03348 4.00000
4.00000 7.03348 4.00000
4.00000 7.03348 4.00000
4.00000 7.03348 4.00000
4.00000 7.03349 4.00000
4.00000 7.03348 4.00000
4.00000 7.03348 4.00000
4.00000 7.03348 4.00000
4.00000 7.03348 4.00000
4.00000 7.03348 4.00000
4.00000 7.03348 4.00000
4.00000 7.03348 4.00000
4.00000 7.03348 4.00000
4.00000 7.03348 4.00000
4.00000 7.03348 4.00000
4.00000 7.03348 4.00000
4.00000 7.03348 4.00000
4.00000 7.03348 4.00000
4.00000 7.03348 4.00000
4.00000 7.03348 4.00000
4.00000 7.03348 4.00000
4.00000 7.03348 4.00000
4.00000 7.03348 4.00000
4.00000 7.03348 4.00000
4.00000 7.03348 4.00000
4.00000 7.03348 4.00000
4.00000 7.03348 4.00000
4.00000 7.03348 4.00000
4.00000 7.03348 4.00000
4.00000 7.03348 4.00000
4.00000 7.03348 4.00000
4.00000 7.03348 4.00000
4.00000 7.03348 4.00000
4.00000 7.03348 4.00000
4.00000 7.03348 4.00000
4.00000 7.03348 4.00000
4.00000 7.03348 4.00000
4.00000 7.03348 4.00000
4.00000 7.03348 4.00000
4.00000 7.03348 4.00000
4.00000 7.03348 4.00000
4.00000 7.03348 4.00000
4.00000 7.03348 4.00000
4.00000 7.03348 4.00000
4.00000 7.03348 4.00000
4.00000 7.03348 4.00000
4.00000 7.03348 4.00000
4.00000 7.03348 4.00000
4.00000 7.03348 4.00000
4.00000 7.03348 4.00000
4.00000 7.03348 4.00000
4.00000 7.03347 4.00000
4.00000 7.03348 4.00000
4.00000 7.03348 4.00000
4.00000 7.03348 4.00000
4.00000 7.03348 4.00000
4.00000 7.03348 4.00000
4.00000 7.03348 4.00000
4.00000 7.03348 4.00000
4.00000 7.03348 4.00000
4.00000 7.03348 4.00000
4.00000 7.03348 4.00000
4.00000 7.03348 4.00000
4.00000 7.03348 4.00000
4.00000 7.03348 4.00000
4.00000 7.03348 4.00000
4.00000 7.03348 4.00000
4.00000 7.03348 4.00000
4.00000 7.03348 4.00000
4.00000 7.03348 4.00000
4.00000 7.03348 4.00000
4.00000 7.03348 4.00000
4.00000 7.03348 4.00000
4.00000 7.03348 4.00000
4.00000 7.03348 4.00000
4.00000 7.03348 4.00000
4.00000 7.03348 4.00000
4.00000 7.03348 4.00000
4.00000 7.03348 4.00000
4.00000 7.03348 4.00000
4.00000 7.03348 4.00000
4.00000 7.03348 4.00000
4.00000 7.03348 4.00000
4.00000 7.03348 4.00000
4.00000 7.03348 4.00000
4.00000 7.03348 4.00000
4.00000 7.03348 4.00000
4.00000 7.03348 4.00000
4.00000 7.03347 4.00000
4.00000 7.03348 4.00000
4.00000 7.03348 4.00000
4.00000 7.03348 4.00000
4.00000 7.03348 4.00000
4.00000 7.03348 4.00000
4.00000 7.03348 4.00000
4.00000 7.03348 4.00000
4.00000 7.03348 4.00000
4.00000 7.03348 4.00000
4.00000 7.03348 4.00000
4.00000 7.03348 4.00000
4.00000 7.03348 4.00000
4.00000 7.03348 4.00000
4.00000 7.03348 4.00000
4.00000 7.03348 4.00000
4.00000 7.03348 4.00000
4.00000 7.03348 4.00000
4.00000 7.03348 4.00000
4.00000 7.03349 4.00000
4.00000 7.03349 4.00000
4.00000 7.03346 4.00000
4.00000 7.03347 4.00000
4.00000 7.03348 4.00000
4.00000 7.03348 4.00000
4.00000 7.03348 4.00000
4.00000 7.03352 4.00000
4.00000 7.03349 4.00000
4.00433 7.11029 4.00433
4.00862 7.18782 4.00862
4.01285 7.26557 4.01285
4.01704 7.34349 4.01703
4.02120 7.42153 4.02120
4.02535 7.49964 4.02535
4.02951 7.57778 4.02951
4.03370 7.65589 4.03370
4.03793 7.73392 4.03793
4.04223 7.81181 4.04223
4.04662 7.88950 4.04662
4.05113 7.96692 4.05113
4.05577 8.04399 4.05577
4.06059 8.12062 4.06059
4.06563 8.19673 4.06563
4.07092 8.27219 4.07092
4.07652 8.34686 4.07652
4.08248 8.42060 4.08248
4.08889 8.49321 4.08889
4.09583 8.56447 4.09583
4.10340 8.63411 4.10340
4.11170 8.70190 4.11170
4.12068 8.76802 4.12068
4.13034 8.83244 4.13034
4.14073 8.89511 4.14073
4.15188 8.95595 4.15188
4.16381 9.01492 4.16381
4.17656 9.07200 4.17656
4.19013 9.12716 4.19013
4.20454 9.18040 4.20454
4.21979 9.23176 4.21979
4.23589 9.28125 4.23589
4.25281 9.32894 4.25281
4.27055 9.37487 4.27055
4.28909 9.41912 4.28909
4.30840 9.46176 4.30840
4.32846 9.50288 4.32846
4.34924 9.54254 4.34924
4.37072 9.58082 4.37072
4.39287 9.61779 4.39287
4.41567 9.65350 4.41567
4.43911 9.68799 4.43911
4.46319 9.72125 4.46319
4.48792 9.75324 4.48792
4.51337 9.78386 4.51337
4.53961 9.81288 4.53961
4.56685 9.83987 4.56685
4.59544 9.86402 4.59544
4.62604 9.88381 4.62604
4.65993 9.89635 4.65993
4.69921 9.89674 4.69941
7.94539 7.33608 4.01664
8.07180 7.29710 4.01455
8.19141 7.26489 4.01281
8.30589 7.23780 4.01135
8.41638 7.21471 4.01009
8.52367 7.19482 4.00900
8.62837 7.17754 4.00806
8.73092 7.16243 4.00723
8.83166 7.14916 4.00649
8.93087 7.13744 4.00584
9.02879 7.12705 4.00527
9.12559 7.11780 4.00475
9.22141 7.10956 4.00429
9.31638 7.10220 4.00388
9.41063 7.09560 4.00351
9.50424 7.08967 4.00318
9.59728 7.08435 4.00288
9.68982 7.07956 4.00261
9.78192 7.07524 4.00237
9.87363 7.07135 4.00215
9.96500 7.06783 4.00195
10.05607 7.06465 4.00177
10.14687 7.06177 4.00161
10.23743 7.05917 4.00146
10.32778 7.05681 4.00133
10.41794 7.05467 4.00121
10.50794 7.05273 4.00110
10.59778 7.05098 4.00100
10.68751 7.04938 4.00090
10.77711 7.04794 4.00082
10.86661 7.04662 4.00075
10.95602 7.04543 4.00068
11.04536 7.04435 4.00062
11.13463 7.04336 4.00056
11.22383 7.04247 4.00051
11.31299 7.04165 4.00047
11.40211 7.04091 4.00043
11.49118 7.04024 4.00039
11.58022 7.03963 4.00035
11.66923 7.03907 4.00032
11.75823 7.03856 4.00029
11.84720 7.03811 4.00027
11.93616 7.03769 4.00024
12.02511 7.03731 4.00022
12.11405 7.03697 4.00020
12.20298 7.03665 4.00018
12.29192 7.03637 4.00016
12.38085 7.03611 4.00015
12.46978 7.03587 4.00014
12.55871 7.03565 4.00012
12.64765 7.03546 4.00011
12.73659 7.03528 4.00010
12.82554 7.03511 4.00009
12.91450 7.03497 4.00009
13.00347 7.03483 4.00008
13.09245 7.03471 4.00007
13.18143 7.03460 4.00006
13.27043 7.03450 4.00006
13.35944 7.03441 4.00005
13.44846 7.03432 4.00005
13.53750 7.03424 4.00004

Angle 0.515873 4.042024

4.01419 7.29047 4.01419
4.01188 7.24769 4.01188
4.00958 7.20533 4.00958
4.00728 7.16340 4.00728
4.00498 7.12190 4.00498
4.00268 7.08085 4.00268
4.00039 7.04026 4.00039
4.00000 7.03348 4.00000
4.00000 7.03348 4.00000
4.00000 7.03349 4.00000
4.00000 7.03348 4.00000
4.00000 7.03348 4.00000
4.00000 7.03346 4.00000
4.00000 7.03346 4.00000
4.00000 7.03347 4.00000
4.00000 7.03348 4.00000
4.00000 7.03348 4.00000
4.00000 7.03348 4.00000
4.00000 7.03347 4.00000
4.00000 7.03347 4.00000
4.00000 7.03348 4.00000
4.00000 7.03348 4.00000
4.00000 7.03348 4.00000
4.00000 7.03348 4.00000
4.00000 7.03348 4.00000
4.00000 7.03348 4.00000
4.00000 7.03348 4.00000
4.00000 7.03348 4.00000
4.00000 7.03348 4.00000
4.00000 7.03348 4.00000
4.00000 7.03348 4.00000
4.00000 7.03348 4.00000
4.00000 7.03348 4.00000
4.00000 7.03348 4.00000
4.00000 7.03348 4.00000
4.00000 7.03348 4.00000
4.00000 7.03348 4.00000
4.00000 7.03348 4.00000
4.00000 7.03348 4.00000
4.00000 7.03348 4.00000
4.00000 7.03348 4.00000
4.00000 7.03348 4.00000
4.00000 7.03348 4.00000
4.00000 7.03348 4.00000
4.00000 7.03348 4.00000
4.00000 7.03348 4.00000
4.00000 7.03348 4.00000
4.00000 7.03348 4.00000
4.00000 7.03348 4.00000
4.00000 7.03348 4.00000
4.00000 7.03348 4.00000
4.00000 7.03348 4.00000
4.00000 7.03348 4.00000
4.00000 7.03348 4.00000
4.00000 7.03348 4.00000
4.00000 7.03348 4.00000
4.00000 7.03348 4.00000
4.00000 7.03348 4.00000
4.00000 7.03348 4.00000
4.00000 7.03348 4.00000
4.00000 7.03348 4.00000
4.00000 7.03348 4.00000
4.00000 7.03348 4.00000
4.00000 7.03348 4.00000
4.00000 7.03348 4.00000
4.00000 7.03348 4.00000
4.00000 7.03347 4.00000
4.00000 7.03348 4.00000
4.00000 7.03347 4.00000
4.00000 7.03348 4.00000
4.00000 7.03348 4.00000
4.00000 7.03348 4.00000
4.00000 7.03348 4.00000
4.00000 7.03348 4.00000
4.00000 7.03348 4.00000
4.00000 7.03348 4.00000
4.00000 7.03348 4.00000
4.00000 7.03348 4.00000
4.00000 7.03348 4.00000
4.00000 7.03348 4.00000
4.00000 7.03348 4.00000
4.00000 7.03348 4.00000
4.00000 7.03348 4.00000
4.00000 7.03348 4.00000
4.00000 7.03348 4.00000
4.00000 7.03348 4.00000
4.00000 7.03348 4.00000
4.00000 7.03348 4.00000
4.00000 7.03348 4.00000
4.00000 7.03348 4.00000
4.00000 7.03348 4.00000
4.00000 7.03348 4.00000
4.00000 7.03348 4.00000
4.00000 7.03348 4.00000
4.00000 7.03348 4.00000
4.00000 7.03348 4.00000
4.00000 7.03348 4.00000
4.00000 7.03348 4.00000
4.00000 7.03348 4.00000
4.00000 7.03348 4.00000
4.00000 7.03348 4.00000
4.00000 7.03348 4.00000
4.00000 7.03348 4.00000
4.00000 7.03348 4.00000
4.00000 7.03348 4.00000
4.00000 7.03348 4.00000
4.00000 7.03348 4.00000
4.00000 7.03348 4.00000
4.00000 7.03348 4.00000
4.00000 7.03348 4.00000
4.00000 7.03348 4.00000
4.00000 7.03348 4.00000
4.00000 7.03348 4.00000
4.00000 7.03348 4.00000
4.00000 7.03348 4.00000
4.00000 7.03348 4.00000
4.00000 7.03348 4.00000
4.00000 7.03348 4.00000
4.00000 7.03348 4.00000
4.00000 7.03348 4.00000
4.00000 7.03352 4.00000
4.00000 7.03348 4.00000
4.00000 7.03349 4.00000
4.00000 7.03349 4.00000
4.00000 7.03348 4.00000
4.00000 7.03348 4.00000
4.00000 7.03348 4.00000
4.00000 7.03348 4.00000
4.00000 7.03348 4.00000
4.00000 7.03348 4.00000
4.00000 7.03348 4.00000
4.00000 7.03348 4.00000
4.00000 7.03348 4.00000
4.00000 7.03348 4.00000
4.00000 7.03348 4.00000
4.00000 7.03348 4.00000
4.00000 7.03348 4.00000
4.00000 7.03349 4.00000
4.00000 7.03348 4.00000
4.00000 7.03349 4.00000
4.00000 7.03348 4.00000
4.00000 7.03348 4.00000
4.00000 7.03348 4.00000
4.00000 7.03348 4.00000
4.00000 7.03348 4.00000
4.00000 7.03348 4.00000
4.00000 7.03348 4.00000
4.00000 7.03348 4.00000
4.00000 7.03349 4.00000
4.00000 7.03349 4.00000
4.00000 7.03348 4.00000
4.00000 7.03350 4.00000
4.00000 7.03348 4.00000
4.00000 7.03348 4.00000
4.00000 7.03348 4.00000
4.00000 7.03348 4.00000
4.00000 7.03347 4.00000
4.00000 7.03347 4.00000
4.00000 7.03348 4.00000
4.00000 7.03348 4.00000
4.00000 7.03348 4.00000
4.00058 7.04360 4.00058
4.00288 7.08423 4.00287
4.00517 7.12532 4.00517
4.00747 7.16686 4.00747
4.00977 7.20883 4.00977
4.01207 7.25122 4.01207
4.01438 7.29403 4.01438
4.01670 7.33724 4.01670
4.01903 7.38085 4.01903
4.02137 7.42484 4.02137
4.02373 7.46919 4.02373
4.02611 7.51391 4.02611
4.02851 7.55897 4.02851
4.03093 7.60436 4.03093
4.03339 7.65007 4.03339
4.03587 7.69608 4.03587
4.03840 7.74237 4.03840
4.04096 7.78893 4.04096
4.04357 7.83575 4.04357
4.04624 7.88279 4.04624
4.04896 7.93005 4.04896
4.05175 7.97749 4.05175
4.05462 8.02510 4.05462
4.05756 8.07284 4.05756
4.06060 8.12069 4.06060
4.06374 8.16863 4.06374
4.06699 8.21660 4.06699
4.07037 8.26458 4.07037
4.07389 8.31251 4.07389
4.07757 8.36036 4.07757
4.08143 8.40807 4.08143
4.08549 8.45557 4.08549
4.08978 8.50280 4.08978
4.09433 8.54969 4.09433
4.09916 8.59613 4.09916
4.10432 8.64204 4.10432
4.10984 8.68733 4.10984
4.11569 8.73209 4.11569
4.12187 8.77632 4.12187
4.12839 8.81998 4.12839
4.13528 8.86303 4.13528
4.14255 8.90544 4.14255
4.15020 8.94719 4.15020
4.15826 8.98823 4.15827
4.16674 9.02855 4.16674
4.17565 9.06812 4.17565
4.18500 9.10693 4.18500
4.19480 9.14496 4.19480
4.20505 9.18220 4.20505
4.21577 9.21865 4.21577
4.22695 9.25430 4.22695
4.23859 9.28916 4.23859
4.25071 9.32323 4.25071
4.26329 9.35652 4.26329
4.27633 9.38905 4.27633
4.28983 9.42084 4.28984
4.30379 9.45189 4.30380
4.31820 9.48224 4.31820
4.33305 9.51189 4.33306
4.34834 9.54088 4.34834
4.36405 9.56922 4.36405
4.38019 9.59693 4.38019
4.39674 9.62402 4.39674
4.41370 9.65051 4.41370
4.43107 9.67641 4.43107
4.44885 9.70170 4.44885
4.46705 9.72639 4.46705
4.48568 9.75042 4.48568
4.50475 9.77376 4.50475
4.52433 9.79631 4.52433
4.54445 9.81792 4.54445
4.56523 9.83836 4.56523
4.58683 9.85726 4.58683
4.60953 9.87400 4.60952
4.63374 9.88759 4.63374
4.66021 9.89641 4.66020
7.77769 7.39695 4.01989
7.88596 7.35640 4.01773
7.98778 7.32241 4.01591
8.08477 7.29340 4.01435
8.17801 7.26830 4.01300
8.26829 7.24633 4.01181
8.35613 7.22695 4.01076
8.44197 7.20975 4.00982
8.52614 7.19438 4.00898
8.60891 7.18060 4.00822
8.69047 7.16819 4.00754
8.77101 7.15698 4.00692
8.85067 7.14681 4.00636
8.92957 7.13758 4.00585
9.00781 7.12918 4.00539
9.08547 7.12152 4.00496
9.16267 7.11451 4.00457
9.23942 7.10811 4.00421
9.31580 7.10224 4.00388
9.39186 7.09686 4.00358
9.46765 7.09192 4.00331
9.54319 7.08738 4.00305
9.61853 7.08321 4.00282
9.69370 7.07937 4.00260
9.76872 7.07584 4.00240
9.84364 7.07258 4.00222
9.91844 7.06957 4.00205
9.99317 7.06681 4.00189
10.06785 7.06425 4.00175
10.14246 7.06190 4.00162
10.21705 7.05973 4.00149
10.29163 7.05772 4.00138
10.36619 7.05587 4.00127
10.44077 7.05416 4.00118
10.51536 7.05258 4.00109
10.58997 7.05112 4.00100
10.66462 7.04978 4.00093
10.73930 7.04853 4.00086
10.81403 7.04738 4.00079
10.88881 7.04631 4.00073
10.96365 7.04533 4.00068
11.03855 7.04442 4.00062
11.11351 7.04359 4.00058
11.18854 7.04281 4.00053
11.26365 7.04210 4.00049
11.33883 7.04143 4.00045
11.41409 7.04082 4.00042
11.48943 7.04025 4.00039
11.56486 7.03973 4.00036
11.64038 7.03925 4.00033
11.71597 7.03880 4.00030
11.79166 7.03839 4.00028
11.86743 7.03801 4.00026
11.94330 7.03766 4.00024
12.01926 7.03734 4.00022
12.09532 7.03704 4.00021
12.17150 7.03675 4.00019
12.24778 7.03651 4.00018
12.32404 7.03627 4.00016
12.40051 7.03605 4.00015
12.47697 7.03585 4.00014
12.55361 7.03566 4.00013
12.63034 7.03549 4.00012
12.70720 7.03534 4.00011
12.78401 7.03519 4.00010
12.86102 7.03505 4.00009
12.93816 7.03493 4.00009
13.01534 7.03482 4.00008
13.09268 7.03471 4.00007
13.17013 7.03461 4.00007
13.24770 7.03453 4.00006
13.32500 7.03448 4.00006
13.40276 7.03437 4.00005
13.48058 7.03429 4.00005
13.55852 7.03423 4.00005
13.63655 7.03417 4.00004
13.71445 7.03415 4.00003
13.79268 7.03406 4.00003
13.87097 7.03402 4.00003
13.94936 7.03397 4.00003
14.02785 7.03393 4.00003
14.10643 7.03390 4.00003
14.18510 7.03386 4.00002
14.26385 7.03383 4.00002
14.34270 7.03381 4.00002
14.42163 7.03378 4.00002
14.50064 7.03375 4.00002
14.57974 7.03373 4.00002
14.65891 7.03371 4.00002
14.73816 7.03369 4.00001
14.81670 7.03368 4.00001
14.89611 7.03366 4.00001
14.97560 7.03365 4.00001
15.05517 7.03363 4.00001
15.13481 7.03362 4.00001
15.21452 7.03361 4.00001
15.29431 7.03360 4.00001
15.37418 7.03359 4.00001
15.45411 7.03358 4.00001
15.53412 7.03357 4.00001
15.61419 7.03356 4.00001
15.69434 7.03356 4.00001
15.77455 7.03355 4.00000
15.85483 7.03354 4.00000
15.93518 7.03354 4.00000
16.01560 7.03353 4.00000
16.09608 7.03353 4.00000
16.17663 7.03353 4.00000
16.25724 7.03352 4.00000
16.33792 7.03352 4.00000
16.41865 7.03352 4.00000
16.49946 7.03351 4.00000
16.58032 7.03351 4.00000
16.66125 7.03351 4.00000
16.74223 7.03350 4.00000
16.82328 7.03350 4.00000
16.90454 7.03350 4.00000
16.98586 7.03350 4.00000
17.06725 7.03350 4.00000
17.14870 7.03350 4.00000
17.23021 7.03349 4.00000
17.31178 7.03349 4.00000
17.39341 7.03349 4.00000
17.47510 7.03349 4.00000
17.55685 7.03349 4.00000
17.63865 7.03349 4.00000
17.72052 7.03348 4.00000
17.80243 7.03348 4.00000
17.88440 7.03348 4.00000
17.96643 7.03348 4.00000
18.04851 7.03348 4.00000
18.13065 7.03348 4.00000
18.21283 7.03348 4.00000
18.29507 7.03348 4.00000
18.37736 7.03348 4.00000
18.45970 7.03348 4.00000
18.54210 7.03348 4.00000
18.62454 7.03348 4.00000
18.70702 7.03348 4.00000
18.78956 7.03348 4.00000
18.87215 7.03348 4.00000
18.95479 7.03348 4.00000
19.03747 7.03348 4.00000
19.12019 7.03349 4.00000
19.20298 7.03347 4.00000
19.28580 7.03348 4.00000
19.36866 7.03348 4.00000
19.45158 7.03348 4.00000
19.53454 7.03348 4.00000
19.61754 7.03348 4.00000
19.70059 7.03348 4.00000
19.78368 7.03348 4.00000
19.86681 7.03348 4.00000
19.94998 7.03348 4.00000
20.03320 7.03348 4.00000
20.11646 7.03348 4.00000
20.19976 7.03348 4.00000
20.28310 7.03348 4.00000
20.36649 7.03348 4.00000
20.44991 7.03348 4.00000
20.53338 7.03348 4.00000
20.61689 7.03348 4.00000
20.70043 7.03348 4.00000

Angle 0.063708 0.878487

4.00000 7.03348 4.00000
4.00000 7.03348 4.00000
4.00000 7.03348 4.00000
4.00000 7.03348 4.00000
4.00000 7.03348 4.00000
4.00000 7.03348 4.00000
4.00000 7.03348 4.00000
4.00000 7.03348 4.00000
4.00000 7.03348 4.00000
4.00000 7.03348 4.00000
4.00000 7.03348 4.00000
4.00000 7.03348 4.00000
4.00000 7.03348 4.00000
4.00000 7.03348 4.00000
4.00000 7.03348 4.00000
4.00000 7.03348 4.00000
4.00000 7.03348 4.00000
4.00000 7.03348 4.00000
4.00000 7.03348 4.00000
4.00000 7.03348 4.00000
4.00000 7.03347 4.00000
4.00000 7.03348 4.00000
4.00000 7.03348 4.00000
3.99999 7.03342 4.00000
4.00000 7.03348 4.00000
4.00000 7.03348 4.00000
4.00000 7.03348 4.00000
4.00000 7.03348 4.00000
4.00000 7.03348 4.00000
4.00000 7.03348 4.00000
4.00000 7.03348 4.00000
4.00000 7.03348 4.00000
4.00000 7.03348 4.00000
4.00000 7.03348 4.00000
4.00000 7.03348 4.00000
4.00000 7.03348 4.00000
4.00000 7.03348 4.00000
4.00000 7.03348 4.00000
4.00000 7.03348 4.00000
4.00000 7.03348 4.00000
4.00000 7.03348 4.00000
4.00000 7.03347 4.00000
4.00000 7.03348 4.00000
4.00000 7.03348 4.00000
4.00000 7.03348 4.00000
4.00000 7.03348 4.00000
4.00000 7.03347 4.00000
4.00000 7.03348 4.00000
4.00000 7.03347 4.00000
4.00000 7.03348 4.00000
4.00000 7.03348 4.00000
4.00000 7.03348 4.00000
4.00000 7.03348 4.00000
4.00000 7.03348 4.00000
4.00000 7.03348 4.00000
4.00000 7.03348 4.00000
4.00000 7.03348 4.00000
4.00000 7.03349 4.00000
4.00000 7.03348 4.00000
4.00000 7.03347 4.00000
4.00000 7.03347 4.00000
4.00000 7.03348 4.00000
4.00000 7.03348 4.00000
4.00000 7.03348 4.00000
4.00000 7.03348 4.00000
4.00000 7.03348 4.00000
4.00000 7.03348 4.00000
4.00000 7.03348 4.00000
4.00000 7.03348 4.00000
4.00000 7.03349 4.00000
4.00000 7.03348 4.00000
4.00000 7.03351 4.00000
4.00000 7.03347 4.00000
4.00000 7.03347 4.00000
4.00000 7.03348 4.00000
4.00000 7.03348 4.00000
4.00000 7.03350 4.00000
4.00000 7.03345 4.00000
4.00000 7.03346 4.00000
4.00000 7.03348 4.00000
4.00000 7.03348 4.00000
4.00083 7.04807 4.00084
4.00449 7.11306 4.00449
4.00810 7.17839 4.00810
4.01168 7.24402 4.01168
4.01524 7.30994 4.01524
4.01878 7.37610 4.01878
4.02231 7.44248 4.02231
4.02585 7.50904 4.02585
4.02940 7.57575 4.02940
4.03298 7.64258 4.03298
4.03660 7.70949 4.03660
4.04027 7.77644 4.04027
4.04401 7.84340 4.04401
4.04782 7.91030 4.04782
4.05173 7.97713 4.05173
4.05576 8.04380 4.05576
4.05993 8.11027 4.05993
4.06426 8.17646 4.06426
4.06878 8.24231 4.06878
4.07353 8.30771 4.07353
4.07854 8.37258 4.07854
4.08386 8.43679 4.08386
4.08954 8.50020 4.08954
4.09564 8.56266 4.09564
4.10224 8.62398 4.10224
4.10941 8.68395 4.10941
4.11713 8.74268 4.11713
4.12538 8.80021 4.12538
4.13420 8.85647 4.13420
4.14361 8.91141 4.14361
4.15363 8.96499 4.15363
4.16429 9.01717 4.16429
4.17561 9.06792 4.17561
4.18759 9.11723 4.18759
4.20025 9.16508 4.20025
4.21360 9.21147 4.21360
4.22764 9.25644 4.22764
4.24236 9.29999 4.24236
4.25777 9.34216 4.25777
4.27384 9.38299 4.27384
4.29057 9.42252 4.29057
4.30795 9.46081 4.30795
4.32595 9.49790 4.32595
4.34456 9.53385 4.34456
4.36376 9.56870 4.36376
4.38354 9.60251 4.38354
4.40387 9.63531 4.40387
4.42476 9.66714 4.42476
4.44619 9.69799 4.44619
4.46817 9.72786 4.46817
4.49072 9.75672 4.49072
4.51388 9.78445 4.51388
4.53772 9.81088 4.53772
4.56240 9.83570 4.56240
4.58815 9.85833 4.58816
4.61543 9.87776 4.61543
4.64502 9.89218 4.64504
4.67835 9.89844 4.67835
7.86571 7.36362 4.01811
7.98660 7.32278 4.01593
8.10051 7.28898 4.01411
8.20916 7.26046 4.01257
8.31377 7.23606 4.01125
8.41516 7.21495 4.01010
8.51393 7.19653 4.00910
8.61055 7.18034 4.00821
8.70536 7.16604 4.00742
8.79864 7.15336 4.00672
8.89065 7.14203 4.00610
8.98154 7.13191 4.00554
9.07145 7.12286 4.00503
9.16055 7.11469 4.00458
9.24892 7.10735 4.00417
9.33667 7.10072 4.00380
9.42387 7.09472 4.00346
9.51059 7.08930 4.00316
9.59689 7.08437 4.00288
9.68281 7.07990 4.00263
9.76842 7.07584 4.00240
9.85374 7.07216 4.00219
9.93881 7.06881 4.00201
10.02367 7.06574 4.00183
10.10834 7.06296 4.00168
10.19285 7.06041 4.00153
10.27721 7.05810 4.00140
10.36145 7.05599 4.00128
10.44559 7.05406 4.00117
10.52963 7.05230 4.00107
10.61360 7.05069 4.00098
10.69752 7.04921 4.00090
10.78138 7.04787 4.00082
10.86521 7.04664 4.00075
10.94899 7.04552 4.00069
11.03276 7.04449 4.00063
11.11652 7.04355 4.00057
11.20030 7.04267 4.00052
11.28401 7.04191 4.00048
11.36778 7.04117 4.00044
11.45151 7.04053 4.00040
11.53529 7.03992 4.00037
11.61909 7.03937 4.00034
11.70288 7.03888 4.00031
11.78671 7.03842 4.00028
11.87057 7.03800 4.00026
11.95445 7.03761 4.00024
12.03837 7.03726 4.00022
12.12232 7.03693 4.00020
12.20633 7.03663 4.00018
12.29032 7.03637 4.00016
12.37438 7.03612 4.00015
12.45848 7.03590 4.00014
12.54263 7.03569 4.00012
12.62684 7.03548 4.00011
12.71101 7.03533 4.00011
12.79528 7.03517 4.00010
12.87959 7.03503 4.00009
12.96393 7.03489 4.00008
13.04832 7.03477 4.00007
13.13276 7.03466 4.00007
13.21726 7.03456 4.00007
13.30179 7.03447 4.00006
13.38636 7.03438 4.00005
13.47099 7.03429 4.00005
13.55560 7.03423 4.00004
13.64030 7.03417 4.00004
13.72506 7.03411 4.00004
13.80987 7.03405 4.00003
13.89472 7.03400 4.00003
13.97959 7.03396 4.00003
14.06454 7.03392 4.00003
14.14953 7.03388 4.00002
14.23457 7.03384 4.00002
14.31965 7.03381 4.00002
14.40472 7.03378 4.00002
14.48987 7.03376 4.00002
14.57508 7.03373 4.00001
14.66032 7.03371 4.00001
14.74561 7.03369 4.00001
14.83094 7.03367 4.00001
14.91631 7.03366 4.00001
15.00173 7.03364 4.00001
15.08718 7.03363 4.00001
15.17267 7.03361 4.00001
15.25820 7.03360 4.00001
15.34376 7.03359 4.00001
15.42936 7.03358 4.00001
15.51500 7.03357 4.00001
15.60068 7.03356 4.00000
15.68639 7.03356 4.00000
15.77213 7.03355 4.00000
15.85791 7.03354 4.00000
15.94372 7.03354 4.00000
16.02957 7.03353 4.00000
16.11545 7.03353 4.00000
16.20137 7.03352 4.00000
16.28731 7.03352 4.00000
16.37329 7.03352 4.00000
16.45931 7.03351 4.00000
16.54535 7.03351 4.00000
16.63143 7.03351 4.00000
16.71754 7.03351 4.00000
16.80369 7.03350 4.00000
16.88987 7.03350 4.00000
16.97608 7.03350 4.00000
17.06232 7.03350 4.00000
17.14860 7.03350 4.00000
17.23490 7.03349 4.00000
17.32124 7.03349 4.00000
17.40761 7.03349 4.00000
17.49401 7.03349 4.00000
17.58045 7.03349 4.00000
17.66691 7.03349 4.00000
17.75340 7.03349 4.00000
17.83992 7.03349 4.00000
17.92646 7.03349 4.00000
18.01304 7.03349 4.00000
18.09964 7.03349 4.00000
18.18627 7.03349 4.00000
18.27293 7.03348 4.00000
18.35961 7.03348 4.00000
18.44632 7.03348 4.00000
18.53306 7.03348 4.00000
18.61982 7.03348 4.00000
18.70661 7.03348 4.00000
18.79342 7.03348 4.00000
18.88026 7.03348 4.00000
18.96712 7.03348 4.00000
19.05400 7.03348 4.00000
19.14091 7.03348 4.00000
19.22784 7.03348 4.00000
19.31480 7.03348 4.00000
19.40178 7.03348 4.00000
19.48878 7.03348 4.00000
19.57580 7.03348 4.00000
19.66285 7.03348 4.00000
19.74991 7.03348 4.00000
19.83700 7.03348 4.00000
19.92411 7.03348 4.00000
20.01125 7.03348 4.00000
20.09840 7.03348 4.00000
20.18558 7.03348 4.00000
20.27277 7.03348 4.00000
20.35999 7.03348 4.00000
20.44722 7.03348 4.00000
20.53448 7.03348 4.00000
20.62176 7.03348 4.00000
20.70910 7.03348 4.00000
20.79647 7.03348 4.00000
20.88386 7.03348 4.00000
20.97126 7.03348 4.00000
21.05869 7.03348 4.00000
21.14614 7.03348 4.00000
21.23360 7.03348 4.00000
21.32108 7.03348 4.00000
21.40859 7.03348 4.00000
21.49611 7.03348 4.00000
21.58365 7.03348 4.00000
21.67121 7.03348 4.00000
21.75878 7.03348 4.00000
21.84638 7.03348 4.00000
21.93399 7.03348 4.00000
22.02162 7.03348 4.00000
22.10926 7.03348 4.00000
22.19693 7.03348 4.00000
22.28461 7.03348 4.00000
22.37230 7.03348 4.00000
22.46002 7.03348 4.00000
22.54775 7.03348 4.00000
22.63549 7.03348 4.00000
22.72325 7.03348 4.00000
22.81103 7.03348 4.00000
22.89882 7.03348 4.00000
22.98663 7.03348 4.00000
23.07446 7.03348 4.00000
23.16230 7.03348 4.00000
23.25015 7.03348 4.00000
23.33802 7.03348 4.00000
23.42590 7.03348 4.00000
23.51380 7.03348 4.00000
23.60171 7.03348 4.00000
23.68964 7.03348 4.00000
23.77758 7.03348 4.00000
23.86554 7.03348 4.00000
23.95349 7.03347 4.00000
24.04147 7.03348 4.00000
24.12946 7.03347 4.00000
24.21746 7.03348 4.00000
24.30547 7.03347 4.00000
24.39350 7.03348 4.00000
24.48154 7.03347 4.00000
24.56958 7.03347 4.00000
24.65763 7.03348 4.00000
24.74571 7.03347 4.00000
24.83379 7.03347 4.00000
24.92188 7.03347 4.00000
25.00999 7.03347 4.00000
25.09810 7.03348 4.00000
25.18624 7.03347 4.00000
25.27438 7.03347 4.00000
25.36253 7.03347 4.00000
25.45070 7.03347 4.00000
25.53887 7.03348 4.00000
25.62705 7.03348 4.00000
25.71526 7.03348 4.00000
25.80347 7.03348 4.00000
25.89170 7.03348 4.00000
25.97994 7.03348 4.00000
26.06818 7.03348 4.00000
26.15644 7.03348 4.00000
26.24472 7.03348 4.00000
26.33299 7.03348 4.00000
26.42128 7.03348 4.00000
26.50958 7.03348 4.00000
26.59789 7.03348 4.00000
26.68621 7.03348 4.00000
26.77457 7.03348 4.00000
26.86293 7.03348 4.00000
26.95131 7.03348 4.00000
27.03970 7.03348 4.00000
27.12810 7.03348 4.00000
27.21651 7.03348 4.00000
27.30493 7.03348 4.00000
27.39336 7.03348 4.00000
27.48178 7.03348 4.00000
27.57023 7.03348 4.00000
27.65867 7.03348 4.00000
27.74711 7.03348 4.00000
27.83556 7.03348 4.00000
27.92403 7.03348 4.00000
28.01250 7.03348 4.00000
28.10099 7.03348 4.00000
28.18948 7.03348 4.00000
28.27798 7.03348 4.00000
28.36650 7.03348 4.00000
28.45502 7.03348 4.00000
28.54355 7.03348 4.00000
28.63210 7.03348 4.00000
28.72065 7.03348 4.00000
28.80921 7.03348 4.00000
28.89778 7.03348 4.00000
28.98636 7.03348 4.00000
29.07495 7.03348 4.00000
29.16355 7.03348 4.00000
29.25216 7.03348 4.00000
29.34078 7.03348 4.00000
29.42940 7.03348 4.00000
29.51804 7.03348 4.00000
29.60669 7.03348 4.00000
29.69534 7.03348 4.00000
29.78400 7.03348 4.00000
29.87268 7.03348 4.00000
29.96136 7.03348 4.00000
30.05006 7.03348 4.00000
30.13876 7.03348 4.00000
30.22749 7.03347 4.00000
30.31620 7.03348 4.00000
30.40494 7.03348 4.00000
30.49367 7.03348 4.00000
30.58244 7.03347 4.00000

Angle 0.695599 5.577407

4.00000 7.03348 4.00000
4.00000 7.03348 4.00000
4.00000 7.03347 4.00000
4.00000 7.03348 4.00000
4.00000 7.03348 4.00000
4.00000 7.03348 4.00000
4.00000 7.03348 4.00000
4.00000 7.03348 4.00000
4.00000 7.03348 4.00000
4.00000 7.03348 4.00000
4.00000 7.03348 4.00000
4.00000 7.03348 4.00000
4.00000 7.03348 4.00000
4.00000 7.03348 4.00000
4.00000 7.03348 4.00000
4.00000 7.03348 4.00000
4.00000 7.03348 4.00000
4.00000 7.03348 4.00000
4.00000 7.03348 4.00000
4.00000 7.03348 4.00000
4.00000 7.03348 4.00000
4.00000 7.03348 4.00000
4.00000 7.03348 4.00000
4.00000 7.03348 4.00000
4.00000 7.03348 4.00000
4.00000 7.03348 4.00000
4.00000 7.03348 4.00000
4.00000 7.03348 4.00000
4.00000 7.03348 4.00000
4.00000 7.03348 4.00000
4.00000 7.03348 4.00000
4.00000 7.03347 4.00000
4.00000 7.03348 4.00000
4.00000 7.03348 4.00000
4.00000 7.03348 4.00000
4.00000 7.03347 4.00000
4.00000 7.03347 4.00000
4.00000 7.03348 4.00000
4.00000 7.03348 4.00000
4.00000 7.03348 4.00000
4.00000 7.03347 4.00000
4.00000 7.03348 4.00000
4.00000 7.03348 4.00000
4.00000 7.03348 4.00000
4.00000 7.03348 4.00000
4.00000 7.03348 4.00000
4.00000 7.03348 4.00000
4.00000 7.03347 4.00000
4.00000 7.03347 4.00000
4.00000 7.03348 4.00000
4.00000 7.03351 4.00000
4.00000 7.03348 4.00000
4.00000 7.03348 4.00000
4.00000 7.03348 4.00000
4.00000 7.03348 4.00000
4.00000 7.03348 4.00000
4.00000 7.03348 4.00000
4.00000 7.03348 4.00000
4.00000 7.03348 4.00000
4.00000 7.03348 4.00000
4.00000 7.03348 4.00000
4.00000 7.03348 4.00000
4.00000 7.03348 4.00000
4.00000 7.03348 4.00000
4.00000 7.03348 4.00000
4.00000 7.03348 4.00000
4.00000 7.03348 4.00000
4.00000 7.03348 4.00000
4.00000 7.03348 4.00000
4.00000 7.03348 4.00000
4.00000 7.03348 4.00000
4.00000 7.03350 4.00000
4.00377 7.10023 4.00377
4.00753 7.16803 4.00753
4.01125 7.23613 4.01125
4.01495 7.30450 4.01495
4.01862 7.37310 4.01862
4.02228 7.44189 4.02228
4.02595 7.51084 4.02595
4.02963 7.57991 4.02963
4.03333 7.64907 4.03333
4.03708 7.71828 4.03708
4.04088 7.78749 4.04088
4.04475 7.85667 4.04475
4.04871 7.92575 4.04871
4.05278 7.99470 4.05278
4.05698 8.06344 4.05698
4.06132 8.13191 4.06132
4.06585 8.20003 4.06585
4.07060 8.26772 4.07060
4.07559 8.33488 4.07559
4.08088 8.40139 4.08088
4.08652 8.46711 4.08652
4.09257 8.53189 4.09256
4.09910 8.59554 4.09909
4.10620 8.65783 4.10620
4.11390 8.71870 4.11390
4.12215 8.77830 4.12215
4.13099 8.83656 4.13099
4.14044 8.89343 4.14044
4.15052 8.94886 4.15052
4.16126 9.00281 4.16126
4.17269 9.05524 4.17269
4.18480 9.10614 4.18481
4.19763 9.15550 4.19763
4.21118 9.20332 4.21118
4.22544 9.24962 4.22544
4.24041 9.29441 4.24041
4.25610 9.33774 4.25610
4.27248 9.37965 4.27248
4.28955 9.42019 4.28955
4.30729 9.45941 4.30729
4.32568 9.49737 4.32568
4.34470 9.53412 4.34471
4.36434 9.56972 4.36434
4.38457 9.60422 4.38457
4.40537 9.63766 4.40537
4.42675 9.67007 4.42675
4.44868 9.70147 4.44868
4.47119 9.73183 4.47119
4.49429 9.76112 4.49429
4.51802 9.78921 4.51802
4.54249 9.81589 4.54249
4.56786 9.84079 4.56786
4.59440 9.86324 4.59443
4.62271 9.88200 4.62270
4.65371 9.89487 4.65370
4.01996 7.39826 7.77444
4.01738 7.35001 7.90424
4.01529 7.31096 8.02484
4.01355 7.27852 8.13885
4.01207 7.25111 8.24788
4.01079 7.22759 8.35306
4.00968 7.20725 8.45512
4.00871 7.18949 8.55467
4.00786 7.17388 8.65214
4.00710 7.16010 8.74785
4.00642 7.14787 8.84209
4.00582 7.13697 8.93506
4.00528 7.12722 9.02695
4.00479 7.11850 9.11790
4.00436 7.11066 9.20805
4.00396 7.10361 9.29748
4.00360 7.09723 9.38631
4.00328 7.09149 9.47459
4.00299 7.08628 9.56241
4.00273 7.08157 9.64980
4.00248 7.07730 9.73683
4.00227 7.07342 9.82355
4.00207 7.06990 9.90998
4.00188 7.06671 9.99617
4.00172 7.06379 10.08214
4.00157 7.06114 10.16792
4.00144 7.05873 10.25354
4.00131 7.05653 10.33902
4.00120 7.05453 10.42437
4.00109 7.05270 10.50961
4.00100 7.05104 10.59476
4.00091 7.04951 10.67984
4.00084 7.04811 10.76487
4.00076 7.04689 10.84979
4.00070 7.04570 10.93473
4.00064 7.04465 11.01961
4.00058 7.04368 11.10446
4.00053 7.04281 11.18929
4.00049 7.04200 11.27412
4.00044 7.04126 11.35893
4.00041 7.04059 11.44375
4.00037 7.03998 11.52856
4.00034 7.03942 11.61339
4.00031 7.03890 11.69823
4.00028 7.03842 11.78310
4.00026 7.03800 11.86796
4.00024 7.03761 11.95284
4.00022 7.03726 12.03775
4.00021 7.03693 12.12268
4.00018 7.03663 12.20765
4.00016 7.03636 12.29265
4.00015 7.03611 12.37767
4.00014 7.03588 12.46273
4.00013 7.03568 12.54782
4.00011 7.03549 12.63293
4.00011 7.03532 12.71808
4.00010 7.03516 12.80328
4.00009 7.03501 12.88851
4.00008 7.03487 12.97379
4.00007 7.03475 13.05909
4.00007 7.03464 13.14444
4.00006 7.03453 13.22983
4.00005 7.03444 13.31525
4.00005 7.03436 13.40072
4.00005 7.03428 13.48622
4.00004 7.03422 13.57175
4.00004 7.03415 13.65734
4.00003 7.03406 13.74299
4.00003 7.03404 13.82851
4.00003 7.03399 13.91420
4.00003 7.03395 13.99992
4.00002 7.03391 14.08569
4.00002 7.03387 14.17149
4.00002 7.03384 14.25733
4.00002 7.03380 14.34321
4.00002 7.03378 14.42909
4.00002 7.03375 14.51503
4.00001 7.03373 14.60102
4.00001 7.03370 14.68704
4.00001 7.03368 14.77310
4.00001 7.03367 14.85919
4.00001 7.03365 14.94532
4.00001 7.03364 15.03149
4.00001 7.03362 15.11769
4.00001 7.03361 15.20393
4.00001 7.03360 15.29021
4.00001 7.03359 15.37652
4.00001 7.03358 15.46287
4.00001 7.03357 15.54925
4.00000 7.03356 15.63566
4.00000 7.03355 15.72210
4.00000 7.03355 15.80859
4.00000 7.03354 15.89510
4.00000 7.03354 15.98164
4.00000 7.03353 16.06822
4.00000 7.03353 16.15483
4.00000 7.03352 16.24147
4.00000 7.03352 16.32814
4.00000 7.03351 16.41484
4.00000 7.03351 16.50157
4.00000 7.03350 16.58834
4.00000 7.03351 16.67513
4.00000 7.03350 16.76195
4.00000 7.03350 16.84880
4.00000 7.03350 16.93567
4.00000 7.03350 17.02258
4.00000 7.03350 17.10951
4.00000 7.03350 17.19648
4.00000 7.03349 17.28347
4.00000 7.03349 17.37049
4.00000 7.03349 17.45754
4.00000 7.03349 17.54461
4.00000 7.03349 17.63170
4.00000 7.03349 17.71882
4.00000 7.03348 17.80598
4.00000 7.03349 17.89314
4.00000 7.03348 17.98034
4.00000 7.03349 18.06756
4.00000 7.03348 18.15481
4.00000 7.03348 18.24208
4.00000 7.03348 18.32938
4.00000 7.03348 18.41671
4.00000 7.03348 18.50405
4.00000 7.03348 18.59141
4.00000 7.03348 18.67881
4.00000 7.03348 18.76622
4.00000 7.03348 18.85366
4.00000 7.03348 18.94111
4.00000 7.03348 19.02860
4.00000 7.03348 19.11610
4.00000 7.03348 19.20362
4.00000 7.03348 19.29117
4.00000 7.03348 19.37874
4.00000 7.03348 19.46632
4.00000 7.03348 19.55393
4.00000 7.03348 19.64156
4.00000 7.03348 19.72921
4.00000 7.03348 19.81687
4.00000 7.03348 19.90456
4.00000 7.03348 19.99224
4.00000 7.03348 20.07997
4.00000 7.03348 20.16769
4.00000 7.03348 20.25545
4.00000 7.03348 20.34321
4.00000 7.03348 20.43099
4.00000 7.03348 20.51878
4.00000 7.03348 20.60659
4.00000 7.03348 20.69442
4.00000 7.03348 20.78227
4.00000 7.03348 20.87013
4.00000 7.03348 20.95801
4.00000 7.03348 21.04590
4.00000 7.03348 21.13381
4.00000 7.03348 21.22173
4.00000 7.03348 21.30968
4.00000 7.03348 21.39763
4.00000 7.03348 21.48560
4.00000 7.03348 21.57359
4.00000 7.03348 21.66160
4.00000 7.03348 21.74962
4.00000 7.03348 21.83765
4.00000 7.03348 21.92570
4.00000 7.03348 22.01376
4.00000 7.03348 22.10184
4.00000 7.03348 22.18993
4.00000 7.03348 22.27803
4.00000 7.03348 22.36615
4.00000 7.03348 22.45428
4.00000 7.03348 22.54242
4.00000 7.03348 22.63058
4.00000 7.03348 22.71875
4.00000 7.03348 22.80693
4.00000 7.03348 22.89512
4.00000 7.03348 22.98333
4.00000 7.03348 23.07155
4.00000 7.03348 23.15978
4.00000 7.03348 23.24802
4.00000 7.03348 23.33627
4.00000 7.03348 23.42454
4.00000 7.03348 23.51282
4.00000 7.03348 23.60111
4.00000 7.03348 23.68941
4.00000 7.03348 23.77772
4.00000 7.03348 23.86604
4.00000 7.03348 23.95438
4.00000 7.03348 24.04272
4.00000 7.03348 24.13108
4.00000 7.03348 24.21946
4.00000 7.03348 24.30783
4.00000 7.03348 24.39622
4.00000 7.03348 24.48463
4.00000 7.03348 24.57304
4.00000 7.03348 24.66146
4.00000 7.03348 24.74989
4.00000 7.03348 24.83834
4.00000 7.03348 24.92681
4.00000 7.03348 25.01529
4.00000 7.03349 25.10376
4.00000 7.03348 25.19227
4.00000 7.03348 25.28076
4.00000 7.03349 25.36927
4.00000 7.03349 25.45779
4.00000 7.03348 25.54633
4.00000 7.03347 25.63487
4.00000 7.03348 25.72340
4.00000 7.03348 25.81195
4.00000 7.03349 25.90052
4.00000 7.03349 25.98910
4.00000 7.03349 26.07769
4.00000 7.03349 26.16629
4.00000 7.03348 26.25490
4.00000 7.03348 26.34350
4.00000 7.03348 26.43211
4.00000 7.03348 26.52073
4.00000 7.03348 26.60936
4.00000 7.03348 26.69801
4.00000 7.03348 26.78666
4.00000 7.03348 26.87531
4.00000 7.03348 26.96398
4.00000 7.03348 27.05265
4.00000 7.03348 27.14133
4.00000 7.03348 27.23002
4.00000 7.03348 27.31872
4.00000 7.03348 27.40743
4.00000 7.03348 27.49614
4.00000 7.03348 27.58487
4.00000 7.03348 27.67360
4.00000 7.03348 27.76234
4.00000 7.03348 27.85109
4.00000 7.03348 27.93985
4.00000 7.03348 28.02862
4.00000 7.03348 28.11740
4.00000 7.03348 28.20619
4.00000 7.03348 28.29498
4.00000 7.03348 28.38378
4.00000 7.03348 28.47260
4.00000 7.03348 28.56142
4.00000 7.03348 28.65025
4.00000 7.03348 28.73908
4.00000 7.03348 28.82793
4.00000 7.03348 28.91679
4.00000 7.03348 29.00566
4.00000 7.03348 29.09453
4.00000 7.03348 29.18341
4.00000 7.03348 29.27231
4.00000 7.03348 29.36121
4.00000 7.03348 29.45012
4.00000 7.03348 29.53905
4.00000 7.03348 29.62797
4.00000 7.03348 29.71691
4.00000 7.03348 29.80586
4.00000 7.03348 29.89482
4.00000 7.03348 29.98378
4.00000 7.03348 30.07276
4.00000 7.03348 30.16174
4.00000 7.03348 30.25074
4.00000 7.03348 30.33974
4.00000 7.03348 30.42875
4.00000 7.03348 30.51777
4.00000 7.03348 30.60681
4.00000 7.03348 30.69585
4.00000 7.03348 30.78490
4.00000 7.03348 30.87395
4.00000 7.03348 30.96302
4.00000 7.03348 31.05210
4.00000 7.03348 31.14118
4.00000 7.03348 31.23027
4.00000 7.03348 31.31939
4.00000 7.03348 31.40850
4.00000 7.03348 31.49763
4.00000 7.03348 31.58677
4.00000 7.03348 31.67591
4.00000 7.03348 31.76506

