Angle 0.597431 5.498064

4.00000 7.03348 4.00000
4.00000 7.03348 4.00000
4.00000 7.03348 4.00000
4.00000 7.03348 4.00000
4.00000 7.03348 4.00000
4.00000 7.03348 4.00000
4.00000 7.03348 4.00000
4.00000 7.03348 4.00000
4.00000 7.03348 4.00000
4.00000 7.03348 4.00000
4.00000 7.03350 4.00000
4.00000 7.03348 4.00000
4.00000 7.03348 4.00000
4.00000 7.03348 4.00000
4.00000 7.03348 4.00000
4.00000 7.03348 4.00000
4.00000 7.03348 4.00000
4.00000 7.03349 4.00000
4.00000 7.03348 4.00000
4.00000 7.03348 4.00000
4.00000 7.03348 4.00000
4.00000 7.03348 4.00000
4.00000 7.03348 4.00000
4.00000 7.03348 4.00000
4.00000 7.03348 4.00000
4.00000 7.03348 4.00000
4.00000 7.03348 4.00000
4.00000 7.03348 4.00000
4.00000 7.03348 4.00000
4.00000 7.03348 4.00000
4.00000 7.03348 4.00000
4.00000 7.03348 4.00000
4.00000 7.03348 4.00000
4.00000 7.03348 4.00000
4.00000 7.03348 4.00000
4.00000 7.03348 4.00000
4.00000 7.03348 4.00000
4.00000 7.03348 4.00000
4.00000 7.03348 4.00000
4.00000 7.03348 4.00000
4.00000 7.03348 4.00000
4.00000 7.03348 4.00000
4.00000 7.03348 4.00000
4.00000 7.03348 4.00000
4.00000 7.03348 4.00000
4.00000 7.03348 4.00000
4.00000 7.03348 4.00000
4.00000 7.03348 4.00000
4.00000 7.03348 4.00000
4.00000 7.03348 4.00000
4.00000 7.03348 4.00000
4.00000 7.03348 4.00000
4.00000 7.03348 4.00000
4.00000 7.03348 4.00000
4.00000 7.03348 4.00000
4.00000 7.03348 4.00000
4.00000 7.03348 4.00000
4.00000 7.03348 4.00000
4.00000 7.03348 4.00000
4.00000 7.03348 4.00000
4.00000 7.03348 4.00000
4.00000 7.03348 4.00000
4.00000 7.03348 4.00000
4.00000 7.03348 4.00000
4.00000 7.03348 4.00000
4.00000 7.03348 4.00000
4.00000 7.03348 4.00000
4.00000 7.03348 4.00000
4.00000 7.03348 4.00000
4.00000 7.03348 4.00000
4.00000 7.03348 4.00000
4.00000 7.03348 4.00000
4.00000 7.03348 4.00000
4.00000 7.03348 4.00000
4.00000 7.03348 4.00000
4.00000 7.03348 4.00000
4.00000 7.03348 4.00000
4.00000 7.03348 4.00000
4.00000 7.03348 4.00000
4.00000 7.03348 4.00000
4.00000 7.03348 4.00000
4.00000 7.03347 4.00000
4.00000 7.03348 4.00000
4.00000 7.03348 4.00000
4.00000 7.03348 4.00000
4.00000 7.03348 4.00000
4.00000 7.03348 4.00000
4.00000 7.03348 4.00000
4.00000 7.03348 4.00000
4.00000 7.03348 4.00000
4.00000 7.03348 4.00000
4.00000 7.03348 4.00000
4.00000 7.03348 4.00000
4.00000 7.03348 4.00000
4.00000 7.03348 4.00000
4.00000 7.03348 4.00000
4.00000 7.03347 4.00000
4.00000 7.03349 4.00000
4.00000 7.03348 4.00000
4.00000 7.03348 4.00000
4.00000 7.03348 4.00000
4.00000 7.03348 4.00000
4.00000 7.03348 4.00000
4.00000 7.03348 4.00000
4.00000 7.03348 4.00000
4.00000 7.03348 4.00000
4.00000 7.03348 4.00000
4.00000 7.03348 4.00000
4.00000 7.03348 4.00000
4.00000 7.03348 4.00000
4.00000 7.03348 4.00000
4.00000 7.03348 4.00000
4.00000 7.03349 4.00000
4.00000 7.03350 4.00000
4.00000 7.03348 4.00000
4.00000 7.03348 4.00000
4.00000 7.03348 4.00000
4.00000 7.03348 4.00000
4.00000 7.03348 4.00000
4.00000 7.03348 4.00000
4.00000 7.03348 4.00000
4.00000 7.03348 4.00000
4.00000 7.03350 4.00000
4.00000 7.03348 4.00000
4.00000 7.03348 4.00000
4.00000 7.03348 4.00000
4.00000 7.03348 4.00000
4.00000 7.03348 4.00000
4.00000 7.03348 4.00000
4.00379 7.10056 4.00379
4.00808 7.17795 4.00808
4.01231 7.25556 4.01231
4.01649 7.33335 4.01649
4.02065 7.41127 4.02065
4.02480 7.48927 4.02480
4.02895 7.56730 4.02895
4.03313 7.64531 4.03313
4.03735 7.72325 4.03735
4.04163 7.80106 4.04164
4.04600 7.87868 4.04600
4.05049 7.95604 4.05048
4.05510 8.03307 4.05510
4.05989 8.10968 4.05989
4.06489 8.18577 4.06489
4.07013 8.26124 4.07013
4.07567 8.33595 4.07567
4.08157 8.40974 4.08157
4.08790 8.48245 4.08790
4.09475 8.55384 4.09475
4.10221 8.62367 4.10220
4.11039 8.69165 4.11039
4.11925 8.75795 4.11925
4.12880 8.82257 4.12880
4.13906 8.88545 4.13906
4.15007 8.94651 4.15007
4.16187 9.00572 4.16187
4.17447 9.06303 4.17447
4.18790 9.11844 4.18790
4.20216 9.17194 4.20216
4.21726 9.22355 4.21726
4.23320 9.27329 4.23320
4.24997 9.32122 4.24997
4.26756 9.36739 4.26756
4.28595 9.41187 4.28595
4.30511 9.45474 4.30511
4.32503 9.49606 4.32503
4.34567 9.53592 4.34567
4.36701 9.57440 4.36701
4.38903 9.61156 4.38903
4.41170 9.64745 4.41170
4.43501 9.68211 4.43501
4.45895 9.71555 4.45895
4.48355 9.74774 4.48355
4.50884 9.77859 4.50885
4.53492 9.80789 4.53492
4.56194 9.83526 4.56194
4.59022 9.85998 4.59022
4.62037 9.88069 4.62037
4.65351 9.89482 4.65351
4.01977 7.39465 7.78351
4.01707 7.34410 7.92149
4.01490 7.30365 8.04931
4.01311 7.27037 8.16992
4.01160 7.24246 8.28516
4.01031 7.21871 8.39623
4.00919 7.19829 8.50398
4.00822 7.18058 8.60904
4.00737 7.16511 8.71188
4.00662 7.15153 8.81286
4.00596 7.13954 8.91227
4.00537 7.12892 9.01035
4.00485 7.11948 9.10727
4.00438 7.11106 9.20319
4.00396 7.10354 9.29826
4.00358 7.09681 9.39257
4.00324 7.09077 9.48622
4.00294 7.08534 9.57930
4.00266 7.08045 9.67187
4.00242 7.07605 9.76399
4.00219 7.07208 9.85571
4.00199 7.06849 9.94708
4.00180 7.06525 10.03815
4.00164 7.06232 10.12894
4.00149 7.05966 10.21949
4.00135 7.05726 10.30982
4.00123 7.05508 10.39996
4.00112 7.05311 10.48993
4.00102 7.05132 10.57974
4.00092 7.04969 10.66943
4.00084 7.04822 10.75900
4.00076 7.04688 10.84847
4.00069 7.04566 10.93784
4.00063 7.04456 11.02714
4.00057 7.04356 11.11637
4.00052 7.04264 11.20553
4.00048 7.04182 11.29464
4.00043 7.04106 11.38371
4.00039 7.04038 11.47274
4.00036 7.03975 11.56173
4.00033 7.03919 11.65071
4.00030 7.03867 11.73965
4.00027 7.03820 11.82858
4.00024 7.03778 11.91749
4.00022 7.03739 12.00640
4.00020 7.03704 12.09529
4.00018 7.03672 12.18417
4.00017 7.03642 12.27306
4.00015 7.03616 12.36194
4.00014 7.03591 12.45082
4.00013 7.03569 12.53972
4.00012 7.03549 12.62860
4.00011 7.03532 12.71750
4.00010 7.03515 12.80640
4.00009 7.03500 12.89531
4.00008 7.03486 12.98423
4.00007 7.03473 13.07317
4.00007 7.03462 13.16210
4.00006 7.03452 13.25106
4.00005 7.03442 13.34002
4.00005 7.03434 13.42899
4.00004 7.03426 13.51798
4.00004 7.03419 13.60698
4.00004 7.03413 13.69600
4.00003 7.03407 13.78503
4.00003 7.03401 13.87407
4.00003 7.03396 13.96312
4.00003 7.03392 14.05219
4.00002 7.03388 14.14127
4.00002 7.03385 14.23037
4.00002 7.03381 14.31948
4.00002 7.03378 14.40861
4.00002 7.03375 14.49775
4.00001 7.03373 14.58690
4.00001 7.03371 14.67607
4.00001 7.03369 14.76525
4.00001 7.03367 14.85444
4.00001 7.03365 14.94365
4.00001 7.03363 15.03288
4.00001 7.03362 15.12211
4.00001 7.03361 15.21136
4.00001 7.03360 15.30063
4.00001 7.03359 15.38990
4.00001 7.03358 15.47919
4.00001 7.03357 15.56849
4.00000 7.03356 15.65780
4.00000 7.03355 15.74713
4.00000 7.03355 15.83647
4.00000 7.03354 15.92583
4.00000 7.03353 16.01519
4.00000 7.03353 16.10457
4.00000 7.03352 16.19396
4.00000 7.03352 16.28336
4.00000 7.03352 16.37277
4.00000 7.03351 16.46220
4.00000 7.03351 16.55163
4.00000 7.03351 16.64108
4.00000 7.03351 16.73054
4.00000 7.03350 16.82000
4.00000 7.03350 16.90948
4.00000 7.03350 16.99897
4.00000 7.03350 17.08847
4.00000 7.03350 17.17798
4.00000 7.03349 17.26750
4.00000 7.03349 17.35703
4.00000 7.03349 17.44657
4.00000 7.03349 17.53612
4.00000 7.03349 17.62568
4.00000 7.03349 17.71525
4.00000 7.03348 17.80483
4.00000 7.03349 17.89441
4.00000 7.03348 17.98401
4.00000 7.03349 18.07361
4.00000 7.03348 18.16323
4.00000 7.03348 18.25285
4.00000 7.03348 18.34248
4.00000 7.03349 18.43211
4.00000 7.03348 18.52176
4.00000 7.03348 18.61142
4.00000 7.03348 18.70108
4.00000 7.03348 18.79075
4.00000 7.03348 18.88042
4.00000 7.03348 18.97012
4.00000 7.03348 19.05982
4.00000 7.03348 19.14952
4.00000 7.03348 19.23924
4.00000 7.03348 19.32896
4.00000 7.03348 19.41869
4.00000 7.03348 19.50843
4.00000 7.03348 19.59817
4.00000 7.03348 19.68792
4.00000 7.03348 19.77768
4.00000 7.03348 19.86744
4.00000 7.03348 19.95721
4.00000 7.03348 20.04699
4.00000 7.03348 20.13677
4.00000 7.03348 20.22656
4.00000 7.03348 20.31634
4.00000 7.03348 20.40615
4.00000 7.03348 20.49594
4.00000 7.03348 20.58576
4.00000 7.03348 20.67557
4.00000 7.03348 20.76539
4.00000 7.03348 20.85521
4.00000 7.03348 20.94504
4.00000 7.03348 21.03488
4.00000 7.03348 21.12472
4.00000 7.03348 21.21456
4.00000 7.03348 21.30442
4.00000 7.03348 21.39427
4.00000 7.03348 21.48414
4.00000 7.03348 21.57400
4.00000 7.03348 21.66388
4.00000 7.03348 21.75376
4.00000 7.03348 21.84364
4.00000 7.03348 21.93353
4.00000 7.03348 22.02343
4.00000 7.03348 22.11333
4.00000 7.03348 22.20323
4.00000 7.03348 22.29315
4.00000 7.03348 22.38306
4.00000 7.03348 22.47298
4.00000 7.03348 22.56291
4.00000 7.03348 22.65284
4.00000 7.03348 22.74277
4.00000 7.03348 22.83271
4.00000 7.03348 22.92265
4.00000 7.03348 23.01260
4.00000 7.03348 23.10255
4.00000 7.03348 23.19251
4.00000 7.03348 23.28247
4.00000 7.03348 23.37244
4.00000 7.03348 23.46241
4.00000 7.03348 23.55238
4.00000 7.03348 23.64236
4.00000 7.03348 23.73234
4.00000 7.03348 23.82232
4.00000 7.03348 23.91231
4.00000 7.03348 24.00231
4.00000 7.03348 24.09230
4.00000 7.03348 24.18231
4.00000 7.03348 24.27231
4.00000 7.03348 24.36232
4.00000 7.03349 24.45232
4.00000 7.03348 24.54235
4.00000 7.03349 24.63236
4.00000 7.03349 24.72239
4.00000 7.03349 24.81242
4.00000 7.03348 24.90247
4.00000 7.03348 24.99251
4.00000 7.03348 25.08254
4.00000 7.03348 25.17259
4.00000 7.03348 25.26263
4.00000 7.03348 25.35269
4.00000 7.03348 25.44274
4.00000 7.03348 25.53280
4.00000 7.03348 25.62286
4.00000 7.03348 25.71292
4.00000 7.03348 25.80299
4.00000 7.03348 25.89306
4.00000 7.03348 25.98313
4.00000 7.03349 26.07320
4.00000 7.03348 26.16328
4.00000 7.03348 26.25336
4.00000 7.03347 26.34345
4.00000 7.03348 26.43353
4.00000 7.03348 26.52362
4.00000 7.03348 26.61371
4.00000 7.03348 26.70381
4.00000 7.03348 26.79391
4.00000 7.03348 26.88401
4.00000 7.03348 26.97411
4.00000 7.03348 27.06422
4.00000 7.03348 27.15433
4.00000 7.03348 27.24444
4.00000 7.03348 27.33456
4.00000 7.03348 27.42468
4.00000 7.03348 27.51480
4.00000 7.03348 27.60493
4.00000 7.03348 27.69506
4.00000 7.03348 27.78519

Angle 0.410390 2.384493

4.00000 7.03348 4.00000
4.00000 7.03348 4.00000
4.00000 7.03348 4.00000
4.00000 7.03348 4.00000
4.00000 7.03348 4.00000
4.00000 7.03348 4.00000
4.00000 7.03348 4.00000
4.00000 7.03348 4.00000
4.00000 7.03348 4.00000
4.00000 7.03348 4.00000
4.00000 7.03348 4.00000
4.00000 7.03348 4.00000
4.00000 7.03348 4.00000
4.00000 7.03348 4.00000
4.00000 7.03348 4.00000
4.00000 7.03348 4.00000
4.00000 7.03348 4.00000
4.00000 7.03347 4.00000
4.00000 7.03348 4.00000
4.00000 7.03348 4.00000
4.00000 7.03348 4.00000
4.00000 7.03348 4.00000
4.00000 7.03348 4.00000
4.00000 7.03348 4.00000
4.00000 7.03348 4.00000
4.00000 7.03348 4.00000
4.00000 7.03348 4.00000
4.00000 7.03348 4.00000
4.00000 7.03348 4.00000
4.00000 7.03348 4.00000
4.00000 7.03348 4.00000
4.00000 7.03348 4.00000
4.00000 7.03348 4.00000
4.00000 7.03348 4.00000
4.00000 7.03348 4.00000
4.00000 7.03348 4.00000
4.00000 7.03348 4.00000
4.00000 7.03348 4.00000
4.00000 7.03348 4.00000
4.00000 7.03348 4.00000
4.00000 7.03348 4.00000
4.00000 7.03348 4.00000
4.00000 7.03348 4.00000
4.00000 7.03348 4.00000
4.00000 7.03348 4.00000
4.00000 7.03348 4.00000
4.00000 7.03348 4.00000
4.00000 7.03348 4.00000
4.00000 7.03348 4.00000
4.00000 7.03347 4.00000
4.00000 7.03347 4.00000
4.00000 7.03348 4.00000
4.00000 7.03348 4.00000
4.00000 7.03348 4.00000
4.00000 7.03349 4.00000
4.00000 7.03349 4.00000
4.00000 7.03349 4.00000
4.00000 7.03349 4.00000
4.00000 7.03348 4.00000
4.00000 7.03349 4.00000
4.00000 7.03349 4.00000
4.00000 7.03348 4.00000
4.00000 7.03348 4.00000
4.00000 7.03348 4.00000
4.00000 7.03348 4.00000
4.00000 7.03348 4.00000
4.00000 7.03348 4.00000
4.00000 7.03348 4.00000
4.00000 7.03348 4.00000
4.00000 7.03352 4.00000
4.00000 7.03351 4.00000
4.00000 7.03348 4.00000
4.00000 7.03348 4.00000
4.00000 7.03348 4.00000
4.00000 7.03348 4.00000
4.00000 7.03348 4.00000
4.00000 7.03348 4.00000
4.00000 7.03348 4.00000
4.00000 7.03348 4.00000
4.00000 7.03348 4.00000
4.00000 7.03347 4.00000
4.00000 7.03348 4.00000
4.00000 7.03348 4.00000
4.00000 7.03348 4.00000
4.00000 7.03348 4.00000
4.00000 7.03348 4.00000
4.00000 7.03348 4.00000
4.00000 7.03348 4.00000
4.00000 7.03348 4.00000
4.00000 7.03348 4.00000
4.00000 7.03348 4.00000
4.00000 7.03348 4.00000
4.00000 7.03348 4.00000
4.00000 7.03348 4.00000
4.00000 7.03348 4.00000
4.00000 7.03348 4.00000
4.00000 7.03348 4.00000
4.00000 7.03348 4.00000
4.00000 7.03348 4.00000
4.00000 7.03348 4.00000
4.00000 7.03348 4.00000
4.00000 7.03347 4.00000
4.00000 7.03348 4.00000
4.00000 7.03348 4.00000
4.00000 7.03348 4.00000
4.00000 7.03348 4.00000
4.00000 7.03348 4.00000
4.00000 7.03348 4.00000
4.00000 7.03348 4.00000
4.00000 7.03348 4.00000
4.00000 7.03348 4.00000
4.00000 7.03348 4.00000
4.00000 7.03348 4.00000
4.00000 7.03347 4.00000
4.00000 7.03348 4.00000
4.00000 7.03348 4.00000
4.00000 7.03348 4.00000
4.00000 7.03348 4.00000
4.00000 7.03348 4.00000
4.00000 7.03348 4.00000
4.00000 7.03348 4.00000
4.00000 7.03348 4.00000
4.00000 7.03347 4.00000
4.00000 7.03347 4.00000
4.00000 7.03348 4.00000
4.00000 7.03348 4.00000
4.00000 7.03348 4.00000
4.00000 7.03348 4.00000
4.00000 7.03348 4.00000
4.00000 7.03348 4.00000
4.00000 7.03348 4.00000
4.00000 7.03348 4.00000
4.00000 7.03348 4.00000
4.00000 7.03348 4.00000
4.00000 7.03348 4.00000
4.00000 7.03348 4.00000
4.00000 7.03348 4.00000
4.00000 7.03348 4.00000
4.00000 7.03348 4.00000
4.00000 7.03348 4.00000
4.00000 7.03348 4.00000
4.00000 7.03348 4.00000
4.00000 7.03348 4.00000
4.00000 7.03348 4.00000
4.00000 7.03348 4.00000
4.00000 7.03348 4.00000
4.00000 7.03348 4.00000
4.00000 7.03347 4.00000
4.00000 7.03348 4.00000
4.00000 7.03348 4.00000
4.00000 7.03348 4.00000
4.00000 7.03348 4.00000
4.00000 7.03348 4.00000
4.00000 7.03348 4.00000
4.00000 7.03348 4.00000
4.00000 7.03348 4.00000
4.00000 7.03347 4.00000
4.00000 7.03347 4.00000
4.00000 7.03347 4.00000
4.00000 7.03348 4.00000
4.00000 7.03348 4.00000
4.00000 7.03348 4.00000
4.00000 7.03348 4.00000
4.00000 7.03348 4.00000
4.00000 7.03348 4.00000
4.00000 7.03348 4.00000
4.00000 7.03348 4.00000
4.00000 7.03348 4.00000
4.00000 7.03348 4.00000
4.00000 7.03348 4.00000
4.00000 7.03348 4.00000
4.00000 7.03348 4.00000
4.00000 7.03348 4.00000
4.00000 7.03348 4.00000
4.00000 7.03349 4.00000
4.00000 7.03348 4.00000
4.00000 7.03348 4.00000
4.00000 7.03348 4.00000
4.00000 7.03348 4.00000
4.00000 7.03348 4.00000
4.00000 7.03350 4.00000
4.00000 7.03350 4.00000
4.00000 7.03348 4.00000
4.00000 7.03348 4.00000
4.00000 7.03348 4.00000
4.00000 7.03348 4.00000
4.00000 7.03348 4.00000
4.00000 7.03348 4.00000
4.00000 7.03348 4.00000
4.00000 7.03348 4.00000
4.00000 7.03348 4.00000
4.00000 7.03348 4.00000
4.00000 7.03348 4.00000
4.00000 7.03348 4.00000
4.00000 7.03348 4.00000
4.00000 7.03348 4.00000
4.00000 7.03348 4.00000
4.00000 7.03348 4.00000
4.00000 7.03348 4.00000
4.00000 7.03348 4.00000
4.00000 7.03348 4.00000
4.00000 7.03348 4.00000
4.00000 7.03348 4.00000
4.00000 7.03348 4.00000
4.00000 7.03348 4.00000
4.00000 7.03348 4.00000
4.00000 7.03348 4.00000
4.00000 7.03348 4.00000
4.00000 7.03348 4.00000
4.00000 7.03348 4.00000
4.00000 7.03348 4.00000
4.00000 7.03348 4.00000
4.00000 7.03348 4.00000
4.00000 7.03348 4.00000
4.00000 7.03348 4.00000
4.00000 7.03348 4.00000
4.00000 7.03348 4.00000
4.00000 7.03348 4.00000
4.00000 7.03349 4.00000
4.00000 7.03348 4.00000
4.00000 7.03349 4.00000
4.00000 7.03349 4.00000
4.00000 7.03348 4.00000
4.00000 7.03348 4.00000
4.00000 7.03346 4.00000
4.00000 7.03348 4.00000
4.00301 7.08668 4.00301
4.00726 7.16297 4.00726
4.01144 7.23950 4.01144
4.01557 7.31622 4.01557
4.01968 7.39310 4.01968
4.02378 7.47007 4.02378
4.02788 7.54710 4.02788
4.03199 7.62414 4.03199
4.03615 7.70114 4.03615
4.04036 7.77803 4.04036
4.04465 7.85477 4.04465
4.04904 7.93129 4.04904
4.05355 8.00752 4.05355
4.05822 8.08339 4.05822
4.06308 8.15879 4.06308
4.06817 8.23364 4.06817
4.07354 8.30780 4.07354
4.07923 8.38114 4.07923
4.08531 8.45349 4.08531
4.09186 8.52467 4.09186
4.09897 8.59443 4.09897
4.10676 8.66248 4.10676
4.11524 8.72879 4.11524
4.12438 8.79349 4.12438
4.13421 8.85652 4.13421
4.14476 8.91781 4.14476
4.15607 8.97731 4.15607
4.16815 9.03498 4.16815
4.18104 9.09079 4.18104
4.19474 9.14473 4.19474
4.20926 9.19681 4.20926
4.22461 9.24705 4.22462
4.24079 9.29549 4.24079
4.25777 9.34218 4.25777
4.27556 9.38717 4.27556
4.29412 9.43054 4.29412
4.31343 9.47236 4.31343
4.33347 9.51271 4.33347
4.35422 9.55165 4.35422
4.37565 9.58926 4.37565
4.39773 9.62560 4.39773
4.42045 9.66072 4.42045
4.44380 9.69464 4.44380
4.46778 9.72735 4.46778
4.49241 9.75882 4.49242
4.51776 9.78891 4.51776
4.54392 9.81737 4.54392
4.57110 9.84375 4.57110
4.59968 9.86717 4.59967
4.63037 9.88600 4.63037
4.66453 9.89719 4.66454
7.82600 7.37827 4.01889
7.95956 7.33145 4.01639
8.08412 7.29358 4.01436
8.20220 7.26219 4.01267
8.31536 7.23571 4.01123
8.42468 7.21308 4.01000
8.53091 7.19355 4.00893
8.63463 7.17657 4.00800
8.73627 7.16168 4.00718
8.83615 7.14859 4.00646
8.93454 7.13702 4.00582
9.03166 7.12675 4.00525
9.12769 7.11761 4.00474
9.22278 7.10945 4.00429
9.31705 7.10215 4.00388
9.41061 7.09560 4.00351
9.50354 7.08971 4.00318
9.59589 7.08444 4.00289
9.68780 7.07966 4.00262
9.77926 7.07536 4.00238
9.87035 7.07148 4.00216
9.96110 7.06797 4.00196
10.05155 7.06479 4.00178
10.14175 7.06192 4.00162
10.23171 7.05932 4.00147
10.32146 7.05697 4.00134
10.41104 7.05483 4.00121
10.50045 7.05289 4.00111
10.58973 7.05113 4.00100
10.67888 7.04953 4.00091
10.76792 7.04808 4.00083
10.85686 7.04676 4.00076
10.94572 7.04556 4.00069
11.03451 7.04447 4.00063
11.12323 7.04348 4.00057
11.21190 7.04258 4.00052
11.30052 7.04176 4.00047
11.38910 7.04102 4.00043
11.47765 7.04034 4.00039
11.56616 7.03972 4.00036
11.65466 7.03916 4.00032
11.74314 7.03865 4.00030
11.83160 7.03819 4.00027
11.92005 7.03776 4.00024
12.00850 7.03738 4.00022
12.09693 7.03703 4.00020
12.18537 7.03671 4.00018
12.27381 7.03642 4.00017
12.36225 7.03616 4.00015
12.45070 7.03592 4.00014
12.53915 7.03570 4.00013
12.62761 7.03550 4.00012
12.71607 7.03532 4.00010
12.80455 7.03515 4.00010
12.89304 7.03500 4.00009
12.98154 7.03486 4.00008
13.07006 7.03474 4.00007
13.15858 7.03463 4.00007
13.24713 7.03452 4.00006
13.33568 7.03443 4.00006
13.42426 7.03434 4.00005
13.51284 7.03427 4.00005
13.60145 7.03420 4.00004
13.69007 7.03413 4.00004
13.77870 7.03407 4.00004
13.86735 7.03402 4.00003
13.95602 7.03397 4.00003
14.04471 7.03393 4.00003
14.13341 7.03389 4.00002
14.22213 7.03385 4.00002
14.31086 7.03382 4.00002
14.39961 7.03379 4.00002
14.48838 7.03376 4.00002
14.57717 7.03373 4.00001
14.66597 7.03371 4.00001
14.75479 7.03369 4.00001
14.84362 7.03367 4.00001
14.93247 7.03365 4.00001
15.02134 7.03364 4.00001
15.11022 7.03362 4.00001
15.19912 7.03361 4.00001
15.28804 7.03360 4.00001
15.37697 7.03359 4.00001
15.46591 7.03358 4.00000
15.55487 7.03357 4.00000
15.64385 7.03356 4.00000
15.73284 7.03355 4.00000
15.82184 7.03355 4.00000
15.91086 7.03354 4.00000
15.99989 7.03354 4.00000
16.08894 7.03353 4.00000
16.17800 7.03353 4.00000
16.26708 7.03352 4.00000
16.35617 7.03352 4.00000
16.44527 7.03351 4.00000
16.53439 7.03351 4.00000
16.62352 7.03351 4.00000
16.71266 7.03351 4.00000
16.80182 7.03350 4.00000
16.89098 7.03350 4.00000
16.98017 7.03350 4.00000
17.06936 7.03350 4.00000
17.15856 7.03350 4.00000
17.24778 7.03349 4.00000
17.33701 7.03349 4.00000
17.42625 7.03349 4.00000
17.51550 7.03349 4.00000
17.60477 7.03349 4.00000
17.69404 7.03349 4.00000
17.78333 7.03349 4.00000
17.87262 7.03349 4.00000
17.96193 7.03349 4.00000
18.05125 7.03349 4.00000
18.14058 7.03348 4.00000
18.22992 7.03348 4.00000
18.31927 7.03348 4.00000
18.40863 7.03348 4.00000
18.49800 7.03348 4.00000
18.58737 7.03348 4.00000
18.67676 7.03348 4.00000
18.76616 7.03348 4.00000
18.85557 7.03348 4.00000
18.94498 7.03348 4.00000

Angle 0.313551 0.296065

4.00000 7.03348 4.00000
4.00000 7.03348 4.00000
4.00000 7.03348 4.00000
4.00000 7.03348 4.00000
4.00000 7.03348 4.00000
4.00000 7.03348 4.00000
4.00000 7.03348 4.00000
4.00000 7.03349 4.00000
4.00000 7.03349 4.00000
4.00000 7.03348 4.00000
4.00000 7.03348 4.00000
4.00000 7.03348 4.00000
4.00000 7.03348 4.00000
4.00000 7.03348 4.00000
4.00000 7.03348 4.00000
4.00000 7.03348 4.00000
4.00000 7.03348 4.00000
4.00000 7.03348 4.00000
4.00000 7.03349 4.00000
4.00000 7.03348 4.00000
4.00000 7.03348 4.00000
4.00000 7.03348 4.00000
4.00000 7.03349 4.00000
4.00000 7.03349 4.00000
4.00000 7.03350 4.00000
4.00000 7.03348 4.00000
4.00000 7.03348 4.00000
4.00000 7.03348 4.00000
4.00000 7.03348 4.00000
4.00000 7.03349 4.00000
4.00000 7.03348 4.00000
4.00000 7.03348 4.00000
4.00000 7.03348 4.00000
4.00000 7.03348 4.00000
4.00000 7.03348 4.00000
4.00000 7.03349 4.00000
4.00000 7.03349 4.00000
4.00000 7.03349 4.00000
4.00000 7.03349 4.00000
4.00000 7.03348 4.00000
4.00000 7.03348 4.00000
4.00000 7.03348 4.00000
4.00000 7.03348 4.00000
4.00000 7.03348 4.00000
4.00000 7.03348 4.00000
4.00000 7.03347 4.00000
4.00000 7.03347 4.00000
4.00097 7.05051 4.00097
4.00499 7.12194 4.00499
4.00894 7.19369 4.00894
4.01285 7.26569 4.01286
4.01674 7.33791 4.01674
4.02060 7.41031 4.02060
4.02446 7.48285 4.02446
4.02832 7.55549 4.02832
4.03221 7.62819 4.03221
4.03613 7.70090 4.03613
4.04011 7.77357 4.04011
4.04416 7.84616 4.04416
4.04830 7.91862 4.04830
4.05255 7.99087 4.05255
4.05694 8.06286 4.05694
4.06149 8.13451 4.06149
4.06624 8.20573 4.06624
4.07123 8.27643 4.07123
4.07649 8.34649 4.07649
4.08208 8.41577 4.08208
4.08805 8.48413 4.08805
4.09450 8.55136 4.09450
4.10148 8.61726 4.10148
4.10912 8.68159 4.10912
4.11737 8.74442 4.11737
4.12623 8.80582 4.12623
4.13573 8.86571 4.13573
4.14589 8.92404 4.14589
4.15676 8.98076 4.15676
4.16834 9.03584 4.16834
4.18066 9.08924 4.18066
4.19374 9.14096 4.19374
4.20758 9.19100 4.20758
4.22218 9.23937 4.22218
4.23754 9.28610 4.23754
4.25366 9.33124 4.25366
4.27053 9.37482 4.27053
4.28813 9.41691 4.28813
4.30643 9.45757 4.30643
4.32542 9.49686 4.32543
4.34509 9.53484 4.34509
4.36540 9.57158 4.36540
4.38633 9.60713 4.38633
4.40788 9.64155 4.40787
4.43001 9.67486 4.43001
4.45274 9.70708 4.45274
4.47607 9.73818 4.47607
4.50003 9.76810 4.50003
4.52468 9.79670 4.52468
4.55013 9.82371 4.55013
4.57661 9.84864 4.57661
4.60450 9.87060 4.60450
4.63453 9.88795 4.63453
4.66803 9.89769 4.66802
7.83447 7.37509 4.01872
7.96311 7.33031 4.01633
8.08350 7.29376 4.01437
8.19783 7.26328 4.01272
8.30756 7.23743 4.01133
8.41367 7.21524 4.01012
8.51686 7.19601 4.00907
8.61766 7.17922 4.00815
8.71647 7.16446 4.00734
8.81361 7.15144 4.00662
8.90934 7.13987 4.00598
9.00385 7.12959 4.00541
9.09731 7.12041 4.00490
9.18988 7.11218 4.00444
9.28166 7.10480 4.00403
9.37275 7.09817 4.00366
9.46325 7.09219 4.00332
9.55323 7.08680 4.00302
9.64273 7.08194 4.00275
9.73183 7.07754 4.00250
9.82057 7.07356 4.00227
9.90901 7.06994 4.00207
9.99715 7.06667 4.00189
10.08508 7.06369 4.00172
10.17277 7.06100 4.00156
10.26027 7.05855 4.00143
10.34763 7.05631 4.00130
10.43481 7.05429 4.00118
10.52188 7.05245 4.00108
10.60884 7.05077 4.00098
10.69571 7.04923 4.00090
10.78247 7.04786 4.00082
10.86919 7.04659 4.00075
10.95584 7.04543 4.00068
11.04245 7.04438 4.00062
11.12901 7.04342 4.00057
11.21556 7.04253 4.00052
11.30205 7.04174 4.00047
11.38852 7.04102 4.00043
11.47498 7.04036 4.00039
11.56144 7.03975 4.00036
11.64789 7.03920 4.00033
11.73434 7.03870 4.00030
11.82079 7.03824 4.00027
11.90725 7.03782 4.00025
11.99372 7.03744 4.00023
12.08020 7.03709 4.00021
12.16669 7.03678 4.00019
12.25320 7.03649 4.00017
12.33972 7.03622 4.00016
12.42627 7.03598 4.00014
12.51284 7.03576 4.00013
12.59943 7.03556 4.00012
12.68604 7.03538 4.00011
12.77267 7.03521 4.00010
12.85934 7.03506 4.00009
12.94602 7.03492 4.00008
13.03273 7.03479 4.00008
13.11947 7.03468 4.00007
13.20624 7.03457 4.00006
13.29304 7.03447 4.00006
13.37986 7.03439 4.00005
13.46672 7.03431 4.00005
13.55358 7.03423 4.00004
13.64049 7.03417 4.00004
13.72744 7.03409 4.00003
13.81439 7.03405 4.00003
13.90138 7.03400 4.00003
13.98840 7.03395 4.00003
14.07545 7.03391 4.00002
14.16253 7.03387 4.00002
14.24964 7.03384 4.00002
14.33677 7.03381 4.00002
14.42393 7.03378 4.00002
14.51112 7.03375 4.00002
14.59834 7.03373 4.00001
14.68558 7.03371 4.00001
14.77286 7.03369 4.00001
14.86016 7.03367 4.00001
14.94748 7.03365 4.00001
15.03483 7.03364 4.00001
15.12221 7.03362 4.00001
15.20962 7.03361 4.00001
15.29705 7.03360 4.00001
15.38450 7.03359 4.00001
15.47198 7.03358 4.00001
15.55949 7.03357 4.00001
15.64702 7.03356 4.00000
15.73457 7.03355 4.00000
15.82215 7.03355 4.00000
15.90976 7.03354 4.00000
15.99738 7.03354 4.00000
16.08503 7.03353 4.00000
16.17271 7.03353 4.00000
16.26040 7.03352 4.00000
16.34812 7.03352 4.00000
16.43586 7.03351 4.00000
16.52363 7.03351 4.00000
16.61141 7.03351 4.00000
16.69922 7.03351 4.00000
16.78705 7.03350 4.00000
16.87490 7.03350 4.00000
16.96277 7.03350 4.00000
17.05066 7.03349 4.00000
17.13857 7.03350 4.00000
17.22650 7.03349 4.00000
17.31445 7.03349 4.00000
17.40243 7.03349 4.00000
17.49042 7.03349 4.00000
17.57842 7.03349 4.00000
17.66646 7.03348 4.00000
17.75450 7.03348 4.00000
17.84256 7.03349 4.00000
17.93065 7.03349 4.00000
18.01875 7.03349 4.00000
18.10687 7.03349 4.00000
18.19501 7.03348 4.00000
18.28317 7.03349 4.00000
18.37134 7.03348 4.00000
18.45954 7.03348 4.00000
18.54775 7.03348 4.00000
18.63598 7.03348 4.00000
18.72422 7.03348 4.00000
18.81248 7.03348 4.00000
18.90075 7.03348 4.00000
18.98905 7.03348 4.00000
19.07736 7.03348 4.00000
19.16569 7.03348 4.00000
19.25402 7.03348 4.00000
19.34238 7.03348 4.00000
19.43075 7.03348 4.00000
19.51914 7.03348 4.00000
19.60754 7.03348 4.00000
19.69596 7.03348 4.00000
19.78438 7.03348 4.00000
19.87283 7.03348 4.00000
19.96129 7.03348 4.00000
20.04976 7.03348 4.00000
20.13825 7.03348 4.00000
20.22675 7.03348 4.00000
20.31527 7.03348 4.00000
20.40380 7.03348 4.00000
20.49234 7.03348 4.00000
20.58090 7.03348 4.00000
20.66947 7.03348 4.00000
20.75806 7.03347 4.00000
20.84665 7.03348 4.00000
20.93526 7.03348 4.00000
21.02389 7.03348 4.00000
21.11252 7.03348 4.00000
21.20117 7.03348 4.00000
21.28984 7.03348 4.00000
21.37851 7.03348 4.00000
21.46720 7.03348 4.00000
21.55590 7.03348 4.00000
21.64461 7.03348 4.00000
21.73333 7.03348 4.00000
21.82206 7.03348 4.00000
21.91081 7.03348 4.00000
21.99957 7.03348 4.00000
22.08834 7.03348 4.00000
22.17712 7.03348 4.00000
22.26591 7.03348 4.00000
22.35471 7.03348 4.00000
22.44353 7.03348 4.00000
22.53235 7.03348 4.00000
22.62119 7.03348 4.00000
22.71003 7.03348 4.00000
22.79889 7.03348 4.00000
22.88776 7.03347 4.00000
22.97663 7.03348 4.00000
23.06551 7.03348 4.00000
23.15442 7.03347 4.00000
23.24332 7.03348 4.00000
23.33224 7.03348 4.00000
23.42117 7.03347 4.00000
23.51010 7.03348 4.00000
23.59903 7.03349 4.00000
23.68800 7.03348 4.00000
23.77695 7.03349 4.00000
23.86594 7.03348 4.00000
23.95492 7.03348 4.00000
24.04392 7.03348 4.00000
24.13292 7.03348 4.00000
24.22194 7.03348 4.00000
24.31097 7.03347 4.00000
24.39999 7.03348 4.00000
24.48903 7.03348 4.00000
24.57808 7.03348 4.00000
24.66714 7.03348 4.00000
24.75621 7.03348 4.00000
24.84528 7.03348 4.00000
24.93437 7.03348 4.00000
25.02346 7.03348 4.00000
25.11256 7.03348 4.00000
25.20167 7.03348 4.00000
25.29078 7.03348 4.00000
25.37990 7.03348 4.00000
25.46903 7.03348 4.00000
25.55816 7.03348 4.00000
25.64731 7.03348 4.00000
25.73646 7.03348 4.00000
25.82561 7.03348 4.00000
25.91477 7.03348 4.00000
26.00394 7.03348 4.00000
26.09312 7.03348 4.00000
26.18231 7.03348 4.00000
26.27150 7.03348 4.00000
26.36070 7.03348 4.00000
26.44990 7.03348 4.00000
26.53912 7.03348 4.00000
26.62834 7.03348 4.00000
26.71757 7.03348 4.00000
26.80680 7.03348 4.00000
26.89604 7.03348 4.00000
26.98529 7.03348 4.00000
27.07455 7.03348 4.00000
27.16381 7.03348 4.00000
27.25308 7.03348 4.00000
27.34235 7.03348 4.00000
27.43164 7.03348 4.00000
27.52093 7.03348 4.00000
27.61022 7.03348 4.00000
27.69952 7.03348 4.00000
27.78883 7.03348 4.00000
27.87815 7.03348 4.00000
27.96747 7.03348 4.00000
28.05679 7.03348 4.00000
28.14612 7.03348 4.00000
28.23546 7.03348 4.00000
28.32481 7.03348 4.00000
28.41416 7.03348 4.00000
28.50352 7.03348 4.00000
28.59288 7.03348 4.00000
28.68225 7.03348 4.00000
28.77162 7.03348 4.00000
28.86100 7.03348 4.00000
28.95039 7.03348 4.00000
29.03978 7.03348 4.00000
29.12918 7.03348 4.00000
29.21858 7.03348 4.00000
29.30799 7.03348 4.00000
29.39741 7.03348 4.00000
29.48683 7.03348 4.00000
29.57626 7.03348 4.00000
29.66569 7.03348 4.00000
29.75513 7.03348 4.00000
29.84457 7.03348 4.00000
29.93402 7.03348 4.00000
30.02348 7.03348 4.00000
30.11294 7.03348 4.00000
30.20241 7.03348 4.00000
30.29188 7.03348 4.00000
30.38134 7.03349 4.00000
30.47084 7.03348 4.00000
30.56033 7.03348 4.00000
30.64982 7.03349 4.00000
30.73932 7.03348 4.00000
30.82882 7.03348 4.00000
30.91834 7.03347 4.00000
31.00785 7.03348 4.00000
31.09736 7.03348 4.00000
31.18689 7.03348 4.00000
31.27642 7.03348 4.00000
31.36595 7.03348 4.00000
31.45550 7.03348 4.00000
31.54504 7.03348 4.00000
31.63459 7.03348 4.00000
31.72415 7.03348 4.00000
31.81371 7.03348 4.00000
31.90328 7.03348 4.00000
31.99285 7.03348 4.00000
32.08243 7.03348 4.00000
32.17201 7.03348 4.00000
32.26160 7.03348 4.00000
32.35119 7.03348 4.00000
32.44079 7.03348 4.00000
32.53039 7.03348 4.00000
32.62000 7.03348 4.00000
32.70962 7.03348 4.00000
32.79924 7.03348 4.00000
32.88887 7.03348 4.00000
32.97851 7.03348 4.00000
33.06815 7.03348 4.00000
33.15779 7.03348 4.00000
33.24744 7.03348 4.00000
33.33710 7.03348 4.00000
33.42676 7.03348 4.00000
33.51643 7.03348 4.00000
33.60610 7.03348 4.00000
33.69578 7.03348 4.00000
33.78547 7.03348 4.00000
33.87516 7.03348 4.00000
33.96486 7.03348 4.00000
34.05456 7.03348 4.00000
34.14427 7.03348 4.00000
34.23398 7.03348 4.00000
34.32371 7.03348 4.00000
34.41344 7.03348 4.00000

Angle 0.169382 3.685385

4.00000 7.03347 4.00000
4.00000 7.03348 4.00000
4.00000 7.03348 4.00000
4.00000 7.03347 4.00000
4.00000 7.03344 4.00000
4.00000 7.03346 4.00000
4.00000 7.03347 4.00000
4.00000 7.03348 4.00000
4.00000 7.03349 4.00000
4.00000 7.03348 4.00000
4.00000 7.03349 4.00000
4.00000 7.03348 4.00000
4.00000 7.03348 4.00000
4.00000 7.03348 4.00000
4.00000 7.03348 4.00000
3.99999 7.03346 4.00000
4.00000 7.03348 4.00000
4.00000 7.03348 4.00000
4.00000 7.03348 4.00000
4.00000 7.03348 4.00000
4.00000 7.03348 4.00000
4.00000 7.03348 4.00000
4.00000 7.03348 4.00000
4.00000 7.03348 4.00000
4.00000 7.03348 4.00000
4.00000 7.03348 4.00000
4.00000 7.03348 4.00000
4.00000 7.03348 4.00000
4.00000 7.03348 4.00000
4.00000 7.03348 4.00000
4.00000 7.03348 4.00000
4.00000 7.03348 4.00000
4.00000 7.03348 4.00000
4.00000 7.03349 4.00000
4.00000 7.03349 4.00000
4.00000 7.03348 4.00000
4.00000 7.03348 4.00000
4.00000 7.03348 4.00000
4.00000 7.03348 4.00000
4.00000 7.03348 4.00000
4.00000 7.03348 4.00000
4.00000 7.03348 4.00000
4.00000 7.03347 4.00000
4.00000 7.03348 4.00000
4.00000 7.03348 4.00000
4.00000 7.03348 4.00000
4.00000 7.03348 4.00000
4.00000 7.03348 4.00000
4.00000 7.03347 4.00000
4.00000 7.03347 4.00000
4.00000 7.03348 4.00000
4.00000 7.03348 4.00000
4.00000 7.03348 4.00000
4.00000 7.03347 4.00000
4.00000 7.03348 4.00000
4.00000 7.03347 4.00000
4.00000 7.03347 4.00000
4.00000 7.03347 4.00000
4.00000 7.03347 4.00000
4.00000 7.03348 4.00000
4.00000 7.03348 4.00000
4.00000 7.03348 4.00000
4.00000 7.03348 4.00000
4.00000 7.03348 4.00000
4.00000 7.03347 4.00000
4.00000 7.03348 4.00000
4.00000 7.03348 4.00000
4.00000 7.03347 4.00000
4.00000 7.03348 4.00000
4.00000 7.03348 4.00000
4.00000 7.03348 4.00000
4.00000 7.03348 4.00000
4.00000 7.03348 4.00000
4.00000 7.03348 4.00000
4.00000 7.03348 4.00000
4.00000 7.03348 4.00000
4.00000 7.03348 4.00000
4.00000 7.03348 4.00000
4.00000 7.03348 4.00000
4.00000 7.03348 4.00000
4.00000 7.03348 4.00000
4.00000 7.03348 4.00000
4.00000 7.03348 4.00000
4.00000 7.03348 4.00000
4.00000 7.03348 4.00000
4.00000 7.03348 4.00000
4.00000 7.03348 4.00000
4.00000 7.03348 4.00000
4.00000 7.03348 4.00000
4.00000 7.03348 4.00000
4.00000 7.03348 4.00000
4.00000 7.03348 4.00000
4.00000 7.03348 4.00000
4.00000 7.03348 4.00000
4.00000 7.03348 4.00000
4.00000 7.03348 4.00000
4.00000 7.03348 4.00000
4.00000 7.03348 4.00000
4.00000 7.03348 4.00000
4.00000 7.03348 4.00000
4.00000 7.03348 4.00000
4.00000 7.03347 4.00000
4.00000 7.03348 4.00000
4.00000 7.03348 4.00000
4.00000 7.03348 4.00000
4.00000 7.03348 4.00000
4.00000 7.03348 4.00000
4.00000 7.03348 4.00000
4.00000 7.03348 4.00000
4.00000 7.03348 4.00000
4.00000 7.03348 4.00000
4.00000 7.03348 4.00000
4.00000 7.03348 4.00000
4.00000 7.03348 4.00000
4.00000 7.03348 4.00000
4.00000 7.03348 4.00000
4.00000 7.03348 4.00000
4.00000 7.03348 4.00000
4.00000 7.03348 4.00000
4.00000 7.03348 4.00000
4.00000 7.03348 4.00000
4.00000 7.03348 4.00000
4.00000 7.03348 4.00000
4.00000 7.03348 4.00000
4.00000 7.03348 4.00000
4.00000 7.03348 4.00000
4.00000 7.03348 4.00000
4.00000 7.03348 4.00000
4.00000 7.03348 4.00000
4.00000 7.03348 4.00000
4.00000 7.03348 4.00000
4.00000 7.03348 4.00000
4.00000 7.03348 4.00000
4.00000 7.03348 4.00000
4.00000 7.03348 4.00000
4.00000 7.03348 4.00000
4.00000 7.03348 4.00000
4.00000 7.03348 4.00000
4.00000 7.03348 4.00000
4.00000 7.03348 4.00000
4.00000 7.03348 4.00000
4.00000 7.03348 4.00000
4.00000 7.03348 4.00000
4.00000 7.03348 4.00000
4.00000 7.03348 4.00000
4.00000 7.03348 4.00000
4.00000 7.03348 4.00000
4.00000 7.03348 4.00000
4.00000 7.03348 4.00000
4.00000 7.03348 4.00000
4.00000 7.03348 4.00000
4.00000 7.03348 4.00000
4.00000 7.03348 4.00000
4.00000 7.03348 4.00000
4.00000 7.03348 4.00000
4.00000 7.03348 4.00000
4.00000 7.03348 4.00000
4.00000 7.03348 4.00000
4.00000 7.03348 4.00000
4.00000 7.03348 4.00000
4.00000 7.03348 4.00000
4.00000 7.03348 4.00000
4.00000 7.03348 4.00000
4.00000 7.03348 4.00000
4.00000 7.03348 4.00000
4.00000 7.03348 4.00000
4.00000 7.03348 4.00000
4.00000 7.03348 4.00000
4.00000 7.03348 4.00000
4.00000 7.03348 4.00000
4.00000 7.03348 4.00000
4.00000 7.03348 4.00000
4.00000 7.03349 4.00000
4.00000 7.03348 4.00000
4.00000 7.03348 4.00000
4.00000 7.03348 4.00000
4.00000 7.03349 4.00000
4.00000 7.03348 4.00000
4.00000 7.03348 4.00000
4.00000 7.03348 4.00000
4.00000 7.03349 4.00000
4.00000 7.03348 4.00000
4.00000 7.03348 4.00000
4.00000 7.03348 4.00000
4.00000 7.03348 4.00000
4.00000 7.03348 4.00000
4.00000 7.03348 4.00000
4.00000 7.03348 4.00000
4.00000 7.03347 4.00000
4.00000 7.03347 4.00000
4.00000 7.03348 4.00000
4.00000 7.03348 4.00000
4.00042 7.04086 4.00042
4.00444 7.11219 4.00444
4.00840 7.18384 4.00840
4.01232 7.25576 4.01232
4.01620 7.32790 4.01620
4.02006 7.40023 4.02006
4.02392 7.47270 4.02392
4.02778 7.54528 4.02778
4.03166 7.61792 4.03166
4.03557 7.69058 4.03558
4.03954 7.76322 4.03954
4.04358 7.83577 4.04358
4.04770 7.90821 4.04770
4.05193 7.98045 4.05193
4.05629 8.05244 4.05629
4.06082 8.12410 4.06082
4.06553 8.19535 4.06553
4.07047 8.26609 4.07048
4.07569 8.33620 4.07569
4.08122 8.40557 4.08123
4.08714 8.47403 4.08714
4.09350 8.54141 4.09350
4.10040 8.60749 4.10040
4.10793 8.67202 4.10793
4.11609 8.73503 4.11609
4.12485 8.79662 4.12485
4.13424 8.85671 4.13424
4.14430 8.91525 4.14430
4.15505 8.97219 4.15505
4.16651 9.02749 4.16651
4.17872 9.08113 4.17872
4.19167 9.13308 4.19167
4.20538 9.18335 4.20538
4.21986 9.23196 4.21986
4.23510 9.27892 4.23509
4.25109 9.32428 4.25109
4.26784 9.36808 4.26784
4.28531 9.41039 4.28531
4.30350 9.45124 4.30350
4.32238 9.49073 4.32238
4.34192 9.52889 4.34193
4.36212 9.56581 4.36212
4.38295 9.60154 4.38295
4.40439 9.63612 4.40439
4.42642 9.66959 4.42642
4.44905 9.70197 4.44904
4.47227 9.73324 4.47226
4.49611 9.76335 4.49611
4.52063 9.79216 4.52063
4.54593 9.81945 4.54594
4.57222 9.84475 4.57222
4.59983 9.86728 4.59982
4.62942 9.88554 4.62942
4.66221 9.89680 4.66221
7.81230 7.38346 4.01917
7.94255 7.33704 4.01669
8.06407 7.29933 4.01467
8.17925 7.26798 4.01298
8.28962 7.24144 4.01154
8.39624 7.21871 4.01031
8.49984 7.19903 4.00923
8.60096 7.18187 4.00829
8.70005 7.16680 4.00747
8.79742 7.15351 4.00673
8.89333 7.14172 4.00608
8.98800 7.13124 4.00550
9.08160 7.12188 4.00498
9.17428 7.11351 4.00451
9.26615 7.10600 4.00409
9.35733 7.09925 4.00372
9.44789 7.09317 4.00338
9.53791 7.08769 4.00307
9.62748 7.08273 4.00279
9.71661 7.07826 4.00254
9.80539 7.07421 4.00231
9.89384 7.07054 4.00210
9.98202 7.06721 4.00192
10.06994 7.06419 4.00174
10.15764 7.06145 4.00159
10.24515 7.05896 4.00145
10.33249 7.05669 4.00132
10.41969 7.05463 4.00120
10.50675 7.05276 4.00110
10.59370 7.05106 4.00100
10.68055 7.04950 4.00091
10.76732 7.04809 4.00083
10.85402 7.04680 4.00076
10.94066 7.04563 4.00069
11.02725 7.04456 4.00063
11.11379 7.04358 4.00057
11.20030 7.04269 4.00053
11.28679 7.04188 4.00048
11.37325 7.04115 4.00044
11.45969 7.04047 4.00040
11.54613 7.03986 4.00036
11.63257 7.03929 4.00033
11.71898 7.03879 4.00030
11.80541 7.03832 4.00028
11.89185 7.03790 4.00025
11.97829 7.03751 4.00023
12.06475 7.03715 4.00021
12.15122 7.03683 4.00019
12.23770 7.03654 4.00017
12.32420 7.03627 4.00016
12.41072 7.03602 4.00014
12.49726 7.03580 4.00013
12.58383 7.03559 4.00012
12.67042 7.03541 4.00011
12.75703 7.03524 4.00010
12.84367 7.03508 4.00009
12.93034 7.03494 4.00008
13.01702 7.03482 4.00008
13.10375 7.03469 4.00007
13.19050 7.03458 4.00006
13.27728 7.03448 4.00006
13.36407 7.03441 4.00005
13.45091 7.03432 4.00005
13.53777 7.03424 4.00004
13.62458 7.03418 4.00004
13.71149 7.03412 4.00004
13.79843 7.03406 4.00003
13.88540 7.03401 4.00003
13.97240 7.03396 4.00003
14.05943 7.03392 4.00003
14.14649 7.03388 4.00002
14.23358 7.03384 4.00002
14.32069 7.03381 4.00002
14.40784 7.03378 4.00002
14.49501 7.03375 4.00002
14.58221 7.03373 4.00001
14.66944 7.03371 4.00001
14.75670 7.03369 4.00001
14.84399 7.03367 4.00001
14.93130 7.03365 4.00001
15.01864 7.03364 4.00001
15.10601 7.03362 4.00001
15.19341 7.03361 4.00001
15.28083 7.03360 4.00001
15.36828 7.03359 4.00001
15.45575 7.03358 4.00001
15.54325 7.03357 4.00001
15.63078 7.03356 4.00000
15.71832 7.03355 4.00000
15.80590 7.03355 4.00000
15.89350 7.03354 4.00000
15.98112 7.03354 4.00000
16.06877 7.03353 4.00000
16.15645 7.03352 4.00000
16.24414 7.03352 4.00000
16.33186 7.03352 4.00000
16.41961 7.03351 4.00000
16.50737 7.03351 4.00000
16.59516 7.03351 4.00000
16.68297 7.03351 4.00000
16.77081 7.03350 4.00000
16.85866 7.03350 4.00000
16.94654 7.03350 4.00000
17.03444 7.03350 4.00000
17.12236 7.03350 4.00000
17.21030 7.03349 4.00000
17.29827 7.03349 4.00000
17.38625 7.03349 4.00000
17.47425 7.03349 4.00000
17.56227 7.03349 4.00000
17.65032 7.03349 4.00000
17.73837 7.03349 4.00000
17.82645 7.03349 4.00000
17.91455 7.03348 4.00000
18.00266 7.03349 4.00000
18.09080 7.03348 4.00000
18.17896 7.03348 4.00000
18.26713 7.03348 4.00000
18.35532 7.03348 4.00000
18.44353 7.03348 4.00000
18.53176 7.03348 4.00000
18.62000 7.03348 4.00000
18.70827 7.03348 4.00000
18.79654 7.03348 4.00000
18.88483 7.03347 4.00000
18.97314 7.03348 4.00000
19.06147 7.03348 4.00000
19.14981 7.03348 4.00000
19.23818 7.03348 4.00000
19.32655 7.03348 4.00000
19.41495 7.03348 4.00000
19.50336 7.03348 4.00000
19.59178 7.03348 4.00000
19.68022 7.03348 4.00000
19.76868 7.03348 4.00000
19.85714 7.03348 4.00000
19.94562 7.03348 4.00000
20.03410 7.03348 4.00000
20.12262 7.03348 4.00000
20.21112 7.03348 4.00000
20.29965 7.03348 4.00000
20.38820 7.03348 4.00000
20.47675 7.03348 4.00000
20.56531 7.03348 4.00000
20.65389 7.03348 4.00000
20.74247 7.03348 4.00000
20.83108 7.03348 4.00000
20.91969 7.03348 4.00000
21.00832 7.03348 4.00000
21.09695 7.03348 4.00000
21.18560 7.03348 4.00000
21.27427 7.03348 4.00000
21.36294 7.03348 4.00000
21.45162 7.03348 4.00000

Angle 0.330038 5.582018

4.00000 7.03348 4.00000
4.00000 7.03348 4.00000
4.00000 7.03348 4.00000
3.99999 7.03358 3.99999
4.00000 7.03347 4.00000
4.00000 7.03348 4.00000
4.00000 7.03348 4.00000
4.00000 7.03348 4.00000
4.00000 7.03348 4.00000
4.00000 7.03348 4.00000
4.00000 7.03348 4.00000
4.00000 7.03348 4.00000
4.00000 7.03350 4.00000
4.00000 7.03348 4.00000
4.00000 7.03347 4.00000
4.00000 7.03348 4.00000
4.00000 7.03348 4.00000
4.00000 7.03348 4.00000
4.00000 7.03349 4.00000
4.00000 7.03349 4.00000
4.00000 7.03348 4.00000
4.00000 7.03348 4.00000
4.00000 7.03351 4.00000
4.00000 7.03350 4.00000
4.00000 7.03348 4.00000
4.00000 7.03348 4.00000
4.00000 7.03348 4.00000
4.00000 7.03348 4.00000
4.00000 7.03350 4.00000
4.00000 7.03349 4.00000
4.00000 7.03349 4.00000
4.00000 7.03348 4.00000
4.00000 7.03348 4.00000
4.00000 7.03348 4.00000
4.00000 7.03348 4.00000
4.00000 7.03347 4.00000
4.00000 7.03348 4.00000
4.00000 7.03348 4.00000
4.00000 7.03348 4.00000
4.00000 7.03348 4.00000
4.00000 7.03348 4.00000
4.00000 7.03348 4.00000
4.00000 7.03348 4.00000
4.00000 7.03348 4.00000
4.00000 7.03348 4.00000
4.00000 7.03348 4.00000
4.00000 7.03348 4.00000
4.00000 7.03349 4.00000
4.00000 7.03349 4.00000
4.00000 7.03348 4.00000
4.00000 7.03349 4.00000
4.00000 7.03348 4.00000
4.00000 7.03348 4.00000
4.00000 7.03348 4.00000
4.00000 7.03348 4.00000
4.00000 7.03348 4.00000
4.00000 7.03348 4.00000
4.00000 7.03348 4.00000
4.00000 7.03348 4.00000
4.00000 7.03348 4.00000
4.00000 7.03348 4.00000
4.00000 7.03348 4.00000
4.00000 7.03347 4.00000
4.00000 7.03348 4.00000
4.00000 7.03348 4.00000
4.00000 7.03348 4.00000
4.00000 7.03348 4.00000
4.00000 7.03349 4.00000
4.00000 7.03349 4.00000
4.00000 7.03349 4.00000
4.00000 7.03349 4.00000
4.00000 7.03348 4.00000
4.00000 7.03348 4.00000
4.00000 7.03349 4.00000
4.00000 7.03349 4.00000
4.00000 7.03349 4.00000
4.00000 7.03349 4.00000
4.00000 7.03348 4.00000
4.00000 7.03348 4.00000
4.00000 7.03348 4.00000
4.00000 7.03348 4.00000
4.00000 7.03348 4.00000
4.00000 7.03349 4.00000
4.00000 7.03348 4.00000
4.00000 7.03348 4.00000
4.00000 7.03349 4.00000
4.00000 7.03349 4.00000
4.00000 7.03348 4.00000
4.00000 7.03348 4.00000
4.00000 7.03348 4.00000
4.00000 7.03348 4.00000
4.00000 7.03348 4.00000
4.00000 7.03348 4.00000
4.00000 7.03348 4.00000
4.00000 7.03348 4.00000
4.00000 7.03348 4.00000
4.00000 7.03348 4.00000
4.00000 7.03348 4.00000
4.00000 7.03348 4.00000
4.00000 7.03348 4.00000
4.00000 7.03348 4.00000
4.00000 7.03348 4.00000
4.00000 7.03348 4.00000
4.00000 7.03348 4.00000
4.00000 7.03348 4.00000
4.00000 7.03348 4.00000
4.00000 7.03348 4.00000
4.00000 7.03348 4.00000
4.00000 7.03348 4.00000
4.00000 7.03348 4.00000
4.00000 7.03348 4.00000
4.00000 7.03348 4.00000
4.00000 7.03348 4.00000
4.00000 7.03348 4.00000
4.00000 7.03347 4.00000
4.00000 7.03348 4.00000
4.00000 7.03348 4.00000
4.00000 7.03348 4.00000
4.00000 7.03348 4.00000
4.00000 7.03348 4.00000
4.00000 7.03348 4.00000
4.00000 7.03348 4.00000
4.00000 7.03348 4.00000
4.00000 7.03348 4.00000
4.00000 7.03348 4.00000
4.00000 7.03348 4.00000
4.00000 7.03348 4.00000
4.00000 7.03348 4.00000
4.00000 7.03351 4.00000
4.00000 7.03349 4.00000
4.00000 7.03348 4.00000
4.00000 7.03348 4.00000
4.00000 7.03348 4.00000
4.00000 7.03348 4.00000
4.00000 7.03348 4.00000
4.00000 7.03348 4.00000
4.00000 7.03348 4.00000
4.00000 7.03348 4.00000
4.00000 7.03348 4.00000
4.00000 7.03348 4.00000
4.00000 7.03348 4.00000
4.00000 7.03349 4.00000
4.00000 7.03348 4.00000
4.00143 7.05871 4.00143
4.00579 7.13640 4.00579
4.01007 7.21435 4.01007
4.01430 7.29249 4.01430
4.01849 7.37079 4.01849
4.02267 7.44918 4.02267
4.02684 7.52763 4.02684
4.03102 7.60608 4.03103
4.03524 7.68448 4.03524
4.03952 7.76277 4.03952
4.04386 7.84089 4.04386
4.04831 7.91878 4.04831
4.05288 7.99637 4.05288
4.05761 8.07357 4.05761
4.06252 8.15030 4.06252
4.06767 8.22644 4.06767
4.07310 8.30188 4.07310
4.07885 8.37646 4.07885
4.08501 8.45003 4.08501
4.09164 8.52237 4.09164
4.09885 8.59324 4.09885
4.10674 8.66236 4.10674
4.11536 8.72966 4.11536
4.12465 8.79530 4.12465
4.13465 8.85920 4.13465
4.14539 8.92129 4.14539
4.15691 8.98153 4.15691
4.16923 9.03987 4.16923
4.18238 9.09629 4.18237
4.19636 9.15078 4.19635
4.21119 9.20335 4.21118
4.22686 9.25403 4.22686
4.24337 9.30285 4.24337
4.26072 9.34988 4.26072
4.27887 9.39517 4.27887
4.29782 9.43881 4.29782
4.31753 9.48086 4.31754
4.33798 9.52141 4.33799
4.35915 9.56053 4.35915
4.38100 9.59829 4.38101
4.40352 9.63477 4.40352
4.42669 9.66999 4.42669
4.45050 9.70398 4.45050
4.47495 9.73673 4.47495
4.50009 9.76817 4.50009
4.52597 9.79813 4.52597
4.55273 9.82631 4.55274
4.58064 9.85211 4.58064
4.61018 9.87443 4.61018
4.64227 9.89117 4.64227
4.67807 9.89844 4.67921
4.01786 7.35896 7.87871
4.01554 7.31556 8.00978
4.01363 7.28014 8.13282
4.01204 7.25061 8.24994
4.01068 7.22561 8.36255
4.00952 7.20418 8.47158
4.00850 7.18565 8.57772
4.00761 7.16950 8.68150
4.00683 7.15535 8.78330
4.00615 7.14288 8.88344
4.00553 7.13185 8.98217
4.00499 7.12206 9.07969
4.00450 7.11335 9.17616
4.00407 7.10556 9.27173
4.00368 7.09860 9.36651
4.00333 7.09236 9.46061
4.00302 7.08676 9.55409
4.00273 7.08172 9.64705
4.00248 7.07718 9.73954
4.00225 7.07308 9.83161
4.00204 7.06939 9.92332
4.00185 7.06605 10.01471
4.00168 7.06304 10.10580
4.00153 7.06031 10.19664
4.00139 7.05784 10.28726
4.00126 7.05561 10.37767
4.00114 7.05358 10.46791
4.00104 7.05174 10.55799
4.00094 7.05007 10.64793
4.00086 7.04856 10.73776
4.00078 7.04718 10.82747
4.00071 7.04594 10.91708
4.00064 7.04480 11.00661
4.00059 7.04378 11.09607
4.00053 7.04284 11.18546
4.00048 7.04199 11.27479
4.00044 7.04122 11.36408
4.00040 7.04052 11.45332
4.00037 7.03988 11.54253
4.00033 7.03930 11.63171
4.00030 7.03878 11.72086
4.00027 7.03830 11.80999
4.00025 7.03786 11.89911
4.00022 7.03747 11.98820
4.00020 7.03711 12.07729
4.00019 7.03678 12.16637
4.00017 7.03648 12.25545
4.00016 7.03620 12.34453
4.00014 7.03595 12.43360
4.00013 7.03574 12.52266
4.00012 7.03553 12.61174
4.00011 7.03535 12.70082
4.00010 7.03518 12.78990
4.00009 7.03502 12.87899
4.00008 7.03488 12.96809
4.00007 7.03476 13.05720
4.00007 7.03464 13.14631
4.00006 7.03454 13.23544
4.00005 7.03444 13.32457
4.00005 7.03435 13.41372
4.00004 7.03428 13.50287
4.00004 7.03420 13.59205
4.00004 7.03414 13.68122
4.00003 7.03407 13.77042
4.00003 7.03402 13.85962
4.00003 7.03397 13.94884
4.00003 7.03393 14.03806
4.00002 7.03388 14.12731
4.00002 7.03385 14.21656
4.00002 7.03381 14.30584
4.00002 7.03379 14.39511
4.00002 7.03375 14.48441
4.00001 7.03373 14.57371
4.00001 7.03370 14.66304
4.00001 7.03369 14.75236
4.00001 7.03366 14.84172
4.00001 7.03365 14.93107
4.00001 7.03363 15.02044
4.00001 7.03362 15.10982
4.00001 7.03360 15.19922
4.00001 7.03359 15.28863
4.00001 7.03358 15.37805
4.00001 7.03357 15.46748
4.00001 7.03357 15.55692
4.00000 7.03356 15.64638
4.00000 7.03354 15.73586
4.00000 7.03354 15.82534
4.00000 7.03353 15.91483
4.00000 7.03353 16.00433
4.00000 7.03353 16.09385
4.00000 7.03353 16.18337
4.00000 7.03353 16.27291
4.00000 7.03351 16.36247
4.00000 7.03351 16.45202
4.00000 7.03351 16.54159
4.00000 7.03351 16.63118
4.00000 7.03350 16.72077
4.00000 7.03348 16.81039
4.00000 7.03350 16.89998
4.00000 7.03350 16.98961
4.00000 7.03350 17.07924
4.00000 7.03350 17.16888
4.00000 7.03349 17.25853
4.00000 7.03349 17.34819
4.00000 7.03349 17.43786
4.00000 7.03349 17.52754
4.00000 7.03349 17.61724
4.00000 7.03349 17.70693
4.00000 7.03349 17.79662
4.00000 7.03349 17.88632
4.00000 7.03349 17.97604
4.00000 7.03349 18.06576
4.00000 7.03349 18.15549
4.00000 7.03348 18.24522
4.00000 7.03348 18.33498
4.00000 7.03348 18.42473
4.00000 7.03348 18.51450
4.00000 7.03348 18.60428
4.00000 7.03348 18.69406
4.00000 7.03348 18.78386
4.00000 7.03348 18.87366
4.00000 7.03348 18.96346
4.00000 7.03348 19.05328
4.00000 7.03348 19.14309
4.00000 7.03348 19.23292
4.00000 7.03348 19.32275
4.00000 7.03348 19.41259
4.00000 7.03348 19.50243
4.00000 7.03348 19.59229
4.00000 7.03348 19.68214
4.00000 7.03348 19.77200
4.00000 7.03348 19.86187
4.00000 7.03348 19.95175
4.00000 7.03348 20.04163
4.00000 7.03348 20.13151
4.00000 7.03348 20.22141
4.00000 7.03348 20.31130
4.00000 7.03348 20.40121
4.00000 7.03348 20.49112
4.00000 7.03347 20.58103
4.00000 7.03348 20.67094
4.00000 7.03348 20.76086
4.00000 7.03348 20.85080
4.00000 7.03347 20.94073
4.00000 7.03348 21.03067
4.00000 7.03347 21.12062
4.00000 7.03348 21.21056
4.00000 7.03349 21.30051
4.00000 7.03348 21.39048
4.00000 7.03347 21.48045
4.00000 7.03348 21.57041
4.00000 7.03347 21.66041
4.00000 7.03348 21.75039
4.00000 7.03348 21.84038
4.00000 7.03348 21.93038
4.00000 7.03348 22.02038
4.00000 7.03348 22.11039
4.00000 7.03348 22.20040
4.00000 7.03348 22.29041
4.00000 7.03348 22.38043
4.00000 7.03348 22.47045
4.00000 7.03348 22.56048
4.00000 7.03348 22.65051
4.00000 7.03348 22.74054
4.00000 7.03348 22.83057
4.00000 7.03348 22.92062
4.00000 7.03348 23.01065
4.00000 7.03348 23.10070
4.00000 7.03348 23.19074
4.00000 7.03348 23.28080
4.00000 7.03348 23.37085
4.00000 7.03348 23.46091
4.00000 7.03348 23.55097
4.00000 7.03348 23.64104
4.00000 7.03348 23.73110
4.00000 7.03348 23.82117
4.00000 7.03348 23.91124
4.00000 7.03348 24.00132
4.00000 7.03348 24.09140
4.00000 7.03348 24.18148
4.00000 7.03348 24.27157
4.00000 7.03348 24.36166
4.00000 7.03348 24.45175
4.00000 7.03348 24.54185
4.00000 7.03348 24.63195
4.00000 7.03348 24.72206
4.00000 7.03348 24.81216
4.00000 7.03348 24.90228
4.00000 7.03348 24.99240
4.00000 7.03348 25.08252
4.00000 7.03348 25.17264
4.00000 7.03348 25.26277
4.00000 7.03348 25.35290
4.00000 7.03348 25.44303
4.00000 7.03348 25.53317
4.00000 7.03348 25.62330
4.00000 7.03348 25.71344
4.00000 7.03348 25.80359
4.00000 7.03348 25.89373
4.00000 7.03348 25.98388
4.00000 7.03348 26.07403
4.00000 7.03348 26.16419
4.00000 7.03348 26.25434
4.00000 7.03348 26.34450
4.00000 7.03348 26.43466
4.00000 7.03348 26.52483

Angle 0.195907 0.157824

4.00000 7.03348 4.00000
4.00000 7.03348 4.00000
4.00000 7.03348 4.00000
4.00000 7.03345 4.00000
4.00000 7.03348 4.00000
4.00000 7.03348 4.00000
4.00000 7.03348 4.00000
4.00000 7.03348 4.00000
4.00000 7.03348 4.00000
4.00000 7.03348 4.00000
4.00000 7.03348 4.00000
4.00000 7.03348 4.00000
4.00000 7.03348 4.00000
4.00000 7.03348 4.00000
4.00000 7.03348 4.00000
4.00000 7.03348 4.00000
4.00000 7.03348 4.00000
4.00000 7.03349 4.00000
4.00000 7.03348 4.00000
4.00000 7.03348 4.00000
4.00000 7.03348 4.00000
4.00000 7.03348 4.00000
4.00000 7.03349 4.00000
4.00000 7.03348 4.00000
4.00000 7.03348 4.00000
4.00000 7.03349 4.00000
4.00000 7.03348 4.00000
4.00000 7.03350 4.00000
4.00000 7.03348 4.00000
4.00000 7.03348 4.00000
4.00000 7.03348 4.00000
4.00000 7.03348 4.00000
4.00000 7.03348 4.00000
4.00000 7.03348 4.00000
4.00000 7.03348 4.00000
4.00000 7.03348 4.00000
4.00000 7.03348 4.00000
4.00000 7.03348 4.00000
4.00000 7.03348 4.00000
4.00000 7.03348 4.00000
4.00000 7.03348 4.00000
4.00000 7.03348 4.00000
4.00000 7.03348 4.00000
4.00000 7.03348 4.00000
4.00000 7.03348 4.00000
4.00000 7.03348 4.00000
4.00000 7.03348 4.00000
4.00000 7.03348 4.00000
4.00000 7.03348 4.00000
4.00000 7.03348 4.00000
4.00000 7.03350 4.00000
4.00000 7.03350 4.00000
4.00000 7.03350 4.00000
4.00000 7.03348 4.00000
4.00000 7.03348 4.00000
4.00000 7.03348 4.00000
4.00000 7.03347 4.00000
4.00000 7.03348 4.00000
4.00000 7.03348 4.00000
4.00000 7.03348 4.00000
4.00000 7.03348 4.00000
4.00000 7.03348 4.00000
4.00000 7.03348 4.00000
4.00000 7.03348 4.00000
4.00000 7.03350 4.00000
4.00000 7.03347 4.00000
4.00043 7.04098 4.00043
4.00471 7.11696 4.00471
4.00892 7.19322 4.00892
4.01307 7.26970 4.01307
4.01719 7.34636 4.01719
4.02128 7.42315 4.02128
4.02537 7.50003 4.02537
4.02947 7.57694 4.02947
4.03359 7.65385 4.03359
4.03776 7.73069 4.03776
4.04199 7.80742 4.04199
4.04631 7.88397 4.04631
4.05074 7.96027 4.05073
4.05530 8.03626 4.05530
4.06003 8.11185 4.06003
4.06497 8.18695 4.06497
4.07014 8.26144 4.07014
4.07562 8.33521 4.07561
4.08144 8.40811 4.08144
4.08767 8.47995 4.08767
4.09441 8.55054 4.09441
4.10174 8.61962 4.10175
4.10979 8.68691 4.10979
4.11849 8.75255 4.11849
4.12787 8.81657 4.12787
4.13794 8.87889 4.13794
4.14875 8.93947 4.14875
4.16031 8.99824 4.16031
4.17267 9.05517 4.17267
4.18583 9.11024 4.18583
4.19981 9.16345 4.19981
4.21461 9.21482 4.21461
4.23023 9.26436 4.23023
4.24667 9.31212 4.24667
4.26392 9.35815 4.26392
4.28196 9.40252 4.28196
4.30076 9.44529 4.30076
4.32031 9.48654 4.32031
4.34058 9.52635 4.34058
4.36154 9.56478 4.36154
4.38317 9.60191 4.38317
4.40545 9.63778 4.40545
4.42836 9.67245 4.42837
4.45190 9.70593 4.45190
4.47608 9.73819 4.47608
4.50092 9.76918 4.50092
4.52650 9.79872 4.52650
4.55295 9.82652 4.55295
4.58051 9.85200 4.58051
4.60967 9.87410 4.60967
4.64130 9.89080 4.64130
4.67705 9.89840 4.67705
4.01800 7.36152 7.87155
4.01567 7.31807 8.00164
4.01377 7.28259 8.12373
4.01217 7.25298 8.23994
4.01081 7.22789 8.35163
4.00964 7.20638 8.45976
4.00862 7.18775 8.56502
4.00773 7.17151 8.66792
4.00694 7.15726 8.76886
4.00625 7.14470 8.86815
4.00563 7.13357 8.96603
4.00508 7.12369 9.06270
4.00459 7.11489 9.15834
4.00415 7.10702 9.25308
4.00376 7.09997 9.34702
4.00340 7.09365 9.44029
4.00308 7.08797 9.53296
4.00280 7.08286 9.62510
4.00254 7.07825 9.71678
4.00230 7.07409 9.80804
4.00209 7.07033 9.89894
4.00190 7.06694 9.98952
4.00173 7.06386 10.07982
4.00157 7.06109 10.16987
4.00143 7.05856 10.25970
4.00130 7.05628 10.34933
4.00118 7.05420 10.43879
4.00107 7.05233 10.52809
4.00098 7.05061 10.61726
4.00089 7.04907 10.70631
4.00081 7.04766 10.79525
4.00073 7.04637 10.88412
4.00067 7.04522 10.97288
4.00061 7.04416 11.06158
4.00055 7.04320 11.15022
4.00050 7.04233 11.23882
4.00046 7.04153 11.32737
4.00042 7.04080 11.41588
4.00038 7.04014 11.50437
4.00035 7.03955 11.59281
4.00031 7.03900 11.68124
4.00029 7.03851 11.76965
4.00026 7.03806 11.85806
4.00024 7.03765 11.94645
4.00022 7.03727 12.03483
4.00020 7.03693 12.12321
4.00018 7.03661 12.21160
4.00016 7.03634 12.29998
4.00015 7.03608 12.38837
4.00014 7.03585 12.47676
4.00012 7.03564 12.56516
4.00011 7.03544 12.65357
4.00010 7.03526 12.74199
4.00009 7.03510 12.83042
4.00008 7.03495 12.91887
4.00008 7.03483 13.00731
4.00007 7.03471 13.09578
4.00006 7.03460 13.18426
4.00006 7.03450 13.27276
4.00005 7.03440 13.36127
4.00005 7.03432 13.44980
4.00005 7.03426 13.53832
4.00004 7.03417 13.62690
4.00004 7.03411 13.71548
4.00003 7.03406 13.80408
4.00003 7.03400 13.89269
4.00003 7.03396 13.98132
4.00003 7.03391 14.06997
4.00002 7.03388 14.15863
4.00002 7.03384 14.24731
4.00002 7.03381 14.33601
4.00002 7.03378 14.42473
4.00002 7.03375 14.51346
4.00002 7.03373 14.60221
4.00001 7.03370 14.69098
4.00001 7.03368 14.77976
4.00001 7.03367 14.86856
4.00001 7.03365 14.95737
4.00001 7.03363 15.04620
4.00001 7.03362 15.13505
4.00001 7.03361 15.22391
4.00001 7.03360 15.31279
4.00001 7.03358 15.40169
4.00001 7.03358 15.49060
4.00001 7.03357 15.57952
4.00001 7.03356 15.66846
4.00000 7.03355 15.75742
4.00000 7.03355 15.84639
4.00000 7.03354 15.93537
4.00000 7.03353 16.02438
4.00000 7.03353 16.11339
4.00000 7.03352 16.20242
4.00000 7.03352 16.29146
4.00000 7.03352 16.38052
4.00000 7.03351 16.46960
4.00000 7.03351 16.55868
4.00000 7.03351 16.64779
4.00000 7.03351 16.73690
4.00000 7.03350 16.82603
4.00000 7.03350 16.91517
4.00000 7.03350 17.00433
4.00000 7.03350 17.09350
4.00000 7.03350 17.18269
4.00000 7.03349 17.27189
4.00000 7.03349 17.36110
4.00000 7.03349 17.45033
4.00000 7.03349 17.53956
4.00000 7.03349 17.62881
4.00000 7.03349 17.71808
4.00000 7.03349 17.80735
4.00000 7.03349 17.89664
4.00000 7.03349 17.98593
4.00000 7.03349 18.07524
4.00000 7.03349 18.16456
4.00000 7.03348 18.25389
4.00000 7.03348 18.34322
4.00000 7.03348 18.43257
4.00000 7.03348 18.52193
4.00000 7.03348 18.61130
4.00000 7.03348 18.70068
4.00000 7.03348 18.79007
4.00000 7.03348 18.87947
4.00000 7.03348 18.96887
4.00000 7.03348 19.05829
4.00000 7.03348 19.14771
4.00000 7.03348 19.23715
4.00000 7.03348 19.32659
4.00000 7.03348 19.41604
4.00000 7.03348 19.50550
4.00000 7.03348 19.59497
4.00000 7.03348 19.68446
4.00000 7.03348 19.77396
4.00000 7.03348 19.86348
4.00000 7.03348 19.95300
4.00000 7.03348 20.04252
4.00000 7.03348 20.13206
4.00000 7.03348 20.22161
4.00000 7.03348 20.31116
4.00000 7.03348 20.40072
4.00000 7.03348 20.49029
4.00000 7.03348 20.57986
4.00000 7.03348 20.66944
4.00000 7.03348 20.75903
4.00000 7.03348 20.84863
4.00000 7.03348 20.93823
4.00000 7.03348 21.02784
4.00000 7.03348 21.11746
4.00000 7.03348 21.20709
4.00000 7.03348 21.29672
4.00000 7.03348 21.38635
4.00000 7.03348 21.47600
4.00000 7.03348 21.56565
4.00000 7.03348 21.65530
4.00000 7.03348 21.74497
4.00000 7.03348 21.83463
4.00000 7.03348 21.92431
4.00000 7.03348 22.01399
4.00000 7.03348 22.10368
4.00000 7.03348 22.19337
4.00000 7.03348 22.28307
4.00000 7.03348 22.37277
4.00000 7.03348 22.46248
4.00000 7.03348 22.55220
4.00000 7.03348 22.64192
4.00000 7.03348 22.73164
4.00000 7.03348 22.82137
4.00000 7.03348 22.91111
4.00000 7.03348 23.00085
4.00000 7.03348 23.09060
4.00000 7.03348 23.18035
4.00000 7.03348 23.27011
4.00000 7.03348 23.35987
4.00000 7.03348 23.44964
4.00000 7.03348 23.53941
4.00000 7.03348 23.62919
4.00000 7.03348 23.71897
4.00000 7.03348 23.80875
4.00000 7.03348 23.89854
4.00000 7.03348 23.98834
4.00000 7.03347 24.07812
4.00000 7.03348 24.16792
4.00000 7.03347 24.25771
4.00000 7.03347 24.34750
4.00000 7.03348 24.43730
4.00000 7.03347 24.52710
4.00000 7.03347 24.61690
4.00000 7.03347 24.70670
4.00000 7.03347 24.79651
4.00000 7.03348 24.88631
4.00000 7.03348 24.97612
4.00000 7.03348 25.06593
4.00000 7.03348 25.15574
4.00000 7.03348 25.24555
4.00000 7.03348 25.33537
4.00000 7.03348 25.42521
4.00000 7.03348 25.51507
4.00000 7.03348 25.60493
4.00000 7.03348 25.69477
4.00000 7.03348 25.78464
4.00000 7.03348 25.87450
4.00000 7.03348 25.96436
4.00000 7.03348 26.05422
4.00000 7.03348 26.14409
4.00000 7.03348 26.23396
4.00000 7.03348 26.32383
4.00000 7.03348 26.41370
4.00000 7.03348 26.50358
4.00000 7.03348 26.59345
4.00000 7.03348 26.68336
4.00000 7.03348 26.77328
4.00000 7.03348 26.86321
4.00000 7.03348 26.95309
4.00000 7.03348 27.04303
4.00000 7.03348 27.13296
4.00000 7.03348 27.22290
4.00000 7.03348 27.31285
4.00000 7.03348 27.40279
4.00000 7.03347 27.49272
4.00000 7.03348 27.58263
4.00000 7.03348 27.67255
4.00000 7.03348 27.76247
4.00000 7.03348 27.85240
4.00000 7.03348 27.94233
4.00000 7.03348 28.03227
4.00000 7.03348 28.12222
4.00000 7.03348 28.21217
4.00000 7.03348 28.30213
4.00000 7.03348 28.39209
4.00000 7.03348 28.48205
4.00000 7.03348 28.57202
4.00000 7.03348 28.66199
4.00000 7.03348 28.75197
4.00000 7.03348 28.84195
4.00000 7.03348 28.93193
4.00000 7.03348 29.02192
4.00000 7.03348 29.11192
4.00000 7.03348 29.20191
4.00000 7.03348 29.29191
4.00000 7.03348 29.38192
4.00000 7.03348 29.47193
4.00000 7.03348 29.56194
4.00000 7.03348 29.65196
4.00000 7.03348 29.74198
4.00000 7.03347 29.83201
4.00000 7.03348 29.92203
4.00000 7.03349 30.01205
4.00000 7.03348 30.10208
4.00000 7.03348 30.19210
4.00000 7.03348 30.28215
4.00000 7.03348 30.37218
4.00000 7.03349 30.46222
4.00000 7.03348 30.55226
4.00000 7.03348 30.64232
4.00000 7.03348 30.73235
4.00000 7.03348 30.82240
4.00000 7.03348 30.91245
4.00000 7.03348 31.00252
4.00000 7.03348 31.09257
4.00000 7.03348 31.18261
4.00000 7.03348 31.27267
4.00000 7.03348 31.36272
4.00000 7.03348 31.45278
4.00000 7.03348 31.54285
4.00000 7.03348 31.63291
4.00000 7.03348 31.72298
4.00000 7.03348 31.81306
4.00000 7.03348 31.90314
4.00000 7.03348 31.99322
4.00000 7.03348 32.08330
4.00000 7.03348 32.17339
4.00000 7.03348 32.26349
4.00000 7.03348 32.35358
4.00000 7.03348 32.44368
4.00000 7.03348 32.53378
4.00000 7.03348 32.62389
4.00000 7.03348 32.71399
4.00000 7.03348 32.80410
4.00000 7.03348 32.89422
4.00000 7.03348 32.98434
4.00000 7.03348 33.07446
4.00000 7.03348 33.16458
4.00000 7.03348 33.25471

Angle 0.228240 4.724461

4.00000 7.03348 4.00000
4.00000 7.03348 4.00000
4.00000 7.03348 4.00000
4.00000 7.03348 4.00000
4.00000 7.03348 4.00000
4.00000 7.03348 4.00000
4.00000 7.03348 4.00000
4.00000 7.03348 4.00000
4.00000 7.03348 4.00000
4.00000 7.03348 4.00000
4.00000 7.03348 4.00000
4.00000 7.03348 4.00000
4.00000 7.03348 4.00000
4.00000 7.03348 4.00000
4.00000 7.03348 4.00000
4.00000 7.03348 4.00000
4.00000 7.03348 4.00000
4.00000 7.03348 4.00000
4.00000 7.03348 4.00000
4.00000 7.03348 4.00000
4.00000 7.03348 4.00000
4.00000 7.03348 4.00000
4.00000 7.03348 4.00000
4.00000 7.03348 4.00000
4.00000 7.03348 4.00000
4.00000 7.03348 4.00000
4.00000 7.03348 4.00000
4.00000 7.03348 4.00000
4.00000 7.03348 4.00000
4.00000 7.03348 4.00000
4.00000 7.03348 4.00000
4.00000 7.03348 4.00000
4.00000 7.03348 4.00000
4.00000 7.03348 4.00000
4.00000 7.03348 4.00000
4.00000 7.03348 4.00000
4.00000 7.03348 4.00000
4.00000 7.03348 4.00000
4.00000 7.03348 4.00000
4.00000 7.03348 4.00000
4.00000 7.03348 4.00000
4.00000 7.03348 4.00000
4.00000 7.03348 4.00000
4.00000 7.03348 4.00000
4.00000 7.03348 4.00000
4.00000 7.03348 4.00000
4.00000 7.03348 4.00000
4.00000 7.03348 4.00000
4.00000 7.03348 4.00000
4.00000 7.03347 4.00000
4.00000 7.03347 4.00000
4.00000 7.03348 4.00000
4.00000 7.03348 4.00000
4.00000 7.03348 4.00000
4.00000 7.03348 4.00000
4.00000 7.03348 4.00000
4.00000 7.03348 4.00000
4.00000 7.03348 4.00000
4.00000 7.03348 4.00000
4.00000 7.03348 4.00000
4.00000 7.03348 4.00000
4.00000 7.03348 4.00000
4.00000 7.03348 4.00000
4.00000 7.03348 4.00000
4.00000 7.03349 4.00000
4.00000 7.03348 4.00000
4.00000 7.03348 4.00000
4.00000 7.03348 4.00000
4.00000 7.03348 4.00000
4.00000 7.03348 4.00000
4.00000 7.03348 4.00000
4.00000 7.03348 4.00000
4.00000 7.03348 4.00000
4.00000 7.03348 4.00000
4.00000 7.03349 4.00000
4.00000 7.03348 4.00000
4.00000 7.03348 4.00000
4.00000 7.03348 4.00000
4.00000 7.03349 4.00000
4.00000 7.03349 4.00000
4.00000 7.03348 4.00000
4.00000 7.03348 4.00000
4.00000 7.03348 4.00000
4.00000 7.03348 4.00000
4.00000 7.03348 4.00000
4.00000 7.03348 4.00000
4.00000 7.03348 4.00000
4.00000 7.03348 4.00000
4.00000 7.03348 4.00000
4.00000 7.03348 4.00000
4.00000 7.03348 4.00000
4.00000 7.03348 4.00000
4.00000 7.03345 4.00000
4.00000 7.03348 4.00000
4.00000 7.03348 4.00000
4.00000 7.03348 4.00000
4.00000 7.03342 4.00000
4.00000 7.03344 4.00000
4.00000 7.03348 4.00000
4.00000 7.03348 4.00000
4.00000 7.03348 4.00000
4.00000 7.03348 4.00000
4.00000 7.03348 4.00000
4.00000 7.03348 4.00000
4.00000 7.03348 4.00000
4.00000 7.03348 4.00000
4.00000 7.03348 4.00000
4.00000 7.03349 4.00000
4.00000 7.03349 4.00000
4.00000 7.03348 4.00000
4.00000 7.03348 4.00000
4.00000 7.03348 4.00000
4.00000 7.03348 4.00000
4.00000 7.03348 4.00000
4.00011 7.03543 4.00010
4.00385 7.10155 4.00385
4.00753 7.16802 4.00753
4.01118 7.23480 4.01118
4.01480 7.30185 4.01480
4.01840 7.36915 4.01840
4.02200 7.43665 4.02200
4.02560 7.50432 4.02560
4.02921 7.57215 4.02921
4.03285 7.64007 4.03285
4.03652 7.70806 4.03652
4.04025 7.77609 4.04025
4.04404 7.84409 4.04404
4.04792 7.91204 4.04792
4.05190 7.97988 4.05190
4.05599 8.04755 4.05599
4.06023 8.11499 4.06023
4.06464 8.18213 4.06464
4.06925 8.24889 4.06925
4.07409 8.31517 4.07409
4.07921 8.38087 4.07921
4.08464 8.44586 4.08465
4.09046 8.51001 4.09046
4.09672 8.57314 4.09672
4.10351 8.63503 4.10350
4.11088 8.69554 4.11088
4.11881 8.75479 4.11881
4.12729 8.81278 4.12729
4.13635 8.86945 4.13635
4.14602 8.92475 4.14602
4.15633 8.97863 4.15633
4.16729 9.03106 4.16729
4.17893 9.08201 4.17893
4.19125 9.13147 4.19125
4.20427 9.17944 4.20427
4.21799 9.22591 4.21799
4.23241 9.27092 4.23241
4.24753 9.31449 4.24753
4.26334 9.35665 4.26334
4.27983 9.39746 4.27983
4.29698 9.43695 4.29698
4.31478 9.47518 4.31479
4.33322 9.51221 4.33322
4.35226 9.54808 4.35226
4.37190 9.58286 4.37190
4.39212 9.61658 4.39212
4.41290 9.64929 4.41290
4.43423 9.68099 4.43423
4.45612 9.71170 4.45612
4.47857 9.74140 4.47857
4.50162 9.77002 4.50162
4.52532 9.79742 4.52532
4.54978 9.82335 4.54978
4.57519 9.84739 4.57519
4.60188 9.86876 4.60188
4.63048 9.88605 4.63048
4.66210 9.89678 4.66209
7.80682 7.38557 4.01928
7.93289 7.34026 4.01686
8.05066 7.30325 4.01488
8.16240 7.27232 4.01322
8.26954 7.24604 4.01179
8.37307 7.22343 4.01057
8.47370 7.20379 4.00949
8.57193 7.18660 4.00856
8.66821 7.17147 4.00772
8.76281 7.15807 4.00699
8.85601 7.14616 4.00633
8.94801 7.13554 4.00574
9.03899 7.12602 4.00521
9.12905 7.11749 4.00474
9.21834 7.10981 4.00431
9.30696 7.10289 4.00392
9.39499 7.09665 4.00357
9.48250 7.09100 4.00325
9.56955 7.08590 4.00296
9.65622 7.08125 4.00271
9.74254 7.07703 4.00247
9.82855 7.07322 4.00225
9.91429 7.06973 4.00206
9.99980 7.06657 4.00188
10.08511 7.06370 4.00172
10.17023 7.06108 4.00157
10.25520 7.05868 4.00143
10.34003 7.05651 4.00131
10.42476 7.05452 4.00120
10.50940 7.05269 4.00109
10.59395 7.05102 4.00100
10.67841 7.04952 4.00091
10.76283 7.04813 4.00083
10.84717 7.04688 4.00076
10.93148 7.04575 4.00070
11.01577 7.04469 4.00064
11.10005 7.04373 4.00058
11.18431 7.04285 4.00053
11.26856 7.04205 4.00049
11.35281 7.04131 4.00045
11.43707 7.04063 4.00041
11.52132 7.04002 4.00037
11.60559 7.03946 4.00034
11.68988 7.03895 4.00031
11.77419 7.03848 4.00029
11.85852 7.03805 4.00026
11.94287 7.03766 4.00024
12.02725 7.03730 4.00022
12.11167 7.03697 4.00020
12.19610 7.03668 4.00018
12.28058 7.03639 4.00017
12.36508 7.03615 4.00015
12.44963 7.03592 4.00014
12.53420 7.03571 4.00013
12.61882 7.03552 4.00012
12.70348 7.03534 4.00011
12.78817 7.03518 4.00010
12.87290 7.03504 4.00009
12.95768 7.03490 4.00008
13.04249 7.03478 4.00008
13.12735 7.03467 4.00007
13.21224 7.03456 4.00006
13.29718 7.03447 4.00006
13.38216 7.03438 4.00005
13.46718 7.03431 4.00005
13.55224 7.03423 4.00004
13.63734 7.03417 4.00004
13.72249 7.03411 4.00004
13.80768 7.03405 4.00003
13.89293 7.03401 4.00003
13.97823 7.03395 4.00003
14.06357 7.03391 4.00003
14.14882 7.03388 4.00002
14.23421 7.03384 4.00002
14.31965 7.03381 4.00002
14.40514 7.03378 4.00002
14.49067 7.03376 4.00002
14.57625 7.03373 4.00001
14.66188 7.03371 4.00001
14.74755 7.03369 4.00002
14.83326 7.03367 4.00001
14.91902 7.03365 4.00001
15.00481 7.03364 4.00001
15.09065 7.03362 4.00001
15.17653 7.03361 4.00001
15.26245 7.03360 4.00001
15.34840 7.03359 4.00001
15.43439 7.03358 4.00001
15.52042 7.03357 4.00000
15.60649 7.03356 4.00001
15.69259 7.03355 4.00001
15.77873 7.03355 4.00000
15.86490 7.03354 4.00001
15.95109 7.03354 4.00000
16.03733 7.03353 4.00000
16.12358 7.03352 4.00001
16.20989 7.03352 4.00000
16.29622 7.03352 4.00000
16.38259 7.03351 4.00000
16.46898 7.03351 4.00000
16.55540 7.03351 4.00000
16.64186 7.03350 4.00000
16.72833 7.03350 4.00000
16.81485 7.03350 4.00000
16.90139 7.03349 4.00000
16.98795 7.03349 4.00000
17.07455 7.03349 4.00000
17.16117 7.03350 4.00000
17.24782 7.03349 4.00000
17.33450 7.03349 4.00000
17.42121 7.03349 4.00000
17.50794 7.03349 4.00000
17.59469 7.03349 4.00000
17.68147 7.03349 4.00000
17.76827 7.03349 4.00000
17.85512 7.03349 4.00000
17.94197 7.03349 4.00000
18.02886 7.03348 4.00000
18.11576 7.03349 4.00000
18.20269 7.03348 4.00000
18.28963 7.03348 4.00000
18.37660 7.03348 4.00000
18.46360 7.03348 4.00000
18.55061 7.03348 4.00000
18.63765 7.03348 4.00000
18.72471 7.03348 4.00000
18.81182 7.03348 4.00000
18.89895 7.03348 4.00000
18.98610 7.03348 4.00000
19.07327 7.03348 4.00000
19.16046 7.03348 4.00000
19.24767 7.03348 4.00000
19.33491 7.03348 4.00000
19.42216 7.03348 4.00000
19.50944 7.03348 4.00000
19.59672 7.03348 4.00000
19.68401 7.03348 4.00000
19.77133 7.03348 4.00000
19.85868 7.03348 4.00000
19.94604 7.03348 4.00000
20.03341 7.03348 4.00000
20.12080 7.03348 4.00000
20.20821 7.03348 4.00000
20.29564 7.03348 4.00000
20.38308 7.03348 4.00000
20.47055 7.03348 4.00000
20.55803 7.03348 4.00000
20.64554 7.03348 4.00000
20.73306 7.03348 4.00000
20.82060 7.03348 4.00000
20.90816 7.03348 4.00000
20.99573 7.03348 4.00000
21.08333 7.03348 4.00000
21.17094 7.03348 4.00000
21.25857 7.03348 4.00000
21.34621 7.03348 4.00000
21.43388 7.03348 4.00000
21.52156 7.03348 4.00000
21.60925 7.03348 4.00000
21.69697 7.03348 4.00000
21.78470 7.03348 4.00000
21.87245 7.03348 4.00000
21.96022 7.03348 4.00000
22.04800 7.03348 4.00000
22.13580 7.03348 4.00000
22.22363 7.03347 4.00000
22.31145 7.03348 4.00000
22.39932 7.03347 4.00000
22.48718 7.03348 4.00000
22.57507 7.03347 4.00000
22.66295 7.03348 4.00000
22.75085 7.03349 4.00000
22.83878 7.03348 4.00000
22.92672 7.03348 4.00000
23.01469 7.03348 4.00000
23.10266 7.03348 4.00000
23.19063 7.03348 4.00000
23.27864 7.03348 4.00000
23.36666 7.03348 4.00000
23.45468 7.03348 4.00000
23.54271 7.03348 4.00000
23.63077 7.03348 4.00000
23.71883 7.03348 4.00000
23.80691 7.03348 4.00000
23.89500 7.03348 4.00000
23.98311 7.03348 4.00000
24.07123 7.03348 4.00000
24.15937 7.03348 4.00000
24.24752 7.03348 4.00000
24.33568 7.03348 4.00000
24.42386 7.03348 4.00000
24.51207 7.03348 4.00000
24.60027 7.03348 4.00000
24.68851 7.03348 4.00000
24.77674 7.03348 4.00000
24.86500 7.03348 4.00000
24.95328 7.03348 4.00000
25.04157 7.03348 4.00000
25.12987 7.03348 4.00000
25.21819 7.03348 4.00000
25.30652 7.03348 4.00000
25.39486 7.03348 4.00000
25.48321 7.03348 4.00000
25.57157 7.03348 4.00000
25.65995 7.03348 4.00000
25.74834 7.03348 4.00000
25.83674 7.03348 4.00000
25.92515 7.03348 4.00000
26.01357 7.03348 4.00000
26.10201 7.03348 4.00000
26.19045 7.03348 4.00000
26.27890 7.03348 4.00000
26.36737 7.03348 4.00000
26.45585 7.03348 4.00000
26.54434 7.03348 4.00000
26.63284 7.03348 4.00000
26.72135 7.03348 4.00000
26.80988 7.03348 4.00000
26.89841 7.03348 4.00000
26.98696 7.03348 4.00000
27.07552 7.03348 4.00000
27.16409 7.03348 4.00000
27.25267 7.03348 4.00000
27.34126 7.03348 4.00000
27.42986 7.03348 4.00000
27.51847 7.03348 4.00000
27.60709 7.03348 4.00000
27.69573 7.03348 4.00000
27.78437 7.03348 4.00000

Angle 0.027496 2.272885

4.00000 7.03348 4.00000
4.00000 7.03348 4.00000
4.00000 7.03348 4.00000
4.00000 7.03348 4.00000
4.00000 7.03348 4.00000
4.00000 7.03348 4.00000
4.00000 7.03348 4.00000
4.00000 7.03348 4.00000
4.00000 7.03348 4.00000
4.00000 7.03348 4.00000
4.00000 7.03348 4.00000
4.00000 7.03348 4.00000
4.00000 7.03348 4.00000
4.00000 7.03348 4.00000
4.00000 7.03348 4.00000
4.00000 7.03348 4.00000
4.00000 7.03348 4.00000
4.00000 7.03348 4.00000
4.00000 7.03348 4.00000
4.00000 7.03348 4.00000
4.00000 7.03348 4.00000
4.00000 7.03348 4.00000
4.00000 7.03348 4.00000
4.00000 7.03348 4.00000
4.00000 7.03348 4.00000
4.00000 7.03348 4.00000
4.00000 7.03348 4.00000
4.00000 7.03348 4.00000
4.00000 7.03348 4.00000
4.00000 7.03348 4.00000
4.00000 7.03348 4.00000
4.00000 7.03348 4.00000
4.00000 7.03348 4.00000
4.00000 7.03348 4.00000
4.00000 7.03348 4.00000
4.00000 7.03348 4.00000
4.00000 7.03348 4.00000
4.00000 7.03348 4.00000
4.00000 7.03348 4.00000
4.00000 7.03348 4.00000
4.00000 7.03348 4.00000
4.00000 7.03348 4.00000
4.00000 7.03348 4.00000
4.00000 7.03348 4.00000
4.00000 7.03348 4.00000
4.00000 7.03348 4.00000
4.00000 7.03348 4.00000
4.00000 7.03348 4.00000
4.00000 7.03348 4.00000
4.00000 7.03348 4.00000
4.00000 7.03348 4.00000
4.00000 7.03348 4.00000
4.00000 7.03348 4.00000
4.00000 7.03348 4.00000
4.00000 7.03348 4.00000
4.00000 7.03348 4.00000
4.00000 7.03348 4.00000
4.00000 7.03348 4.00000
4.00000 7.03348 4.00000
4.00000 7.03348 4.00000
4.00000 7.03348 4.00000
4.00000 7.03349 4.00000
4.00000 7.03348 4.00000
4.00000 7.03348 4.00000
4.00000 7.03348 4.00000
4.00000 7.03348 4.00000
4.00000 7.03348 4.00000
4.00000 7.03348 4.00000
4.00000 7.03348 4.00000
4.00000 7.03348 4.00000
4.00000 7.03348 4.00000
4.00000 7.03348 4.00000
4.00000 7.03348 4.00000
4.00000 7.03348 4.00000
4.00000 7.03348 4.00000
4.00000 7.03348 4.00000
4.00000 7.03348 4.00000
4.00000 7.03348 4.00000
4.00000 7.03348 4.00000
4.00000 7.03348 4.00000
4.00000 7.03348 4.00000
4.00000 7.03348 4.00000
4.00000 7.03348 4.00000
4.00000 7.03348 4.00000
4.00000 7.03348 4.00000
4.00000 7.03348 4.00000
4.00000 7.03348 4.00000
4.00000 7.03348 4.00000
4.00000 7.03348 4.00000
4.00000 7.03348 4.00000
4.00000 7.03348 4.00000
4.00000 7.03348 4.00000
4.00000 7.03348 4.00000
4.00000 7.03348 4.00000
4.00000 7.03348 4.00000
4.00000 7.03348 4.00000
4.00000 7.03348 4.00000
4.00000 7.03348 4.00000
4.00000 7.03348 4.00000
4.00000 7.03348 4.00000
4.00000 7.03348 4.00000
4.00000 7.03350 4.00000
4.00242 7.07617 4.00242
4.00575 7.13572 4.00575
4.00905 7.19564 4.00905
4.01232 7.25589 4.01233
4.01559 7.31645 4.01559
4.01884 7.37730 4.01884
4.02209 7.43840 4.02209
4.02536 7.49975 4.02536
4.02863 7.56130 4.02863
4.03193 7.62303 4.03193
4.03527 7.68491 4.03527
4.03865 7.74691 4.03865
4.04208 7.80900 4.04208
4.04558 7.87114 4.04558
4.04915 7.93330 4.04915
4.05282 7.99542 4.05282
4.05661 8.05747 4.05661
4.06052 8.11939 4.06052
4.06457 8.18113 4.06457
4.06881 8.24262 4.06881
4.07324 8.30378 4.07324
4.07790 8.36454 4.07790
4.08284 8.42478 4.08284
4.08808 8.48441 4.08808
4.09369 8.54328 4.09369
4.09972 8.60126 4.09972
4.10624 8.65815 4.10623
4.11327 8.71391 4.11327
4.12077 8.76867 4.12077
4.12877 8.82238 4.12877
4.13728 8.87499 4.13728
4.14633 8.92645 4.14633
4.15595 8.97672 4.15595
4.16614 9.02577 4.16614
4.17693 9.07357 4.17693
4.18832 9.12012 4.18833
4.20034 9.16539 4.20034
4.21298 9.20939 4.21298
4.22624 9.25213 4.22624
4.24014 9.29362 4.24014
4.25465 9.33389 4.25465
4.26978 9.37297 4.26978
4.28552 9.41088 4.28552
4.30186 9.44769 4.30186
4.31878 9.48341 4.31878
4.33626 9.51810 4.33626
4.35430 9.55180 4.35430
4.37288 9.58455 4.37288
4.39199 9.61638 4.39199
4.41161 9.64732 4.41161
4.43174 9.67738 4.43174
4.45238 9.70659 4.45238
4.47354 9.73490 4.47354
4.49524 9.76228 4.49524
4.51751 9.78862 4.51751
4.54045 9.81375 4.54045
4.56417 9.83737 4.56417
4.58891 9.85894 4.58892
4.61509 9.87755 4.61508
4.64339 9.89159 4.64339
4.67505 9.89832 4.67505
7.84902 7.36970 4.01844
7.96641 7.32922 4.01627
8.07699 7.29562 4.01447
8.18249 7.26716 4.01293
8.28410 7.24270 4.01161
8.38255 7.22148 4.01046
8.47845 7.20291 4.00945
8.57225 7.18655 4.00855
8.66430 7.17205 4.00775
8.75486 7.15914 4.00704
8.84415 7.14761 4.00641
8.93236 7.13727 4.00584
9.01964 7.12797 4.00532
9.10611 7.11958 4.00485
9.19188 7.11201 4.00443
9.27704 7.10516 4.00405
9.36167 7.09894 4.00370
9.44584 7.09330 4.00338
9.52960 7.08817 4.00310
9.61300 7.08350 4.00283
9.69610 7.07925 4.00259
9.77893 7.07537 4.00238
9.86152 7.07184 4.00218
9.94391 7.06861 4.00199
10.02612 7.06566 4.00183
10.10817 7.06297 4.00168
10.19011 7.06050 4.00154
10.27193 7.05824 4.00141
10.35366 7.05617 4.00129
10.43531 7.05428 4.00118
10.51690 7.05255 4.00109
10.59844 7.05097 4.00100
10.67994 7.04952 4.00091
10.76143 7.04818 4.00084
10.84288 7.04696 4.00077
10.92433 7.04584 4.00070
11.00578 7.04481 4.00065
11.08723 7.04387 4.00059
11.16870 7.04301 4.00054
11.25018 7.04222 4.00050
11.33168 7.04150 4.00046
11.41321 7.04083 4.00042
11.49477 7.04022 4.00038
11.57637 7.03965 4.00035
11.65803 7.03911 4.00032
11.73967 7.03867 4.00030
11.82137 7.03824 4.00027
11.90312 7.03784 4.00025
11.98493 7.03748 4.00023
12.06677 7.03715 4.00021
12.14871 7.03681 4.00019
12.23063 7.03656 4.00018
12.31266 7.03628 4.00016
12.39470 7.03607 4.00015
12.47683 7.03585 4.00014
12.55901 7.03565 4.00013
12.64124 7.03547 4.00011
12.72353 7.03530 4.00011
12.80589 7.03515 4.00010
12.88831 7.03501 4.00009
12.97079 7.03488 4.00008
13.05314 7.03476 4.00007
13.13571 7.03466 4.00007
13.21834 7.03456 4.00006
13.30103 7.03447 4.00006
13.38379 7.03438 4.00005
13.46656 7.03431 4.00005
13.54943 7.03424 4.00004
13.63235 7.03417 4.00004
13.71534 7.03411 4.00004
13.79838 7.03406 4.00003
13.88149 7.03401 4.00003
13.96465 7.03397 4.00003
14.04787 7.03393 4.00003
14.13115 7.03389 4.00003
14.21448 7.03385 4.00002
14.29786 7.03382 4.00002
14.38111 7.03379 4.00002
14.46459 7.03377 4.00002
14.54814 7.03374 4.00002
14.63174 7.03372 4.00002
14.71539 7.03370 4.00001
14.79909 7.03368 4.00001
14.88285 7.03366 4.00001
14.96666 7.03365 4.00001
15.05052 7.03363 4.00001
15.13443 7.03362 4.00001
15.21839 7.03361 4.00001
15.30240 7.03360 4.00001
15.38646 7.03359 4.00001
15.47056 7.03358 4.00001
15.55471 7.03357 4.00001
15.63892 7.03356 4.00001
15.72316 7.03355 4.00001
15.80746 7.03355 4.00000
15.89179 7.03354 4.00000
15.97618 7.03354 4.00000
16.06061 7.03353 4.00000
16.14508 7.03353 4.00000
16.22958 7.03352 4.00000
16.31412 7.03352 4.00000
16.39871 7.03352 4.00000
16.48334 7.03351 4.00000
16.56801 7.03351 4.00000
16.65272 7.03351 4.00000
16.73748 7.03350 4.00000
16.82227 7.03350 4.00000
16.90710 7.03350 4.00000
16.99198 7.03350 4.00000
17.07689 7.03350 4.00000
17.16184 7.03350 4.00000
17.24684 7.03349 4.00000
17.33186 7.03349 4.00000
17.41693 7.03349 4.00000
17.50203 7.03349 4.00000
17.58717 7.03349 4.00000
17.67235 7.03349 4.00000
17.75757 7.03349 4.00000
17.84282 7.03348 4.00000
17.92810 7.03349 4.00000
18.01343 7.03348 4.00000
18.09878 7.03349 4.00000
18.18418 7.03348 4.00000
18.26959 7.03348 4.00000
18.35506 7.03348 4.00000
18.44055 7.03348 4.00000
18.52607 7.03348 4.00000
18.61164 7.03348 4.00000
18.69722 7.03348 4.00000
18.78284 7.03348 4.00000
18.86850 7.03348 4.00000
18.95419 7.03348 4.00000
19.03990 7.03348 4.00000
19.12564 7.03348 4.00000
19.21142 7.03348 4.00000
19.29722 7.03348 4.00000
19.38306 7.03348 4.00000
19.46892 7.03348 4.00000
19.55482 7.03348 4.00000
19.64074 7.03348 4.00000
19.72670 7.03348 4.00000
19.81268 7.03348 4.00000
19.89869 7.03348 4.00000
19.98472 7.03348 4.00000
20.07079 7.03348 4.00000
20.15688 7.03348 4.00000
20.24300 7.03348 4.00000
20.32915 7.03348 4.00000
20.41532 7.03348 4.00000
20.50152 7.03348 4.00000
20.58775 7.03348 4.00000
20.67400 7.03348 4.00000
20.76027 7.03348 4.00000
20.84657 7.03348 4.00000
20.93289 7.03348 4.00000
21.01924 7.03348 4.00000
21.10561 7.03348 4.00000
21.19201 7.03348 4.00000
21.27843 7.03348 4.00000
21.36487 7.03348 4.00000
21.45134 7.03348 4.00000
21.53783 7.03348 4.00000
21.62435 7.03348 4.00000
21.71089 7.03348 4.00000
21.79746 7.03348 4.00000
21.88405 7.03348 4.00000
21.97065 7.03348 4.00000
22.05729 7.03348 4.00000
22.14394 7.03348 4.00000
22.23062 7.03348 4.00000
22.31732 7.03348 4.00000
22.40404 7.03348 4.00000
22.49079 7.03348 4.00000
22.57755 7.03348 4.00000
22.66434 7.03348 4.00000
22.75115 7.03348 4.00000
22.83798 7.03348 4.00000
22.92482 7.03348 4.00000
23.01169 7.03348 4.00000
23.09858 7.03348 4.00000
23.18549 7.03348 4.00000
23.27242 7.03348 4.00000
23.35937 7.03348 4.00000
23.44634 7.03348 4.00000
23.53333 7.03348 4.00000
23.62033 7.03348 4.00000
23.70736 7.03348 4.00000
23.79441 7.03348 4.00000
23.88147 7.03348 4.00000
23.96855 7.03348 4.00000
24.05565 7.03348 4.00000
24.14277 7.03348 4.00000
24.22991 7.03348 4.00000
24.31707 7.03348 4.00000
24.40425 7.03348 4.00000
24.49144 7.03347 4.00000
24.57865 7.03348 4.00000
24.66587 7.03348 4.00000
24.75312 7.03348 4.00000
24.84038 7.03347 4.00000
24.92766 7.03348 4.00000
25.01496 7.03347 4.00000
25.10226 7.03348 4.00000
25.18960 7.03347 4.00000
25.27694 7.03348 4.00000
25.36430 7.03348 4.00000
25.45167 7.03348 4.00000
25.53907 7.03348 4.00000
25.62648 7.03348 4.00000
25.71390 7.03348 4.00000
25.80135 7.03348 4.00000
25.88881 7.03348 4.00000
25.97628 7.03348 4.00000
26.06376 7.03348 4.00000
26.15127 7.03348 4.00000
26.23879 7.03348 4.00000
26.32632 7.03348 4.00000
26.41387 7.03348 4.00000
26.50144 7.03348 4.00000
26.58902 7.03348 4.00000
26.67661 7.03348 4.00000
26.76422 7.03348 4.00000
26.85184 7.03348 4.00000
26.93948 7.03348 4.00000
27.02713 7.03348 4.00000
27.11480 7.03348 4.00000
27.20248 7.03348 4.00000
27.29017 7.03348 4.00000
27.37788 7.03348 4.00000
27.46560 7.03348 4.00000
27.55333 7.03348 4.00000
27.64108 7.03348 4.00000
27.72885 7.03348 4.00000
27.81662 7.03348 4.00000
27.90441 7.03348 4.00000
27.99222 7.03348 4.00000
28.08004 7.03348 4.00000

