Angle 0.569979 0.527266

4.00000 7.03348 4.00000
4.00000 7.03348 4.00000
4.00000 7.03348 4.00000
4.00000 7.03348 4.00000
4.00000 7.03348 4.00000
4.00000 7.03348 4.00000
4.00000 7.03348 4.00000
4.00000 7.03348 4.00000
4.00000 7.03348 4.00000
4.00000 7.03348 4.00000
4.00000 7.03350 4.00000
4.00000 7.03348 4.00000
4.00000 7.03348 4.00000
4.00000 7.03348 4.00000
4.00000 7.03348 4.00000
4.00000 7.03348 4.00000
4.00000 7.03348 4.00000
4.00000 7.03348 4.00000
4.00000 7.03348 4.00000
4.00000 7.03348 4.00000
4.00000 7.03348 4.00000
4.00000 7.03348 4.00000
4.00000 7.03348 4.00000
4.00000 7.03348 4.00000
4.00000 7.03348 4.00000
4.00000 7.03348 4.00000
4.00000 7.03348 4.00000
4.00000 7.03348 4.00000
4.00000 7.03348 4.00000
4.00000 7.03348 4.00000
4.00000 7.03348 4.00000
4.00000 7.03348 4.00000
4.00000 7.03348 4.00000
4.00000 7.03348 4.00000
4.00000 7.03348 4.00000
4.00000 7.03348 4.00000
4.00000 7.03348 4.00000
4.00000 7.03347 4.00000
4.00000 7.03348 4.00000
4.00000 7.03348 4.00000
4.00000 7.03348 4.00000
4.00000 7.03348 4.00000
4.00000 7.03348 4.00000
4.00000 7.03348 4.00000
4.00000 7.03348 4.00000
4.00000 7.03348 4.00000
4.00000 7.03348 4.00000
4.00000 7.03348 4.00000
4.00000 7.03348 4.00000
4.00000 7.03348 4.00000
4.00000 7.03348 4.00000
4.00000 7.03348 4.00000
4.00000 7.03348 4.00000
4.00000 7.03348 4.00000
4.00000 7.03348 4.00000
4.00000 7.03348 4.00000
4.00000 7.03348 4.00000
4.00000 7.03348 4.00000
4.00000 7.03348 4.00000
4.00000 7.03348 4.00000
4.00000 7.03348 4.00000
4.00000 7.03348 4.00000
4.00000 7.03348 4.00000
4.00000 7.03348 4.00000
4.00000 7.03348 4.00000
4.00000 7.03348 4.00000
4.00000 7.03348 4.00000
4.00000 7.03348 4.00000
4.00000 7.03348 4.00000
4.00000 7.03348 4.00000
4.00000 7.03348 4.00000
4.00000 7.03348 4.00000
4.00000 7.03348 4.00000
4.00000 7.03348 4.00000
4.00000 7.03348 4.00000
4.00000 7.03348 4.00000
4.00000 7.03348 4.00000
4.00000 7.03348 4.00000
4.00000 7.03348 4.00000
4.00000 7.03347 4.00000
4.00000 7.03348 4.00000
4.00000 7.03348 4.00000
4.00000 7.03348 4.00000
4.00000 7.03348 4.00000
4.00000 7.03348 4.00000
4.00000 7.03348 4.00000
4.00000 7.03348 4.00000
4.00000 7.03348 4.00000
4.00000 7.03348 4.00000
4.00000 7.03348 4.00000
4.00000 7.03348 4.00000
4.00000 7.03348 4.00000
4.00000 7.03348 4.00000
4.00000 7.03348 4.00000
4.00000 7.03348 4.00000
4.00000 7.03348 4.00000
4.00000 7.03348 4.00000
4.00000 7.03347 4.00000
4.00000 7.03348 4.00000
4.00000 7.03348 4.00000
4.00000 7.03348 4.00000
4.00000 7.03348 4.00000
4.00000 7.03348 4.00000
4.00000 7.03348 4.00000
4.00000 7.03348 4.00000
4.00000 7.03348 4.00000
4.00000 7.03348 4.00000
4.00000 7.03348 4.00000
4.00000 7.03348 4.00000
4.00000 7.03348 4.00000
4.00000 7.03348 4.00000
4.00000 7.03348 4.00000
4.00000 7.03348 4.00000
4.00000 7.03348 4.00000
4.00000 7.03348 4.00000
4.00000 7.03348 4.00000
4.00000 7.03348 4.00000
4.00000 7.03348 4.00000
4.00000 7.03348 4.00000
4.00000 7.03348 4.00000
4.00000 7.03348 4.00000
4.00000 7.03348 4.00000
4.00000 7.03348 4.00000
4.00000 7.03348 4.00000
4.00000 7.03349 4.00000
4.00000 7.03348 4.00000
4.00000 7.03348 4.00000
4.00000 7.03348 4.00000
4.00000 7.03348 4.00000
4.00000 7.03349 4.00000
4.00000 7.03351 4.00000
4.00000 7.03348 4.00000
4.00000 7.03348 4.00000
4.00000 7.03348 4.00000
4.00000 7.03348 4.00000
4.00000 7.03348 4.00000
4.00000 7.03348 4.00000
4.00000 7.03348 4.00000
4.00000 7.03348 4.00000
4.00000 7.03348 4.00000
4.00000 7.03348 4.00000
4.00000 7.03347 4.00000
4.00000 7.03346 4.00000
4.00000 7.03346 4.00000
4.00000 7.03348 4.00000
4.00000 7.03348 4.00000
4.00000 7.03348 4.00000
4.00000 7.03348 4.00000
4.00000 7.03348 4.00000
4.00000 7.03348 4.00000
4.00000 7.03348 4.00000
4.00000 7.03348 4.00000
4.00000 7.03348 4.00000
4.00000 7.03348 4.00000
4.00064 7.04473 4.00064
4.00454 7.11400 4.00454
4.00839 7.18359 4.00839
4.01219 7.25345 4.01219
4.01597 7.32356 4.01597
4.01972 7.39387 4.01972
4.02347 7.46435 4.02347
4.02723 7.53496 4.02723
4.03100 7.60567 4.03100
4.03481 7.67642 4.03481
4.03866 7.74719 4.03866
4.04258 7.81792 4.04258
4.04657 7.88857 4.04657
4.05066 7.95908 4.05066
4.05488 8.02938 4.05488
4.05924 8.09943 4.05924
4.06377 8.16913 4.06377
4.06851 8.23840 4.06851
4.07349 8.30715 4.07349
4.07876 8.37525 4.07876
4.08436 8.44258 4.08436
4.09036 8.50898 4.09036
4.09684 8.57425 4.09684
4.10387 8.63819 4.10387
4.11153 8.70061 4.11153
4.11977 8.76167 4.11977
4.12861 8.82135 4.12861
4.13806 8.87960 4.13806
4.14816 8.93635 4.14816
4.15894 8.99157 4.15894
4.17042 9.04521 4.17042
4.18261 9.09726 4.18261
4.19553 9.14771 4.19553
4.20919 9.19655 4.20919
4.22358 9.24381 4.22358
4.23871 9.28950 4.23871
4.25457 9.33367 4.25457
4.27115 9.37636 4.27115
4.28844 9.41763 4.28844
4.30641 9.45752 4.30641
4.32505 9.49610 4.32505
4.34434 9.53343 4.34434
4.36426 9.56958 4.36426
4.38478 9.60458 4.38478
4.40590 9.63848 4.40590
4.42760 9.67132 4.42760
4.44987 9.70311 4.44987
4.47272 9.73384 4.47272
4.49618 9.76344 4.49618
4.52031 9.79180 4.52030
4.54519 9.81868 4.54519
4.57101 9.84367 4.57101
4.59811 9.86602 4.59810
4.62708 9.88435 4.62708
4.65903 9.89616 4.65903
4.01947 7.38908 7.79775
4.01696 7.34215 7.92725
4.01492 7.30406 8.04791
4.01322 7.27237 8.16218
4.01177 7.24555 8.27162
4.01052 7.22257 8.37728
4.00943 7.20264 8.47991
4.00848 7.18526 8.58007
4.00764 7.16999 8.67818
4.00690 7.15651 8.77456
4.00624 7.14454 8.86949
4.00565 7.13388 8.96318
4.00512 7.12437 9.05579
4.00464 7.11584 9.14748
4.00422 7.10819 9.23837
4.00383 7.10130 9.32856
4.00349 7.09510 9.41814
4.00317 7.08950 9.50718
4.00289 7.08444 9.59575
4.00263 7.07985 9.68392
4.00239 7.07570 9.77172
4.00218 7.07193 9.85921
4.00199 7.06851 9.94642
4.00181 7.06541 10.03337
4.00165 7.06259 10.12011
4.00151 7.06002 10.20667
4.00138 7.05769 10.29305
4.00126 7.05557 10.37929
4.00115 7.05363 10.46541
4.00105 7.05186 10.55142
4.00096 7.05025 10.63734
4.00087 7.04879 10.72318
4.00080 7.04745 10.80894
4.00073 7.04624 10.89465
4.00066 7.04512 10.98032
4.00061 7.04411 11.06595
4.00055 7.04318 11.15155
4.00051 7.04234 11.23712
4.00046 7.04157 11.32268
4.00042 7.04086 11.40824
4.00038 7.04022 11.49378
4.00035 7.03964 11.57932
4.00032 7.03910 11.66487
4.00029 7.03861 11.75042
4.00027 7.03817 11.83599
4.00024 7.03776 11.92157
4.00022 7.03739 12.00717
4.00021 7.03704 12.09278
4.00019 7.03673 12.17842
4.00018 7.03644 12.26409
4.00016 7.03619 12.34976
4.00015 7.03595 12.43547
4.00013 7.03574 12.52121
4.00012 7.03554 12.60697
4.00011 7.03537 12.69277
4.00010 7.03520 12.77859
4.00009 7.03505 12.86445
4.00008 7.03491 12.95034
4.00008 7.03479 13.03626
4.00007 7.03467 13.12222
4.00006 7.03457 13.20820
4.00006 7.03447 13.29422
4.00005 7.03439 13.38028
4.00005 7.03431 13.46637
4.00004 7.03423 13.55249
4.00004 7.03417 13.63864
4.00004 7.03411 13.72483
4.00003 7.03405 13.81106
4.00003 7.03400 13.89731
4.00003 7.03396 13.98360
4.00003 7.03391 14.06993
4.00002 7.03388 14.15629
4.00002 7.03384 14.24268
4.00002 7.03381 14.32911
4.00002 7.03378 14.41556
4.00002 7.03375 14.50206
4.00002 7.03373 14.58858
4.00001 7.03371 14.67514
4.00001 7.03369 14.76173
4.00001 7.03367 14.84835
4.00001 7.03365 14.93500
4.00001 7.03364 15.02168
4.00001 7.03362 15.10840
4.00001 7.03361 15.19515
4.00001 7.03360 15.28192
4.00001 7.03359 15.36873
4.00001 7.03358 15.45556
4.00000 7.03357 15.54242
4.00000 7.03356 15.62930
4.00000 7.03356 15.71622
4.00000 7.03355 15.80316
4.00000 7.03354 15.89013
4.00000 7.03354 15.97713
4.00000 7.03353 16.06416
4.00000 7.03353 16.15121
4.00000 7.03352 16.23830
4.00000 7.03352 16.32540
4.00000 7.03352 16.41254
4.00000 7.03351 16.49970
4.00000 7.03351 16.58689
4.00000 7.03351 16.67410
4.00000 7.03350 16.76134
4.00000 7.03350 16.84861
4.00000 7.03350 16.93589
4.00000 7.03350 17.02321
4.00000 7.03350 17.11055
4.00000 7.03350 17.19791
4.00000 7.03349 17.28529
4.00000 7.03349 17.37270
4.00000 7.03349 17.46013
4.00000 7.03349 17.54759
4.00000 7.03349 17.63507
4.00000 7.03349 17.72257
4.00000 7.03349 17.81009
4.00000 7.03349 17.89763
4.00000 7.03349 17.98520
4.00000 7.03349 18.07278
4.00000 7.03349 18.16039
4.00000 7.03348 18.24802
4.00000 7.03348 18.33567
4.00000 7.03348 18.42335
4.00000 7.03348 18.51104
4.00000 7.03348 18.59876
4.00000 7.03348 18.68648
4.00000 7.03348 18.77424
4.00000 7.03348 18.86201
4.00000 7.03348 18.94980
4.00000 7.03348 19.03761
4.00000 7.03348 19.12544
4.00000 7.03348 19.21330
4.00000 7.03347 19.30117
4.00000 7.03348 19.38905
4.00000 7.03347 19.47696
4.00000 7.03348 19.56488
4.00000 7.03348 19.65281
4.00000 7.03347 19.74078
4.00000 7.03347 19.82876
4.00000 7.03347 19.91675
4.00000 7.03347 20.00476
4.00000 7.03347 20.09279
4.00000 7.03348 20.18083
4.00000 7.03348 20.26888
4.00000 7.03348 20.35696
4.00000 7.03348 20.44505
4.00000 7.03348 20.53317
4.00000 7.03348 20.62129
4.00000 7.03348 20.70944
4.00000 7.03348 20.79759
4.00000 7.03348 20.88577
4.00000 7.03348 20.97396
4.00000 7.03348 21.06217
4.00000 7.03348 21.15038
4.00000 7.03348 21.23861
4.00000 7.03348 21.32685
4.00000 7.03348 21.41511
4.00000 7.03348 21.50338
4.00000 7.03348 21.59167
4.00000 7.03348 21.67997
4.00000 7.03348 21.76829
4.00000 7.03348 21.85661
4.00000 7.03348 21.94496
4.00000 7.03348 22.03332
4.00000 7.03348 22.12169
4.00000 7.03347 22.21009
4.00000 7.03348 22.29848
4.00000 7.03348 22.38690
4.00000 7.03348 22.47533
4.00000 7.03348 22.56378
4.00000 7.03348 22.65224
4.00000 7.03348 22.74071
4.00000 7.03348 22.82919
4.00000 7.03348 22.91769
4.00000 7.03348 23.00619
4.00000 7.03348 23.09471
4.00000 7.03348 23.18325
4.00000 7.03348 23.27179
4.00000 7.03348 23.36035
4.00000 7.03348 23.44891
4.00000 7.03348 23.53749
4.00000 7.03348 23.62609
4.00000 7.03348 23.71469
4.00000 7.03348 23.80330
4.00000 7.03348 23.89193
4.00000 7.03348 23.98057
4.00000 7.03348 24.06921
4.00000 7.03348 24.15787
4.00000 7.03348 24.24654
4.00000 7.03347 24.33522
4.00000 7.03348 24.42391
4.00000 7.03348 24.51261
4.00000 7.03347 24.60132

Angle 0.703919 4.960957

4.00000 7.03348 4.00000
4.00000 7.03348 4.00000
4.00000 7.03348 4.00000
4.00000 7.03348 4.00000
4.00000 7.03348 4.00000
4.00000 7.03348 4.00000
4.00000 7.03348 4.00000
4.00000 7.03348 4.00000
4.00000 7.03348 4.00000
4.00000 7.03348 4.00000
4.00000 7.03348 4.00000
4.00000 7.03348 4.00000
4.00000 7.03348 4.00000
4.00000 7.03348 4.00000
4.00000 7.03348 4.00000
4.00000 7.03348 4.00000
4.00000 7.03348 4.00000
4.00000 7.03348 4.00000
4.00000 7.03348 4.00000
4.00000 7.03348 4.00000
4.00000 7.03348 4.00000
4.00000 7.03348 4.00000
4.00000 7.03348 4.00000
4.00000 7.03348 4.00000
4.00000 7.03348 4.00000
4.00000 7.03348 4.00000
4.00000 7.03348 4.00000
4.00000 7.03348 4.00000
4.00000 7.03348 4.00000
4.00000 7.03348 4.00000
4.00000 7.03348 4.00000
4.00000 7.03348 4.00000
4.00000 7.03348 4.00000
4.00000 7.03348 4.00000
4.00000 7.03348 4.00000
4.00000 7.03348 4.00000
4.00000 7.03348 4.00000
4.00000 7.03348 4.00000
4.00000 7.03348 4.00000
4.00000 7.03349 4.00000
4.00000 7.03348 4.00000
4.00000 7.03348 4.00000
4.00000 7.03348 4.00000
4.00000 7.03348 4.00000
4.00000 7.03348 4.00000
4.00000 7.03348 4.00000
4.00000 7.03348 4.00000
4.00000 7.03348 4.00000
4.00000 7.03348 4.00000
4.00000 7.03348 4.00000
4.00000 7.03348 4.00000
4.00000 7.03348 4.00000
4.00000 7.03348 4.00000
4.00000 7.03348 4.00000
4.00000 7.03348 4.00000
4.00000 7.03348 4.00000
4.00000 7.03348 4.00000
4.00000 7.03348 4.00000
4.00000 7.03348 4.00000
4.00000 7.03348 4.00000
4.00000 7.03348 4.00000
4.00000 7.03348 4.00000
4.00000 7.03348 4.00000
4.00000 7.03348 4.00000
4.00000 7.03348 4.00000
4.00000 7.03348 4.00000
4.00000 7.03348 4.00000
4.00000 7.03348 4.00000
4.00000 7.03348 4.00000
4.00000 7.03348 4.00000
4.00000 7.03348 4.00000
4.00000 7.03348 4.00000
4.00000 7.03348 4.00000
4.00000 7.03348 4.00000
4.00000 7.03348 4.00000
4.00000 7.03348 4.00000
4.00000 7.03348 4.00000
4.00000 7.03349 4.00000
4.00000 7.03348 4.00000
4.00000 7.03348 4.00000
4.00000 7.03348 4.00000
4.00000 7.03348 4.00000
4.00000 7.03348 4.00000
4.00000 7.03348 4.00000
4.00000 7.03348 4.00000
4.00000 7.03348 4.00000
4.00000 7.03348 4.00000
4.00000 7.03348 4.00000
4.00000 7.03348 4.00000
4.00000 7.03348 4.00000
4.00000 7.03348 4.00000
4.00000 7.03348 4.00000
4.00000 7.03348 4.00000
4.00000 7.03348 4.00000
4.00000 7.03348 4.00000
4.00000 7.03348 4.00000
4.00000 7.03348 4.00000
4.00000 7.03348 4.00000
4.00000 7.03351 4.00000
4.00000 7.03347 4.00000
4.00000 7.03348 4.00000
4.00000 7.03348 4.00000
4.00000 7.03348 4.00000
4.00000 7.03348 4.00000
4.00000 7.03348 4.00000
4.00000 7.03348 4.00000
4.00000 7.03348 4.00000
4.00000 7.03348 4.00000
4.00000 7.03348 4.00000
4.00000 7.03348 4.00000
4.00000 7.03348 4.00000
4.00000 7.03348 4.00000
4.00000 7.03348 4.00000
4.00000 7.03348 4.00000
4.00000 7.03348 4.00000
4.00000 7.03348 4.00000
4.00000 7.03348 4.00000
4.00000 7.03348 4.00000
4.00000 7.03348 4.00000
4.00000 7.03348 4.00000
4.00000 7.03348 4.00000
4.00000 7.03348 4.00000
4.00000 7.03348 4.00000
4.00000 7.03347 4.00000
4.00000 7.03348 4.00000
4.00000 7.03348 4.00000
4.00000 7.03348 4.00000
4.00000 7.03348 4.00000
4.00000 7.03348 4.00000
4.00000 7.03348 4.00000
4.00000 7.03348 4.00000
4.00000 7.03352 4.00000
4.00000 7.03348 4.00000
4.00000 7.03348 4.00000
4.00000 7.03349 4.00000
4.00000 7.03348 4.00000
4.00000 7.03348 4.00000
4.00000 7.03348 4.00000
4.00000 7.03348 4.00000
4.00000 7.03348 4.00000
4.00000 7.03348 4.00000
4.00000 7.03348 4.00000
4.00000 7.03348 4.00000
4.00000 7.03348 4.00000
4.00000 7.03348 4.00000
4.00000 7.03348 4.00000
4.00000 7.03352 4.00000
4.00000 7.03350 4.00000
4.00000 7.03347 4.00000
4.00000 7.03348 4.00000
4.00399 7.10414 4.00399
4.00813 7.17891 4.00813
4.01222 7.25392 4.01222
4.01627 7.32914 4.01627
4.02029 7.40451 4.02029
4.02431 7.47999 4.02431
4.02833 7.55554 4.02833
4.03237 7.63112 4.03237
4.03645 7.70665 4.03645
4.04058 7.78212 4.04058
4.04480 7.85744 4.04480
4.04911 7.93258 4.04911
4.05355 8.00744 4.05355
4.05813 8.08197 4.05813
4.06291 8.15608 4.06291
4.06790 8.22966 4.06790
4.07315 8.30261 4.07315
4.07872 8.37479 4.07872
4.08466 8.44605 4.08466
4.09105 8.51619 4.09105
4.09797 8.58501 4.09797
4.10553 8.65224 4.10552
4.11377 8.71776 4.11377
4.12265 8.78173 4.12265
4.13220 8.84411 4.13220
4.14244 8.90483 4.14244
4.15340 8.96382 4.15340
4.16512 9.02106 4.16512
4.17762 9.07651 4.17762
4.19091 9.13015 4.19091
4.20499 9.18200 4.20499
4.21989 9.23205 4.21989
4.23558 9.28036 4.23558
4.25207 9.32695 4.25207
4.26935 9.37188 4.26935
4.28739 9.41521 4.28739
4.30617 9.45702 4.30617
4.32568 9.49736 4.32568
4.34589 9.53632 4.34589
4.36677 9.57397 4.36676
4.38829 9.61036 4.38829
4.41046 9.64554 4.41046
4.43324 9.67955 4.43324
4.45663 9.71240 4.45663
4.48066 9.74407 4.48066
4.50535 9.77446 4.50534
4.53077 9.80341 4.53077
4.55708 9.83059 4.55708
4.58455 9.85538 4.58454
4.61366 9.87666 4.61365
4.64535 9.89229 4.64535
7.74643 7.40943 4.02059
7.88495 7.35676 4.01774
8.01284 7.31461 4.01549
8.13312 7.28005 4.01363
8.24776 7.25113 4.01207
8.35808 7.22654 4.01073
8.46497 7.20540 4.00958
8.56909 7.18707 4.00858
8.67092 7.17106 4.00770
8.77084 7.15700 4.00693
8.86915 7.14458 4.00624
8.96609 7.13357 4.00563
9.06187 7.12378 4.00509
9.15663 7.11504 4.00460
9.25051 7.10722 4.00416
9.34362 7.10022 4.00377
9.43608 7.09393 4.00342
9.52794 7.08827 4.00310
9.61929 7.08317 4.00281
9.71019 7.07858 4.00255
9.80069 7.07441 4.00232
9.89084 7.07066 4.00211
9.98069 7.06724 4.00192
10.07025 7.06417 4.00174
10.15956 7.06139 4.00159
10.24867 7.05886 4.00144
10.33759 7.05656 4.00131
10.42633 7.05448 4.00119
10.51493 7.05259 4.00109
10.60341 7.05087 4.00099
10.69176 7.04931 4.00090
10.78003 7.04789 4.00082
10.86820 7.04660 4.00075
10.95629 7.04543 4.00068
11.04434 7.04436 4.00062
11.13232 7.04338 4.00056
11.22025 7.04250 4.00051
11.30815 7.04169 4.00047
11.39600 7.04096 4.00043
11.48384 7.04029 4.00039
11.57165 7.03969 4.00035
11.65945 7.03913 4.00032
11.74723 7.03863 4.00029
11.83501 7.03817 4.00027
11.92278 7.03775 4.00024
12.01055 7.03737 4.00022
12.09832 7.03702 4.00020
12.18609 7.03671 4.00018
12.27387 7.03642 4.00017
12.36166 7.03616 4.00015
12.44946 7.03592 4.00014
12.53727 7.03570 4.00013
12.62509 7.03550 4.00012
12.71293 7.03532 4.00011
12.80078 7.03516 4.00010
12.88865 7.03502 4.00009
12.97652 7.03487 4.00008
13.06442 7.03475 4.00007
13.15234 7.03464 4.00007
13.24028 7.03453 4.00006
13.32824 7.03444 4.00005
13.41621 7.03435 4.00005
13.50421 7.03428 4.00005
13.59223 7.03421 4.00004
13.68027 7.03414 4.00004
13.76832 7.03408 4.00003
13.85639 7.03403 4.00003
13.94449 7.03398 4.00003
14.03261 7.03393 4.00003
14.12075 7.03390 4.00002
14.20891 7.03386 4.00002
14.29710 7.03383 4.00002
14.38530 7.03379 4.00002
14.47353 7.03377 4.00002
14.56177 7.03374 4.00001
14.65004 7.03372 4.00001
14.73832 7.03370 4.00001
14.82663 7.03368 4.00001
14.91496 7.03366 4.00001
15.00330 7.03364 4.00001
15.09167 7.03363 4.00001
15.18006 7.03361 4.00001
15.26846 7.03360 4.00001
15.35688 7.03359 4.00001
15.44532 7.03358 4.00001
15.53378 7.03357 4.00001
15.62226 7.03356 4.00000
15.71076 7.03356 4.00000
15.79928 7.03355 4.00000
15.88782 7.03354 4.00000
15.97638 7.03354 4.00000
16.06495 7.03353 4.00000
16.15354 7.03353 4.00000
16.24215 7.03352 4.00000
16.33077 7.03352 4.00000
16.41941 7.03351 4.00000
16.50807 7.03351 4.00000
16.59675 7.03350 4.00000
16.68542 7.03351 4.00000
16.77413 7.03350 4.00000
16.86284 7.03350 4.00000
16.95158 7.03350 4.00000
17.04032 7.03350 4.00000
17.12908 7.03350 4.00000
17.21786 7.03350 4.00000
17.30664 7.03349 4.00000
17.39545 7.03349 4.00000
17.48427 7.03349 4.00000
17.57310 7.03349 4.00000
17.66194 7.03349 4.00000
17.75080 7.03349 4.00000
17.83968 7.03349 4.00000
17.92856 7.03349 4.00000
18.01746 7.03349 4.00000
18.10638 7.03349 4.00000
18.19530 7.03349 4.00000
18.28424 7.03348 4.00000
18.37319 7.03348 4.00000
18.46216 7.03348 4.00000
18.55114 7.03348 4.00000
18.64013 7.03348 4.00000
18.72913 7.03348 4.00000
18.81814 7.03348 4.00000
18.90717 7.03348 4.00000
18.99622 7.03347 4.00000
19.08526 7.03348 4.00000
19.17432 7.03348 4.00000
19.26339 7.03348 4.00000
19.35249 7.03347 4.00000
19.44157 7.03348 4.00000
19.53068 7.03348 4.00000
19.61979 7.03348 4.00000
19.70892 7.03348 4.00000
19.79806 7.03348 4.00000
19.88720 7.03348 4.00000
19.97636 7.03348 4.00000
20.06552 7.03348 4.00000
20.15469 7.03349 4.00000
20.24389 7.03348 4.00000
20.33309 7.03348 4.00000
20.42230 7.03348 4.00000
20.51152 7.03348 4.00000
20.60074 7.03348 4.00000
20.68998 7.03348 4.00000
20.77922 7.03348 4.00000
20.86847 7.03348 4.00000
20.95773 7.03348 4.00000
21.04700 7.03348 4.00000
21.13628 7.03348 4.00000
21.22558 7.03348 4.00000
21.31487 7.03348 4.00000
21.40418 7.03348 4.00000
21.49350 7.03348 4.00000
21.58282 7.03348 4.00000
21.67216 7.03348 4.00000
21.76150 7.03348 4.00000
21.85085 7.03348 4.00000
21.94021 7.03348 4.00000
22.02958 7.03348 4.00000
22.11896 7.03348 4.00000
22.20834 7.03348 4.00000
22.29774 7.03348 4.00000
22.38714 7.03348 4.00000
22.47655 7.03348 4.00000
22.56596 7.03348 4.00000
22.65539 7.03348 4.00000
22.74482 7.03348 4.00000
22.83426 7.03348 4.00000
22.92370 7.03348 4.00000
23.01315 7.03348 4.00000
23.10261 7.03348 4.00000
23.19208 7.03348 4.00000
23.28155 7.03348 4.00000
23.37103 7.03348 4.00000
23.46052 7.03348 4.00000
23.55001 7.03348 4.00000
23.63952 7.03348 4.00000
23.72902 7.03348 4.00000
23.81854 7.03348 4.00000
23.90806 7.03348 4.00000
23.99759 7.03348 4.00000
24.08712 7.03348 4.00000
24.17666 7.03348 4.00000
24.26621 7.03348 4.00000
24.35577 7.03348 4.00000
24.44533 7.03348 4.00000
24.53490 7.03348 4.00000
24.62447 7.03348 4.00000
24.71405 7.03348 4.00000
24.80363 7.03348 4.00000
24.89323 7.03348 4.00000
24.98283 7.03348 4.00000
25.07243 7.03348 4.00000
25.16204 7.03348 4.00000
25.25166 7.03348 4.00000
25.34128 7.03348 4.00000
25.43091 7.03348 4.00000
25.52055 7.03348 4.00000
25.61018 7.03348 4.00000

Angle 0.066659 4.463891

4.00000 7.03348 4.00000
4.00000 7.03348 4.00000
4.00000 7.03348 4.00000
4.00000 7.03348 4.00000
4.00000 7.03348 4.00000
4.00000 7.03348 4.00000
4.00000 7.03348 4.00000
4.00000 7.03348 4.00000
4.00000 7.03348 4.00000
4.00000 7.03348 4.00000
4.00000 7.03347 4.00000
4.00000 7.03349 4.00000
4.00000 7.03348 4.00000
4.00000 7.03348 4.00000
4.00000 7.03348 4.00000
4.00000 7.03348 4.00000
4.00000 7.03348 4.00000
4.00000 7.03348 4.00000
4.00000 7.03348 4.00000
4.00000 7.03348 4.00000
4.00000 7.03348 4.00000
4.00000 7.03348 4.00000
4.00000 7.03348 4.00000
4.00000 7.03347 4.00000
4.00000 7.03347 4.00000
4.00000 7.03347 4.00000
4.00000 7.03347 4.00000
4.00000 7.03348 4.00000
4.00000 7.03348 4.00000
4.00000 7.03348 4.00000
4.00000 7.03348 4.00000
4.00000 7.03348 4.00000
4.00000 7.03348 4.00000
4.00000 7.03348 4.00000
4.00000 7.03348 4.00000
4.00000 7.03348 4.00000
4.00000 7.03348 4.00000
4.00000 7.03348 4.00000
4.00000 7.03348 4.00000
4.00000 7.03348 4.00000
4.00000 7.03348 4.00000
4.00000 7.03348 4.00000
4.00000 7.03348 4.00000
4.00000 7.03348 4.00000
4.00000 7.03348 4.00000
4.00000 7.03348 4.00000
4.00000 7.03348 4.00000
4.00000 7.03348 4.00000
4.00000 7.03348 4.00000
4.00000 7.03348 4.00000
4.00000 7.03348 4.00000
4.00000 7.03348 4.00000
4.00000 7.03348 4.00000
4.00000 7.03348 4.00000
4.00000 7.03348 4.00000
4.00000 7.03348 4.00000
4.00000 7.03348 4.00000
4.00000 7.03348 4.00000
4.00000 7.03348 4.00000
4.00000 7.03348 4.00000
4.00000 7.03348 4.00000
4.00000 7.03347 4.00000
4.00000 7.03348 4.00000
4.00000 7.03347 4.00000
4.00000 7.03348 4.00000
4.00000 7.03348 4.00000
4.00000 7.03348 4.00000
4.00000 7.03348 4.00000
4.00000 7.03348 4.00000
4.00000 7.03348 4.00000
4.00000 7.03348 4.00000
4.00000 7.03348 4.00000
4.00000 7.03348 4.00000
4.00000 7.03348 4.00000
4.00000 7.03348 4.00000
4.00000 7.03348 4.00000
4.00000 7.03348 4.00000
4.00000 7.03348 4.00000
4.00000 7.03348 4.00000
4.00000 7.03348 4.00000
4.00000 7.03348 4.00000
4.00000 7.03348 4.00000
4.00000 7.03348 4.00000
4.00000 7.03348 4.00000
4.00000 7.03348 4.00000
4.00000 7.03348 4.00000
4.00000 7.03348 4.00000
4.00000 7.03348 4.00000
4.00000 7.03348 4.00000
4.00000 7.03348 4.00000
4.00000 7.03348 4.00000
4.00000 7.03348 4.00000
4.00000 7.03348 4.00000
4.00000 7.03348 4.00000
4.00000 7.03348 4.00000
4.00000 7.03348 4.00000
4.00000 7.03348 4.00000
4.00000 7.03348 4.00000
4.00000 7.03348 4.00000
4.00000 7.03348 4.00000
4.00000 7.03348 4.00000
4.00000 7.03348 4.00000
4.00000 7.03348 4.00000
4.00000 7.03348 4.00000
4.00000 7.03348 4.00000
4.00000 7.03348 4.00000
4.00000 7.03348 4.00000
4.00000 7.03348 4.00000
4.00000 7.03348 4.00000
4.00000 7.03348 4.00000
4.00000 7.03348 4.00000
4.00000 7.03348 4.00000
4.00000 7.03348 4.00000
4.00000 7.03348 4.00000
4.00000 7.03348 4.00000
4.00000 7.03348 4.00000
4.00000 7.03348 4.00000
4.00000 7.03348 4.00000
4.00000 7.03349 4.00000
4.00000 7.03348 4.00000
4.00000 7.03348 4.00000
4.00000 7.03348 4.00000
4.00000 7.03348 4.00000
4.00000 7.03348 4.00000
4.00000 7.03348 4.00000
4.00000 7.03348 4.00000
4.00000 7.03348 4.00000
4.00000 7.03348 4.00000
4.00000 7.03350 4.00000
4.00000 7.03348 4.00000
4.00000 7.03348 4.00000
4.00000 7.03350 4.00000
4.00000 7.03348 4.00000
4.00000 7.03350 4.00000
4.00000 7.03348 4.00000
4.00000 7.03348 4.00000
4.00000 7.03348 4.00000
4.00000 7.03348 4.00000
4.00000 7.03348 4.00000
4.00000 7.03348 4.00000
4.00000 7.03349 4.00000
4.00000 7.03349 4.00000
4.00000 7.03349 4.00000
4.00000 7.03348 4.00000
4.00000 7.03348 4.00000
4.00000 7.03347 4.00000
4.00000 7.03348 4.00000
4.00000 7.03348 4.00000
4.00000 7.03348 4.00000
4.00000 7.03348 4.00000
4.00000 7.03349 4.00000
4.00000 7.03348 4.00000
4.00000 7.03348 4.00000
4.00000 7.03349 4.00000
4.00000 7.03348 4.00000
4.00000 7.03348 4.00000
4.00000 7.03348 4.00000
4.00000 7.03348 4.00000
4.00000 7.03348 4.00000
4.00000 7.03348 4.00000
4.00000 7.03348 4.00000
4.00000 7.03348 4.00000
4.00000 7.03348 4.00000
4.00000 7.03348 4.00000
4.00000 7.03348 4.00000
4.00000 7.03348 4.00000
4.00000 7.03348 4.00000
4.00000 7.03348 4.00000
4.00000 7.03348 4.00000
4.00000 7.03348 4.00000
4.00000 7.03348 4.00000
4.00000 7.03348 4.00000
4.00000 7.03348 4.00000
4.00000 7.03348 4.00000
4.00000 7.03348 4.00000
4.00000 7.03348 4.00000
4.00000 7.03348 4.00000
4.00000 7.03348 4.00000
4.00000 7.03348 4.00000
4.00000 7.03348 4.00000
4.00000 7.03348 4.00000
4.00000 7.03348 4.00000
4.00000 7.03348 4.00000
4.00000 7.03348 4.00000
4.00000 7.03348 4.00000
4.00000 7.03348 4.00000
4.00000 7.03348 4.00000
4.00000 7.03348 4.00000
4.00000 7.03348 4.00000
4.00000 7.03348 4.00000
4.00000 7.03348 4.00000
4.00000 7.03348 4.00000
4.00000 7.03348 4.00000
4.00000 7.03348 4.00000
4.00000 7.03348 4.00000
4.00000 7.03348 4.00000
4.00000 7.03348 4.00000
4.00000 7.03348 4.00000
4.00000 7.03348 4.00000
4.00000 7.03348 4.00000
4.00000 7.03348 4.00000
4.00000 7.03348 4.00000
4.00000 7.03348 4.00000
4.00000 7.03348 4.00000
4.00000 7.03348 4.00000
4.00000 7.03348 4.00000
4.00000 7.03348 4.00000
4.00000 7.03350 4.00000
4.00000 7.03348 4.00000
4.00000 7.03348 4.00000
4.00000 7.03348 4.00000
4.00000 7.03348 4.00000
4.00000 7.03347 4.00000
4.00000 7.03349 4.00000
4.00001 7.03359 4.00000
4.00206 7.06968 4.00206
4.00562 7.13348 4.00562
4.00916 7.19762 4.00916
4.01266 7.26207 4.01266
4.01614 7.32680 4.01614
4.01961 7.39178 4.01961
4.02308 7.45697 4.02308
4.02656 7.52236 4.02656
4.03005 7.58790 4.03005
4.03357 7.65357 4.03357
4.03714 7.71932 4.03714
4.04075 7.78513 4.04075
4.04443 7.85095 4.04443
4.04819 7.91674 4.04819
4.05205 7.98245 4.05205
4.05602 8.04804 4.05602
4.06013 8.11343 4.06013
4.06440 8.17858 4.06440
4.06886 8.24339 4.06886
4.07354 8.30779 4.07354
4.07847 8.37169 4.07847
4.08370 8.43495 4.08370
4.08928 8.49747 4.08928
4.09528 8.55908 4.09528
4.10175 8.61960 4.10175
4.10877 8.67883 4.10877
4.11633 8.73686 4.11633
4.12442 8.79372 4.12442
4.13305 8.84938 4.13305
4.14225 8.90376 4.14225
4.15205 8.95684 4.15205
4.16247 9.00856 4.16247
4.17352 9.05891 4.17352
4.18523 9.10785 4.18523
4.19760 9.15539 4.19760
4.21064 9.20151 4.21064
4.22436 9.24624 4.22436
4.23874 9.28959 4.23874
4.25380 9.33159 4.25380
4.26951 9.37228 4.26951
4.28587 9.41170 4.28587
4.30287 9.44989 4.30287
4.32049 9.48690 4.32049
4.33871 9.52279 4.33871
4.35751 9.55759 4.35751
4.37689 9.59136 4.37689
4.39682 9.62414 4.39682
4.41729 9.65596 4.41729
4.43830 9.68683 4.43830
4.45985 9.71676 4.45985
4.48194 9.74571 4.48194
4.50462 9.77360 4.50462
4.52794 9.80031 4.52794
4.55201 9.82559 4.55201
4.57703 9.84900 4.57702
4.60331 9.86977 4.60331
4.63148 9.88654 4.63147
4.66260 9.89687 4.66260
7.80641 7.38572 4.01929
7.93032 7.34112 4.01691
8.04621 7.30456 4.01495
8.15623 7.27393 4.01330
8.26176 7.24784 4.01189
8.36377 7.22535 4.01067
8.46294 7.20578 4.00960
8.55978 7.18863 4.00866
8.65468 7.17350 4.00783
8.74796 7.16008 4.00710
8.83985 7.14814 4.00644
8.93056 7.13747 4.00585
9.02026 7.12791 4.00532
9.10908 7.11931 4.00484
9.19714 7.11157 4.00441
9.28454 7.10458 4.00402
9.37135 7.09827 4.00366
9.45767 7.09254 4.00334
9.54354 7.08736 4.00305
9.62902 7.08265 4.00279
9.71417 7.07838 4.00255
9.79902 7.07449 4.00233
9.88361 7.07094 4.00213
9.96797 7.06772 4.00194
10.05213 7.06478 4.00178
10.13613 7.06210 4.00163
10.21997 7.05965 4.00149
10.30369 7.05742 4.00136
10.38730 7.05538 4.00125
10.47082 7.05351 4.00114
10.55426 7.05181 4.00104
10.63763 7.05025 4.00095
10.72096 7.04882 4.00087
10.80423 7.04753 4.00080
10.88748 7.04633 4.00073
10.97071 7.04524 4.00067
11.05392 7.04425 4.00061
11.13713 7.04333 4.00056
11.22033 7.04250 4.00051
11.30355 7.04173 4.00047
11.38676 7.04104 4.00043
11.46999 7.04039 4.00039
11.55324 7.03981 4.00036
11.63651 7.03927 4.00033
11.71981 7.03879 4.00030
11.80314 7.03833 4.00027
11.88650 7.03792 4.00026
11.96989 7.03755 4.00023
12.05331 7.03720 4.00021
12.13677 7.03688 4.00019
12.22028 7.03659 4.00018
12.30383 7.03633 4.00016
12.38740 7.03609 4.00015
12.47103 7.03586 4.00014
12.55470 7.03566 4.00012
12.63842 7.03548 4.00011
12.72219 7.03531 4.00011
12.80601 7.03515 4.00010
12.88987 7.03501 4.00009
12.97376 7.03488 4.00008
13.05772 7.03476 4.00007
13.14172 7.03465 4.00007
13.22578 7.03455 4.00006
13.30988 7.03446 4.00006
13.39404 7.03437 4.00005
13.47824 7.03430 4.00005
13.56249 7.03423 4.00005
13.64678 7.03416 4.00004
13.73113 7.03410 4.00004
13.81552 7.03405 4.00004
13.89996 7.03400 4.00003
13.98422 7.03396 4.00003
14.06875 7.03392 4.00003
14.15332 7.03388 4.00002
14.23794 7.03384 4.00002
14.32260 7.03381 4.00002
14.40732 7.03378 4.00002
14.49207 7.03376 4.00002
14.57688 7.03373 4.00002
14.66173 7.03371 4.00001
14.74662 7.03369 4.00001
14.83156 7.03367 4.00001
14.91654 7.03366 4.00001
15.00157 7.03364 4.00001
15.08664 7.03363 4.00001
15.17175 7.03361 4.00001
15.25690 7.03360 4.00001
15.34209 7.03359 4.00001
15.42733 7.03358 4.00001
15.51260 7.03357 4.00001
15.59792 7.03357 4.00001
15.68327 7.03356 4.00001
15.76867 7.03355 4.00001
15.85408 7.03354 4.00000
15.93953 7.03354 4.00000
16.02501 7.03353 4.00000
16.11054 7.03353 4.00000
16.19610 7.03353 4.00000
16.28170 7.03352 4.00000
16.36733 7.03352 4.00000
16.45300 7.03351 4.00000
16.53871 7.03351 4.00000
16.62445 7.03351 4.00000
16.71022 7.03351 4.00000
16.79603 7.03350 4.00000
16.88187 7.03350 4.00000
16.96775 7.03350 4.00000
17.05366 7.03350 4.00000
17.13960 7.03350 4.00000
17.22558 7.03349 4.00000
17.31158 7.03349 4.00000
17.39762 7.03349 4.00000
17.48369 7.03349 4.00000
17.56979 7.03349 4.00000
17.65593 7.03349 4.00000
17.74209 7.03349 4.00000
17.82828 7.03349 4.00000
17.91450 7.03349 4.00000
18.00076 7.03349 4.00000
18.08704 7.03349 4.00000
18.17336 7.03348 4.00000
18.25969 7.03348 4.00000
18.34607 7.03348 4.00000
18.43246 7.03348 4.00000
18.51889 7.03348 4.00000
18.60533 7.03348 4.00000
18.69182 7.03348 4.00000

Angle 0.296432 5.391625

4.00000 7.03348 4.00000
4.00000 7.03348 4.00000
4.00000 7.03348 4.00000
4.00000 7.03348 4.00000
4.00000 7.03348 4.00000
4.00000 7.03347 4.00000
4.00000 7.03348 4.00000
4.00000 7.03348 4.00000
4.00000 7.03348 4.00000
4.00000 7.03349 4.00000
4.00000 7.03349 4.00000
4.00000 7.03350 4.00000
4.00000 7.03351 4.00000
4.00000 7.03351 4.00000
4.00000 7.03348 4.00000
4.00000 7.03348 4.00000
4.00000 7.03348 4.00000
4.00000 7.03348 4.00000
4.00000 7.03348 4.00000
4.00000 7.03348 4.00000
4.00000 7.03350 4.00000
4.00000 7.03350 4.00000
4.00000 7.03350 4.00000
4.00000 7.03349 4.00000
4.00000 7.03349 4.00000
4.00000 7.03349 4.00000
4.00000 7.03348 4.00000
4.00000 7.03348 4.00000
4.00000 7.03348 4.00000
4.00000 7.03348 4.00000
4.00000 7.03349 4.00000
4.00000 7.03348 4.00000
4.00000 7.03348 4.00000
4.00000 7.03347 4.00000
4.00000 7.03348 4.00000
4.00000 7.03348 4.00000
4.00000 7.03348 4.00000
4.00000 7.03348 4.00000
4.00000 7.03348 4.00000
4.00000 7.03348 4.00000
4.00000 7.03348 4.00000
4.00000 7.03348 4.00000
4.00000 7.03348 4.00000
4.00000 7.03348 4.00000
4.00000 7.03348 4.00000
4.00000 7.03348 4.00000
4.00000 7.03348 4.00000
4.00000 7.03348 4.00000
4.00000 7.03348 4.00000
4.00000 7.03348 4.00000
4.00000 7.03348 4.00000
4.00000 7.03348 4.00000
4.00000 7.03349 4.00000
4.00000 7.03348 4.00000
4.00000 7.03348 4.00000
4.00000 7.03348 4.00000
4.00000 7.03348 4.00000
4.00000 7.03348 4.00000
4.00000 7.03348 4.00000
4.00000 7.03348 4.00000
4.00000 7.03348 4.00000
4.00000 7.03348 4.00000
4.00000 7.03348 4.00000
4.00000 7.03348 4.00000
4.00000 7.03348 4.00000
4.00000 7.03348 4.00000
4.00000 7.03348 4.00000
4.00000 7.03348 4.00000
4.00000 7.03348 4.00000
4.00000 7.03348 4.00000
4.00000 7.03348 4.00000
4.00000 7.03348 4.00000
4.00000 7.03348 4.00000
4.00000 7.03346 4.00000
4.00000 7.03348 4.00000
4.00000 7.03348 4.00000
4.00000 7.03349 4.00000
4.00000 7.03348 4.00000
4.00000 7.03348 4.00000
4.00000 7.03348 4.00000
4.00000 7.03348 4.00000
4.00000 7.03348 4.00000
4.00000 7.03348 4.00000
4.00000 7.03348 4.00000
4.00000 7.03348 4.00000
4.00000 7.03348 4.00000
4.00000 7.03348 4.00000
4.00000 7.03348 4.00000
4.00000 7.03348 4.00000
4.00000 7.03348 4.00000
4.00000 7.03348 4.00000
4.00000 7.03348 4.00000
4.00000 7.03348 4.00000
4.00000 7.03348 4.00000
4.00000 7.03348 4.00000
4.00000 7.03348 4.00000
4.00000 7.03348 4.00000
4.00000 7.03347 4.00000
4.00000 7.03347 4.00000
4.00000 7.03348 4.00000
4.00000 7.03348 4.00000
4.00000 7.03348 4.00000
4.00000 7.03348 4.00000
4.00000 7.03348 4.00000
4.00000 7.03348 4.00000
4.00000 7.03348 4.00000
4.00000 7.03348 4.00000
4.00000 7.03348 4.00000
4.00000 7.03348 4.00000
4.00000 7.03348 4.00000
4.00000 7.03348 4.00000
4.00000 7.03348 4.00000
4.00000 7.03348 4.00000
4.00000 7.03348 4.00000
4.00000 7.03348 4.00000
4.00000 7.03348 4.00000
4.00000 7.03348 4.00000
4.00000 7.03348 4.00000
4.00000 7.03348 4.00000
4.00000 7.03348 4.00000
4.00000 7.03348 4.00000
4.00000 7.03348 4.00000
4.00000 7.03348 4.00000
4.00000 7.03348 4.00000
4.00000 7.03348 4.00000
4.00000 7.03348 4.00000
4.00000 7.03348 4.00000
4.00000 7.03348 4.00000
4.00000 7.03348 4.00000
4.00000 7.03348 4.00000
4.00000 7.03348 4.00000
4.00000 7.03348 4.00000
4.00000 7.03348 4.00000
4.00000 7.03348 4.00000
4.00000 7.03348 4.00000
4.00000 7.03348 4.00000
4.00000 7.03348 4.00000
4.00000 7.03348 4.00000
4.00000 7.03348 4.00000
4.00000 7.03348 4.00000
4.00000 7.03348 4.00000
4.00000 7.03348 4.00000
4.00000 7.03348 4.00000
4.00000 7.03349 4.00000
4.00000 7.03348 4.00000
4.00000 7.03346 4.00000
4.00000 7.03347 4.00000
4.00000 7.03348 4.00000
4.00000 7.03350 4.00000
4.00000 7.03348 4.00000
4.00000 7.03348 4.00000
4.00000 7.03348 4.00000
4.00000 7.03348 4.00000
4.00000 7.03348 4.00000
4.00000 7.03348 4.00000
4.00000 7.03348 4.00000
4.00000 7.03349 4.00000
4.00000 7.03348 4.00000
4.00000 7.03349 4.00000
4.00000 7.03352 4.00000
4.00000 7.03348 4.00000
4.00000 7.03348 4.00000
4.00000 7.03348 4.00000
4.00000 7.03350 4.00000
4.00000 7.03348 4.00000
4.00000 7.03349 4.00000
4.00000 7.03348 4.00000
4.00000 7.03348 4.00000
4.00000 7.03348 4.00000
4.00000 7.03348 4.00000
4.00000 7.03348 4.00000
4.00000 7.03348 4.00000
4.00000 7.03348 4.00000
4.00212 7.07084 4.00212
4.00641 7.14771 4.00641
4.01064 7.22483 4.01064
4.01482 7.30215 4.01482
4.01897 7.37963 4.01896
4.02309 7.45721 4.02309
4.02722 7.53484 4.02722
4.03137 7.61248 4.03137
4.03555 7.69008 4.03555
4.03978 7.76757 4.03978
4.04409 7.84491 4.04409
4.04850 7.92203 4.04850
4.05303 7.99886 4.05303
4.05772 8.07532 4.05772
4.06259 8.15131 4.06259
4.06769 8.22674 4.06769
4.07307 8.30148 4.07307
4.07877 8.37540 4.07877
4.08486 8.44833 4.08486
4.09142 8.52007 4.09142
4.09854 8.59038 4.09854
4.10633 8.65899 4.10633
4.11484 8.72580 4.11484
4.12401 8.79099 4.12401
4.13387 8.85448 4.13387
4.14447 8.91620 4.14447
4.15583 8.97611 4.15583
4.16797 9.03416 4.16797
4.18092 9.09033 4.18092
4.19470 9.14460 4.19470
4.20931 9.19698 4.20931
4.22476 9.24751 4.22476
4.24104 9.29620 4.24104
4.25813 9.34313 4.25814
4.27604 9.38833 4.27604
4.29472 9.43190 4.29472
4.31417 9.47390 4.31417
4.33435 9.51440 4.33435
4.35524 9.55349 4.35524
4.37681 9.59124 4.37681
4.39905 9.62770 4.39905
4.42193 9.66292 4.42193
4.44544 9.69694 4.44544
4.46959 9.72973 4.46959
4.49440 9.76126 4.49440
4.51993 9.79137 4.51993
4.54630 9.81982 4.54630
4.57372 9.84610 4.57372
4.60260 9.86927 4.60261
4.63372 9.88759 4.63372
4.66854 9.89775 4.66854
4.70938 9.89449 4.70944
7.97464 7.32659 4.01613
8.09890 7.28943 4.01413
8.21682 7.25858 4.01247
8.32994 7.23253 4.01106
8.43929 7.21026 4.00985
8.54561 7.19102 4.00880
8.64947 7.17428 4.00788
8.75125 7.15964 4.00707
8.85132 7.14673 4.00636
8.94993 7.13532 4.00573
9.04728 7.12520 4.00516
9.14354 7.11619 4.00466
9.23888 7.10815 4.00422
9.33340 7.10096 4.00381
9.42722 7.09450 4.00345
9.52042 7.08871 4.00313
9.61306 7.08351 4.00283
9.70522 7.07881 4.00257
9.79697 7.07458 4.00233
9.88834 7.07076 4.00212
9.97937 7.06731 4.00192
10.07011 7.06419 4.00174
10.16060 7.06136 4.00158
10.25085 7.05880 4.00144
10.34090 7.05649 4.00131
10.43076 7.05439 4.00119
10.52047 7.05248 4.00108
10.61004 7.05075 4.00098
10.69948 7.04918 4.00090
10.78881 7.04776 4.00081
10.87805 7.04646 4.00074
10.96720 7.04528 4.00067
11.05627 7.04422 4.00061
11.14528 7.04325 4.00056
11.23424 7.04237 4.00051
11.32314 7.04157 4.00046
11.41201 7.04084 4.00042
11.50084 7.04018 4.00038
11.58965 7.03957 4.00035
11.67842 7.03902 4.00031
11.76718 7.03852 4.00029
11.85592 7.03807 4.00026
11.94464 7.03766 4.00024
12.03337 7.03728 4.00022
12.12208 7.03694 4.00020
12.21079 7.03662 4.00018
12.29950 7.03634 4.00016
12.38822 7.03607 4.00014
12.47692 7.03585 4.00014
12.56564 7.03563 4.00012
12.65436 7.03544 4.00011
12.74309 7.03526 4.00010
12.83183 7.03510 4.00009
12.92058 7.03496 4.00009
13.00934 7.03482 4.00008
13.09811 7.03470 4.00007
13.18689 7.03459 4.00007
13.27569 7.03449 4.00006
13.36450 7.03440 4.00005
13.45332 7.03432 4.00005
13.54215 7.03424 4.00004
13.63100 7.03417 4.00004
13.71987 7.03411 4.00004
13.80874 7.03405 4.00003
13.89764 7.03400 4.00003
13.98654 7.03395 4.00003
14.07547 7.03391 4.00003
14.16440 7.03387 4.00002
14.25336 7.03384 4.00002
14.34231 7.03381 4.00003
14.43130 7.03379 4.00002
14.52030 7.03375 4.00002
14.60932 7.03373 4.00001
14.69834 7.03371 4.00001
14.78739 7.03368 4.00001
14.87645 7.03366 4.00001
14.96552 7.03365 4.00001
15.05461 7.03363 4.00001
15.14372 7.03362 4.00001
15.23284 7.03361 4.00001
15.32197 7.03360 4.00001
15.41112 7.03358 4.00001
15.50028 7.03358 4.00000
15.58945 7.03357 4.00000
15.67864 7.03356 4.00000
15.76784 7.03355 4.00000
15.85706 7.03355 4.00000
15.94629 7.03354 4.00000
16.03553 7.03353 4.00000
16.12479 7.03353 4.00000
16.21405 7.03352 4.00000
16.30333 7.03352 4.00000
16.39263 7.03352 4.00000
16.48193 7.03351 4.00000
16.57125 7.03351 4.00000
16.66058 7.03351 4.00000
16.74992 7.03351 4.00000
16.83927 7.03350 4.00000
16.92863 7.03350 4.00000
17.01801 7.03350 4.00000
17.10739 7.03350 4.00000
17.19679 7.03350 4.00000
17.28620 7.03349 4.00000
17.37562 7.03349 4.00000
17.46504 7.03349 4.00000
17.55448 7.03349 4.00000
17.64393 7.03349 4.00000
17.73339 7.03349 4.00000
17.82286 7.03349 4.00000
17.91234 7.03349 4.00000
18.00183 7.03349 4.00000
18.09132 7.03348 4.00000
18.18082 7.03349 4.00000
18.27034 7.03348 4.00000
18.35986 7.03348 4.00000
18.44938 7.03348 4.00000
18.53892 7.03348 4.00000
18.62847 7.03348 4.00000
18.71802 7.03348 4.00000
18.80758 7.03348 4.00000
18.89715 7.03348 4.00000
18.98673 7.03348 4.00000
19.07631 7.03348 4.00000
19.16591 7.03348 4.00000
19.25551 7.03348 4.00000
19.34512 7.03348 4.00000
19.43473 7.03348 4.00000
19.52435 7.03348 4.00000
19.61399 7.03348 4.00000
19.70363 7.03348 4.00000
19.79328 7.03348 4.00000
19.88294 7.03348 4.00000
19.97262 7.03346 4.00000
20.06227 7.03348 4.00000
20.15194 7.03348 4.00000
20.24163 7.03348 4.00000
20.33132 7.03348 4.00000
20.42101 7.03348 4.00000
20.51072 7.03348 4.00000
20.60043 7.03348 4.00000
20.69014 7.03348 4.00000
20.77987 7.03348 4.00000
20.86961 7.03348 4.00000
20.95936 7.03348 4.00000
21.04911 7.03348 4.00000
21.13886 7.03348 4.00000
21.22863 7.03348 4.00000
21.31839 7.03348 4.00000
21.40817 7.03348 4.00000
21.49795 7.03348 4.00000
21.58773 7.03348 4.00000
21.67752 7.03348 4.00000
21.76731 7.03348 4.00000
21.85711 7.03348 4.00000
21.94691 7.03348 4.00000
22.03672 7.03348 4.00000
22.12654 7.03348 4.00000
22.21636 7.03348 4.00000
22.30619 7.03348 4.00000
22.39602 7.03348 4.00000
22.48586 7.03348 4.00000
22.57571 7.03348 4.00000
22.66556 7.03348 4.00000
22.75541 7.03348 4.00000
22.84527 7.03348 4.00000
22.93514 7.03348 4.00000
23.02501 7.03348 4.00000
23.11488 7.03348 4.00000
23.20477 7.03348 4.00000
23.29465 7.03348 4.00000
23.38454 7.03348 4.00000
23.47444 7.03348 4.00000
23.56434 7.03348 4.00000
23.65424 7.03348 4.00000
23.74416 7.03348 4.00000

Angle 0.046322 5.257586

4.00000 7.03347 4.00000
4.00000 7.03348 4.00000
4.00000 7.03348 4.00000
4.00000 7.03348 4.00000
4.00000 7.03350 4.00000
4.00000 7.03350 4.00000
4.00000 7.03349 4.00000
4.00000 7.03349 4.00000
4.00000 7.03349 4.00000
4.00000 7.03350 4.00000
4.00000 7.03349 4.00000
4.00000 7.03349 4.00000
4.00000 7.03349 4.00000
4.00000 7.03349 4.00000
4.00000 7.03349 4.00000
4.00000 7.03348 4.00000
4.00000 7.03348 4.00000
4.00000 7.03348 4.00000
4.00000 7.03348 4.00000
4.00000 7.03348 4.00000
4.00000 7.03348 4.00000
4.00000 7.03347 4.00000
4.00000 7.03348 4.00000
4.00000 7.03348 4.00000
4.00000 7.03348 4.00000
4.00000 7.03348 4.00000
4.00000 7.03348 4.00000
4.00000 7.03348 4.00000
4.00000 7.03348 4.00000
4.00000 7.03348 4.00000
4.00000 7.03348 4.00000
4.00000 7.03348 4.00000
4.00000 7.03348 4.00000
4.00000 7.03348 4.00000
4.00000 7.03348 4.00000
4.00000 7.03348 4.00000
4.00000 7.03348 4.00000
4.00000 7.03348 4.00000
4.00000 7.03348 4.00000
4.00000 7.03348 4.00000
4.00000 7.03348 4.00000
4.00000 7.03348 4.00000
4.00000 7.03348 4.00000
4.00000 7.03348 4.00000
4.00000 7.03348 4.00000
4.00000 7.03348 4.00000
4.00000 7.03349 4.00000
4.00000 7.03348 4.00000
4.00000 7.03348 4.00000
4.00000 7.03348 4.00000
4.00000 7.03348 4.00000
4.00000 7.03348 4.00000
4.00000 7.03348 4.00000
4.00000 7.03348 4.00000
4.00000 7.03348 4.00000
4.00000 7.03348 4.00000
4.00000 7.03348 4.00000
4.00000 7.03348 4.00000
4.00000 7.03348 4.00000
4.00000 7.03348 4.00000
4.00000 7.03348 4.00000
4.00000 7.03348 4.00000
4.00000 7.03348 4.00000
4.00000 7.03348 4.00000
4.00000 7.03348 4.00000
4.00000 7.03348 4.00000
4.00000 7.03348 4.00000
4.00000 7.03348 4.00000
4.00000 7.03348 4.00000
4.00000 7.03349 4.00000
4.00000 7.03348 4.00000
4.00000 7.03348 4.00000
4.00000 7.03348 4.00000
4.00000 7.03350 4.00000
4.00000 7.03349 4.00000
4.00000 7.03348 4.00000
4.00000 7.03348 4.00000
4.00000 7.03348 4.00000
4.00000 7.03348 4.00000
4.00000 7.03348 4.00000
4.00000 7.03348 4.00000
4.00000 7.03348 4.00000
4.00000 7.03348 4.00000
4.00000 7.03348 4.00000
4.00000 7.03348 4.00000
4.00000 7.03348 4.00000
4.00000 7.03348 4.00000
4.00000 7.03348 4.00000
4.00000 7.03348 4.00000
4.00000 7.03348 4.00000
4.00000 7.03346 4.00000
4.00000 7.03348 4.00000
4.00000 7.03348 4.00000
4.00000 7.03348 4.00000
4.00000 7.03348 4.00000
4.00000 7.03348 4.00000
4.00000 7.03348 4.00000
4.00000 7.03348 4.00000
4.00000 7.03348 4.00000
4.00000 7.03348 4.00000
4.00000 7.03348 4.00000
4.00000 7.03348 4.00000
4.00000 7.03348 4.00000
4.00000 7.03348 4.00000
4.00000 7.03348 4.00000
4.00000 7.03349 4.00000
4.00000 7.03348 4.00000
4.00000 7.03348 4.00000
4.00000 7.03348 4.00000
4.00000 7.03348 4.00000
4.00000 7.03348 4.00000
4.00000 7.03348 4.00000
4.00000 7.03350 4.00000
4.00000 7.03348 4.00000
4.00000 7.03348 4.00000
4.00000 7.03348 4.00000
4.00000 7.03348 4.00000
4.00000 7.03348 4.00000
4.00000 7.03347 4.00000
4.00000 7.03348 4.00000
4.00000 7.03347 4.00000
4.00000 7.03351 4.00000
4.00093 7.04975 4.00093
4.00506 7.12328 4.00506
4.00913 7.19709 4.00913
4.01315 7.27114 4.01315
4.01714 7.34539 4.01714
4.02110 7.41980 4.02111
4.02507 7.49432 4.02507
4.02904 7.56891 4.02904
4.03303 7.64353 4.03303
4.03707 7.71812 4.03707
4.04117 7.79264 4.04117
4.04534 7.86703 4.04534
4.04962 7.94124 4.04962
4.05402 8.01519 4.05402
4.05857 8.08881 4.05857
4.06330 8.16202 4.06330
4.06825 8.23473 4.06825
4.07346 8.30681 4.07346
4.07899 8.37815 4.07899
4.08488 8.44858 4.08488
4.09122 8.51793 4.09122
4.09807 8.58599 4.09807
4.10556 8.65249 4.10556
4.11372 8.71732 4.11372
4.12250 8.78066 4.12250
4.13193 8.84244 4.13193
4.14204 8.90259 4.14204
4.15287 8.96108 4.15287
4.16444 9.01784 4.16444
4.17676 9.07286 4.17676
4.18986 9.12612 4.18986
4.20375 9.17762 4.20375
4.21843 9.22736 4.21843
4.23390 9.27539 4.23391
4.25016 9.32173 4.25016
4.26719 9.36645 4.26719
4.28497 9.40959 4.28497
4.30349 9.45122 4.30349
4.32272 9.49142 4.32272
4.34265 9.53026 4.34264
4.36324 9.56778 4.36324
4.38448 9.60407 4.38448
4.40634 9.63917 4.40634
4.42882 9.67311 4.42882
4.45190 9.70592 4.45190
4.47559 9.73758 4.47561
4.49995 9.76800 4.49995
4.52500 9.79706 4.52500
4.55089 9.82447 4.55089
4.57783 9.84970 4.57783
4.60626 9.87181 4.60624
4.63694 9.88901 4.63694
4.67134 9.89805 4.67133
7.84872 7.36981 4.01844
7.97819 7.32545 4.01607
8.09947 7.28927 4.01413
8.21474 7.25909 4.01250
8.32544 7.23351 4.01111
8.43251 7.21157 4.00992
8.53669 7.19256 4.00888
8.63848 7.17598 4.00797
8.73830 7.16141 4.00717
8.83644 7.14856 4.00646
8.93316 7.13718 4.00583
9.02868 7.12705 4.00527
9.12314 7.11802 4.00477
9.21670 7.10995 4.00432
9.30948 7.10270 4.00391
9.40156 7.09621 4.00355
9.49306 7.09035 4.00322
9.58402 7.08508 4.00292
9.67452 7.08032 4.00265
9.76461 7.07602 4.00241
9.85434 7.07213 4.00219
9.94374 7.06862 4.00199
10.03288 7.06543 4.00181
10.12177 7.06253 4.00165
10.21042 7.05992 4.00150
10.29889 7.05754 4.00137
10.38720 7.05538 4.00124
10.47535 7.05341 4.00113
10.56337 7.05163 4.00103
10.65128 7.05001 4.00094
10.73909 7.04853 4.00086
10.82681 7.04719 4.00078
10.91445 7.04598 4.00071
11.00204 7.04486 4.00065
11.08957 7.04385 4.00059
11.17705 7.04292 4.00054
11.26449 7.04209 4.00049
11.35190 7.04132 4.00045
11.43929 7.04063 4.00041
11.52665 7.03999 4.00037
11.61401 7.03941 4.00034
11.70135 7.03889 4.00031
11.78868 7.03841 4.00028
11.87602 7.03797 4.00026
11.96334 7.03757 4.00023
12.05068 7.03721 4.00021
12.13802 7.03688 4.00019
12.22537 7.03657 4.00018
12.31274 7.03630 4.00016
12.40010 7.03605 4.00015
12.48749 7.03582 4.00013
12.57490 7.03561 4.00012
12.66232 7.03543 4.00011
12.74974 7.03526 4.00010
12.83721 7.03509 4.00009
12.92468 7.03495 4.00008
13.01217 7.03482 4.00008
13.09968 7.03470 4.00007
13.18722 7.03460 4.00006
13.27478 7.03450 4.00006
13.36237 7.03441 4.00005
13.44997 7.03431 4.00005
13.53758 7.03425 4.00004
13.62524 7.03418 4.00004
13.71291 7.03412 4.00004
13.80061 7.03406 4.00003
13.88831 7.03401 4.00003
13.97606 7.03396 4.00003
14.06382 7.03392 4.00002
14.15161 7.03388 4.00002
14.23943 7.03384 4.00002
14.32727 7.03381 4.00002
14.41513 7.03378 4.00002
14.50300 7.03375 4.00002
14.59091 7.03373 4.00001
14.67884 7.03371 4.00001
14.76680 7.03368 4.00001
14.85477 7.03367 4.00001
14.94276 7.03365 4.00001
15.03078 7.03364 4.00001
15.11882 7.03362 4.00001
15.20688 7.03361 4.00001
15.29497 7.03360 4.00001
15.38307 7.03359 4.00001
15.47120 7.03358 4.00001
15.55934 7.03357 4.00001
15.64751 7.03356 4.00000
15.73570 7.03355 4.00000
15.82390 7.03355 4.00000
15.91213 7.03354 4.00000
16.00038 7.03354 4.00000
16.08864 7.03353 4.00000
16.17693 7.03353 4.00000
16.26523 7.03352 4.00000
16.35356 7.03352 4.00000
16.44190 7.03351 4.00000
16.53027 7.03351 4.00000
16.61864 7.03351 4.00000
16.70704 7.03351 4.00000
16.79546 7.03350 4.00000
16.88389 7.03350 4.00000
16.97234 7.03350 4.00000
17.06081 7.03350 4.00000
17.14930 7.03349 4.00000
17.23780 7.03349 4.00000
17.32631 7.03349 4.00000
17.41485 7.03349 4.00000
17.50340 7.03349 4.00000
17.59196 7.03349 4.00000
17.68054 7.03349 4.00000
17.76913 7.03349 4.00000
17.85774 7.03349 4.00000
17.94637 7.03349 4.00000
18.03500 7.03349 4.00000
18.12366 7.03349 4.00000
18.21233 7.03348 4.00000
18.30101 7.03348 4.00000
18.38971 7.03348 4.00000
18.47842 7.03348 4.00000
18.56715 7.03348 4.00000
18.65589 7.03348 4.00000
18.74464 7.03348 4.00000
18.83341 7.03348 4.00000
18.92219 7.03348 4.00000
19.01099 7.03348 4.00000
19.09980 7.03348 4.00000
19.18862 7.03348 4.00000
19.27745 7.03348 4.00000
19.36630 7.03348 4.00000
19.45516 7.03348 4.00000
19.54403 7.03348 4.00000
19.63292 7.03348 4.00000
19.72181 7.03348 4.00000
19.81071 7.03348 4.00000
19.89964 7.03347 4.00000
19.98857 7.03348 4.00000
20.07751 7.03348 4.00000
20.16647 7.03347 4.00000
20.25543 7.03348 4.00000
20.34440 7.03348 4.00000
20.43340 7.03348 4.00000
20.52239 7.03348 4.00000
20.61140 7.03348 4.00000
20.70042 7.03348 4.00000
20.78945 7.03348 4.00000
20.87850 7.03348 4.00000
20.96755 7.03348 4.00000
21.05661 7.03348 4.00000
21.14568 7.03348 4.00000
21.23476 7.03348 4.00000
21.32386 7.03348 4.00000
21.41296 7.03348 4.00000
21.50207 7.03348 4.00000
21.59119 7.03348 4.00000
21.68033 7.03348 4.00000
21.76947 7.03348 4.00000
21.85862 7.03348 4.00000
21.94778 7.03348 4.00000
22.03694 7.03348 4.00000
22.12612 7.03348 4.00000
22.21530 7.03348 4.00000
22.30450 7.03348 4.00000
22.39370 7.03348 4.00000
22.48292 7.03348 4.00000
22.57213 7.03348 4.00000
22.66136 7.03348 4.00000
22.75060 7.03348 4.00000
22.83984 7.03348 4.00000
22.92909 7.03348 4.00000
23.01835 7.03348 4.00000
23.10762 7.03348 4.00000
23.19689 7.03348 4.00000
23.28618 7.03348 4.00000
23.37547 7.03348 4.00000
23.46477 7.03348 4.00000
23.55408 7.03348 4.00000
23.64339 7.03348 4.00000
23.73271 7.03348 4.00000
23.82204 7.03348 4.00000
23.91138 7.03348 4.00000
24.00072 7.03348 4.00000
24.09007 7.03348 4.00000
24.17943 7.03348 4.00000
24.26880 7.03348 4.00000
24.35817 7.03348 4.00000
24.44755 7.03348 4.00000
24.53694 7.03348 4.00000
24.62633 7.03348 4.00000
24.71573 7.03348 4.00000
24.80514 7.03348 4.00000
24.89455 7.03348 4.00000
24.98397 7.03348 4.00000
25.07340 7.03348 4.00000
25.16283 7.03348 4.00000
25.25227 7.03348 4.00000
25.34172 7.03348 4.00000
25.43117 7.03348 4.00000
25.52063 7.03348 4.00000
25.61010 7.03348 4.00000
25.69957 7.03348 4.00000
25.78903 7.03349 4.00000
25.87853 7.03348 4.00000
25.96802 7.03348 4.00000
26.05750 7.03349 4.00000
26.14701 7.03348 4.00000
26.23652 7.03348 4.00000
26.32603 7.03348 4.00000
26.41555 7.03348 4.00000
26.50507 7.03348 4.00000
26.59461 7.03348 4.00000
26.68414 7.03348 4.00000
26.77368 7.03348 4.00000
26.86322 7.03349 4.00000
26.95279 7.03348 4.00000
27.04235 7.03348 4.00000
27.13190 7.03349 4.00000
27.22148 7.03348 4.00000
27.31105 7.03348 4.00000
27.40063 7.03348 4.00000
27.49022 7.03348 4.00000
27.57981 7.03348 4.00000
27.66941 7.03348 4.00000
27.75901 7.03348 4.00000
27.84861 7.03348 4.00000
27.93822 7.03348 4.00000

Angle 0.506909 1.274033

4.00000 7.03348 4.00000
4.00000 7.03348 4.00000
4.00000 7.03348 4.00000
4.00000 7.03348 4.00000
4.00000 7.03348 4.00000
4.00000 7.03348 4.00000
4.00000 7.03348 4.00000
4.00000 7.03348 4.00000
4.00000 7.03348 4.00000
4.00000 7.03348 4.00000
4.00000 7.03348 4.00000
4.00000 7.03348 4.00000
4.00000 7.03348 4.00000
4.00000 7.03348 4.00000
4.00000 7.03348 4.00000
4.00000 7.03348 4.00000
4.00000 7.03348 4.00000
4.00000 7.03348 4.00000
4.00000 7.03348 4.00000
4.00000 7.03348 4.00000
4.00000 7.03348 4.00000
4.00000 7.03348 4.00000
4.00000 7.03348 4.00000
4.00000 7.03348 4.00000
4.00000 7.03348 4.00000
4.00000 7.03348 4.00000
4.00000 7.03348 4.00000
4.00000 7.03348 4.00000
4.00000 7.03348 4.00000
4.00000 7.03348 4.00000
4.00000 7.03348 4.00000
4.00000 7.03348 4.00000
4.00000 7.03348 4.00000
4.00000 7.03348 4.00000
4.00000 7.03348 4.00000
4.00000 7.03348 4.00000
4.00000 7.03348 4.00000
4.00000 7.03348 4.00000
4.00000 7.03348 4.00000
4.00000 7.03348 4.00000
4.00000 7.03348 4.00000
4.00000 7.03348 4.00000
4.00000 7.03345 4.00000
4.00000 7.03348 4.00000
4.00000 7.03350 4.00000
4.00000 7.03349 4.00000
4.00000 7.03349 4.00000
4.00000 7.03348 4.00000
4.00000 7.03348 4.00000
4.00000 7.03348 4.00000
4.00000 7.03348 4.00000
4.00000 7.03348 4.00000
4.00000 7.03348 4.00000
4.00000 7.03348 4.00000
4.00000 7.03348 4.00000
4.00000 7.03348 4.00000
4.00000 7.03348 4.00000
4.00000 7.03348 4.00000
4.00000 7.03348 4.00000
4.00000 7.03348 4.00000
4.00000 7.03348 4.00000
4.00000 7.03348 4.00000
4.00000 7.03348 4.00000
4.00000 7.03348 4.00000
4.00000 7.03348 4.00000
4.00000 7.03348 4.00000
4.00000 7.03348 4.00000
4.00000 7.03348 4.00000
4.00000 7.03348 4.00000
4.00000 7.03348 4.00000
4.00000 7.03348 4.00000
4.00000 7.03348 4.00000
4.00000 7.03348 4.00000
4.00000 7.03348 4.00000
4.00000 7.03348 4.00000
4.00000 7.03348 4.00000
4.00000 7.03347 4.00000
4.00000 7.03348 4.00000
4.00000 7.03348 4.00000
4.00000 7.03348 4.00000
4.00000 7.03348 4.00000
4.00000 7.03348 4.00000
4.00000 7.03348 4.00000
4.00000 7.03348 4.00000
4.00000 7.03348 4.00000
4.00000 7.03348 4.00000
4.00000 7.03348 4.00000
4.00000 7.03348 4.00000
4.00000 7.03352 4.00000
4.00000 7.03352 4.00000
4.00035 7.03968 4.00035
4.00423 7.10845 4.00423
4.00806 7.17754 4.00805
4.01184 7.24692 4.01184
4.01559 7.31655 4.01559
4.01933 7.38639 4.01933
4.02305 7.45641 4.02305
4.02678 7.52657 4.02678
4.03053 7.59683 4.03053
4.03431 7.66716 4.03431
4.03813 7.73750 4.03813
4.04201 7.80782 4.04201
4.04597 7.87807 4.04597
4.05002 7.94820 4.05002
4.05420 8.01815 4.05420
4.05851 8.08785 4.05850
4.06298 8.15723 4.06298
4.06766 8.22621 4.06766
4.07256 8.29469 4.07256
4.07775 8.36256 4.07775
4.08325 8.42969 4.08325
4.08914 8.49594 4.08914
4.09548 8.56113 4.09548
4.10236 8.62503 4.10236
4.10986 8.68745 4.10986
4.11793 8.74850 4.11793
4.12659 8.80821 4.12659
4.13586 8.86650 4.13586
4.14576 8.92333 4.14576
4.15633 8.97865 4.15633
4.16759 9.03243 4.16759
4.17955 9.08463 4.17955
4.19223 9.13524 4.19223
4.20564 9.18427 4.20564
4.21979 9.23173 4.21979
4.23466 9.27763 4.23466
4.25026 9.32201 4.25026
4.26658 9.36491 4.26658
4.28360 9.40639 4.28360
4.30131 9.44649 4.30131
4.31969 9.48528 4.31969
4.33872 9.52281 4.33872
4.35838 9.55914 4.35838
4.37864 9.59433 4.37865
4.39951 9.62843 4.39951
4.42094 9.66146 4.42095
4.44296 9.69345 4.44296
4.46554 9.72439 4.46554
4.48872 9.75424 4.48873
4.51254 9.78291 4.51254
4.53707 9.81020 4.53708
4.56248 9.83577 4.56247
4.58901 9.85901 4.58901
4.61717 9.87881 4.61717
4.64785 9.89314 4.64785
7.75046 7.40826 4.02050
7.88396 7.35710 4.01776
8.00690 7.31644 4.01559
8.12280 7.28285 4.01378
8.23343 7.25455 4.01225
8.33999 7.23037 4.01094
8.44330 7.20949 4.00980
8.54397 7.19131 4.00881
8.64246 7.17536 4.00794
8.73915 7.16129 4.00716
8.83430 7.14882 4.00647
8.92813 7.13774 4.00586
9.02083 7.12786 4.00531
9.11259 7.11899 4.00482
9.20349 7.11104 4.00438
9.29368 7.10389 4.00398
9.38323 7.09744 4.00362
9.47223 7.09161 4.00329
9.56071 7.08638 4.00299
9.64877 7.08164 4.00273
9.73648 7.07732 4.00249
9.82383 7.07342 4.00227
9.91090 7.06988 4.00207
9.99773 7.06665 4.00189
10.08432 7.06372 4.00172
10.17072 7.06106 4.00157
10.25694 7.05864 4.00143
10.34302 7.05643 4.00130
10.42895 7.05443 4.00119
10.51479 7.05260 4.00109
10.60052 7.05093 4.00099
10.68618 7.04940 4.00091
10.77176 7.04801 4.00084
10.85728 7.04675 4.00076
10.94275 7.04560 4.00069
11.02819 7.04455 4.00063
11.11360 7.04358 4.00057
11.19898 7.04271 4.00052
11.28434 7.04191 4.00048
11.36969 7.04117 4.00044
11.45503 7.04051 4.00040
11.54038 7.03990 4.00037
11.62574 7.03933 4.00033
11.71109 7.03883 4.00030
11.79646 7.03836 4.00028
11.88183 7.03794 4.00025
11.96723 7.03756 4.00023
12.05265 7.03719 4.00021
12.13809 7.03688 4.00019
12.22355 7.03658 4.00018
12.30905 7.03630 4.00016
12.39455 7.03607 4.00015
12.48010 7.03584 4.00013
12.56567 7.03564 4.00012
12.65127 7.03545 4.00011
12.73690 7.03528 4.00010
12.82257 7.03512 4.00009
12.90827 7.03498 4.00009
12.99400 7.03485 4.00008
13.07976 7.03473 4.00007
13.16556 7.03462 4.00007
13.25141 7.03452 4.00006
13.33727 7.03443 4.00005
13.42318 7.03434 4.00005
13.50911 7.03427 4.00005
13.59509 7.03420 4.00004
13.68111 7.03414 4.00004
13.76713 7.03408 4.00003
13.85321 7.03403 4.00003
13.93934 7.03398 4.00003
14.02552 7.03393 4.00003
14.11173 7.03390 4.00002
14.19799 7.03385 4.00003
14.28411 7.03384 4.00002
14.37042 7.03380 4.00002
14.45676 7.03377 4.00002
14.54314 7.03374 4.00001
14.62956 7.03372 4.00001
14.71602 7.03369 4.00002
14.80252 7.03368 4.00001
14.88905 7.03367 4.00001
14.97562 7.03364 4.00001
15.06223 7.03363 4.00001
15.14888 7.03361 4.00001
15.23556 7.03360 4.00001
15.32226 7.03360 4.00001
15.40901 7.03358 4.00001
15.49578 7.03357 4.00001
15.58259 7.03356 4.00001
15.66943 7.03355 4.00001
15.75630 7.03355 4.00001
15.84320 7.03354 4.00001
15.93013 7.03354 4.00001
16.01710 7.03353 4.00000
16.10408 7.03353 4.00000
16.19110 7.03352 4.00000
16.27815 7.03352 4.00000
16.36522 7.03351 4.00000
16.45231 7.03352 4.00000
16.53943 7.03351 4.00000
16.62656 7.03350 4.00001
16.71373 7.03350 4.00000
16.80092 7.03350 4.00000
16.88815 7.03350 4.00000
16.97540 7.03349 4.00000
17.06266 7.03350 4.00000
17.14995 7.03350 4.00000
17.23726 7.03349 4.00000
17.32459 7.03350 4.00000
17.41195 7.03349 4.00000
17.49933 7.03348 4.00000
17.58673 7.03348 4.00000
17.67414 7.03348 4.00000
17.76158 7.03349 4.00000
17.84904 7.03348 4.00000
17.93652 7.03349 4.00000
18.02403 7.03349 4.00000
18.11155 7.03349 4.00000
18.19909 7.03349 4.00000
18.28665 7.03349 4.00000
18.37422 7.03348 4.00000
18.46182 7.03348 4.00000
18.54944 7.03348 4.00000
18.63708 7.03348 4.00000
18.72473 7.03348 4.00000
18.81243 7.03348 4.00000
18.90015 7.03348 4.00000
18.98789 7.03348 4.00000
19.07564 7.03348 4.00000
19.16341 7.03348 4.00000
19.25121 7.03348 4.00000
19.33901 7.03348 4.00000
19.42684 7.03348 4.00000
19.51466 7.03348 4.00000
19.60249 7.03348 4.00000
19.69037 7.03348 4.00000
19.77823 7.03348 4.00000
19.86611 7.03348 4.00000
19.95401 7.03348 4.00000
20.04193 7.03348 4.00000
20.12986 7.03348 4.00000
20.21780 7.03348 4.00000
20.30577 7.03348 4.00000
20.39375 7.03348 4.00000
20.48174 7.03348 4.00000
20.56975 7.03348 4.00000
20.65778 7.03348 4.00000
20.74582 7.03348 4.00000
20.83387 7.03348 4.00000
20.92195 7.03348 4.00000
21.01003 7.03348 4.00000
21.09814 7.03348 4.00000
21.18625 7.03348 4.00000
21.27438 7.03348 4.00000
21.36253 7.03348 4.00000
21.45069 7.03348 4.00000
21.53887 7.03348 4.00000
21.62705 7.03348 4.00000
21.71526 7.03348 4.00000
21.80348 7.03348 4.00000
21.89171 7.03348 4.00000
21.97997 7.03348 4.00000
22.06823 7.03348 4.00000
22.15651 7.03348 4.00000
22.24480 7.03348 4.00000
22.33312 7.03348 4.00000
22.42143 7.03348 4.00000
22.50978 7.03347 4.00000
22.59813 7.03348 4.00000
22.68651 7.03347 4.00000
22.77486 7.03348 4.00000
22.86324 7.03349 4.00000
22.95163 7.03348 4.00000
23.04006 7.03348 4.00000
23.12848 7.03348 4.00000
23.21692 7.03347 4.00000
23.30535 7.03348 4.00000
23.39379 7.03348 4.00000
23.48225 7.03348 4.00000
23.57072 7.03348 4.00000
23.65921 7.03348 4.00000
23.74770 7.03348 4.00000
23.83621 7.03348 4.00000
23.92473 7.03348 4.00000
24.01326 7.03348 4.00000
24.10180 7.03348 4.00000
24.19036 7.03348 4.00000
24.27893 7.03348 4.00000
24.36751 7.03348 4.00000
24.45612 7.03348 4.00000
24.54473 7.03348 4.00000
24.63337 7.03348 4.00000
24.72199 7.03348 4.00000
24.81065 7.03348 4.00000
24.89932 7.03348 4.00000
24.98800 7.03348 4.00000
25.07670 7.03348 4.00000
25.16540 7.03348 4.00000
25.25412 7.03348 4.00000
25.34284 7.03348 4.00000
25.43158 7.03348 4.00000
25.52032 7.03348 4.00000
25.60908 7.03348 4.00000
25.69784 7.03348 4.00000
25.78662 7.03348 4.00000
25.87541 7.03348 4.00000
25.96420 7.03348 4.00000
26.05300 7.03348 4.00000
26.14182 7.03348 4.00000
26.23064 7.03348 4.00000
26.31947 7.03348 4.00000
26.40831 7.03348 4.00000
26.49716 7.03348 4.00000
26.58603 7.03348 4.00000
26.67490 7.03348 4.00000
26.76378 7.03348 4.00000
26.85267 7.03348 4.00000
26.94157 7.03348 4.00000
27.03048 7.03348 4.00000
27.11940 7.03348 4.00000
27.20833 7.03348 4.00000
27.29726 7.03348 4.00000
27.38621 7.03348 4.00000
27.47517 7.03348 4.00000
27.56413 7.03348 4.00000
27.65311 7.03348 4.00000
27.74209 7.03348 4.00000
27.83109 7.03348 4.00000
27.92009 7.03348 4.00000
28.00910 7.03348 4.00000
28.09812 7.03348 4.00000
28.18715 7.03348 4.00000
28.27619 7.03348 4.00000
28.36524 7.03348 4.00000
28.45427 7.03348 4.00000
28.54334 7.03348 4.00000
28.63239 7.03348 4.00000
28.72148 7.03348 4.00000
28.81054 7.03348 4.00000
28.89961 7.03348 4.00000
28.98873 7.03348 4.00000
29.07782 7.03348 4.00000
29.16694 7.03348 4.00000
29.25608 7.03348 4.00000
29.34519 7.03348 4.00000
29.43434 7.03348 4.00000
29.52347 7.03348 4.00000
29.61262 7.03348 4.00000
29.70179 7.03348 4.00000
29.79095 7.03348 4.00000
29.88012 7.03348 4.00000
29.96929 7.03348 4.00000
30.05848 7.03348 4.00000
30.14767 7.03348 4.00000
30.23688 7.03348 4.00000

Angle 0.238703 0.952748

4.00000 7.03348 4.00000
4.00000 7.03348 4.00000
4.00000 7.03348 4.00000
4.00000 7.03348 4.00000
4.00000 7.03348 4.00000
4.00000 7.03348 4.00000
4.00000 7.03348 4.00000
4.00000 7.03348 4.00000
4.00000 7.03348 4.00000
4.00000 7.03348 4.00000
4.00000 7.03348 4.00000
4.00000 7.03348 4.00000
4.00000 7.03348 4.00000
4.00000 7.03348 4.00000
4.00000 7.03348 4.00000
4.00000 7.03348 4.00000
4.00000 7.03348 4.00000
4.00000 7.03348 4.00000
4.00000 7.03348 4.00000
4.00000 7.03348 4.00000
4.00000 7.03348 4.00000
4.00000 7.03348 4.00000
4.00000 7.03348 4.00000
4.00000 7.03348 4.00000
4.00000 7.03348 4.00000
4.00000 7.03348 4.00000
4.00000 7.03348 4.00000
4.00000 7.03348 4.00000
4.00000 7.03348 4.00000
4.00000 7.03348 4.00000
4.00000 7.03348 4.00000
4.00000 7.03348 4.00000
4.00000 7.03348 4.00000
4.00000 7.03348 4.00000
4.00000 7.03348 4.00000
4.00000 7.03348 4.00000
4.00000 7.03348 4.00000
4.00000 7.03348 4.00000
4.00000 7.03348 4.00000
4.00000 7.03348 4.00000
4.00000 7.03349 4.00000
4.00000 7.03349 4.00000
4.00000 7.03350 4.00000
4.00000 7.03349 4.00000
4.00000 7.03349 4.00000
4.00000 7.03349 4.00000
4.00000 7.03349 4.00000
4.00000 7.03348 4.00000
4.00000 7.03348 4.00000
4.00000 7.03348 4.00000
4.00000 7.03348 4.00000
4.00000 7.03350 4.00000
4.00000 7.03350 4.00000
4.00000 7.03350 4.00000
4.00000 7.03349 4.00000
4.00000 7.03349 4.00000
4.00000 7.03349 4.00000
4.00000 7.03348 4.00000
4.00000 7.03348 4.00000
4.00000 7.03348 4.00000
4.00000 7.03348 4.00000
4.00000 7.03348 4.00000
4.00000 7.03349 4.00000
4.00000 7.03348 4.00000
4.00000 7.03348 4.00000
4.00000 7.03348 4.00000
4.00000 7.03348 4.00000
4.00000 7.03348 4.00000
4.00000 7.03348 4.00000
4.00000 7.03348 4.00000
4.00000 7.03348 4.00000
4.00000 7.03348 4.00000
4.00000 7.03348 4.00000
4.00000 7.03348 4.00000
4.00000 7.03348 4.00000
4.00000 7.03347 4.00000
4.00000 7.03348 4.00000
4.00000 7.03348 4.00000
4.00000 7.03348 4.00000
4.00000 7.03348 4.00000
4.00000 7.03348 4.00000
4.00000 7.03348 4.00000
4.00000 7.03348 4.00000
4.00000 7.03348 4.00000
4.00000 7.03349 4.00000
4.00000 7.03349 4.00000
4.00000 7.03348 4.00000
4.00000 7.03348 4.00000
4.00000 7.03348 4.00000
4.00000 7.03348 4.00000
4.00000 7.03348 4.00000
4.00000 7.03348 4.00000
4.00000 7.03348 4.00000
4.00000 7.03348 4.00000
4.00000 7.03348 4.00000
4.00000 7.03348 4.00000
4.00000 7.03348 4.00000
4.00000 7.03348 4.00000
4.00296 7.08574 4.00296
4.00728 7.16338 4.00728
4.01153 7.24126 4.01153
4.01574 7.31931 4.01574
4.01992 7.39750 4.01992
4.02408 7.47578 4.02408
4.02825 7.55409 4.02825
4.03244 7.63239 4.03244
4.03666 7.71063 4.03666
4.04095 7.78873 4.04095
4.04532 7.86665 4.04532
4.04980 7.94432 4.04980
4.05441 8.02166 4.05441
4.05919 8.09860 4.05919
4.06416 8.17502 4.06416
4.06939 8.25083 4.06939
4.07490 8.32589 4.07490
4.08077 8.40006 4.08077
4.08706 8.47314 4.08706
4.09385 8.54494 4.09385
4.10125 8.61519 4.10125
4.10937 8.68361 4.10937
4.11818 8.75030 4.11818
4.12767 8.81531 4.12767
4.13788 8.87856 4.13788
4.14885 8.94000 4.14885
4.16059 8.99958 4.16059
4.17315 9.05726 4.17315
4.18652 9.11301 4.18652
4.20074 9.16684 4.20074
4.21581 9.21877 4.21581
4.23171 9.26882 4.23171
4.24845 9.31704 4.24845
4.26602 9.36349 4.26602
4.28438 9.40822 4.28438
4.30354 9.45133 4.30354
4.32345 9.49288 4.32344
4.34408 9.53295 4.34408
4.36542 9.57163 4.36543
4.38745 9.60897 4.38745
4.41013 9.64503 4.41013
4.43345 9.67986 4.43345
4.45741 9.71346 4.45741
4.48203 9.74581 4.48203
4.50733 9.77682 4.50733
4.53342 9.80628 4.53342
4.56044 9.83383 4.56044
4.58871 9.85877 4.58872
4.61881 9.87979 4.61881
4.65184 9.89436 4.65184
7.77695 7.39725 4.01990
7.91578 7.34605 4.01717
8.04423 7.30515 4.01498
8.16535 7.27155 4.01317
8.28101 7.24340 4.01165
8.39244 7.21947 4.01035
8.50052 7.19891 4.00923
8.60587 7.18108 4.00825
8.70898 7.16552 4.00740
8.81021 7.15186 4.00664
8.90986 7.13981 4.00598
9.00815 7.12914 4.00538
9.10529 7.11966 4.00486
9.20142 7.11121 4.00439
9.29671 7.10364 4.00396
9.39118 7.09690 4.00358
9.48502 7.09084 4.00325
9.57828 7.08539 4.00294
9.67102 7.08050 4.00266
9.76332 7.07608 4.00242
9.85521 7.07210 4.00219
9.94675 7.06850 4.00199
10.03798 7.06525 4.00181
10.12893 7.06232 4.00164
10.21963 7.05966 4.00149
10.31012 7.05725 4.00135
10.40041 7.05507 4.00123
10.49053 7.05310 4.00112
10.58050 7.05130 4.00101
10.67034 7.04968 4.00092
10.76006 7.04820 4.00084
10.84967 7.04686 4.00076
10.93919 7.04564 4.00069
11.02863 7.04454 4.00063
11.11800 7.04354 4.00057
11.20730 7.04263 4.00052
11.29656 7.04179 4.00048
11.38576 7.04104 4.00043
11.47493 7.04036 4.00039
11.56406 7.03974 4.00036
11.65317 7.03917 4.00032
11.74225 7.03866 4.00030
11.83131 7.03819 4.00027
11.92036 7.03775 4.00024
12.00938 7.03738 4.00022
12.09840 7.03702 4.00020
12.18742 7.03670 4.00018
12.27643 7.03641 4.00017
12.36544 7.03615 4.00015
12.45446 7.03590 4.00014
12.54347 7.03568 4.00013
12.63249 7.03548 4.00011
12.72150 7.03531 4.00010
12.81053 7.03513 4.00009
12.89955 7.03499 4.00009
12.98859 7.03485 4.00008
13.07765 7.03472 4.00007
13.16671 7.03461 4.00006
13.25578 7.03451 4.00006
13.34486 7.03441 4.00005
13.43395 7.03433 4.00005
13.52306 7.03425 4.00004
13.61218 7.03418 4.00004
13.70130 7.03412 4.00004
13.79043 7.03407 4.00003
13.87958 7.03401 4.00003
13.96875 7.03396 4.00003
14.05793 7.03392 4.00002
14.14712 7.03388 4.00002
14.23633 7.03384 4.00002
14.32555 7.03381 4.00002
14.41478 7.03378 4.00002
14.50403 7.03375 4.00002
14.59329 7.03373 4.00001
14.68256 7.03371 4.00001
14.77186 7.03368 4.00001
14.86115 7.03367 4.00001
14.95047 7.03365 4.00001
15.03979 7.03363 4.00001
15.12913 7.03362 4.00001
15.21849 7.03361 4.00001
15.30785 7.03360 4.00001
15.39723 7.03359 4.00001
15.48662 7.03358 4.00001
15.57602 7.03357 4.00000
15.66544 7.03356 4.00000
15.75486 7.03355 4.00000
15.84430 7.03355 4.00000
15.93375 7.03354 4.00000
16.02321 7.03353 4.00000
16.11268 7.03353 4.00000
16.20217 7.03352 4.00000
16.29166 7.03352 4.00000
16.38117 7.03351 4.00000
16.47069 7.03351 4.00000
16.56022 7.03351 4.00000
16.64976 7.03351 4.00000
16.73931 7.03350 4.00000
16.82887 7.03350 4.00000
16.91844 7.03350 4.00000
17.00801 7.03350 4.00000
17.09761 7.03350 4.00000
17.18720 7.03350 4.00000
17.27681 7.03349 4.00000
17.36643 7.03349 4.00000
17.45605 7.03349 4.00000
17.54569 7.03349 4.00000
17.63533 7.03349 4.00000
17.72499 7.03349 4.00000
17.81464 7.03351 4.00000
17.90433 7.03349 4.00000
17.99402 7.03348 4.00000
18.08370 7.03348 4.00000
18.17340 7.03349 4.00000
18.26312 7.03348 4.00000
18.35284 7.03348 4.00000
18.44256 7.03348 4.00000
18.53230 7.03348 4.00000
18.62204 7.03348 4.00000
18.71179 7.03348 4.00000
18.80155 7.03348 4.00000
18.89131 7.03348 4.00000
18.98109 7.03348 4.00000
19.07087 7.03348 4.00000
19.16065 7.03348 4.00000
19.25044 7.03348 4.00000
19.34023 7.03348 4.00000
19.43004 7.03348 4.00000
19.51984 7.03348 4.00000
19.60966 7.03348 4.00000
19.69948 7.03348 4.00000
19.78931 7.03348 4.00000
19.87914 7.03348 4.00000
19.96898 7.03348 4.00000
20.05882 7.03348 4.00000
20.14867 7.03348 4.00000
20.23852 7.03348 4.00000
20.32838 7.03348 4.00000
20.41825 7.03348 4.00000
20.50812 7.03348 4.00000
20.59800 7.03348 4.00000
20.68789 7.03348 4.00000
20.77777 7.03348 4.00000
20.86767 7.03348 4.00000
20.95757 7.03348 4.00000
21.04748 7.03348 4.00000
21.13739 7.03348 4.00000
21.22732 7.03348 4.00000
21.31724 7.03348 4.00000
21.40717 7.03348 4.00000
21.49711 7.03348 4.00000
21.58705 7.03348 4.00000
21.67699 7.03348 4.00000
21.76694 7.03348 4.00000
21.85689 7.03348 4.00000
21.94685 7.03348 4.00000
22.03682 7.03348 4.00000
22.12678 7.03348 4.00000
22.21676 7.03348 4.00000
22.30673 7.03348 4.00000
22.39671 7.03348 4.00000
22.48670 7.03348 4.00000
22.57669 7.03348 4.00000
22.66668 7.03348 4.00000
22.75668 7.03348 4.00000
22.84668 7.03348 4.00000
22.93669 7.03348 4.00000
23.02670 7.03348 4.00000
23.11671 7.03349 4.00000
23.20673 7.03349 4.00000
23.29676 7.03349 4.00000
23.38679 7.03349 4.00000
23.47683 7.03349 4.00000
23.56688 7.03349 4.00000
23.65693 7.03349 4.00000
23.74698 7.03349 4.00000
23.83703 7.03349 4.00000
23.92710 7.03348 4.00000
24.01715 7.03348 4.00000
24.10720 7.03348 4.00000
24.19727 7.03348 4.00000
24.28734 7.03348 4.00000
24.37741 7.03348 4.00000
24.46749 7.03348 4.00000
24.55756 7.03348 4.00000
24.64764 7.03348 4.00000
24.73772 7.03349 4.00000
24.82781 7.03348 4.00000
24.91790 7.03348 4.00000
25.00799 7.03348 4.00000
25.09808 7.03348 4.00000
25.18818 7.03348 4.00000
25.27828 7.03348 4.00000
25.36838 7.03348 4.00000
25.45848 7.03348 4.00000
25.54859 7.03348 4.00000
25.63869 7.03348 4.00000
25.72880 7.03348 4.00000
25.81891 7.03348 4.00000
25.90903 7.03348 4.00000
25.99915 7.03348 4.00000
26.08928 7.03348 4.00000
26.17940 7.03348 4.00000
26.26953 7.03348 4.00000
26.35966 7.03348 4.00000
26.44980 7.03348 4.00000
26.53994 7.03348 4.00000
26.63008 7.03348 4.00000
26.72022 7.03348 4.00000
26.81037 7.03348 4.00000
26.90052 7.03348 4.00000
26.99068 7.03348 4.00000
27.08083 7.03348 4.00000
27.17099 7.03348 4.00000
27.26115 7.03348 4.00000
27.35131 7.03348 4.00000
27.44148 7.03348 4.00000
27.53165 7.03348 4.00000
27.62181 7.03348 4.00000
27.71199 7.03348 4.00000
27.80216 7.03348 4.00000
27.89234 7.03348 4.00000
27.98252 7.03348 4.00000
28.07270 7.03348 4.00000
28.16288 7.03348 4.00000
28.25306 7.03348 4.00000
28.34325 7.03348 4.00000
28.43344 7.03348 4.00000
28.52363 7.03348 4.00000
28.61382 7.03348 4.00000
28.70401 7.03348 4.00000
28.79421 7.03348 4.00000
28.88441 7.03348 4.00000
28.97460 7.03348 4.00000
29.06481 7.03348 4.00000
29.15501 7.03348 4.00000
29.24522 7.03348 4.00000
29.33543 7.03348 4.00000
29.42564 7.03348 4.00000
29.51585 7.03348 4.00000
29.60607 7.03348 4.00000
29.69629 7.03348 4.00000
29.78651 7.03348 4.00000
29.87673 7.03348 4.00000
29.96695 7.03348 4.00000
30.05718 7.03348 4.00000
30.14741 7.03348 4.00000
30.23764 7.03348 4.00000
30.32787 7.03348 4.00000
30.41811 7.03348 4.00000
30.50835 7.03348 4.00000
30.59858 7.03348 4.00000

Angle 0.508222 3.659767

4.00000 7.03348 4.00000
4.00000 7.03348 4.00000
4.00000 7.03348 4.00000
4.00000 7.03347 4.00000
4.00000 7.03347 4.00000
4.00000 7.03348 4.00000
4.00000 7.03348 4.00000
4.00000 7.03348 4.00000
4.00000 7.03348 4.00000
4.00000 7.03348 4.00000
4.00000 7.03348 4.00000
4.00000 7.03348 4.00000
4.00000 7.03348 4.00000
4.00000 7.03348 4.00000
4.00000 7.03348 4.00000
4.00000 7.03348 4.00000
4.00000 7.03348 4.00000
4.00000 7.03348 4.00000
4.00000 7.03348 4.00000
4.00000 7.03348 4.00000
4.00000 7.03348 4.00000
4.00000 7.03349 4.00000
4.00000 7.03348 4.00000
4.00000 7.03348 4.00000
4.00000 7.03348 4.00000
4.00000 7.03348 4.00000
4.00000 7.03348 4.00000
4.00000 7.03348 4.00000
4.00000 7.03348 4.00000
4.00000 7.03348 4.00000
4.00000 7.03348 4.00000
4.00000 7.03348 4.00000
4.00000 7.03348 4.00000
4.00000 7.03348 4.00000
4.00000 7.03348 4.00000
4.00000 7.03347 4.00000
4.00000 7.03348 4.00000
4.00000 7.03348 4.00000
4.00000 7.03347 4.00000
4.00000 7.03348 4.00000
4.00000 7.03348 4.00000
4.00000 7.03347 4.00000
4.00000 7.03348 4.00000
4.00000 7.03348 4.00000
4.00000 7.03348 4.00000
4.00000 7.03348 4.00000
4.00000 7.03348 4.00000
4.00000 7.03348 4.00000
4.00000 7.03348 4.00000
4.00000 7.03348 4.00000
4.00000 7.03348 4.00000
4.00000 7.03347 4.00000
4.00000 7.03347 4.00000
4.00000 7.03348 4.00000
4.00000 7.03348 4.00000
4.00000 7.03348 4.00000
4.00000 7.03348 4.00000
4.00000 7.03348 4.00000
4.00000 7.03348 4.00000
4.00000 7.03347 4.00000
4.00000 7.03348 4.00000
4.00000 7.03348 4.00000
4.00000 7.03347 4.00000
4.00000 7.03348 4.00000
4.00000 7.03348 4.00000
4.00000 7.03347 4.00000
4.00000 7.03348 4.00000
4.00000 7.03348 4.00000
4.00000 7.03348 4.00000
4.00000 7.03347 4.00000
4.00000 7.03348 4.00000
4.00000 7.03348 4.00000
4.00000 7.03346 4.00000
4.00000 7.03348 4.00000
4.00000 7.03348 4.00000
4.00000 7.03348 4.00000
4.00000 7.03348 4.00000
4.00000 7.03348 4.00000
4.00000 7.03348 4.00000
4.00000 7.03348 4.00000
4.00000 7.03348 4.00000
4.00000 7.03348 4.00000
4.00000 7.03348 4.00000
4.00000 7.03348 4.00000
4.00000 7.03348 4.00000
4.00000 7.03348 4.00000
4.00000 7.03348 4.00000
4.00000 7.03348 4.00000
4.00000 7.03348 4.00000
4.00000 7.03348 4.00000
4.00000 7.03348 4.00000
4.00000 7.03348 4.00000
4.00000 7.03348 4.00000
4.00000 7.03347 4.00000
4.00000 7.03348 4.00000
4.00000 7.03349 4.00000
4.00000 7.03348 4.00000
4.00000 7.03348 4.00000
4.00000 7.03348 4.00000
4.00000 7.03348 4.00000
4.00000 7.03348 4.00000
4.00000 7.03348 4.00000
4.00000 7.03348 4.00000
4.00000 7.03348 4.00000
4.00000 7.03348 4.00000
4.00000 7.03348 4.00000
4.00000 7.03348 4.00000
4.00000 7.03348 4.00000
4.00000 7.03348 4.00000
4.00000 7.03348 4.00000
4.00000 7.03348 4.00000
4.00000 7.03348 4.00000
4.00000 7.03348 4.00000
4.00000 7.03348 4.00000
4.00000 7.03348 4.00000
4.00000 7.03348 4.00000
4.00000 7.03348 4.00000
4.00000 7.03348 4.00000
4.00000 7.03348 4.00000
4.00000 7.03348 4.00000
4.00000 7.03348 4.00000
4.00000 7.03348 4.00000
4.00000 7.03348 4.00000
4.00000 7.03348 4.00000
4.00000 7.03348 4.00000
4.00000 7.03348 4.00000
4.00000 7.03348 4.00000
4.00000 7.03348 4.00000
4.00000 7.03348 4.00000
4.00000 7.03348 4.00000
4.00000 7.03348 4.00000
4.00000 7.03348 4.00000
4.00000 7.03348 4.00000
4.00000 7.03349 4.00000
4.00000 7.03348 4.00000
4.00000 7.03348 4.00000
4.00000 7.03348 4.00000
4.00000 7.03348 4.00000
4.00000 7.03348 4.00000
4.00000 7.03348 4.00000
4.00000 7.03348 4.00000
4.00415 7.10704 4.00415
4.00828 7.18146 4.00827
4.01234 7.25615 4.01234
4.01637 7.33103 4.01637
4.02037 7.40606 4.02037
4.02437 7.48122 4.02437
4.02837 7.55644 4.02837
4.03240 7.63169 4.03240
4.03646 7.70691 4.03646
4.04058 7.78205 4.04058
4.04478 7.85707 4.04478
4.04907 7.93190 4.04907
4.05349 8.00647 4.05349
4.05805 8.08071 4.05806
4.06280 8.15453 4.06280
4.06777 8.22784 4.06777
4.07300 8.30053 4.07300
4.07853 8.37247 4.07853
4.08444 8.44349 4.08444
4.09078 8.51343 4.09078
4.09766 8.58205 4.09766
4.10515 8.64912 4.10515
4.11334 8.71448 4.11334
4.12216 8.77831 4.12216
4.13163 8.84057 4.13163
4.14179 8.90117 4.14179
4.15268 8.96008 4.15268
4.16431 9.01724 4.16431
4.17671 9.07263 4.17671
4.18989 9.12623 4.18989
4.20387 9.17804 4.20387
4.21866 9.22808 4.21866
4.23424 9.27637 4.23424
4.25061 9.32296 4.25061
4.26776 9.36790 4.26777
4.28568 9.41124 4.28568
4.30434 9.45306 4.30434
4.32372 9.49343 4.32372
4.34379 9.53241 4.34380
4.36454 9.57008 4.36454
4.38594 9.60649 4.38594
4.40797 9.64170 4.40797
4.43062 9.67575 4.43062
4.45388 9.70864 4.45388
4.47776 9.74036 4.47776
4.50230 9.77083 4.50230
4.52756 9.79990 4.52756
4.55368 9.82725 4.55368
4.58090 9.85233 4.58090
4.60968 9.87411 4.60968
4.64087 9.89063 4.64087
4.67605 9.89836 4.67605
7.86628 7.36341 4.01810
7.99512 7.32010 4.01578
8.11604 7.28469 4.01388
8.23114 7.25510 4.01228
8.34177 7.22999 4.01092
8.44887 7.20843 4.00975
8.55313 7.18975 4.00873
8.65504 7.17345 4.00783
8.75501 7.15913 4.00704
8.85334 7.14649 4.00635
8.95027 7.13529 4.00572
9.04600 7.12533 4.00517
9.14071 7.11644 4.00468
9.23451 7.10851 4.00423
9.32756 7.10138 4.00384
9.41991 7.09498 4.00348
9.51168 7.08923 4.00316
9.60290 7.08405 4.00287
9.69370 7.07937 4.00260
9.78408 7.07514 4.00236
9.87410 7.07133 4.00215
9.96381 7.06788 4.00195
10.05322 7.06476 4.00178
10.14242 7.06191 4.00161
10.23138 7.05934 4.00147
10.32016 7.05700 4.00134
10.40876 7.05488 4.00122
10.49723 7.05295 4.00111
10.58554 7.05121 4.00101
10.67375 7.04962 4.00092
10.76187 7.04817 4.00084
10.84989 7.04686 4.00076
10.93785 7.04566 4.00069
11.02573 7.04457 4.00063
11.11356 7.04358 4.00058
11.20134 7.04268 4.00052
11.28908 7.04186 4.00048
11.37679 7.04112 4.00044
11.46447 7.04044 4.00040
11.55214 7.03981 4.00036
11.63979 7.03925 4.00033
11.72741 7.03874 4.00030
11.81504 7.03827 4.00027
11.90266 7.03785 4.00025
11.99028 7.03746 4.00023
12.07791 7.03710 4.00021
12.16553 7.03678 4.00019
12.25317 7.03649 4.00017
12.34081 7.03622 4.00016
12.42846 7.03598 4.00014
12.51612 7.03575 4.00013
12.60380 7.03555 4.00012
12.69149 7.03537 4.00011
12.77920 7.03521 4.00010
12.86693 7.03504 4.00009
12.95468 7.03490 4.00008
13.04244 7.03478 4.00007
13.13022 7.03466 4.00007
13.21802 7.03455 4.00006
13.30583 7.03446 4.00006
13.39368 7.03437 4.00005
13.48154 7.03429 4.00005
13.56942 7.03422 4.00004
13.65733 7.03416 4.00004
13.74525 7.03409 4.00003
13.83319 7.03404 4.00003
13.92117 7.03399 4.00003
14.00916 7.03394 4.00003
14.09719 7.03390 4.00003
14.18519 7.03386 4.00002
14.27325 7.03383 4.00002
14.36133 7.03380 4.00002
14.44943 7.03377 4.00002
14.53756 7.03374 4.00001
14.62571 7.03372 4.00001
14.71389 7.03370 4.00001
14.80208 7.03368 4.00001
14.89030 7.03366 4.00001
14.97854 7.03364 4.00001
15.06680 7.03363 4.00001
15.15508 7.03361 4.00001
15.24339 7.03360 4.00001
15.33171 7.03359 4.00001
15.42005 7.03358 4.00001
15.50841 7.03357 4.00001
15.59680 7.03356 4.00000
15.68520 7.03355 4.00001
15.77362 7.03355 4.00001
15.86206 7.03354 4.00000
15.95052 7.03354 4.00000
16.03899 7.03353 4.00000
16.12749 7.03353 4.00000
16.21600 7.03352 4.00000
16.30453 7.03352 4.00000
16.39307 7.03352 4.00000
16.48163 7.03351 4.00000
16.57021 7.03351 4.00000
16.65881 7.03350 4.00000
16.74741 7.03350 4.00000
16.83602 7.03350 4.00000
16.92466 7.03350 4.00000
17.01331 7.03350 4.00000
17.10198 7.03349 4.00000
17.19065 7.03350 4.00000
17.27935 7.03349 4.00000
17.36806 7.03349 4.00000
17.45679 7.03349 4.00000
17.54553 7.03348 4.00000
17.63427 7.03349 4.00000
17.72304 7.03348 4.00000
17.81182 7.03348 4.00000
17.90061 7.03349 4.00000
17.98942 7.03349 4.00000
18.07824 7.03349 4.00000
18.16707 7.03348 4.00000
18.25592 7.03348 4.00000
18.34478 7.03348 4.00000
18.43365 7.03348 4.00000
18.52253 7.03348 4.00000
18.61143 7.03348 4.00000
18.70033 7.03348 4.00000
18.78925 7.03348 4.00000
18.87818 7.03348 4.00000
18.96712 7.03348 4.00000
19.05610 7.03348 4.00000
19.14508 7.03348 4.00000
19.23407 7.03348 4.00000
19.32308 7.03348 4.00000
19.41210 7.03348 4.00000
19.50113 7.03348 4.00000
19.59017 7.03348 4.00000
19.67922 7.03348 4.00000
19.76828 7.03348 4.00000
19.85733 7.03348 4.00000
19.94642 7.03348 4.00000
20.03550 7.03348 4.00000
20.12458 7.03348 4.00000
20.21367 7.03348 4.00000
20.30278 7.03348 4.00000
20.39189 7.03348 4.00000
20.48102 7.03348 4.00000
20.57016 7.03348 4.00000
20.65931 7.03348 4.00000
20.74846 7.03348 4.00000
20.83763 7.03348 4.00000
20.92681 7.03348 4.00000
21.01599 7.03348 4.00000
21.10519 7.03348 4.00000
21.19440 7.03348 4.00000
21.28361 7.03348 4.00000
21.37284 7.03348 4.00000
21.46207 7.03348 4.00000
21.55131 7.03348 4.00000
21.64057 7.03348 4.00000
21.72983 7.03348 4.00000
21.81910 7.03348 4.00000
21.90838 7.03348 4.00000
21.99767 7.03348 4.00000
22.08698 7.03347 4.00000
22.17628 7.03348 4.00000
22.26559 7.03348 4.00000
22.35492 7.03348 4.00000
22.44424 7.03348 4.00000
22.53358 7.03348 4.00000
22.62294 7.03347 4.00000
22.71228 7.03348 4.00000
22.80164 7.03348 4.00000
22.89101 7.03348 4.00000
22.98038 7.03348 4.00000
23.06974 7.03349 4.00000
23.15915 7.03348 4.00000
23.24856 7.03347 4.00000
23.33795 7.03348 4.00000
23.42736 7.03348 4.00000
23.51678 7.03348 4.00000
23.60620 7.03348 4.00000
23.69563 7.03348 4.00000
23.78507 7.03348 4.00000
23.87451 7.03348 4.00000
23.96397 7.03348 4.00000
24.05343 7.03348 4.00000
24.14289 7.03348 4.00000
24.23237 7.03348 4.00000
24.32185 7.03348 4.00000
24.41134 7.03348 4.00000
24.50083 7.03348 4.00000
24.59034 7.03348 4.00000
24.67985 7.03348 4.00000
24.76937 7.03348 4.00000
24.85889 7.03348 4.00000
24.94842 7.03348 4.00000
25.03795 7.03348 4.00000
25.12750 7.03348 4.00000
25.21705 7.03348 4.00000
25.30661 7.03348 4.00000
25.39617 7.03348 4.00000
25.48574 7.03348 4.00000
25.57531 7.03348 4.00000
25.66490 7.03348 4.00000
25.75448 7.03348 4.00000
25.84407 7.03348 4.00000
25.93367 7.03348 4.00000
26.02328 7.03348 4.00000
26.11288 7.03348 4.00000
26.20250 7.03348 4.00000
26.29212 7.03348 4.00000
26.38174 7.03348 4.00000

