Angle 0.557577 3.399446

4.00000 7.03348 4.00000
4.00000 7.03347 4.00000
4.00000 7.03347 4.00000
4.00000 7.03348 4.00000
4.00000 7.03348 4.00000
4.00000 7.03348 4.00000
4.00000 7.03348 4.00000
4.00000 7.03348 4.00000
4.00000 7.03348 4.00000
4.00000 7.03348 4.00000
4.00000 7.03348 4.00000
4.00000 7.03348 4.00000
4.00000 7.03347 4.00000
4.00000 7.03348 4.00000
4.00000 7.03348 4.00000
4.00000 7.03348 4.00000
4.00000 7.03348 4.00000
4.00000 7.03348 4.00000
4.00000 7.03348 4.00000
4.00000 7.03348 4.00000
4.00000 7.03348 4.00000
4.00000 7.03348 4.00000
4.00000 7.03348 4.00000
4.00000 7.03348 4.00000
4.00000 7.03348 4.00000
4.00000 7.03348 4.00000
4.00000 7.03349 4.00000
4.00000 7.03349 4.00000
4.00000 7.03348 4.00000
4.00000 7.03348 4.00000
4.00000 7.03348 4.00000
4.00000 7.03348 4.00000
4.00000 7.03347 4.00000
4.00000 7.03348 4.00000
4.00000 7.03347 4.00000
4.00000 7.03348 4.00000
4.00000 7.03348 4.00000
4.00000 7.03348 4.00000
4.00000 7.03348 4.00000
4.00000 7.03348 4.00000
4.00000 7.03348 4.00000
4.00000 7.03348 4.00000
4.00000 7.03348 4.00000
4.00000 7.03348 4.00000
4.00000 7.03348 4.00000
4.00000 7.03348 4.00000
4.00000 7.03348 4.00000
4.00000 7.03348 4.00000
4.00000 7.03348 4.00000
4.00000 7.03348 4.00000
4.00000 7.03348 4.00000
4.00000 7.03348 4.00000
4.00000 7.03348 4.00000
4.00000 7.03348 4.00000
4.00000 7.03348 4.00000
4.00000 7.03348 4.00000
4.00000 7.03348 4.00000
4.00000 7.03348 4.00000
4.00000 7.03348 4.00000
4.00000 7.03348 4.00000
4.00000 7.03348 4.00000
4.00000 7.03348 4.00000
4.00000 7.03348 4.00000
4.00000 7.03348 4.00000
4.00000 7.03348 4.00000
4.00000 7.03348 4.00000
4.00000 7.03348 4.00000
4.00000 7.03348 4.00000
4.00000 7.03348 4.00000
4.00000 7.03348 4.00000
4.00000 7.03348 4.00000
4.00000 7.03348 4.00000
4.00000 7.03348 4.00000
4.00000 7.03348 4.00000
4.00000 7.03348 4.00000
4.00000 7.03348 4.00000
4.00000 7.03348 4.00000
4.00000 7.03348 4.00000
4.00000 7.03348 4.00000
4.00000 7.03348 4.00000
4.00000 7.03348 4.00000
4.00000 7.03348 4.00000
4.00000 7.03347 4.00000
4.00000 7.03348 4.00000
4.00000 7.03348 4.00000
4.00000 7.03348 4.00000
4.00000 7.03348 4.00000
4.00000 7.03348 4.00000
4.00000 7.03348 4.00000
4.00000 7.03348 4.00000
4.00000 7.03348 4.00000
4.00000 7.03348 4.00000
4.00000 7.03348 4.00000
4.00000 7.03348 4.00000
4.00000 7.03348 4.00000
4.00000 7.03348 4.00000
4.00000 7.03348 4.00000
4.00000 7.03348 4.00000
4.00000 7.03348 4.00000
4.00000 7.03348 4.00000
4.00000 7.03348 4.00000
4.00000 7.03348 4.00000
4.00000 7.03348 4.00000
4.00000 7.03348 4.00000
4.00000 7.03348 4.00000
4.00000 7.03348 4.00000
4.00000 7.03348 4.00000
4.00000 7.03348 4.00000
4.00000 7.03348 4.00000
4.00000 7.03348 4.00000
4.00000 7.03348 4.00000
4.00000 7.03348 4.00000
4.00000 7.03348 4.00000
4.00000 7.03348 4.00000
4.00000 7.03348 4.00000
4.00000 7.03348 4.00000
4.00000 7.03348 4.00000
4.00000 7.03348 4.00000
4.00000 7.03348 4.00000
4.00000 7.03348 4.00000
4.00000 7.03347 4.00000
4.00000 7.03348 4.00000
4.00000 7.03348 4.00000
4.00000 7.03348 4.00000
4.00000 7.03348 4.00000
4.00000 7.03348 4.00000
4.00000 7.03348 4.00000
4.00000 7.03348 4.00000
4.00000 7.03348 4.00000
4.00000 7.03348 4.00000
4.00000 7.03348 4.00000
4.00000 7.03348 4.00000
4.00000 7.03348 4.00000
4.00000 7.03348 4.00000
4.00000 7.03348 4.00000
4.00000 7.03348 4.00000
4.00000 7.03348 4.00000
4.00000 7.03348 4.00000
4.00000 7.03348 4.00000
4.00000 7.03348 4.00000
4.00000 7.03348 4.00000
4.00000 7.03348 4.00000
4.00000 7.03348 4.00000
4.00000 7.03348 4.00000
4.00000 7.03348 4.00000
4.00000 7.03348 4.00000
4.00000 7.03348 4.00000
4.00000 7.03348 4.00000
4.00000 7.03348 4.00000
4.00000 7.03348 4.00000
4.00000 7.03348 4.00000
4.00000 7.03348 4.00000
4.00000 7.03348 4.00000
4.00000 7.03348 4.00000
4.00000 7.03348 4.00000
4.00000 7.03348 4.00000
4.00000 7.03348 4.00000
4.00000 7.03348 4.00000
4.00000 7.03348 4.00000
4.00000 7.03348 4.00000
4.00000 7.03348 4.00000
4.00000 7.03348 4.00000
4.00000 7.03348 4.00000
4.00000 7.03348 4.00000
4.00000 7.03348 4.00000
4.00000 7.03348 4.00000
4.00000 7.03348 4.00000
4.00000 7.03348 4.00000
4.00000 7.03348 4.00000
4.00000 7.03348 4.00000
4.00000 7.03348 4.00000
4.00000 7.03348 4.00000
4.00000 7.03348 4.00000
4.00000 7.03348 4.00000
4.00000 7.03348 4.00000
4.00000 7.03348 4.00000
4.00000 7.03348 4.00000
4.00000 7.03348 4.00000
4.00000 7.03348 4.00000
4.00000 7.03348 4.00000
4.00000 7.03348 4.00000
4.00000 7.03348 4.00000
4.00000 7.03348 4.00000
4.00000 7.03348 4.00000
4.00000 7.03348 4.00000
4.00000 7.03348 4.00000
4.00000 7.03348 4.00000
4.00000 7.03348 4.00000
4.00000 7.03348 4.00000
4.00000 7.03348 4.00000
4.00000 7.03348 4.00000
4.00000 7.03348 4.00000
4.00000 7.03348 4.00000
4.00000 7.03348 4.00000
4.00000 7.03348 4.00000
4.00000 7.03348 4.00000
4.00000 7.03348 4.00000
4.00000 7.03348 4.00000
4.00000 7.03348 4.00000
4.00000 7.03348 4.00000
4.00000 7.03348 4.00000
4.00000 7.03348 4.00000
4.00000 7.03348 4.00000
4.00000 7.03348 4.00000
4.00000 7.03348 4.00000
4.00000 7.03348 4.00000
4.00000 7.03348 4.00000
4.00000 7.03348 4.00000
4.00000 7.03348 4.00000
4.00000 7.03348 4.00000
4.00000 7.03348 4.00000
4.00000 7.03348 4.00000
4.00000 7.03348 4.00000
4.00000 7.03348 4.00000
4.00000 7.03348 4.00000
4.00000 7.03348 4.00000
4.00000 7.03348 4.00000
4.00000 7.03348 4.00000
4.00000 7.03348 4.00000
4.00000 7.03348 4.00000
4.00000 7.03348 4.00000
4.00000 7.03348 4.00000
4.00000 7.03348 4.00000
4.00000 7.03348 4.00000
4.00000 7.03348 4.00000
4.00000 7.03348 4.00000
4.00000 7.03348 4.00000
4.00000 7.03348 4.00000
4.00000 7.03348 4.00000
4.00000 7.03348 4.00000
4.00000 7.03348 4.00000
4.00000 7.03348 4.00000
4.00000 7.03348 4.00000
4.00000 7.03348 4.00000
4.00000 7.03349 4.00000
4.00000 7.03348 4.00000
4.00000 7.03348 4.00000
4.00000 7.03348 4.00000
4.00000 7.03348 4.00000
4.00000 7.03349 4.00000
4.00000 7.03348 4.00000
4.00000 7.03348 4.00000
4.00167 7.06281 4.00167
4.00569 7.13456 4.00569
4.00964 7.20662 4.00965
4.01357 7.27891 4.01357
4.01746 7.35141 4.01746
4.02133 7.42409 4.02133
4.02520 7.49689 4.02520
4.02909 7.56979 4.02909
4.03299 7.64273 4.03299
4.03694 7.71567 4.03694
4.04094 7.78856 4.04094
4.04502 7.86135 4.04502
4.04919 7.93399 4.04919
4.05349 8.00642 4.05349
4.05792 8.07856 4.05792
4.06253 8.15033 4.06253
4.06734 8.22165 4.06734
4.07240 8.29242 4.07240
4.07774 8.36251 4.07774
4.08343 8.43179 4.08343
4.08953 8.50009 4.08953
4.09611 8.56721 4.09611
4.10326 8.63294 4.10326
4.11108 8.69704 4.11108
4.11950 8.75969 4.11950
4.12853 8.82088 4.12853
4.13822 8.88054 4.13822
4.14859 8.93862 4.14859
4.15966 8.99507 4.15966
4.17146 9.04985 4.17146
4.18401 9.10294 4.18401
4.19732 9.15434 4.19732
4.21139 9.20405 4.21139
4.22624 9.25210 4.22624
4.24184 9.29850 4.24184
4.25821 9.34331 4.25821
4.27531 9.38658 4.27532
4.29315 9.42836 4.29315
4.31169 9.46872 4.31169
4.33092 9.50772 4.33092
4.35081 9.54543 4.35081
4.37134 9.58190 4.37134
4.39250 9.61720 4.39250
4.41426 9.65136 4.41426
4.43662 9.68442 4.43662
4.45956 9.71638 4.45957
4.48312 9.74721 4.48313
4.50733 9.77681 4.50733
4.53226 9.80503 4.53226
4.55805 9.83152 4.55805
4.58495 9.85572 4.58495
4.61345 9.87653 4.61345
4.64443 9.89197 4.64443
4.67969 9.89845 4.67924
4.01792 7.36000 7.87581
4.01567 7.31803 8.00178
4.01382 7.28354 8.12027
4.01225 7.25460 8.23322
4.01092 7.22996 8.34190
4.00976 7.20875 8.44719
4.00876 7.19033 8.54973
4.00787 7.17421 8.65002
4.00709 7.16000 8.74845
4.00640 7.14748 8.84524
4.00578 7.13634 8.94071
4.00523 7.12642 9.03501
4.00474 7.11755 9.12833
4.00430 7.10961 9.22077
4.00390 7.10249 9.31245
4.00354 7.09607 9.40348
4.00321 7.09030 9.49393
4.00292 7.08509 9.58388
4.00266 7.08038 9.67338
4.00242 7.07612 9.76250
4.00220 7.07226 9.85127
4.00200 7.06876 9.93974
4.00182 7.06560 10.02793
4.00166 7.06271 10.11591
4.00151 7.06009 10.20367
4.00138 7.05774 10.29122
4.00126 7.05558 10.37863
4.00114 7.05360 10.46593
4.00104 7.05183 10.55306
4.00095 7.05020 10.64012
4.00087 7.04873 10.72706
4.00080 7.04739 10.81392
4.00072 7.04615 10.90075
4.00066 7.04504 10.98749
4.00060 7.04402 11.07419
4.00055 7.04309 11.16086
4.00050 7.04224 11.24749
4.00046 7.04147 11.33410
4.00042 7.04077 11.42069
4.00038 7.04012 11.50727
4.00035 7.03954 11.59383
4.00032 7.03901 11.68039
4.00029 7.03852 11.76694
4.00026 7.03808 11.85351
4.00024 7.03767 11.94008
4.00022 7.03731 12.02665
4.00020 7.03697 12.11325
4.00018 7.03666 12.19985
4.00017 7.03638 12.28646
4.00015 7.03613 12.37310
4.00014 7.03589 12.45975
4.00013 7.03568 12.54643
4.00012 7.03548 12.63313
4.00010 7.03533 12.71983
4.00009 7.03516 12.80659
4.00009 7.03500 12.89336
4.00008 7.03487 12.98015
4.00008 7.03475 13.06697
4.00007 7.03463 13.15382
4.00006 7.03453 13.24069
4.00006 7.03444 13.32759
4.00005 7.03435 13.41452
4.00005 7.03428 13.50147
4.00004 7.03421 13.58846
4.00004 7.03414 13.67547
4.00004 7.03408 13.76251
4.00003 7.03403 13.84957
4.00003 7.03398 13.93667
4.00003 7.03394 14.02379
4.00002 7.03390 14.11094
4.00002 7.03386 14.19812
4.00002 7.03383 14.28533
4.00002 7.03379 14.37256
4.00002 7.03377 14.45982
4.00002 7.03374 14.54711
4.00001 7.03372 14.63443
4.00001 7.03370 14.72177
4.00001 7.03368 14.80914
4.00001 7.03366 14.89653
4.00001 7.03364 14.98396
4.00001 7.03363 15.07140
4.00001 7.03362 15.15888
4.00001 7.03360 15.24638
4.00001 7.03359 15.33390
4.00001 7.03358 15.42145
4.00001 7.03357 15.50903
4.00001 7.03356 15.59661
4.00000 7.03356 15.68423
4.00000 7.03355 15.77187
4.00000 7.03355 15.85953
4.00000 7.03354 15.94722
4.00000 7.03353 16.03493
4.00000 7.03353 16.12266
4.00000 7.03352 16.21041
4.00000 7.03352 16.29819
4.00000 7.03352 16.38599
4.00000 7.03351 16.47381
4.00000 7.03351 16.56165
4.00000 7.03351 16.64952
4.00000 7.03351 16.73741
4.00000 7.03350 16.82531
4.00000 7.03350 16.91324
4.00000 7.03350 17.00119
4.00000 7.03350 17.08916

Angle 0.695704 5.782415

4.00000 7.03348 4.00000
4.00000 7.03348 4.00000
4.00000 7.03348 4.00000
4.00000 7.03348 4.00000
4.00000 7.03348 4.00000
4.00000 7.03348 4.00000
4.00000 7.03348 4.00000
4.00000 7.03348 4.00000
4.00000 7.03348 4.00000
4.00000 7.03348 4.00000
4.00000 7.03348 4.00000
4.00000 7.03348 4.00000
4.00000 7.03348 4.00000
4.00000 7.03348 4.00000
4.00000 7.03348 4.00000
4.00000 7.03348 4.00000
4.00000 7.03348 4.00000
4.00000 7.03348 4.00000
4.00000 7.03348 4.00000
4.00000 7.03348 4.00000
4.00000 7.03348 4.00000
4.00000 7.03348 4.00000
4.00000 7.03348 4.00000
4.00000 7.03348 4.00000
4.00000 7.03348 4.00000
4.00000 7.03348 4.00000
4.00000 7.03348 4.00000
4.00000 7.03348 4.00000
4.00000 7.03348 4.00000
4.00000 7.03348 4.00000
4.00000 7.03348 4.00000
4.00000 7.03348 4.00000
4.00000 7.03348 4.00000
4.00000 7.03348 4.00000
4.00000 7.03348 4.00000
4.00000 7.03348 4.00000
4.00000 7.03348 4.00000
4.00000 7.03348 4.00000
4.00000 7.03348 4.00000
4.00000 7.03348 4.00000
4.00000 7.03348 4.00000
4.00000 7.03348 4.00000
4.00000 7.03348 4.00000
4.00000 7.03348 4.00000
4.00000 7.03348 4.00000
4.00000 7.03348 4.00000
4.00000 7.03348 4.00000
4.00000 7.03348 4.00000
4.00000 7.03348 4.00000
4.00000 7.03348 4.00000
4.00000 7.03348 4.00000
4.00000 7.03348 4.00000
4.00000 7.03348 4.00000
4.00000 7.03348 4.00000
4.00000 7.03348 4.00000
4.00000 7.03348 4.00000
4.00000 7.03348 4.00000
4.00000 7.03348 4.00000
4.00000 7.03348 4.00000
4.00000 7.03348 4.00000
4.00000 7.03348 4.00000
4.00000 7.03349 4.00000
4.00000 7.03348 4.00000
4.00000 7.03348 4.00000
4.00000 7.03348 4.00000
4.00000 7.03348 4.00000
4.00152 7.06019 4.00152
4.00437 7.11089 4.00437
4.00720 7.16200 4.00720
4.01002 7.21350 4.01002
4.01284 7.26538 4.01284
4.01565 7.31762 4.01565
4.01846 7.37021 4.01846
4.02128 7.42312 4.02128
4.02411 7.47634 4.02411
4.02696 7.52985 4.02696
4.02983 7.58363 4.02982
4.03272 7.63766 4.03272
4.03565 7.69191 4.03565
4.03861 7.74637 4.03862
4.04163 7.80101 4.04163
4.04471 7.85580 4.04471
4.04784 7.91072 4.04784
4.05106 7.96574 4.05106
4.05436 8.02081 4.05436
4.05776 8.07592 4.05776
4.06127 8.13101 4.06127
4.06490 8.18604 4.06490
4.06869 8.24096 4.06869
4.07264 8.29572 4.07264
4.07678 8.35025 4.07678
4.08113 8.40447 4.08113
4.08574 8.45832 4.08574
4.09062 8.51169 4.09062
4.09583 8.56447 4.09583
4.10140 8.61655 4.10140
4.10741 8.66778 4.10741
4.11383 8.71818 4.11383
4.12065 8.76783 4.12065
4.12788 8.81667 4.12788
4.13555 8.86468 4.13555
4.14368 8.91180 4.14368
4.15228 8.95801 4.15228
4.16136 9.00327 4.16136
4.17095 9.04755 4.17095
4.18105 9.09084 4.18105
4.19168 9.13311 4.19168
4.20284 9.17436 4.20284
4.21454 9.21459 4.21454
4.22678 9.25380 4.22678
4.23957 9.29199 4.23957
4.25291 9.32919 4.25291
4.26678 9.36541 4.26678
4.28118 9.40068 4.28118
4.29611 9.43501 4.29611
4.31156 9.46845 4.31156
4.32752 9.50102 4.32752
4.34397 9.53275 4.34397
4.36091 9.56367 4.36091
4.37833 9.59380 4.37833
4.39622 9.62318 4.39622
4.41456 9.65183 4.41456
4.43337 9.67974 4.43337
4.45263 9.70692 4.45263
4.47236 9.73336 4.47236
4.49257 9.75901 4.49257
4.51330 9.78378 4.51330
4.53460 9.80755 4.53460
4.55658 9.83010 4.55658
4.57940 9.85104 4.57940
4.60332 9.86978 4.60332
4.62881 9.88523 4.62881
4.65667 9.89563 4.65667
7.77106 7.39959 4.02003
7.88687 7.35607 4.01771
7.99527 7.32005 4.01578
8.09820 7.28961 4.01415
8.19690 7.26351 4.01274
8.29231 7.24084 4.01151
8.38503 7.22098 4.01043
8.47557 7.20344 4.00947
8.56428 7.18788 4.00862
8.65144 7.17399 4.00786
8.73730 7.16155 4.00718
8.82207 7.15035 4.00656
8.90584 7.14027 4.00600
8.98881 7.13115 4.00550
9.07105 7.12290 4.00504
9.15269 7.11539 4.00462
9.23377 7.10857 4.00424
9.31440 7.10235 4.00389
9.39462 7.09667 4.00357
9.47448 7.09149 4.00328
9.55403 7.08676 4.00302
9.63331 7.08243 4.00277
9.71236 7.07847 4.00255
9.79121 7.07483 4.00235
9.86990 7.07150 4.00216
9.94844 7.06844 4.00198
10.02686 7.06563 4.00183
10.10517 7.06306 4.00168
10.18341 7.06069 4.00155
10.26158 7.05851 4.00142
10.33970 7.05651 4.00131
10.41779 7.05467 4.00121
10.49584 7.05298 4.00111
10.57388 7.05143 4.00102
10.65192 7.05000 4.00094
10.72997 7.04868 4.00087
10.80802 7.04747 4.00080
10.88610 7.04635 4.00073
10.96420 7.04533 4.00068
11.04233 7.04438 4.00062
11.12051 7.04351 4.00057
11.19872 7.04271 4.00053
11.27699 7.04197 4.00048
11.35530 7.04129 4.00045
11.43367 7.04066 4.00041
11.51209 7.04009 4.00038
11.59057 7.03956 4.00035
11.66911 7.03908 4.00032
11.74773 7.03863 4.00029
11.82641 7.03821 4.00027
11.90515 7.03783 4.00025
11.98397 7.03748 4.00023
12.06286 7.03717 4.00021
12.14181 7.03686 4.00019
12.22087 7.03657 4.00018
12.29997 7.03634 4.00017
12.37917 7.03611 4.00015
12.45846 7.03590 4.00014
12.53783 7.03570 4.00013
12.61726 7.03552 4.00012
12.69678 7.03536 4.00011
12.77639 7.03521 4.00010
12.85580 7.03506 4.00009
12.93552 7.03493 4.00008
13.01533 7.03482 4.00008
13.09523 7.03471 4.00007
13.17510 7.03461 4.00006
13.25513 7.03452 4.00006
13.33525 7.03443 4.00006
13.41545 7.03435 4.00005
13.49567 7.03430 4.00004
13.57604 7.03422 4.00004
13.65647 7.03416 4.00004
13.73699 7.03410 4.00004
13.81759 7.03405 4.00003
13.89826 7.03400 4.00003
13.97901 7.03396 4.00003
14.05983 7.03392 4.00003
14.14022 7.03388 4.00002
14.22114 7.03385 4.00002
14.30214 7.03382 4.00002
14.38322 7.03379 4.00002
14.46437 7.03377 4.00002
14.54560 7.03374 4.00002
14.62690 7.03372 4.00001
14.70827 7.03370 4.00001
14.78971 7.03368 4.00001
14.87122 7.03367 4.00001
14.95280 7.03365 4.00001
15.03444 7.03364 4.00001
15.11615 7.03362 4.00001
15.19792 7.03361 4.00001
15.27976 7.03360 4.00001
15.36165 7.03359 4.00001
15.44361 7.03358 4.00001
15.52563 7.03357 4.00001
15.60771 7.03356 4.00001
15.68985 7.03356 4.00001
15.77205 7.03355 4.00000
15.85430 7.03354 4.00000
15.93661 7.03354 4.00000
16.01898 7.03353 4.00000
16.10141 7.03353 4.00000
16.18389 7.03353 4.00000
16.26642 7.03352 4.00000
16.34901 7.03352 4.00000
16.43165 7.03351 4.00000
16.51435 7.03351 4.00000
16.59710 7.03351 4.00000
16.67993 7.03351 4.00000
16.76282 7.03350 4.00000
16.84576 7.03350 4.00000
16.92875 7.03350 4.00000
17.01180 7.03350 4.00000
17.09489 7.03350 4.00000
17.17804 7.03350 4.00000
17.26123 7.03349 4.00000
17.34448 7.03349 4.00000
17.42777 7.03349 4.00000
17.51112 7.03349 4.00000
17.59451 7.03349 4.00000
17.67795 7.03348 4.00000
17.76143 7.03349 4.00000
17.84497 7.03348 4.00000
17.92854 7.03349 4.00000
18.01217 7.03348 4.00000
18.09583 7.03349 4.00000
18.17955 7.03348 4.00000
18.26330 7.03348 4.00000
18.34710 7.03348 4.00000
18.43093 7.03348 4.00000
18.51482 7.03348 4.00000
18.59875 7.03348 4.00000
18.68271 7.03348 4.00000
18.76672 7.03348 4.00000
18.85076 7.03348 4.00000
18.93485 7.03348 4.00000
19.01898 7.03348 4.00000
19.10314 7.03348 4.00000
19.18735 7.03348 4.00000
19.27159 7.03348 4.00000
19.35587 7.03348 4.00000
19.44020 7.03348 4.00000
19.52456 7.03348 4.00000
19.60895 7.03348 4.00000
19.69338 7.03348 4.00000
19.77785 7.03348 4.00000
19.86236 7.03348 4.00000
19.94690 7.03348 4.00000
20.03147 7.03348 4.00000
20.11608 7.03348 4.00000
20.20073 7.03348 4.00000
20.28541 7.03348 4.00000
20.37013 7.03348 4.00000
20.45487 7.03348 4.00000
20.53966 7.03348 4.00000
20.62447 7.03348 4.00000
20.70932 7.03348 4.00000
20.79420 7.03348 4.00000
20.87911 7.03348 4.00000
20.96406 7.03348 4.00000
21.04903 7.03348 4.00000
21.13404 7.03348 4.00000
21.21908 7.03348 4.00000
21.30415 7.03348 4.00000
21.38925 7.03348 4.00000
21.47439 7.03348 4.00000
21.55955 7.03348 4.00000
21.64474 7.03348 4.00000
21.72996 7.03348 4.00000
21.81521 7.03348 4.00000
21.90049 7.03348 4.00000
21.98580 7.03348 4.00000
22.07114 7.03348 4.00000
22.15650 7.03348 4.00000
22.24190 7.03348 4.00000
22.32732 7.03348 4.00000
22.41277 7.03348 4.00000
22.49824 7.03348 4.00000
22.58375 7.03348 4.00000
22.66928 7.03348 4.00000
22.75484 7.03348 4.00000
22.84042 7.03348 4.00000
22.92604 7.03348 4.00000
23.01167 7.03348 4.00000
23.09734 7.03348 4.00000
23.18303 7.03348 4.00000
23.26874 7.03348 4.00000
23.35448 7.03348 4.00000
23.44025 7.03348 4.00000
23.52604 7.03348 4.00000
23.61186 7.03348 4.00000
23.69770 7.03348 4.00000
23.78356 7.03348 4.00000
23.86945 7.03348 4.00000
23.95537 7.03348 4.00000
24.04131 7.03348 4.00000
24.12727 7.03348 4.00000
24.21326 7.03348 4.00000
24.29927 7.03348 4.00000
24.38530 7.03348 4.00000
24.47135 7.03348 4.00000
24.55744 7.03348 4.00000
24.64354 7.03348 4.00000
24.72967 7.03349 4.00000
24.81582 7.03348 4.00000
24.90199 7.03348 4.00000
24.98819 7.03347 4.00000
25.07440 7.03348 4.00000
25.16064 7.03348 4.00000
25.24690 7.03348 4.00000
25.33318 7.03348 4.00000
25.41948 7.03348 4.00000
25.50581 7.03347 4.00000
25.59216 7.03348 4.00000
25.67854 7.03348 4.00000
25.76494 7.03348 4.00000
25.85135 7.03348 4.00000
25.93778 7.03348 4.00000
26.02422 7.03348 4.00000
26.11069 7.03348 4.00000
26.19718 7.03348 4.00000
26.28369 7.03348 4.00000
26.37022 7.03348 4.00000
26.45677 7.03348 4.00000
26.54335 7.03348 4.00000
26.62994 7.03348 4.00000
26.71655 7.03348 4.00000
26.80318 7.03348 4.00000
26.88984 7.03348 4.00000
26.97652 7.03348 4.00000
27.06322 7.03348 4.00000
27.14993 7.03348 4.00000
27.23667 7.03348 4.00000
27.32344 7.03348 4.00000
27.41022 7.03348 4.00000
27.49702 7.03348 4.00000
27.58384 7.03348 4.00000
27.67068 7.03348 4.00000
27.75754 7.03348 4.00000
27.84441 7.03348 4.00000
27.93131 7.03348 4.00000
28.01823 7.03348 4.00000
28.10517 7.03348 4.00000
28.19212 7.03348 4.00000
28.27910 7.03348 4.00000
28.36609 7.03348 4.00000
28.45311 7.03348 4.00000
28.54014 7.03348 4.00000
28.62719 7.03348 4.00000
28.71426 7.03348 4.00000
28.80136 7.03348 4.00000
28.88847 7.03348 4.00000
28.97560 7.03348 4.00000
29.06274 7.03348 4.00000
29.14991 7.03348 4.00000
29.23710 7.03348 4.00000
29.32431 7.03348 4.00000
29.41153 7.03348 4.00000
29.49878 7.03348 4.00000
29.58604 7.03348 4.00000
29.67333 7.03348 4.00000
29.76063 7.03348 4.00000
29.84796 7.03348 4.00000
29.93530 7.03348 4.00000
30.02267 7.03348 4.00000
30.11005 7.03348 4.00000

Angle 0.299928 2.106638

4.00000 7.03348 4.00000
4.00000 7.03348 4.00000
4.00000 7.03348 4.00000
4.00000 7.03348 4.00000
4.00000 7.03348 4.00000
4.00000 7.03347 4.00000
4.00000 7.03348 4.00000
4.00000 7.03346 4.00000
4.00000 7.03347 4.00000
4.00000 7.03348 4.00000
4.00000 7.03348 4.00000
4.00000 7.03348 4.00000
4.00000 7.03348 4.00000
4.00000 7.03348 4.00000
4.00000 7.03348 4.00000
4.00000 7.03348 4.00000
4.00000 7.03348 4.00000
4.00000 7.03348 4.00000
4.00000 7.03348 4.00000
4.00000 7.03348 4.00000
4.00000 7.03349 4.00000
4.00000 7.03348 4.00000
4.00000 7.03348 4.00000
4.00000 7.03348 4.00000
4.00000 7.03348 4.00000
4.00000 7.03348 4.00000
4.00000 7.03348 4.00000
4.00000 7.03348 4.00000
4.00000 7.03346 4.00000
4.00000 7.03348 4.00000
4.00000 7.03348 4.00000
4.00000 7.03348 4.00000
4.00000 7.03352 4.00000
4.00000 7.03351 4.00000
4.00000 7.03352 4.00000
4.00000 7.03348 4.00000
4.00000 7.03348 4.00000
4.00000 7.03347 4.00000
4.00000 7.03348 4.00000
4.00000 7.03348 4.00000
4.00000 7.03349 4.00000
4.00000 7.03348 4.00000
4.00000 7.03348 4.00000
4.00000 7.03348 4.00000
4.00000 7.03350 4.00000
4.00000 7.03348 4.00000
4.00000 7.03348 4.00000
4.00000 7.03348 4.00000
4.00000 7.03348 4.00000
4.00000 7.03348 4.00000
4.00000 7.03348 4.00000
4.00000 7.03348 4.00000
4.00000 7.03348 4.00000
4.00000 7.03348 4.00000
4.00000 7.03348 4.00000
4.00000 7.03349 4.00000
4.00000 7.03348 4.00000
4.00000 7.03349 4.00000
4.00000 7.03349 4.00000
4.00000 7.03348 4.00000
4.00000 7.03348 4.00000
4.00000 7.03348 4.00000
4.00000 7.03348 4.00000
4.00000 7.03348 4.00000
4.00000 7.03348 4.00000
4.00000 7.03348 4.00000
4.00000 7.03348 4.00000
4.00000 7.03348 4.00000
4.00000 7.03346 4.00000
4.00000 7.03347 4.00000
4.00000 7.03349 4.00000
4.00000 7.03348 4.00000
4.00000 7.03348 4.00000
4.00000 7.03348 4.00000
4.00000 7.03348 4.00000
4.00000 7.03348 4.00000
4.00000 7.03348 4.00000
4.00000 7.03348 4.00000
4.00000 7.03348 4.00000
4.00000 7.03348 4.00000
4.00000 7.03348 4.00000
4.00000 7.03348 4.00000
4.00000 7.03348 4.00000
4.00000 7.03348 4.00000
4.00000 7.03348 4.00000
4.00000 7.03349 4.00000
4.00000 7.03349 4.00000
4.00000 7.03348 4.00000
4.00000 7.03348 4.00000
4.00000 7.03348 4.00000
4.00000 7.03348 4.00000
4.00000 7.03348 4.00000
4.00000 7.03348 4.00000
4.00000 7.03348 4.00000
4.00000 7.03348 4.00000
4.00000 7.03348 4.00000
4.00000 7.03348 4.00000
4.00000 7.03346 4.00000
4.00000 7.03348 4.00000
4.00000 7.03348 4.00000
4.00000 7.03348 4.00000
4.00000 7.03348 4.00000
4.00000 7.03348 4.00000
4.00000 7.03348 4.00000
4.00000 7.03348 4.00000
4.00000 7.03348 4.00000
4.00000 7.03347 4.00000
4.00000 7.03347 4.00000
4.00000 7.03349 4.00000
4.00000 7.03348 4.00000
4.00000 7.03353 4.00000
4.00014 7.03601 4.00014
4.00235 7.07493 4.00235
4.00456 7.11432 4.00456
4.00677 7.15416 4.00677
4.00898 7.19444 4.00898
4.01120 7.23516 4.01120
4.01343 7.27631 4.01343
4.01566 7.31787 4.01566
4.01791 7.35983 4.01791
4.02017 7.40220 4.02017
4.02244 7.44494 4.02244
4.02474 7.48806 4.02473
4.02705 7.53155 4.02705
4.02938 7.57538 4.02938
4.03175 7.61954 4.03175
4.03414 7.66403 4.03414
4.03657 7.70883 4.03657
4.03903 7.75392 4.03903
4.04154 7.79929 4.04154
4.04409 7.84492 4.04409
4.04670 7.89078 4.04670
4.04936 7.93687 4.04936
4.05209 7.98316 4.05209
4.05489 8.02962 4.05489
4.05778 8.07624 4.05778
4.06075 8.12298 4.06075
4.06382 8.16981 4.06382
4.06700 8.21671 4.06700
4.07030 8.26363 4.07030
4.07374 8.31052 4.07374
4.07733 8.35737 4.07734
4.08110 8.40408 4.08110
4.08506 8.45064 4.08506
4.08924 8.49695 4.08924
4.09365 8.54296 4.09366
4.09835 8.58858 4.09835
4.10335 8.63371 4.10335
4.10870 8.67827 4.10870
4.11438 8.72231 4.11438
4.12037 8.76586 4.12037
4.12669 8.80888 4.12669
4.13336 8.85134 4.13336
4.14040 8.89321 4.14040
4.14781 8.93444 4.14781
4.15561 8.97503 4.15561
4.16381 9.01493 4.16381
4.17243 9.05412 4.17243
4.18147 9.09259 4.18147
4.19095 9.13032 4.19095
4.20087 9.16730 4.20087
4.21123 9.20352 4.21123
4.22205 9.23897 4.22205
4.23333 9.27366 4.23333
4.24506 9.30759 4.24506
4.25724 9.34077 4.25724
4.26988 9.37321 4.26988
4.28298 9.40492 4.28298
4.29652 9.43592 4.29652
4.31050 9.46623 4.31050
4.32493 9.49585 4.32493
4.33978 9.52483 4.33978
4.35505 9.55316 4.35505
4.37075 9.58088 4.37075
4.38685 9.60799 4.38685
4.40336 9.63451 4.40336
4.42028 9.66046 4.42028
4.43759 9.68582 4.43759
4.45531 9.71061 4.45531
4.47345 9.73478 4.47345
4.49201 9.75832 4.49201
4.51103 9.78115 4.51103
4.53055 9.80317 4.53055
4.55064 9.82422 4.55064
4.57142 9.84404 4.57142
4.59306 9.86220 4.59306
4.61587 9.87803 4.61588
4.64035 9.89042 4.64034
4.66726 9.89759 4.66727
7.80427 7.38654 4.01933
7.90977 7.34810 4.01728
8.00939 7.31568 4.01555
8.10457 7.28785 4.01405
8.19627 7.26367 4.01275
8.28517 7.24245 4.01160
8.37180 7.22369 4.01058
8.45653 7.20698 4.00967
8.53968 7.19204 4.00885
8.62150 7.17861 4.00811
8.70217 7.16650 4.00745
8.78186 7.15555 4.00685
8.86072 7.14560 4.00630
8.93887 7.13654 4.00579
9.01638 7.12830 4.00534
9.09335 7.12077 4.00492
9.16985 7.11389 4.00453
9.24594 7.10758 4.00418
9.32167 7.10181 4.00386
9.39710 7.09650 4.00356
9.47227 7.09163 4.00329
9.54721 7.08715 4.00304
9.62196 7.08302 4.00281
9.69654 7.07923 4.00259
9.77101 7.07573 4.00240
9.84535 7.07250 4.00221
9.91959 7.06954 4.00205
9.99378 7.06679 4.00189
10.06790 7.06426 4.00175
10.14200 7.06191 4.00162
10.21606 7.05975 4.00149
10.29010 7.05777 4.00138
10.36416 7.05592 4.00128
10.43822 7.05422 4.00118
10.51230 7.05265 4.00109
10.58642 7.05119 4.00101
10.66057 7.04985 4.00093
10.73476 7.04860 4.00086
10.80900 7.04745 4.00080
10.88329 7.04639 4.00074
10.95764 7.04542 4.00068
11.03207 7.04450 4.00063
11.10656 7.04366 4.00058
11.18116 7.04286 4.00053
11.25577 7.04217 4.00050
11.33052 7.04148 4.00046
11.40529 7.04089 4.00042
11.48020 7.04030 4.00039
11.55514 7.03980 4.00036
11.63023 7.03929 4.00033
11.70536 7.03886 4.00031
11.78062 7.03843 4.00028
11.85593 7.03807 4.00026
11.93138 7.03770 4.00024
12.00688 7.03739 4.00022
12.08251 7.03708 4.00021
12.15822 7.03681 4.00019
12.23404 7.03655 4.00018
12.30996 7.03631 4.00016
12.38598 7.03609 4.00015
12.46206 7.03588 4.00014
12.53826 7.03570 4.00013
12.61457 7.03553 4.00012
12.69099 7.03537 4.00011
12.76750 7.03522 4.00010
12.84408 7.03508 4.00009
12.92080 7.03496 4.00009
12.99751 7.03484 4.00008
13.07440 7.03474 4.00007
13.15138 7.03464 4.00007
13.22848 7.03455 4.00006
13.30566 7.03446 4.00006
13.38295 7.03438 4.00005
13.46037 7.03431 4.00005
13.53771 7.03424 4.00004
13.61526 7.03419 4.00004
13.69292 7.03413 4.00004
13.77070 7.03408 4.00004
13.84859 7.03403 4.00003
13.92659 7.03399 4.00003
14.00433 7.03395 4.00003
14.08246 7.03391 4.00003
14.16056 7.03387 4.00002
14.23887 7.03384 4.00002
14.31723 7.03381 4.00002
14.39572 7.03379 4.00002
14.47424 7.03376 4.00002
14.55291 7.03374 4.00002
14.63161 7.03372 4.00001
14.71046 7.03371 4.00001
14.78911 7.03368 4.00001
14.86809 7.03366 4.00001
14.94715 7.03367 4.00001
15.02634 7.03364 4.00001
15.10560 7.03363 4.00001
15.18498 7.03361 4.00001
15.26415 7.03359 4.00001
15.34364 7.03359 4.00001
15.42323 7.03359 4.00001
15.50292 7.03358 4.00001
15.58264 7.03360 4.00001
15.66253 7.03356 4.00000
15.74246 7.03356 4.00001
15.82246 7.03354 4.00000
15.90251 7.03354 4.00000
15.98264 7.03353 4.00000
16.06285 7.03353 4.00000
16.14313 7.03353 4.00000
16.22349 7.03352 4.00000
16.30393 7.03351 4.00000
16.38443 7.03351 4.00000
16.46500 7.03351 4.00000
16.54564 7.03351 4.00000
16.62635 7.03351 4.00000
16.70714 7.03351 4.00000
16.78799 7.03351 4.00000
16.86892 7.03350 4.00000
16.94990 7.03350 4.00000
17.03095 7.03350 4.00000
17.11206 7.03350 4.00000
17.19324 7.03349 4.00000
17.27448 7.03349 4.00000
17.35578 7.03349 4.00000
17.43714 7.03349 4.00000
17.51857 7.03349 4.00000
17.60005 7.03349 4.00000
17.68160 7.03349 4.00000
17.76320 7.03349 4.00000
17.84486 7.03349 4.00000
17.92658 7.03349 4.00000
18.00834 7.03349 4.00000
18.09016 7.03349 4.00000
18.17204 7.03349 4.00000
18.25397 7.03348 4.00000
18.33595 7.03348 4.00000
18.41799 7.03348 4.00000
18.50007 7.03348 4.00000
18.58222 7.03348 4.00000
18.66441 7.03348 4.00000
18.74666 7.03348 4.00000
18.82896 7.03348 4.00000
18.91130 7.03348 4.00000
18.99369 7.03348 4.00000
19.07614 7.03348 4.00000
19.15864 7.03348 4.00000
19.24117 7.03348 4.00000
19.32375 7.03348 4.00000
19.40639 7.03348 4.00000
19.48908 7.03348 4.00000
19.57180 7.03348 4.00000
19.65458 7.03348 4.00000
19.73740 7.03348 4.00000
19.82026 7.03348 4.00000
19.90317 7.03348 4.00000
19.98612 7.03348 4.00000
20.06912 7.03348 4.00000
20.15215 7.03348 4.00000
20.23523 7.03348 4.00000
20.31835 7.03348 4.00000
20.40151 7.03348 4.00000
20.48471 7.03348 4.00000
20.56796 7.03348 4.00000
20.65124 7.03348 4.00000
20.73456 7.03348 4.00000
20.81792 7.03348 4.00000
20.90132 7.03348 4.00000
20.98476 7.03348 4.00000
21.06824 7.03348 4.00000
21.15175 7.03348 4.00000
21.23531 7.03348 4.00000
21.31890 7.03348 4.00000
21.40252 7.03348 4.00000
21.48619 7.03348 4.00000
21.56988 7.03348 4.00000
21.65362 7.03348 4.00000
21.73739 7.03348 4.00000
21.82119 7.03348 4.00000
21.90503 7.03348 4.00000
21.98890 7.03348 4.00000
22.07281 7.03348 4.00000
22.15675 7.03348 4.00000
22.24073 7.03348 4.00000
22.32474 7.03348 4.00000
22.40878 7.03348 4.00000
22.49285 7.03348 4.00000
22.57696 7.03348 4.00000
22.66109 7.03348 4.00000
22.74526 7.03348 4.00000
22.82946 7.03348 4.00000
22.91368 7.03348 4.00000
22.99794 7.03348 4.00000
23.08223 7.03348 4.00000
23.16656 7.03348 4.00000
23.25091 7.03347 4.00000
23.33529 7.03348 4.00000
23.41969 7.03348 4.00000
23.50413 7.03348 4.00000
23.58860 7.03348 4.00000
23.67310 7.03348 4.00000
23.75761 7.03348 4.00000
23.84217 7.03348 4.00000
23.92675 7.03348 4.00000
24.01136 7.03348 4.00000
24.09600 7.03348 4.00000
24.18066 7.03348 4.00000
24.26536 7.03348 4.00000
24.35007 7.03348 4.00000
24.43482 7.03348 4.00000
24.51959 7.03348 4.00000
24.60438 7.03348 4.00000
24.68919 7.03348 4.00000

Angle 0.098046 2.184939

4.00000 7.03348 4.00000
4.00000 7.03348 4.00000
4.00000 7.03348 4.00000
4.00000 7.03348 4.00000
4.00000 7.03348 4.00000
4.00000 7.03348 4.00000
4.00000 7.03348 4.00000
4.00000 7.03348 4.00000
4.00000 7.03348 4.00000
4.00000 7.03348 4.00000
4.00000 7.03348 4.00000
4.00000 7.03348 4.00000
4.00000 7.03348 4.00000
4.00000 7.03348 4.00000
4.00000 7.03348 4.00000
4.00000 7.03348 4.00000
4.00000 7.03348 4.00000
4.00000 7.03348 4.00000
4.00000 7.03348 4.00000
4.00000 7.03348 4.00000
4.00000 7.03348 4.00000
4.00000 7.03348 4.00000
4.00000 7.03348 4.00000
4.00000 7.03348 4.00000
4.00000 7.03348 4.00000
4.00000 7.03348 4.00000
4.00000 7.03348 4.00000
4.00000 7.03348 4.00000
4.00000 7.03348 4.00000
4.00000 7.03347 4.00000
4.00000 7.03347 4.00000
4.00000 7.03347 4.00000
4.00000 7.03348 4.00000
4.00000 7.03348 4.00000
4.00000 7.03348 4.00000
4.00000 7.03348 4.00000
4.00000 7.03348 4.00000
4.00000 7.03348 4.00000
4.00000 7.03348 4.00000
4.00000 7.03348 4.00000
4.00000 7.03348 4.00000
4.00000 7.03348 4.00000
4.00000 7.03348 4.00000
4.00000 7.03348 4.00000
4.00000 7.03348 4.00000
4.00000 7.03348 4.00000
4.00000 7.03348 4.00000
4.00000 7.03348 4.00000
4.00000 7.03348 4.00000
4.00000 7.03348 4.00000
4.00000 7.03348 4.00000
4.00000 7.03347 4.00000
4.00000 7.03347 4.00000
4.00000 7.03348 4.00000
4.00000 7.03348 4.00000
4.00000 7.03348 4.00000
4.00000 7.03348 4.00000
4.00000 7.03348 4.00000
4.00000 7.03349 4.00000
4.00000 7.03349 4.00000
4.00000 7.03349 4.00000
4.00000 7.03349 4.00000
4.00000 7.03348 4.00000
4.00000 7.03348 4.00000
4.00000 7.03348 4.00000
4.00000 7.03348 4.00000
4.00000 7.03348 4.00000
4.00000 7.03348 4.00000
4.00000 7.03348 4.00000
4.00000 7.03348 4.00000
4.00000 7.03348 4.00000
4.00000 7.03348 4.00000
4.00000 7.03348 4.00000
4.00000 7.03348 4.00000
4.00000 7.03348 4.00000
4.00000 7.03348 4.00000
4.00000 7.03348 4.00000
4.00000 7.03348 4.00000
4.00000 7.03348 4.00000
4.00000 7.03348 4.00000
4.00000 7.03348 4.00000
4.00000 7.03348 4.00000
4.00000 7.03348 4.00000
4.00000 7.03348 4.00000
4.00000 7.03348 4.00000
4.00000 7.03348 4.00000
4.00000 7.03348 4.00000
4.00000 7.03348 4.00000
4.00000 7.03348 4.00000
4.00000 7.03348 4.00000
4.00000 7.03348 4.00000
4.00000 7.03348 4.00000
4.00000 7.03348 4.00000
4.00000 7.03348 4.00000
4.00000 7.03348 4.00000
4.00000 7.03348 4.00000
4.00000 7.03348 4.00000
4.00000 7.03348 4.00000
4.00000 7.03348 4.00000
4.00000 7.03348 4.00000
4.00000 7.03348 4.00000
4.00000 7.03348 4.00000
4.00000 7.03348 4.00000
4.00000 7.03348 4.00000
4.00000 7.03348 4.00000
4.00000 7.03348 4.00000
4.00000 7.03348 4.00000
4.00000 7.03349 4.00000
4.00000 7.03348 4.00000
4.00000 7.03348 4.00000
4.00000 7.03347 4.00000
4.00000 7.03348 4.00000
4.00000 7.03348 4.00000
4.00000 7.03348 4.00000
4.00000 7.03348 4.00000
4.00274 7.08177 4.00274
4.00665 7.15209 4.00665
4.01052 7.22269 4.01052
4.01436 7.29354 4.01436
4.01816 7.36461 4.01816
4.02196 7.43586 4.02196
4.02575 7.50724 4.02575
4.02956 7.57872 4.02956
4.03340 7.65026 4.03340
4.03727 7.72182 4.03727
4.04121 7.79334 4.04121
4.04522 7.86479 4.04522
4.04932 7.93610 4.04932
4.05353 8.00722 4.05353
4.05789 8.07808 4.05789
4.06241 8.14860 4.06241
4.06714 8.21871 4.06714
4.07209 8.28830 4.07209
4.07733 8.35726 4.07733
4.08289 8.42546 4.08289
4.08885 8.49275 4.08885
4.09526 8.55893 4.09526
4.10222 8.62380 4.10222
4.10981 8.68712 4.10981
4.11801 8.74903 4.11801
4.12679 8.80954 4.12679
4.13620 8.86859 4.13620
4.14627 8.92612 4.14627
4.15702 8.98209 4.15702
4.16848 9.03646 4.16848
4.18066 9.08921 4.18065
4.19357 9.14032 4.19357
4.20723 9.18980 4.20723
4.22164 9.23766 4.22164
4.23680 9.28392 4.23679
4.25269 9.32862 4.25269
4.26932 9.37181 4.26932
4.28666 9.41354 4.28668
4.30471 9.45387 4.30471
4.32344 9.49286 4.32344
4.34282 9.53057 4.34282
4.36283 9.56707 4.36283
4.38347 9.60240 4.38347
4.40470 9.63661 4.40470
4.42652 9.66975 4.42652
4.44893 9.70181 4.44893
4.47192 9.73279 4.47192
4.49552 9.76263 4.49552
4.51979 9.79122 4.51979
4.54483 9.81831 4.54483
4.57081 9.84349 4.57081
4.59808 9.86600 4.59808
4.62725 9.88444 4.62725
4.65944 9.89625 4.65945
7.80026 7.38810 4.01942
7.93034 7.34111 4.01691
8.05155 7.30299 4.01486
8.16634 7.27129 4.01316
8.27628 7.24448 4.01171
8.38243 7.22151 4.01046
8.48553 7.20162 4.00938
8.58614 7.18427 4.00843
8.68471 7.16903 4.00759
8.78155 7.15558 4.00685
8.87692 7.14365 4.00619
8.97104 7.13304 4.00560
9.06410 7.12356 4.00507
9.15622 7.11507 4.00460
9.24754 7.10746 4.00418
9.33815 7.10061 4.00379
9.42815 7.09444 4.00345
9.51761 7.08888 4.00314
9.60662 7.08384 4.00285
9.69520 7.07929 4.00260
9.78341 7.07517 4.00237
9.87131 7.07144 4.00215
9.95891 7.06806 4.00196
10.04628 7.06498 4.00179
10.13343 7.06218 4.00163
10.22039 7.05964 4.00149
10.30717 7.05733 4.00136
10.39382 7.05522 4.00124
10.48033 7.05331 4.00113
10.56673 7.05157 4.00103
10.65304 7.04998 4.00094
10.73927 7.04853 4.00086
10.82543 7.04721 4.00078
10.91153 7.04601 4.00071
10.99758 7.04491 4.00065
11.08359 7.04391 4.00059
11.16957 7.04300 4.00054
11.25552 7.04217 4.00050
11.34145 7.04141 4.00045
11.42738 7.04072 4.00041
11.51329 7.04009 4.00038
11.59921 7.03951 4.00034
11.68512 7.03898 4.00031
11.77104 7.03850 4.00029
11.85697 7.03806 4.00026
11.94290 7.03766 4.00024
12.02886 7.03730 4.00022
12.11483 7.03696 4.00020
12.20081 7.03666 4.00018
12.28682 7.03638 4.00017
12.37285 7.03613 4.00015
12.45891 7.03589 4.00014
12.54499 7.03568 4.00013
12.63109 7.03549 4.00011
12.71723 7.03531 4.00011
12.80339 7.03515 4.00010
12.88960 7.03499 4.00009
12.97580 7.03487 4.00008
13.06205 7.03475 4.00007
13.14833 7.03464 4.00007
13.23464 7.03454 4.00006
13.32098 7.03444 4.00006
13.40736 7.03436 4.00005
13.49376 7.03428 4.00005
13.58020 7.03421 4.00005
13.66667 7.03415 4.00004
13.75316 7.03409 4.00003
13.83970 7.03404 4.00003
13.92626 7.03399 4.00003
14.01286 7.03394 4.00003
14.09948 7.03390 4.00002
14.18614 7.03386 4.00002
14.27283 7.03383 4.00002
14.35955 7.03380 4.00002
14.44630 7.03377 4.00002
14.53309 7.03375 4.00002
14.61991 7.03372 4.00001
14.70676 7.03370 4.00001
14.79364 7.03368 4.00001
14.88056 7.03366 4.00001
14.96751 7.03365 4.00001
15.05448 7.03363 4.00001
15.14149 7.03362 4.00001
15.22853 7.03361 4.00001
15.31559 7.03360 4.00001
15.40269 7.03359 4.00001
15.48981 7.03358 4.00000
15.57696 7.03357 4.00000
15.66414 7.03356 4.00000
15.75135 7.03355 4.00000
15.83858 7.03355 4.00000
15.92584 7.03354 4.00000
16.01313 7.03354 4.00000
16.10044 7.03353 4.00000
16.18777 7.03353 4.00000
16.27514 7.03352 4.00000
16.36252 7.03352 4.00000
16.44993 7.03351 4.00000
16.53737 7.03351 4.00000
16.62483 7.03351 4.00000
16.71231 7.03351 4.00000
16.79981 7.03350 4.00000
16.88734 7.03350 4.00000
16.97489 7.03350 4.00000
17.06246 7.03350 4.00000
17.15006 7.03350 4.00000
17.23767 7.03349 4.00000
17.32531 7.03349 4.00000
17.41297 7.03349 4.00000
17.50065 7.03349 4.00000
17.58834 7.03349 4.00000
17.67606 7.03348 4.00000
17.76380 7.03349 4.00000
17.85155 7.03348 4.00000
17.93933 7.03349 4.00000
18.02713 7.03348 4.00000
18.11494 7.03348 4.00000
18.20276 7.03349 4.00000
18.29062 7.03348 4.00000
18.37848 7.03348 4.00000
18.46637 7.03348 4.00000
18.55427 7.03348 4.00000
18.64220 7.03348 4.00000
18.73013 7.03348 4.00000
18.81810 7.03348 4.00000
18.90608 7.03348 4.00000
18.99407 7.03348 4.00000
19.08207 7.03348 4.00000
19.17010 7.03348 4.00000
19.25815 7.03348 4.00000
19.34621 7.03348 4.00000
19.43429 7.03348 4.00000
19.52239 7.03348 4.00000
19.61051 7.03348 4.00000
19.69864 7.03348 4.00000
19.78678 7.03348 4.00000
19.87494 7.03348 4.00000
19.96312 7.03348 4.00000
20.05131 7.03348 4.00000
20.13951 7.03348 4.00000
20.22774 7.03348 4.00000
20.31597 7.03348 4.00000
20.40424 7.03348 4.00000
20.49252 7.03348 4.00000
20.58081 7.03348 4.00000
20.66912 7.03348 4.00000
20.75744 7.03348 4.00000
20.84578 7.03348 4.00000
20.93412 7.03347 4.00000
21.02248 7.03348 4.00000
21.11086 7.03348 4.00000
21.19923 7.03348 4.00000
21.28764 7.03348 4.00000
21.37605 7.03348 4.00000
21.46448 7.03348 4.00000
21.55291 7.03348 4.00000
21.64136 7.03348 4.00000
21.72983 7.03348 4.00000
21.81831 7.03348 4.00000
21.90680 7.03348 4.00000
21.99530 7.03348 4.00000
22.08382 7.03348 4.00000
22.17235 7.03348 4.00000
22.26089 7.03348 4.00000
22.34945 7.03348 4.00000
22.43802 7.03348 4.00000
22.52660 7.03348 4.00000
22.61519 7.03348 4.00000
22.70380 7.03348 4.00000
22.79241 7.03348 4.00000
22.88104 7.03348 4.00000
22.96968 7.03348 4.00000
23.05834 7.03348 4.00000
23.14700 7.03348 4.00000
23.23568 7.03348 4.00000
23.32436 7.03348 4.00000
23.41306 7.03348 4.00000
23.50178 7.03347 4.00000
23.59050 7.03348 4.00000
23.67923 7.03348 4.00000
23.76796 7.03349 4.00000
23.85672 7.03348 4.00000
23.94549 7.03348 4.00000
24.03427 7.03348 4.00000
24.12305 7.03348 4.00000
24.21185 7.03347 4.00000
24.30065 7.03348 4.00000
24.38946 7.03349 4.00000
24.47829 7.03348 4.00000
24.56713 7.03348 4.00000
24.65598 7.03347 4.00000
24.74483 7.03348 4.00000
24.83370 7.03348 4.00000
24.92257 7.03348 4.00000
25.01146 7.03348 4.00000
25.10035 7.03348 4.00000
25.18925 7.03348 4.00000
25.27817 7.03348 4.00000
25.36709 7.03348 4.00000
25.45602 7.03348 4.00000
25.54496 7.03348 4.00000
25.63392 7.03348 4.00000
25.72287 7.03348 4.00000
25.81184 7.03348 4.00000
25.90081 7.03348 4.00000
25.98980 7.03348 4.00000
26.07879 7.03348 4.00000
26.16780 7.03348 4.00000
26.25681 7.03348 4.00000
26.34583 7.03348 4.00000
26.43485 7.03348 4.00000
26.52389 7.03348 4.00000
26.61293 7.03348 4.00000
26.70198 7.03348 4.00000
26.79104 7.03348 4.00000
26.88010 7.03348 4.00000
26.96918 7.03348 4.00000
27.05826 7.03348 4.00000
27.14735 7.03348 4.00000
27.23644 7.03348 4.00000
27.32555 7.03348 4.00000
27.41466 7.03348 4.00000
27.50378 7.03348 4.00000
27.59290 7.03348 4.00000
27.68204 7.03348 4.00000
27.77118 7.03348 4.00000
27.86033 7.03348 4.00000
27.94948 7.03348 4.00000
28.03864 7.03348 4.00000
28.12781 7.03348 4.00000
28.21699 7.03348 4.00000

Angle 0.097414 0.098067

4.00000 7.03348 4.00000
4.00000 7.03348 4.00000
4.00000 7.03348 4.00000
4.00000 7.03348 4.00000
4.00000 7.03347 4.00000
4.00000 7.03348 4.00000
4.00000 7.03348 4.00000
4.00000 7.03348 4.00000
4.00000 7.03348 4.00000
4.00000 7.03348 4.00000
4.00000 7.03349 4.00000
4.00000 7.03348 4.00000
4.00000 7.03348 4.00000
4.00000 7.03349 4.00000
4.00000 7.03348 4.00000
4.00000 7.03348 4.00000
4.00000 7.03348 4.00000
4.00000 7.03348 4.00000
4.00000 7.03348 4.00000
4.00000 7.03345 4.00000
4.00000 7.03348 4.00000
4.00000 7.03348 4.00000
4.00000 7.03348 4.00000
4.00000 7.03347 4.00000
4.00000 7.03348 4.00000
4.00000 7.03347 4.00000
4.00000 7.03348 4.00000
4.00000 7.03348 4.00000
4.00000 7.03348 4.00000
4.00000 7.03348 4.00000
4.00000 7.03348 4.00000
4.00000 7.03348 4.00000
4.00000 7.03348 4.00000
4.00000 7.03348 4.00000
4.00000 7.03348 4.00000
4.00000 7.03348 4.00000
4.00000 7.03348 4.00000
4.00000 7.03348 4.00000
4.00000 7.03348 4.00000
4.00000 7.03348 4.00000
4.00000 7.03348 4.00000
4.00000 7.03347 4.00000
4.00000 7.03348 4.00000
4.00000 7.03349 4.00000
4.00000 7.03348 4.00000
4.00000 7.03348 4.00000
4.00000 7.03348 4.00000
4.00000 7.03349 4.00000
4.00000 7.03348 4.00000
4.00000 7.03348 4.00000
4.00000 7.03348 4.00000
4.00000 7.03348 4.00000
4.00000 7.03348 4.00000
4.00000 7.03348 4.00000
4.00000 7.03348 4.00000
4.00000 7.03348 4.00000
4.00000 7.03348 4.00000
4.00000 7.03348 4.00000
4.00000 7.03348 4.00000
4.00000 7.03348 4.00000
4.00000 7.03348 4.00000
4.00000 7.03348 4.00000
4.00000 7.03348 4.00000
4.00000 7.03348 4.00000
4.00000 7.03348 4.00000
4.00000 7.03348 4.00000
4.00000 7.03348 4.00000
4.00000 7.03348 4.00000
4.00000 7.03348 4.00000
4.00000 7.03348 4.00000
4.00000 7.03348 4.00000
4.00000 7.03348 4.00000
4.00000 7.03347 4.00000
4.00000 7.03348 4.00000
4.00000 7.03347 4.00000
4.00000 7.03348 4.00000
4.00000 7.03348 4.00000
4.00000 7.03347 4.00000
4.00000 7.03348 4.00000
4.00000 7.03348 4.00000
4.00000 7.03348 4.00000
4.00000 7.03348 4.00000
4.00000 7.03345 4.00001
4.00000 7.03348 4.00000
4.00000 7.03348 4.00000
4.00000 7.03348 4.00000
4.00000 7.03347 4.00000
4.00000 7.03348 4.00000
4.00000 7.03348 4.00000
4.00000 7.03348 4.00000
4.00000 7.03348 4.00000
4.00000 7.03348 4.00000
4.00000 7.03348 4.00000
4.00000 7.03348 4.00000
4.00000 7.03348 4.00000
4.00000 7.03348 4.00000
4.00000 7.03348 4.00000
4.00000 7.03348 4.00000
4.00000 7.03348 4.00000
4.00000 7.03348 4.00000
4.00000 7.03348 4.00000
4.00000 7.03348 4.00000
4.00000 7.03348 4.00000
4.00000 7.03348 4.00000
4.00000 7.03348 4.00000
4.00000 7.03348 4.00000
4.00000 7.03348 4.00000
4.00000 7.03348 4.00000
4.00000 7.03347 4.00000
4.00000 7.03348 4.00000
4.00000 7.03348 4.00000
4.00000 7.03348 4.00000
4.00000 7.03348 4.00000
4.00000 7.03349 4.00000
4.00000 7.03348 4.00000
4.00000 7.03348 4.00000
4.00000 7.03348 4.00000
4.00000 7.03348 4.00000
4.00000 7.03348 4.00000
4.00000 7.03348 4.00000
4.00000 7.03348 4.00000
4.00000 7.03349 4.00000
4.00000 7.03349 4.00000
4.00000 7.03348 4.00000
4.00000 7.03348 4.00000
4.00000 7.03348 4.00000
4.00000 7.03348 4.00000
4.00000 7.03348 4.00000
4.00000 7.03353 4.00000
3.99999 7.03336 3.99999
4.00382 7.10114 4.00382
4.00803 7.17703 4.00803
4.01218 7.25316 4.01218
4.01629 7.32949 4.01629
4.02037 7.40596 4.02037
4.02444 7.48253 4.02444
4.02852 7.55915 4.02852
4.03262 7.63577 4.03262
4.03676 7.71235 4.03676
4.04096 7.78884 4.04096
4.04523 7.86516 4.04524
4.04962 7.94126 4.04962
4.05413 8.01707 4.05413
4.05880 8.09251 4.05880
4.06366 8.16749 4.06366
4.06875 8.24190 4.06876
4.07412 8.31563 4.07413
4.07983 8.38854 4.07983
4.08593 8.46045 4.08592
4.09250 8.53117 4.09250
4.09963 8.60047 4.09963
4.10744 8.66807 4.10744
4.11594 8.73396 4.11594
4.12509 8.79826 4.12509
4.13493 8.86089 4.13493
4.14548 8.92180 4.14548
4.15679 8.98094 4.15679
4.16888 9.03825 4.16887
4.18175 9.09373 4.18175
4.19544 9.14735 4.19544
4.20995 9.19914 4.20995
4.22527 9.24910 4.22527
4.24141 9.29728 4.24141
4.25836 9.34373 4.25836
4.27610 9.38850 4.27610
4.29461 9.43166 4.29461
4.31387 9.47328 4.31387
4.33385 9.51345 4.33386
4.35453 9.55223 4.35454
4.37589 9.58968 4.37590
4.39790 9.62588 4.39790
4.42055 9.66086 4.42055
4.44381 9.69466 4.44382
4.46771 9.72726 4.46772
4.49226 9.75863 4.49226
4.51751 9.78863 4.51751
4.54357 9.81701 4.54358
4.57065 9.84334 4.57065
4.59910 9.86675 4.59910
4.62963 9.88564 4.62964
4.66358 9.89704 4.66359
7.82192 7.37980 4.01897
7.95538 7.33282 4.01646
8.07981 7.29481 4.01442
8.19772 7.26331 4.01273
8.31071 7.23673 4.01129
8.41984 7.21403 4.01005
8.52589 7.19443 4.00898
8.62940 7.17738 4.00805
8.73084 7.16244 4.00723
8.83051 7.14930 4.00650
8.92869 7.13768 4.00586
9.02562 7.12736 4.00529
9.12145 7.11817 4.00477
9.21634 7.10997 4.00432
9.31039 7.10264 4.00391
9.40373 7.09606 4.00354
9.49645 7.09015 4.00321
9.58862 7.08482 4.00291
9.68030 7.08002 4.00264
9.77155 7.07570 4.00239
9.86242 7.07180 4.00217
9.95296 7.06827 4.00198
10.04320 7.06508 4.00180
10.13318 7.06219 4.00163
10.22294 7.05957 4.00148
10.31250 7.05719 4.00135
10.40186 7.05504 4.00123
10.49107 7.05308 4.00111
10.58014 7.05131 4.00101
10.66909 7.04970 4.00092
10.75793 7.04823 4.00084
10.84667 7.04690 4.00077
10.93532 7.04570 4.00070
11.02391 7.04460 4.00063
11.11243 7.04360 4.00058
11.20091 7.04269 4.00052
11.28932 7.04186 4.00048
11.37771 7.04111 4.00043
11.46606 7.04042 4.00040
11.55438 7.03980 4.00036
11.64269 7.03923 4.00033
11.73097 7.03872 4.00030
11.81924 7.03825 4.00027
11.90750 7.03782 4.00025
11.99576 7.03743 4.00023
12.08401 7.03708 4.00021
12.17227 7.03675 4.00019
12.26052 7.03646 4.00017
12.34877 7.03620 4.00015
12.43704 7.03595 4.00014
12.52531 7.03573 4.00013
12.61359 7.03553 4.00012
12.70187 7.03535 4.00011
12.79018 7.03518 4.00010
12.87849 7.03503 4.00009
12.96681 7.03489 4.00008
13.05515 7.03476 4.00007
13.14351 7.03465 4.00007
13.23188 7.03454 4.00006
13.32027 7.03445 4.00006
13.40867 7.03436 4.00005
13.49709 7.03428 4.00005
13.58552 7.03421 4.00004
13.67398 7.03414 4.00004
13.76245 7.03408 4.00003
13.85094 7.03403 4.00003
13.93944 7.03398 4.00003
14.02797 7.03393 4.00003
14.11651 7.03389 4.00002
14.20508 7.03385 4.00002
14.29365 7.03382 4.00002
14.38224 7.03379 4.00002
14.47085 7.03376 4.00002
14.55948 7.03374 4.00001
14.64813 7.03372 4.00001
14.73680 7.03369 4.00001
14.82548 7.03368 4.00001
14.91418 7.03366 4.00001
15.00290 7.03364 4.00001
15.09164 7.03363 4.00001
15.18039 7.03361 4.00001
15.26916 7.03360 4.00001
15.35794 7.03359 4.00001
15.44675 7.03358 4.00000
15.53556 7.03357 4.00000
15.62440 7.03356 4.00000
15.71325 7.03356 4.00000
15.80211 7.03355 4.00000
15.89099 7.03354 4.00000
15.97989 7.03354 4.00000
16.06880 7.03353 4.00000
16.15773 7.03353 4.00000
16.24667 7.03352 4.00000
16.33562 7.03352 4.00000
16.42459 7.03352 4.00000
16.51358 7.03351 4.00000
16.60258 7.03351 4.00000
16.69159 7.03351 4.00000
16.78061 7.03350 4.00000
16.86965 7.03350 4.00000
16.95870 7.03350 4.00000
17.04777 7.03350 4.00000
17.13685 7.03350 4.00000
17.22594 7.03349 4.00000
17.31504 7.03349 4.00000
17.40416 7.03349 4.00000
17.49329 7.03349 4.00000
17.58243 7.03349 4.00000
17.67158 7.03349 4.00000
17.76075 7.03349 4.00000
17.84992 7.03349 4.00000
17.93911 7.03349 4.00000
18.02831 7.03348 4.00000
18.11752 7.03349 4.00000
18.20675 7.03348 4.00000
18.29597 7.03348 4.00000
18.38522 7.03348 4.00000
18.47447 7.03348 4.00000
18.56373 7.03348 4.00000
18.65301 7.03348 4.00000
18.74229 7.03348 4.00000
18.83159 7.03348 4.00000
18.92090 7.03348 4.00000
19.01020 7.03349 4.00000
19.09954 7.03348 4.00000
19.18887 7.03348 4.00000
19.27823 7.03347 4.00000
19.36758 7.03347 4.00000
19.45695 7.03347 4.00000
19.54632 7.03348 4.00000
19.63571 7.03348 4.00000
19.72509 7.03348 4.00000
19.81450 7.03348 4.00000
19.90391 7.03348 4.00000
19.99334 7.03348 4.00000
20.08277 7.03348 4.00000
20.17221 7.03348 4.00000
20.26165 7.03348 4.00000
20.35111 7.03348 4.00000
20.44058 7.03348 4.00000
20.53005 7.03348 4.00000
20.61954 7.03348 4.00000
20.70903 7.03348 4.00000
20.79853 7.03348 4.00000
20.88803 7.03348 4.00000
20.97755 7.03348 4.00000
21.06706 7.03348 4.00000
21.15659 7.03348 4.00000
21.24613 7.03348 4.00000
21.33567 7.03348 4.00000
21.42522 7.03348 4.00000
21.51479 7.03348 4.00000
21.60435 7.03348 4.00000
21.69392 7.03348 4.00000
21.78351 7.03348 4.00000
21.87310 7.03348 4.00000
21.96270 7.03348 4.00000
22.05230 7.03348 4.00000
22.14192 7.03348 4.00000
22.23154 7.03348 4.00000
22.32116 7.03348 4.00000
22.41079 7.03348 4.00000
22.50043 7.03348 4.00000
22.59008 7.03348 4.00000
22.67973 7.03348 4.00000
22.76939 7.03348 4.00000
22.85906 7.03348 4.00000
22.94873 7.03348 4.00000
23.03840 7.03348 4.00000
23.12809 7.03348 4.00000
23.21778 7.03348 4.00000
23.30747 7.03348 4.00000
23.39717 7.03348 4.00000
23.48688 7.03348 4.00000
23.57659 7.03348 4.00000
23.66631 7.03348 4.00000
23.75603 7.03348 4.00000
23.84576 7.03347 4.00000
23.93549 7.03348 4.00000
24.02523 7.03348 4.00000
24.11496 7.03348 4.00000
24.20472 7.03347 4.00000
24.29447 7.03348 4.00000
24.38423 7.03348 4.00000
24.47400 7.03348 4.00000
24.56377 7.03348 4.00000
24.65354 7.03348 4.00000
24.74332 7.03347 4.00000
24.83311 7.03348 4.00000
24.92290 7.03348 4.00000
25.01269 7.03348 4.00000
25.10249 7.03348 4.00000
25.19230 7.03348 4.00000
25.28212 7.03348 4.00000
25.37194 7.03348 4.00000
25.46177 7.03348 4.00000
25.55160 7.03348 4.00000
25.64143 7.03348 4.00000
25.73127 7.03348 4.00000
25.82111 7.03348 4.00000
25.91096 7.03348 4.00000
26.00081 7.03348 4.00000
26.09067 7.03348 4.00000
26.18052 7.03348 4.00000
26.27039 7.03348 4.00000
26.36024 7.03348 4.00000
26.45011 7.03348 4.00000
26.53997 7.03348 4.00000
26.62985 7.03348 4.00000
26.71972 7.03348 4.00000
26.80960 7.03348 4.00000
26.89948 7.03348 4.00000
26.98936 7.03348 4.00000
27.07925 7.03348 4.00000
27.16914 7.03348 4.00000
27.25903 7.03348 4.00000
27.34893 7.03348 4.00000
27.43883 7.03348 4.00000
27.52873 7.03348 4.00000

Angle 0.201534 4.951336

4.00000 7.03348 4.00000
4.00000 7.03348 4.00000
4.00000 7.03348 4.00000
4.00000 7.03348 4.00000
4.00000 7.03348 4.00000
4.00000 7.03348 4.00000
4.00000 7.03348 4.00000
4.00000 7.03348 4.00000
4.00000 7.03348 4.00000
4.00000 7.03348 4.00000
4.00000 7.03348 4.00000
4.00000 7.03348 4.00000
4.00000 7.03348 4.00000
4.00000 7.03348 4.00000
4.00000 7.03348 4.00000
4.00000 7.03348 4.00000
4.00000 7.03348 4.00000
4.00000 7.03348 4.00000
4.00000 7.03348 4.00000
4.00000 7.03348 4.00000
4.00000 7.03348 4.00000
4.00000 7.03348 4.00000
4.00000 7.03348 4.00000
4.00000 7.03348 4.00000
4.00000 7.03348 4.00000
4.00000 7.03350 4.00000
4.00000 7.03350 4.00000
4.00000 7.03348 4.00000
4.00000 7.03348 4.00000
4.00000 7.03348 4.00000
4.00000 7.03348 4.00000
4.00000 7.03348 4.00000
4.00000 7.03348 4.00000
4.00000 7.03348 4.00000
4.00000 7.03348 4.00000
4.00000 7.03348 4.00000
4.00000 7.03348 4.00000
4.00000 7.03348 4.00000
4.00000 7.03348 4.00000
4.00000 7.03348 4.00000
4.00000 7.03348 4.00000
4.00000 7.03348 4.00000
4.00000 7.03348 4.00000
4.00000 7.03348 4.00000
4.00000 7.03348 4.00000
4.00000 7.03348 4.00000
4.00000 7.03348 4.00000
4.00000 7.03348 4.00000
4.00000 7.03348 4.00000
4.00000 7.03348 4.00000
4.00000 7.03348 4.00000
4.00000 7.03348 4.00000
4.00000 7.03348 4.00000
4.00000 7.03348 4.00000
4.00000 7.03348 4.00000
4.00000 7.03348 4.00000
4.00000 7.03348 4.00000
4.00000 7.03348 4.00000
4.00000 7.03348 4.00000
4.00000 7.03349 4.00000
4.00001 7.03360 4.00001
4.00244 7.07656 4.00244
4.00670 7.15292 4.00670
4.01090 7.22952 4.01090
4.01504 7.30633 4.01504
4.01916 7.38330 4.01916
4.02326 7.46037 4.02326
4.02736 7.53750 4.02736
4.03148 7.61464 4.03148
4.03564 7.69174 4.03564
4.03985 7.76875 4.03985
4.04413 7.84561 4.04413
4.04851 7.92226 4.04851
4.05302 7.99862 4.05302
4.05767 8.07462 4.05767
4.06252 8.15018 4.06252
4.06758 8.22518 4.06758
4.07292 8.29951 4.07292
4.07858 8.37304 4.07858
4.08462 8.44560 4.08462
4.09112 8.51699 4.09113
4.09818 8.58699 4.09818
4.10589 8.65532 4.10589
4.11432 8.72187 4.11432
4.12340 8.78682 4.12340
4.13316 8.85009 4.13316
4.14365 8.91163 4.14365
4.15489 8.97137 4.15489
4.16690 9.02929 4.16690
4.17972 9.08534 4.17972
4.19336 9.13952 4.19336
4.20782 9.19183 4.20782
4.22310 9.24231 4.22310
4.23921 9.29096 4.23922
4.25613 9.33786 4.25614
4.27386 9.38305 4.27387
4.29237 9.42660 4.29237
4.31163 9.46860 4.31164
4.33163 9.50912 4.33163
4.35234 9.54822 4.35234
4.37372 9.58598 4.37372
4.39577 9.62246 4.39577
4.41845 9.65771 4.41845
4.44177 9.69177 4.44177
4.46572 9.72461 4.46572
4.49031 9.75622 4.49032
4.51561 9.78645 4.51562
4.54172 9.81509 4.54173
4.56883 9.84169 4.56883
4.59730 9.86541 4.59729
4.62781 9.88472 4.62781
4.66165 9.89669 4.66165
4.70113 9.89642 4.70091
7.94954 7.33473 4.01657
8.07479 7.29624 4.01450
8.19339 7.26440 4.01279
8.30697 7.23756 4.01133
8.41662 7.21466 4.01009
8.52315 7.19490 4.00901
8.62711 7.17773 4.00807
8.72897 7.16270 4.00724
8.82903 7.14949 4.00651
8.92760 7.13780 4.00586
9.02484 7.12746 4.00529
9.12102 7.11824 4.00478
9.21624 7.11000 4.00432
9.31067 7.10261 4.00391
9.40431 7.09602 4.00354
9.49734 7.09009 4.00320
9.58982 7.08476 4.00290
9.68180 7.07996 4.00263
9.77335 7.07562 4.00239
9.86452 7.07171 4.00217
9.95535 7.06818 4.00197
10.04588 7.06498 4.00179
10.13614 7.06209 4.00163
10.22617 7.05948 4.00148
10.31600 7.05710 4.00134
10.40564 7.05495 4.00122
10.49512 7.05300 4.00111
10.58446 7.05122 4.00101
10.67367 7.04962 4.00092
10.76277 7.04816 4.00084
10.85177 7.04683 4.00076
10.94069 7.04563 4.00069
11.02953 7.04453 4.00063
11.11831 7.04353 4.00057
11.20703 7.04263 4.00052
11.29570 7.04181 4.00048
11.38433 7.04106 4.00043
11.47293 7.04037 4.00039
11.56150 7.03975 4.00036
11.65005 7.03919 4.00033
11.73857 7.03868 4.00030
11.82708 7.03821 4.00027
11.91558 7.03778 4.00025
12.00407 7.03740 4.00022
12.09256 7.03705 4.00020
12.18104 7.03673 4.00019
12.26953 7.03643 4.00017
12.35801 7.03617 4.00015
12.44650 7.03593 4.00014
12.53500 7.03571 4.00013
12.62350 7.03551 4.00012
12.71201 7.03532 4.00011
12.80053 7.03516 4.00010
12.88907 7.03501 4.00009
12.97761 7.03487 4.00008
13.06617 7.03475 4.00007
13.15474 7.03463 4.00006
13.24332 7.03453 4.00006
13.33192 7.03443 4.00006
13.42053 7.03435 4.00005
13.50915 7.03428 4.00005
13.59780 7.03420 4.00004
13.68646 7.03413 4.00004
13.77514 7.03408 4.00003
13.86383 7.03402 4.00003
13.95253 7.03397 4.00003
14.04126 7.03393 4.00002
14.13000 7.03389 4.00002
14.21876 7.03385 4.00002
14.30753 7.03382 4.00002
14.39632 7.03379 4.00002
14.48512 7.03376 4.00001
14.57395 7.03373 4.00001
14.66279 7.03371 4.00001
14.75164 7.03369 4.00001
14.84051 7.03367 4.00001
14.92940 7.03365 4.00001
15.01830 7.03364 4.00001
15.10722 7.03362 4.00001
15.19615 7.03361 4.00001
15.28510 7.03360 4.00001
15.37407 7.03359 4.00001
15.46305 7.03358 4.00001
15.55204 7.03357 4.00000
15.64105 7.03356 4.00000
15.73007 7.03355 4.00000
15.81911 7.03355 4.00000
15.90817 7.03354 4.00000
15.99723 7.03354 4.00000
16.08631 7.03353 4.00000
16.17541 7.03353 4.00000
16.26452 7.03352 4.00000
16.35364 7.03352 4.00000
16.44277 7.03351 4.00000
16.53192 7.03351 4.00000
16.62108 7.03351 4.00000
16.71026 7.03351 4.00000
16.79944 7.03350 4.00000
16.88864 7.03350 4.00000
16.97785 7.03350 4.00000
17.06708 7.03350 4.00000
17.15631 7.03350 4.00000
17.24556 7.03349 4.00000
17.33482 7.03349 4.00000
17.42409 7.03349 4.00000
17.51338 7.03349 4.00000
17.60266 7.03349 4.00000
17.69197 7.03348 4.00000
17.78128 7.03349 4.00000
17.87062 7.03348 4.00000
17.95995 7.03348 4.00000
18.04930 7.03348 4.00000
18.13866 7.03348 4.00000
18.22802 7.03348 4.00000
18.31741 7.03348 4.00000
18.40679 7.03348 4.00000
18.49620 7.03348 4.00000
18.58560 7.03348 4.00000
18.67502 7.03348 4.00000
18.76446 7.03348 4.00000
18.85389 7.03349 4.00000
18.94335 7.03348 4.00000
19.03281 7.03348 4.00000
19.12228 7.03348 4.00000
19.21175 7.03348 4.00000
19.30123 7.03348 4.00000
19.39073 7.03349 4.00000
19.48023 7.03348 4.00000
19.56975 7.03348 4.00000
19.65927 7.03348 4.00000
19.74880 7.03348 4.00000
19.83834 7.03348 4.00000
19.92789 7.03348 4.00000
20.01745 7.03348 4.00000
20.10701 7.03348 4.00000
20.19658 7.03348 4.00000
20.28615 7.03348 4.00000
20.37574 7.03348 4.00000
20.46533 7.03348 4.00000
20.55492 7.03348 4.00000
20.64453 7.03348 4.00000
20.73414 7.03348 4.00000
20.82376 7.03348 4.00000
20.91338 7.03348 4.00000
21.00303 7.03348 4.00000
21.09267 7.03348 4.00000
21.18232 7.03348 4.00000
21.27198 7.03348 4.00000
21.36165 7.03348 4.00000
21.45133 7.03348 4.00000
21.54101 7.03348 4.00000
21.63070 7.03348 4.00000
21.72040 7.03348 4.00000
21.81010 7.03348 4.00000
21.89981 7.03348 4.00000
21.98952 7.03348 4.00000
22.07924 7.03348 4.00000
22.16897 7.03348 4.00000
22.25870 7.03348 4.00000
22.34844 7.03348 4.00000
22.43818 7.03348 4.00000
22.52793 7.03348 4.00000
22.61769 7.03348 4.00000
22.70745 7.03348 4.00000
22.79722 7.03348 4.00000
22.88699 7.03348 4.00000
22.97677 7.03348 4.00000
23.06655 7.03348 4.00000
23.15634 7.03348 4.00000
23.24613 7.03348 4.00000
23.33593 7.03348 4.00000
23.42573 7.03347 4.00000
23.51554 7.03348 4.00000
23.60535 7.03347 4.00000
23.69517 7.03348 4.00000
23.78499 7.03348 4.00000
23.87482 7.03348 4.00000
23.96466 7.03348 4.00000
24.05450 7.03348 4.00000
24.14435 7.03348 4.00000
24.23420 7.03348 4.00000
24.32405 7.03348 4.00000
24.41390 7.03348 4.00000
24.50377 7.03348 4.00000
24.59366 7.03347 4.00000
24.68353 7.03348 4.00000
24.77341 7.03348 4.00000
24.86330 7.03348 4.00000
24.95319 7.03348 4.00000
25.04309 7.03348 4.00000
25.13299 7.03348 4.00000
25.22289 7.03348 4.00000
25.31280 7.03348 4.00000
25.40271 7.03348 4.00000
25.49263 7.03348 4.00000
25.58254 7.03348 4.00000
25.67247 7.03348 4.00000
25.76238 7.03348 4.00000
25.85231 7.03348 4.00000
25.94223 7.03348 4.00000
26.03217 7.03348 4.00000
26.12210 7.03348 4.00000
26.21204 7.03348 4.00000
26.30198 7.03348 4.00000
26.39192 7.03348 4.00000
26.48186 7.03348 4.00000
26.57181 7.03348 4.00000
26.66176 7.03348 4.00000
26.75171 7.03348 4.00000
26.84167 7.03348 4.00000
26.93163 7.03348 4.00000
27.02160 7.03348 4.00000
27.11156 7.03348 4.00000
27.20153 7.03348 4.00000
27.29151 7.03348 4.00000
27.38149 7.03348 4.00000
27.47147 7.03348 4.00000
27.56146 7.03348 4.00000
27.65145 7.03348 4.00000
27.74144 7.03348 4.00000
27.83144 7.03348 4.00000
27.92144 7.03348 4.00000
28.01144 7.03348 4.00000
28.10145 7.03348 4.00000
28.19146 7.03348 4.00000
28.28147 7.03348 4.00000
28.37148 7.03348 4.00000
28.46150 7.03348 4.00000
28.55152 7.03348 4.00000
28.64154 7.03348 4.00000
28.73157 7.03348 4.00000
28.82159 7.03348 4.00000
28.91162 7.03348 4.00000
29.00166 7.03348 4.00000
29.09169 7.03348 4.00000
29.18173 7.03348 4.00000
29.27177 7.03348 4.00000
29.36181 7.03348 4.00000
29.45186 7.03348 4.00000
29.54191 7.03348 4.00000
29.63196 7.03348 4.00000
29.72201 7.03349 4.00000
29.81209 7.03348 4.00000
29.90216 7.03348 4.00000
29.99222 7.03349 4.00000
30.08230 7.03348 4.00000
30.17238 7.03348 4.00000
30.26246 7.03348 4.00000
30.35254 7.03348 4.00000
30.44261 7.03349 4.00000
30.53270 7.03349 4.00000
30.62281 7.03348 4.00000
30.71289 7.03348 4.00000
30.80297 7.03349 4.00000
30.89306 7.03349 4.00000
30.98316 7.03349 4.00000
31.07326 7.03349 4.00000
31.16336 7.03349 4.00000
31.25347 7.03348 4.00000
31.34357 7.03347 4.00000
31.43366 7.03348 4.00000
31.52376 7.03349 4.00000
31.61388 7.03348 4.00000
31.70398 7.03347 4.00000
31.79408 7.03348 4.00000
31.88419 7.03348 4.00000
31.97430 7.03348 4.00000
32.06441 7.03348 4.00000
32.15453 7.03348 4.00000
32.24465 7.03348 4.00000
32.33477 7.03348 4.00000
32.42489 7.03348 4.00000
32.51501 7.03348 4.00000
32.60513 7.03348 4.00000
32.69526 7.03348 4.00000
32.78539 7.03348 4.00000
32.87552 7.03348 4.00000
32.96565 7.03348 4.00000
33.05579 7.03348 4.00000
33.14593 7.03348 4.00000
33.23606 7.03348 4.00000
33.32621 7.03348 4.00000
33.41635 7.03348 4.00000
33.50650 7.03348 4.00000
33.59664 7.03348 4.00000
33.68679 7.03348 4.00000
33.77694 7.03348 4.00000

Angle 0.048364 3.391932

4.00000 7.03348 4.00000
4.00000 7.03348 4.00000
4.00000 7.03348 4.00000
4.00000 7.03348 4.00000
4.00000 7.03349 4.00000
4.00000 7.03348 4.00000
4.00000 7.03348 4.00000
4.00000 7.03348 4.00000
4.00000 7.03348 4.00000
4.00000 7.03348 4.00000
4.00000 7.03348 4.00000
4.00000 7.03348 4.00000
4.00000 7.03348 4.00000
4.00000 7.03348 4.00000
4.00000 7.03351 4.00000
4.00000 7.03349 4.00000
4.00000 7.03348 4.00000
4.00000 7.03348 4.00000
4.00000 7.03349 4.00000
4.00000 7.03348 4.00000
4.00000 7.03351 4.00000
4.00000 7.03351 4.00000
4.00000 7.03348 4.00000
4.00000 7.03348 4.00000
4.00000 7.03348 4.00000
4.00000 7.03346 4.00000
4.00000 7.03348 4.00000
4.00000 7.03348 4.00000
4.00000 7.03348 4.00000
4.00000 7.03348 4.00000
4.00000 7.03348 4.00000
4.00000 7.03348 4.00000
4.00000 7.03350 4.00000
4.00000 7.03348 4.00000
4.00000 7.03348 4.00000
4.00000 7.03348 4.00000
4.00000 7.03348 4.00000
4.00000 7.03348 4.00000
4.00000 7.03348 4.00000
4.00000 7.03348 4.00000
4.00000 7.03348 4.00000
4.00000 7.03348 4.00000
4.00000 7.03348 4.00000
4.00000 7.03348 4.00000
4.00000 7.03348 4.00000
4.00000 7.03348 4.00000
4.00000 7.03348 4.00000
4.00000 7.03348 4.00000
4.00000 7.03348 4.00000
4.00000 7.03348 4.00000
4.00000 7.03348 4.00000
4.00000 7.03348 4.00000
4.00000 7.03348 4.00000
4.00000 7.03348 4.00000
4.00000 7.03348 4.00000
4.00000 7.03348 4.00000
4.00000 7.03348 4.00000
4.00000 7.03348 4.00000
4.00000 7.03348 4.00000
4.00000 7.03348 4.00000
4.00000 7.03348 4.00000
4.00000 7.03348 4.00000
4.00000 7.03348 4.00000
4.00000 7.03348 4.00000
4.00000 7.03349 4.00000
4.00000 7.03349 4.00000
4.00000 7.03349 4.00000
4.00000 7.03348 4.00000
4.00000 7.03347 4.00000
4.00000 7.03347 4.00000
4.00000 7.03348 4.00000
4.00000 7.03348 4.00000
4.00000 7.03348 4.00000
4.00000 7.03348 4.00000
4.00000 7.03348 4.00000
4.00000 7.03348 4.00000
4.00000 7.03348 4.00000
4.00000 7.03348 4.00000
4.00000 7.03348 4.00000
4.00000 7.03348 4.00000
4.00000 7.03348 4.00000
4.00000 7.03348 4.00000
4.00000 7.03348 4.00000
4.00000 7.03348 4.00000
4.00000 7.03348 4.00000
4.00000 7.03348 4.00000
4.00000 7.03348 4.00000
4.00000 7.03348 4.00000
4.00000 7.03348 4.00000
4.00000 7.03348 4.00000
4.00000 7.03348 4.00000
4.00000 7.03348 4.00000
4.00000 7.03348 4.00000
4.00000 7.03348 4.00000
4.00000 7.03348 4.00000
4.00000 7.03348 4.00000
4.00000 7.03348 4.00000
4.00000 7.03348 4.00000
4.00000 7.03348 4.00000
4.00000 7.03348 4.00000
4.00000 7.03348 4.00000
4.00000 7.03348 4.00000
4.00000 7.03348 4.00000
4.00000 7.03348 4.00000
4.00000 7.03348 4.00000
4.00000 7.03348 4.00000
4.00000 7.03348 4.00000
4.00000 7.03348 4.00000
4.00000 7.03348 4.00000
4.00000 7.03348 4.00000
4.00000 7.03348 4.00000
4.00000 7.03348 4.00000
4.00000 7.03348 4.00000
4.00000 7.03348 4.00000
4.00000 7.03348 4.00000
4.00031 7.02798 4.00031
4.00171 7.01188 4.00215
4.00241 6.99189 4.00240
4.00278 6.98559 4.00278
4.00235 6.99288 4.00235
4.00117 7.01316 4.00117
4.00000 7.03352 4.00000
4.00000 7.03348 4.00000
4.00000 7.03348 4.00000
4.00000 7.03348 4.00000
4.00000 7.03348 4.00000
4.00000 7.03348 4.00000
4.00000 7.03348 4.00000
4.00000 7.03348 4.00000
4.00000 7.03348 4.00000
4.00000 7.03348 4.00000
4.00000 7.03348 4.00000
4.00000 7.03348 4.00000
4.00000 7.03348 4.00000
4.00000 7.03348 4.00000
4.00000 7.03348 4.00000
4.00000 7.03348 4.00000
4.00000 7.03348 4.00000
4.00000 7.03347 4.00000
4.00000 7.03347 4.00000
4.00000 7.03347 4.00000
4.00000 7.03348 4.00000
4.00000 7.03350 4.00000
4.00000 7.03348 4.00000
4.00000 7.03350 4.00000
4.00000 7.03349 4.00000
4.00000 7.03349 4.00000
4.00000 7.03349 4.00000
4.00000 7.03349 4.00000
4.00000 7.03348 4.00000
4.00000 7.03348 4.00000
4.00000 7.03348 4.00000
4.00000 7.03349 4.00000
4.00000 7.03349 4.00000
4.00000 7.03349 4.00000
4.00000 7.03348 4.00000
4.00000 7.03347 4.00000
4.00000 7.03347 4.00000
4.00000 7.03348 4.00000
4.00000 7.03349 4.00000
4.00000 7.03349 4.00000
4.00000 7.03348 4.00000
4.00000 7.03348 4.00000
4.00000 7.03348 4.00000
4.00000 7.03348 4.00000
4.00000 7.03348 4.00000
4.00000 7.03348 4.00000
4.00000 7.03349 4.00000
4.00000 7.03348 4.00000
4.00000 7.03348 4.00000
4.00000 7.03348 4.00000
4.00000 7.03348 4.00000
4.00000 7.03348 4.00000
4.00000 7.03348 4.00000
4.00000 7.03348 4.00000
4.00000 7.03348 4.00000
4.00000 7.03348 4.00000
4.00000 7.03348 4.00000
4.00000 7.03348 4.00000
4.00000 7.03348 4.00000
4.00000 7.03349 4.00000
4.00000 7.03348 4.00000
4.00000 7.03347 4.00000
4.00000 7.03348 4.00000
4.00000 7.03348 4.00000
4.00000 7.03348 4.00000
4.00000 7.03348 4.00000
4.00000 7.03348 4.00000
4.00000 7.03348 4.00000
4.00000 7.03348 4.00000
4.00000 7.03348 4.00000
4.00000 7.03348 4.00000
4.00000 7.03348 4.00000
4.00000 7.03348 4.00000
4.00000 7.03348 4.00000
4.00000 7.03348 4.00000
4.00000 7.03348 4.00000
4.00000 7.03348 4.00000
4.00000 7.03348 4.00000
4.00000 7.03348 4.00000
4.00000 7.03348 4.00000
4.00000 7.03348 4.00000
4.00000 7.03348 4.00000
4.00000 7.03348 4.00000
4.00000 7.03348 4.00000
4.00000 7.03348 4.00000
4.00000 7.03348 4.00000
4.00000 7.03348 4.00000
4.00000 7.03348 4.00000
4.00000 7.03348 4.00000
4.00000 7.03348 4.00000
4.00000 7.03348 4.00000
4.00000 7.03348 4.00000
4.00000 7.03349 4.00000
4.00000 7.03348 4.00000
4.00000 7.03348 4.00000
4.00000 7.03348 4.00000
4.00000 7.03348 4.00000
4.00000 7.03348 4.00000
4.00000 7.03348 4.00000
4.00000 7.03348 4.00000
4.00000 7.03348 4.00000
4.00000 7.03348 4.00000
4.00000 7.03348 4.00000
4.00000 7.03348 4.00000
4.00000 7.03348 4.00000
4.00000 7.03348 4.00000
4.00000 7.03348 4.00000
4.00000 7.03348 4.00000
4.00000 7.03348 4.00000
4.00000 7.03347 4.00000
4.00000 7.03349 4.00000
4.00000 7.03348 4.00000
4.00000 7.03348 4.00000
4.00000 7.03348 4.00000
4.00000 7.03347 4.00000
4.00000 7.03348 4.00000
4.00000 7.03348 4.00000
4.00000 7.03348 4.00000
4.00000 7.03348 4.00000
4.00000 7.03348 4.00000
4.00000 7.03348 4.00000
4.00000 7.03348 4.00000
4.00000 7.03348 4.00000
4.00000 7.03348 4.00000
4.00000 7.03348 4.00000
4.00000 7.03348 4.00000
4.00000 7.03348 4.00000
4.00000 7.03348 4.00000
4.00000 7.03348 4.00000
4.00000 7.03348 4.00000
4.00000 7.03348 4.00000
4.00000 7.03348 4.00000
4.00000 7.03348 4.00000
4.00000 7.03348 4.00000
4.00000 7.03348 4.00000
4.00000 7.03347 4.00000
4.00000 7.03348 4.00000
4.00000 7.03348 4.00000
4.00000 7.03348 4.00000
4.00000 7.03347 4.00000
4.00000 7.03348 4.00000
4.00000 7.03349 4.00000
4.00000 7.03347 4.00000
4.00000 7.03350 4.00000
4.00000 7.03347 4.00000
4.00000 7.03348 4.00000
4.00035 7.03967 4.00035
4.00474 7.11748 4.00474
4.00904 7.19556 4.00904
4.01329 7.27384 4.01330
4.01751 7.35228 4.01751
4.02169 7.43084 4.02169
4.02587 7.50946 4.02587
4.03006 7.58808 4.03006
4.03428 7.66667 4.03428
4.03855 7.74516 4.03855
4.04289 7.82349 4.04289
4.04732 7.90161 4.04732
4.05187 7.97943 4.05187
4.05657 8.05688 4.05657
4.06145 8.13388 4.06145
4.06656 8.21031 4.06656
4.07193 8.28605 4.07193
4.07762 8.36098 4.07762
4.08370 8.43491 4.08370
4.09024 8.50766 4.09024
4.09733 8.57900 4.09733
4.10510 8.64863 4.10510
4.11359 8.71639 4.11359
4.12276 8.78248 4.12276
4.13264 8.84684 4.13264
4.14325 8.90940 4.14325
4.15464 8.97011 4.15464
4.16682 9.02892 4.16682
4.17983 9.08580 4.17983
4.19368 9.14075 4.19368
4.20838 9.19376 4.20838
4.22392 9.24487 4.22392
4.24031 9.29411 4.24031
4.25753 9.34154 4.25753
4.27557 9.38721 4.27557
4.29441 9.43120 4.29441
4.31402 9.47360 4.31402
4.33438 9.51446 4.33438
4.35546 9.55389 4.35546
4.37723 9.59194 4.37723
4.39967 9.62868 4.39967
4.42276 9.66417 4.42276
4.44650 9.69841 4.44650
4.47088 9.73142 4.47088
4.49593 9.76313 4.49593
4.52172 9.79339 4.52172
4.54837 9.82193 4.54837
4.57612 9.84820 4.57611
4.60538 9.87122 4.60538
4.63703 9.88905 4.63703
4.67263 9.89816 4.67263
7.85767 7.36653 4.01827
7.99041 7.32158 4.01586
8.11467 7.28506 4.01390
8.23274 7.25471 4.01226
8.34609 7.22907 4.01087
8.45574 7.20713 4.00968
8.56241 7.18819 4.00864
8.66663 7.17170 4.00774
8.76883 7.15727 4.00694
8.86931 7.14456 4.00624
8.96835 7.13333 4.00562
9.06615 7.12336 4.00506
9.16288 7.11449 4.00457
9.25867 7.10658 4.00413
9.35367 7.09950 4.00373
9.44796 7.09316 4.00338
9.54163 7.08747 4.00306
9.63476 7.08235 4.00277
9.72741 7.07774 4.00251
9.81964 7.07359 4.00228
9.91150 7.06985 4.00206
10.00302 7.06646 4.00187
10.09425 7.06340 4.00170
10.18522 7.06064 4.00154
10.27597 7.05813 4.00140
10.36650 7.05587 4.00127
10.45686 7.05381 4.00116
10.54705 7.05195 4.00105
10.63711 7.05026 4.00096
10.72703 7.04873 4.00087
10.81684 7.04734 4.00079
10.90656 7.04608 4.00072
10.99619 7.04493 4.00065
11.08574 7.04389 4.00059
11.17523 7.04294 4.00054
11.26465 7.04208 4.00049
11.35403 7.04130 4.00045
11.44337 7.04059 4.00041
11.53266 7.03995 4.00037
11.62193 7.03936 4.00034
11.71117 7.03883 4.00030
11.80038 7.03835 4.00028
11.88958 7.03791 4.00025
11.97876 7.03750 4.00023
12.06793 7.03714 4.00021
12.15709 7.03681 4.00019
12.24625 7.03651 4.00017
12.33540 7.03623 4.00016
12.42455 7.03598 4.00014
12.51370 7.03576 4.00013
12.60285 7.03555 4.00012
12.69200 7.03536 4.00011
12.78116 7.03519 4.00010
12.87033 7.03504 4.00009
12.95950 7.03490 4.00008
13.04868 7.03477 4.00007
13.13786 7.03465 4.00007
13.22706 7.03455 4.00006
13.31626 7.03445 4.00006
13.40548 7.03436 4.00005
13.49471 7.03428 4.00005
13.58394 7.03421 4.00004
13.67319 7.03414 4.00004
13.76245 7.03408 4.00003
13.85172 7.03403 4.00003
13.94101 7.03398 4.00003
14.03030 7.03393 4.00003
14.11961 7.03389 4.00002
14.20893 7.03385 4.00002
14.29827 7.03382 4.00002
14.38761 7.03379 4.00002
14.47697 7.03376 4.00002
14.56634 7.03374 4.00002
14.65573 7.03371 4.00001
14.74512 7.03369 4.00001
14.83453 7.03367 4.00001
14.92395 7.03365 4.00001
15.01338 7.03364 4.00001
15.10282 7.03362 4.00001
15.19228 7.03361 4.00001
15.28175 7.03360 4.00001
15.37123 7.03359 4.00001

Angle 0.636387 3.269252

4.00000 7.03348 4.00000
4.00000 7.03348 4.00000
4.00000 7.03347 4.00000
4.00000 7.03348 4.00000
4.00000 7.03348 4.00000
4.00000 7.03349 4.00000
4.00000 7.03348 4.00000
4.00000 7.03348 4.00000
4.00000 7.03348 4.00000
4.00000 7.03348 4.00000
4.00000 7.03348 4.00000
4.00000 7.03348 4.00000
4.00000 7.03348 4.00000
4.00000 7.03348 4.00000
4.00000 7.03348 4.00000
4.00000 7.03348 4.00000
4.00000 7.03348 4.00000
4.00000 7.03348 4.00000
4.00000 7.03348 4.00000
4.00000 7.03348 4.00000
4.00000 7.03348 4.00000
4.00000 7.03348 4.00000
4.00000 7.03348 4.00000
4.00000 7.03348 4.00000
4.00000 7.03348 4.00000
4.00000 7.03348 4.00000
4.00000 7.03348 4.00000
4.00000 7.03348 4.00000
4.00000 7.03348 4.00000
4.00000 7.03348 4.00000
4.00000 7.03348 4.00000
4.00000 7.03348 4.00000
4.00000 7.03348 4.00000
4.00000 7.03348 4.00000
4.00000 7.03348 4.00000
4.00000 7.03348 4.00000
4.00000 7.03348 4.00000
4.00000 7.03348 4.00000
4.00000 7.03348 4.00000
4.00000 7.03348 4.00000
4.00000 7.03348 4.00000
4.00000 7.03348 4.00000
4.00000 7.03348 4.00000
4.00000 7.03348 4.00000
4.00000 7.03348 4.00000
4.00000 7.03348 4.00000
4.00000 7.03348 4.00000
4.00000 7.03348 4.00000
4.00000 7.03348 4.00000
4.00000 7.03348 4.00000
4.00000 7.03348 4.00000
4.00000 7.03348 4.00000
4.00000 7.03348 4.00000
4.00000 7.03348 4.00000
4.00000 7.03348 4.00000
4.00000 7.03347 4.00000
4.00000 7.03347 4.00000
4.00000 7.03348 4.00000
4.00000 7.03348 4.00000
4.00000 7.03348 4.00000
4.00000 7.03348 4.00000
4.00000 7.03348 4.00000
4.00000 7.03348 4.00000
4.00000 7.03348 4.00000
4.00000 7.03348 4.00000
4.00000 7.03348 4.00000
4.00000 7.03348 4.00000
4.00000 7.03348 4.00000
4.00000 7.03347 4.00000
4.00000 7.03348 4.00000
4.00000 7.03348 4.00000
4.00000 7.03348 4.00000
4.00000 7.03348 4.00000
4.00000 7.03348 4.00000
4.00000 7.03348 4.00000
4.00000 7.03348 4.00000
4.00000 7.03347 4.00000
4.00000 7.03348 4.00000
4.00000 7.03348 4.00000
4.00000 7.03348 4.00000
4.00000 7.03348 4.00000
4.00000 7.03348 4.00000
4.00000 7.03348 4.00000
4.00000 7.03348 4.00000
4.00000 7.03348 4.00000
4.00000 7.03348 4.00000
4.00000 7.03348 4.00000
4.00000 7.03348 4.00000
4.00000 7.03348 4.00000
4.00000 7.03348 4.00000
4.00000 7.03348 4.00000
4.00000 7.03347 4.00000
4.00000 7.03348 4.00000
4.00000 7.03348 4.00000
4.00000 7.03348 4.00000
4.00000 7.03348 4.00000
4.00000 7.03348 4.00000
4.00000 7.03348 4.00000
4.00000 7.03346 4.00000
4.00000 7.03346 4.00000
4.00000 7.03346 4.00000
4.00000 7.03346 4.00000
4.00000 7.03348 4.00000
4.00000 7.03348 4.00000
4.00000 7.03348 4.00000
4.00000 7.03348 4.00000
4.00000 7.03347 4.00000
4.00000 7.03348 4.00000
4.00000 7.03348 4.00000
4.00000 7.03348 4.00000
4.00000 7.03348 4.00000
4.00000 7.03348 4.00000
4.00000 7.03348 4.00000
4.00000 7.03348 4.00000
4.00000 7.03348 4.00000
4.00000 7.03348 4.00000
4.00000 7.03348 4.00000
4.00000 7.03348 4.00000
4.00000 7.03348 4.00000
4.00000 7.03348 4.00000
4.00000 7.03348 4.00000
4.00000 7.03348 4.00000
4.00000 7.03348 4.00000
4.00000 7.03348 4.00000
4.00000 7.03348 4.00000
4.00000 7.03348 4.00000
4.00000 7.03348 4.00000
4.00000 7.03348 4.00000
4.00000 7.03348 4.00000
4.00000 7.03348 4.00000
4.00000 7.03348 4.00000
4.00000 7.03348 4.00000
4.00000 7.03348 4.00000
4.00000 7.03348 4.00000
4.00000 7.03348 4.00000
4.00000 7.03348 4.00000
4.00000 7.03348 4.00000
4.00000 7.03348 4.00000
4.00000 7.03348 4.00000
4.00000 7.03348 4.00000
4.00000 7.03348 4.00000
4.00000 7.03348 4.00000
4.00000 7.03348 4.00000
4.00000 7.03348 4.00000
4.00000 7.03348 4.00000
4.00000 7.03348 4.00000
4.00000 7.03348 4.00000
4.00000 7.03348 4.00000
4.00000 7.03348 4.00000
4.00000 7.03348 4.00000
4.00000 7.03348 4.00000
4.00000 7.03348 4.00000
4.00000 7.03348 4.00000
4.00000 7.03348 4.00000
4.00000 7.03348 4.00000
4.00000 7.03348 4.00000
4.00000 7.03348 4.00000
4.00000 7.03348 4.00000
4.00000 7.03348 4.00000
4.00000 7.03348 4.00000
4.00000 7.03348 4.00000
4.00000 7.03348 4.00000
4.00000 7.03348 4.00000
4.00000 7.03348 4.00000
4.00000 7.03348 4.00000
4.00000 7.03348 4.00000
4.00000 7.03349 4.00000
4.00000 7.03348 4.00000
4.00000 7.03348 4.00000
4.00000 7.03348 4.00000
4.00000 7.03348 4.00000
4.00000 7.03348 4.00000
4.00000 7.03348 4.00000
4.00000 7.03348 4.00000
4.00000 7.03348 4.00000
4.00000 7.03348 4.00000
4.00000 7.03348 4.00000
4.00000 7.03348 4.00000
4.00000 7.03348 4.00000
4.00000 7.03348 4.00000
4.00000 7.03348 4.00000
4.00000 7.03348 4.00000
4.00000 7.03348 4.00000
4.00000 7.03348 4.00000
4.00000 7.03348 4.00000
4.00000 7.03348 4.00000
4.00000 7.03348 4.00000
4.00000 7.03348 4.00000
4.00000 7.03348 4.00000
4.00000 7.03348 4.00000
4.00000 7.03348 4.00000
4.00000 7.03348 4.00000
4.00000 7.03348 4.00000
4.00000 7.03348 4.00000
4.00000 7.03348 4.00000
4.00000 7.03348 4.00000
4.00000 7.03348 4.00000
4.00000 7.03348 4.00000
4.00000 7.03348 4.00000
4.00000 7.03348 4.00000
4.00000 7.03348 4.00000
4.00000 7.03348 4.00000
4.00000 7.03348 4.00000
4.00000 7.03348 4.00000
4.00000 7.03348 4.00000
4.00000 7.03348 4.00000
4.00000 7.03348 4.00000
4.00000 7.03348 4.00000
4.00000 7.03348 4.00000
4.00000 7.03348 4.00000
4.00000 7.03348 4.00000
4.00000 7.03348 4.00000
4.00000 7.03348 4.00000
4.00000 7.03348 4.00000
4.00000 7.03348 4.00000
4.00000 7.03348 4.00000
4.00000 7.03348 4.00000
4.00000 7.03348 4.00000
4.00000 7.03348 4.00000
4.00000 7.03348 4.00000
4.00000 7.03348 4.00000
4.00000 7.03348 4.00000
4.00000 7.03348 4.00000
4.00000 7.03348 4.00000
4.00000 7.03348 4.00000
4.00000 7.03348 4.00000
4.00000 7.03348 4.00000
4.00000 7.03348 4.00000
4.00000 7.03348 4.00000
4.00000 7.03348 4.00000
4.00000 7.03348 4.00000
4.00000 7.03348 4.00000
4.00000 7.03348 4.00000
4.00000 7.03348 4.00000
4.00000 7.03348 4.00000
4.00000 7.03348 4.00000
4.00000 7.03348 4.00000
4.00000 7.03348 4.00000
4.00000 7.03348 4.00000
4.00000 7.03348 4.00000
4.00000 7.03348 4.00000
4.00000 7.03348 4.00000
4.00000 7.03348 4.00000
4.00000 7.03348 4.00000
4.00000 7.03348 4.00000
4.00000 7.03348 4.00000
4.00000 7.03348 4.00000
4.00000 7.03348 4.00000
4.00000 7.03348 4.00000
4.00000 7.03348 4.00000
4.00000 7.03348 4.00000
4.00000 7.03348 4.00000
4.00000 7.03348 4.00000
4.00000 7.03348 4.00000
4.00000 7.03348 4.00000
4.00000 7.03348 4.00000
4.00000 7.03348 4.00000
4.00000 7.03349 4.00000
4.00000 7.03348 4.00000
4.00000 7.03348 4.00000
4.00000 7.03348 4.00000
4.00000 7.03347 4.00000
4.00000 7.03348 4.00000
4.00000 7.03348 4.00000
4.00000 7.03348 4.00000
4.00000 7.03348 4.00000
4.00236 7.07511 4.00236
4.00631 7.14586 4.00631
4.01021 7.21690 4.01021
4.01407 7.28819 4.01407
4.01790 7.35969 4.01790
4.02172 7.43137 4.02172
4.02554 7.50318 4.02554
4.02937 7.57509 4.02937
4.03322 7.64705 4.03322
4.03712 7.71903 4.03712
4.04107 7.79097 4.04107
4.04510 7.86282 4.04510
4.04923 7.93454 4.04923
4.05346 8.00605 4.05346
4.05784 8.07731 4.05784
4.06239 8.14822 4.06239
4.06713 8.21870 4.06713
4.07212 8.28865 4.07212
4.07738 8.35797 4.07738
4.08298 8.42651 4.08298
4.08897 8.49411 4.08897
4.09543 8.56060 4.09543
4.10244 8.62574 4.10244
4.11009 8.68932 4.11009
4.11835 8.75148 4.11835
4.12720 8.81221 4.12720
4.13669 8.87147 4.13669
4.14684 8.92919 4.14684
4.15767 8.98533 4.15768
4.16923 9.03984 4.16923
4.18151 9.09272 4.18150
4.19453 9.14394 4.19453
4.20830 9.19351 4.20830
4.22283 9.24145 4.22283
4.23812 9.28778 4.23812
4.25415 9.33253 4.25415
4.27091 9.37577 4.27091
4.28840 9.41753 4.28840
4.30658 9.45789 4.30658
4.32545 9.49690 4.32545
4.34498 9.53462 4.34498
4.36514 9.57113 4.36514
4.38593 9.60646 4.38593
4.40731 9.64068 4.40731
4.42929 9.67380 4.42929
4.45185 9.70585 4.45185
4.47500 9.73680 4.47500
4.49878 9.76660 4.49878
4.52323 9.79509 4.52323
4.54848 9.82204 4.54848
4.57472 9.84698 4.57472
4.60232 9.86907 4.60232
4.63196 9.88676 4.63195
4.66489 9.89725 4.66489
4.01898 7.37984 7.82184
4.01655 7.33434 7.95072
4.01456 7.29730 8.07112
4.01289 7.26642 8.18538
4.01148 7.24024 8.29495
4.01026 7.21778 8.40086
4.00920 7.19832 8.50381
4.00826 7.18133 8.60434
4.00744 7.16640 8.70287
4.00672 7.15321 8.79971
4.00607 7.14152 8.89512
4.00549 7.13110 8.98931
4.00498 7.12180 9.08245
4.00451 7.11348 9.17467
4.00409 7.10600 9.26611
4.00372 7.09928 9.35686
4.00338 7.09323 9.44699
4.00307 7.08776 9.53662
4.00280 7.08282 9.62577
4.00254 7.07835 9.71452
4.00231 7.07430 9.80291
4.00211 7.07066 9.89096
4.00192 7.06730 9.97879
4.00175 7.06431 10.06631
4.00159 7.06154 10.15367
4.00145 7.05907 10.24079
4.00133 7.05681 10.32776
4.00121 7.05475 10.41460
4.00110 7.05287 10.50131
4.00101 7.05117 10.58790
4.00092 7.04961 10.67441
4.00084 7.04819 10.76084
4.00076 7.04689 10.84720
4.00070 7.04572 10.93349
4.00064 7.04465 11.01974
4.00058 7.04367 11.10595
4.00053 7.04278 11.19212
4.00048 7.04196 11.27827
4.00044 7.04122 11.36441
4.00040 7.04054 11.45052
4.00037 7.03992 11.53664
4.00033 7.03936 11.62275
4.00031 7.03884 11.70886
4.00028 7.03837 11.79497
4.00026 7.03795 11.88109
4.00023 7.03755 11.96723
4.00021 7.03720 12.05337
4.00020 7.03687 12.13953
4.00018 7.03657 12.22572
4.00017 7.03630 12.31192
4.00015 7.03606 12.39814
4.00013 7.03583 12.48438
4.00012 7.03562 12.57064
4.00011 7.03544 12.65693
4.00010 7.03526 12.74325
4.00009 7.03511 12.82960
4.00009 7.03496 12.91597
4.00008 7.03483 13.00237
4.00007 7.03472 13.08881
4.00007 7.03461 13.17527
4.00006 7.03451 13.26175
4.00005 7.03442 13.34827
4.00005 7.03433 13.43482
4.00005 7.03426 13.52140
4.00004 7.03419 13.60802
4.00004 7.03413 13.69466
4.00004 7.03407 13.78134
4.00003 7.03402 13.86804
4.00003 7.03397 13.95478
4.00003 7.03393 14.04155
4.00003 7.03389 14.12835
4.00002 7.03385 14.21518
4.00002 7.03382 14.30204
4.00002 7.03379 14.38893
4.00002 7.03376 14.47585
4.00002 7.03374 14.56280
4.00002 7.03371 14.64978
4.00001 7.03369 14.73679
4.00001 7.03368 14.82382
4.00001 7.03366 14.91087

