Angle 0.685512 4.633918

4.00000 7.03348 4.00000
4.00000 7.03348 4.00000
4.00000 7.03348 4.00000
4.00000 7.03348 4.00000
4.00000 7.03348 4.00000
4.00000 7.03348 4.00000
4.00000 7.03348 4.00000
4.00000 7.03348 4.00000
4.00000 7.03348 4.00000
4.00000 7.03348 4.00000
4.00000 7.03348 4.00000
4.00000 7.03348 4.00000
4.00000 7.03348 4.00000
4.00000 7.03348 4.00000
4.00000 7.03348 4.00000
4.00000 7.03349 4.00000
4.00000 7.03349 4.00000
4.00000 7.03349 4.00000
4.00000 7.03349 4.00000
4.00000 7.03349 4.00000
4.00000 7.03348 4.00000
4.00000 7.03348 4.00000
4.00000 7.03348 4.00000
4.00000 7.03348 4.00000
4.00000 7.03348 4.00000
4.00000 7.03348 4.00000
4.00000 7.03348 4.00000
4.00000 7.03348 4.00000
4.00000 7.03348 4.00000
4.00000 7.03348 4.00000
4.00000 7.03348 4.00000
4.00000 7.03348 4.00000
4.00000 7.03348 4.00000
4.00000 7.03348 4.00000
4.00000 7.03348 4.00000
4.00000 7.03348 4.00000
4.00000 7.03348 4.00000
4.00000 7.03348 4.00000
4.00000 7.03348 4.00000
4.00000 7.03348 4.00000
4.00000 7.03348 4.00000
4.00000 7.03348 4.00000
4.00000 7.03348 4.00000
4.00000 7.03348 4.00000
4.00000 7.03348 4.00000
4.00000 7.03348 4.00000
4.00000 7.03348 4.00000
4.00000 7.03348 4.00000
4.00000 7.03348 4.00000
4.00000 7.03348 4.00000
4.00000 7.03348 4.00000
4.00000 7.03348 4.00000
4.00000 7.03348 4.00000
4.00000 7.03348 4.00000
4.00000 7.03348 4.00000
4.00000 7.03348 4.00000
4.00000 7.03348 4.00000
4.00000 7.03348 4.00000
4.00000 7.03348 4.00000
4.00000 7.03348 4.00000
4.00000 7.03348 4.00000
4.00000 7.03348 4.00000
4.00000 7.03348 4.00000
4.00000 7.03348 4.00000
4.00000 7.03348 4.00000
4.00000 7.03348 4.00000
4.00000 7.03348 4.00000
4.00000 7.03348 4.00000
4.00000 7.03348 4.00000
4.00000 7.03348 4.00000
4.00000 7.03348 4.00000
4.00000 7.03348 4.00000
4.00000 7.03349 4.00000
4.00000 7.03349 4.00000
4.00000 7.03348 4.00000
4.00000 7.03348 4.00000
4.00000 7.03348 4.00000
4.00000 7.03348 4.00000
4.00000 7.03348 4.00000
4.00000 7.03348 4.00000
4.00000 7.03348 4.00000
4.00000 7.03348 4.00000
4.00000 7.03348 4.00000
4.00000 7.03348 4.00000
4.00000 7.03348 4.00000
4.00000 7.03348 4.00000
4.00000 7.03348 4.00000
4.00000 7.03348 4.00000
4.00000 7.03348 4.00000
4.00000 7.03348 4.00000
4.00000 7.03348 4.00000
4.00000 7.03348 4.00000
4.00000 7.03348 4.00000
4.00000 7.03348 4.00000
4.00000 7.03348 4.00000
4.00000 7.03348 4.00000
4.00000 7.03348 4.00000
4.00000 7.03348 4.00000
4.00000 7.03348 4.00000
4.00000 7.03348 4.00000
4.00000 7.03348 4.00000
4.00000 7.03348 4.00000
4.00000 7.03348 4.00000
4.00000 7.03348 4.00000
4.00000 7.03348 4.00000
4.00000 7.03347 4.00000
4.00000 7.03348 4.00000
4.00000 7.03348 4.00000
4.00000 7.03348 4.00000
4.00000 7.03348 4.00000
4.00000 7.03348 4.00000
4.00000 7.03348 4.00000
4.00000 7.03348 4.00000
4.00000 7.03348 4.00000
4.00000 7.03348 4.00000
4.00000 7.03348 4.00000
4.00000 7.03348 4.00000
4.00000 7.03348 4.00000
4.00000 7.03347 4.00000
4.00000 7.03348 4.00000
4.00000 7.03348 4.00000
4.00000 7.03347 4.00000
4.00000 7.03348 4.00000
4.00000 7.03347 4.00000
4.00000 7.03348 4.00000
4.00000 7.03348 4.00000
4.00000 7.03348 4.00000
4.00000 7.03348 4.00000
4.00000 7.03348 4.00000
4.00000 7.03347 4.00000
4.00000 7.03347 4.00000
4.00000 7.03348 4.00000
4.00000 7.03348 4.00000
4.00000 7.03348 4.00000
4.00000 7.03348 4.00000
4.00000 7.03348 4.00000
4.00000 7.03348 4.00000
4.00000 7.03348 4.00000
4.00000 7.03348 4.00000
4.00000 7.03348 4.00000
4.00000 7.03348 4.00000
4.00000 7.03348 4.00000
4.00000 7.03348 4.00000
4.00000 7.03348 4.00000
4.00000 7.03348 4.00000
4.00000 7.03348 4.00000
4.00000 7.03348 4.00000
4.00000 7.03348 4.00000
4.00000 7.03348 4.00000
4.00000 7.03348 4.00000
4.00000 7.03348 4.00000
4.00000 7.03348 4.00000
4.00000 7.03348 4.00000
4.00000 7.03348 4.00000
4.00000 7.03348 4.00000
4.00000 7.03348 4.00000
4.00000 7.03348 4.00000
4.00000 7.03348 4.00000
4.00000 7.03348 4.00000
4.00000 7.03348 4.00000
4.00000 7.03348 4.00000
4.00000 7.03348 4.00000
4.00000 7.03348 4.00000
4.00000 7.03348 4.00000
4.00000 7.03348 4.00000
4.00000 7.03348 4.00000
4.00000 7.03348 4.00000
4.00000 7.03348 4.00000
4.00000 7.03348 4.00000
4.00000 7.03348 4.00000
4.00000 7.03348 4.00000
4.00000 7.03348 4.00000
4.00000 7.03348 4.00000
4.00000 7.03348 4.00000
4.00000 7.03348 4.00000
4.00000 7.03348 4.00000
4.00000 7.03348 4.00000
4.00000 7.03348 4.00000
4.00000 7.03348 4.00000
4.00000 7.03348 4.00000
4.00000 7.03348 4.00000
4.00000 7.03348 4.00000
4.00000 7.03348 4.00000
4.00000 7.03348 4.00000
4.00000 7.03348 4.00000
4.00000 7.03348 4.00000
4.00000 7.03348 4.00000
4.00000 7.03348 4.00000
4.00000 7.03348 4.00000
4.00000 7.03348 4.00000
4.00000 7.03348 4.00000
4.00000 7.03348 4.00000
4.00000 7.03348 4.00000
4.00000 7.03348 4.00000
4.00000 7.03348 4.00000
4.00000 7.03348 4.00000
4.00000 7.03348 4.00000
4.00000 7.03348 4.00000
4.00000 7.03348 4.00000
4.00000 7.03348 4.00000
4.00000 7.03348 4.00000
4.00000 7.03348 4.00000
4.00000 7.03348 4.00000
4.00000 7.03348 4.00000
4.00000 7.03348 4.00000
4.00000 7.03348 4.00000
4.00000 7.03348 4.00000
4.00000 7.03348 4.00000
4.00000 7.03348 4.00000
4.00000 7.03348 4.00000
4.00000 7.03348 4.00000
4.00000 7.03348 4.00000
4.00000 7.03348 4.00000
4.00000 7.03348 4.00000
4.00000 7.03348 4.00000
4.00000 7.03348 4.00000
4.00000 7.03348 4.00000
4.00000 7.03348 4.00000
4.00000 7.03348 4.00000
4.00000 7.03348 4.00000
4.00000 7.03348 4.00000
4.00000 7.03348 4.00000
4.00000 7.03348 4.00000
4.00000 7.03348 4.00000
4.00000 7.03348 4.00000
4.00000 7.03348 4.00000
4.00000 7.03348 4.00000
4.00000 7.03348 4.00000
4.00000 7.03348 4.00000
4.00000 7.03348 4.00000
4.00000 7.03350 4.00000
4.00000 7.03348 4.00000
4.00214 7.07113 4.00213
4.00619 7.14372 4.00619
4.01019 7.21658 4.01019
4.01415 7.28968 4.01415
4.01808 7.36298 4.01808
4.02199 7.43643 4.02199
4.02590 7.51000 4.02590
4.02982 7.58364 4.02982
4.03378 7.65730 4.03378
4.03777 7.73095 4.03777
4.04183 7.80453 4.04183
4.04597 7.87799 4.04597
4.05020 7.95127 4.05020
4.05457 8.02430 4.05457
4.05909 8.09702 4.05909
4.06378 8.16933 4.06378
4.06870 8.24115 4.06870
4.07388 8.31236 4.07388
4.07937 8.38284 4.07937
4.08522 8.45244 4.08522
4.09151 8.52098 4.09151
4.09831 8.58825 4.09831
4.10574 8.65400 4.10574
4.11382 8.71812 4.11382
4.12252 8.78079 4.12252
4.13185 8.84194 4.13185
4.14185 8.90151 4.14185
4.15255 8.95945 4.15255
4.16398 9.01571 4.16398
4.17615 9.07027 4.17615
4.18909 9.12310 4.18909
4.20280 9.17422 4.20280
4.21728 9.22362 4.21728
4.23255 9.27133 4.23255
4.24858 9.31740 4.24858
4.26538 9.36186 4.26538
4.28292 9.40478 4.28292
4.30119 9.44622 4.30119
4.32016 9.48624 4.32016
4.33982 9.52491 4.33982
4.36015 9.56230 4.36015
4.38111 9.59846 4.38111
4.40269 9.63345 4.40269
4.42487 9.66731 4.42487
4.44766 9.70004 4.44766
4.47105 9.73165 4.47105
4.49507 9.76208 4.49507
4.51978 9.79120 4.51978
4.54527 9.81876 4.54527
4.57175 9.84433 4.57175
4.59957 9.86709 4.59957
4.62939 9.88552 4.62939
4.66247 9.89684 4.66247
4.70082 9.89646 4.70082
4.74666 9.87954 4.74666
4.79997 9.84618 4.80005
4.01292 7.26686 8.18364
4.01148 7.24030 8.29469
4.01024 7.21756 8.40195
4.00917 7.19790 8.50617
4.00823 7.18076 8.60791
4.00741 7.16572 8.70760
4.00668 7.15247 8.80555
4.00603 7.14072 8.90204
4.00545 7.13026 8.99729
4.00493 7.12092 9.09149
4.00446 7.11261 9.18470
4.00405 7.10515 9.27712
4.00367 7.09844 9.36885
4.00334 7.09241 9.45995
4.00303 7.08696 9.55052
4.00275 7.08205 9.64062
4.00250 7.07760 9.73031
4.00227 7.07359 9.81962
4.00207 7.06996 9.90859
4.00188 7.06665 9.99731
4.00171 7.06367 10.08574
4.00156 7.06096 10.17396
4.00142 7.05850 10.26198
4.00130 7.05626 10.34984
4.00118 7.05422 10.43756
4.00107 7.05238 10.52512
4.00098 7.05071 10.61257
4.00089 7.04917 10.69994
4.00081 7.04778 10.78720
4.00074 7.04651 10.87440
4.00068 7.04536 10.96153
4.00062 7.04432 11.04860
4.00056 7.04335 11.13564
4.00051 7.04248 11.22263
4.00047 7.04168 11.30959
4.00043 7.04095 11.39653
4.00039 7.04030 11.48346
4.00035 7.03970 11.57036
4.00032 7.03914 11.65727
4.00029 7.03865 11.74416
4.00027 7.03818 11.83105
4.00025 7.03777 11.91795
4.00022 7.03739 12.00486
4.00020 7.03705 12.09176
4.00018 7.03674 12.17868
4.00017 7.03645 12.26562
4.00015 7.03619 12.35256
4.00014 7.03595 12.43953
4.00013 7.03573 12.52651
4.00012 7.03553 12.61351
4.00011 7.03535 12.70054
4.00010 7.03518 12.78758
4.00009 7.03503 12.87465
4.00008 7.03489 12.96173
4.00007 7.03477 13.04884
4.00007 7.03465 13.13598
4.00006 7.03455 13.22314
4.00006 7.03446 13.31032
4.00005 7.03437 13.39753
4.00005 7.03429 13.48477
4.00004 7.03422 13.57203
4.00004 7.03415 13.65932
4.00004 7.03409 13.74663
4.00003 7.03404 13.83397
4.00003 7.03399 13.92133
4.00003 7.03394 14.00873
4.00003 7.03390 14.09613
4.00002 7.03387 14.18356
4.00002 7.03383 14.27103
4.00002 7.03380 14.35852
4.00002 7.03377 14.44604
4.00001 7.03375 14.53359
4.00001 7.03372 14.62116
4.00001 7.03370 14.70875
4.00001 7.03368 14.79637
4.00001 7.03366 14.88401
4.00001 7.03365 14.97168
4.00001 7.03363 15.05937
4.00001 7.03362 15.14709
4.00001 7.03361 15.23483
4.00001 7.03359 15.32259
4.00001 7.03358 15.41038
4.00001 7.03358 15.49819
4.00000 7.03357 15.58602
4.00000 7.03356 15.67388
4.00000 7.03355 15.76175
4.00000 7.03355 15.84965
4.00000 7.03354 15.93758
4.00000 7.03353 16.02552
4.00000 7.03353 16.11348
4.00000 7.03352 16.20147
4.00000 7.03352 16.28947
4.00000 7.03352 16.37750
4.00000 7.03351 16.46555
4.00000 7.03351 16.55361
4.00000 7.03351 16.64170
4.00000 7.03351 16.72981
4.00000 7.03350 16.81793
4.00000 7.03350 16.90608
4.00000 7.03350 16.99424
4.00000 7.03350 17.08243
4.00000 7.03350 17.17063
4.00000 7.03349 17.25885
4.00000 7.03349 17.34709
4.00000 7.03349 17.43534
4.00000 7.03349 17.52361
4.00000 7.03348 17.61191
4.00000 7.03349 17.70021
4.00000 7.03348 17.78854
4.00000 7.03348 17.87688
4.00000 7.03349 17.96523
4.00000 7.03348 18.05361

Angle 0.344614 2.651604

4.00000 7.03348 4.00000
4.00000 7.03348 4.00000
4.00000 7.03348 4.00000
4.00000 7.03348 4.00000
4.00000 7.03348 4.00000
4.00000 7.03348 4.00000
4.00000 7.03348 4.00000
4.00000 7.03349 4.00000
4.00000 7.03349 4.00000
4.00000 7.03348 4.00000
4.00000 7.03348 4.00000
4.00000 7.03348 4.00000
4.00000 7.03348 4.00000
4.00000 7.03348 4.00000
4.00000 7.03348 4.00000
4.00000 7.03348 4.00000
4.00000 7.03348 4.00000
4.00000 7.03348 4.00000
4.00000 7.03348 4.00000
4.00000 7.03348 4.00000
4.00000 7.03348 4.00000
4.00000 7.03348 4.00000
4.00000 7.03348 4.00000
4.00000 7.03348 4.00000
4.00000 7.03348 4.00000
4.00000 7.03348 4.00000
4.00000 7.03348 4.00000
4.00000 7.03348 4.00000
4.00000 7.03347 4.00000
4.00000 7.03349 4.00000
4.00000 7.03348 4.00000
4.00000 7.03347 4.00000
4.00000 7.03347 4.00000
4.00000 7.03348 4.00000
4.00000 7.03348 4.00000
4.00000 7.03348 4.00000
4.00000 7.03348 4.00000
4.00000 7.03348 4.00000
4.00000 7.03348 4.00000
4.00000 7.03348 4.00000
4.00000 7.03348 4.00000
4.00000 7.03348 4.00000
4.00000 7.03348 4.00000
4.00000 7.03348 4.00000
4.00000 7.03348 4.00000
4.00000 7.03348 4.00000
4.00000 7.03348 4.00000
4.00000 7.03348 4.00000
4.00000 7.03348 4.00000
4.00000 7.03348 4.00000
4.00000 7.03348 4.00000
4.00000 7.03348 4.00000
4.00000 7.03348 4.00000
4.00000 7.03348 4.00000
4.00000 7.03348 4.00000
4.00000 7.03347 4.00000
4.00000 7.03349 4.00000
4.00000 7.03348 4.00000
4.00000 7.03348 4.00000
4.00000 7.03348 4.00000
4.00000 7.03348 4.00000
4.00000 7.03348 4.00000
4.00000 7.03349 4.00000
4.00000 7.03348 4.00000
4.00000 7.03348 4.00000
4.00000 7.03348 4.00000
4.00000 7.03348 4.00000
4.00000 7.03348 4.00000
4.00000 7.03348 4.00000
4.00000 7.03348 4.00000
4.00000 7.03348 4.00000
4.00000 7.03348 4.00000
4.00000 7.03348 4.00000
4.00000 7.03348 4.00000
4.00000 7.03348 4.00000
4.00000 7.03348 4.00000
4.00000 7.03348 4.00000
4.00000 7.03348 4.00000
4.00000 7.03348 4.00000
4.00000 7.03348 4.00000
4.00000 7.03348 4.00000
4.00000 7.03348 4.00000
4.00000 7.03348 4.00000
4.00000 7.03348 4.00000
4.00000 7.03348 4.00000
4.00000 7.03348 4.00000
4.00000 7.03348 4.00000
4.00000 7.03347 4.00000
4.00000 7.03348 4.00000
4.00000 7.03348 4.00000
4.00000 7.03348 4.00000
4.00000 7.03348 4.00000
4.00000 7.03348 4.00000
4.00000 7.03348 4.00000
4.00000 7.03347 4.00000
4.00000 7.03348 4.00000
4.00000 7.03348 4.00000
4.00000 7.03348 4.00000
4.00000 7.03348 4.00000
4.00000 7.03348 4.00000
4.00000 7.03348 4.00000
4.00000 7.03348 4.00000
4.00000 7.03348 4.00000
4.00000 7.03348 4.00000
4.00000 7.03348 4.00000
4.00000 7.03348 4.00000
4.00000 7.03348 4.00000
4.00000 7.03348 4.00000
4.00000 7.03348 4.00000
4.00000 7.03348 4.00000
4.00000 7.03348 4.00000
4.00000 7.03348 4.00000
4.00000 7.03348 4.00000
4.00000 7.03348 4.00000
4.00000 7.03349 4.00000
4.00000 7.03348 4.00000
4.00000 7.03348 4.00000
4.00000 7.03348 4.00000
4.00000 7.03348 4.00000
4.00000 7.03348 4.00000
4.00000 7.03348 4.00000
4.00000 7.03348 4.00000
4.00000 7.03348 4.00000
4.00000 7.03348 4.00000
4.00000 7.03348 4.00000
4.00000 7.03348 4.00000
4.00000 7.03348 4.00000
4.00000 7.03348 4.00000
4.00000 7.03348 4.00000
4.00000 7.03348 4.00000
4.00000 7.03348 4.00000
4.00000 7.03348 4.00000
4.00000 7.03348 4.00000
4.00000 7.03348 4.00000
4.00000 7.03348 4.00000
4.00000 7.03348 4.00000
4.00000 7.03348 4.00000
4.00000 7.03348 4.00000
4.00000 7.03348 4.00000
4.00000 7.03348 4.00000
4.00000 7.03348 4.00000
4.00000 7.03348 4.00000
4.00000 7.03348 4.00000
4.00000 7.03348 4.00000
4.00000 7.03348 4.00000
4.00000 7.03348 4.00000
4.00000 7.03348 4.00000
4.00000 7.03348 4.00000
4.00000 7.03348 4.00000
4.00000 7.03348 4.00000
4.00000 7.03348 4.00000
4.00000 7.03347 4.00000
4.00000 7.03347 4.00000
4.00000 7.03347 4.00000
4.00000 7.03348 4.00000
4.00000 7.03348 4.00000
4.00000 7.03348 4.00000
4.00000 7.03348 4.00000
4.00000 7.03348 4.00000
4.00000 7.03348 4.00000
4.00000 7.03348 4.00000
4.00000 7.03348 4.00000
4.00000 7.03348 4.00000
4.00000 7.03348 4.00000
4.00000 7.03348 4.00000
4.00000 7.03348 4.00000
4.00000 7.03348 4.00000
4.00000 7.03348 4.00000
4.00000 7.03352 4.00000
4.00000 7.03348 4.00000
4.00231 7.07423 4.00231
4.00640 7.14749 4.00640
4.01044 7.22103 4.01044
4.01442 7.29480 4.01442
4.01838 7.36876 4.01839
4.02233 7.44286 4.02233
4.02627 7.51707 4.02628
4.03024 7.59133 4.03024
4.03422 7.66562 4.03422
4.03826 7.73987 4.03826
4.04236 7.81403 4.04236
4.04654 7.88806 4.04654
4.05083 7.96189 4.05083
4.05525 8.03545 4.05525
4.05983 8.10866 4.05983
4.06460 8.18145 4.06460
4.06959 8.25371 4.06959
4.07486 8.32533 4.07486
4.08045 8.39617 4.08045
4.08642 8.46608 4.08642
4.09286 8.53487 4.09286
4.09983 8.60231 4.09983
4.10745 8.66816 4.10745
4.11573 8.73239 4.11573
4.12463 8.79514 4.12463
4.13418 8.85633 4.13418
4.14442 8.91590 4.14441
4.15537 8.97380 4.15537
4.16706 9.02999 4.16706
4.17951 9.08444 4.17951
4.19273 9.13715 4.19273
4.20674 9.18810 4.20674
4.22154 9.23733 4.22154
4.23712 9.28485 4.23712
4.25347 9.33072 4.25347
4.27059 9.37498 4.27059
4.28846 9.41769 4.28847
4.30706 9.45892 4.30706
4.32637 9.49873 4.32637
4.34636 9.53720 4.34636
4.36701 9.57439 4.36700
4.38829 9.61035 4.38829
4.41020 9.64514 4.41020
4.43271 9.67879 4.43272
4.45583 9.71132 4.45584
4.47957 9.74268 4.47957
4.50396 9.77282 4.50395
4.52907 9.80155 4.52906
4.55503 9.82858 4.55503
4.58209 9.85334 4.58209
4.61072 9.87479 4.61072
4.64176 9.89098 4.64176
4.67679 9.89839 4.67679
4.01807 7.36284 7.86787
4.01577 7.31993 7.99567
4.01388 7.28479 8.11569
4.01230 7.25538 8.22998
4.01094 7.23040 8.33987
4.00977 7.20893 8.44627
4.00876 7.19031 8.54985
4.00786 7.17404 8.65112
4.00708 7.15975 8.75046
4.00638 7.14712 8.84819
4.00576 7.13592 8.94452
4.00521 7.12595 9.03968
4.00471 7.11706 9.13382
4.00427 7.10910 9.22707
4.00386 7.10196 9.31957
4.00351 7.09555 9.41137
4.00319 7.08978 9.50259
4.00289 7.08457 9.59330
4.00263 7.07987 9.68356
4.00239 7.07562 9.77342
4.00217 7.07178 9.86292
4.00198 7.06830 9.95211
4.00180 7.06516 10.04102
4.00164 7.06229 10.12970
4.00149 7.05970 10.21817
4.00136 7.05733 10.30645
4.00124 7.05521 10.39455
4.00113 7.05326 10.48251
4.00103 7.05149 10.57035
4.00093 7.04988 10.65808
4.00085 7.04843 10.74570
4.00078 7.04710 10.83324
4.00071 7.04589 10.92072
4.00064 7.04478 11.00813
4.00059 7.04378 11.09548
4.00053 7.04287 11.18280
4.00049 7.04203 11.27008
4.00044 7.04128 11.35733
4.00041 7.04059 11.44455
4.00037 7.03996 11.53175
4.00034 7.03938 11.61895
4.00031 7.03886 11.70613
4.00028 7.03838 11.79331
4.00025 7.03795 11.88049
4.00023 7.03755 11.96767
4.00021 7.03719 12.05486
4.00019 7.03686 12.14205
4.00018 7.03656 12.22925
4.00016 7.03629 12.31646
4.00015 7.03604 12.40369
4.00013 7.03582 12.49093
4.00012 7.03558 12.57823
4.00011 7.03542 12.66547
4.00010 7.03525 12.75276
4.00009 7.03510 12.84007
4.00008 7.03495 12.92741
4.00008 7.03482 13.01476
4.00007 7.03471 13.10214
4.00006 7.03460 13.18955
4.00006 7.03449 13.27699
4.00005 7.03440 13.36441
4.00005 7.03432 13.45188
4.00004 7.03424 13.53938
4.00004 7.03417 13.62690
4.00004 7.03411 13.71445
4.00003 7.03406 13.80203
4.00003 7.03401 13.88962
4.00003 7.03396 13.97725
4.00003 7.03392 14.06490
4.00002 7.03388 14.15258
4.00002 7.03384 14.24028
4.00002 7.03381 14.32800
4.00002 7.03378 14.41575
4.00002 7.03375 14.50352
4.00001 7.03373 14.59132
4.00001 7.03371 14.67914
4.00001 7.03369 14.76699
4.00001 7.03367 14.85486
4.00001 7.03365 14.94275
4.00001 7.03363 15.03066
4.00001 7.03362 15.11860
4.00001 7.03361 15.20656
4.00001 7.03360 15.29454
4.00001 7.03359 15.38254
4.00001 7.03357 15.47057
4.00001 7.03357 15.55860
4.00000 7.03356 15.64667
4.00000 7.03355 15.73476
4.00000 7.03354 15.82287
4.00000 7.03354 15.91099
4.00000 7.03354 15.99913
4.00000 7.03354 16.08689
4.00000 7.03353 16.17507
4.00000 7.03352 16.26327
4.00000 7.03352 16.35148
4.00000 7.03351 16.43972
4.00000 7.03351 16.52797
4.00000 7.03351 16.61625
4.00000 7.03351 16.70454
4.00000 7.03350 16.79285
4.00000 7.03350 16.88118
4.00000 7.03350 16.96953
4.00000 7.03350 17.05789
4.00000 7.03350 17.14628
4.00000 7.03349 17.23468
4.00000 7.03349 17.32310
4.00000 7.03349 17.41154
4.00000 7.03349 17.49999
4.00000 7.03349 17.58846
4.00000 7.03349 17.67695
4.00000 7.03349 17.76545
4.00000 7.03349 17.85397
4.00000 7.03349 17.94250
4.00000 7.03349 18.03106
4.00000 7.03348 18.11962
4.00000 7.03348 18.20820
4.00000 7.03348 18.29679
4.00000 7.03348 18.38539
4.00000 7.03348 18.47401
4.00000 7.03348 18.56265
4.00000 7.03348 18.65130
4.00000 7.03348 18.73996
4.00000 7.03348 18.82864
4.00000 7.03348 18.91733
4.00000 7.03348 19.00604
4.00000 7.03348 19.09475
4.00000 7.03348 19.18349
4.00000 7.03348 19.27223
4.00000 7.03348 19.36099
4.00000 7.03348 19.44976
4.00000 7.03348 19.53854
4.00000 7.03348 19.62734
4.00000 7.03348 19.71615
4.00000 7.03348 19.80497
4.00000 7.03348 19.89381
4.00000 7.03348 19.98265
4.00000 7.03348 20.07151
4.00000 7.03347 20.16039
4.00000 7.03348 20.24927
4.00000 7.03348 20.33816
4.00000 7.03348 20.42707
4.00000 7.03347 20.51599
4.00000 7.03348 20.60491
4.00000 7.03347 20.69386
4.00000 7.03348 20.78280
4.00000 7.03347 20.87177
4.00000 7.03348 20.96074
4.00000 7.03347 21.04973
4.00000 7.03348 21.13871
4.00000 7.03348 21.22771
4.00000 7.03348 21.31673
4.00000 7.03348 21.40575
4.00000 7.03348 21.49478
4.00000 7.03348 21.58382
4.00000 7.03348 21.67288
4.00000 7.03348 21.76195
4.00000 7.03348 21.85102
4.00000 7.03348 21.94010
4.00000 7.03348 22.02919
4.00000 7.03348 22.11829
4.00000 7.03348 22.20740
4.00000 7.03348 22.29652
4.00000 7.03348 22.38564
4.00000 7.03348 22.47478
4.00000 7.03348 22.56393
4.00000 7.03348 22.65309
4.00000 7.03348 22.74225
4.00000 7.03348 22.83143
4.00000 7.03348 22.92061
4.00000 7.03348 23.00980
4.00000 7.03348 23.09900
4.00000 7.03348 23.18821
4.00000 7.03348 23.27743
4.00000 7.03348 23.36666
4.00000 7.03348 23.45589
4.00000 7.03348 23.54514
4.00000 7.03348 23.63439

Angle 0.416535 3.404438

4.00000 7.03348 4.00000
4.00000 7.03348 4.00000
4.00000 7.03348 4.00000
4.00000 7.03347 4.00000
4.00000 7.03348 4.00000
4.00000 7.03348 4.00000
4.00000 7.03348 4.00000
4.00000 7.03348 4.00000
4.00000 7.03348 4.00000
4.00000 7.03348 4.00000
4.00000 7.03348 4.00000
4.00000 7.03348 4.00000
4.00000 7.03348 4.00000
4.00000 7.03348 4.00000
4.00000 7.03348 4.00000
4.00000 7.03348 4.00000
4.00000 7.03348 4.00000
4.00000 7.03348 4.00000
4.00000 7.03348 4.00000
4.00000 7.03348 4.00000
4.00000 7.03348 4.00000
4.00000 7.03348 4.00000
4.00000 7.03348 4.00000
4.00000 7.03348 4.00000
4.00000 7.03348 4.00000
4.00000 7.03349 4.00000
4.00000 7.03349 4.00000
4.00000 7.03349 4.00000
4.00000 7.03348 4.00000
4.00000 7.03348 4.00000
4.00000 7.03348 4.00000
4.00000 7.03348 4.00000
4.00000 7.03346 4.00000
4.00000 7.03348 4.00000
4.00000 7.03348 4.00000
4.00000 7.03348 4.00000
4.00000 7.03348 4.00000
4.00000 7.03347 4.00000
4.00000 7.03348 4.00000
4.00000 7.03348 4.00000
4.00000 7.03348 4.00000
4.00000 7.03348 4.00000
4.00000 7.03348 4.00000
4.00000 7.03348 4.00000
4.00000 7.03348 4.00000
4.00000 7.03348 4.00000
4.00000 7.03348 4.00000
4.00000 7.03348 4.00000
4.00000 7.03348 4.00000
4.00000 7.03348 4.00000
4.00000 7.03348 4.00000
4.00000 7.03348 4.00000
4.00000 7.03348 4.00000
4.00000 7.03348 4.00000
4.00000 7.03348 4.00000
4.00000 7.03348 4.00000
4.00000 7.03348 4.00000
4.00000 7.03347 4.00000
4.00000 7.03347 4.00000
4.00000 7.03348 4.00000
4.00000 7.03347 4.00000
4.00000 7.03347 4.00000
4.00000 7.03348 4.00000
4.00000 7.03348 4.00000
4.00000 7.03347 4.00000
4.00000 7.03347 4.00000
4.00000 7.03348 4.00000
4.00000 7.03348 4.00000
4.00000 7.03348 4.00000
4.00000 7.03348 4.00000
4.00000 7.03348 4.00000
4.00000 7.03348 4.00000
4.00000 7.03348 4.00000
4.00000 7.03348 4.00000
4.00000 7.03347 4.00000
4.00000 7.03348 4.00000
4.00000 7.03348 4.00000
4.00000 7.03348 4.00000
4.00000 7.03348 4.00000
4.00000 7.03348 4.00000
4.00000 7.03348 4.00000
4.00000 7.03348 4.00000
4.00000 7.03348 4.00000
4.00000 7.03348 4.00000
4.00000 7.03348 4.00000
4.00000 7.03348 4.00000
4.00000 7.03348 4.00000
4.00000 7.03351 4.00000
4.00000 7.03347 4.00000
4.00000 7.03348 4.00000
4.00000 7.03348 4.00000
4.00000 7.03348 4.00000
4.00000 7.03348 4.00000
4.00000 7.03348 4.00000
4.00000 7.03348 4.00000
4.00000 7.03348 4.00000
4.00000 7.03348 4.00000
4.00000 7.03348 4.00000
4.00000 7.03348 4.00000
4.00000 7.03348 4.00000
4.00000 7.03347 4.00000
4.00000 7.03348 4.00000
4.00000 7.03348 4.00000
4.00000 7.03348 4.00000
4.00000 7.03348 4.00000
4.00000 7.03348 4.00000
4.00000 7.03348 4.00000
4.00000 7.03348 4.00000
4.00000 7.03348 4.00000
4.00000 7.03348 4.00000
4.00000 7.03348 4.00000
4.00000 7.03348 4.00000
4.00000 7.03348 4.00000
4.00000 7.03348 4.00000
4.00000 7.03347 4.00000
4.00000 7.03348 4.00000
4.00000 7.03348 4.00000
4.00000 7.03348 4.00000
4.00000 7.03348 4.00000
4.00000 7.03348 4.00000
4.00000 7.03347 4.00000
4.00000 7.03348 4.00000
4.00000 7.03348 4.00000
4.00000 7.03348 4.00000
4.00000 7.03348 4.00000
4.00000 7.03348 4.00000
4.00000 7.03348 4.00000
4.00000 7.03348 4.00000
4.00000 7.03348 4.00000
4.00000 7.03348 4.00000
4.00000 7.03348 4.00000
4.00000 7.03348 4.00000
4.00000 7.03348 4.00000
4.00000 7.03348 4.00000
4.00000 7.03348 4.00000
4.00000 7.03348 4.00000
4.00000 7.03348 4.00000
4.00000 7.03348 4.00000
4.00000 7.03348 4.00000
4.00000 7.03348 4.00000
4.00000 7.03348 4.00000
4.00000 7.03348 4.00000
4.00000 7.03348 4.00000
4.00000 7.03348 4.00000
4.00000 7.03348 4.00000
4.00000 7.03348 4.00000
4.00000 7.03348 4.00000
4.00000 7.03348 4.00000
4.00000 7.03348 4.00000
4.00000 7.03348 4.00000
4.00000 7.03348 4.00000
4.00000 7.03348 4.00000
4.00000 7.03348 4.00000
4.00000 7.03348 4.00000
4.00000 7.03348 4.00000
4.00000 7.03348 4.00000
4.00000 7.03348 4.00000
4.00000 7.03348 4.00000
4.00000 7.03348 4.00000
4.00000 7.03348 4.00000
4.00000 7.03348 4.00000
4.00000 7.03349 4.00000
4.00000 7.03348 4.00000
4.00000 7.03348 4.00000
4.00000 7.03348 4.00000
4.00000 7.03348 4.00000
4.00000 7.03348 4.00000
4.00000 7.03348 4.00000
4.00000 7.03348 4.00000
4.00000 7.03348 4.00000
4.00000 7.03348 4.00000
4.00000 7.03348 4.00000
4.00000 7.03348 4.00000
4.00000 7.03348 4.00000
4.00000 7.03348 4.00000
4.00000 7.03348 4.00000
4.00000 7.03348 4.00000
4.00000 7.03348 4.00000
4.00000 7.03348 4.00000
4.00000 7.03348 4.00000
4.00000 7.03349 4.00000
4.00000 7.03347 4.00000
4.00000 7.03348 4.00000
4.00000 7.03348 4.00000
4.00000 7.03348 4.00000
4.00000 7.03348 4.00000
4.00000 7.03348 4.00000
4.00000 7.03348 4.00000
4.00000 7.03348 4.00000
4.00000 7.03348 4.00000
4.00000 7.03348 4.00000
4.00000 7.03348 4.00000
4.00000 7.03348 4.00000
4.00000 7.03348 4.00000
4.00000 7.03347 4.00000
4.00000 7.03348 4.00000
4.00177 7.06464 4.00177
4.00586 7.13769 4.00586
4.00989 7.21102 4.00989
4.01387 7.28459 4.01387
4.01783 7.35837 4.01783
4.02177 7.43228 4.02177
4.02570 7.50631 4.02570
4.02965 7.58041 4.02965
4.03363 7.65453 4.03363
4.03765 7.72863 4.03765
4.04172 7.80266 4.04172
4.04588 7.87656 4.04588
4.05015 7.95027 4.05015
4.05453 8.02373 4.05453
4.05907 8.09686 4.05908
4.06380 8.16958 4.06380
4.06875 8.24180 4.06875
4.07396 8.31340 4.07396
4.07948 8.38425 4.07948
4.08537 8.45419 4.08537
4.09171 8.52306 4.09171
4.09857 8.59064 4.09857
4.10605 8.65666 4.10606
4.11421 8.72105 4.11421
4.12298 8.78396 4.12298
4.13239 8.84533 4.13239
4.14248 8.90510 4.14248
4.15328 8.96321 4.15328
4.16482 9.01963 4.16482
4.17710 9.07431 4.17710
4.19016 9.12726 4.19016
4.20399 9.17847 4.20400
4.21862 9.22795 4.21862
4.23403 9.27572 4.23402
4.25020 9.32184 4.25020
4.26715 9.36634 4.26715
4.28484 9.40929 4.28484
4.30327 9.45075 4.30327
4.32241 9.49079 4.32241
4.34223 9.52946 4.34222
4.36271 9.56685 4.36271
4.38384 9.60301 4.38384
4.40559 9.63800 4.40559
4.42795 9.67184 4.42795
4.45091 9.70455 4.45091
4.47448 9.73612 4.47448
4.49869 9.76648 4.49869
4.52359 9.79550 4.52360
4.54933 9.82290 4.54933
4.57609 9.84818 4.57609
4.60429 9.87046 4.60427
4.63465 9.88801 4.63465
4.66857 9.89776 4.66857
7.83804 7.37375 4.01865
7.96781 7.32878 4.01625
8.08921 7.29214 4.01428
8.20452 7.26162 4.01263
8.31518 7.23575 4.01123
8.42218 7.21357 4.01003
8.52619 7.19440 4.00898
8.62788 7.17761 4.00806
8.72754 7.16290 4.00725
8.82549 7.14993 4.00654
8.92202 7.13844 4.00590
9.01733 7.12821 4.00533
9.11160 7.11908 4.00482
9.20494 7.11092 4.00437
9.29750 7.10360 4.00396
9.38936 7.09703 4.00359
9.48063 7.09111 4.00326
9.57136 7.08578 4.00296
9.66163 7.08097 4.00269
9.75148 7.07662 4.00245
9.84097 7.07269 4.00222
9.93014 7.06913 4.00202
10.01904 7.06590 4.00184
10.10768 7.06298 4.00168
10.19610 7.06032 4.00153
10.28433 7.05791 4.00139
10.37239 7.05573 4.00127
10.46030 7.05374 4.00115
10.54809 7.05193 4.00105
10.63576 7.05029 4.00096
10.72334 7.04878 4.00087
10.81081 7.04743 4.00079
10.89822 7.04619 4.00072
10.98558 7.04506 4.00065
11.07286 7.04403 4.00060
11.16009 7.04310 4.00055
11.24731 7.04225 4.00050
11.33449 7.04147 4.00046
11.42163 7.04077 4.00042
11.50878 7.04012 4.00038
11.59590 7.03953 4.00035
11.68301 7.03900 4.00031
11.77012 7.03850 4.00029
11.85722 7.03806 4.00026
11.94432 7.03765 4.00024
12.03144 7.03729 4.00022
12.11856 7.03695 4.00020
12.20568 7.03664 4.00019
12.29282 7.03636 4.00017
12.37997 7.03611 4.00015
12.46715 7.03587 4.00014
12.55433 7.03566 4.00012
12.64153 7.03547 4.00011
12.72876 7.03529 4.00010
12.81600 7.03513 4.00009
12.90327 7.03498 4.00009
12.99055 7.03485 4.00008
13.07785 7.03473 4.00007
13.16518 7.03462 4.00006
13.25254 7.03452 4.00006
13.33992 7.03442 4.00005
13.42731 7.03434 4.00005
13.51475 7.03426 4.00004
13.60220 7.03419 4.00004
13.68968 7.03413 4.00004
13.77715 7.03407 4.00003
13.86467 7.03402 4.00003
13.95223 7.03397 4.00003
14.03980 7.03393 4.00003
14.12740 7.03389 4.00002
14.21502 7.03385 4.00002
14.30267 7.03382 4.00002
14.39035 7.03379 4.00002
14.47805 7.03376 4.00002
14.56578 7.03374 4.00001
14.65353 7.03371 4.00001
14.74131 7.03369 4.00001
14.82910 7.03367 4.00001
14.91693 7.03365 4.00001
15.00478 7.03364 4.00001
15.09265 7.03362 4.00001
15.18055 7.03361 4.00001
15.26848 7.03359 4.00001
15.35641 7.03359 4.00001
15.44438 7.03358 4.00001
15.53237 7.03357 4.00001
15.62038 7.03356 4.00000
15.70842 7.03355 4.00000
15.79647 7.03355 4.00000
15.88455 7.03354 4.00000
15.97264 7.03354 4.00000
16.06076 7.03353 4.00000
16.14889 7.03353 4.00000
16.23705 7.03352 4.00000
16.32522 7.03352 4.00000
16.41341 7.03351 4.00000
16.50164 7.03351 4.00000
16.58987 7.03351 4.00000
16.67812 7.03351 4.00000
16.76640 7.03350 4.00000
16.85469 7.03350 4.00000
16.94301 7.03349 4.00000
17.03135 7.03350 4.00000
17.11971 7.03350 4.00000
17.20808 7.03349 4.00000
17.29648 7.03349 4.00000
17.38489 7.03349 4.00000
17.47332 7.03349 4.00000
17.56176 7.03349 4.00000
17.65023 7.03349 4.00000
17.73871 7.03349 4.00000
17.82721 7.03349 4.00000
17.91572 7.03349 4.00000
18.00425 7.03349 4.00000
18.09280 7.03349 4.00000
18.18136 7.03349 4.00000
18.26994 7.03348 4.00000
18.35853 7.03348 4.00000
18.44714 7.03348 4.00000
18.53577 7.03348 4.00000
18.62441 7.03348 4.00000
18.71306 7.03348 4.00000
18.80173 7.03348 4.00000
18.89041 7.03348 4.00000
18.97911 7.03348 4.00000
19.06782 7.03348 4.00000
19.15655 7.03348 4.00000
19.24528 7.03348 4.00000
19.33404 7.03348 4.00000
19.42280 7.03347 4.00000
19.51157 7.03348 4.00000
19.60036 7.03347 4.00000
19.68915 7.03348 4.00000
19.77796 7.03348 4.00000
19.86678 7.03348 4.00000
19.95562 7.03348 4.00000
20.04447 7.03347 4.00000
20.13333 7.03348 4.00000
20.22222 7.03348 4.00000
20.31109 7.03348 4.00000
20.40001 7.03348 4.00000
20.48892 7.03348 4.00000
20.57785 7.03348 4.00000
20.66680 7.03347 4.00000
20.75574 7.03348 4.00000
20.84471 7.03348 4.00000
20.93368 7.03348 4.00000
21.02267 7.03348 4.00000
21.11166 7.03348 4.00000
21.20067 7.03348 4.00000
21.28969 7.03348 4.00000

Angle 0.609681 2.624922

4.00000 7.03348 4.00000
4.00000 7.03348 4.00000
4.00000 7.03348 4.00000
4.00000 7.03348 4.00000
4.00000 7.03348 4.00000
4.00000 7.03348 4.00000
4.00000 7.03348 4.00000
4.00000 7.03348 4.00000
4.00000 7.03348 4.00000
4.00000 7.03348 4.00000
4.00000 7.03348 4.00000
4.00000 7.03348 4.00000
4.00000 7.03348 4.00000
4.00000 7.03348 4.00000
4.00000 7.03348 4.00000
4.00000 7.03348 4.00000
4.00000 7.03348 4.00000
4.00000 7.03348 4.00000
4.00000 7.03348 4.00000
4.00000 7.03348 4.00000
4.00000 7.03348 4.00000
4.00000 7.03348 4.00000
4.00000 7.03348 4.00000
4.00000 7.03348 4.00000
4.00000 7.03348 4.00000
4.00000 7.03348 4.00000
4.00000 7.03347 4.00000
4.00000 7.03347 4.00000
4.00000 7.03348 4.00000
4.00000 7.03348 4.00000
4.00000 7.03348 4.00000
4.00000 7.03348 4.00000
4.00000 7.03348 4.00000
4.00000 7.03348 4.00000
4.00000 7.03348 4.00000
4.00000 7.03348 4.00000
4.00000 7.03348 4.00000
4.00000 7.03347 4.00000
4.00000 7.03347 4.00000
4.00000 7.03347 4.00000
4.00000 7.03348 4.00000
4.00000 7.03350 4.00000
4.00000 7.03348 4.00000
4.00000 7.03348 4.00000
4.00000 7.03348 4.00000
4.00000 7.03348 4.00000
4.00000 7.03348 4.00000
4.00000 7.03348 4.00000
4.00000 7.03348 4.00000
4.00000 7.03348 4.00000
4.00000 7.03348 4.00000
4.00000 7.03348 4.00000
4.00000 7.03348 4.00000
4.00000 7.03348 4.00000
4.00000 7.03348 4.00000
4.00000 7.03348 4.00000
4.00000 7.03348 4.00000
4.00000 7.03348 4.00000
4.00000 7.03348 4.00000
4.00000 7.03348 4.00000
4.00000 7.03348 4.00000
4.00000 7.03348 4.00000
4.00000 7.03348 4.00000
4.00000 7.03348 4.00000
4.00000 7.03348 4.00000
4.00000 7.03348 4.00000
4.00000 7.03348 4.00000
4.00000 7.03348 4.00000
4.00000 7.03348 4.00000
4.00000 7.03348 4.00000
4.00000 7.03348 4.00000
4.00000 7.03348 4.00000
4.00000 7.03348 4.00000
4.00000 7.03348 4.00000
4.00000 7.03348 4.00000
4.00000 7.03348 4.00000
4.00000 7.03348 4.00000
4.00000 7.03348 4.00000
4.00000 7.03348 4.00000
4.00000 7.03348 4.00000
4.00000 7.03348 4.00000
4.00000 7.03348 4.00000
4.00000 7.03348 4.00000
4.00000 7.03348 4.00000
4.00000 7.03348 4.00000
4.00000 7.03348 4.00000
4.00000 7.03348 4.00000
4.00000 7.03348 4.00000
4.00000 7.03348 4.00000
4.00000 7.03348 4.00000
4.00000 7.03348 4.00000
4.00000 7.03348 4.00000
4.00000 7.03348 4.00000
4.00000 7.03348 4.00000
4.00000 7.03348 4.00000
4.00000 7.03348 4.00000
4.00000 7.03348 4.00000
4.00000 7.03348 4.00000
4.00000 7.03348 4.00000
4.00000 7.03348 4.00000
4.00000 7.03348 4.00000
4.00000 7.03348 4.00000
4.00000 7.03348 4.00000
4.00000 7.03348 4.00000
4.00000 7.03348 4.00000
4.00000 7.03348 4.00000
4.00000 7.03348 4.00000
4.00000 7.03348 4.00000
4.00000 7.03348 4.00000
4.00000 7.03348 4.00000
4.00000 7.03347 4.00000
4.00000 7.03347 4.00000
4.00000 7.03348 4.00000
4.00000 7.03348 4.00000
4.00000 7.03348 4.00000
4.00000 7.03347 4.00000
4.00000 7.03347 4.00000
4.00000 7.03347 4.00000
4.00000 7.03348 4.00000
4.00000 7.03348 4.00000
4.00000 7.03348 4.00000
4.00000 7.03347 4.00000
4.00000 7.03348 4.00000
4.00000 7.03348 4.00000
4.00000 7.03349 4.00000
4.00000 7.03348 4.00000
4.00000 7.03348 4.00000
4.00000 7.03348 4.00000
4.00000 7.03348 4.00000
4.00000 7.03349 4.00000
4.00000 7.03348 4.00000
4.00000 7.03348 4.00000
4.00000 7.03348 4.00000
4.00000 7.03346 4.00000
4.00000 7.03348 4.00000
4.00352 7.09576 4.00352
4.00735 7.16473 4.00735
4.01114 7.23400 4.01114
4.01489 7.30352 4.01489
4.01863 7.37326 4.01863
4.02235 7.44319 4.02235
4.02607 7.51326 4.02607
4.02981 7.58344 4.02981
4.03358 7.65370 4.03358
4.03739 7.72399 4.03739
4.04126 7.79426 4.04126
4.04520 7.86447 4.04520
4.04923 7.93457 4.04923
4.05337 8.00450 4.05337
4.05765 8.07420 4.05765
4.06208 8.14360 4.06209
4.06671 8.21261 4.06671
4.07157 8.28115 4.07157
4.07669 8.34910 4.07669
4.08212 8.41634 4.08212
4.08793 8.48273 4.08793
4.09417 8.54810 4.09417
4.10092 8.61224 4.10092
4.10829 8.67492 4.10829
4.11624 8.73620 4.11624
4.12478 8.79614 4.12478
4.13391 8.85469 4.13391
4.14368 8.91179 4.14368
4.15410 8.96739 4.15410
4.16521 9.02145 4.16521
4.17701 9.07394 4.17701
4.18954 9.12485 4.18954
4.20279 9.17418 4.20279
4.21677 9.22193 4.21677
4.23148 9.26813 4.23148
4.24692 9.31280 4.24692
4.26308 9.35598 4.26308
4.27994 9.39773 4.27994
4.29750 9.43810 4.29750
4.31573 9.47714 4.31573
4.33461 9.51491 4.33461
4.35412 9.55147 4.35412
4.37425 9.58689 4.37425
4.39498 9.62119 4.39497
4.41628 9.65443 4.41628
4.43815 9.68663 4.43816
4.46061 9.71778 4.46061
4.48365 9.74786 4.48365
4.50731 9.77679 4.50730
4.53166 9.80438 4.53166
4.55684 9.83035 4.55684
4.58308 9.85417 4.58308
4.61081 9.87485 4.61082
4.64082 9.89061 4.64082
4.67447 9.89829 4.67455
4.01831 7.36729 7.85560
4.01603 7.32475 7.98038
4.01415 7.28979 8.09760
4.01257 7.26047 8.20921
4.01122 7.23544 8.31657
4.01005 7.21391 8.42049
4.00902 7.19516 8.52167
4.00812 7.17876 8.62056
4.00733 7.16431 8.71758
4.00662 7.15151 8.81301
4.00599 7.14013 8.90709
4.00543 7.12998 9.00000
4.00493 7.12090 9.09193
4.00447 7.11276 9.18298
4.00406 7.10545 9.27327
4.00369 7.09885 9.36292
4.00336 7.09290 9.45199
4.00306 7.08753 9.54056
4.00279 7.08267 9.62869
4.00254 7.07826 9.71644
4.00231 7.07427 9.80383
4.00211 7.07065 9.89093
4.00193 7.06736 9.97777
4.00176 7.06437 10.06438
4.00160 7.06165 10.15079
4.00146 7.05918 10.23702
4.00133 7.05693 10.32309
4.00122 7.05487 10.40903
4.00111 7.05299 10.49487
4.00101 7.05130 10.58058
4.00093 7.04975 10.66622
4.00085 7.04834 10.75178
4.00077 7.04704 10.83730
4.00071 7.04586 10.92275
4.00064 7.04476 11.00819
4.00059 7.04381 11.09354
4.00053 7.04291 11.17890
4.00049 7.04209 11.26424
4.00045 7.04134 11.34956
4.00041 7.04065 11.43489
4.00037 7.04004 11.52021
4.00034 7.03947 11.60553
4.00031 7.03895 11.69086
4.00028 7.03847 11.77620
4.00026 7.03804 11.86155
4.00023 7.03764 11.94692
4.00021 7.03728 12.03231
4.00020 7.03695 12.11770
4.00018 7.03665 12.20313
4.00017 7.03637 12.28859
4.00015 7.03612 12.37407
4.00014 7.03589 12.45959
4.00013 7.03569 12.54514
4.00011 7.03548 12.63071
4.00010 7.03531 12.71631
4.00010 7.03516 12.80194
4.00009 7.03501 12.88760
4.00008 7.03488 12.97330
4.00007 7.03475 13.05905
4.00007 7.03464 13.14482
4.00006 7.03455 13.23062
4.00006 7.03445 13.31647
4.00005 7.03436 13.40236
4.00005 7.03429 13.48827
4.00004 7.03421 13.57423
4.00004 7.03415 13.66017
4.00003 7.03410 13.74618
4.00003 7.03404 13.83224
4.00003 7.03398 13.91834
4.00003 7.03395 14.00446
4.00002 7.03390 14.09063
4.00002 7.03387 14.17682
4.00002 7.03383 14.26306
4.00002 7.03380 14.34932
4.00002 7.03377 14.43563
4.00001 7.03375 14.52196
4.00001 7.03372 14.60833
4.00001 7.03370 14.69473
4.00001 7.03368 14.78117
4.00001 7.03366 14.86765
4.00001 7.03365 14.95415
4.00001 7.03363 15.04068
4.00001 7.03362 15.12725
4.00001 7.03360 15.21385
4.00001 7.03359 15.30048
4.00001 7.03358 15.38714
4.00001 7.03357 15.47383
4.00000 7.03356 15.56055
4.00000 7.03355 15.64730
4.00000 7.03355 15.73408
4.00000 7.03355 15.82088
4.00000 7.03353 15.90773
4.00000 7.03353 15.99459
4.00000 7.03353 16.08148
4.00000 7.03353 16.16840
4.00000 7.03353 16.25535
4.00000 7.03351 16.34234
4.00000 7.03351 16.42935
4.00000 7.03351 16.51637
4.00000 7.03351 16.60343
4.00000 7.03351 16.69052
4.00000 7.03350 16.77763
4.00000 7.03350 16.86477
4.00000 7.03350 16.95193
4.00000 7.03350 17.03912
4.00000 7.03350 17.12633
4.00000 7.03350 17.21356
4.00000 7.03349 17.30083
4.00000 7.03349 17.38811
4.00000 7.03349 17.47543
4.00000 7.03349 17.56276
4.00000 7.03349 17.65012
4.00000 7.03349 17.73751
4.00000 7.03349 17.82491
4.00000 7.03349 17.91234
4.00000 7.03349 17.99979
4.00000 7.03349 18.08726
4.00000 7.03348 18.17476
4.00000 7.03348 18.26227
4.00000 7.03348 18.34981
4.00000 7.03348 18.43737
4.00000 7.03348 18.52494
4.00000 7.03348 18.61253
4.00000 7.03348 18.70015
4.00000 7.03348 18.78779
4.00000 7.03348 18.87545
4.00000 7.03348 18.96313
4.00000 7.03348 19.05082
4.00000 7.03348 19.13854
4.00000 7.03348 19.22628
4.00000 7.03348 19.31404
4.00000 7.03348 19.40181
4.00000 7.03348 19.48961
4.00000 7.03348 19.57742
4.00000 7.03348 19.66525
4.00000 7.03348 19.75310
4.00000 7.03348 19.84097
4.00000 7.03348 19.92886
4.00000 7.03348 20.01676
4.00000 7.03348 20.10469
4.00000 7.03348 20.19263
4.00000 7.03348 20.28058
4.00000 7.03348 20.36856
4.00000 7.03348 20.45655
4.00000 7.03348 20.54456
4.00000 7.03348 20.63258
4.00000 7.03348 20.72062
4.00000 7.03348 20.80869
4.00000 7.03348 20.89676
4.00000 7.03348 20.98485
4.00000 7.03348 21.07295
4.00000 7.03348 21.16107
4.00000 7.03347 21.24921
4.00000 7.03348 21.33736
4.00000 7.03349 21.42551
4.00000 7.03348 21.51370
4.00000 7.03348 21.60190
4.00000 7.03349 21.69010
4.00000 7.03348 21.77833
4.00000 7.03347 21.86658
4.00000 7.03348 21.95483
4.00000 7.03348 22.04310
4.00000 7.03347 22.13139
4.00000 7.03348 22.21968
4.00000 7.03348 22.30799
4.00000 7.03348 22.39632
4.00000 7.03348 22.48466
4.00000 7.03348 22.57301
4.00000 7.03348 22.66138
4.00000 7.03348 22.74976
4.00000 7.03348 22.83815
4.00000 7.03348 22.92656
4.00000 7.03348 23.01497
4.00000 7.03348 23.10341
4.00000 7.03348 23.19184
4.00000 7.03348 23.28030
4.00000 7.03348 23.36876
4.00000 7.03348 23.45724
4.00000 7.03348 23.54573
4.00000 7.03348 23.63423
4.00000 7.03348 23.72274
4.00000 7.03348 23.81126
4.00000 7.03348 23.89979
4.00000 7.03348 23.98834
4.00000 7.03348 24.07689
4.00000 7.03348 24.16546
4.00000 7.03348 24.25404
4.00000 7.03348 24.34263
4.00000 7.03348 24.43123
4.00000 7.03348 24.51984
4.00000 7.03348 24.60846
4.00000 7.03348 24.69709
4.00000 7.03348 24.78573
4.00000 7.03348 24.87439
4.00000 7.03348 24.96305
4.00000 7.03348 25.05172
4.00000 7.03348 25.14041
4.00000 7.03348 25.22910
4.00000 7.03348 25.31780
4.00000 7.03348 25.40652
4.00000 7.03348 25.49524
4.00000 7.03348 25.58397
4.00000 7.03348 25.67271
4.00000 7.03348 25.76146
4.00000 7.03348 25.85023
4.00000 7.03348 25.93900
4.00000 7.03348 26.02778
4.00000 7.03348 26.11656
4.00000 7.03348 26.20536
4.00000 7.03348 26.29417

Angle 0.162603 1.412819

4.01480 7.30185 4.01480
4.01575 7.31957 4.01575
4.01673 7.33779 4.01673
4.01773 7.35649 4.01773
4.01876 7.37569 4.01875
4.01980 7.39537 4.01980
4.02088 7.41554 4.02088
4.02198 7.43619 4.02198
4.02310 7.45731 4.02310
4.02425 7.47891 4.02425
4.02542 7.50098 4.02542
4.02662 7.52353 4.02662
4.02785 7.54653 4.02785
4.02910 7.56999 4.02910
4.03037 7.59392 4.03037
4.03168 7.61829 4.03168
4.03301 7.64311 4.03301
4.03437 7.66837 4.03437
4.03576 7.69407 4.03576
4.03719 7.72020 4.03719
4.03864 7.74676 4.03864
4.04012 7.77373 4.04012
4.04164 7.80113 4.04164
4.04319 7.82892 4.04319
4.04478 7.85712 4.04478
4.04641 7.88571 4.04641
4.04807 7.91469 4.04807
4.04978 7.94404 4.04978
4.05153 7.97375 4.05153
4.05333 8.00383 4.05333
4.05518 8.03425 4.05518
4.05707 8.06501 4.05707
4.05903 8.09609 4.05903
4.06104 8.12748 4.06104
4.06311 8.15918 4.06311
4.06525 8.19115 4.06525
4.06746 8.22340 4.06746
4.06975 8.25589 4.06975
4.07212 8.28862 4.07212
4.07457 8.32156 4.07457
4.07713 8.35469 4.07713
4.07978 8.38799 4.07978
4.08255 8.42142 4.08255
4.08544 8.45498 4.08544
4.08847 8.48861 4.08847
4.09163 8.52229 4.09163
4.09496 8.55597 4.09496
4.09846 8.58963 4.09846
4.10215 8.62321 4.10215
4.10605 8.65665 4.10605
4.11017 8.68995 4.11017
4.11449 8.72314 4.11449
4.11901 8.75622 4.11901
4.12374 8.78916 4.12374
4.12870 8.82194 4.12870
4.13388 8.85454 4.13388
4.13931 8.88692 4.13931
4.14499 8.91908 4.14499
4.15093 8.95098 4.15093
4.15713 8.98261 4.15713
4.16361 9.01395 4.16360
4.17037 9.04498 4.17037
4.17742 9.07567 4.17742
4.18478 9.10602 4.18478
4.19243 9.13601 4.19244
4.20041 9.16563 4.20041
4.20870 9.19486 4.20870
4.21731 9.22370 4.21731
4.22625 9.25213 4.22625
4.23552 9.28016 4.23552
4.24512 9.30778 4.24512
4.25506 9.33498 4.25506
4.26534 9.36177 4.26534
4.27596 9.38814 4.27595
4.28691 9.41410 4.28691
4.29820 9.43965 4.29820
4.30983 9.46480 4.30983
4.32180 9.48955 4.32180
4.33410 9.51392 4.33410
4.34673 9.53789 4.34673
4.35969 9.56148 4.35969
4.37297 9.58470 4.37297
4.38659 9.60756 4.38659
4.40053 9.63004 4.40053
4.41479 9.65217 4.41478
4.42937 9.67392 4.42937
4.44428 9.69531 4.44428
4.45952 9.71632 4.45953
4.47510 9.73693 4.47511
4.49103 9.75711 4.49103
4.50733 9.77681 4.50733
4.52403 9.79598 4.52403
4.54116 9.81451 4.54116
4.55880 9.83225 4.55880
4.57703 9.84901 4.57703
4.59600 9.86444 4.59600
4.61592 9.87806 4.61592
4.63713 9.88910 4.63714
4.66015 9.89640 4.66015
7.76234 7.40310 4.02022
7.85761 7.36655 4.01827
7.94777 7.33531 4.01660
8.03402 7.30819 4.01514
8.11718 7.28438 4.01386
8.19786 7.26327 4.01272
8.27650 7.24443 4.01170
8.35344 7.22752 4.01079
8.42897 7.21225 4.00996
8.50329 7.19842 4.00920
8.57658 7.18584 4.00851
8.64900 7.17436 4.00788
8.72067 7.16387 4.00730
8.79169 7.15425 4.00677
8.86214 7.14542 4.00629
8.93211 7.13730 4.00584
9.00167 7.12981 4.00542
9.07087 7.12291 4.00504
9.13977 7.11652 4.00468
9.20839 7.11063 4.00435
9.27679 7.10518 4.00405
9.34502 7.10012 4.00376
9.41309 7.09543 4.00350
9.48103 7.09109 4.00326
9.54887 7.08706 4.00303
9.61663 7.08330 4.00282
9.68432 7.07983 4.00263
9.75198 7.07660 4.00245
9.81962 7.07359 4.00228
9.88725 7.07080 4.00212
9.95488 7.06820 4.00197
10.02254 7.06578 4.00183
10.09021 7.06353 4.00171
10.15793 7.06144 4.00159
10.22570 7.05949 4.00148
10.29355 7.05766 4.00138
10.36142 7.05599 4.00128
10.42938 7.05442 4.00119
10.49742 7.05295 4.00111
10.56555 7.05159 4.00103
10.63377 7.05032 4.00096
10.70208 7.04914 4.00089
10.77050 7.04803 4.00083
10.83901 7.04701 4.00077
10.90763 7.04606 4.00072
10.97635 7.04518 4.00067
11.04520 7.04435 4.00062
11.11416 7.04358 4.00058
11.18323 7.04286 4.00053
11.25243 7.04220 4.00050
11.32175 7.04158 4.00046
11.39118 7.04100 4.00043
11.46076 7.04046 4.00040
11.53044 7.03996 4.00037
11.60025 7.03950 4.00034
11.67020 7.03907 4.00032
11.74027 7.03867 4.00030
11.81049 7.03829 4.00028
11.88080 7.03795 4.00026
11.95128 7.03762 4.00024
12.02190 7.03732 4.00022
12.09257 7.03705 4.00020
12.16344 7.03679 4.00019
12.23446 7.03654 4.00018
12.30551 7.03632 4.00016
12.37676 7.03612 4.00015
12.44813 7.03592 4.00014
12.51964 7.03574 4.00013
12.59131 7.03558 4.00012
12.66314 7.03543 4.00011
12.73486 7.03528 4.00010
12.80690 7.03515 4.00010
12.87905 7.03503 4.00009
12.95138 7.03491 4.00008
13.02369 7.03479 4.00007
13.09626 7.03471 4.00007
13.16889 7.03461 4.00006
13.24175 7.03453 4.00006
13.31478 7.03445 4.00006
13.38742 7.03438 4.00005
13.46055 7.03431 4.00005
13.53386 7.03425 4.00005
13.60733 7.03419 4.00004
13.68064 7.03415 4.00003
13.75432 7.03409 4.00004
13.82800 7.03404 4.00003
13.90191 7.03400 4.00003
13.97597 7.03396 4.00003
14.05018 7.03392 4.00003
14.12452 7.03389 4.00002
14.19900 7.03386 4.00002
14.27291 7.03383 4.00002
14.34757 7.03380 4.00002
14.42236 7.03378 4.00002
14.49728 7.03375 4.00002
14.57148 7.03373 4.00001
14.64655 7.03372 4.00001
14.72175 7.03370 4.00001
14.79708 7.03368 4.00001
14.87253 7.03366 4.00001
14.94810 7.03365 4.00001
15.02377 7.03364 4.00001
15.09956 7.03363 4.00001
15.17427 7.03361 4.00001
15.25016 7.03360 4.00001
15.32616 7.03359 4.00001
15.40228 7.03358 4.00001
15.47851 7.03358 4.00001
15.55484 7.03357 4.00001
15.63127 7.03356 4.00001
15.70781 7.03356 4.00000
15.78444 7.03355 4.00000
15.86116 7.03354 4.00000
15.93799 7.03354 4.00000
16.01490 7.03353 4.00000
16.09190 7.03353 4.00000
16.16899 7.03353 4.00000
16.24617 7.03352 4.00000
16.32343 7.03352 4.00000
16.40077 7.03352 4.00000
16.47820 7.03351 4.00000
16.55571 7.03351 4.00000
16.63331 7.03351 4.00000
16.71098 7.03351 4.00000
16.78873 7.03350 4.00000
16.86656 7.03350 4.00000
16.94446 7.03350 4.00000
17.02245 7.03350 4.00000
17.10050 7.03350 4.00000
17.17864 7.03350 4.00000
17.25684 7.03349 4.00000
17.33512 7.03349 4.00000
17.41348 7.03349 4.00000
17.49190 7.03349 4.00000
17.57040 7.03349 4.00000
17.64897 7.03349 4.00000
17.72761 7.03349 4.00000
17.80632 7.03349 4.00000
17.88510 7.03349 4.00000
17.96395 7.03349 4.00000
18.04286 7.03349 4.00000
18.12185 7.03349 4.00000
18.20090 7.03348 4.00000
18.28002 7.03348 4.00000
18.35945 7.03348 4.00000
18.43895 7.03348 4.00000
18.51851 7.03348 4.00000
18.59814 7.03348 4.00000
18.67784 7.03348 4.00000
18.75761 7.03348 4.00000
18.83744 7.03348 4.00000
18.91733 7.03348 4.00000
18.99729 7.03348 4.00000
19.07731 7.03348 4.00000
19.15739 7.03348 4.00000
19.23753 7.03348 4.00000
19.31774 7.03347 4.00000
19.39800 7.03348 4.00000
19.47832 7.03348 4.00000
19.55869 7.03348 4.00000
19.63913 7.03348 4.00000
19.71963 7.03348 4.00000
19.80018 7.03348 4.00000
19.88078 7.03348 4.00000
19.96145 7.03348 4.00000
20.04216 7.03348 4.00000
20.12293 7.03348 4.00000
20.20376 7.03348 4.00000
20.28464 7.03348 4.00000
20.36557 7.03348 4.00000
20.44655 7.03348 4.00000
20.52758 7.03348 4.00000
20.60866 7.03348 4.00000
20.68979 7.03348 4.00000
20.77098 7.03348 4.00000
20.85221 7.03348 4.00000
20.93349 7.03348 4.00000
21.01482 7.03348 4.00000
21.09620 7.03348 4.00000
21.17762 7.03348 4.00000
21.25910 7.03348 4.00000
21.34062 7.03348 4.00000
21.42218 7.03348 4.00000
21.50379 7.03348 4.00000
21.58545 7.03348 4.00000
21.66716 7.03348 4.00000
21.74891 7.03348 4.00000
21.83070 7.03348 4.00000
21.91254 7.03348 4.00000
21.99442 7.03348 4.00000
22.07635 7.03348 4.00000
22.15831 7.03348 4.00000
22.24032 7.03348 4.00000
22.32238 7.03348 4.00000
22.40447 7.03348 4.00000
22.48661 7.03348 4.00000
22.56879 7.03348 4.00000
22.65101 7.03348 4.00000
22.73327 7.03348 4.00000
22.81557 7.03348 4.00000
22.89791 7.03348 4.00000
22.98030 7.03348 4.00000
23.06272 7.03348 4.00000
23.14518 7.03348 4.00000
23.22768 7.03348 4.00000
23.31022 7.03348 4.00000
23.39279 7.03348 4.00000
23.47541 7.03348 4.00000
23.55806 7.03348 4.00000
23.64075 7.03348 4.00000
23.72348 7.03348 4.00000
23.80625 7.03348 4.00000
23.88905 7.03348 4.00000
23.97189 7.03348 4.00000
24.05477 7.03348 4.00000
24.13769 7.03348 4.00000
24.22064 7.03348 4.00000
24.30362 7.03348 4.00000
24.38664 7.03348 4.00000
24.46970 7.03348 4.00000
24.55279 7.03348 4.00000
24.63592 7.03348 4.00000
24.71908 7.03348 4.00000
24.80228 7.03348 4.00000
24.88551 7.03348 4.00000
24.96878 7.03348 4.00000
25.05208 7.03348 4.00000
25.13541 7.03348 4.00000
25.21878 7.03348 4.00000
25.30218 7.03348 4.00000
25.38561 7.03348 4.00000
25.46908 7.03348 4.00000
25.55258 7.03348 4.00000
25.63612 7.03348 4.00000
25.71969 7.03347 4.00000
25.80328 7.03348 4.00000
25.88692 7.03348 4.00000
25.97058 7.03348 4.00000
26.05428 7.03348 4.00000
26.13801 7.03348 4.00000
26.22178 7.03347 4.00000
26.30556 7.03348 4.00000
26.38938 7.03348 4.00000
26.47324 7.03348 4.00000
26.55713 7.03348 4.00000
26.64105 7.03348 4.00000
26.72500 7.03347 4.00000
26.80898 7.03348 4.00000
26.89300 7.03348 4.00000
26.97705 7.03347 4.00000
27.06111 7.03348 4.00000
27.14522 7.03347 4.00000
27.22934 7.03348 4.00000
27.31350 7.03348 4.00000
27.39769 7.03348 4.00000
27.48191 7.03348 4.00000
27.56616 7.03348 4.00000
27.65044 7.03348 4.00000
27.73476 7.03348 4.00000
27.81911 7.03348 4.00000
27.90347 7.03348 4.00000
27.98789 7.03348 4.00000
28.07233 7.03348 4.00000
28.15680 7.03348 4.00000
28.24130 7.03348 4.00000
28.32584 7.03348 4.00000
28.41040 7.03348 4.00000
28.49500 7.03348 4.00000
28.57962 7.03348 4.00000
28.66427 7.03348 4.00000
28.74896 7.03348 4.00000
28.83367 7.03348 4.00000
28.91842 7.03348 4.00000
29.00320 7.03348 4.00000
29.08800 7.03348 4.00000
29.17284 7.03348 4.00000
29.25770 7.03348 4.00000
29.34260 7.03348 4.00000
29.42753 7.03348 4.00000
29.51249 7.03348 4.00000
29.59748 7.03348 4.00000
29.68250 7.03348 4.00000
29.76755 7.03348 4.00000
29.85264 7.03348 4.00000
29.93775 7.03348 4.00000
30.02290 7.03348 4.00000
30.10808 7.03348 4.00000
30.19329 7.03348 4.00000
30.27853 7.03348 4.00000
30.36381 7.03348 4.00000
30.44911 7.03348 4.00000
30.53445 7.03348 4.00000
30.61983 7.03348 4.00000
30.70523 7.03348 4.00000
30.79067 7.03348 4.00000
30.87614 7.03348 4.00000
30.96165 7.03348 4.00000
31.04719 7.03348 4.00000
31.13276 7.03348 4.00000
31.21837 7.03348 4.00000
31.30401 7.03348 4.00000

Angle 0.601773 4.690962

4.00000 7.03348 4.00000
4.00000 7.03348 4.00000
4.00000 7.03348 4.00000
4.00000 7.03348 4.00000
4.00000 7.03348 4.00000
4.00000 7.03348 4.00000
4.00000 7.03348 4.00000
4.00000 7.03346 4.00000
4.00000 7.03348 4.00000
4.00000 7.03348 4.00000
4.00000 7.03348 4.00000
4.00000 7.03348 4.00000
4.00000 7.03348 4.00000
4.00000 7.03349 4.00000
4.00000 7.03349 4.00000
4.00000 7.03349 4.00000
4.00000 7.03349 4.00000
4.00000 7.03349 4.00000
4.00000 7.03348 4.00000
4.00000 7.03348 4.00000
4.00000 7.03348 4.00000
4.00000 7.03349 4.00000
4.00000 7.03348 4.00000
4.00000 7.03348 4.00000
4.00000 7.03348 4.00000
4.00000 7.03348 4.00000
4.00000 7.03348 4.00000
4.00000 7.03348 4.00000
4.00000 7.03350 4.00000
4.00000 7.03348 4.00000
4.00000 7.03348 4.00000
4.00000 7.03348 4.00000
4.00000 7.03348 4.00000
4.00000 7.03348 4.00000
4.00000 7.03348 4.00000
4.00000 7.03348 4.00000
4.00000 7.03348 4.00000
4.00000 7.03348 4.00000
4.00000 7.03348 4.00000
4.00000 7.03348 4.00000
4.00000 7.03348 4.00000
4.00000 7.03347 4.00000
4.00000 7.03348 4.00000
4.00000 7.03348 4.00000
4.00000 7.03348 4.00000
4.00000 7.03349 4.00000
4.00000 7.03348 4.00000
4.00000 7.03348 4.00000
4.00000 7.03348 4.00000
4.00000 7.03348 4.00000
4.00000 7.03348 4.00000
4.00000 7.03348 4.00000
4.00000 7.03348 4.00000
4.00000 7.03348 4.00000
4.00000 7.03348 4.00000
4.00000 7.03348 4.00000
4.00000 7.03348 4.00000
4.00000 7.03348 4.00000
4.00000 7.03348 4.00000
4.00000 7.03348 4.00000
4.00000 7.03348 4.00000
4.00000 7.03348 4.00000
4.00000 7.03348 4.00000
4.00000 7.03348 4.00000
4.00000 7.03348 4.00000
4.00000 7.03348 4.00000
4.00000 7.03348 4.00000
4.00000 7.03348 4.00000
4.00000 7.03348 4.00000
4.00000 7.03348 4.00000
4.00000 7.03348 4.00000
4.00000 7.03348 4.00000
4.00000 7.03348 4.00000
4.00000 7.03348 4.00000
4.00000 7.03348 4.00000
4.00000 7.03348 4.00000
4.00000 7.03348 4.00000
4.00000 7.03348 4.00000
4.00000 7.03348 4.00000
4.00000 7.03348 4.00000
4.00000 7.03348 4.00000
4.00000 7.03348 4.00000
4.00000 7.03348 4.00000
4.00000 7.03348 4.00000
4.00000 7.03348 4.00000
4.00000 7.03348 4.00000
4.00000 7.03348 4.00000
4.00000 7.03348 4.00000
4.00000 7.03348 4.00000
4.00000 7.03348 4.00000
4.00000 7.03348 4.00000
4.00000 7.03348 4.00000
4.00000 7.03348 4.00000
4.00000 7.03348 4.00000
4.00000 7.03348 4.00000
4.00000 7.03348 4.00000
4.00000 7.03348 4.00000
4.00000 7.03348 4.00000
4.00000 7.03348 4.00000
4.00000 7.03348 4.00000
4.00000 7.03348 4.00000
4.00000 7.03348 4.00000
4.00000 7.03348 4.00000
4.00000 7.03348 4.00000
4.00000 7.03348 4.00000
4.00000 7.03348 4.00000
4.00000 7.03348 4.00000
4.00000 7.03348 4.00000
4.00000 7.03348 4.00000
4.00000 7.03348 4.00000
4.00000 7.03348 4.00000
4.00000 7.03348 4.00000
4.00000 7.03348 4.00000
4.00000 7.03348 4.00000
4.00000 7.03345 4.00000
4.00000 7.03346 4.00000
4.00000 7.03348 4.00000
4.00000 7.03348 4.00000
4.00000 7.03348 4.00000
4.00000 7.03348 4.00000
4.00000 7.03348 4.00000
4.00000 7.03348 4.00000
4.00000 7.03348 4.00000
4.00000 7.03348 4.00000
4.00000 7.03348 4.00000
4.00000 7.03348 4.00000
4.00000 7.03348 4.00000
4.00000 7.03348 4.00000
4.00000 7.03348 4.00000
4.00000 7.03348 4.00000
4.00000 7.03348 4.00000
4.00000 7.03348 4.00000
4.00000 7.03351 4.00000
4.00000 7.03348 4.00000
4.00000 7.03349 4.00000
4.00000 7.03348 4.00000
4.00000 7.03348 4.00000
4.00000 7.03348 4.00000
3.99999 7.03338 3.99999
4.00012 7.03564 4.00012
4.00447 7.11264 4.00447
4.00873 7.18991 4.00873
4.01295 7.26740 4.01295
4.01712 7.34507 4.01712
4.02127 7.42285 4.02127
4.02541 7.50071 4.02541
4.02955 7.57861 4.02956
4.03373 7.65646 4.03373
4.03795 7.73425 4.03795
4.04224 7.81189 4.04224
4.04661 7.88935 4.04662
4.05110 7.96653 4.05111
4.05573 8.04337 4.05574
4.06054 8.11979 4.06054
4.06556 8.19568 4.06556
4.07083 8.27093 4.07083
4.07640 8.34541 4.07640
4.08234 8.41896 4.08234
4.08872 8.49140 4.08872
4.09563 8.56250 4.09563
4.10316 8.63200 4.10316
4.11142 8.69967 4.11141
4.12034 8.76567 4.12034
4.12995 8.82999 4.12995
4.14029 8.89257 4.14029
4.15137 8.95333 4.15137
4.16324 9.01224 4.16324
4.17592 9.06926 4.17592
4.18942 9.12438 4.18942
4.20375 9.17760 4.20375
4.21892 9.22893 4.21892
4.23493 9.27841 4.23493
4.25176 9.32609 4.25176
4.26941 9.37203 4.26941
4.28785 9.41628 4.28785
4.30707 9.45893 4.30707
4.32703 9.50005 4.32703
4.34772 9.53973 4.34772
4.36910 9.57802 4.36910
4.39115 9.61501 4.39115
4.41385 9.65074 4.41385
4.43719 9.68524 4.43719
4.46116 9.71854 4.46116
4.48580 9.75057 4.48579
4.51112 9.78125 4.51112
4.53724 9.81037 4.53724
4.56432 9.83751 4.56432
4.59270 9.86192 4.59270
4.62301 9.88218 4.62301
4.65644 9.89557 4.65644
4.01952 7.39003 7.79527
4.01688 7.34052 7.93212
4.01474 7.30077 8.05914
4.01298 7.26801 8.17913
4.01149 7.24048 8.29388
4.01022 7.21705 8.40455
4.00912 7.19686 8.51198
4.00816 7.17936 8.61674
4.00732 7.16406 8.71932
4.00657 7.15062 8.82007
4.00592 7.13874 8.91928
4.00533 7.12822 9.01716
4.00481 7.11886 9.11392
4.00435 7.11053 9.20969
4.00393 7.10307 9.30460
4.00356 7.09639 9.39878
4.00322 7.09039 9.49231
4.00292 7.08502 9.58525
4.00265 7.08016 9.67771
4.00240 7.07579 9.76972
4.00218 7.07185 9.86133
4.00197 7.06828 9.95261
4.00179 7.06507 10.04357
4.00163 7.06215 10.13426
4.00148 7.05952 10.22471
4.00135 7.05713 10.31495
4.00122 7.05497 10.40500
4.00111 7.05300 10.49489
4.00101 7.05123 10.58461
4.00092 7.04961 10.67422
4.00084 7.04814 10.76371
4.00076 7.04681 10.85309
4.00069 7.04560 10.94239
4.00063 7.04451 11.03161
4.00057 7.04351 11.12076
4.00052 7.04260 11.20985
4.00047 7.04177 11.29889
4.00043 7.04103 11.38789
4.00039 7.04034 11.47684
4.00036 7.03972 11.56577
4.00033 7.03916 11.65466
4.00030 7.03865 11.74354
4.00027 7.03819 11.83240
4.00025 7.03776 11.92125
4.00022 7.03738 12.01008
4.00020 7.03702 12.09890
4.00018 7.03669 12.18774
4.00017 7.03641 12.27655
4.00015 7.03615 12.36536
4.00014 7.03590 12.45419
4.00013 7.03569 12.54301
4.00011 7.03549 12.63184
4.00010 7.03531 12.72067
4.00009 7.03514 12.80951
4.00009 7.03499 12.89836
4.00008 7.03485 12.98723
4.00007 7.03473 13.07609
4.00006 7.03462 13.16497
4.00006 7.03451 13.25387
4.00005 7.03442 13.34276
4.00005 7.03434 13.43168
4.00004 7.03426 13.52061
4.00004 7.03419 13.60955
4.00004 7.03413 13.69851
4.00003 7.03407 13.78748
4.00003 7.03401 13.87647
4.00003 7.03397 13.96546
4.00002 7.03392 14.05448
4.00002 7.03388 14.14350
4.00002 7.03385 14.23255
4.00002 7.03381 14.32160
4.00002 7.03378 14.41067
4.00002 7.03376 14.49976
4.00001 7.03373 14.58886
4.00001 7.03371 14.67797
4.00001 7.03369 14.76710
4.00001 7.03367 14.85624
4.00001 7.03365 14.94540
4.00001 7.03364 15.03457
4.00001 7.03362 15.12375
4.00001 7.03361 15.21295
4.00001 7.03360 15.30216
4.00001 7.03359 15.39139
4.00001 7.03358 15.48062
4.00000 7.03356 15.56988
4.00000 7.03356 15.65914
4.00000 7.03355 15.74843
4.00000 7.03355 15.83771
4.00000 7.03353 15.92702
4.00000 7.03353 16.01633
4.00000 7.03352 16.10567
4.00000 7.03352 16.19501
4.00000 7.03352 16.28436
4.00000 7.03351 16.37373
4.00000 7.03351 16.46310
4.00000 7.03350 16.55250
4.00000 7.03350 16.64190
4.00000 7.03350 16.73131
4.00000 7.03350 16.82074
4.00000 7.03350 16.91017
4.00000 7.03349 16.99962
4.00000 7.03350 17.08907
4.00000 7.03350 17.17854
4.00000 7.03349 17.26802
4.00000 7.03349 17.35751
4.00000 7.03349 17.44701
4.00000 7.03349 17.53652
4.00000 7.03349 17.62604
4.00000 7.03349 17.71557
4.00000 7.03349 17.80511
4.00000 7.03349 17.89466
4.00000 7.03349 17.98422
4.00000 7.03349 18.07379
4.00000 7.03348 18.16337
4.00000 7.03348 18.25296
4.00000 7.03348 18.34257
4.00000 7.03348 18.43217
4.00000 7.03348 18.52177
4.00000 7.03348 18.61139
4.00000 7.03348 18.70101
4.00000 7.03348 18.79065
4.00000 7.03348 18.88029
4.00000 7.03348 18.96994
4.00000 7.03348 19.05959
4.00000 7.03348 19.14926
4.00000 7.03348 19.23894
4.00000 7.03348 19.32863
4.00000 7.03348 19.41832
4.00000 7.03348 19.50803
4.00000 7.03348 19.59774
4.00000 7.03348 19.68746
4.00000 7.03348 19.77719
4.00000 7.03348 19.86692
4.00000 7.03348 19.95666
4.00000 7.03348 20.04641
4.00000 7.03348 20.13617
4.00000 7.03348 20.22593
4.00000 7.03348 20.31570
4.00000 7.03348 20.40547
4.00000 7.03348 20.49525
4.00000 7.03348 20.58504
4.00000 7.03348 20.67483
4.00000 7.03348 20.76463
4.00000 7.03348 20.85444
4.00000 7.03348 20.94425
4.00000 7.03348 21.03406
4.00000 7.03348 21.12389
4.00000 7.03348 21.21371
4.00000 7.03348 21.30355
4.00000 7.03348 21.39339
4.00000 7.03347 21.48323
4.00000 7.03348 21.57307
4.00000 7.03348 21.66292
4.00000 7.03347 21.75278
4.00000 7.03348 21.84264
4.00000 7.03348 21.93251
4.00000 7.03348 22.02240
4.00000 7.03347 22.11228
4.00000 7.03348 22.20217
4.00000 7.03348 22.29207
4.00000 7.03348 22.38197
4.00000 7.03350 22.47186
4.00000 7.03349 22.56177
4.00000 7.03348 22.65169
4.00000 7.03348 22.74162
4.00000 7.03348 22.83155
4.00000 7.03348 22.92149
4.00000 7.03348 23.01143
4.00000 7.03348 23.10138
4.00000 7.03348 23.19132
4.00000 7.03348 23.28128
4.00000 7.03348 23.37123
4.00000 7.03348 23.46119
4.00000 7.03348 23.55116
4.00000 7.03348 23.64112
4.00000 7.03348 23.73110
4.00000 7.03348 23.82107
4.00000 7.03348 23.91105
4.00000 7.03348 24.00102
4.00000 7.03348 24.09101
4.00000 7.03348 24.18098
4.00000 7.03348 24.27098
4.00000 7.03348 24.36096
4.00000 7.03348 24.45097
4.00000 7.03348 24.54096
4.00000 7.03348 24.63097
4.00000 7.03348 24.72097
4.00000 7.03348 24.81097
4.00000 7.03348 24.90098
4.00000 7.03348 24.99099
4.00000 7.03348 25.08101
4.00000 7.03348 25.17103
4.00000 7.03348 25.26105
4.00000 7.03348 25.35107
4.00000 7.03348 25.44110
4.00000 7.03348 25.53113
4.00000 7.03348 25.62117
4.00000 7.03348 25.71121
4.00000 7.03348 25.80126
4.00000 7.03348 25.89130
4.00000 7.03348 25.98136
4.00000 7.03348 26.07141
4.00000 7.03348 26.16147
4.00000 7.03348 26.25153
4.00000 7.03348 26.34160
4.00000 7.03348 26.43167
4.00000 7.03348 26.52174
4.00000 7.03348 26.61181
4.00000 7.03348 26.70189
4.00000 7.03348 26.79197

Angle 0.343096 5.270496

4.00000 7.03348 4.00000
4.00000 7.03348 4.00000
4.00000 7.03348 4.00000
4.00000 7.03348 4.00000
4.00000 7.03348 4.00000
4.00000 7.03348 4.00000
4.00000 7.03348 4.00000
4.00000 7.03348 4.00000
4.00000 7.03348 4.00000
4.00000 7.03348 4.00000
4.00000 7.03348 4.00000
4.00000 7.03348 4.00000
4.00000 7.03348 4.00000
4.00000 7.03347 4.00000
4.00000 7.03348 4.00000
4.00000 7.03348 4.00000
4.00000 7.03348 4.00000
4.00000 7.03348 4.00000
4.00000 7.03348 4.00000
4.00000 7.03348 4.00000
4.00000 7.03348 4.00000
4.00000 7.03348 4.00000
4.00000 7.03348 4.00000
4.00000 7.03348 4.00000
4.00000 7.03348 4.00000
4.00000 7.03348 4.00000
4.00000 7.03348 4.00000
4.00000 7.03348 4.00000
4.00000 7.03348 4.00000
4.00000 7.03348 4.00000
4.00000 7.03348 4.00000
4.00000 7.03348 4.00000
4.00000 7.03348 4.00000
4.00000 7.03348 4.00000
4.00000 7.03348 4.00000
4.00000 7.03348 4.00000
4.00000 7.03348 4.00000
4.00000 7.03348 4.00000
4.00000 7.03348 4.00000
4.00000 7.03348 4.00000
4.00000 7.03348 4.00000
4.00000 7.03348 4.00000
4.00000 7.03348 4.00000
4.00000 7.03348 4.00000
4.00000 7.03348 4.00000
4.00000 7.03348 4.00000
4.00000 7.03349 4.00000
4.00000 7.03349 4.00000
4.00000 7.03348 4.00000
4.00000 7.03348 4.00000
4.00000 7.03348 4.00000
4.00000 7.03348 4.00000
4.00000 7.03348 4.00000
4.00000 7.03348 4.00000
4.00000 7.03348 4.00000
4.00000 7.03348 4.00000
4.00000 7.03348 4.00000
4.00000 7.03348 4.00000
4.00000 7.03348 4.00000
4.00000 7.03348 4.00000
4.00000 7.03348 4.00000
4.00000 7.03348 4.00000
4.00000 7.03348 4.00000
4.00000 7.03348 4.00000
4.00000 7.03348 4.00000
4.00000 7.03348 4.00000
4.00000 7.03348 4.00000
4.00000 7.03348 4.00000
4.00000 7.03348 4.00000
4.00000 7.03348 4.00000
4.00000 7.03348 4.00000
4.00000 7.03348 4.00000
4.00000 7.03349 4.00000
4.00000 7.03349 4.00000
4.00000 7.03348 4.00000
4.00000 7.03348 4.00000
4.00000 7.03348 4.00000
4.00000 7.03348 4.00000
4.00000 7.03348 4.00000
4.00000 7.03348 4.00000
4.00000 7.03348 4.00000
4.00000 7.03348 4.00000
4.00000 7.03348 4.00000
4.00000 7.03348 4.00000
4.00000 7.03348 4.00000
4.00000 7.03348 4.00000
4.00000 7.03348 4.00000
4.00000 7.03350 4.00000
4.00000 7.03345 4.00000
4.00000 7.03348 4.00000
4.00000 7.03348 4.00000
4.00000 7.03346 4.00000
4.00000 7.03348 4.00000
4.00000 7.03348 4.00000
4.00000 7.03348 4.00000
4.00000 7.03348 4.00000
4.00000 7.03348 4.00000
4.00000 7.03348 4.00000
4.00000 7.03348 4.00000
4.00000 7.03348 4.00000
4.00000 7.03348 4.00000
4.00000 7.03348 4.00000
4.00000 7.03348 4.00000
4.00000 7.03348 4.00000
4.00000 7.03348 4.00000
4.00000 7.03348 4.00000
4.00000 7.03348 4.00000
4.00000 7.03348 4.00000
4.00000 7.03348 4.00000
4.00000 7.03348 4.00000
4.00000 7.03348 4.00000
4.00000 7.03348 4.00000
4.00000 7.03349 4.00000
4.00000 7.03348 4.00000
4.00000 7.03348 4.00000
4.00000 7.03347 4.00000
4.00000 7.03349 4.00000
4.00000 7.03350 4.00000
4.00000 7.03349 4.00000
4.00000 7.03352 4.00000
4.00000 7.03347 4.00000
4.00000 7.03348 4.00000
4.00401 7.10456 4.00401
4.00811 7.17861 4.00812
4.01217 7.25290 4.01216
4.01617 7.32741 4.01617
4.02016 7.40208 4.02016
4.02414 7.47687 4.02414
4.02812 7.55174 4.02812
4.03213 7.62664 4.03213
4.03617 7.70152 4.03617
4.04027 7.77633 4.04027
4.04443 7.85103 4.04444
4.04870 7.92554 4.04870
4.05309 7.99982 4.05309
4.05762 8.07377 4.05762
4.06233 8.14733 4.06233
4.06725 8.22039 4.06725
4.07243 8.29285 4.07243
4.07790 8.36458 4.07791
4.08374 8.43543 4.08374
4.09001 8.50522 4.09001
4.09679 8.57375 4.09679
4.10417 8.64077 4.10417
4.11224 8.70608 4.11224
4.12094 8.76988 4.12094
4.13029 8.83211 4.13029
4.14032 8.89273 4.14032
4.15106 8.95167 4.15106
4.16253 9.00888 4.16253
4.17477 9.06434 4.17478
4.18779 9.11802 4.18780
4.20160 9.16993 4.20160
4.21620 9.22008 4.21620
4.23160 9.26849 4.23160
4.24779 9.31521 4.24779
4.26475 9.36027 4.26475
4.28248 9.40374 4.28248
4.30095 9.44569 4.30095
4.32014 9.48619 4.32014
4.34003 9.52529 4.34002
4.36059 9.56308 4.36058
4.38180 9.59961 4.38180
4.40364 9.63494 4.40364
4.42610 9.66911 4.42610
4.44917 9.70214 4.44916
4.47284 9.73401 4.47286
4.49718 9.76465 4.49718
4.52221 9.79394 4.52221
4.54806 9.82161 4.54805
4.57494 9.84717 4.57492
4.60324 9.86972 4.60324
4.63371 9.88758 4.63371
4.66772 9.89765 4.66773
7.83572 7.37461 4.01870
7.96642 7.32922 4.01627
8.08862 7.29231 4.01429
8.20461 7.26159 4.01263
8.31591 7.23559 4.01123
8.42350 7.21331 4.01001
8.52811 7.19405 4.00896
8.63031 7.17723 4.00804
8.73046 7.16250 4.00723
8.82893 7.14950 4.00651
8.92595 7.13798 4.00587
9.02172 7.12777 4.00531
9.11645 7.11863 4.00480
9.21026 7.11048 4.00435
9.30326 7.10317 4.00394
9.39558 7.09661 4.00357
9.48727 7.09070 4.00324
9.57844 7.08538 4.00294
9.66913 7.08059 4.00267
9.75941 7.07625 4.00243
9.84932 7.07234 4.00221
9.93892 7.06879 4.00200
10.02822 7.06558 4.00182
10.11727 7.06268 4.00166
10.20610 7.06004 4.00151
10.29474 7.05764 4.00137
10.38320 7.05547 4.00125
10.47151 7.05350 4.00114
10.55969 7.05170 4.00104
10.64774 7.05007 4.00094
10.73570 7.04859 4.00086
10.82358 7.04724 4.00078
10.91137 7.04601 4.00071
10.99909 7.04490 4.00065
11.08677 7.04388 4.00059
11.17439 7.04295 4.00054
11.26198 7.04210 4.00049
11.34952 7.04135 4.00045
11.43705 7.04064 4.00041
11.52454 7.04001 4.00037
11.61203 7.03943 4.00034
11.69951 7.03889 4.00031
11.78697 7.03842 4.00028
11.87443 7.03798 4.00026
11.96190 7.03758 4.00023
12.04936 7.03721 4.00021
12.13683 7.03688 4.00019
12.22430 7.03658 4.00018
12.31179 7.03630 4.00016
12.39929 7.03605 4.00015
12.48680 7.03582 4.00013
12.57432 7.03561 4.00012
12.66185 7.03542 4.00011
12.74941 7.03525 4.00010
12.83699 7.03509 4.00009
12.92458 7.03496 4.00008
13.01219 7.03483 4.00008
13.09981 7.03471 4.00006
13.18747 7.03459 4.00006
13.27515 7.03449 4.00006
13.36284 7.03440 4.00005
13.45055 7.03432 4.00005
13.53829 7.03425 4.00004
13.62604 7.03418 4.00004
13.71383 7.03412 4.00004
13.80163 7.03406 4.00003
13.88947 7.03400 4.00003
13.97731 7.03396 4.00003
14.06519 7.03391 4.00002
14.15308 7.03388 4.00002
14.24099 7.03384 4.00002
14.32893 7.03381 4.00002
14.41689 7.03378 4.00002
14.50487 7.03375 4.00002
14.59288 7.03373 4.00001
14.68091 7.03371 4.00001
14.76896 7.03369 4.00001
14.85703 7.03367 4.00001
14.94513 7.03365 4.00001
15.03324 7.03364 4.00001
15.12138 7.03362 4.00001
15.20954 7.03361 4.00001
15.29772 7.03360 4.00001
15.38592 7.03359 4.00001
15.47414 7.03358 4.00001
15.56238 7.03357 4.00000
15.65065 7.03356 4.00000
15.73893 7.03355 4.00000
15.82723 7.03355 4.00000
15.91555 7.03354 4.00000
16.00389 7.03354 4.00000
16.09225 7.03353 4.00000
16.18063 7.03352 4.00000
16.26903 7.03352 4.00000
16.35744 7.03352 4.00000
16.44588 7.03351 4.00000
16.53432 7.03351 4.00000
16.62279 7.03351 4.00000
16.71127 7.03351 4.00000
16.79977 7.03350 4.00000
16.88829 7.03350 4.00000
16.97682 7.03350 4.00000
17.06537 7.03350 4.00000
17.15393 7.03350 4.00000
17.24251 7.03349 4.00000
17.33111 7.03349 4.00000
17.41972 7.03349 4.00000
17.50835 7.03349 4.00000
17.59699 7.03349 4.00000
17.68565 7.03349 4.00000
17.77433 7.03349 4.00000
17.86301 7.03349 4.00000
17.95172 7.03349 4.00000
18.04044 7.03349 4.00000
18.12917 7.03349 4.00000
18.21791 7.03349 4.00000
18.30668 7.03348 4.00000
18.39545 7.03348 4.00000
18.48424 7.03348 4.00000
18.57304 7.03348 4.00000
18.66185 7.03348 4.00000
18.75068 7.03348 4.00000
18.83952 7.03348 4.00000
18.92839 7.03348 4.00000
19.01724 7.03348 4.00000
19.10613 7.03348 4.00000
19.19502 7.03348 4.00000
19.28393 7.03348 4.00000
19.37284 7.03348 4.00000
19.46177 7.03348 4.00000
19.55072 7.03347 4.00000
19.63966 7.03348 4.00000
19.72862 7.03348 4.00000
19.81760 7.03348 4.00000
19.90657 7.03349 4.00000
19.99558 7.03348 4.00000
20.08459 7.03348 4.00000
20.17361 7.03348 4.00000
20.26263 7.03349 4.00000
20.35168 7.03348 4.00000
20.44074 7.03348 4.00000
20.52980 7.03348 4.00000
20.61887 7.03348 4.00000
20.70795 7.03348 4.00000
20.79705 7.03348 4.00000
20.88615 7.03348 4.00000
20.97526 7.03348 4.00000
21.06439 7.03348 4.00000
21.15352 7.03348 4.00000
21.24266 7.03348 4.00000
21.33182 7.03348 4.00000
21.42098 7.03348 4.00000
21.51015 7.03348 4.00000
21.59933 7.03348 4.00000
21.68852 7.03348 4.00000
21.77772 7.03348 4.00000
21.86693 7.03348 4.00000
21.95615 7.03348 4.00000
22.04537 7.03348 4.00000
22.13461 7.03348 4.00000
22.22385 7.03348 4.00000
22.31311 7.03348 4.00000
22.40237 7.03348 4.00000
22.49164 7.03348 4.00000
22.58091 7.03348 4.00000
22.67020 7.03348 4.00000
22.75949 7.03348 4.00000
22.84879 7.03348 4.00000
22.93810 7.03348 4.00000
23.02742 7.03348 4.00000
23.11675 7.03348 4.00000
23.20608 7.03348 4.00000
23.29542 7.03348 4.00000
23.38477 7.03348 4.00000
23.47412 7.03348 4.00000
23.56349 7.03348 4.00000
23.65286 7.03348 4.00000
23.74224 7.03348 4.00000
23.83162 7.03348 4.00000
23.92101 7.03348 4.00000
24.01041 7.03348 4.00000
24.09982 7.03348 4.00000
24.18924 7.03348 4.00000
24.27866 7.03348 4.00000
24.36809 7.03348 4.00000
24.45752 7.03348 4.00000
24.54696 7.03348 4.00000
24.63641 7.03348 4.00000
24.72587 7.03348 4.00000
24.81533 7.03348 4.00000
24.90480 7.03348 4.00000
24.99428 7.03348 4.00000
25.08376 7.03348 4.00000
25.17324 7.03348 4.00000
25.26274 7.03348 4.00000
25.35224 7.03348 4.00000
25.44176 7.03348 4.00000
25.53126 7.03348 4.00000
25.62078 7.03348 4.00000
25.71031 7.03348 4.00000
25.79983 7.03348 4.00000
25.88937 7.03348 4.00000
25.97892 7.03348 4.00000
26.06846 7.03349 4.00000
26.15802 7.03348 4.00000
26.24756 7.03349 4.00000
26.33714 7.03348 4.00000
26.42672 7.03348 4.00000
26.51629 7.03348 4.00000
26.60588 7.03348 4.00000
26.69547 7.03348 4.00000
26.78506 7.03348 4.00000
26.87466 7.03348 4.00000
26.96427 7.03348 4.00000
27.05388 7.03348 4.00000
27.14350 7.03348 4.00000
27.23312 7.03348 4.00000
27.32275 7.03348 4.00000
27.41238 7.03348 4.00000
27.50202 7.03348 4.00000
27.59167 7.03348 4.00000
27.68132 7.03348 4.00000
27.77098 7.03348 4.00000
27.86064 7.03348 4.00000
27.95030 7.03348 4.00000
28.03999 7.03348 4.00000

Angle 0.210596 1.737543

4.00000 7.03348 4.00000
4.00000 7.03348 4.00000
4.00000 7.03347 4.00000
4.00000 7.03348 4.00000
4.00000 7.03348 4.00000
4.00000 7.03348 4.00000
4.00000 7.03348 4.00000
4.00000 7.03349 4.00000
4.00000 7.03348 4.00000
4.00000 7.03348 4.00000
4.00000 7.03348 4.00000
4.00000 7.03350 4.00000
4.00000 7.03348 4.00000
4.00000 7.03348 4.00000
4.00000 7.03348 4.00000
4.00000 7.03345 4.00000
4.00000 7.03346 4.00000
4.00000 7.03346 4.00000
4.00000 7.03346 4.00000
4.00000 7.03347 4.00000
4.00000 7.03349 4.00000
4.00000 7.03349 4.00000
4.00000 7.03349 4.00000
4.00000 7.03348 4.00000
4.00000 7.03347 4.00000
4.00000 7.03347 4.00000
4.00000 7.03349 4.00000
4.00000 7.03349 4.00000
4.00000 7.03349 4.00000
4.00000 7.03349 4.00000
4.00000 7.03349 4.00000
4.00000 7.03348 4.00000
4.00000 7.03348 4.00000
4.00000 7.03349 4.00000
4.00000 7.03348 4.00000
4.00000 7.03348 4.00000
4.00000 7.03348 4.00000
4.00000 7.03348 4.00000
4.00000 7.03348 4.00000
4.00000 7.03348 4.00000
4.00000 7.03349 4.00000
4.00000 7.03348 4.00000
4.00000 7.03348 4.00000
4.00000 7.03348 4.00000
4.00000 7.03348 4.00000
4.00000 7.03348 4.00000
4.00000 7.03348 4.00000
4.00000 7.03348 4.00000
4.00002 7.03382 4.00001
4.00135 7.05728 4.00135
4.00338 7.09328 4.00338
4.00542 7.12974 4.00542
4.00746 7.16666 4.00746
4.00951 7.20404 4.00951
4.01157 7.24186 4.01157
4.01363 7.28011 4.01363
4.01571 7.31880 4.01571
4.01781 7.35791 4.01781
4.01991 7.39742 4.01991
4.02204 7.43734 4.02204
4.02418 7.47765 4.02418
4.02635 7.51834 4.02635
4.02853 7.55941 4.02853
4.03074 7.60083 4.03074
4.03299 7.64261 4.03299
4.03526 7.68471 4.03526
4.03756 7.72715 4.03756
4.03991 7.76989 4.03991
4.04230 7.81292 4.04230
4.04473 7.85623 4.04473
4.04722 7.89981 4.04722
4.04976 7.94362 4.04976
4.05236 7.98767 4.05236
4.05503 8.03191 4.05503
4.05778 8.07634 4.05778
4.06061 8.12092 4.06061
4.06354 8.16563 4.06354
4.06656 8.21044 4.06657
4.06971 8.25532 4.06971
4.07297 8.30022 4.07297
4.07638 8.34512 4.07638
4.07994 8.38996 4.07994
4.08368 8.43469 4.08368
4.08761 8.47926 4.08761
4.09176 8.52361 4.09176
4.09616 8.56766 4.09616
4.10082 8.61134 4.10082
4.10580 8.65455 4.10580
4.11110 8.69725 4.11110
4.11670 8.73954 4.11670
4.12260 8.78138 4.12260
4.12882 8.82274 4.12882
4.13537 8.86360 4.13537
4.14227 8.90391 4.14227
4.14953 8.94365 4.14953
4.15716 8.98280 4.15716
4.16518 9.02132 4.16518
4.17359 9.05919 4.17359
4.18240 9.09641 4.18240
4.19163 9.13294 4.19163
4.20128 9.16878 4.20128
4.21136 9.20393 4.21136
4.22186 9.23837 4.22186
4.23280 9.27211 4.23281
4.24418 9.30514 4.24418
4.25600 9.33748 4.25600
4.26825 9.36912 4.26825
4.28094 9.40009 4.28094
4.29405 9.43040 4.29405
4.30759 9.46005 4.30759
4.32156 9.48907 4.32156
4.33594 9.51747 4.33594
4.35073 9.54528 4.35073
4.36592 9.57250 4.36592
4.38152 9.59915 4.38151
4.39750 9.62524 4.39750
4.41388 9.65079 4.41388
4.43065 9.67579 4.43065
4.44781 9.70025 4.44781
4.46536 9.72415 4.46536
4.48333 9.74746 4.48333
4.50172 9.77013 4.50172
4.52057 9.79210 4.52057
4.53994 9.81322 4.53994
4.55990 9.83332 4.55990
4.58060 9.85208 4.58060
4.60224 9.86902 4.60224
4.62518 9.88335 4.62518
4.64997 9.89380 4.64997
4.67751 9.89842 4.67745
7.83998 7.37304 4.01861
7.94145 7.33740 4.01671
8.03777 7.30707 4.01508
8.13014 7.28086 4.01367
8.21938 7.25795 4.01244
8.30609 7.23775 4.01134
8.39071 7.21983 4.01037
8.47360 7.20381 4.00949
8.55504 7.18943 4.00871
8.63525 7.17647 4.00800
8.71440 7.16475 4.00735
8.79263 7.15414 4.00676
8.87010 7.14446 4.00623
8.94687 7.13568 4.00575
9.02309 7.12762 4.00530
9.09879 7.12027 4.00489
9.17410 7.11350 4.00451
9.24895 7.10735 4.00417
9.32352 7.10167 4.00385
9.39780 7.09646 4.00356
9.47183 7.09166 4.00329
9.54567 7.08724 4.00304
9.61933 7.08317 4.00281
9.69284 7.07941 4.00260
9.76624 7.07595 4.00241
9.83953 7.07275 4.00223
9.91275 7.06980 4.00206
9.98591 7.06707 4.00191
10.05902 7.06455 4.00177
10.13211 7.06222 4.00163
10.20517 7.06008 4.00151
10.27826 7.05807 4.00140
10.35134 7.05623 4.00129
10.42444 7.05453 4.00120
10.49757 7.05295 4.00111
10.57073 7.05149 4.00103
10.64394 7.05014 4.00095
10.71720 7.04889 4.00088
10.79051 7.04773 4.00081
10.86389 7.04666 4.00075
10.93733 7.04567 4.00069
11.01084 7.04476 4.00064
11.08444 7.04390 4.00059
11.15811 7.04312 4.00055
11.23186 7.04240 4.00051
11.30571 7.04171 4.00047
11.37962 7.04109 4.00043
11.45367 7.04049 4.00040
11.52775 7.03998 4.00037
11.60197 7.03948 4.00034
11.67625 7.03903 4.00032
11.75064 7.03861 4.00029
11.82514 7.03822 4.00027
11.89973 7.03786 4.00025
11.97444 7.03751 4.00023
12.04922 7.03721 4.00021
12.12412 7.03692 4.00020
12.19912 7.03666 4.00018
12.27422 7.03642 4.00017
12.34942 7.03619 4.00016
12.42474 7.03598 4.00014
12.50017 7.03579 4.00013
12.57569 7.03561 4.00012
12.65133 7.03545 4.00012
12.72710 7.03530 4.00011
12.80284 7.03515 4.00010
12.87877 7.03502 4.00009
12.95482 7.03491 4.00008
13.03100 7.03480 4.00008
13.10729 7.03469 4.00008
13.18338 7.03460 4.00006
13.25981 7.03451 4.00006
13.33636 7.03443 4.00006
13.41295 7.03435 4.00005
13.48968 7.03429 4.00005
13.56648 7.03422 4.00004
13.64341 7.03416 4.00004
13.72045 7.03411 4.00004
13.79753 7.03406 4.00003
13.87470 7.03402 4.00003
13.95201 7.03397 4.00003
14.02944 7.03393 4.00003
14.10698 7.03390 4.00003
14.18443 7.03386 4.00002
14.26212 7.03383 4.00002
14.33992 7.03381 4.00002
14.41782 7.03378 4.00002
14.49584 7.03375 4.00002
14.57373 7.03373 4.00001
14.65191 7.03371 4.00001
14.73020 7.03370 4.00001
14.80848 7.03368 4.00001
14.88695 7.03367 4.00001
14.96553 7.03365 4.00001
15.04352 7.03363 4.00001
15.12215 7.03362 4.00001
15.20088 7.03361 4.00001
15.27971 7.03360 4.00001
15.35865 7.03359 4.00001
15.43768 7.03358 4.00001
15.51681 7.03357 4.00001
15.59603 7.03357 4.00001
15.67534 7.03356 4.00000
15.75474 7.03355 4.00000
15.83422 7.03355 4.00000
15.91380 7.03354 4.00000
15.99346 7.03354 4.00000
16.07320 7.03353 4.00000
16.15301 7.03354 4.00001
16.23292 7.03352 4.00000
16.31291 7.03352 4.00000
16.39293 7.03354 4.00000
16.47310 7.03351 4.00000
16.55331 7.03351 4.00000
16.63360 7.03351 4.00000
16.71396 7.03351 4.00000
16.79440 7.03351 4.00000
16.87487 7.03350 4.00000
16.95542 7.03349 4.00000
17.03603 7.03349 4.00000
17.11671 7.03350 4.00000
17.19746 7.03349 4.00000
17.27828 7.03349 4.00000
17.35916 7.03349 4.00000
17.44011 7.03349 4.00000
17.52111 7.03349 4.00000
17.60219 7.03349 4.00000
17.68333 7.03349 4.00000
17.76453 7.03348 4.00000
17.84579 7.03348 4.00000
17.92711 7.03349 4.00000
18.00848 7.03349 4.00000
18.08992 7.03349 4.00000
18.17142 7.03348 4.00000
18.25298 7.03349 4.00000
18.33459 7.03349 4.00000
18.41626 7.03348 4.00000
18.49798 7.03348 4.00000
18.57976 7.03348 4.00000
18.66160 7.03348 4.00000
18.74349 7.03348 4.00000
18.82543 7.03348 4.00000
18.90743 7.03348 4.00000
18.98948 7.03348 4.00000
19.07158 7.03348 4.00000
19.15373 7.03348 4.00000
19.23593 7.03348 4.00000
19.31819 7.03348 4.00000
19.40047 7.03348 4.00000
19.48281 7.03348 4.00000
19.56520 7.03348 4.00000
19.64763 7.03348 4.00000
19.73011 7.03348 4.00000
19.81264 7.03348 4.00000
19.89521 7.03348 4.00000
19.97785 7.03348 4.00000
20.06052 7.03348 4.00000
20.14323 7.03348 4.00000
20.22600 7.03348 4.00000
20.30881 7.03348 4.00000
20.39166 7.03348 4.00000
20.47456 7.03348 4.00000
20.55750 7.03348 4.00000
20.64049 7.03348 4.00000
20.72352 7.03348 4.00000
20.80659 7.03348 4.00000
20.88970 7.03348 4.00000
20.97285 7.03348 4.00000
21.05604 7.03348 4.00000
21.13927 7.03348 4.00000
21.22255 7.03348 4.00000
21.30586 7.03348 4.00000
21.38921 7.03348 4.00000
21.47260 7.03348 4.00000
21.55603 7.03348 4.00000
21.63949 7.03348 4.00000
21.72299 7.03348 4.00000
21.80653 7.03348 4.00000
21.89011 7.03348 4.00000
21.97372 7.03348 4.00000
22.05737 7.03348 4.00000
22.14105 7.03348 4.00000
22.22477 7.03348 4.00000
22.30853 7.03348 4.00000
22.39232 7.03348 4.00000
22.47614 7.03348 4.00000
22.56000 7.03348 4.00000
22.64389 7.03348 4.00000
22.72782 7.03348 4.00000
22.81177 7.03348 4.00000
22.89576 7.03348 4.00000
22.97978 7.03348 4.00000
23.06384 7.03348 4.00000
23.14792 7.03348 4.00000
23.23204 7.03348 4.00000
23.31619 7.03348 4.00000
23.40037 7.03348 4.00000
23.48458 7.03348 4.00000
23.56882 7.03348 4.00000
23.65309 7.03348 4.00000
23.73739 7.03348 4.00000
23.82171 7.03348 4.00000
23.90607 7.03348 4.00000
23.99046 7.03348 4.00000
24.07487 7.03348 4.00000
24.15931 7.03348 4.00000
24.24378 7.03347 4.00000
24.32827 7.03348 4.00000
24.41280 7.03348 4.00000
24.49735 7.03347 4.00000
24.58192 7.03348 4.00000
24.66653 7.03347 4.00000
24.75115 7.03348 4.00000
24.83580 7.03347 4.00000
24.92047 7.03348 4.00000
25.00518 7.03348 4.00000
25.08989 7.03348 4.00000
25.17465 7.03348 4.00000
25.25943 7.03347 4.00000
25.34423 7.03348 4.00000
25.42906 7.03347 4.00000
25.51391 7.03348 4.00000
25.59879 7.03348 4.00000
25.68369 7.03348 4.00000
25.76859 7.03348 4.00000
25.85351 7.03348 4.00000
25.93846 7.03348 4.00000
26.02343 7.03348 4.00000
26.10842 7.03348 4.00000
26.19344 7.03348 4.00000
26.27847 7.03348 4.00000
26.36353 7.03348 4.00000
26.44861 7.03348 4.00000
26.53371 7.03348 4.00000
26.61883 7.03348 4.00000
26.70397 7.03348 4.00000
26.78913 7.03348 4.00000
26.87432 7.03348 4.00000
26.95952 7.03348 4.00000
27.04475 7.03348 4.00000
27.13000 7.03348 4.00000
27.21526 7.03348 4.00000
27.30055 7.03348 4.00000
27.38586 7.03348 4.00000
27.47118 7.03348 4.00000
27.55652 7.03348 4.00000
27.64189 7.03348 4.00000
27.72727 7.03348 4.00000
27.81268 7.03348 4.00000
27.89810 7.03348 4.00000
27.98354 7.03348 4.00000
28.06900 7.03348 4.00000
28.15448 7.03348 4.00000
28.23997 7.03348 4.00000
28.32549 7.03348 4.00000
28.41102 7.03348 4.00000
28.49657 7.03348 4.00000
28.58214 7.03348 4.00000
28.66773 7.03348 4.00000
28.75334 7.03348 4.00000
28.83897 7.03348 4.00000
28.92461 7.03348 4.00000
29.01028 7.03348 4.00000
29.09596 7.03348 4.00000
29.18166 7.03348 4.00000
29.26738 7.03348 4.00000
29.35312 7.03348 4.00000
29.43888 7.03348 4.00000
29.52466 7.03348 4.00000
29.61045 7.03348 4.00000

