Angle 0.641369 4.839601

4.00000 7.03348 4.00000
4.00000 7.03348 4.00000
4.00000 7.03348 4.00000
4.00000 7.03348 4.00000
4.00000 7.03348 4.00000
4.00000 7.03348 4.00000
4.00000 7.03348 4.00000
4.00000 7.03348 4.00000
4.00000 7.03348 4.00000
4.00000 7.03348 4.00000
4.00000 7.03348 4.00000
4.00000 7.03348 4.00000
4.00000 7.03348 4.00000
4.00000 7.03348 4.00000
4.00000 7.03348 4.00000
4.00000 7.03348 4.00000
4.00000 7.03348 4.00000
4.00000 7.03348 4.00000
4.00000 7.03348 4.00000
4.00000 7.03345 4.00000
4.00000 7.03346 4.00000
4.00000 7.03346 4.00000
4.00000 7.03348 4.00000
4.00000 7.03348 4.00000
4.00000 7.03348 4.00000
4.00000 7.03348 4.00000
4.00000 7.03348 4.00000
4.00000 7.03348 4.00000
4.00000 7.03348 4.00000
4.00000 7.03348 4.00000
4.00000 7.03348 4.00000
4.00000 7.03348 4.00000
4.00000 7.03348 4.00000
4.00000 7.03348 4.00000
4.00000 7.03348 4.00000
4.00000 7.03348 4.00000
4.00000 7.03348 4.00000
4.00000 7.03348 4.00000
4.00000 7.03347 4.00000
4.00000 7.03347 4.00000
4.00000 7.03347 4.00000
4.00000 7.03347 4.00000
4.00000 7.03348 4.00000
4.00000 7.03348 4.00000
4.00000 7.03348 4.00000
4.00000 7.03347 4.00000
4.00000 7.03347 4.00000
4.00000 7.03348 4.00000
4.00000 7.03348 4.00000
4.00000 7.03348 4.00000
4.00000 7.03348 4.00000
4.00000 7.03348 4.00000
4.00000 7.03348 4.00000
4.00000 7.03348 4.00000
4.00000 7.03348 4.00000
4.00000 7.03348 4.00000
4.00000 7.03348 4.00000
4.00000 7.03348 4.00000
4.00000 7.03347 4.00000
4.00000 7.03347 4.00000
4.00000 7.03348 4.00000
4.00000 7.03348 4.00000
4.00000 7.03348 4.00000
4.00000 7.03348 4.00000
4.00000 7.03347 4.00000
4.00000 7.03348 4.00000
4.00000 7.03348 4.00000
4.00000 7.03348 4.00000
4.00000 7.03348 4.00000
4.00000 7.03348 4.00000
4.00000 7.03348 4.00000
4.00000 7.03348 4.00000
4.00000 7.03348 4.00000
4.00000 7.03349 4.00000
4.00000 7.03348 4.00000
4.00000 7.03348 4.00000
4.00000 7.03351 4.00000
4.00000 7.03348 4.00000
4.00000 7.03348 4.00000
4.00000 7.03348 4.00000
4.00000 7.03348 4.00000
4.00000 7.03348 4.00000
4.00000 7.03348 4.00000
4.00000 7.03348 4.00000
4.00000 7.03348 4.00000
4.00000 7.03348 4.00000
4.00000 7.03348 4.00000
4.00000 7.03348 4.00000
4.00000 7.03348 4.00000
4.00000 7.03348 4.00000
4.00000 7.03348 4.00000
4.00000 7.03348 4.00000
4.00000 7.03347 4.00000
4.00000 7.03348 4.00000
4.00000 7.03348 4.00000
4.00000 7.03348 4.00000
4.00000 7.03348 4.00000
4.00000 7.03348 4.00000
4.00000 7.03348 4.00000
4.00000 7.03348 4.00000
4.00000 7.03348 4.00000
4.00000 7.03348 4.00000
4.00000 7.03348 4.00000
4.00000 7.03348 4.00000
4.00000 7.03348 4.00000
4.00000 7.03348 4.00000
4.00000 7.03348 4.00000
4.00000 7.03348 4.00000
4.00000 7.03348 4.00000
4.00000 7.03348 4.00000
4.00000 7.03348 4.00000
4.00000 7.03348 4.00000
4.00000 7.03348 4.00000
4.00000 7.03350 4.00000
4.00000 7.03348 4.00000
4.00000 7.03348 4.00000
4.00037 7.04001 4.00037
4.00470 7.11698 4.00471
4.00897 7.19421 4.00897
4.01318 7.27166 4.01318
4.01734 7.34927 4.01734
4.02149 7.42701 4.02149
4.02563 7.50483 4.02563
4.02977 7.58266 4.02977
4.03395 7.66047 4.03395
4.03817 7.73820 4.03817
4.04246 7.81579 4.04246
4.04684 7.89318 4.04684
4.05133 7.97030 4.05133
4.05596 8.04708 4.05596
4.06078 8.12343 4.06078
4.06580 8.19925 4.06580
4.07108 8.27442 4.07108
4.07667 8.34882 4.07667
4.08262 8.42228 4.08262
4.08902 8.49462 4.08902
4.09595 8.56562 4.09595
4.10350 8.63501 4.10350
4.11179 8.70256 4.11179
4.12074 8.76846 4.12074
4.13038 8.83267 4.13038
4.14073 8.89514 4.14073
4.15185 8.95580 4.15185
4.16374 9.01460 4.16374
4.17645 9.07151 4.17644
4.18997 9.12653 4.18997
4.20433 9.17965 4.20433
4.21952 9.23088 4.21952
4.23555 9.28027 4.23555
4.25241 9.32786 4.25241
4.27008 9.37370 4.27008
4.28855 9.41788 4.28855
4.30778 9.46045 4.30778
4.32776 9.50150 4.32776
4.34846 9.54111 4.34846
4.36986 9.57934 4.36986
4.39192 9.61626 4.39192
4.41463 9.65194 4.41463
4.43799 9.68638 4.43799
4.46198 9.71962 4.46197
4.48662 9.75160 4.48661
4.51195 9.78222 4.51195
4.53809 9.81127 4.53809
4.56520 9.83833 4.56519
4.59361 9.86262 4.59361
4.62399 9.88271 4.62399
4.65753 9.89583 4.65753
7.79957 7.38835 4.01943
7.93600 7.33922 4.01681
8.06272 7.29973 4.01469
8.18251 7.26715 4.01293
8.29705 7.23979 4.01145
8.40761 7.21644 4.01018
8.51488 7.19637 4.00909
8.61957 7.17892 4.00813
8.72205 7.16369 4.00729
8.82273 7.15028 4.00656
8.92186 7.13846 4.00590
9.01968 7.12797 4.00532
9.11637 7.11865 4.00480
9.21209 7.11033 4.00434
9.30695 7.10290 4.00392
9.40108 7.09624 4.00355
9.49456 7.09025 4.00321
9.58747 7.08488 4.00291
9.67988 7.08005 4.00264
9.77185 7.07569 4.00239
9.86342 7.07176 4.00217
9.95466 7.06820 4.00197
10.04558 7.06500 4.00179
10.13624 7.06210 4.00163
10.22666 7.05946 4.00148
10.31687 7.05708 4.00134
10.40688 7.05492 4.00122
10.49674 7.05297 4.00111
10.58644 7.05119 4.00101
10.67601 7.04958 4.00092
10.76547 7.04811 4.00084
10.85483 7.04679 4.00076
10.94410 7.04558 4.00069
11.03329 7.04448 4.00063
11.12241 7.04349 4.00057
11.21148 7.04259 4.00052
11.30049 7.04176 4.00047
11.38946 7.04101 4.00043
11.47839 7.04033 4.00039
11.56730 7.03971 4.00035
11.65617 7.03915 4.00032
11.74502 7.03864 4.00029
11.83386 7.03818 4.00027
11.92268 7.03775 4.00024
12.01149 7.03737 4.00022
12.10029 7.03702 4.00020
12.18909 7.03670 4.00018
12.27788 7.03641 4.00017
12.36668 7.03614 4.00015
12.45548 7.03590 4.00014
12.54428 7.03568 4.00013
12.63308 7.03548 4.00011
12.72190 7.03530 4.00010
12.81072 7.03514 4.00009
12.89954 7.03499 4.00009
12.98839 7.03485 4.00008
13.07723 7.03473 4.00007
13.16609 7.03462 4.00007
13.25496 7.03452 4.00006
13.34384 7.03442 4.00005
13.43274 7.03434 4.00005
13.52164 7.03426 4.00004
13.61057 7.03419 4.00004
13.69950 7.03413 4.00004
13.78845 7.03407 4.00003
13.87742 7.03401 4.00003
13.96640 7.03397 4.00003
14.05539 7.03392 4.00002
14.14440 7.03388 4.00002
14.23342 7.03385 4.00002
14.32246 7.03381 4.00002
14.41151 7.03378 4.00002
14.50058 7.03376 4.00002
14.58966 7.03373 4.00001
14.67875 7.03371 4.00001
14.76786 7.03369 4.00001
14.85698 7.03367 4.00001
14.94612 7.03365 4.00001
15.03527 7.03364 4.00001
15.12444 7.03362 4.00001
15.21362 7.03361 4.00001
15.30281 7.03360 4.00001
15.39202 7.03359 4.00001
15.48124 7.03358 4.00001
15.57048 7.03357 4.00000
15.65972 7.03356 4.00000
15.74898 7.03355 4.00000
15.83826 7.03355 4.00000
15.92754 7.03354 4.00000
16.01684 7.03353 4.00000
16.10615 7.03353 4.00000
16.19547 7.03352 4.00000
16.28482 7.03352 4.00000
16.37416 7.03352 4.00000
16.46352 7.03351 4.00000
16.55289 7.03351 4.00000
16.64228 7.03350 4.00000
16.73167 7.03350 4.00000
16.82107 7.03350 4.00000
16.91050 7.03350 4.00000
16.99992 7.03350 4.00000
17.08936 7.03349 4.00000
17.17881 7.03350 4.00000
17.26828 7.03349 4.00000
17.35775 7.03349 4.00000
17.44723 7.03349 4.00000
17.53672 7.03349 4.00000
17.62622 7.03349 4.00000
17.71573 7.03350 4.00000
17.80526 7.03349 4.00000
17.89480 7.03349 4.00000
17.98434 7.03348 4.00000
18.07389 7.03349 4.00000
18.16346 7.03349 4.00000
18.25303 7.03348 4.00000
18.34261 7.03348 4.00000
18.43220 7.03348 4.00000
18.52180 7.03348 4.00000
18.61141 7.03348 4.00000
18.70103 7.03348 4.00000
18.79065 7.03348 4.00000
18.88029 7.03348 4.00000
18.96994 7.03348 4.00000
19.05959 7.03348 4.00000
19.14924 7.03348 4.00000
19.23890 7.03348 4.00000
19.32857 7.03348 4.00000
19.41824 7.03348 4.00000
19.50793 7.03348 4.00000
19.59761 7.03348 4.00000
19.68731 7.03348 4.00000
19.77701 7.03348 4.00000
19.86674 7.03348 4.00000
19.95646 7.03348 4.00000
20.04619 7.03348 4.00000
20.13593 7.03348 4.00000
20.22568 7.03348 4.00000
20.31544 7.03348 4.00000
20.40520 7.03348 4.00000
20.49497 7.03348 4.00000
20.58475 7.03348 4.00000
20.67453 7.03348 4.00000
20.76432 7.03348 4.00000
20.85411 7.03348 4.00000
20.94391 7.03348 4.00000
21.03372 7.03348 4.00000
21.12353 7.03348 4.00000
21.21335 7.03348 4.00000
21.30317 7.03348 4.00000
21.39300 7.03348 4.00000
21.48283 7.03348 4.00000
21.57267 7.03348 4.00000
21.66252 7.03348 4.00000
21.75237 7.03348 4.00000
21.84222 7.03348 4.00000
21.93209 7.03348 4.00000
22.02195 7.03347 4.00000
22.11182 7.03348 4.00000
22.20170 7.03347 4.00000
22.29157 7.03348 4.00000
22.38146 7.03348 4.00000
22.47134 7.03349 4.00000
22.56125 7.03348 4.00000
22.65116 7.03348 4.00000
22.74106 7.03349 4.00000
22.83099 7.03348 4.00000
22.92091 7.03348 4.00000
23.01085 7.03347 4.00000
23.10077 7.03348 4.00000
23.19071 7.03348 4.00000
23.28066 7.03348 4.00000
23.37060 7.03348 4.00000
23.46055 7.03348 4.00000
23.55051 7.03348 4.00000
23.64047 7.03348 4.00000
23.73044 7.03348 4.00000
23.82041 7.03348 4.00000
23.91038 7.03348 4.00000
24.00035 7.03348 4.00000
24.09033 7.03348 4.00000
24.18032 7.03348 4.00000
24.27031 7.03348 4.00000
24.36029 7.03348 4.00000
24.45029 7.03348 4.00000
24.54027 7.03348 4.00000
24.63027 7.03348 4.00000
24.72026 7.03348 4.00000
24.81028 7.03348 4.00000
24.90028 7.03348 4.00000
24.99028 7.03348 4.00000
25.08029 7.03348 4.00000
25.17030 7.03348 4.00000
25.26031 7.03348 4.00000
25.35033 7.03348 4.00000
25.44035 7.03348 4.00000
25.53038 7.03348 4.00000
25.62040 7.03348 4.00000
25.71043 7.03348 4.00000
25.80047 7.03348 4.00000
25.89050 7.03348 4.00000
25.98054 7.03348 4.00000
26.07059 7.03348 4.00000
26.16063 7.03348 4.00000
26.25069 7.03348 4.00000
26.34075 7.03348 4.00000
26.43081 7.03348 4.00000
26.52087 7.03348 4.00000
26.61093 7.03348 4.00000
26.70100 7.03348 4.00000
26.79107 7.03348 4.00000
26.88115 7.03348 4.00000
26.97123 7.03348 4.00000
27.06131 7.03348 4.00000
27.15139 7.03348 4.00000
27.24147 7.03348 4.00000
27.33156 7.03348 4.00000
27.42165 7.03348 4.00000
27.51174 7.03348 4.00000
27.60184 7.03348 4.00000
27.69194 7.03348 4.00000
27.78204 7.03348 4.00000
27.87214 7.03348 4.00000
27.96225 7.03348 4.00000
28.05235 7.03348 4.00000
28.14247 7.03348 4.00000
28.23258 7.03348 4.00000
28.32269 7.03348 4.00000
28.41281 7.03348 4.00000
28.50293 7.03348 4.00000
28.59305 7.03348 4.00000
28.68318 7.03348 4.00000
28.77331 7.03348 4.00000
28.86345 7.03349 4.00000

Angle 0.647640 1.203319

4.00000 7.03348 4.00000
4.00000 7.03348 4.00000
4.00000 7.03348 4.00000
4.00000 7.03348 4.00000
4.00000 7.03348 4.00000
4.00000 7.03348 4.00000
4.00000 7.03348 4.00000
4.00000 7.03348 4.00000
4.00000 7.03348 4.00000
4.00000 7.03348 4.00000
4.00000 7.03348 4.00000
4.00000 7.03348 4.00000
4.00000 7.03348 4.00000
4.00000 7.03348 4.00000
4.00000 7.03348 4.00000
4.00000 7.03348 4.00000
4.00000 7.03348 4.00000
4.00000 7.03348 4.00000
4.00000 7.03348 4.00000
4.00000 7.03348 4.00000
4.00000 7.03348 4.00000
4.00000 7.03348 4.00000
4.00000 7.03348 4.00000
4.00000 7.03348 4.00000
4.00000 7.03348 4.00000
4.00000 7.03348 4.00000
4.00000 7.03348 4.00000
4.00000 7.03348 4.00000
4.00000 7.03348 4.00000
4.00000 7.03348 4.00000
4.00000 7.03348 4.00000
4.00000 7.03348 4.00000
4.00000 7.03348 4.00000
4.00000 7.03348 4.00000
4.00000 7.03348 4.00000
4.00000 7.03348 4.00000
4.00000 7.03348 4.00000
4.00000 7.03348 4.00000
4.00000 7.03348 4.00000
4.00000 7.03348 4.00000
4.00000 7.03348 4.00000
4.00000 7.03349 4.00000
4.00000 7.03349 4.00000
4.00000 7.03349 4.00000
4.00000 7.03349 4.00000
4.00000 7.03349 4.00000
4.00000 7.03349 4.00000
4.00000 7.03348 4.00000
4.00000 7.03348 4.00000
4.00000 7.03349 4.00000
4.00000 7.03350 4.00000
4.00000 7.03348 4.00000
4.00000 7.03348 4.00000
4.00000 7.03348 4.00000
4.00000 7.03348 4.00000
4.00000 7.03348 4.00000
4.00000 7.03348 4.00000
4.00000 7.03348 4.00000
4.00000 7.03348 4.00000
4.00000 7.03348 4.00000
4.00000 7.03349 4.00000
4.00000 7.03348 4.00000
4.00000 7.03348 4.00000
4.00000 7.03348 4.00000
4.00000 7.03348 4.00000
4.00000 7.03348 4.00000
4.00000 7.03348 4.00000
4.00000 7.03348 4.00000
4.00000 7.03348 4.00000
4.00000 7.03348 4.00000
4.00000 7.03348 4.00000
4.00000 7.03348 4.00000
4.00000 7.03348 4.00000
4.00000 7.03348 4.00000
4.00000 7.03348 4.00000
4.00000 7.03348 4.00000
4.00000 7.03348 4.00000
4.00000 7.03348 4.00000
4.00000 7.03348 4.00000
4.00000 7.03348 4.00000
4.00000 7.03348 4.00000
4.00000 7.03348 4.00000
4.00000 7.03348 4.00000
4.00000 7.03348 4.00000
4.00000 7.03348 4.00000
4.00000 7.03348 4.00000
4.00000 7.03348 4.00000
4.00000 7.03348 4.00000
4.00000 7.03348 4.00000
4.00000 7.03348 4.00000
4.00000 7.03348 4.00000
4.00000 7.03348 4.00000
4.00000 7.03348 4.00000
4.00000 7.03348 4.00000
4.00000 7.03348 4.00000
4.00000 7.03348 4.00000
4.00000 7.03348 4.00000
4.00000 7.03348 4.00000
4.00000 7.03348 4.00000
4.00000 7.03348 4.00000
4.00000 7.03352 4.00000
4.00380 7.10067 4.00380
4.00806 7.17755 4.00806
4.01226 7.25467 4.01226
4.01642 7.33197 4.01642
4.02055 7.40940 4.02055
4.02467 7.48692 4.02467
4.02880 7.56448 4.02880
4.03295 7.64203 4.03295
4.03715 7.71951 4.03715
4.04140 7.79688 4.04140
4.04574 7.87406 4.04574
4.05019 7.95100 4.05019
4.05477 8.02762 4.05477
4.05952 8.10384 4.05952
4.06447 8.17956 4.06447
4.06966 8.25468 4.06966
4.07514 8.32906 4.07514
4.08098 8.40256 4.08098
4.08723 8.47501 4.08723
4.09398 8.54618 4.09398
4.10132 8.61584 4.10133
4.10938 8.68370 4.10938
4.11812 8.74986 4.11812
4.12753 8.81438 4.12753
4.13765 8.87718 4.13765
4.14851 8.93820 4.14851
4.16014 8.99739 4.16014
4.17256 9.05471 4.17256
4.18580 9.11014 4.18580
4.19987 9.16369 4.19987
4.21477 9.21536 4.21477
4.23050 9.26518 4.23050
4.24706 9.31320 4.24706
4.26443 9.35947 4.26444
4.28261 9.40404 4.28261
4.30155 9.44701 4.30155
4.32124 9.48844 4.32125
4.34167 9.52840 4.34167
4.36279 9.56698 4.36278
4.38458 9.60424 4.38458
4.40702 9.64024 4.40703
4.43011 9.67501 4.43011
4.45383 9.70857 4.45383
4.47819 9.74091 4.47819
4.50323 9.77194 4.50323
4.52902 9.80149 4.52902
4.55570 9.82924 4.55570
4.58355 9.85456 4.58355
4.61307 9.87630 4.61307
4.64524 9.89225 4.64524
7.74806 7.40892 4.02053
7.88868 7.35543 4.01767
8.01820 7.31297 4.01540
8.13999 7.27822 4.01353
8.25605 7.24918 4.01196
8.36772 7.22453 4.01062
8.47589 7.20339 4.00947
8.58125 7.18507 4.00847
8.68429 7.16909 4.00759
8.78541 7.15507 4.00682
8.88489 7.14271 4.00614
8.98299 7.13177 4.00553
9.07990 7.12204 4.00499
9.17579 7.11338 4.00451
9.27079 7.10564 4.00407
9.36501 7.09871 4.00369
9.45855 7.09249 4.00334
9.55151 7.08690 4.00302
9.64394 7.08188 4.00274
9.73590 7.07734 4.00249
9.82747 7.07326 4.00226
9.91867 7.06957 4.00205
10.00956 7.06623 4.00186
10.10016 7.06322 4.00169
10.19052 7.06048 4.00153
10.28065 7.05801 4.00139
10.37059 7.05577 4.00127
10.46036 7.05374 4.00115
10.54998 7.05189 4.00105
10.63945 7.05022 4.00095
10.72881 7.04870 4.00087
10.81807 7.04732 4.00079
10.90723 7.04607 4.00072
10.99631 7.04493 4.00065
11.08532 7.04389 4.00059
11.17427 7.04295 4.00054
11.26317 7.04210 4.00049
11.35202 7.04132 4.00045
11.44084 7.04061 4.00041
11.52962 7.03997 4.00037
11.61837 7.03939 4.00034
11.70710 7.03885 4.00031
11.79581 7.03837 4.00028
11.88451 7.03793 4.00025
11.97320 7.03753 4.00023
12.06188 7.03716 4.00021
12.15055 7.03683 4.00019
12.23922 7.03653 4.00017
12.32789 7.03626 4.00016
12.41657 7.03600 4.00014
12.50524 7.03578 4.00013
12.59393 7.03557 4.00012
12.68262 7.03538 4.00011
12.77132 7.03521 4.00010
12.86003 7.03505 4.00009
12.94874 7.03491 4.00008
13.03747 7.03478 4.00007
13.12621 7.03466 4.00007
13.21496 7.03456 4.00006
13.30372 7.03446 4.00006
13.39250 7.03437 4.00005
13.48129 7.03429 4.00005
13.57010 7.03422 4.00004
13.65892 7.03415 4.00004
13.74775 7.03409 4.00003
13.83660 7.03404 4.00003
13.92547 7.03399 4.00003
14.01435 7.03394 4.00003
14.10324 7.03390 4.00002
14.19215 7.03386 4.00002
14.28108 7.03383 4.00002
14.37002 7.03379 4.00002
14.45898 7.03377 4.00002
14.54795 7.03374 4.00001
14.63694 7.03372 4.00001
14.72594 7.03369 4.00001
14.81496 7.03368 4.00001
14.90399 7.03366 4.00001
14.99304 7.03364 4.00001
15.08210 7.03363 4.00001
15.17117 7.03361 4.00001
15.26027 7.03360 4.00001
15.34937 7.03359 4.00001
15.43849 7.03358 4.00001
15.52762 7.03357 4.00001
15.61677 7.03356 4.00000
15.70593 7.03356 4.00000
15.79511 7.03355 4.00000
15.88430 7.03354 4.00000
15.97350 7.03354 4.00000
16.06272 7.03353 4.00000
16.15194 7.03353 4.00000
16.24119 7.03352 4.00000
16.33044 7.03352 4.00000
16.41971 7.03352 4.00000
16.50899 7.03351 4.00000
16.59828 7.03351 4.00000
16.68758 7.03351 4.00000
16.77689 7.03350 4.00000
16.86622 7.03350 4.00000
16.95556 7.03350 4.00000
17.04491 7.03350 4.00000
17.13427 7.03349 4.00000
17.22365 7.03349 4.00000
17.31302 7.03349 4.00000
17.40241 7.03349 4.00000
17.49182 7.03349 4.00000
17.58123 7.03349 4.00000
17.67066 7.03349 4.00000
17.76009 7.03349 4.00000
17.84953 7.03348 4.00000
17.93899 7.03349 4.00000
18.02845 7.03349 4.00000
18.11793 7.03348 4.00000
18.20741 7.03349 4.00000
18.29691 7.03348 4.00000
18.38641 7.03349 4.00000
18.47592 7.03348 4.00000
18.56545 7.03348 4.00000
18.65498 7.03348 4.00000
18.74452 7.03348 4.00000
18.83407 7.03348 4.00000
18.92363 7.03348 4.00000
19.01320 7.03348 4.00000
19.10278 7.03348 4.00000
19.19236 7.03348 4.00000
19.28195 7.03348 4.00000
19.37155 7.03348 4.00000
19.46116 7.03348 4.00000
19.55078 7.03348 4.00000
19.64040 7.03348 4.00000
19.73003 7.03348 4.00000
19.81966 7.03348 4.00000
19.90931 7.03348 4.00000
19.99896 7.03348 4.00000
20.08862 7.03348 4.00000
20.17828 7.03348 4.00000
20.26795 7.03348 4.00000
20.35762 7.03348 4.00000
20.44730 7.03348 4.00000
20.53699 7.03348 4.00000
20.62669 7.03348 4.00000
20.71639 7.03348 4.00000
20.80610 7.03348 4.00000
20.89581 7.03348 4.00000
20.98553 7.03348 4.00000
21.07526 7.03348 4.00000
21.16500 7.03348 4.00000
21.25474 7.03348 4.00000
21.34449 7.03348 4.00000
21.43424 7.03348 4.00000
21.52400 7.03348 4.00000
21.61377 7.03348 4.00000
21.70354 7.03348 4.00000
21.79332 7.03348 4.00000
21.88310 7.03348 4.00000
21.97289 7.03348 4.00000
22.06268 7.03348 4.00000
22.15248 7.03348 4.00000
22.24229 7.03348 4.00000
22.33210 7.03348 4.00000
22.42192 7.03348 4.00000
22.51174 7.03348 4.00000
22.60157 7.03348 4.00000
22.69140 7.03348 4.00000
22.78124 7.03348 4.00000
22.87108 7.03348 4.00000
22.96093 7.03348 4.00000
23.05078 7.03348 4.00000
23.14064 7.03348 4.00000
23.23050 7.03348 4.00000
23.32037 7.03348 4.00000
23.41025 7.03348 4.00000
23.50012 7.03348 4.00000
23.58999 7.03349 4.00000
23.67990 7.03348 4.00000
23.76978 7.03349 4.00000
23.85969 7.03348 4.00000
23.94959 7.03348 4.00000
24.03948 7.03349 4.00000
24.12941 7.03348 4.00000
24.21932 7.03348 4.00000
24.30924 7.03348 4.00000
24.39917 7.03348 4.00000
24.48909 7.03348 4.00000
24.57903 7.03348 4.00000
24.66895 7.03349 4.00000
24.75890 7.03348 4.00000
24.84885 7.03348 4.00000
24.93879 7.03349 4.00000
25.02874 7.03349 4.00000
25.11869 7.03349 4.00000
25.20866 7.03349 4.00000
25.29863 7.03348 4.00000
25.38860 7.03347 4.00000
25.47857 7.03348 4.00000
25.56854 7.03348 4.00000
25.65852 7.03348 4.00000
25.74850 7.03348 4.00000
25.83849 7.03348 4.00000
25.92848 7.03348 4.00000
26.01847 7.03349 4.00000
26.10847 7.03348 4.00000
26.19846 7.03349 4.00000
26.28848 7.03348 4.00000
26.37848 7.03348 4.00000
26.46850 7.03348 4.00000
26.55851 7.03348 4.00000
26.64853 7.03348 4.00000
26.73856 7.03348 4.00000
26.82859 7.03347 4.00000
26.91862 7.03348 4.00000
27.00865 7.03348 4.00000
27.09869 7.03348 4.00000
27.18873 7.03348 4.00000
27.27878 7.03348 4.00000
27.36883 7.03348 4.00000
27.45889 7.03348 4.00000
27.54894 7.03348 4.00000
27.63900 7.03348 4.00000
27.72907 7.03348 4.00000
27.81914 7.03348 4.00000
27.90921 7.03348 4.00000
27.99929 7.03348 4.00000
28.08936 7.03348 4.00000
28.17945 7.03348 4.00000
28.26953 7.03348 4.00000
28.35962 7.03348 4.00000
28.44972 7.03348 4.00000
28.53982 7.03348 4.00000
28.62992 7.03348 4.00000
28.72002 7.03348 4.00000
28.81013 7.03348 4.00000
28.90025 7.03348 4.00000
28.99036 7.03348 4.00000
29.08049 7.03348 4.00000
29.17062 7.03348 4.00000
29.26074 7.03348 4.00000
29.35086 7.03348 4.00000
29.44099 7.03348 4.00000
29.53114 7.03348 4.00000
29.62128 7.03348 4.00000
29.71142 7.03348 4.00000
29.80157 7.03348 4.00000
29.89173 7.03348 4.00000
29.98188 7.03348 4.00000
30.07204 7.03348 4.00000
30.16220 7.03348 4.00000
30.25236 7.03348 4.00000

Angle 0.149822 2.602587

4.00000 7.03348 4.00000
4.00000 7.03348 4.00000
4.00000 7.03348 4.00000
4.00000 7.03348 4.00000
4.00000 7.03348 4.00000
4.00000 7.03348 4.00000
4.00000 7.03348 4.00000
4.00000 7.03349 4.00000
4.00000 7.03348 4.00000
4.00000 7.03348 4.00000
4.00000 7.03348 4.00000
4.00000 7.03348 4.00000
4.00000 7.03348 4.00000
4.00000 7.03348 4.00000
4.00000 7.03348 4.00000
4.00000 7.03348 4.00000
4.00000 7.03348 4.00000
4.00000 7.03348 4.00000
4.00000 7.03348 4.00000
4.00000 7.03348 4.00000
4.00000 7.03348 4.00000
4.00000 7.03348 4.00000
4.00000 7.03348 4.00000
4.00000 7.03348 4.00000
4.00000 7.03348 4.00000
4.00000 7.03348 4.00000
4.00000 7.03348 4.00000
4.00000 7.03348 4.00000
4.00000 7.03348 4.00000
4.00000 7.03348 4.00000
4.00000 7.03348 4.00000
4.00000 7.03348 4.00000
4.00000 7.03348 4.00000
4.00000 7.03348 4.00000
4.00000 7.03348 4.00000
4.00000 7.03348 4.00000
4.00000 7.03348 4.00000
4.00000 7.03348 4.00000
4.00000 7.03348 4.00000
4.00000 7.03348 4.00000
4.00000 7.03348 4.00000
4.00000 7.03348 4.00000
4.00000 7.03348 4.00000
4.00000 7.03348 4.00000
4.00000 7.03348 4.00000
4.00000 7.03348 4.00000
4.00000 7.03348 4.00000
4.00000 7.03348 4.00000
4.00000 7.03348 4.00000
4.00000 7.03348 4.00000
4.00000 7.03348 4.00000
4.00000 7.03348 4.00000
4.00000 7.03348 4.00000
4.00000 7.03348 4.00000
4.00000 7.03348 4.00000
4.00000 7.03348 4.00000
4.00000 7.03348 4.00000
4.00000 7.03348 4.00000
4.00000 7.03350 4.00000
4.00000 7.03350 4.00000
4.00000 7.03348 4.00000
4.00000 7.03348 4.00000
4.00000 7.03348 4.00000
4.00000 7.03348 4.00000
4.00000 7.03348 4.00000
4.00000 7.03348 4.00000
4.00000 7.03348 4.00000
4.00000 7.03348 4.00000
4.00000 7.03348 4.00000
4.00000 7.03348 4.00000
4.00000 7.03348 4.00000
4.00000 7.03346 4.00000
4.00000 7.03346 4.00000
4.00000 7.03348 4.00000
4.00000 7.03348 4.00000
4.00000 7.03348 4.00000
4.00000 7.03348 4.00000
4.00000 7.03348 4.00000
4.00000 7.03345 4.00000
4.00000 7.03345 4.00000
4.00000 7.03347 4.00000
4.00000 7.03348 4.00000
4.00000 7.03348 4.00000
4.00000 7.03348 4.00000
4.00000 7.03348 4.00000
4.00000 7.03348 4.00000
4.00000 7.03348 4.00000
4.00000 7.03348 4.00000
4.00000 7.03348 4.00000
4.00000 7.03348 4.00000
4.00000 7.03348 4.00000
4.00000 7.03348 4.00000
4.00000 7.03348 4.00000
4.00000 7.03347 4.00000
4.00000 7.03348 4.00000
4.00000 7.03348 4.00000
4.00000 7.03348 4.00000
4.00000 7.03348 4.00000
4.00000 7.03348 4.00000
4.00000 7.03349 4.00000
4.00000 7.03348 4.00000
4.00000 7.03348 4.00000
4.00001 7.03339 4.00000
4.00000 7.03348 4.00000
4.00000 7.03346 4.00000
4.00000 7.03348 4.00000
4.00000 7.03348 4.00000
4.00000 7.03348 4.00000
4.00000 7.03346 4.00000
4.00000 7.03348 4.00000
4.00000 7.03347 4.00000
4.00000 7.03348 4.00000
4.00000 7.03348 4.00000
4.00000 7.03347 4.00000
4.00000 7.03347 4.00000
4.00000 7.03348 4.00000
4.00000 7.03341 4.00000
4.00000 7.03348 4.00000
4.00000 7.03346 4.00000
4.00000 7.03347 4.00000
4.00000 7.03348 4.00000
4.00000 7.03349 4.00000
4.00000 7.03348 4.00000
4.00000 7.03348 4.00000
4.00000 7.03347 4.00000
4.00000 7.03347 4.00000
4.00000 7.03347 4.00000
4.00000 7.03351 4.00000
4.00000 7.03348 4.00000
4.00000 7.03347 4.00000
4.00000 7.03348 4.00000
4.00000 7.03348 4.00000
4.00000 7.03348 4.00000
4.00000 7.03348 4.00000
4.00000 7.03347 4.00000
4.00000 7.03347 4.00000
4.00000 7.03347 4.00000
4.00000 7.03348 4.00000
4.00000 7.03348 4.00000
4.00000 7.03348 4.00000
4.00000 7.03348 4.00000
4.00000 7.03348 4.00000
4.00000 7.03348 4.00000
4.00000 7.03348 4.00000
4.00000 7.03348 4.00000
4.00000 7.03348 4.00000
4.00000 7.03348 4.00000
4.00000 7.03348 4.00000
4.00000 7.03348 4.00000
4.00000 7.03348 4.00000
4.00000 7.03348 4.00000
4.00000 7.03348 4.00000
4.00000 7.03348 4.00000
4.00000 7.03348 4.00000
4.00000 7.03348 4.00000
4.00000 7.03348 4.00000
4.00000 7.03349 4.00000
4.00000 7.03348 4.00000
4.00000 7.03348 4.00000
4.00000 7.03348 4.00000
4.00000 7.03348 4.00000
4.00000 7.03348 4.00000
4.00000 7.03348 4.00000
4.00000 7.03346 4.00000
4.00000 7.03348 4.00000
4.00000 7.03348 4.00000
4.00000 7.03348 4.00000
4.00000 7.03344 4.00000
4.00000 7.03345 4.00000
4.00000 7.03348 4.00000
4.00000 7.03348 4.00000
4.00000 7.03347 4.00000
4.00000 7.03346 4.00000
4.00000 7.03348 4.00000
4.00000 7.03348 4.00000
4.00000 7.03348 4.00000
4.00000 7.03348 4.00000
4.00000 7.03347 4.00000
4.00000 7.03348 4.00000
4.00000 7.03348 4.00000
4.00000 7.03348 4.00000
4.00000 7.03348 4.00000
4.00000 7.03348 4.00000
4.00000 7.03348 4.00000
4.00000 7.03348 4.00000
4.00000 7.03348 4.00000
4.00000 7.03348 4.00000
4.00000 7.03348 4.00000
4.00000 7.03348 4.00000
4.00000 7.03348 4.00000
4.00000 7.03348 4.00000
4.00000 7.03348 4.00000
4.00000 7.03348 4.00000
4.00000 7.03348 4.00000
4.00000 7.03348 4.00000
4.00000 7.03348 4.00000
4.00000 7.03348 4.00000
4.00000 7.03348 4.00000
4.00000 7.03348 4.00000
4.00000 7.03348 4.00000
4.00000 7.03348 4.00000
4.00000 7.03348 4.00000
4.00000 7.03348 4.00000
4.00000 7.03348 4.00000
4.00000 7.03348 4.00000
4.00000 7.03348 4.00000
4.00000 7.03348 4.00000
4.00000 7.03347 4.00000
4.00000 7.03347 4.00000
4.00000 7.03346 4.00000
4.00000 7.03348 4.00000
4.00000 7.03348 4.00000
4.00000 7.03348 4.00000
4.00000 7.03348 4.00000
4.00000 7.03348 4.00000
4.00000 7.03348 4.00000
4.00000 7.03350 4.00000
4.00000 7.03348 4.00000
4.00000 7.03348 4.00000
4.00000 7.03348 4.00000
4.00000 7.03348 4.00000
4.00000 7.03348 4.00000
4.00000 7.03348 4.00000
4.00000 7.03348 4.00000
4.00000 7.03348 4.00000
4.00000 7.03348 4.00000
4.00000 7.03349 4.00000
4.00000 7.03346 4.00000
4.00000 7.03348 4.00000
4.00000 7.03348 4.00000
4.00000 7.03348 4.00000
4.00000 7.03348 4.00000
4.00000 7.03348 4.00000
4.00000 7.03348 4.00000
4.00000 7.03348 4.00000
4.00000 7.03348 4.00000
4.00000 7.03348 4.00000
4.00000 7.03348 4.00000
4.00000 7.03348 4.00000
4.00000 7.03348 4.00000
4.00000 7.03348 4.00000
4.00000 7.03348 4.00000
4.00000 7.03348 4.00000
4.00000 7.03348 4.00000
4.00000 7.03348 4.00000
4.00000 7.03348 4.00000
4.00000 7.03348 4.00000
4.00000 7.03348 4.00000
4.00000 7.03348 4.00000
4.00000 7.03348 4.00000
4.00000 7.03349 4.00000
4.00000 7.03348 4.00000
4.00000 7.03348 4.00000
4.00000 7.03348 4.00000
4.00000 7.03348 4.00000
4.00039 7.04022 4.00038
4.00473 7.11735 4.00473
4.00900 7.19474 4.00900
4.01321 7.27235 4.01321
4.01739 7.35012 4.01739
4.02154 7.42801 4.02154
4.02569 7.50598 4.02569
4.02984 7.58397 4.02984
4.03403 7.66192 4.03403
4.03826 7.73979 4.03826
4.04255 7.81753 4.04255
4.04694 7.89505 4.04694
4.05145 7.97231 4.05145
4.05610 8.04921 4.05609
4.06092 8.12568 4.06092
4.06596 8.20161 4.06596
4.07126 8.27690 4.07126
4.07687 8.35139 4.07687
4.08285 8.42494 4.08285
4.08927 8.49735 4.08927
4.09623 8.56841 4.09623
4.10383 8.63784 4.10383
4.11216 8.70543 4.11216
4.12115 8.77135 4.12115
4.13084 8.83559 4.13084
4.14125 8.89807 4.14125
4.15241 8.95873 4.15241
4.16437 9.01753 4.16437
4.17713 9.07443 4.17713
4.19072 9.12943 4.19072
4.20514 9.18252 4.20514
4.22041 9.23372 4.22041
4.23651 9.28308 4.23651
4.25344 9.33063 4.25344
4.27118 9.37644 4.27118
4.28972 9.42057 4.28972
4.30903 9.46310 4.30903
4.32908 9.50411 4.32908
4.34986 9.54368 4.34986
4.37133 9.58187 4.37133
4.39346 9.61876 4.39346
4.41625 9.65439 4.41625
4.43968 9.68880 4.43968
4.46374 9.72199 4.46374
4.48846 9.75391 4.48846
4.51389 9.78446 4.51389
4.54012 9.81341 4.54012
4.56735 9.84032 4.56735
4.59593 9.86439 4.59593
4.62653 9.88406 4.62653
4.66045 9.89646 4.66045
4.69987 9.89664 4.69986
4.01661 7.33560 7.94690
4.01453 7.29673 8.07310
4.01280 7.26461 8.19252
4.01133 7.23759 8.30683
4.01008 7.21456 8.41717
4.00900 7.19470 8.52433
4.00805 7.17745 8.62891
4.00722 7.16237 8.73133
4.00649 7.14912 8.83195
4.00584 7.13742 8.93105
4.00527 7.12704 9.02886
4.00475 7.11781 9.12555
4.00429 7.10957 9.22128
4.00388 7.10221 9.31616
4.00351 7.09561 9.41032
4.00318 7.08970 9.50383
4.00288 7.08438 9.59677
4.00261 7.07959 9.68923
4.00237 7.07527 9.78125
4.00215 7.07138 9.87287
4.00195 7.06786 9.96416
4.00177 7.06468 10.05515
4.00161 7.06180 10.14586
4.00146 7.05920 10.23634
4.00133 7.05684 10.32661
4.00121 7.05470 10.41668
4.00110 7.05276 10.50660
4.00100 7.05100 10.59637
4.00091 7.04941 10.68601
4.00082 7.04796 10.77554
4.00075 7.04665 10.86496
4.00068 7.04545 10.95430
4.00062 7.04437 11.04356
4.00056 7.04338 11.13275
4.00051 7.04248 11.22188
4.00047 7.04167 11.31096
4.00042 7.04092 11.40001
4.00039 7.04026 11.48900
4.00035 7.03964 11.57797
4.00032 7.03909 11.66692
4.00029 7.03858 11.75584
4.00026 7.03812 11.84474
4.00024 7.03770 11.93363
4.00022 7.03732 12.02251
4.00020 7.03698 12.11138
4.00018 7.03666 12.20025
4.00016 7.03637 12.28911
4.00015 7.03611 12.37797
4.00014 7.03588 12.46683
4.00012 7.03566 12.55570
4.00011 7.03546 12.64458
4.00010 7.03528 12.73345
4.00009 7.03512 12.82234
4.00009 7.03497 12.91123
4.00008 7.03484 13.00013
4.00007 7.03472 13.08904
4.00006 7.03460 13.17797
4.00006 7.03450 13.26690
4.00005 7.03441 13.35585
4.00005 7.03433 13.44481
4.00004 7.03425 13.53378
4.00004 7.03418 13.62276
4.00004 7.03412 13.71176
4.00003 7.03406 13.80077
4.00003 7.03401 13.88979
4.00003 7.03396 13.97883
4.00003 7.03392 14.06789
4.00002 7.03388 14.15695
4.00002 7.03384 14.24604
4.00002 7.03381 14.33513
4.00002 7.03378 14.42424
4.00002 7.03375 14.51336
4.00001 7.03373 14.60250
4.00001 7.03370 14.69165
4.00001 7.03368 14.78082
4.00001 7.03367 14.87000
4.00001 7.03365 14.95919
4.00001 7.03365 15.04838
4.00001 7.03361 15.13763
4.00001 7.03361 15.22686
4.00001 7.03360 15.31610
4.00001 7.03358 15.40537
4.00001 7.03358 15.49464
4.00000 7.03357 15.58393
4.00000 7.03356 15.67323
4.00000 7.03355 15.76254
4.00000 7.03356 15.85186
4.00000 7.03354 15.94121
4.00000 7.03353 16.03056
4.00000 7.03353 16.11992
4.00000 7.03353 16.20930
4.00000 7.03352 16.29868
4.00000 7.03352 16.38808

Angle 0.579360 1.791738

4.00000 7.03348 4.00000
4.00000 7.03348 4.00000
4.00000 7.03348 4.00000
4.00000 7.03348 4.00000
4.00000 7.03349 4.00000
4.00000 7.03348 4.00000
4.00000 7.03348 4.00000
4.00000 7.03348 4.00000
4.00000 7.03348 4.00000
4.00000 7.03348 4.00000
4.00000 7.03348 4.00000
4.00000 7.03348 4.00000
4.00000 7.03348 4.00000
4.00000 7.03348 4.00000
4.00000 7.03348 4.00000
4.00000 7.03348 4.00000
4.00000 7.03348 4.00000
4.00000 7.03348 4.00000
4.00000 7.03349 4.00000
4.00000 7.03348 4.00000
4.00000 7.03349 4.00000
4.00000 7.03348 4.00000
4.00000 7.03348 4.00000
4.00000 7.03348 4.00000
4.00000 7.03348 4.00000
4.00000 7.03348 4.00000
4.00000 7.03348 4.00000
4.00000 7.03348 4.00000
4.00000 7.03348 4.00000
4.00000 7.03348 4.00000
4.00000 7.03348 4.00000
4.00000 7.03348 4.00000
4.00000 7.03348 4.00000
4.00000 7.03348 4.00000
4.00000 7.03348 4.00000
4.00000 7.03348 4.00000
4.00000 7.03348 4.00000
4.00000 7.03348 4.00000
4.00000 7.03348 4.00000
4.00000 7.03348 4.00000
4.00000 7.03348 4.00000
4.00000 7.03348 4.00000
4.00000 7.03348 4.00000
4.00000 7.03348 4.00000
4.00000 7.03348 4.00000
4.00000 7.03348 4.00000
4.00000 7.03348 4.00000
4.00000 7.03348 4.00000
4.00000 7.03348 4.00000
4.00000 7.03348 4.00000
4.00000 7.03348 4.00000
4.00000 7.03348 4.00000
4.00000 7.03348 4.00000
4.00000 7.03348 4.00000
4.00000 7.03348 4.00000
4.00000 7.03348 4.00000
4.00000 7.03348 4.00000
4.00000 7.03348 4.00000
4.00000 7.03348 4.00000
4.00000 7.03348 4.00000
4.00000 7.03348 4.00000
4.00000 7.03348 4.00000
4.00000 7.03347 4.00000
4.00000 7.03348 4.00000
4.00000 7.03348 4.00000
4.00000 7.03348 4.00000
4.00000 7.03348 4.00000
4.00000 7.03348 4.00000
4.00000 7.03348 4.00000
4.00000 7.03349 4.00000
4.00000 7.03348 4.00000
4.00000 7.03348 4.00000
4.00000 7.03348 4.00000
4.00000 7.03348 4.00000
4.00000 7.03348 4.00000
4.00000 7.03348 4.00000
4.00000 7.03348 4.00000
4.00000 7.03348 4.00000
4.00000 7.03348 4.00000
4.00000 7.03348 4.00000
4.00000 7.03348 4.00000
4.00000 7.03348 4.00000
4.00000 7.03348 4.00000
4.00000 7.03348 4.00000
4.00000 7.03348 4.00000
4.00000 7.03348 4.00000
4.00000 7.03347 4.00000
4.00000 7.03348 4.00000
4.00000 7.03348 4.00000
4.00000 7.03348 4.00000
4.00000 7.03349 4.00000
4.00000 7.03349 4.00000
4.00000 7.03349 4.00000
4.00000 7.03349 4.00000
4.00000 7.03348 4.00000
4.00000 7.03348 4.00000
4.00000 7.03348 4.00000
4.00000 7.03348 4.00000
4.00000 7.03348 4.00000
4.00000 7.03348 4.00000
4.00000 7.03348 4.00000
4.00000 7.03348 4.00000
4.00000 7.03348 4.00000
4.00000 7.03348 4.00000
4.00000 7.03348 4.00000
4.00000 7.03348 4.00000
4.00000 7.03348 4.00000
4.00000 7.03348 4.00000
4.00000 7.03348 4.00000
4.00000 7.03347 4.00000
4.00000 7.03348 4.00000
4.00000 7.03348 4.00000
4.00000 7.03348 4.00000
4.00000 7.03348 4.00000
4.00000 7.03348 4.00000
4.00000 7.03348 4.00000
4.00090 7.04936 4.00090
4.00495 7.12129 4.00495
4.00893 7.19351 4.00893
4.01287 7.26599 4.01287
4.01678 7.33868 4.01678
4.02067 7.41155 4.02067
4.02455 7.48455 4.02455
4.02844 7.55764 4.02844
4.03235 7.63079 4.03235
4.03630 7.70394 4.03630
4.04030 7.77704 4.04030
4.04438 7.85006 4.04438
4.04855 7.92292 4.04855
4.05283 7.99558 4.05283
4.05726 8.06796 4.05726
4.06185 8.13998 4.06185
4.06664 8.21156 4.06664
4.07167 8.28259 4.07167
4.07699 8.35296 4.07699
4.08264 8.42253 4.08264
4.08870 8.49114 4.08870
4.09523 8.55859 4.09523
4.10232 8.62466 4.10232
4.11007 8.68912 4.11007
4.11843 8.75210 4.11843
4.12741 8.81361 4.12741
4.13704 8.87359 4.13704
4.14735 8.93199 4.14735
4.15837 8.98875 4.15837
4.17011 9.04384 4.17011
4.18261 9.09723 4.18261
4.19586 9.14893 4.19586
4.20988 9.19892 4.20988
4.22468 9.24724 4.22467
4.24024 9.29390 4.24024
4.25656 9.33896 4.25656
4.27363 9.38247 4.27363
4.29143 9.42447 4.29143
4.30995 9.46504 4.30994
4.32914 9.50423 4.32915
4.34902 9.54213 4.34901
4.36954 9.57878 4.36953
4.39068 9.61425 4.39068
4.41243 9.64857 4.41243
4.43478 9.68178 4.43478
4.45772 9.71388 4.45772
4.48128 9.74486 4.48128
4.50547 9.77461 4.50547
4.53039 9.80299 4.53038
4.55615 9.82968 4.55615
4.58301 9.85411 4.58301
4.61142 9.87524 4.61143
4.64225 9.89116 4.64225
4.67702 9.89840 4.67699
7.86744 7.36300 4.01808
7.99418 7.32040 4.01580
8.11327 7.28544 4.01392
8.22668 7.25618 4.01234
8.33575 7.23129 4.01099
8.44139 7.20986 4.00983
8.54423 7.19127 4.00881
8.64479 7.17500 4.00792
8.74343 7.16070 4.00713
8.84048 7.14806 4.00643
8.93614 7.13685 4.00581
9.03063 7.12686 4.00526
9.12412 7.11794 4.00476
9.21674 7.10994 4.00432
9.30859 7.10277 4.00391
9.39977 7.09632 4.00355
9.49037 7.09051 4.00323
9.58047 7.08527 4.00293
9.67011 7.08054 4.00267
9.75935 7.07626 4.00243
9.84826 7.07239 4.00221
9.93685 7.06888 4.00201
10.02517 7.06570 4.00183
10.11326 7.06280 4.00167
10.20113 7.06018 4.00152
10.28883 7.05779 4.00138
10.37636 7.05563 4.00126
10.46376 7.05366 4.00115
10.55101 7.05187 4.00105
10.63817 7.05024 4.00096
10.72523 7.04876 4.00087
10.81222 7.04740 4.00079
10.89913 7.04617 4.00072
10.98599 7.04505 4.00066
11.07279 7.04403 4.00060
11.15957 7.04309 4.00055
11.24631 7.04224 4.00050
11.33302 7.04147 4.00045
11.41968 7.04078 4.00042
11.50636 7.04013 4.00038
11.59303 7.03954 4.00035
11.67969 7.03900 4.00031
11.76636 7.03851 4.00029
11.85299 7.03808 4.00026
11.93966 7.03768 4.00024
12.02633 7.03731 4.00022
12.11301 7.03697 4.00020
12.19971 7.03666 4.00018
12.28643 7.03638 4.00017
12.37315 7.03612 4.00015
12.45990 7.03589 4.00014
12.54665 7.03569 4.00013
12.63343 7.03550 4.00012
12.72023 7.03532 4.00011
12.80708 7.03515 4.00010
12.89394 7.03500 4.00009
12.98082 7.03487 4.00008
13.06773 7.03474 4.00007
13.15466 7.03463 4.00007
13.24162 7.03453 4.00006
13.32860 7.03444 4.00006
13.41561 7.03435 4.00005
13.50265 7.03427 4.00005
13.58971 7.03420 4.00004
13.67682 7.03414 4.00004
13.76392 7.03408 4.00003
13.85107 7.03403 4.00003
13.93825 7.03398 4.00003
14.02547 7.03394 4.00003
14.11273 7.03390 4.00003
14.19992 7.03386 4.00002
14.28721 7.03382 4.00002
14.37453 7.03379 4.00002
14.46188 7.03377 4.00002
14.54926 7.03374 4.00002
14.63668 7.03372 4.00002
14.72412 7.03370 4.00001
14.81146 7.03368 4.00001
14.89893 7.03366 4.00001
14.98643 7.03364 4.00001
15.07397 7.03363 4.00001
15.16155 7.03362 4.00001
15.24917 7.03360 4.00001
15.33682 7.03359 4.00001
15.42450 7.03358 4.00000
15.51222 7.03357 4.00000
15.59997 7.03357 4.00000
15.68775 7.03356 4.00000
15.77556 7.03355 4.00000
15.86339 7.03355 4.00000
15.95125 7.03354 4.00000
16.03914 7.03353 4.00000
16.12706 7.03353 4.00000
16.21500 7.03352 4.00000
16.30296 7.03352 4.00000
16.39095 7.03352 4.00000
16.47896 7.03351 4.00000
16.56699 7.03351 4.00000
16.65505 7.03351 4.00000
16.74312 7.03351 4.00000
16.83122 7.03350 4.00000
16.91934 7.03350 4.00000
17.00747 7.03350 4.00000
17.09563 7.03350 4.00000
17.18380 7.03350 4.00000
17.27200 7.03349 4.00000
17.36021 7.03349 4.00000
17.44844 7.03349 4.00000
17.53668 7.03349 4.00000
17.62494 7.03349 4.00000
17.71322 7.03349 4.00000
17.80152 7.03349 4.00000
17.88983 7.03349 4.00000
17.97816 7.03349 4.00000
18.06650 7.03349 4.00000
18.15486 7.03349 4.00000
18.24323 7.03348 4.00000
18.33162 7.03348 4.00000
18.42002 7.03348 4.00000
18.50844 7.03348 4.00000
18.59687 7.03348 4.00000
18.68528 7.03348 4.00000
18.77373 7.03348 4.00000
18.86218 7.03348 4.00000
18.95066 7.03348 4.00000
19.03912 7.03348 4.00000
19.12760 7.03348 4.00000
19.21608 7.03348 4.00000
19.30458 7.03348 4.00000
19.39309 7.03348 4.00000
19.48161 7.03348 4.00000
19.57015 7.03348 4.00000
19.65870 7.03348 4.00000
19.74725 7.03348 4.00000
19.83583 7.03347 4.00000
19.92440 7.03348 4.00000
20.01299 7.03349 4.00000
20.10161 7.03347 4.00000
20.19022 7.03347 4.00000
20.27884 7.03348 4.00000
20.36748 7.03348 4.00000
20.45613 7.03348 4.00000
20.54479 7.03348 4.00000
20.63347 7.03348 4.00000
20.72215 7.03348 4.00000
20.81084 7.03348 4.00000
20.89954 7.03348 4.00000
20.98824 7.03348 4.00000
21.07696 7.03348 4.00000
21.16569 7.03348 4.00000
21.25442 7.03348 4.00000
21.34322 7.03348 4.00000
21.43203 7.03348 4.00000
21.52084 7.03348 4.00000
21.60967 7.03348 4.00000
21.69851 7.03348 4.00000
21.78735 7.03348 4.00000
21.87621 7.03348 4.00000
21.96508 7.03348 4.00000
22.05392 7.03348 4.00000
22.14280 7.03348 4.00000
22.23166 7.03347 4.00000
22.32051 7.03348 4.00000
22.40942 7.03348 4.00000
22.49830 7.03348 4.00000
22.58718 7.03348 4.00000
22.67607 7.03348 4.00000
22.76498 7.03348 4.00000
22.85389 7.03348 4.00000
22.94281 7.03348 4.00000
23.03174 7.03348 4.00000
23.12069 7.03348 4.00000
23.20964 7.03348 4.00000
23.29860 7.03348 4.00000
23.38757 7.03348 4.00000
23.47656 7.03348 4.00000
23.56555 7.03348 4.00000
23.65455 7.03348 4.00000
23.74356 7.03348 4.00000
23.83258 7.03348 4.00000
23.92161 7.03348 4.00000
24.01064 7.03348 4.00000
24.09969 7.03348 4.00000
24.18874 7.03348 4.00000
24.27782 7.03348 4.00000
24.36691 7.03348 4.00000
24.45601 7.03347 4.00000
24.54512 7.03348 4.00000
24.63425 7.03347 4.00000
24.72338 7.03348 4.00000
24.81251 7.03348 4.00000
24.90166 7.03348 4.00000
24.99080 7.03348 4.00000
25.07992 7.03349 4.00000
25.16907 7.03348 4.00000
25.25826 7.03347 4.00000
25.34741 7.03348 4.00000
25.43657 7.03348 4.00000
25.52575 7.03348 4.00000
25.61492 7.03348 4.00000
25.70410 7.03348 4.00000
25.79329 7.03347 4.00000
25.88249 7.03348 4.00000
25.97169 7.03348 4.00000
26.06090 7.03348 4.00000
26.15012 7.03348 4.00000
26.23935 7.03348 4.00000
26.32858 7.03348 4.00000
26.41782 7.03348 4.00000
26.50708 7.03348 4.00000
26.59633 7.03348 4.00000
26.68560 7.03348 4.00000
26.77488 7.03348 4.00000
26.86416 7.03348 4.00000
26.95349 7.03348 4.00000
27.04278 7.03348 4.00000
27.13212 7.03348 4.00000
27.22143 7.03348 4.00000
27.31078 7.03348 4.00000
27.40011 7.03348 4.00000
27.48947 7.03348 4.00000
27.57885 7.03348 4.00000
27.66822 7.03348 4.00000
27.75761 7.03348 4.00000
27.84700 7.03348 4.00000
27.93640 7.03348 4.00000
28.02580 7.03348 4.00000
28.11521 7.03348 4.00000
28.20463 7.03348 4.00000
28.29405 7.03348 4.00000

Angle 0.031918 1.211539

4.00000 7.03349 4.00000
4.00000 7.03348 4.00000
4.00000 7.03348 4.00000
4.00000 7.03348 4.00000
4.00000 7.03348 4.00000
4.00000 7.03348 4.00000
4.00000 7.03348 4.00000
4.00000 7.03348 4.00000
4.00000 7.03348 4.00000
4.00000 7.03348 4.00000
4.00000 7.03348 4.00000
4.00000 7.03348 4.00000
4.00000 7.03348 4.00000
4.00000 7.03348 4.00000
4.00000 7.03348 4.00000
4.00000 7.03348 4.00000
4.00000 7.03348 4.00000
4.00000 7.03350 4.00000
4.00000 7.03348 4.00000
4.00000 7.03348 4.00000
4.00000 7.03348 4.00000
4.00000 7.03348 4.00000
4.00000 7.03348 4.00000
4.00000 7.03348 4.00000
4.00000 7.03348 4.00000
4.00000 7.03348 4.00000
4.00000 7.03348 4.00000
4.00000 7.03348 4.00000
4.00000 7.03349 4.00000
4.00000 7.03348 4.00000
4.00000 7.03348 4.00000
4.00000 7.03348 4.00000
4.00000 7.03348 4.00000
4.00000 7.03347 4.00000
4.00000 7.03348 4.00000
4.00000 7.03348 4.00000
4.00000 7.03348 4.00000
4.00000 7.03348 4.00000
4.00000 7.03348 4.00000
4.00000 7.03348 4.00000
4.00000 7.03348 4.00000
4.00000 7.03348 4.00000
4.00000 7.03348 4.00000
4.00000 7.03347 4.00000
4.00000 7.03348 4.00000
4.00000 7.03348 4.00000
4.00000 7.03348 4.00000
4.00000 7.03348 4.00000
4.00000 7.03348 4.00000
4.00000 7.03348 4.00000
4.00000 7.03348 4.00000
4.00000 7.03349 4.00000
4.00000 7.03348 4.00000
4.00000 7.03348 4.00000
4.00000 7.03348 4.00000
4.00000 7.03348 4.00000
4.00000 7.03348 4.00000
4.00000 7.03348 4.00000
4.00000 7.03348 4.00000
4.00000 7.03348 4.00000
4.00000 7.03348 4.00000
4.00000 7.03348 4.00000
4.00000 7.03346 4.00000
4.00000 7.03348 4.00000
4.00000 7.03348 4.00000
4.00000 7.03348 4.00000
4.00000 7.03349 4.00000
4.00000 7.03348 4.00000
4.00000 7.03348 4.00000
4.00000 7.03348 4.00000
4.00000 7.03347 4.00000
4.00000 7.03348 4.00000
4.00000 7.03348 4.00000
4.00000 7.03348 4.00000
4.00000 7.03349 4.00000
4.00000 7.03348 4.00000
4.00000 7.03348 4.00000
4.00000 7.03348 4.00000
4.00000 7.03348 4.00000
4.00000 7.03347 4.00000
4.00000 7.03348 4.00000
4.00000 7.03348 4.00000
4.00000 7.03350 4.00000
4.00000 7.03347 4.00000
4.00000 7.03348 4.00000
4.00000 7.03348 4.00000
4.00000 7.03348 4.00000
4.00000 7.03347 4.00000
4.00000 7.03348 4.00000
4.00000 7.03348 4.00000
4.00000 7.03348 4.00000
4.00000 7.03348 4.00000
4.00000 7.03349 4.00000
4.00000 7.03348 4.00000
4.00000 7.03348 4.00000
4.00000 7.03348 4.00000
4.00000 7.03348 4.00000
4.00000 7.03348 4.00000
4.00000 7.03348 4.00000
4.00000 7.03347 4.00000
4.00000 7.03347 4.00000
4.00000 7.03357 4.00001
4.00000 7.03348 4.00000
4.00142 7.05846 4.00142
4.00519 7.12574 4.00519
4.00892 7.19334 4.00892
4.01261 7.26123 4.01261
4.01628 7.32938 4.01628
4.01993 7.39774 4.01993
4.02358 7.46630 4.02358
4.02723 7.53500 4.02723
4.03090 7.60381 4.03090
4.03461 7.67270 4.03461
4.03836 7.74164 4.03836
4.04216 7.81056 4.04216
4.04605 7.87943 4.04605
4.05003 7.94820 4.05003
4.05411 8.01682 4.05411
4.05834 8.08522 4.05834
4.06272 8.15333 4.06272
4.06730 8.22108 4.06730
4.07210 8.28837 4.07210
4.07716 8.35510 4.07716
4.08253 8.42115 4.08253
4.08826 8.48637 4.08826
4.09442 8.55061 4.09442
4.10108 8.61367 4.10108
4.10834 8.67533 4.10834
4.11617 8.73564 4.11617
4.12456 8.79467 4.12456
4.13353 8.85236 4.13353
4.14312 8.90866 4.14312
4.15334 8.96352 4.15334
4.16423 9.01689 4.16423
4.17580 9.06876 4.17580
4.18807 9.11911 4.18807
4.20104 9.16792 4.20104
4.21473 9.21521 4.21473
4.22912 9.26098 4.22912
4.24423 9.30528 4.24423
4.26005 9.34813 4.26005
4.27655 9.38958 4.27655
4.29374 9.42969 4.29374
4.31158 9.46849 4.31158
4.33007 9.50606 4.33007
4.34918 9.54244 4.34918
4.36890 9.57769 4.36890
4.38921 9.61185 4.38921
4.41009 9.64497 4.41009
4.43153 9.67708 4.43153
4.45353 9.70817 4.45354
4.47611 9.73823 4.47611
4.49928 9.76720 4.49928
4.52310 9.79494 4.52310
4.54768 9.82123 4.54768
4.57320 9.84563 4.57320
4.59999 9.86740 4.59999
4.62866 9.88516 4.62866
4.66030 9.89643 4.66030
4.69674 9.89718 4.69668
4.01695 7.34183 7.92820
4.01493 7.30430 8.04710
4.01325 7.27300 8.15980
4.01181 7.24644 8.26779
4.01058 7.22363 8.37210
4.00950 7.20383 8.47346
4.00855 7.18653 8.57238
4.00771 7.17131 8.66930
4.00697 7.15784 8.76453
4.00631 7.14588 8.85833
4.00572 7.13522 8.95092
4.00519 7.12568 9.04245
4.00472 7.11713 9.13307
4.00429 7.10944 9.22291
4.00390 7.10252 9.31207
4.00355 7.09626 9.40062
4.00323 7.09063 9.48864
4.00295 7.08551 9.57622
4.00269 7.08088 9.66340
4.00245 7.07667 9.75022
4.00224 7.07286 9.83672
4.00204 7.06940 9.92295
4.00186 7.06626 10.00894
4.00170 7.06339 10.09473
4.00155 7.06078 10.18034
4.00142 7.05840 10.26577
4.00129 7.05624 10.35107
4.00118 7.05426 10.43626
4.00108 7.05246 10.52135
4.00099 7.05082 10.60634
4.00090 7.04932 10.69126
4.00082 7.04795 10.77613
4.00075 7.04669 10.86095
4.00069 7.04556 10.94571
4.00063 7.04452 11.03045
4.00057 7.04354 11.11519
4.00053 7.04270 11.19985
4.00048 7.04190 11.28454
4.00044 7.04118 11.36922
4.00040 7.04052 11.45390
4.00037 7.03991 11.53858
4.00034 7.03935 11.62328
4.00031 7.03885 11.70799
4.00028 7.03839 11.79271
4.00026 7.03796 11.87746
4.00023 7.03758 11.96222
4.00021 7.03722 12.04701
4.00020 7.03690 12.13182
4.00018 7.03660 12.21667
4.00016 7.03636 12.30152
4.00015 7.03609 12.38645
4.00013 7.03586 12.47140
4.00012 7.03566 12.55635
4.00011 7.03547 12.64136
4.00011 7.03529 12.72641
4.00010 7.03514 12.81149
4.00008 7.03501 12.89660
4.00008 7.03486 12.98177
4.00007 7.03474 13.06697
4.00007 7.03463 13.15220
4.00006 7.03453 13.23745
4.00006 7.03444 13.32275
4.00005 7.03437 13.40809
4.00005 7.03428 13.49349
4.00004 7.03421 13.57892
4.00004 7.03415 13.66435
4.00003 7.03409 13.74986
4.00003 7.03404 13.83540
4.00003 7.03399 13.92098
4.00003 7.03394 14.00660
4.00002 7.03390 14.09226
4.00002 7.03387 14.17796
4.00002 7.03383 14.26370
4.00002 7.03380 14.34948
4.00002 7.03377 14.43529
4.00002 7.03375 14.52114
4.00001 7.03373 14.60703
4.00001 7.03370 14.69296
4.00001 7.03368 14.77892
4.00001 7.03367 14.86492
4.00001 7.03365 14.95095
4.00001 7.03363 15.03702
4.00001 7.03362 15.12313
4.00001 7.03361 15.20927
4.00001 7.03360 15.29544
4.00001 7.03359 15.38165
4.00001 7.03358 15.46790
4.00001 7.03357 15.55418
4.00000 7.03356 15.64050
4.00000 7.03355 15.72684
4.00000 7.03355 15.81323
4.00000 7.03354 15.89964
4.00000 7.03354 15.98609
4.00000 7.03353 16.07258
4.00000 7.03353 16.15909
4.00000 7.03352 16.24564
4.00000 7.03352 16.33223
4.00000 7.03352 16.41884
4.00000 7.03351 16.50549
4.00000 7.03351 16.59217
4.00000 7.03351 16.67889
4.00000 7.03350 16.76563
4.00000 7.03350 16.85240
4.00000 7.03350 16.93921
4.00000 7.03350 17.02603
4.00000 7.03350 17.11289
4.00000 7.03350 17.19977
4.00000 7.03349 17.28668
4.00000 7.03349 17.37361
4.00000 7.03349 17.46057
4.00000 7.03349 17.54756
4.00000 7.03349 17.63456
4.00000 7.03349 17.72160
4.00000 7.03349 17.80865
4.00000 7.03349 17.89573
4.00000 7.03349 17.98283
4.00000 7.03349 18.06996
4.00000 7.03349 18.15710
4.00000 7.03348 18.24427
4.00000 7.03348 18.33146
4.00000 7.03348 18.41867
4.00000 7.03348 18.50591
4.00000 7.03348 18.59316
4.00000 7.03348 18.68044
4.00000 7.03348 18.76773
4.00000 7.03348 18.85505
4.00000 7.03348 18.94239
4.00000 7.03348 19.02975
4.00000 7.03348 19.11712
4.00000 7.03348 19.20452
4.00000 7.03348 19.29194
4.00000 7.03348 19.37937
4.00000 7.03348 19.46683
4.00000 7.03348 19.55430
4.00000 7.03348 19.64180
4.00000 7.03348 19.72931
4.00000 7.03348 19.81684
4.00000 7.03348 19.90439
4.00000 7.03348 19.99196
4.00000 7.03348 20.07954
4.00000 7.03348 20.16715
4.00000 7.03348 20.25481
4.00000 7.03348 20.34250
4.00000 7.03348 20.43020
4.00000 7.03348 20.51792
4.00000 7.03348 20.60565
4.00000 7.03348 20.69340
4.00000 7.03348 20.78117
4.00000 7.03348 20.86896
4.00000 7.03348 20.95676
4.00000 7.03348 21.04458
4.00000 7.03348 21.13241
4.00000 7.03348 21.22026
4.00000 7.03348 21.30813
4.00000 7.03348 21.39601
4.00000 7.03348 21.48390
4.00000 7.03348 21.57181
4.00000 7.03348 21.65974
4.00000 7.03348 21.74768
4.00000 7.03348 21.83564
4.00000 7.03348 21.92361
4.00000 7.03348 22.01159
4.00000 7.03348 22.09959
4.00000 7.03348 22.18760
4.00000 7.03348 22.27563
4.00000 7.03348 22.36367
4.00000 7.03348 22.45173
4.00000 7.03348 22.53980
4.00000 7.03348 22.62788
4.00000 7.03348 22.71598
4.00000 7.03348 22.80409
4.00000 7.03348 22.89221
4.00000 7.03348 22.98035
4.00000 7.03348 23.06850
4.00000 7.03348 23.15666
4.00000 7.03348 23.24484
4.00000 7.03348 23.33303
4.00000 7.03348 23.42124
4.00000 7.03348 23.50945
4.00000 7.03348 23.59768
4.00000 7.03347 23.68592
4.00000 7.03348 23.77417
4.00000 7.03347 23.86243
4.00000 7.03348 23.95070
4.00000 7.03347 24.03898
4.00000 7.03347 24.12727
4.00000 7.03348 24.21557
4.00000 7.03347 24.30389
4.00000 7.03347 24.39221
4.00000 7.03347 24.48055
4.00000 7.03347 24.56890
4.00000 7.03347 24.65726
4.00000 7.03347 24.74563
4.00000 7.03347 24.83402
4.00000 7.03347 24.92242
4.00000 7.03347 25.01082
4.00000 7.03347 25.09924
4.00000 7.03348 25.18766
4.00000 7.03348 25.27611
4.00000 7.03348 25.36456
4.00000 7.03348 25.45303
4.00000 7.03348 25.54150
4.00000 7.03348 25.62999
4.00000 7.03348 25.71849
4.00000 7.03348 25.80700
4.00000 7.03348 25.89551
4.00000 7.03348 25.98404
4.00000 7.03348 26.07258
4.00000 7.03348 26.16113
4.00000 7.03348 26.24968
4.00000 7.03348 26.33827
4.00000 7.03348 26.42686
4.00000 7.03348 26.51547
4.00000 7.03348 26.60406
4.00000 7.03348 26.69269
4.00000 7.03348 26.78132
4.00000 7.03348 26.86997
4.00000 7.03348 26.95862
4.00000 7.03348 27.04729
4.00000 7.03348 27.13596
4.00000 7.03348 27.22463
4.00000 7.03348 27.31333
4.00000 7.03347 27.40202
4.00000 7.03348 27.49071
4.00000 7.03348 27.57941
4.00000 7.03348 27.66812
4.00000 7.03348 27.75685
4.00000 7.03348 27.84558
4.00000 7.03348 27.93432
4.00000 7.03348 28.02307
4.00000 7.03348 28.11183
4.00000 7.03348 28.20060
4.00000 7.03348 28.28938
4.00000 7.03348 28.37817
4.00000 7.03348 28.46696
4.00000 7.03348 28.55577
4.00000 7.03348 28.64458
4.00000 7.03348 28.73341
4.00000 7.03348 28.82224
4.00000 7.03348 28.91108

Angle 0.112681 5.840045

4.00000 7.03348 4.00000
4.00000 7.03348 4.00000
4.00000 7.03348 4.00000
4.00000 7.03348 4.00000
4.00000 7.03348 4.00000
4.00000 7.03348 4.00000
4.00000 7.03348 4.00000
4.00000 7.03348 4.00000
4.00000 7.03348 4.00000
4.00000 7.03348 4.00000
4.00000 7.03348 4.00000
4.00000 7.03348 4.00000
4.00000 7.03348 4.00000
4.00000 7.03348 4.00000
4.00000 7.03348 4.00000
4.00000 7.03348 4.00000
4.00000 7.03348 4.00000
4.00000 7.03348 4.00000
4.00000 7.03348 4.00000
4.00000 7.03348 4.00000
4.00000 7.03348 4.00000
4.00000 7.03348 4.00000
4.00000 7.03348 4.00000
4.00000 7.03348 4.00000
4.00000 7.03348 4.00000
4.00000 7.03348 4.00000
4.00000 7.03348 4.00000
4.00000 7.03348 4.00000
4.00000 7.03348 4.00000
4.00000 7.03348 4.00000
4.00000 7.03348 4.00000
4.00000 7.03348 4.00000
4.00000 7.03348 4.00000
4.00000 7.03348 4.00000
4.00000 7.03348 4.00000
4.00000 7.03348 4.00000
4.00000 7.03348 4.00000
4.00000 7.03348 4.00000
4.00000 7.03348 4.00000
4.00000 7.03348 4.00000
4.00000 7.03348 4.00000
4.00000 7.03348 4.00000
4.00000 7.03348 4.00000
4.00000 7.03348 4.00000
4.00000 7.03348 4.00000
4.00000 7.03348 4.00000
4.00000 7.03348 4.00000
4.00000 7.03348 4.00000
4.00000 7.03348 4.00000
4.00000 7.03348 4.00000
4.00000 7.03348 4.00000
4.00000 7.03348 4.00000
4.00000 7.03348 4.00000
4.00000 7.03348 4.00000
4.00000 7.03348 4.00000
4.00000 7.03348 4.00000
4.00000 7.03348 4.00000
4.00000 7.03348 4.00000
4.00000 7.03348 4.00000
4.00000 7.03348 4.00000
4.00000 7.03348 4.00000
4.00000 7.03348 4.00000
4.00000 7.03348 4.00000
4.00000 7.03348 4.00000
4.00000 7.03348 4.00000
4.00000 7.03348 4.00000
4.00000 7.03348 4.00000
4.00000 7.03349 4.00000
4.00000 7.03348 4.00000
4.00000 7.03348 4.00000
4.00000 7.03348 4.00000
4.00000 7.03348 4.00000
4.00000 7.03348 4.00000
4.00000 7.03348 4.00000
4.00000 7.03348 4.00000
4.00000 7.03348 4.00000
4.00000 7.03348 4.00000
4.00000 7.03348 4.00000
4.00000 7.03348 4.00000
4.00000 7.03348 4.00000
4.00000 7.03348 4.00000
4.00000 7.03348 4.00000
4.00000 7.03347 4.00000
4.00000 7.03346 4.00000
4.00000 7.03348 4.00000
4.00000 7.03348 4.00000
4.00000 7.03347 4.00000
4.00000 7.03348 4.00000
4.00000 7.03350 4.00000
4.00000 7.03348 4.00000
4.00000 7.03349 4.00000
4.00013 7.03577 4.00013
4.00448 7.11292 4.00448
4.00876 7.19033 4.00876
4.01298 7.26797 4.01298
4.01716 7.34577 4.01716
4.02131 7.42370 4.02131
4.02546 7.50170 4.02546
4.02962 7.57972 4.02962
4.03380 7.65772 4.03380
4.03803 7.73563 4.03803
4.04232 7.81340 4.04232
4.04671 7.89098 4.04671
4.05121 7.96828 4.05121
4.05585 8.04524 4.05585
4.06067 8.12177 4.06067
4.06570 8.19776 4.06570
4.07098 8.27311 4.07098
4.07658 8.34768 4.07658
4.08254 8.42131 4.08254
4.08895 8.49381 4.08895
4.09588 8.56497 4.09588
4.10344 8.63451 4.10344
4.11174 8.70221 4.11174
4.12071 8.76824 4.12071
4.13036 8.83259 4.13036
4.14074 8.89517 4.14074
4.15187 8.95594 4.15188
4.16380 9.01485 4.16380
4.17653 9.07186 4.17653
4.19008 9.12696 4.19008
4.20447 9.18016 4.20447
4.21971 9.23146 4.21970
4.23577 9.28092 4.23577
4.25267 9.32857 4.25267
4.27039 9.37446 4.27039
4.28890 9.41868 4.28889
4.30818 9.46130 4.30818
4.32821 9.50239 4.32821
4.34896 9.54202 4.34896
4.37041 9.58029 4.37040
4.39252 9.61724 4.39252
4.41529 9.65293 4.41529
4.43870 9.68740 4.43870
4.46274 9.72065 4.46274
4.48744 9.75264 4.48744
4.51285 9.78326 4.51285
4.53905 9.81229 4.53905
4.56624 9.83930 4.56624
4.59476 9.86351 4.59476
4.62527 9.88340 4.62529
4.65904 9.89616 4.65904
7.80577 7.38597 4.01930
7.94189 7.33726 4.01670
8.06843 7.29807 4.01460
8.18810 7.26573 4.01286
8.30261 7.23853 4.01138
8.41311 7.21535 4.01012
8.52041 7.19539 4.00903
8.62509 7.17805 4.00808
8.72761 7.16289 4.00725
8.82833 7.14957 4.00652
8.92751 7.13781 4.00587
9.02538 7.12739 4.00529
9.12214 7.11812 4.00477
9.21792 7.10985 4.00431
9.31285 7.10246 4.00390
9.40705 7.09584 4.00353
9.50061 7.08989 4.00319
9.59360 7.08455 4.00289
9.68609 7.07974 4.00262
9.77814 7.07541 4.00238
9.86980 7.07150 4.00216
9.96112 7.06797 4.00196
10.05213 7.06478 4.00178
10.14288 7.06189 4.00161
10.23339 7.05927 4.00147
10.32368 7.05691 4.00133
10.41378 7.05477 4.00121
10.50372 7.05283 4.00110
10.59352 7.05106 4.00100
10.68318 7.04946 4.00091
10.77273 7.04800 4.00083
10.86218 7.04668 4.00075
10.95153 7.04549 4.00068
11.04081 7.04440 4.00062
11.13002 7.04341 4.00057
11.21918 7.04251 4.00051
11.30828 7.04169 4.00047
11.39734 7.04095 4.00043
11.48636 7.04028 4.00039
11.57534 7.03966 4.00035
11.66431 7.03911 4.00032
11.75324 7.03860 4.00029
11.84216 7.03813 4.00027
11.93107 7.03772 4.00024
12.01997 7.03733 4.00022
12.10885 7.03698 4.00020
12.19775 7.03666 4.00018
12.28662 7.03638 4.00017
12.37549 7.03612 4.00015
12.46437 7.03588 4.00014
12.55326 7.03566 4.00012
12.64215 7.03546 4.00011
12.73105 7.03528 4.00010
12.81994 7.03512 4.00009
12.90885 7.03498 4.00009
12.99777 7.03484 4.00008
13.08669 7.03472 4.00007
13.17563 7.03460 4.00006
13.26458 7.03450 4.00006
13.35355 7.03441 4.00005
13.44252 7.03433 4.00005
13.53151 7.03425 4.00004
13.62051 7.03418 4.00004
13.70951 7.03412 4.00004
13.79855 7.03405 4.00003
13.88758 7.03401 4.00003
13.97663 7.03396 4.00003
14.06571 7.03391 4.00002
14.15479 7.03388 4.00002
14.24389 7.03383 4.00002
14.33299 7.03381 4.00002
14.42212 7.03378 4.00002
14.51126 7.03375 4.00002
14.60040 7.03373 4.00001
14.68957 7.03370 4.00001
14.77875 7.03368 4.00001
14.86794 7.03366 4.00001
14.95715 7.03365 4.00001
15.04637 7.03363 4.00001
15.13560 7.03362 4.00001
15.22485 7.03361 4.00001
15.31411 7.03359 4.00001
15.40339 7.03358 4.00001
15.49268 7.03358 4.00000
15.58198 7.03357 4.00000
15.67129 7.03356 4.00000
15.76062 7.03355 4.00000
15.84996 7.03354 4.00000
15.93931 7.03354 4.00000
16.02868 7.03353 4.00000
16.11806 7.03353 4.00000
16.20745 7.03352 4.00000
16.29685 7.03352 4.00000
16.38626 7.03352 4.00000
16.47569 7.03351 4.00000
16.56513 7.03351 4.00000
16.65457 7.03351 4.00000
16.74403 7.03350 4.00000
16.83350 7.03350 4.00000
16.92298 7.03350 4.00000
17.01248 7.03350 4.00000
17.10198 7.03350 4.00000
17.19149 7.03350 4.00000
17.28102 7.03349 4.00000
17.37055 7.03349 4.00000
17.46009 7.03349 4.00000
17.54964 7.03349 4.00000
17.63921 7.03349 4.00000
17.72878 7.03349 4.00000
17.81836 7.03349 4.00000
17.90795 7.03349 4.00000
17.99755 7.03348 4.00000
18.08716 7.03348 4.00000
18.17677 7.03349 4.00000
18.26639 7.03348 4.00000
18.35603 7.03348 4.00000
18.44567 7.03348 4.00000
18.53532 7.03348 4.00000
18.62497 7.03349 4.00000
18.71465 7.03348 4.00000
18.80432 7.03348 4.00000
18.89402 7.03348 4.00000
18.98371 7.03348 4.00000
19.07342 7.03348 4.00000
19.16312 7.03348 4.00000
19.25283 7.03348 4.00000
19.34255 7.03348 4.00000
19.43228 7.03348 4.00000
19.52202 7.03348 4.00000
19.61177 7.03348 4.00000
19.70153 7.03348 4.00000
19.79129 7.03348 4.00000
19.88106 7.03348 4.00000
19.97084 7.03348 4.00000
20.06062 7.03348 4.00000
20.15041 7.03348 4.00000
20.24020 7.03348 4.00000
20.33001 7.03348 4.00000
20.41981 7.03348 4.00000
20.50962 7.03348 4.00000
20.59943 7.03348 4.00000
20.68926 7.03348 4.00000
20.77908 7.03348 4.00000
20.86892 7.03348 4.00000
20.95875 7.03348 4.00000
21.04860 7.03348 4.00000
21.13844 7.03348 4.00000
21.22830 7.03348 4.00000
21.31815 7.03348 4.00000
21.40801 7.03348 4.00000
21.49788 7.03348 4.00000
21.58775 7.03348 4.00000
21.67763 7.03348 4.00000
21.76751 7.03348 4.00000
21.85739 7.03348 4.00000
21.94728 7.03348 4.00000
22.03718 7.03348 4.00000
22.12708 7.03348 4.00000
22.21699 7.03348 4.00000
22.30690 7.03348 4.00000
22.39682 7.03348 4.00000
22.48675 7.03348 4.00000
22.57668 7.03348 4.00000
22.66661 7.03348 4.00000
22.75655 7.03348 4.00000
22.84649 7.03348 4.00000
22.93644 7.03348 4.00000
23.02639 7.03348 4.00000
23.11634 7.03348 4.00000
23.20630 7.03348 4.00000
23.29626 7.03348 4.00000
23.38623 7.03348 4.00000
23.47620 7.03348 4.00000
23.56618 7.03348 4.00000
23.65615 7.03348 4.00000
23.74614 7.03348 4.00000
23.83612 7.03348 4.00000
23.92611 7.03348 4.00000
24.01611 7.03348 4.00000
24.10611 7.03348 4.00000
24.19611 7.03348 4.00000
24.28611 7.03348 4.00000
24.37612 7.03348 4.00000
24.46613 7.03349 4.00000
24.55617 7.03348 4.00000
24.64619 7.03348 4.00000
24.73621 7.03348 4.00000
24.82623 7.03349 4.00000
24.91627 7.03349 4.00000
25.00631 7.03349 4.00000
25.09638 7.03348 4.00000
25.18641 7.03348 4.00000
25.27646 7.03348 4.00000
25.36651 7.03348 4.00000
25.45657 7.03349 4.00000
25.54663 7.03349 4.00000
25.63670 7.03348 4.00000
25.72677 7.03348 4.00000
25.81684 7.03348 4.00000
25.90691 7.03348 4.00000
25.99699 7.03348 4.00000
26.08707 7.03348 4.00000
26.17715 7.03348 4.00000
26.26722 7.03348 4.00000
26.35731 7.03348 4.00000
26.44740 7.03348 4.00000
26.53749 7.03348 4.00000
26.62759 7.03348 4.00000
26.71768 7.03348 4.00000
26.80777 7.03347 4.00000
26.89787 7.03347 4.00000
26.98798 7.03347 4.00000
27.07808 7.03347 4.00000
27.16818 7.03348 4.00000
27.25829 7.03348 4.00000
27.34840 7.03348 4.00000
27.43851 7.03348 4.00000
27.52862 7.03348 4.00000
27.61875 7.03348 4.00000
27.70887 7.03348 4.00000
27.79900 7.03348 4.00000
27.88912 7.03348 4.00000
27.97926 7.03348 4.00000
28.06939 7.03348 4.00000
28.15953 7.03348 4.00000
28.24966 7.03348 4.00000
28.33981 7.03348 4.00000
28.42995 7.03348 4.00000
28.52009 7.03348 4.00000
28.61024 7.03348 4.00000
28.70039 7.03348 4.00000
28.79054 7.03348 4.00000
28.88070 7.03348 4.00000
28.97086 7.03348 4.00000
29.06102 7.03348 4.00000
29.15118 7.03348 4.00000
29.24134 7.03348 4.00000
29.33151 7.03348 4.00000
29.42168 7.03348 4.00000
29.51185 7.03348 4.00000
29.60202 7.03348 4.00000
29.69220 7.03348 4.00000
29.78237 7.03348 4.00000
29.87255 7.03348 4.00000
29.96273 7.03348 4.00000
30.05292 7.03348 4.00000
30.14310 7.03348 4.00000
30.23329 7.03348 4.00000
30.32348 7.03348 4.00000
30.41367 7.03348 4.00000
30.50387 7.03348 4.00000
30.59406 7.03348 4.00000
30.68426 7.03348 4.00000
30.77446 7.03348 4.00000
30.86467 7.03348 4.00000
30.95487 7.03348 4.00000
31.04508 7.03348 4.00000
31.13529 7.03348 4.00000

Angle 0.309234 5.192098

4.00000 7.03348 4.00000
4.00000 7.03348 4.00000
4.00000 7.03348 4.00000
4.00000 7.03348 4.00000
4.00000 7.03348 4.00000
4.00000 7.03348 4.00000
4.00000 7.03348 4.00000
4.00000 7.03348 4.00000
4.00000 7.03348 4.00000
4.00000 7.03348 4.00000
4.00000 7.03349 4.00000
4.00000 7.03348 4.00000
4.00000 7.03348 4.00000
4.00000 7.03348 4.00000
4.00000 7.03348 4.00000
4.00000 7.03348 4.00000
4.00000 7.03348 4.00000
4.00000 7.03348 4.00000
4.00000 7.03348 4.00000
4.00000 7.03348 4.00000
4.00000 7.03348 4.00000
4.00000 7.03348 4.00000
4.00000 7.03348 4.00000
4.00000 7.03348 4.00000
4.00000 7.03348 4.00000
4.00000 7.03348 4.00000
4.00000 7.03348 4.00000
4.00000 7.03348 4.00000
4.00000 7.03348 4.00000
4.00000 7.03348 4.00000
4.00000 7.03348 4.00000
4.00000 7.03348 4.00000
4.00000 7.03348 4.00000
4.00000 7.03348 4.00000
4.00000 7.03348 4.00000
4.00000 7.03348 4.00000
4.00000 7.03348 4.00000
4.00000 7.03348 4.00000
4.00000 7.03348 4.00000
4.00000 7.03348 4.00000
4.00000 7.03348 4.00000
4.00000 7.03348 4.00000
4.00000 7.03348 4.00000
4.00000 7.03348 4.00000
4.00000 7.03348 4.00000
4.00000 7.03348 4.00000
4.00000 7.03348 4.00000
4.00000 7.03348 4.00000
4.00000 7.03348 4.00000
4.00000 7.03348 4.00000
4.00000 7.03348 4.00000
4.00000 7.03348 4.00000
4.00000 7.03348 4.00000
4.00000 7.03348 4.00000
4.00000 7.03348 4.00000
4.00000 7.03348 4.00000
4.00000 7.03348 4.00000
4.00000 7.03348 4.00000
4.00000 7.03348 4.00000
4.00000 7.03348 4.00000
4.00000 7.03348 4.00000
4.00000 7.03349 4.00000
4.00000 7.03349 4.00000
4.00000 7.03349 4.00000
4.00000 7.03348 4.00000
4.00000 7.03348 4.00000
4.00000 7.03349 4.00000
4.00000 7.03349 4.00000
4.00000 7.03348 4.00000
4.00000 7.03348 4.00000
4.00000 7.03349 4.00000
4.00000 7.03349 4.00000
4.00000 7.03348 4.00000
4.00000 7.03348 4.00000
4.00000 7.03348 4.00000
4.00000 7.03348 4.00000
4.00000 7.03348 4.00000
4.00000 7.03347 4.00000
4.00000 7.03348 4.00000
4.00000 7.03348 4.00000
4.00000 7.03348 4.00000
4.00000 7.03348 4.00000
4.00000 7.03347 4.00000
4.00000 7.03347 4.00000
4.00000 7.03347 4.00000
4.00000 7.03347 4.00000
4.00000 7.03348 4.00000
4.00000 7.03348 4.00000
4.00000 7.03348 4.00000
4.00000 7.03348 4.00000
4.00000 7.03348 4.00000
4.00000 7.03348 4.00000
4.00000 7.03348 4.00000
4.00000 7.03348 4.00000
4.00000 7.03348 4.00000
4.00000 7.03348 4.00000
4.00000 7.03348 4.00000
4.00000 7.03348 4.00000
4.00000 7.03348 4.00000
4.00000 7.03347 4.00000
4.00000 7.03348 4.00000
4.00000 7.03348 4.00000
4.00000 7.03348 4.00000
4.00000 7.03348 4.00000
4.00000 7.03347 4.00000
4.00000 7.03348 4.00000
4.00000 7.03348 4.00000
4.00000 7.03348 4.00000
4.00000 7.03348 4.00000
4.00000 7.03349 4.00000
4.00001 7.03358 4.00001
4.00000 7.03348 4.00000
4.00193 7.06745 4.00193
4.00588 7.13808 4.00588
4.00978 7.20900 4.00978
4.01364 7.28018 4.01364
4.01747 7.35158 4.01747
4.02128 7.42316 4.02128
4.02510 7.49487 4.02510
4.02892 7.56669 4.02892
4.03277 7.63858 4.03277
4.03666 7.71047 4.03666
4.04060 7.78234 4.04060
4.04461 7.85414 4.04461
4.04872 7.92580 4.04872
4.05294 7.99727 4.05294
4.05729 8.06849 4.05729
4.06181 8.13937 4.06181
4.06652 8.20985 4.06652
4.07147 8.27981 4.07147
4.07669 8.34914 4.07669
4.08224 8.41772 4.08224
4.08817 8.48539 4.08817
4.09456 8.55198 4.09456
4.10148 8.61725 4.10148
4.10904 8.68099 4.10904
4.11721 8.74327 4.11721
4.12598 8.80414 4.12597
4.13537 8.86355 4.13537
4.14542 8.92143 4.14542
4.15615 8.97774 4.15615
4.16759 9.03244 4.16759
4.17976 9.08550 4.17976
4.19267 9.13691 4.19267
4.20633 9.18667 4.20633
4.22074 9.23479 4.22074
4.23591 9.28131 4.23591
4.25182 9.32625 4.25182
4.26847 9.36966 4.26847
4.28583 9.41161 4.28583
4.30391 9.45213 4.30391
4.32266 9.49130 4.32266
4.34208 9.52919 4.34208
4.36214 9.56584 4.36214
4.38282 9.60132 4.38282
4.40410 9.63567 4.40410
4.42597 9.66894 4.42598
4.44843 9.70112 4.44843
4.47148 9.73222 4.47148
4.49515 9.76217 4.49515
4.51948 9.79086 4.51948
4.54458 9.81805 4.54457
4.57063 9.84332 4.57062
4.59796 9.86591 4.59796
4.62721 9.88441 4.62721
4.65950 9.89626 4.65950
7.80082 7.38789 4.01941
7.93121 7.34083 4.01689
8.05268 7.30267 4.01485
8.16773 7.27093 4.01314
8.27791 7.24411 4.01169
8.38427 7.22113 4.01044
8.48759 7.20124 4.00935
8.58845 7.18387 4.00840
8.68721 7.16865 4.00757
8.78421 7.15524 4.00683
8.87980 7.14331 4.00617
8.97412 7.13271 4.00558
9.06736 7.12325 4.00506
9.15968 7.11477 4.00458
9.25118 7.10717 4.00416
9.34199 7.10034 4.00378
9.43218 7.09418 4.00343
9.52183 7.08863 4.00312
9.61101 7.08361 4.00284
9.69977 7.07907 4.00258
9.78818 7.07496 4.00235
9.87624 7.07125 4.00214
9.96404 7.06786 4.00195
10.05158 7.06479 4.00178
10.13891 7.06201 4.00162
10.22604 7.05948 4.00148
10.31300 7.05718 4.00135
10.39982 7.05509 4.00123
10.48650 7.05318 4.00112
10.57308 7.05144 4.00102
10.65956 7.04986 4.00093
10.74596 7.04842 4.00085
10.83229 7.04711 4.00078
10.91855 7.04592 4.00071
11.00476 7.04483 4.00065
11.09094 7.04383 4.00059
11.17710 7.04292 4.00054
11.26321 7.04210 4.00049
11.34931 7.04134 4.00045
11.43539 7.04066 4.00041
11.52148 7.04002 4.00037
11.60754 7.03946 4.00034
11.69362 7.03893 4.00031
11.77970 7.03845 4.00028
11.86579 7.03801 4.00026
11.95187 7.03762 4.00024
12.03801 7.03723 4.00021
12.12412 7.03692 4.00020
12.21024 7.03663 4.00018
12.29640 7.03635 4.00016
12.38259 7.03610 4.00015
12.46879 7.03587 4.00014
12.55502 7.03566 4.00012
12.64127 7.03547 4.00012
12.72756 7.03529 4.00010
12.81386 7.03514 4.00009
12.90020 7.03499 4.00009
12.98656 7.03486 4.00008
13.07297 7.03474 4.00007
13.15938 7.03463 4.00007
13.24584 7.03452 4.00006
13.33231 7.03443 4.00005
13.41883 7.03435 4.00005
13.50537 7.03427 4.00005
13.59195 7.03420 4.00004
13.67857 7.03414 4.00004
13.76518 7.03408 4.00003
13.85185 7.03403 4.00003
13.93857 7.03398 4.00003
14.02532 7.03393 4.00003
14.11211 7.03389 4.00002
14.19894 7.03386 4.00003
14.28580 7.03383 4.00002
14.37249 7.03380 4.00002
14.45937 7.03377 4.00002
14.54629 7.03374 4.00001
14.63325 7.03372 4.00001
14.72024 7.03370 4.00001
14.80728 7.03368 4.00001
14.89434 7.03366 4.00001
14.98144 7.03364 4.00001
15.06856 7.03363 4.00001
15.15572 7.03361 4.00001
15.24291 7.03360 4.00001
15.33014 7.03359 4.00001
15.41739 7.03358 4.00001
15.50466 7.03358 4.00001
15.59198 7.03356 4.00001
15.67930 7.03356 4.00000
15.76667 7.03355 4.00001
15.85407 7.03354 4.00001
15.94149 7.03353 4.00000
16.02892 7.03353 4.00000
16.11639 7.03353 4.00000
16.20388 7.03352 4.00001
16.29140 7.03351 4.00000
16.37894 7.03351 4.00000
16.46651 7.03351 4.00000
16.55410 7.03351 4.00000
16.64171 7.03350 4.00000
16.72934 7.03350 4.00000
16.81698 7.03350 4.00000
16.90466 7.03350 4.00000
16.99235 7.03349 4.00000
17.08007 7.03349 4.00000
17.16779 7.03350 4.00000
17.25555 7.03349 4.00000
17.34333 7.03349 4.00000
17.43111 7.03349 4.00000
17.51892 7.03349 4.00000
17.60676 7.03348 4.00000
17.69461 7.03348 4.00000
17.78248 7.03349 4.00000
17.87036 7.03349 4.00000
17.95827 7.03349 4.00000
18.04619 7.03350 4.00000
18.13415 7.03348 4.00000
18.22211 7.03349 4.00000
18.31008 7.03348 4.00000
18.39808 7.03348 4.00000
18.48608 7.03348 4.00000
18.57411 7.03348 4.00000
18.66215 7.03348 4.00000
18.75021 7.03348 4.00000
18.83828 7.03348 4.00000
18.92640 7.03348 4.00000
19.01454 7.03348 4.00000
19.10269 7.03348 4.00000
19.19085 7.03348 4.00000
19.27903 7.03348 4.00000
19.36723 7.03348 4.00000
19.45544 7.03348 4.00000
19.54367 7.03348 4.00000
19.63188 7.03348 4.00000
19.72014 7.03348 4.00000
19.80839 7.03347 4.00000
19.89664 7.03348 4.00000
19.98491 7.03348 4.00000
20.07320 7.03348 4.00000
20.16150 7.03348 4.00000
20.24981 7.03348 4.00000
20.33814 7.03348 4.00000
20.42648 7.03348 4.00000
20.51484 7.03348 4.00000
20.60321 7.03348 4.00000
20.69159 7.03348 4.00000
20.77999 7.03348 4.00000
20.86840 7.03348 4.00000
20.95682 7.03348 4.00000
21.04526 7.03348 4.00000
21.13371 7.03348 4.00000
21.22218 7.03348 4.00000
21.31065 7.03348 4.00000
21.39914 7.03348 4.00000
21.48764 7.03348 4.00000
21.57616 7.03348 4.00000
21.66469 7.03348 4.00000
21.75323 7.03348 4.00000
21.84179 7.03348 4.00000
21.93036 7.03348 4.00000
22.01895 7.03347 4.00000
22.10756 7.03348 4.00000
22.19616 7.03348 4.00000
22.28478 7.03348 4.00000
22.37340 7.03348 4.00000
22.46204 7.03348 4.00000
22.55069 7.03348 4.00000
22.63934 7.03348 4.00000
22.72803 7.03347 4.00000
22.81672 7.03348 4.00000
22.90544 7.03347 4.00000
22.99413 7.03348 4.00000
23.08285 7.03348 4.00000
23.17158 7.03348 4.00000
23.26034 7.03348 4.00000
23.34908 7.03348 4.00000
23.43784 7.03347 4.00000
23.52659 7.03348 4.00000
23.61536 7.03348 4.00000
23.70414 7.03348 4.00000
23.79293 7.03348 4.00000
23.88174 7.03348 4.00000
23.97055 7.03348 4.00000
24.05937 7.03348 4.00000
24.14821 7.03348 4.00000
24.23705 7.03348 4.00000
24.32591 7.03348 4.00000
24.41477 7.03348 4.00000
24.50365 7.03348 4.00000
24.59256 7.03348 4.00000
24.68145 7.03348 4.00000
24.77038 7.03348 4.00000
24.85929 7.03348 4.00000
24.94824 7.03348 4.00000
25.03720 7.03348 4.00000
25.12616 7.03348 4.00000
25.21514 7.03348 4.00000
25.30413 7.03348 4.00000
25.39312 7.03348 4.00000
25.48212 7.03348 4.00000
25.57113 7.03348 4.00000
25.66016 7.03348 4.00000
25.74919 7.03348 4.00000
25.83822 7.03348 4.00000
25.92727 7.03348 4.00000
26.01633 7.03348 4.00000
26.10539 7.03348 4.00000
26.19446 7.03348 4.00000
26.28353 7.03348 4.00000
26.37262 7.03348 4.00000
26.46172 7.03348 4.00000
26.55082 7.03348 4.00000
26.63993 7.03348 4.00000
26.72905 7.03348 4.00000
26.81818 7.03348 4.00000
26.90731 7.03348 4.00000
26.99645 7.03348 4.00000
27.08561 7.03348 4.00000
27.17477 7.03348 4.00000
27.26394 7.03348 4.00000
27.35311 7.03348 4.00000
27.44230 7.03348 4.00000
27.53149 7.03348 4.00000
27.62069 7.03348 4.00000
27.70990 7.03348 4.00000
27.79912 7.03348 4.00000
27.88834 7.03348 4.00000
27.97758 7.03348 4.00000
28.06682 7.03348 4.00000
28.15607 7.03348 4.00000
28.24532 7.03348 4.00000
28.33459 7.03348 4.00000
28.42386 7.03348 4.00000
28.51314 7.03348 4.00000

Angle 0.137990 5.406026

4.00000 7.03348 4.00000
4.00000 7.03348 4.00000
4.00000 7.03348 4.00000
4.00000 7.03348 4.00000
4.00000 7.03348 4.00000
4.00000 7.03348 4.00000
4.00000 7.03348 4.00000
4.00000 7.03348 4.00000
4.00000 7.03348 4.00000
4.00000 7.03347 4.00000
4.00000 7.03347 4.00000
4.00000 7.03347 4.00000
4.00000 7.03347 4.00000
4.00000 7.03347 4.00000
4.00000 7.03347 4.00000
4.00000 7.03347 4.00000
4.00000 7.03347 4.00000
4.00000 7.03347 4.00000
4.00000 7.03347 4.00000
4.00000 7.03347 4.00000
4.00000 7.03348 4.00000
4.00000 7.03348 4.00000
4.00000 7.03348 4.00000
4.00000 7.03348 4.00000
4.00000 7.03348 4.00000
4.00000 7.03348 4.00000
4.00000 7.03348 4.00000
4.00000 7.03348 4.00000
4.00000 7.03348 4.00000
4.00000 7.03348 4.00000
4.00000 7.03348 4.00000
4.00000 7.03348 4.00000
4.00000 7.03348 4.00000
4.00000 7.03348 4.00000
4.00000 7.03348 4.00000
4.00000 7.03348 4.00000
4.00000 7.03348 4.00000
4.00000 7.03348 4.00000
4.00000 7.03347 4.00000
4.00000 7.03348 4.00000
4.00000 7.03348 4.00000
4.00000 7.03348 4.00000
4.00000 7.03348 4.00000
4.00000 7.03348 4.00000
4.00000 7.03348 4.00000
4.00000 7.03348 4.00000
4.00000 7.03348 4.00000
4.00000 7.03348 4.00000
4.00000 7.03348 4.00000
4.00000 7.03348 4.00000
4.00000 7.03348 4.00000
4.00000 7.03348 4.00000
4.00000 7.03348 4.00000
4.00000 7.03348 4.00000
4.00000 7.03348 4.00000
4.00000 7.03348 4.00000
4.00000 7.03348 4.00000
4.00000 7.03348 4.00000
4.00000 7.03348 4.00000
4.00000 7.03348 4.00000
4.00000 7.03348 4.00000
4.00000 7.03348 4.00000
4.00000 7.03348 4.00000
4.00000 7.03348 4.00000
4.00000 7.03348 4.00000
4.00000 7.03348 4.00000
4.00000 7.03348 4.00000
4.00000 7.03348 4.00000
4.00000 7.03348 4.00000
4.00000 7.03348 4.00000
4.00000 7.03348 4.00000
4.00000 7.03348 4.00000
4.00000 7.03348 4.00000
4.00000 7.03348 4.00000
4.00000 7.03348 4.00000
4.00000 7.03349 4.00000
4.00000 7.03348 4.00000
4.00000 7.03348 4.00000
4.00000 7.03348 4.00000
4.00000 7.03348 4.00000
4.00000 7.03348 4.00000
4.00000 7.03348 4.00000
4.00000 7.03348 4.00000
4.00000 7.03348 4.00000
4.00000 7.03344 4.00000
4.00000 7.03348 4.00000
4.00000 7.03349 4.00000
4.00000 7.03350 4.00000
4.00000 7.03347 4.00000
4.00000 7.03348 4.00000
4.00000 7.03353 4.00000
4.00000 7.03348 4.00000
4.00175 7.06421 4.00175
4.00577 7.13614 4.00577
4.00974 7.20836 4.00974
4.01367 7.28082 4.01367
4.01757 7.35349 4.01757
4.02145 7.42633 4.02145
4.02533 7.49930 4.02533
4.02922 7.57235 4.02922
4.03314 7.64544 4.03314
4.03709 7.71853 4.03709
4.04111 7.79156 4.04111
4.04520 7.86450 4.04520
4.04939 7.93728 4.04939
4.05369 8.00983 4.05369
4.05814 8.08209 4.05814
4.06277 8.15399 4.06277
4.06760 8.22542 4.06760
4.07268 8.29628 4.07268
4.07805 8.36646 4.07805
4.08378 8.43581 4.08378
4.08991 8.50417 4.08991
4.09654 8.57133 4.09654
4.10374 8.63707 4.10374
4.11161 8.70119 4.11161
4.12008 8.76385 4.12008
4.12918 8.82504 4.12918
4.13893 8.88469 4.13893
4.14936 8.94275 4.14936
4.16051 8.99916 4.16051
4.17238 9.05391 4.17238
4.18501 9.10695 4.18501
4.19839 9.15830 4.19840
4.21255 9.20796 4.21255
4.22748 9.25594 4.22748
4.24317 9.30228 4.24317
4.25962 9.34703 4.25962
4.27682 9.39023 4.27682
4.29474 9.43195 4.29474
4.31337 9.47224 4.31337
4.33269 9.51117 4.33269
4.35266 9.54882 4.35267
4.37329 9.58523 4.37329
4.39453 9.62047 4.39453
4.41637 9.65458 4.41638
4.43882 9.68758 4.43882
4.46186 9.71947 4.46186
4.48551 9.75022 4.48551
4.50982 9.77973 4.50982
4.53486 9.80782 4.53486
4.56078 9.83415 4.56077
4.58786 9.85809 4.58785
4.61660 9.87847 4.61660
4.64796 9.89317 4.64796
7.75469 7.40620 4.02038
7.89009 7.35494 4.01765
8.01526 7.31387 4.01545
8.13319 7.28004 4.01363
8.24573 7.25161 4.01209
8.35411 7.22737 4.01078
8.45918 7.20648 4.00964
8.56156 7.18833 4.00865
8.66171 7.17244 4.00778
8.76004 7.15844 4.00701
8.85681 7.14604 4.00632
8.95221 7.13507 4.00571
9.04647 7.12529 4.00517
9.13977 7.11652 4.00468
9.23222 7.10868 4.00424
9.32390 7.10165 4.00385
9.41495 7.09531 4.00350
9.50544 7.08960 4.00318
9.59541 7.08445 4.00289
9.68493 7.07983 4.00263
9.77411 7.07559 4.00239
9.86292 7.07178 4.00217
9.95144 7.06833 4.00198
10.03969 7.06520 4.00180
10.12770 7.06236 4.00164
10.21552 7.05977 4.00149
10.30317 7.05741 4.00136
10.39063 7.05529 4.00124
10.47796 7.05336 4.00113
10.56519 7.05158 4.00103
10.65229 7.04999 4.00094
10.73931 7.04853 4.00086
10.82626 7.04720 4.00078
10.91312 7.04599 4.00071
10.99995 7.04489 4.00065
11.08672 7.04388 4.00059
11.17345 7.04296 4.00054
11.26015 7.04213 4.00049
11.34683 7.04137 4.00045
11.43349 7.04067 4.00041
11.52013 7.04004 4.00037
11.60678 7.03945 4.00034
11.69340 7.03893 4.00031
11.78003 7.03845 4.00028
11.86666 7.03801 4.00026
11.95330 7.03762 4.00024
12.03995 7.03725 4.00022
12.12660 7.03692 4.00020
12.21328 7.03662 4.00018
12.29996 7.03634 4.00016
12.38667 7.03609 4.00015
12.47340 7.03586 4.00014
12.56015 7.03566 4.00012
12.64690 7.03546 4.00011
12.73369 7.03528 4.00010
12.82050 7.03512 4.00009
12.90733 7.03498 4.00009
12.99419 7.03485 4.00008
13.08108 7.03473 4.00007
13.16799 7.03462 4.00006
13.25493 7.03451 4.00006
13.34191 7.03442 4.00005
13.42888 7.03434 4.00005
13.51590 7.03426 4.00004
13.60295 7.03419 4.00004
13.69003 7.03412 4.00004
13.77711 7.03407 4.00003
13.86424 7.03401 4.00003
13.95140 7.03397 4.00003
14.03859 7.03393 4.00003
14.12581 7.03389 4.00003
14.21306 7.03385 4.00003
14.30034 7.03382 4.00002
14.38765 7.03379 4.00002
14.47489 7.03376 4.00002
14.56224 7.03373 4.00001
14.64961 7.03371 4.00001
14.73702 7.03369 4.00001
14.82445 7.03367 4.00001
14.91191 7.03365 4.00001
14.99940 7.03364 4.00001
15.08692 7.03362 4.00001
15.17446 7.03361 4.00001
15.26202 7.03360 4.00001
15.34961 7.03359 4.00001
15.43724 7.03358 4.00001
15.52488 7.03357 4.00001
15.61255 7.03356 4.00000
15.70023 7.03355 4.00000
15.78795 7.03354 4.00000
15.87568 7.03354 4.00000
15.96344 7.03354 4.00000
16.05122 7.03354 4.00000
16.13903 7.03352 4.00000
16.22685 7.03352 4.00000
16.31471 7.03352 4.00000
16.40257 7.03352 4.00000
16.49047 7.03351 4.00000
16.57839 7.03351 4.00000
16.66632 7.03351 4.00000
16.75428 7.03350 4.00000
16.84226 7.03350 4.00000
16.93025 7.03350 4.00000
17.01826 7.03350 4.00000
17.10629 7.03350 4.00000
17.19435 7.03350 4.00000
17.28242 7.03349 4.00000
17.37050 7.03349 4.00000
17.45862 7.03349 4.00000
17.54676 7.03349 4.00000
17.63492 7.03349 4.00000
17.72309 7.03349 4.00000
17.81128 7.03349 4.00000
17.89949 7.03349 4.00000
17.98772 7.03349 4.00000
18.07596 7.03349 4.00000
18.16422 7.03349 4.00000
18.25250 7.03348 4.00000
18.34078 7.03348 4.00000
18.42910 7.03348 4.00000
18.51741 7.03348 4.00000
18.60574 7.03348 4.00000
18.69408 7.03348 4.00000
18.78244 7.03348 4.00000
18.87082 7.03348 4.00000
18.95921 7.03348 4.00000
19.04761 7.03348 4.00000
19.13603 7.03348 4.00000
19.22446 7.03348 4.00000
19.31291 7.03348 4.00000
19.40138 7.03348 4.00000
19.48985 7.03348 4.00000
19.57835 7.03348 4.00000
19.66685 7.03348 4.00000
19.75537 7.03348 4.00000
19.84391 7.03348 4.00000
19.93246 7.03348 4.00000
20.02102 7.03348 4.00000
20.10959 7.03348 4.00000
20.19818 7.03348 4.00000
20.28678 7.03348 4.00000
20.37540 7.03348 4.00000
20.46403 7.03348 4.00000
20.55267 7.03348 4.00000
20.64133 7.03348 4.00000
20.73000 7.03348 4.00000
20.81869 7.03347 4.00000
20.90737 7.03348 4.00000
20.99609 7.03347 4.00000
21.08480 7.03348 4.00000
21.17354 7.03348 4.00000
21.26228 7.03347 4.00000
21.35102 7.03348 4.00000
21.43979 7.03348 4.00000
21.52857 7.03348 4.00000
21.61735 7.03348 4.00000
21.70615 7.03348 4.00000
21.79495 7.03348 4.00000
21.88378 7.03348 4.00000
21.97260 7.03349 4.00000
22.06145 7.03348 4.00000
22.15031 7.03348 4.00000
22.23916 7.03349 4.00000
22.32804 7.03348 4.00000
22.41692 7.03348 4.00000
22.50581 7.03348 4.00000
22.59471 7.03348 4.00000
22.68362 7.03348 4.00000
22.77255 7.03348 4.00000
22.86148 7.03348 4.00000
22.95042 7.03348 4.00000
23.03937 7.03348 4.00000
23.12834 7.03348 4.00000
23.21732 7.03348 4.00000
23.30630 7.03348 4.00000
23.39530 7.03348 4.00000
23.48430 7.03348 4.00000
23.57332 7.03348 4.00000
23.66235 7.03348 4.00000
23.75138 7.03348 4.00000
23.84043 7.03348 4.00000
23.92949 7.03348 4.00000
24.01856 7.03348 4.00000
24.10764 7.03348 4.00000
24.19672 7.03348 4.00000
24.28581 7.03348 4.00000
24.37492 7.03348 4.00000
24.46403 7.03348 4.00000
24.55315 7.03348 4.00000
24.64228 7.03348 4.00000
24.73141 7.03348 4.00000
24.82056 7.03348 4.00000
24.90971 7.03348 4.00000
24.99887 7.03348 4.00000
25.08804 7.03348 4.00000
25.17721 7.03348 4.00000
25.26640 7.03348 4.00000
25.35559 7.03348 4.00000
25.44479 7.03348 4.00000
25.53399 7.03348 4.00000
25.62321 7.03348 4.00000
25.71243 7.03348 4.00000
25.80167 7.03348 4.00000
25.89091 7.03348 4.00000
25.98015 7.03348 4.00000
26.06941 7.03348 4.00000
26.15867 7.03348 4.00000
26.24794 7.03348 4.00000
26.33722 7.03348 4.00000
26.42650 7.03348 4.00000
26.51580 7.03348 4.00000
26.60510 7.03348 4.00000
26.69440 7.03348 4.00000
26.78372 7.03348 4.00000
26.87304 7.03348 4.00000
26.96237 7.03348 4.00000
27.05171 7.03348 4.00000
27.14105 7.03348 4.00000
27.23041 7.03348 4.00000
27.31974 7.03349 4.00000
27.40910 7.03348 4.00000
27.49845 7.03348 4.00000
27.58781 7.03348 4.00000
27.67718 7.03348 4.00000
27.76656 7.03348 4.00000
27.85594 7.03348 4.00000
27.94533 7.03348 4.00000
28.03471 7.03349 4.00000
28.12412 7.03349 4.00000
28.21353 7.03349 4.00000
28.30296 7.03348 4.00000
28.39241 7.03348 4.00000
28.48184 7.03348 4.00000
28.57129 7.03348 4.00000
28.66072 7.03349 4.00000
28.75017 7.03349 4.00000
28.83963 7.03349 4.00000
28.92911 7.03348 4.00000
29.01861 7.03347 4.00000
29.10810 7.03348 4.00000
29.19759 7.03348 4.00000
29.28708 7.03348 4.00000
29.37658 7.03348 4.00000
29.46609 7.03348 4.00000
29.55560 7.03348 4.00000
29.64512 7.03348 4.00000
29.73464 7.03348 4.00000
29.82417 7.03348 4.00000
29.91371 7.03348 4.00000
30.00324 7.03348 4.00000
30.09280 7.03348 4.00000
30.18235 7.03348 4.00000
30.27192 7.03348 4.00000
30.36149 7.03348 4.00000
30.45108 7.03348 4.00000

