Angle 0.689644 3.731915

4.00000 7.03348 4.00000
4.00000 7.03348 4.00000
4.00000 7.03348 4.00000
4.00000 7.03348 4.00000
4.00000 7.03347 4.00000
4.00000 7.03348 4.00000
4.00000 7.03348 4.00000
4.00000 7.03350 4.00000
4.00000 7.03348 4.00000
4.00000 7.03348 4.00000
4.00000 7.03348 4.00000
4.00000 7.03348 4.00000
4.00000 7.03348 4.00000
4.00000 7.03348 4.00000
4.00000 7.03348 4.00000
4.00000 7.03348 4.00000
4.00000 7.03348 4.00000
4.00000 7.03348 4.00000
4.00000 7.03348 4.00000
4.00000 7.03348 4.00000
4.00000 7.03348 4.00000
4.00000 7.03348 4.00000
4.00000 7.03348 4.00000
4.00000 7.03348 4.00000
4.00000 7.03348 4.00000
4.00000 7.03348 4.00000
4.00000 7.03348 4.00000
4.00000 7.03348 4.00000
4.00000 7.03348 4.00000
4.00000 7.03348 4.00000
4.00000 7.03348 4.00000
4.00000 7.03351 4.00000
4.00000 7.03348 4.00000
4.00000 7.03348 4.00000
4.00000 7.03348 4.00000
4.00000 7.03348 4.00000
4.00000 7.03347 4.00000
4.00000 7.03347 4.00000
4.00000 7.03347 4.00000
4.00000 7.03348 4.00000
4.00000 7.03348 4.00000
4.00000 7.03348 4.00000
4.00000 7.03348 4.00000
4.00000 7.03348 4.00000
4.00000 7.03348 4.00000
4.00000 7.03348 4.00000
4.00000 7.03348 4.00000
4.00000 7.03348 4.00000
4.00000 7.03348 4.00000
4.00000 7.03348 4.00000
4.00000 7.03348 4.00000
4.00000 7.03347 4.00000
4.00000 7.03347 4.00000
4.00000 7.03347 4.00000
4.00000 7.03348 4.00000
4.00000 7.03349 4.00000
4.00000 7.03348 4.00000
4.00000 7.03348 4.00000
4.00000 7.03348 4.00000
4.00000 7.03348 4.00000
4.00000 7.03348 4.00000
4.00000 7.03348 4.00000
4.00000 7.03346 4.00000
4.00000 7.03347 4.00000
4.00000 7.03348 4.00000
4.00000 7.03344 4.00000
4.00000 7.03347 4.00000
4.00000 7.03348 4.00000
4.00000 7.03347 4.00000
4.00000 7.03348 4.00000
4.00000 7.03346 4.00000
4.00000 7.03348 4.00000
4.00000 7.03348 4.00000
4.00000 7.03348 4.00000
4.00000 7.03341 4.00000
4.00000 7.03348 4.00000
4.00000 7.03347 4.00000
4.00000 7.03348 4.00000
4.00000 7.03348 4.00000
3.99999 7.03370 3.99999
4.00000 7.03348 4.00000
4.00000 7.03340 4.00000
4.00000 7.03348 4.00000
4.00000 7.03348 4.00000
4.00000 7.03350 4.00000
4.00000 7.03345 4.00000
4.00000 7.03345 4.00000
4.00000 7.03352 4.00000
4.00000 7.03349 4.00000
4.00000 7.03349 4.00000
4.00000 7.03348 4.00000
4.00000 7.03348 4.00000
4.00000 7.03346 4.00000
4.00000 7.03348 4.00000
4.00000 7.03347 4.00000
4.00000 7.03347 4.00000
4.00000 7.03348 4.00000
4.00000 7.03348 4.00000
4.00000 7.03348 4.00000
4.00000 7.03348 4.00000
4.00000 7.03348 4.00000
4.00000 7.03348 4.00000
4.00000 7.03348 4.00000
4.00000 7.03348 4.00000
4.00000 7.03348 4.00000
4.00000 7.03348 4.00000
4.00000 7.03348 4.00000
4.00000 7.03343 4.00000
4.00000 7.03345 4.00000
4.00000 7.03348 4.00000
4.00000 7.03348 4.00000
4.00000 7.03349 4.00000
4.00000 7.03348 4.00000
4.00000 7.03348 4.00000
4.00000 7.03348 4.00000
4.00000 7.03348 4.00000
4.00000 7.03348 4.00000
4.00000 7.03348 4.00000
4.00000 7.03348 4.00000
4.00000 7.03348 4.00000
4.00000 7.03348 4.00000
4.00000 7.03348 4.00000
4.00000 7.03348 4.00000
4.00000 7.03348 4.00000
4.00000 7.03348 4.00000
4.00000 7.03348 4.00000
4.00000 7.03348 4.00000
4.00000 7.03348 4.00000
4.00000 7.03348 4.00000
4.00000 7.03348 4.00000
4.00000 7.03348 4.00000
4.00000 7.03348 4.00000
4.00000 7.03348 4.00000
4.00000 7.03348 4.00000
4.00000 7.03348 4.00000
4.00000 7.03348 4.00000
4.00000 7.03348 4.00000
4.00000 7.03348 4.00000
4.00000 7.03348 4.00000
4.00000 7.03348 4.00000
4.00000 7.03348 4.00000
4.00000 7.03348 4.00000
4.00000 7.03348 4.00000
4.00000 7.03348 4.00000
4.00000 7.03348 4.00000
4.00000 7.03348 4.00000
4.00000 7.03348 4.00000
4.00000 7.03348 4.00000
4.00000 7.03348 4.00000
4.00000 7.03348 4.00000
4.00000 7.03348 4.00000
4.00000 7.03347 4.00000
4.00000 7.03348 4.00000
4.00000 7.03348 4.00000
4.00000 7.03348 4.00000
4.00000 7.03348 4.00000
4.00000 7.03348 4.00000
4.00000 7.03348 4.00000
4.00000 7.03348 4.00000
4.00000 7.03348 4.00000
4.00000 7.03348 4.00000
4.00000 7.03348 4.00000
4.00000 7.03348 4.00000
4.00000 7.03348 4.00000
4.00000 7.03348 4.00000
4.00000 7.03348 4.00000
4.00000 7.03348 4.00000
4.00000 7.03348 4.00000
4.00000 7.03348 4.00000
4.00000 7.03348 4.00000
4.00000 7.03348 4.00000
4.00000 7.03348 4.00000
4.00000 7.03348 4.00000
4.00000 7.03349 4.00000
4.00000 7.03350 4.00000
4.00000 7.03349 4.00000
4.00000 7.03348 4.00000
4.00000 7.03348 4.00000
4.00000 7.03348 4.00000
4.00000 7.03348 4.00000
4.00000 7.03348 4.00000
4.00000 7.03348 4.00000
4.00000 7.03348 4.00000
4.00000 7.03348 4.00000
4.00000 7.03348 4.00000
4.00000 7.03348 4.00000
4.00000 7.03348 4.00000
4.00000 7.03348 4.00000
4.00000 7.03348 4.00000
4.00000 7.03348 4.00000
4.00000 7.03348 4.00000
4.00000 7.03348 4.00000
4.00000 7.03348 4.00000
4.00000 7.03348 4.00000
4.00000 7.03348 4.00000
4.00000 7.03348 4.00000
4.00000 7.03348 4.00000
4.00000 7.03348 4.00000
4.00000 7.03348 4.00000
4.00000 7.03348 4.00000
4.00000 7.03348 4.00000
4.00000 7.03348 4.00000
4.00000 7.03348 4.00000
4.00000 7.03348 4.00000
4.00000 7.03348 4.00000
4.00000 7.03348 4.00000
4.00000 7.03348 4.00000
4.00000 7.03349 4.00000
4.00000 7.03348 4.00000
4.00000 7.03348 4.00000
4.00000 7.03348 4.00000
4.00000 7.03348 4.00000
4.00000 7.03348 4.00000
4.00000 7.03348 4.00000
4.00000 7.03349 4.00000
4.00000 7.03348 4.00000
4.00000 7.03348 4.00000
4.00000 7.03348 4.00000
4.00000 7.03350 4.00000
4.00000 7.03348 4.00000
4.00000 7.03348 4.00000
4.00000 7.03348 4.00000
4.00000 7.03348 4.00000
4.00000 7.03347 4.00000
4.00000 7.03350 4.00000
4.00140 7.05807 4.00140
4.00576 7.13588 4.00576
4.01005 7.21394 4.01005
4.01428 7.29220 4.01428
4.01848 7.37061 4.01848
4.02266 7.44911 4.02266
4.02684 7.52767 4.02684
4.03103 7.60623 4.03103
4.03526 7.68474 4.03526
4.03954 7.76313 4.03954
4.04389 7.84136 4.04389
4.04834 7.91935 4.04834
4.05292 7.99704 4.05292
4.05766 8.07434 4.05766
4.06258 8.15115 4.06258
4.06774 8.22739 4.06774
4.07317 8.30290 4.07317
4.07894 8.37757 4.07894
4.08511 8.45121 4.08511
4.09176 8.52361 4.09176
4.09899 8.59454 4.09899
4.10691 8.66371 4.10691
4.11555 8.73105 4.11555
4.12486 8.79672 4.12486
4.13489 8.86066 4.13489
4.14566 8.92278 4.14566
4.15721 8.98304 4.15721
4.16957 9.04139 4.16957
4.18275 9.09782 4.18275
4.19677 9.15231 4.19677
4.21164 9.20488 4.21164
4.22735 9.25555 4.22735
4.24391 9.30437 4.24391
4.26130 9.35139 4.26130
4.27950 9.39667 4.27950
4.29849 9.44030 4.29849
4.31825 9.48234 4.31825
4.33875 9.52287 4.33875
4.35996 9.56198 4.35996
4.38186 9.59973 4.38186
4.40443 9.63619 4.40443
4.42764 9.67139 4.42764
4.45150 9.70537 4.45150
4.47600 9.73810 4.47600
4.50119 9.76950 4.50119
4.52713 9.79942 4.52713
4.55397 9.82753 4.55397
4.58196 9.85323 4.58196
4.61162 9.87537 4.61161
4.64389 9.89177 4.64389
4.68180 9.89845 4.67933
4.01774 7.35658 7.88543
4.01543 7.31360 8.01614
4.01355 7.27850 8.13893
4.01196 7.24921 8.25590
4.01062 7.22439 8.36838
4.00946 7.20312 8.47733
4.00845 7.18471 8.58342
4.00757 7.16867 8.68716
4.00679 7.15461 8.78894
4.00611 7.14222 8.88908
4.00550 7.13126 8.98781
4.00496 7.12153 9.08534
4.00448 7.11286 9.18182
4.00405 7.10513 9.27741
4.00366 7.09821 9.37222
4.00331 7.09200 9.46634
4.00300 7.08643 9.55987
4.00272 7.08141 9.65286
4.00246 7.07690 9.74539
4.00223 7.07283 9.83750
4.00203 7.06916 9.92925
4.00184 7.06584 10.02068
4.00167 7.06285 10.11182
4.00152 7.06013 10.20271
4.00138 7.05768 10.29337
4.00125 7.05546 10.38384
4.00114 7.05344 10.47412
4.00103 7.05161 10.56425
4.00094 7.04996 10.65424
4.00085 7.04845 10.74411
4.00078 7.04709 10.83387
4.00071 7.04585 10.92353
4.00064 7.04473 11.01311
4.00058 7.04370 11.10263
4.00053 7.04278 11.19207
4.00048 7.04193 11.28145
4.00044 7.04117 11.37079
4.00040 7.04047 11.46009
4.00036 7.03984 11.54934
4.00033 7.03926 11.63857
4.00030 7.03873 11.72778
4.00027 7.03826 11.81695
4.00025 7.03783 11.90612
4.00023 7.03743 11.99527
4.00021 7.03707 12.08441
4.00019 7.03675 12.17354
4.00017 7.03645 12.26266
4.00016 7.03619 12.35178
4.00014 7.03594 12.44090
4.00013 7.03572 12.53002
4.00012 7.03552 12.61915
4.00011 7.03533 12.70828
4.00010 7.03516 12.79741
4.00009 7.03501 12.88655
4.00008 7.03487 12.97569
4.00007 7.03475 13.06484
4.00007 7.03463 13.15400
4.00006 7.03453 13.24317
4.00005 7.03443 13.33235
4.00005 7.03435 13.42155
4.00005 7.03427 13.51075
4.00004 7.03420 13.59996
4.00004 7.03413 13.68919
4.00003 7.03407 13.77842
4.00003 7.03402 13.86767
4.00003 7.03397 13.95693
4.00003 7.03392 14.04621
4.00002 7.03389 14.13549
4.00002 7.03385 14.22479
4.00002 7.03382 14.31410
4.00002 7.03379 14.40342
4.00002 7.03376 14.49276
4.00001 7.03373 14.58211
4.00001 7.03371 14.67147
4.00001 7.03369 14.76084
4.00001 7.03367 14.85023
4.00001 7.03365 14.93963
4.00001 7.03364 15.02904
4.00001 7.03362 15.11847
4.00001 7.03361 15.20790
4.00001 7.03360 15.29735
4.00001 7.03359 15.38681
4.00000 7.03358 15.47627
4.00001 7.03357 15.56576
4.00000 7.03356 15.65525
4.00000 7.03355 15.74476
4.00000 7.03355 15.83428
4.00000 7.03354 15.92381
4.00000 7.03354 16.01335
4.00000 7.03353 16.10290
4.00000 7.03353 16.19246
4.00000 7.03352 16.28203
4.00000 7.03352 16.37162
4.00000 7.03351 16.46121
4.00000 7.03351 16.55081
4.00000 7.03351 16.64043
4.00000 7.03351 16.73005
4.00000 7.03350 16.81968
4.00000 7.03350 16.90932
4.00000 7.03350 16.99898
4.00000 7.03350 17.08864
4.00000 7.03350 17.17831
4.00000 7.03349 17.26799
4.00000 7.03349 17.35768
4.00000 7.03349 17.44738
4.00000 7.03349 17.53708
4.00000 7.03349 17.62680
4.00000 7.03349 17.71652
4.00000 7.03349 17.80625
4.00000 7.03349 17.89599
4.00000 7.03349 17.98574
4.00000 7.03349 18.07550
4.00000 7.03349 18.16526
4.00000 7.03348 18.25503
4.00000 7.03348 18.34481
4.00000 7.03348 18.43460
4.00000 7.03348 18.52440
4.00000 7.03348 18.61420
4.00000 7.03348 18.70401
4.00000 7.03348 18.79382
4.00000 7.03348 18.88365
4.00000 7.03348 18.97348
4.00000 7.03348 19.06332
4.00000 7.03348 19.15316

Angle 0.581882 1.539714

4.00000 7.03348 4.00000
4.00000 7.03348 4.00000
4.00000 7.03348 4.00000
4.00000 7.03348 4.00000
4.00000 7.03348 4.00000
4.00000 7.03348 4.00000
4.00000 7.03346 4.00000
4.00000 7.03347 4.00000
4.00000 7.03348 4.00000
4.00000 7.03348 4.00000
4.00000 7.03348 4.00000
4.00000 7.03348 4.00000
4.00000 7.03348 4.00000
4.00000 7.03348 4.00000
4.00000 7.03348 4.00000
4.00000 7.03348 4.00000
4.00000 7.03348 4.00000
4.00000 7.03348 4.00000
4.00000 7.03348 4.00000
4.00000 7.03348 4.00000
4.00000 7.03348 4.00000
4.00000 7.03348 4.00000
4.00000 7.03348 4.00000
4.00000 7.03348 4.00000
4.00000 7.03348 4.00000
4.00000 7.03348 4.00000
4.00000 7.03348 4.00000
4.00000 7.03348 4.00000
4.00000 7.03348 4.00000
4.00000 7.03348 4.00000
4.00000 7.03348 4.00000
4.00000 7.03348 4.00000
4.00000 7.03348 4.00000
4.00000 7.03348 4.00000
4.00000 7.03348 4.00000
4.00000 7.03348 4.00000
4.00000 7.03348 4.00000
4.00000 7.03348 4.00000
4.00000 7.03348 4.00000
4.00000 7.03348 4.00000
4.00000 7.03348 4.00000
4.00000 7.03348 4.00000
4.00000 7.03348 4.00000
4.00000 7.03348 4.00000
4.00000 7.03348 4.00000
4.00000 7.03348 4.00000
4.00000 7.03348 4.00000
4.00000 7.03348 4.00000
4.00000 7.03348 4.00000
4.00000 7.03348 4.00000
4.00000 7.03348 4.00000
4.00000 7.03348 4.00000
4.00000 7.03348 4.00000
4.00000 7.03347 4.00000
4.00000 7.03348 4.00000
4.00000 7.03349 4.00000
4.00000 7.03348 4.00000
4.00000 7.03348 4.00000
4.00000 7.03348 4.00000
4.00000 7.03348 4.00000
4.00000 7.03348 4.00000
4.00000 7.03348 4.00000
4.00000 7.03348 4.00000
4.00000 7.03348 4.00000
4.00000 7.03348 4.00000
4.00000 7.03348 4.00000
4.00000 7.03348 4.00000
4.00000 7.03348 4.00000
4.00000 7.03348 4.00000
4.00000 7.03349 4.00000
4.00000 7.03349 4.00000
4.00000 7.03349 4.00000
4.00000 7.03349 4.00000
4.00000 7.03347 4.00000
4.00000 7.03348 4.00000
4.00000 7.03348 4.00000
4.00000 7.03349 4.00000
4.00000 7.03348 4.00000
4.00000 7.03348 4.00000
4.00141 7.05828 4.00141
4.00566 7.13416 4.00566
4.00985 7.21030 4.00985
4.01399 7.28666 4.01399
4.01809 7.36319 4.01809
4.02217 7.43984 4.02217
4.02625 7.51658 4.02625
4.03034 7.59334 4.03034
4.03447 7.67008 4.03447
4.03864 7.74675 4.03864
4.04288 7.82329 4.04288
4.04721 7.89965 4.04721
4.05165 7.97575 4.05165
4.05624 8.05152 4.05624
4.06100 8.12688 4.06100
4.06597 8.20173 4.06597
4.07119 8.27596 4.07119
4.07672 8.34943 4.07671
4.08260 8.42201 4.08260
4.08892 8.49350 4.08892
4.09575 8.56370 4.09575
4.10319 8.63234 4.10319
4.11135 8.69919 4.11135
4.12017 8.76443 4.12017
4.12965 8.82804 4.12965
4.13983 8.88996 4.13983
4.15076 8.95011 4.15076
4.16245 9.00846 4.16245
4.17492 9.06498 4.17492
4.18820 9.11964 4.18820
4.20230 9.17245 4.20230
4.21722 9.22342 4.21722
4.23296 9.27258 4.23296
4.24952 9.31997 4.24952
4.26687 9.36565 4.26687
4.28501 9.40968 4.28501
4.30391 9.45214 4.30391
4.32355 9.49310 4.32355
4.34390 9.53262 4.34390
4.36495 9.57079 4.36495
4.38665 9.60766 4.38665
4.40900 9.64329 4.40900
4.43198 9.67773 4.43198
4.45559 9.71098 4.45558
4.47983 9.74301 4.47983
4.50475 9.77375 4.50474
4.53041 9.80301 4.53041
4.55697 9.83048 4.55697
4.58470 9.85551 4.58470
4.61411 9.87695 4.61411
4.64618 9.89258 4.64618
4.68224 9.89843 4.68311
7.89070 7.35473 4.01764
8.01932 7.31264 4.01538
8.14033 7.27813 4.01353
8.25570 7.24926 4.01197
8.36672 7.22474 4.01064
8.47430 7.20368 4.00949
8.57909 7.18542 4.00849
8.68160 7.16948 4.00761
8.78219 7.15549 4.00684
8.88116 7.14315 4.00616
8.97876 7.13222 4.00555
9.07518 7.12249 4.00501
9.17059 7.11382 4.00453
9.26512 7.10607 4.00410
9.35888 7.09914 4.00371
9.45198 7.09291 4.00336
9.54448 7.08731 4.00304
9.63646 7.08226 4.00276
9.72798 7.07772 4.00251
9.81911 7.07362 4.00228
9.90988 7.06990 4.00207
10.00033 7.06656 4.00188
10.09052 7.06352 4.00171
10.18044 7.06078 4.00155
10.27016 7.05829 4.00141
10.35969 7.05603 4.00128
10.44905 7.05398 4.00117
10.53824 7.05212 4.00106
10.62732 7.05044 4.00097
10.71627 7.04891 4.00088
10.80512 7.04751 4.00080
10.89389 7.04625 4.00073
10.98257 7.04510 4.00066
11.07119 7.04405 4.00060
11.15975 7.04310 4.00055
11.24826 7.04224 4.00050
11.33672 7.04146 4.00045
11.42515 7.04074 4.00041
11.51355 7.04008 4.00038
11.60193 7.03949 4.00034
11.69028 7.03895 4.00031
11.77862 7.03846 4.00028
11.86695 7.03801 4.00026
11.95527 7.03761 4.00024
12.04358 7.03723 4.00022
12.13191 7.03689 4.00019
12.22020 7.03659 4.00018
12.30853 7.03631 4.00016
12.39684 7.03606 4.00015
12.48515 7.03584 4.00013
12.57349 7.03562 4.00012
12.66183 7.03542 4.00011
12.75019 7.03525 4.00010
12.83855 7.03509 4.00009
12.92692 7.03495 4.00008
13.01531 7.03482 4.00008
13.10372 7.03470 4.00007
13.19213 7.03459 4.00006
13.28057 7.03448 4.00006
13.36901 7.03440 4.00005
13.45748 7.03431 4.00005
13.54596 7.03424 4.00005
13.63446 7.03417 4.00004
13.72297 7.03411 4.00004
13.81150 7.03405 4.00003
13.90006 7.03400 4.00003
13.98862 7.03395 4.00003
14.07721 7.03391 4.00003
14.16582 7.03387 4.00003
14.25442 7.03384 4.00002
14.34306 7.03380 4.00002
14.43172 7.03378 4.00002
14.52039 7.03375 4.00002
14.60908 7.03372 4.00001
14.69779 7.03370 4.00001
14.78652 7.03368 4.00001
14.87526 7.03366 4.00001
14.96402 7.03365 4.00001
15.05277 7.03363 4.00001
15.14156 7.03362 4.00001
15.23038 7.03361 4.00001
15.31922 7.03358 4.00000
15.40805 7.03358 4.00001
15.49693 7.03355 4.00001
15.58577 7.03356 4.00001
15.67467 7.03354 4.00000
15.76356 7.03355 4.00000
15.85250 7.03354 4.00000
15.94143 7.03354 4.00000
16.03039 7.03353 4.00000
16.11937 7.03353 4.00000
16.20836 7.03353 4.00000
16.29736 7.03352 4.00000
16.38638 7.03352 4.00000
16.47542 7.03351 4.00000
16.56447 7.03351 4.00000
16.65353 7.03351 4.00000
16.74261 7.03351 4.00000
16.83170 7.03350 4.00000
16.92081 7.03350 4.00000
17.00993 7.03350 4.00000
17.09906 7.03350 4.00000
17.18820 7.03350 4.00000
17.27736 7.03349 4.00000
17.36653 7.03349 4.00000
17.45571 7.03349 4.00000
17.54490 7.03349 4.00000
17.63410 7.03349 4.00000
17.72332 7.03349 4.00000
17.81255 7.03349 4.00000
17.90179 7.03349 4.00000
17.99104 7.03349 4.00000
18.08030 7.03349 4.00000
18.16957 7.03349 4.00000
18.25885 7.03348 4.00000
18.34814 7.03348 4.00000
18.43744 7.03348 4.00000
18.52676 7.03348 4.00000
18.61608 7.03348 4.00000
18.70541 7.03348 4.00000
18.79475 7.03348 4.00000
18.88410 7.03348 4.00000
18.97347 7.03348 4.00000
19.06284 7.03348 4.00000
19.15222 7.03348 4.00000
19.24160 7.03348 4.00000
19.33099 7.03348 4.00000
19.42038 7.03348 4.00000
19.50978 7.03348 4.00000
19.59919 7.03348 4.00000
19.68861 7.03348 4.00000
19.77803 7.03348 4.00000
19.86747 7.03347 4.00000
19.95691 7.03347 4.00000
20.04636 7.03347 4.00000
20.13581 7.03348 4.00000
20.22528 7.03347 4.00000
20.31475 7.03347 4.00000
20.40422 7.03348 4.00000
20.49372 7.03347 4.00000
20.58320 7.03348 4.00000
20.67271 7.03348 4.00000
20.76222 7.03348 4.00000
20.85175 7.03348 4.00000
20.94128 7.03348 4.00000
21.03082 7.03348 4.00000
21.12038 7.03346 4.00000
21.20991 7.03348 4.00000
21.29946 7.03348 4.00000
21.38902 7.03348 4.00000
21.47858 7.03348 4.00000
21.56815 7.03348 4.00000
21.65773 7.03348 4.00000
21.74734 7.03348 4.00000
21.83695 7.03348 4.00000
21.92657 7.03348 4.00000
22.01619 7.03348 4.00000
22.10582 7.03348 4.00000
22.19546 7.03348 4.00000
22.28510 7.03348 4.00000
22.37475 7.03348 4.00000
22.46441 7.03348 4.00000
22.55407 7.03348 4.00000
22.64373 7.03347 4.00000
22.73338 7.03348 4.00000
22.82304 7.03348 4.00000
22.91273 7.03348 4.00000
23.00240 7.03348 4.00000
23.09208 7.03348 4.00000
23.18177 7.03348 4.00000
23.27146 7.03348 4.00000
23.36116 7.03348 4.00000
23.45087 7.03348 4.00000
23.54058 7.03348 4.00000
23.63030 7.03348 4.00000
23.72002 7.03348 4.00000
23.80975 7.03348 4.00000
23.89949 7.03348 4.00000
23.98923 7.03348 4.00000
24.07898 7.03348 4.00000
24.16873 7.03348 4.00000
24.25849 7.03348 4.00000
24.34826 7.03348 4.00000
24.43803 7.03348 4.00000
24.52781 7.03348 4.00000
24.61759 7.03348 4.00000
24.70738 7.03348 4.00000
24.79717 7.03348 4.00000
24.88697 7.03348 4.00000
24.97677 7.03348 4.00000
25.06657 7.03348 4.00000
25.15638 7.03348 4.00000
25.24620 7.03348 4.00000
25.33603 7.03347 4.00000
25.42585 7.03348 4.00000
25.51569 7.03348 4.00000
25.60552 7.03348 4.00000
25.69535 7.03348 4.00000
25.78520 7.03348 4.00000
25.87504 7.03348 4.00000
25.96486 7.03350 4.00000
26.05474 7.03348 4.00000
26.14460 7.03348 4.00000
26.23446 7.03348 4.00000
26.32433 7.03348 4.00000
26.41419 7.03348 4.00000
26.50407 7.03348 4.00000
26.59395 7.03348 4.00000
26.68383 7.03348 4.00000
26.77372 7.03348 4.00000
26.86361 7.03348 4.00000
26.95350 7.03348 4.00000
27.04340 7.03348 4.00000
27.13331 7.03348 4.00000
27.22321 7.03348 4.00000
27.31313 7.03348 4.00000
27.40304 7.03348 4.00000
27.49297 7.03348 4.00000
27.58289 7.03348 4.00000
27.67282 7.03348 4.00000
27.76275 7.03348 4.00000
27.85269 7.03348 4.00000
27.94263 7.03348 4.00000
28.03257 7.03348 4.00000
28.12252 7.03348 4.00000
28.21247 7.03348 4.00000
28.30243 7.03348 4.00000
28.39238 7.03348 4.00000
28.48235 7.03348 4.00000
28.57231 7.03348 4.00000
28.66228 7.03348 4.00000
28.75225 7.03348 4.00000
28.84222 7.03348 4.00000
28.93220 7.03348 4.00000
29.02218 7.03348 4.00000
29.11216 7.03348 4.00000
29.20215 7.03348 4.00000
29.29214 7.03348 4.00000
29.38213 7.03348 4.00000
29.47213 7.03348 4.00000
29.56212 7.03348 4.00000
29.65212 7.03348 4.00000
29.74213 7.03348 4.00000
29.83214 7.03348 4.00000
29.92215 7.03348 4.00000
30.01216 7.03348 4.00000
30.10218 7.03348 4.00000
30.19219 7.03348 4.00000
30.28222 7.03348 4.00000
30.37224 7.03348 4.00000
30.46227 7.03348 4.00000
30.55230 7.03348 4.00000
30.64233 7.03348 4.00000
30.73237 7.03348 4.00000
30.82241 7.03348 4.00000
30.91245 7.03348 4.00000
31.00250 7.03348 4.00000
31.09254 7.03348 4.00000
31.18259 7.03348 4.00000
31.27263 7.03349 4.00000
31.36269 7.03348 4.00000
31.45273 7.03349 4.00000
31.54280 7.03348 4.00000
31.63285 7.03348 4.00000
31.72291 7.03348 4.00000
31.81298 7.03348 4.00000
31.90304 7.03348 4.00000
31.99310 7.03349 4.00000
32.08317 7.03349 4.00000

Angle 0.525337 2.166952

4.00000 7.03349 4.00000
4.00000 7.03348 4.00000
4.00000 7.03348 4.00000
4.00000 7.03348 4.00000
4.00000 7.03347 4.00000
4.00000 7.03348 4.00000
4.00000 7.03348 4.00000
4.00000 7.03348 4.00000
4.00000 7.03348 4.00000
4.00000 7.03347 4.00000
4.00000 7.03348 4.00000
4.00000 7.03348 4.00000
4.00000 7.03348 4.00000
4.00000 7.03348 4.00000
4.00000 7.03348 4.00000
4.00000 7.03348 4.00000
4.00000 7.03348 4.00000
4.00000 7.03348 4.00000
4.00000 7.03349 4.00000
4.00000 7.03348 4.00000
4.00000 7.03348 4.00000
4.00000 7.03348 4.00000
4.00000 7.03348 4.00000
4.00000 7.03347 4.00000
4.00000 7.03348 4.00000
4.00000 7.03348 4.00000
4.00000 7.03348 4.00000
4.00000 7.03348 4.00000
4.00000 7.03347 4.00000
4.00000 7.03349 4.00000
4.00000 7.03348 4.00000
4.00000 7.03348 4.00000
4.00000 7.03348 4.00000
4.00000 7.03344 4.00000
4.00000 7.03345 4.00000
4.00000 7.03348 4.00000
4.00000 7.03348 4.00000
4.00000 7.03348 4.00000
4.00000 7.03348 4.00000
4.00000 7.03347 4.00000
4.00000 7.03348 4.00000
4.00000 7.03347 4.00000
4.00000 7.03346 4.00000
4.00000 7.03343 4.00000
4.00000 7.03348 4.00000
4.00000 7.03348 4.00000
4.00000 7.03348 4.00000
4.00000 7.03347 4.00000
4.00000 7.03348 4.00000
4.00000 7.03348 4.00000
4.00000 7.03348 4.00000
4.00000 7.03348 4.00000
4.00000 7.03346 4.00000
4.00000 7.03347 4.00000
4.00000 7.03345 4.00000
4.00000 7.03356 3.99999
4.00000 7.03348 4.00000
4.00000 7.03348 4.00000
4.00000 7.03352 4.00000
4.00000 7.03348 4.00000
4.00000 7.03348 4.00000
4.00000 7.03348 4.00000
4.00000 7.03348 4.00000
4.00000 7.03347 4.00000
4.00000 7.03347 4.00000
4.00000 7.03347 4.00000
4.00000 7.03348 4.00000
4.00000 7.03348 4.00000
4.00000 7.03348 4.00000
4.00000 7.03348 4.00000
4.00000 7.03348 4.00000
4.00000 7.03348 4.00000
4.00000 7.03348 4.00000
4.00000 7.03348 4.00000
4.00000 7.03348 4.00000
4.00000 7.03348 4.00000
4.00000 7.03348 4.00000
4.00000 7.03348 4.00000
4.00000 7.03348 4.00000
4.00000 7.03348 4.00000
4.00000 7.03348 4.00000
4.00000 7.03348 4.00000
4.00000 7.03348 4.00000
4.00000 7.03348 4.00000
4.00000 7.03348 4.00000
4.00000 7.03348 4.00000
4.00000 7.03348 4.00000
4.00000 7.03348 4.00000
4.00000 7.03348 4.00000
4.00000 7.03348 4.00000
4.00000 7.03347 4.00000
4.00000 7.03348 4.00000
4.00000 7.03348 4.00000
4.00000 7.03348 4.00000
4.00000 7.03348 4.00000
4.00000 7.03348 4.00000
4.00000 7.03348 4.00000
4.00000 7.03348 4.00000
4.00000 7.03348 4.00000
4.00000 7.03348 4.00000
4.00000 7.03348 4.00000
4.00000 7.03348 4.00000
4.00000 7.03348 4.00000
4.00000 7.03348 4.00000
4.00000 7.03348 4.00000
4.00000 7.03348 4.00000
4.00000 7.03348 4.00000
4.00000 7.03348 4.00000
4.00000 7.03348 4.00000
4.00000 7.03348 4.00000
4.00000 7.03348 4.00000
4.00000 7.03347 4.00000
4.00000 7.03348 4.00000
4.00000 7.03347 4.00000
4.00000 7.03346 4.00000
4.00000 7.03346 4.00000
4.00000 7.03346 4.00000
4.00000 7.03346 4.00000
4.00000 7.03348 4.00000
4.00000 7.03346 4.00000
4.00000 7.03346 4.00000
4.00000 7.03347 4.00000
4.00000 7.03348 4.00000
4.00000 7.03348 4.00000
4.00000 7.03348 4.00000
4.00000 7.03348 4.00000
4.00000 7.03348 4.00000
4.00000 7.03348 4.00000
4.00000 7.03348 4.00000
4.00000 7.03348 4.00000
4.00000 7.03348 4.00000
4.00000 7.03348 4.00000
4.00000 7.03348 4.00000
4.00000 7.03348 4.00000
4.00000 7.03347 4.00000
4.00000 7.03347 4.00000
4.00000 7.03348 4.00000
4.00000 7.03348 4.00000
4.00000 7.03348 4.00000
4.00000 7.03348 4.00000
4.00000 7.03348 4.00000
4.00000 7.03348 4.00000
4.00000 7.03348 4.00000
4.00000 7.03348 4.00000
4.00000 7.03348 4.00000
4.00000 7.03348 4.00000
4.00000 7.03348 4.00000
4.00000 7.03348 4.00000
4.00000 7.03348 4.00000
4.00000 7.03348 4.00000
4.00000 7.03348 4.00000
4.00000 7.03348 4.00000
4.00000 7.03348 4.00000
4.00000 7.03348 4.00000
4.00000 7.03348 4.00000
4.00000 7.03348 4.00000
4.00000 7.03348 4.00000
4.00000 7.03348 4.00000
4.00000 7.03348 4.00000
4.00000 7.03348 4.00000
4.00000 7.03348 4.00000
4.00000 7.03348 4.00000
4.00000 7.03347 4.00000
4.00000 7.03346 4.00000
4.00000 7.03348 4.00000
4.00000 7.03348 4.00000
4.00000 7.03348 4.00000
4.00000 7.03348 4.00000
4.00000 7.03348 4.00000
4.00000 7.03348 4.00000
4.00000 7.03348 4.00000
4.00000 7.03348 4.00000
4.00000 7.03348 4.00000
4.00000 7.03348 4.00000
4.00000 7.03348 4.00000
4.00000 7.03348 4.00000
4.00000 7.03348 4.00000
4.00000 7.03349 4.00000
4.00000 7.03348 4.00000
4.00000 7.03347 4.00000
4.00000 7.03349 4.00000
4.00000 7.03348 4.00000
4.00000 7.03348 4.00000
4.00000 7.03348 4.00000
4.00000 7.03348 4.00000
4.00000 7.03348 4.00000
4.00000 7.03348 4.00000
4.00000 7.03348 4.00000
4.00000 7.03348 4.00000
4.00000 7.03347 4.00000
4.00000 7.03346 4.00000
4.00270 7.08101 4.00269
4.00701 7.15848 4.00701
4.01126 7.23619 4.01126
4.01546 7.31408 4.01546
4.01963 7.39211 4.01963
4.02379 7.47024 4.02379
4.02794 7.54840 4.02794
4.03212 7.62656 4.03212
4.03634 7.70465 4.03634
4.04061 7.78263 4.04061
4.04497 7.86043 4.04497
4.04943 7.93798 4.04943
4.05402 8.01522 4.05402
4.05877 8.09205 4.05877
4.06372 8.16840 4.06372
4.06891 8.24414 4.06891
4.07439 8.31915 4.07439
4.08021 8.39328 4.08021
4.08645 8.46635 4.08645
4.09318 8.53816 4.09318
4.10051 8.60846 4.10051
4.10854 8.67695 4.10854
4.11727 8.74371 4.11727
4.12668 8.80879 4.12668
4.13680 8.87213 4.13680
4.14767 8.93367 4.14767
4.15931 8.99336 4.15931
4.17176 9.05115 4.17176
4.18503 9.10704 4.18503
4.19913 9.16100 4.19913
4.21408 9.21306 4.21408
4.22987 9.26326 4.22987
4.24649 9.31161 4.24649
4.26394 9.35819 4.26394
4.28220 9.40307 4.28219
4.30123 9.44630 4.30123
4.32102 9.48798 4.32102
4.34154 9.52817 4.34154
4.36278 9.56696 4.36278
4.38469 9.60442 4.38469
4.40726 9.64059 4.40726
4.43047 9.67553 4.43047
4.45432 9.70925 4.45432
4.47882 9.74172 4.47882
4.50399 9.77287 4.50402
4.52995 9.80251 4.52995
4.55681 9.83032 4.55680
4.58485 9.85563 4.58485
4.61461 9.87725 4.61462
4.64712 9.89289 4.64712
7.75686 7.40532 4.02033
7.89731 7.35241 4.01751
8.02684 7.31035 4.01526
8.14871 7.27590 4.01341
8.26493 7.24710 4.01185
8.37678 7.22266 4.01052
8.48518 7.20168 4.00938
8.59078 7.18351 4.00838
8.69408 7.16767 4.00751
8.79546 7.15376 4.00675
8.89522 7.14150 4.00607
8.99360 7.13065 4.00547
9.09080 7.12101 4.00493
9.18697 7.11242 4.00445
9.28226 7.10476 4.00403
9.37678 7.09789 4.00364
9.47063 7.09173 4.00330
9.56388 7.08620 4.00299
9.65661 7.08122 4.00271
9.74888 7.07674 4.00245
9.84075 7.07270 4.00223
9.93225 7.06905 4.00202
10.02344 7.06575 4.00183
10.11435 7.06277 4.00166
10.20501 7.06007 4.00151
10.29545 7.05763 4.00137
10.38569 7.05541 4.00125
10.47576 7.05341 4.00113
10.56568 7.05159 4.00103
10.65545 7.04993 4.00094
10.74511 7.04844 4.00085
10.83466 7.04708 4.00078
10.92412 7.04584 4.00071
11.01350 7.04472 4.00064
11.10281 7.04370 4.00058
11.19205 7.04278 4.00053
11.28124 7.04193 4.00048
11.37038 7.04117 4.00043
11.45948 7.04047 4.00040
11.54855 7.03984 4.00036
11.63758 7.03927 4.00033
11.72660 7.03875 4.00030
11.81559 7.03827 4.00027
11.90457 7.03784 4.00025
11.99354 7.03744 4.00023
12.08249 7.03709 4.00021
12.17146 7.03675 4.00019
12.26039 7.03646 4.00017
12.34933 7.03619 4.00015
12.43828 7.03595 4.00014
12.52722 7.03573 4.00013
12.61617 7.03552 4.00012
12.70513 7.03534 4.00011
12.79409 7.03517 4.00010
12.88307 7.03501 4.00009
12.97203 7.03488 4.00008
13.06102 7.03475 4.00007
13.15002 7.03464 4.00007
13.23901 7.03454 4.00006
13.32804 7.03444 4.00005
13.41707 7.03435 4.00005
13.50611 7.03427 4.00005
13.59517 7.03420 4.00004
13.68422 7.03413 4.00004
13.77330 7.03408 4.00003
13.86240 7.03402 4.00003
13.95151 7.03397 4.00003
14.04063 7.03393 4.00003
14.12976 7.03389 4.00002
14.21891 7.03385 4.00002
14.30807 7.03382 4.00002
14.39724 7.03379 4.00002
14.48643 7.03376 4.00002
14.57564 7.03373 4.00001
14.66485 7.03371 4.00001
14.75408 7.03369 4.00001
14.84333 7.03367 4.00001
14.93259 7.03365 4.00001
15.02186 7.03364 4.00001
15.11114 7.03362 4.00001
15.20044 7.03361 4.00001
15.28976 7.03360 4.00001
15.37908 7.03359 4.00001
15.46842 7.03358 4.00000
15.55776 7.03357 4.00000
15.64710 7.03357 4.00001
15.73649 7.03355 4.00000
15.82588 7.03354 4.00000
15.91527 7.03354 4.00000
16.00468 7.03353 4.00000
16.09410 7.03353 4.00000
16.18354 7.03352 4.00000
16.27299 7.03352 4.00000
16.36245 7.03352 4.00000
16.45192 7.03351 4.00000
16.54140 7.03351 4.00000
16.63090 7.03351 4.00000
16.72040 7.03351 4.00000
16.80991 7.03350 4.00000
16.89944 7.03350 4.00000
16.98897 7.03350 4.00000
17.07852 7.03350 4.00000
17.16808 7.03350 4.00000
17.25764 7.03349 4.00000
17.34722 7.03349 4.00000
17.43681 7.03349 4.00000
17.52640 7.03349 4.00000
17.61601 7.03349 4.00000
17.70562 7.03349 4.00000
17.79524 7.03349 4.00000
17.88487 7.03349 4.00000
17.97451 7.03349 4.00000
18.06416 7.03349 4.00000
18.15382 7.03349 4.00000
18.24349 7.03348 4.00000
18.33316 7.03348 4.00000
18.42284 7.03348 4.00000
18.51253 7.03348 4.00000
18.60223 7.03348 4.00000
18.69194 7.03348 4.00000
18.78165 7.03348 4.00000
18.87137 7.03348 4.00000
18.96110 7.03348 4.00000
19.05084 7.03348 4.00000
19.14059 7.03348 4.00000
19.23034 7.03347 4.00000
19.32010 7.03348 4.00000
19.40987 7.03348 4.00000
19.49964 7.03349 4.00000
19.58943 7.03348 4.00000
19.67922 7.03348 4.00000
19.76902 7.03348 4.00000
19.85884 7.03347 4.00000
19.94864 7.03348 4.00000
20.03846 7.03348 4.00000
20.12829 7.03348 4.00000
20.21812 7.03348 4.00000
20.30796 7.03348 4.00000
20.39781 7.03348 4.00000
20.48766 7.03348 4.00000
20.57751 7.03348 4.00000
20.66737 7.03348 4.00000
20.75724 7.03348 4.00000
20.84711 7.03348 4.00000
20.93699 7.03348 4.00000
21.02686 7.03348 4.00000
21.11675 7.03348 4.00000
21.20663 7.03348 4.00000
21.29653 7.03348 4.00000
21.38643 7.03348 4.00000
21.47634 7.03348 4.00000
21.56624 7.03348 4.00000
21.65615 7.03348 4.00000
21.74606 7.03348 4.00000
21.83598 7.03348 4.00000
21.92591 7.03348 4.00000
22.01583 7.03348 4.00000
22.10577 7.03348 4.00000
22.19571 7.03348 4.00000

Angle 0.610119 3.965566

4.00000 7.03348 4.00000
4.00000 7.03348 4.00000
4.00000 7.03348 4.00000
4.00000 7.03348 4.00000
4.00000 7.03348 4.00000
4.00000 7.03348 4.00000
4.00000 7.03348 4.00000
4.00000 7.03348 4.00000
4.00000 7.03348 4.00000
4.00000 7.03348 4.00000
4.00000 7.03348 4.00000
4.00000 7.03348 4.00000
4.00000 7.03348 4.00000
4.00000 7.03348 4.00000
4.00000 7.03347 4.00000
4.00000 7.03348 4.00000
4.00000 7.03348 4.00000
4.00000 7.03348 4.00000
4.00000 7.03348 4.00000
4.00000 7.03348 4.00000
4.00000 7.03348 4.00000
4.00000 7.03348 4.00000
4.00000 7.03348 4.00000
4.00000 7.03348 4.00000
4.00000 7.03348 4.00000
4.00000 7.03347 4.00000
4.00000 7.03348 4.00000
4.00000 7.03347 4.00000
4.00000 7.03347 4.00000
4.00000 7.03348 4.00000
4.00000 7.03348 4.00000
4.00000 7.03348 4.00000
4.00000 7.03348 4.00000
4.00000 7.03348 4.00000
4.00000 7.03348 4.00000
4.00000 7.03348 4.00000
4.00000 7.03348 4.00000
4.00000 7.03348 4.00000
4.00000 7.03347 4.00000
4.00000 7.03349 4.00000
4.00000 7.03349 4.00000
4.00000 7.03348 4.00000
4.00000 7.03348 4.00000
4.00000 7.03349 4.00000
4.00000 7.03348 4.00000
4.00000 7.03348 4.00000
4.00000 7.03348 4.00000
4.00000 7.03348 4.00000
4.00000 7.03350 4.00000
4.00000 7.03350 4.00000
4.00000 7.03349 4.00000
4.00000 7.03349 4.00000
4.00000 7.03348 4.00000
4.00000 7.03347 4.00000
4.00000 7.03348 4.00000
4.00000 7.03348 4.00000
4.00000 7.03348 4.00000
4.00000 7.03348 4.00000
4.00000 7.03348 4.00000
4.00000 7.03346 4.00000
4.00000 7.03347 4.00000
4.00000 7.03348 4.00000
4.00000 7.03348 4.00000
4.00000 7.03348 4.00000
4.00000 7.03347 4.00000
4.00000 7.03347 4.00000
4.00000 7.03346 4.00000
4.00000 7.03347 4.00000
4.00000 7.03348 4.00000
4.00000 7.03348 4.00000
4.00000 7.03348 4.00000
4.00000 7.03348 4.00000
4.00000 7.03348 4.00000
4.00000 7.03348 4.00000
4.00000 7.03348 4.00000
4.00000 7.03348 4.00000
4.00000 7.03346 4.00000
4.00000 7.03348 4.00000
4.00000 7.03348 4.00000
4.00000 7.03348 4.00000
4.00000 7.03348 4.00000
4.00000 7.03348 4.00000
4.00000 7.03348 4.00000
4.00000 7.03348 4.00000
4.00000 7.03348 4.00000
4.00000 7.03348 4.00000
4.00000 7.03348 4.00000
4.00000 7.03348 4.00000
4.00000 7.03348 4.00000
4.00000 7.03348 4.00000
4.00000 7.03348 4.00000
4.00000 7.03348 4.00000
4.00000 7.03348 4.00000
4.00000 7.03348 4.00000
4.00000 7.03348 4.00000
4.00000 7.03348 4.00000
4.00000 7.03348 4.00000
4.00000 7.03348 4.00000
4.00000 7.03348 4.00000
4.00000 7.03348 4.00000
4.00000 7.03348 4.00000
4.00000 7.03348 4.00000
4.00000 7.03348 4.00000
4.00000 7.03348 4.00000
4.00000 7.03348 4.00000
4.00000 7.03348 4.00000
4.00000 7.03348 4.00000
4.00000 7.03348 4.00000
4.00000 7.03347 4.00000
4.00000 7.03348 4.00000
4.00000 7.03348 4.00000
4.00000 7.03348 4.00000
4.00000 7.03348 4.00000
4.00000 7.03348 4.00000
4.00000 7.03348 4.00000
4.00000 7.03348 4.00000
4.00000 7.03348 4.00000
4.00000 7.03348 4.00000
4.00000 7.03348 4.00000
4.00000 7.03348 4.00000
4.00000 7.03348 4.00000
4.00000 7.03347 4.00000
4.00000 7.03348 4.00000
4.00000 7.03348 4.00000
4.00000 7.03348 4.00000
4.00000 7.03348 4.00000
4.00000 7.03348 4.00000
4.00000 7.03348 4.00000
4.00000 7.03348 4.00000
4.00000 7.03348 4.00000
4.00000 7.03348 4.00000
4.00000 7.03348 4.00000
4.00000 7.03347 4.00000
4.00000 7.03348 4.00000
4.00000 7.03347 4.00000
4.00000 7.03348 4.00000
4.00000 7.03348 4.00000
4.00000 7.03348 4.00000
4.00000 7.03348 4.00000
4.00000 7.03348 4.00000
4.00000 7.03348 4.00000
4.00000 7.03348 4.00000
4.00000 7.03348 4.00000
4.00000 7.03348 4.00000
4.00000 7.03348 4.00000
4.00000 7.03348 4.00000
4.00000 7.03348 4.00000
4.00000 7.03348 4.00000
4.00000 7.03349 4.00000
4.00000 7.03348 4.00000
4.00000 7.03348 4.00000
4.00000 7.03347 4.00000
4.00000 7.03348 4.00000
4.00000 7.03348 4.00000
4.00059 7.04381 4.00059
4.00492 7.12080 4.00492
4.00918 7.19806 4.00918
4.01339 7.27554 4.01339
4.01755 7.35318 4.01755
4.02170 7.43094 4.02170
4.02584 7.50877 4.02584
4.02998 7.58662 4.02998
4.03416 7.66444 4.03416
4.03839 7.74218 4.03839
4.04268 7.81978 4.04268
4.04706 7.89717 4.04706
4.05156 7.97430 4.05157
4.05621 8.05107 4.05621
4.06103 8.12740 4.06103
4.06607 8.20320 4.06607
4.07137 8.27836 4.07137
4.07697 8.35272 4.07697
4.08295 8.42614 4.08295
4.08937 8.49843 4.08937
4.09633 8.56936 4.09633
4.10393 8.63867 4.10393
4.11225 8.70614 4.11225
4.12124 8.77195 4.12124
4.13092 8.83609 4.13091
4.14132 8.89847 4.14132
4.15247 8.95903 4.15247
4.16441 9.01774 4.16441
4.17716 9.07457 4.17716
4.19073 9.12949 4.19073
4.20514 9.18251 4.20514
4.22038 9.23365 4.22038
4.23646 9.28294 4.23646
4.25337 9.33044 4.25337
4.27109 9.37620 4.27109
4.28960 9.42028 4.28960
4.30888 9.46278 4.30887
4.32890 9.50375 4.32890
4.34965 9.54328 4.34964
4.37108 9.58145 4.37108
4.39318 9.61830 4.39318
4.41594 9.65391 4.41594
4.43933 9.68830 4.43933
4.46335 9.72147 4.46335
4.48804 9.75338 4.48804
4.51341 9.78392 4.51343
4.53960 9.81288 4.53961
4.56678 9.83980 4.56678
4.59530 9.86391 4.59530
4.62582 9.88369 4.62581
4.65960 9.89628 4.65960
7.80776 7.38520 4.01926
7.94356 7.33670 4.01667
8.06984 7.29767 4.01458
8.18929 7.26542 4.01284
8.30361 7.23831 4.01137
8.41395 7.21518 4.01012
8.52107 7.19528 4.00903
8.62561 7.17798 4.00808
8.72800 7.16285 4.00725
8.82860 7.14954 4.00651
8.92766 7.13779 4.00586
9.02542 7.12738 4.00529
9.12206 7.11812 4.00477
9.21773 7.10986 4.00431
9.31256 7.10248 4.00390
9.40665 7.09586 4.00353
9.50010 7.08992 4.00319
9.59299 7.08458 4.00289
9.68538 7.07978 4.00262
9.77733 7.07545 4.00238
9.86890 7.07153 4.00216
9.96012 7.06801 4.00196
10.05104 7.06482 4.00178
10.14169 7.06193 4.00162
10.23211 7.05931 4.00147
10.32232 7.05694 4.00133
10.41233 7.05480 4.00121
10.50218 7.05285 4.00110
10.59188 7.05109 4.00100
10.68146 7.04949 4.00091
10.77092 7.04803 4.00083
10.86028 7.04671 4.00075
10.94955 7.04551 4.00069
11.03874 7.04442 4.00062
11.12787 7.04343 4.00057
11.21694 7.04253 4.00052
11.30596 7.04171 4.00047
11.39494 7.04097 4.00043
11.48387 7.04030 4.00039
11.57278 7.03968 4.00035
11.66166 7.03912 4.00032
11.75052 7.03861 4.00029
11.83936 7.03815 4.00026
11.92818 7.03773 4.00024
12.01700 7.03734 4.00022
12.10581 7.03700 4.00020
12.19461 7.03668 4.00018
12.28342 7.03639 4.00017
12.37222 7.03613 4.00015
12.46102 7.03589 4.00014
12.54984 7.03567 4.00013
12.63865 7.03547 4.00011
12.72747 7.03529 4.00010
12.81630 7.03513 4.00009
12.90513 7.03498 4.00009
12.99397 7.03485 4.00008
13.08283 7.03472 4.00007
13.17169 7.03461 4.00006
13.26057 7.03451 4.00006
13.34946 7.03441 4.00005
13.43837 7.03433 4.00005
13.52728 7.03425 4.00004
13.61621 7.03418 4.00004
13.70516 7.03412 4.00004
13.79413 7.03405 4.00003
13.88310 7.03400 4.00003
13.97209 7.03395 4.00003
14.06109 7.03391 4.00002
14.15011 7.03387 4.00002
14.23914 7.03384 4.00002
14.32819 7.03380 4.00002
14.41725 7.03377 4.00002
14.50632 7.03375 4.00002
14.59542 7.03372 4.00001
14.68452 7.03370 4.00001
14.77363 7.03368 4.00001
14.86278 7.03366 4.00001
14.95192 7.03364 4.00001
15.04107 7.03364 4.00001
15.13027 7.03361 4.00001
15.21945 7.03361 4.00001
15.30865 7.03360 4.00001
15.39787 7.03359 4.00001
15.48710 7.03358 4.00001
15.57635 7.03356 4.00000
15.66561 7.03356 4.00000
15.75488 7.03355 4.00000
15.84417 7.03354 4.00000
15.93347 7.03354 4.00000
16.02278 7.03353 4.00000
16.11210 7.03353 4.00000
16.20143 7.03352 4.00000
16.29078 7.03352 4.00000
16.38015 7.03352 4.00000
16.46952 7.03351 4.00000
16.55891 7.03351 4.00000
16.64831 7.03351 4.00000
16.73772 7.03350 4.00000
16.82714 7.03350 4.00000
16.91656 7.03350 4.00000
17.00600 7.03350 4.00000
17.09544 7.03350 4.00000
17.18490 7.03350 4.00000
17.27438 7.03349 4.00000
17.36385 7.03349 4.00000
17.45335 7.03349 4.00000
17.54286 7.03349 4.00000
17.63238 7.03349 4.00000
17.72191 7.03349 4.00000
17.81145 7.03349 4.00000
17.90099 7.03349 4.00000
17.99055 7.03349 4.00000
18.08012 7.03349 4.00000
18.16969 7.03348 4.00000
18.25927 7.03348 4.00000
18.34887 7.03348 4.00000
18.43847 7.03348 4.00000
18.52808 7.03348 4.00000
18.61770 7.03348 4.00000
18.70732 7.03348 4.00000
18.79696 7.03348 4.00000
18.88660 7.03348 4.00000
18.97625 7.03348 4.00000
19.06591 7.03348 4.00000
19.15558 7.03348 4.00000
19.24525 7.03348 4.00000
19.33493 7.03348 4.00000
19.42462 7.03348 4.00000
19.51432 7.03348 4.00000
19.60402 7.03348 4.00000
19.69373 7.03348 4.00000
19.78345 7.03348 4.00000
19.87317 7.03348 4.00000
19.96290 7.03348 4.00000
20.05264 7.03348 4.00000
20.14238 7.03347 4.00000
20.23213 7.03348 4.00000
20.32189 7.03348 4.00000
20.41168 7.03347 4.00000
20.50145 7.03348 4.00000
20.59124 7.03348 4.00000
20.68100 7.03350 4.00000
20.77081 7.03348 4.00000
20.86060 7.03348 4.00000
20.95041 7.03348 4.00000
21.04024 7.03347 4.00000
21.13006 7.03348 4.00000
21.21988 7.03348 4.00000
21.30972 7.03348 4.00000
21.39956 7.03348 4.00000
21.48941 7.03348 4.00000
21.57926 7.03348 4.00000
21.66911 7.03348 4.00000
21.75897 7.03348 4.00000
21.84884 7.03348 4.00000
21.93871 7.03348 4.00000
22.02858 7.03348 4.00000
22.11847 7.03348 4.00000
22.20834 7.03348 4.00000
22.29823 7.03348 4.00000
22.38811 7.03348 4.00000
22.47801 7.03348 4.00000
22.56790 7.03348 4.00000
22.65779 7.03348 4.00000
22.74769 7.03348 4.00000
22.83760 7.03348 4.00000
22.92751 7.03348 4.00000
23.01742 7.03348 4.00000
23.10734 7.03348 4.00000
23.19726 7.03348 4.00000
23.28719 7.03348 4.00000
23.37712 7.03348 4.00000
23.46706 7.03348 4.00000
23.55700 7.03348 4.00000
23.64694 7.03348 4.00000
23.73689 7.03348 4.00000
23.82684 7.03348 4.00000
23.91681 7.03348 4.00000
24.00677 7.03348 4.00000
24.09674 7.03348 4.00000
24.18671 7.03348 4.00000
24.27669 7.03348 4.00000
24.36667 7.03348 4.00000
24.45666 7.03348 4.00000
24.54665 7.03348 4.00000
24.63664 7.03348 4.00000
24.72663 7.03348 4.00000
24.81663 7.03348 4.00000
24.90663 7.03348 4.00000
24.99664 7.03348 4.00000
25.08665 7.03348 4.00000
25.17666 7.03348 4.00000
25.26667 7.03348 4.00000
25.35669 7.03348 4.00000
25.44671 7.03348 4.00000

Angle 0.172221 3.879098

4.00000 7.03348 4.00000
4.00000 7.03348 4.00000
4.00000 7.03348 4.00000
4.00000 7.03348 4.00000
4.00000 7.03348 4.00000
4.00000 7.03348 4.00000
4.00000 7.03348 4.00000
4.00000 7.03348 4.00000
4.00000 7.03348 4.00000
4.00000 7.03348 4.00000
4.00000 7.03348 4.00000
4.00000 7.03348 4.00000
4.00000 7.03348 4.00000
4.00000 7.03348 4.00000
4.00000 7.03348 4.00000
4.00000 7.03348 4.00000
4.00000 7.03348 4.00000
4.00000 7.03348 4.00000
4.00000 7.03348 4.00000
4.00000 7.03348 4.00000
4.00000 7.03348 4.00000
4.00000 7.03348 4.00000
4.00000 7.03348 4.00000
4.00000 7.03348 4.00000
4.00000 7.03348 4.00000
4.00000 7.03348 4.00000
4.00000 7.03348 4.00000
4.00000 7.03348 4.00000
4.00000 7.03348 4.00000
4.00000 7.03348 4.00000
4.00000 7.03348 4.00000
4.00000 7.03348 4.00000
4.00000 7.03348 4.00000
4.00000 7.03348 4.00000
4.00000 7.03348 4.00000
4.00000 7.03348 4.00000
4.00000 7.03348 4.00000
4.00000 7.03347 4.00000
4.00000 7.03348 4.00000
4.00000 7.03348 4.00000
4.00000 7.03348 4.00000
4.00000 7.03348 4.00000
4.00000 7.03348 4.00000
4.00000 7.03348 4.00000
4.00000 7.03348 4.00000
4.00000 7.03347 4.00000
4.00000 7.03347 4.00000
4.00000 7.03348 4.00000
4.00000 7.03348 4.00000
4.00000 7.03348 4.00000
4.00000 7.03347 4.00000
4.00000 7.03348 4.00000
4.00000 7.03348 4.00000
4.00000 7.03348 4.00000
4.00000 7.03348 4.00000
4.00000 7.03348 4.00000
4.00000 7.03348 4.00000
4.00000 7.03348 4.00000
4.00000 7.03348 4.00000
4.00000 7.03348 4.00000
4.00000 7.03348 4.00000
4.00000 7.03348 4.00000
4.00000 7.03348 4.00000
4.00000 7.03348 4.00000
4.00000 7.03348 4.00000
4.00000 7.03348 4.00000
4.00000 7.03348 4.00000
4.00000 7.03348 4.00000
4.00000 7.03348 4.00000
4.00000 7.03348 4.00000
4.00000 7.03348 4.00000
4.00000 7.03348 4.00000
4.00000 7.03348 4.00000
4.00000 7.03348 4.00000
4.00000 7.03348 4.00000
4.00000 7.03348 4.00000
4.00000 7.03348 4.00000
4.00000 7.03348 4.00000
4.00000 7.03348 4.00000
4.00000 7.03348 4.00000
4.00000 7.03348 4.00000
4.00000 7.03345 4.00001
4.00000 7.03347 4.00000
4.00000 7.03347 4.00000
4.00000 7.03348 4.00000
4.00000 7.03348 4.00000
4.00000 7.03348 4.00000
4.00000 7.03348 4.00000
4.00000 7.03348 4.00000
4.00000 7.03348 4.00000
4.00000 7.03348 4.00000
4.00000 7.03348 4.00000
4.00000 7.03348 4.00000
4.00000 7.03348 4.00000
4.00000 7.03348 4.00000
4.00000 7.03348 4.00000
4.00000 7.03348 4.00000
4.00000 7.03348 4.00000
4.00000 7.03348 4.00000
4.00000 7.03348 4.00000
4.00000 7.03349 4.00000
4.00000 7.03348 4.00000
4.00000 7.03348 4.00000
4.00000 7.03348 4.00000
4.00000 7.03348 4.00000
4.00000 7.03349 4.00000
4.00000 7.03348 4.00000
4.00000 7.03348 4.00000
4.00000 7.03347 4.00000
4.00000 7.03347 4.00000
4.00000 7.03348 4.00000
4.00000 7.03347 4.00000
4.00000 7.03348 4.00000
4.00000 7.03347 4.00000
4.00000 7.03348 4.00000
4.00000 7.03348 4.00000
4.00000 7.03348 4.00000
4.00000 7.03348 4.00000
4.00000 7.03348 4.00000
4.00000 7.03348 4.00000
4.00000 7.03348 4.00000
4.00000 7.03348 4.00000
4.00000 7.03348 4.00000
4.00000 7.03348 4.00000
4.00000 7.03348 4.00000
4.00000 7.03348 4.00000
4.00000 7.03348 4.00000
4.00000 7.03348 4.00000
4.00000 7.03348 4.00000
4.00000 7.03348 4.00000
4.00000 7.03348 4.00000
4.00000 7.03348 4.00000
4.00000 7.03348 4.00000
4.00000 7.03348 4.00000
4.00000 7.03347 4.00000
4.00000 7.03348 4.00000
4.00000 7.03348 4.00000
4.00000 7.03348 4.00000
4.00000 7.03348 4.00000
4.00000 7.03348 4.00000
4.00000 7.03348 4.00000
4.00000 7.03349 4.00000
4.00000 7.03348 4.00000
4.00000 7.03348 4.00000
4.00000 7.03348 4.00000
4.00000 7.03348 4.00000
4.00000 7.03348 4.00000
4.00000 7.03348 4.00000
4.00000 7.03348 4.00000
4.00000 7.03348 4.00000
4.00000 7.03348 4.00000
4.00000 7.03348 4.00000
4.00000 7.03348 4.00000
4.00000 7.03348 4.00000
4.00000 7.03348 4.00000
4.00000 7.03348 4.00000
4.00000 7.03348 4.00000
4.00000 7.03348 4.00000
4.00000 7.03348 4.00000
4.00000 7.03348 4.00000
4.00000 7.03349 4.00000
4.00000 7.03348 4.00000
4.00000 7.03348 4.00000
4.00000 7.03348 4.00000
4.00000 7.03348 4.00000
4.00000 7.03348 4.00000
4.00000 7.03348 4.00000
4.00000 7.03348 4.00000
4.00000 7.03348 4.00000
4.00000 7.03348 4.00000
4.00000 7.03348 4.00000
4.00000 7.03348 4.00000
4.00000 7.03348 4.00000
4.00000 7.03348 4.00000
4.00000 7.03348 4.00000
4.00000 7.03348 4.00000
4.00000 7.03349 4.00000
4.00000 7.03348 4.00000
4.00000 7.03347 4.00000
4.00000 7.03348 4.00000
4.00000 7.03348 4.00000
4.00000 7.03347 4.00000
4.00000 7.03348 4.00000
4.00000 7.03348 4.00000
4.00215 7.07131 4.00215
4.00633 7.14629 4.00633
4.01046 7.22154 4.01046
4.01454 7.29700 4.01454
4.01859 7.37264 4.01859
4.02263 7.44840 4.02263
4.02666 7.52425 4.02666
4.03071 7.60013 4.03071
4.03479 7.67600 4.03479
4.03891 7.75181 4.03891
4.04311 7.82750 4.04311
4.04740 7.90301 4.04740
4.05180 7.97828 4.05180
4.05634 8.05324 4.05634
4.06106 8.12780 4.06106
4.06598 8.20188 4.06598
4.07115 8.27535 4.07115
4.07661 8.34810 4.07661
4.08243 8.41997 4.08243
4.08867 8.49080 4.08867
4.09541 8.56037 4.09541
4.10275 8.62844 4.10275
4.11078 8.69477 4.11078
4.11947 8.75951 4.11947
4.12881 8.82266 4.12881
4.13884 8.88416 4.13884
4.14959 8.94395 4.14959
4.16109 9.00197 4.16109
4.17336 9.05820 4.17336
4.18643 9.11262 4.18643
4.20029 9.16522 4.20029
4.21497 9.21601 4.21497
4.23045 9.26502 4.23045
4.24674 9.31230 4.24674
4.26382 9.35789 4.26382
4.28167 9.40184 4.28167
4.30028 9.44424 4.30028
4.31962 9.48514 4.31963
4.33968 9.52463 4.33967
4.36041 9.56278 4.36041
4.38181 9.59964 4.38181
4.40385 9.63527 4.40385
4.42651 9.66972 4.42651
4.44979 9.70300 4.44979
4.47369 9.73510 4.47369
4.49825 9.76595 4.49825
4.52352 9.79541 4.52352
4.54963 9.82320 4.54963
4.57680 9.84881 4.57681
4.60546 9.87127 4.60546
4.63640 9.88878 4.63641
4.67110 9.89802 4.67109
4.01843 7.36963 7.84919
4.01604 7.32492 7.97986
4.01408 7.28851 8.10221
4.01245 7.25819 8.21845
4.01106 7.23252 8.33005
4.00986 7.21051 8.43801
4.00882 7.19147 8.54302
4.00791 7.17488 8.64562
4.00711 7.16032 8.74622
4.00640 7.14749 8.84512
4.00577 7.13613 8.94260
4.00521 7.12604 9.03885
4.00471 7.11704 9.13405
4.00426 7.10900 9.22833
4.00386 7.10180 9.32182
4.00350 7.09533 9.41461
4.00317 7.08952 9.50680
4.00288 7.08429 9.59845
4.00261 7.07957 9.68964
4.00237 7.07531 9.78041
4.00216 7.07146 9.87081
4.00196 7.06798 9.96090
4.00178 7.06482 10.05070
4.00162 7.06197 10.14024
4.00147 7.05938 10.22956
4.00134 7.05703 10.31870
4.00122 7.05491 10.40764
4.00111 7.05297 10.49644
4.00101 7.05121 10.58511
4.00092 7.04962 10.67365
4.00084 7.04817 10.76210
4.00076 7.04685 10.85046
4.00069 7.04565 10.93873
4.00063 7.04456 11.02693
4.00058 7.04357 11.11508
4.00052 7.04265 11.20319
4.00048 7.04185 11.29123
4.00043 7.04110 11.37925
4.00039 7.04042 11.46724
4.00036 7.03980 11.55520
4.00033 7.03923 11.64315
4.00030 7.03872 11.73109
4.00027 7.03825 11.81901
4.00025 7.03783 11.90692
4.00023 7.03744 11.99484
4.00021 7.03709 12.08275
4.00019 7.03676 12.17066
4.00017 7.03647 12.25858
4.00016 7.03620 12.34651
4.00014 7.03596 12.43444
4.00013 7.03574 12.52239
4.00012 7.03553 12.61035
4.00011 7.03535 12.69831
4.00010 7.03518 12.78629
4.00009 7.03503 12.87429
4.00008 7.03489 12.96230
4.00007 7.03477 13.05033
4.00007 7.03464 13.13838
4.00006 7.03455 13.22644
4.00006 7.03445 13.31452
4.00005 7.03437 13.40262
4.00005 7.03431 13.49071
4.00004 7.03421 13.57888
4.00004 7.03415 13.66703
4.00004 7.03409 13.75520
4.00003 7.03403 13.84341
4.00002 7.03399 13.93162
4.00003 7.03397 14.01982
4.00002 7.03390 14.10811
4.00002 7.03386 14.19639
4.00002 7.03383 14.28468
4.00002 7.03380 14.37300
4.00002 7.03377 14.46135
4.00001 7.03374 14.54969
4.00001 7.03372 14.63807
4.00001 7.03370 14.72648
4.00001 7.03368 14.81491
4.00001 7.03366 14.90336
4.00001 7.03364 14.99184
4.00001 7.03363 15.08034
4.00001 7.03361 15.16887
4.00001 7.03360 15.25741
4.00001 7.03359 15.34598
4.00001 7.03358 15.43456
4.00001 7.03357 15.52317
4.00001 7.03356 15.61179
4.00001 7.03356 15.70043
4.00001 7.03355 15.78909
4.00001 7.03354 15.87777
4.00001 7.03354 15.96646
4.00000 7.03353 16.05517
4.00000 7.03353 16.14390
4.00000 7.03352 16.23265
4.00000 7.03352 16.32141
4.00000 7.03352 16.41018
4.00000 7.03351 16.49897
4.00000 7.03351 16.58778
4.00000 7.03351 16.67660
4.00000 7.03350 16.76543
4.00000 7.03351 16.85337
4.00000 7.03350 16.94221
4.00000 7.03350 17.03106
4.00000 7.03350 17.11993
4.00000 7.03350 17.20882
4.00000 7.03349 17.29773
4.00000 7.03349 17.38666
4.00000 7.03349 17.47560
4.00000 7.03349 17.56456
4.00000 7.03349 17.65354
4.00000 7.03349 17.74253
4.00000 7.03349 17.83154
4.00000 7.03349 17.92057
4.00000 7.03349 18.00960
4.00000 7.03349 18.09866
4.00000 7.03349 18.18772
4.00000 7.03349 18.27680
4.00000 7.03348 18.36589
4.00000 7.03348 18.45500
4.00000 7.03348 18.54411
4.00000 7.03348 18.63324
4.00000 7.03348 18.72238
4.00000 7.03348 18.81153
4.00000 7.03348 18.90070
4.00000 7.03348 18.98987
4.00000 7.03348 19.07905
4.00000 7.03348 19.16825
4.00000 7.03348 19.25745
4.00000 7.03348 19.34667
4.00000 7.03348 19.43590
4.00000 7.03348 19.52513
4.00000 7.03348 19.61438
4.00000 7.03348 19.70363
4.00000 7.03348 19.79290
4.00000 7.03348 19.88217
4.00000 7.03348 19.97145
4.00000 7.03348 20.06074
4.00000 7.03348 20.15004
4.00000 7.03348 20.23935
4.00000 7.03348 20.32867
4.00000 7.03348 20.41799
4.00000 7.03348 20.50733
4.00000 7.03348 20.59667
4.00000 7.03348 20.68602
4.00000 7.03348 20.77538
4.00000 7.03348 20.86474
4.00000 7.03348 20.95411
4.00000 7.03347 21.04347
4.00000 7.03348 21.13285
4.00000 7.03347 21.22223
4.00000 7.03347 21.31160
4.00000 7.03348 21.40097
4.00000 7.03347 21.49036
4.00000 7.03347 21.57975
4.00000 7.03348 21.66914
4.00000 7.03347 21.75855
4.00000 7.03347 21.84797
4.00000 7.03347 21.93739
4.00000 7.03348 22.02680
4.00000 7.03349 22.11622
4.00000 7.03347 22.20568
4.00000 7.03347 22.29513
4.00000 7.03348 22.38458
4.00000 7.03347 22.47404
4.00000 7.03348 22.56349

Angle 0.141414 4.299356

4.00000 7.03349 4.00000
4.00000 7.03347 4.00000
4.00000 7.03351 4.00000
4.00000 7.03350 4.00000
4.00000 7.03349 4.00000
4.00000 7.03349 4.00000
4.00000 7.03348 4.00000
4.00000 7.03347 4.00000
4.00000 7.03348 4.00000
4.00000 7.03348 4.00000
4.00000 7.03348 4.00000
4.00000 7.03348 4.00000
4.00000 7.03348 4.00000
4.00000 7.03348 4.00000
4.00000 7.03348 4.00000
4.00000 7.03348 4.00000
4.00000 7.03348 4.00000
4.00000 7.03348 4.00000
4.00000 7.03348 4.00000
4.00000 7.03348 4.00000
4.00000 7.03348 4.00000
4.00000 7.03348 4.00000
4.00000 7.03348 4.00000
4.00000 7.03348 4.00000
4.00000 7.03348 4.00000
4.00000 7.03348 4.00000
4.00000 7.03348 4.00000
4.00000 7.03348 4.00000
4.00000 7.03348 4.00000
4.00000 7.03348 4.00000
4.00000 7.03348 4.00000
4.00000 7.03349 4.00000
4.00000 7.03348 4.00000
4.00000 7.03348 4.00000
4.00000 7.03348 4.00000
4.00000 7.03348 4.00000
4.00000 7.03348 4.00000
4.00000 7.03348 4.00000
4.00000 7.03347 4.00000
4.00000 7.03348 4.00000
4.00000 7.03348 4.00000
4.00000 7.03348 4.00000
4.00000 7.03348 4.00000
4.00000 7.03348 4.00000
4.00000 7.03348 4.00000
4.00000 7.03348 4.00000
4.00000 7.03348 4.00000
4.00000 7.03348 4.00000
4.00000 7.03348 4.00000
4.00000 7.03348 4.00000
4.00000 7.03348 4.00000
4.00000 7.03348 4.00000
4.00000 7.03348 4.00000
4.00000 7.03348 4.00000
4.00000 7.03348 4.00000
4.00000 7.03348 4.00000
4.00000 7.03348 4.00000
4.00000 7.03348 4.00000
4.00000 7.03348 4.00000
4.00000 7.03348 4.00000
4.00000 7.03348 4.00000
4.00000 7.03348 4.00000
4.00000 7.03348 4.00000
4.00000 7.03348 4.00000
4.00000 7.03348 4.00000
4.00000 7.03348 4.00000
4.00000 7.03348 4.00000
4.00000 7.03348 4.00000
4.00000 7.03348 4.00000
4.00000 7.03348 4.00000
4.00000 7.03348 4.00000
4.00000 7.03347 4.00000
4.00000 7.03347 4.00000
4.00000 7.03347 4.00000
4.00000 7.03348 4.00000
4.00000 7.03348 4.00000
4.00000 7.03348 4.00000
4.00000 7.03348 4.00000
4.00000 7.03348 4.00000
4.00000 7.03348 4.00000
4.00000 7.03348 4.00000
4.00000 7.03348 4.00000
4.00000 7.03348 4.00000
4.00000 7.03348 4.00000
4.00000 7.03348 4.00000
4.00000 7.03348 4.00000
4.00000 7.03348 4.00000
4.00000 7.03348 4.00000
4.00000 7.03348 4.00000
4.00000 7.03348 4.00000
4.00000 7.03348 4.00000
4.00000 7.03348 4.00000
4.00000 7.03348 4.00000
4.00000 7.03348 4.00000
4.00000 7.03348 4.00000
4.00000 7.03348 4.00000
4.00000 7.03347 4.00000
4.00000 7.03347 4.00000
4.00000 7.03347 4.00000
4.00000 7.03346 4.00000
4.00000 7.03346 4.00000
4.00000 7.03348 4.00000
4.00000 7.03348 4.00000
4.00000 7.03348 4.00000
4.00000 7.03348 4.00000
4.00000 7.03348 4.00000
4.00000 7.03348 4.00000
4.00000 7.03348 4.00000
4.00000 7.03348 4.00000
4.00000 7.03348 4.00000
4.00000 7.03348 4.00000
4.00000 7.03348 4.00000
4.00000 7.03349 4.00000
4.00000 7.03348 4.00000
4.00000 7.03348 4.00000
4.00000 7.03348 4.00000
4.00000 7.03348 4.00000
4.00000 7.03348 4.00000
4.00000 7.03348 4.00000
4.00000 7.03348 4.00000
4.00000 7.03347 4.00000
4.00000 7.03348 4.00000
4.00000 7.03348 4.00000
4.00000 7.03348 4.00000
4.00000 7.03348 4.00000
4.00000 7.03348 4.00000
4.00000 7.03348 4.00000
4.00000 7.03348 4.00000
4.00000 7.03348 4.00000
4.00000 7.03348 4.00000
4.00000 7.03348 4.00000
4.00000 7.03348 4.00000
4.00000 7.03349 4.00000
4.00000 7.03348 4.00000
4.00000 7.03347 4.00000
4.00000 7.03348 4.00000
4.00000 7.03348 4.00000
4.00000 7.03348 4.00000
4.00000 7.03348 4.00000
4.00000 7.03348 4.00000
4.00000 7.03348 4.00000
4.00000 7.03348 4.00000
4.00000 7.03348 4.00000
4.00000 7.03348 4.00000
4.00000 7.03348 4.00000
4.00000 7.03348 4.00000
4.00000 7.03348 4.00000
4.00000 7.03348 4.00000
4.00000 7.03348 4.00000
4.00000 7.03348 4.00000
4.00000 7.03349 4.00000
4.00000 7.03348 4.00000
4.00000 7.03348 4.00000
4.00000 7.03348 4.00000
4.00000 7.03348 4.00000
4.00000 7.03348 4.00000
4.00000 7.03348 4.00000
4.00000 7.03348 4.00000
4.00000 7.03344 4.00000
4.00000 7.03348 4.00000
4.00000 7.03348 4.00000
4.00000 7.03348 4.00000
4.00000 7.03348 4.00000
4.00000 7.03348 4.00000
4.00000 7.03343 4.00000
4.00000 7.03348 4.00000
4.00000 7.03345 4.00000
4.00000 7.03348 4.00000
4.00286 7.08397 4.00286
4.00673 7.15342 4.00673
4.01055 7.22316 4.01055
4.01434 7.29315 4.01434
4.01810 7.36337 4.01810
4.02185 7.43377 4.02185
4.02560 7.50433 4.02560
4.02936 7.57499 4.02936
4.03315 7.64572 4.03315
4.03698 7.71649 4.03698
4.04087 7.78723 4.04087
4.04483 7.85791 4.04483
4.04887 7.92848 4.04887
4.05303 7.99887 4.05303
4.05732 8.06903 4.05733
4.06178 8.13888 4.06178
4.06642 8.20835 4.06642
4.07129 8.27733 4.07129
4.07643 8.34572 4.07643
4.08188 8.41340 4.08188
4.08770 8.48022 4.08770
4.09396 8.54600 4.09396
4.10074 8.61054 4.10074
4.10812 8.67361 4.10812
4.11612 8.73525 4.11612
4.12469 8.79554 4.12468
4.13386 8.85441 4.13386
4.14368 8.91181 4.14368
4.15416 8.96770 4.15416
4.16533 9.02203 4.16533
4.17721 9.07477 4.17721
4.18981 9.12591 4.18981
4.20314 9.17545 4.20314
4.21721 9.22339 4.21721
4.23202 9.26976 4.23202
4.24756 9.31459 4.24756
4.26383 9.35791 4.26383
4.28081 9.39979 4.28081
4.29848 9.44027 4.29848
4.31683 9.47942 4.31683
4.33584 9.51728 4.33584
4.35548 9.55394 4.35548
4.37574 9.58942 4.37574
4.39660 9.62380 4.39660
4.41805 9.65710 4.41804
4.44006 9.68935 4.44006
4.46266 9.72054 4.46266
4.48585 9.75064 4.48585
4.50967 9.77956 4.50967
4.53420 9.80713 4.53421
4.55959 9.83301 4.55958
4.58607 9.85663 4.58607
4.61412 9.87695 4.61412
4.64458 9.89202 4.64459
4.67898 9.89845 4.67899
7.87187 7.36141 4.01799
7.99600 7.31983 4.01577
8.11283 7.28558 4.01392
8.22423 7.25677 4.01237
8.33143 7.23221 4.01104
8.43530 7.21103 4.00989
8.53648 7.19259 4.00888
8.63543 7.17644 4.00800
8.73253 7.16221 4.00721
8.82806 7.14961 4.00652
8.92228 7.13839 4.00590
9.01533 7.12840 4.00534
9.10740 7.11947 4.00485
9.19862 7.11144 4.00440
9.28909 7.10424 4.00400
9.37893 7.09774 4.00363
9.46819 7.09188 4.00330
9.55696 7.08659 4.00301
9.64530 7.08181 4.00274
9.73325 7.07747 4.00249
9.82086 7.07354 4.00227
9.90818 7.06997 4.00207
9.99524 7.06674 4.00189
10.08206 7.06380 4.00172
10.16868 7.06113 4.00157
10.25515 7.05869 4.00143
10.34144 7.05648 4.00131
10.42761 7.05446 4.00119
10.51366 7.05262 4.00109
10.59961 7.05095 4.00099
10.68548 7.04942 4.00091
10.77126 7.04804 4.00083
10.85700 7.04677 4.00076
10.94269 7.04560 4.00069
11.02832 7.04455 4.00063
11.11394 7.04358 4.00058
11.19953 7.04269 4.00053
11.28509 7.04189 4.00048
11.37063 7.04117 4.00044
11.45617 7.04050 4.00040
11.54171 7.03989 4.00037
11.62724 7.03935 4.00033
11.71280 7.03882 4.00030
11.79836 7.03836 4.00028
11.88391 7.03795 4.00026
11.96951 7.03755 4.00024
12.05511 7.03720 4.00021
12.14074 7.03687 4.00019
12.22639 7.03657 4.00018
12.31207 7.03629 4.00016
12.39775 7.03605 4.00015
12.48347 7.03584 4.00013
12.56922 7.03563 4.00012
12.65500 7.03544 4.00011
12.74081 7.03527 4.00010
12.82665 7.03512 4.00009
12.91252 7.03497 4.00009
12.99842 7.03484 4.00008
13.08437 7.03472 4.00008
13.17033 7.03461 4.00006
13.25633 7.03451 4.00006
13.34238 7.03442 4.00005
13.42846 7.03434 4.00005
13.51454 7.03427 4.00004
13.60068 7.03419 4.00004
13.68685 7.03413 4.00004
13.77307 7.03407 4.00003
13.85931 7.03403 4.00003
13.94561 7.03397 4.00003
14.03193 7.03393 4.00003
14.11829 7.03389 4.00002
14.20468 7.03386 4.00002
14.29112 7.03382 4.00002
14.37757 7.03379 4.00002
14.46408 7.03376 4.00002
14.55061 7.03374 4.00001
14.63717 7.03372 4.00001
14.72377 7.03370 4.00001
14.81040 7.03368 4.00001
14.89706 7.03366 4.00001
14.98376 7.03364 4.00001
15.07049 7.03362 4.00001
15.15724 7.03361 4.00001
15.24402 7.03360 4.00001
15.33084 7.03359 4.00001
15.41769 7.03358 4.00001
15.50456 7.03358 4.00001
15.59147 7.03356 4.00000
15.67840 7.03356 4.00000
15.76536 7.03355 4.00000
15.85234 7.03355 4.00000
15.93935 7.03354 4.00000
16.02640 7.03353 4.00000
16.11346 7.03353 4.00000
16.20056 7.03353 4.00000
16.28768 7.03352 4.00000
16.37483 7.03352 4.00000
16.46200 7.03352 4.00000
16.54920 7.03351 4.00000
16.63642 7.03351 4.00000
16.72367 7.03351 4.00000
16.81093 7.03350 4.00000
16.89823 7.03350 4.00000
16.98555 7.03350 4.00000
17.07289 7.03350 4.00000
17.16025 7.03350 4.00000
17.24764 7.03349 4.00000
17.33507 7.03349 4.00000
17.42251 7.03349 4.00000
17.50998 7.03349 4.00000
17.59748 7.03349 4.00000
17.68499 7.03349 4.00000
17.77252 7.03349 4.00000
17.86008 7.03349 4.00000
17.94766 7.03349 4.00000
18.03526 7.03349 4.00000
18.12287 7.03348 4.00000
18.21049 7.03349 4.00000
18.29815 7.03348 4.00000
18.38581 7.03348 4.00000
18.47350 7.03348 4.00000
18.56120 7.03348 4.00000
18.64893 7.03348 4.00000
18.73667 7.03348 4.00000
18.82443 7.03348 4.00000
18.91221 7.03348 4.00000
19.00001 7.03348 4.00000
19.08783 7.03348 4.00000
19.17566 7.03348 4.00000
19.26352 7.03348 4.00000
19.35139 7.03348 4.00000
19.43928 7.03348 4.00000
19.52719 7.03348 4.00000
19.61512 7.03348 4.00000
19.70306 7.03348 4.00000
19.79102 7.03348 4.00000
19.87900 7.03348 4.00000
19.96699 7.03348 4.00000
20.05500 7.03348 4.00000
20.14303 7.03348 4.00000
20.23108 7.03348 4.00000
20.31914 7.03348 4.00000
20.40721 7.03348 4.00000
20.49531 7.03348 4.00000
20.58341 7.03348 4.00000
20.67155 7.03347 4.00000
20.75969 7.03348 4.00000
20.84784 7.03348 4.00000
20.93601 7.03348 4.00000
21.02420 7.03348 4.00000
21.11239 7.03349 4.00000
21.20061 7.03348 4.00000
21.28885 7.03348 4.00000
21.37710 7.03348 4.00000
21.46536 7.03348 4.00000
21.55363 7.03348 4.00000
21.64193 7.03348 4.00000
21.73023 7.03348 4.00000
21.81855 7.03348 4.00000
21.90688 7.03348 4.00000
21.99522 7.03348 4.00000
22.08358 7.03348 4.00000
22.17195 7.03348 4.00000
22.26033 7.03348 4.00000
22.34872 7.03348 4.00000
22.43713 7.03348 4.00000
22.52555 7.03348 4.00000
22.61398 7.03348 4.00000
22.70243 7.03348 4.00000
22.79089 7.03348 4.00000
22.87936 7.03348 4.00000
22.96785 7.03348 4.00000
23.05636 7.03348 4.00000
23.14487 7.03348 4.00000
23.23340 7.03348 4.00000
23.32195 7.03348 4.00000
23.41049 7.03348 4.00000

Angle 0.319732 3.992768

4.00000 7.03348 4.00000
4.00000 7.03348 4.00000
4.00000 7.03348 4.00000
4.00000 7.03348 4.00000
4.00000 7.03348 4.00000
4.00000 7.03348 4.00000
4.00000 7.03348 4.00000
4.00000 7.03348 4.00000
4.00000 7.03348 4.00000
4.00000 7.03348 4.00000
4.00000 7.03348 4.00000
4.00000 7.03348 4.00000
4.00000 7.03348 4.00000
4.00000 7.03348 4.00000
4.00000 7.03348 4.00000
4.00000 7.03348 4.00000
4.00000 7.03348 4.00000
4.00000 7.03348 4.00000
4.00000 7.03348 4.00000
4.00000 7.03348 4.00000
4.00000 7.03348 4.00000
4.00000 7.03348 4.00000
4.00000 7.03348 4.00000
4.00000 7.03348 4.00000
4.00000 7.03348 4.00000
4.00000 7.03348 4.00000
4.00000 7.03348 4.00000
4.00000 7.03348 4.00000
4.00000 7.03348 4.00000
4.00000 7.03347 4.00000
4.00000 7.03348 4.00000
4.00000 7.03348 4.00000
4.00000 7.03348 4.00000
4.00000 7.03348 4.00000
4.00000 7.03348 4.00000
4.00000 7.03348 4.00000
4.00000 7.03348 4.00000
4.00000 7.03348 4.00000
4.00000 7.03348 4.00000
4.00000 7.03348 4.00000
4.00000 7.03348 4.00000
4.00000 7.03348 4.00000
4.00000 7.03348 4.00000
4.00000 7.03348 4.00000
4.00000 7.03347 4.00000
4.00000 7.03348 4.00000
4.00000 7.03348 4.00000
4.00000 7.03348 4.00000
4.00000 7.03348 4.00000
4.00000 7.03348 4.00000
4.00000 7.03348 4.00000
4.00000 7.03348 4.00000
4.00000 7.03348 4.00000
4.00000 7.03348 4.00000
4.00000 7.03348 4.00000
4.00000 7.03348 4.00000
4.00000 7.03348 4.00000
4.00000 7.03348 4.00000
4.00000 7.03348 4.00000
4.00000 7.03348 4.00000
4.00000 7.03348 4.00000
4.00000 7.03348 4.00000
4.00000 7.03348 4.00000
4.00000 7.03348 4.00000
4.00000 7.03348 4.00000
4.00000 7.03348 4.00000
4.00000 7.03348 4.00000
4.00000 7.03348 4.00000
4.00000 7.03348 4.00000
4.00000 7.03348 4.00000
4.00000 7.03348 4.00000
4.00000 7.03348 4.00000
4.00000 7.03348 4.00000
4.00000 7.03349 4.00000
4.00000 7.03348 4.00000
4.00000 7.03348 4.00000
4.00000 7.03348 4.00000
4.00000 7.03348 4.00000
4.00000 7.03348 4.00000
4.00000 7.03348 4.00000
4.00000 7.03348 4.00000
4.00000 7.03348 4.00000
4.00000 7.03348 4.00000
4.00000 7.03348 4.00000
4.00000 7.03348 4.00000
4.00000 7.03348 4.00000
4.00000 7.03348 4.00000
4.00000 7.03348 4.00000
4.00000 7.03348 4.00000
4.00000 7.03348 4.00000
4.00000 7.03348 4.00000
4.00000 7.03348 4.00000
4.00000 7.03348 4.00000
4.00000 7.03348 4.00000
4.00000 7.03348 4.00000
4.00260 7.07927 4.00260
4.00584 7.13729 4.00584
4.00905 7.19568 4.00905
4.01225 7.25441 4.01225
4.01543 7.31347 4.01543
4.01860 7.37282 4.01860
4.02178 7.43245 4.02178
4.02496 7.49233 4.02496
4.02816 7.55243 4.02816
4.03138 7.61273 4.03138
4.03463 7.67320 4.03463
4.03793 7.73382 4.03793
4.04127 7.79455 4.04127
4.04468 7.85535 4.04468
4.04816 7.91620 4.04816
4.05173 7.97705 4.05173
4.05540 8.03787 4.05540
4.05919 8.09859 4.05919
4.06311 8.15918 4.06311
4.06719 8.21957 4.06719
4.07146 8.27969 4.07146
4.07594 8.33947 4.07594
4.08067 8.39882 4.08067
4.08568 8.45763 4.08568
4.09101 8.51580 4.09101
4.09673 8.57318 4.09673
4.10288 8.62962 4.10288
4.10954 8.68497 4.10954
4.11667 8.73932 4.11667
4.12426 8.79269 4.12427
4.13235 8.84504 4.13234
4.14094 8.89632 4.14094
4.15007 8.94648 4.15006
4.15975 8.99549 4.15975
4.17000 9.04331 4.17000
4.18083 9.08993 4.18083
4.19226 9.13534 4.19226
4.20429 9.17952 4.20429
4.21693 9.22247 4.21693
4.23019 9.26422 4.23019
4.24405 9.30477 4.24405
4.25852 9.34414 4.25852
4.27359 9.38237 4.27359
4.28925 9.41950 4.28925
4.30549 9.45555 4.30549
4.32230 9.49057 4.32230
4.33966 9.52459 4.33966
4.35756 9.55767 4.35756
4.37598 9.58983 4.37598
4.39492 9.62111 4.39492
4.41437 9.65152 4.41437
4.43431 9.68110 4.43431
4.45475 9.70983 4.45475
4.47570 9.73770 4.47570
4.49718 9.76466 4.49718
4.51924 9.79059 4.51924
4.54195 9.81533 4.54195
4.56545 9.83856 4.56545
4.58996 9.85977 4.58996
4.61589 9.87804 4.61589
4.64393 9.89179 4.64393
4.67529 9.89833 4.67528
7.84854 7.36987 4.01844
7.96468 7.32980 4.01630
8.07420 7.29641 4.01451
8.17872 7.26811 4.01299
8.27937 7.24377 4.01167
8.37693 7.22263 4.01052
8.47199 7.20410 4.00951
8.56496 7.18776 4.00862
8.65619 7.17328 4.00782
8.74598 7.16035 4.00711
8.83450 7.14881 4.00647
8.92196 7.13844 4.00590
9.00850 7.12911 4.00538
9.09423 7.12069 4.00491
9.17928 7.11308 4.00449
9.26372 7.10619 4.00411
9.34764 7.09993 4.00376
9.43111 7.09425 4.00344
9.51416 7.08908 4.00315
9.59688 7.08438 4.00288
9.67929 7.08008 4.00264
9.76143 7.07617 4.00242
9.84335 7.07259 4.00222
9.92506 7.06932 4.00203
10.00660 7.06634 4.00187
10.08800 7.06361 4.00171
10.16927 7.06110 4.00157
10.25044 7.05881 4.00144
10.33151 7.05671 4.00132
10.41251 7.05479 4.00121
10.49346 7.05303 4.00111
10.57437 7.05141 4.00102
10.65523 7.04993 4.00094
10.73607 7.04858 4.00086
10.81690 7.04733 4.00079
10.89772 7.04619 4.00072
10.97857 7.04513 4.00066
11.05938 7.04418 4.00061
11.14024 7.04329 4.00056
11.22109 7.04249 4.00051
11.30199 7.04175 4.00047
11.38291 7.04107 4.00043
11.46387 7.04044 4.00040
11.54486 7.03987 4.00036
11.62589 7.03935 4.00033
11.70698 7.03886 4.00030
11.78810 7.03841 4.00028
11.86927 7.03800 4.00026
11.95049 7.03763 4.00024
12.03176 7.03728 4.00022
12.11309 7.03697 4.00020
12.19448 7.03668 4.00018
12.27592 7.03641 4.00017
12.35742 7.03617 4.00016
12.43898 7.03595 4.00014
12.52060 7.03574 4.00013
12.60228 7.03555 4.00012
12.68401 7.03538 4.00011
12.76581 7.03522 4.00010
12.84767 7.03508 4.00009
12.92960 7.03494 4.00009
13.01158 7.03482 4.00008
13.09363 7.03471 4.00008
13.17568 7.03464 4.00007
13.25787 7.03451 4.00006
13.34010 7.03443 4.00006
13.42239 7.03435 4.00005
13.50475 7.03427 4.00005
13.58716 7.03421 4.00004
13.66964 7.03415 4.00004
13.75218 7.03409 4.00004
13.83478 7.03404 4.00004
13.91720 7.03399 4.00003
13.99990 7.03395 4.00003
14.08267 7.03391 4.00003
14.16550 7.03387 4.00002
14.24838 7.03384 4.00002
14.33133 7.03381 4.00002
14.41433 7.03378 4.00002
14.49727 7.03375 4.00002
14.58036 7.03373 4.00001
14.66352 7.03371 4.00001
14.74674 7.03369 4.00001
14.83002 7.03367 4.00001
14.91336 7.03366 4.00001
14.99675 7.03364 4.00001
15.08020 7.03363 4.00001
15.16370 7.03362 4.00001
15.24727 7.03360 4.00001
15.33089 7.03359 4.00001
15.41455 7.03358 4.00001
15.49828 7.03358 4.00001
15.58206 7.03357 4.00000
15.66589 7.03356 4.00000
15.74977 7.03355 4.00000
15.83367 7.03355 4.00000
15.91762 7.03354 4.00000
16.00161 7.03354 4.00000
16.08566 7.03353 4.00000
16.16975 7.03353 4.00000
16.25389 7.03352 4.00000
16.33807 7.03352 4.00000
16.42230 7.03352 4.00000
16.50658 7.03351 4.00000
16.59090 7.03351 4.00000
16.67527 7.03351 4.00000
16.75968 7.03350 4.00000
16.84414 7.03350 4.00000
16.92864 7.03350 4.00000
17.01320 7.03349 4.00000
17.09778 7.03350 4.00000
17.18242 7.03349 4.00000
17.26708 7.03349 4.00000
17.35181 7.03349 4.00000
17.43655 7.03349 4.00000
17.52136 7.03349 4.00000
17.60620 7.03349 4.00000
17.69109 7.03348 4.00000
17.77599 7.03349 4.00000
17.86096 7.03348 4.00000
17.94595 7.03348 4.00000
18.03098 7.03349 4.00000
18.11606 7.03348 4.00000
18.20117 7.03348 4.00000
18.28631 7.03348 4.00000
18.37149 7.03348 4.00000
18.45671 7.03348 4.00000
18.54197 7.03348 4.00000
18.62725 7.03348 4.00000
18.71258 7.03348 4.00000
18.79793 7.03348 4.00000
18.88332 7.03348 4.00000
18.96874 7.03348 4.00000
19.05419 7.03348 4.00000
19.13968 7.03348 4.00000
19.22521 7.03348 4.00000
19.31076 7.03348 4.00000
19.39635 7.03348 4.00000
19.48197 7.03348 4.00000
19.56762 7.03348 4.00000
19.65330 7.03348 4.00000
19.73901 7.03348 4.00000
19.82476 7.03348 4.00000
19.91053 7.03348 4.00000
19.99632 7.03348 4.00000
20.08214 7.03348 4.00000
20.16799 7.03348 4.00000
20.25386 7.03348 4.00000
20.33977 7.03348 4.00000
20.42570 7.03348 4.00000
20.51166 7.03348 4.00000
20.59765 7.03348 4.00000
20.68368 7.03347 4.00000
20.76972 7.03348 4.00000
20.85581 7.03347 4.00000
20.94190 7.03348 4.00000
21.02804 7.03347 4.00000
21.11420 7.03348 4.00000
21.20039 7.03348 4.00000
21.28661 7.03348 4.00000
21.37285 7.03348 4.00000
21.45912 7.03348 4.00000
21.54541 7.03348 4.00000
21.63173 7.03348 4.00000
21.71807 7.03348 4.00000
21.80444 7.03348 4.00000
21.89083 7.03348 4.00000
21.97725 7.03348 4.00000
22.06369 7.03348 4.00000
22.15015 7.03348 4.00000
22.23664 7.03348 4.00000
22.32314 7.03348 4.00000
22.40968 7.03348 4.00000
22.49623 7.03348 4.00000
22.58281 7.03348 4.00000
22.66941 7.03348 4.00000
22.75603 7.03348 4.00000
22.84267 7.03348 4.00000
22.92933 7.03348 4.00000
23.01602 7.03348 4.00000
23.10273 7.03348 4.00000
23.18945 7.03348 4.00000
23.27620 7.03348 4.00000
23.36297 7.03348 4.00000
23.44976 7.03348 4.00000
23.53657 7.03348 4.00000
23.62340 7.03348 4.00000
23.71025 7.03348 4.00000
23.79712 7.03347 4.00000
23.88399 7.03348 4.00000
23.97089 7.03348 4.00000
24.05782 7.03348 4.00000
24.14476 7.03347 4.00000
24.23172 7.03348 4.00000
24.31870 7.03347 4.00000
24.40570 7.03348 4.00000
24.49270 7.03348 4.00000
24.57975 7.03348 4.00000
24.66680 7.03348 4.00000
24.75386 7.03349 4.00000
24.84096 7.03348 4.00000
24.92805 7.03347 4.00000
25.01517 7.03348 4.00000
25.10231 7.03348 4.00000
25.18947 7.03348 4.00000
25.27662 7.03348 4.00000
25.36381 7.03348 4.00000
25.45101 7.03348 4.00000
25.53824 7.03348 4.00000
25.62548 7.03348 4.00000
25.71274 7.03348 4.00000
25.80000 7.03348 4.00000
25.88729 7.03348 4.00000
25.97457 7.03348 4.00000
26.06189 7.03348 4.00000
26.14921 7.03348 4.00000
26.23653 7.03348 4.00000
26.32387 7.03348 4.00000
26.41122 7.03348 4.00000
26.49859 7.03348 4.00000
26.58597 7.03348 4.00000
26.67336 7.03348 4.00000
26.76077 7.03348 4.00000
26.84819 7.03348 4.00000
26.93563 7.03348 4.00000
27.02307 7.03348 4.00000
27.11054 7.03348 4.00000
27.19801 7.03348 4.00000
27.28550 7.03348 4.00000
27.37300 7.03348 4.00000
27.46051 7.03348 4.00000
27.54804 7.03348 4.00000
27.63558 7.03348 4.00000
27.72314 7.03348 4.00000
27.81070 7.03348 4.00000
27.89828 7.03348 4.00000
27.98587 7.03348 4.00000
28.07348 7.03348 4.00000
28.16109 7.03348 4.00000
28.24872 7.03348 4.00000
28.33635 7.03348 4.00000
28.42400 7.03348 4.00000
28.51166 7.03348 4.00000

Angle 0.335168 2.574689

4.00000 7.03348 4.00000
4.00000 7.03348 4.00000
4.00000 7.03348 4.00000
4.00000 7.03348 4.00000
4.00000 7.03348 4.00000
4.00000 7.03348 4.00000
4.00000 7.03348 4.00000
4.00000 7.03348 4.00000
4.00000 7.03348 4.00000
4.00000 7.03348 4.00000
4.00000 7.03348 4.00000
4.00000 7.03348 4.00000
4.00000 7.03348 4.00000
4.00000 7.03348 4.00000
4.00000 7.03348 4.00000
4.00000 7.03349 4.00000
4.00000 7.03348 4.00000
4.00000 7.03348 4.00000
4.00000 7.03348 4.00000
4.00000 7.03348 4.00000
4.00000 7.03348 4.00000
4.00000 7.03348 4.00000
4.00000 7.03348 4.00000
4.00000 7.03348 4.00000
4.00000 7.03348 4.00000
4.00000 7.03348 4.00000
4.00000 7.03348 4.00000
4.00000 7.03348 4.00000
4.00000 7.03348 4.00000
4.00000 7.03348 4.00000
4.00000 7.03348 4.00000
4.00000 7.03348 4.00000
4.00000 7.03348 4.00000
4.00000 7.03348 4.00000
4.00000 7.03348 4.00000
4.00000 7.03348 4.00000
4.00000 7.03347 4.00000
4.00000 7.03347 4.00000
4.00000 7.03347 4.00000
4.00000 7.03348 4.00000
4.00000 7.03348 4.00000
4.00000 7.03348 4.00000
4.00000 7.03348 4.00000
4.00000 7.03348 4.00000
4.00000 7.03348 4.00000
4.00000 7.03348 4.00000
4.00000 7.03348 4.00000
4.00000 7.03348 4.00000
4.00000 7.03348 4.00000
4.00000 7.03348 4.00000
4.00000 7.03348 4.00000
4.00000 7.03348 4.00000
4.00000 7.03348 4.00000
4.00000 7.03348 4.00000
4.00000 7.03348 4.00000
4.00000 7.03348 4.00000
4.00000 7.03348 4.00000
4.00000 7.03348 4.00000
4.00000 7.03348 4.00000
4.00000 7.03348 4.00000
4.00000 7.03348 4.00000
4.00000 7.03348 4.00000
4.00000 7.03348 4.00000
4.00000 7.03348 4.00000
4.00000 7.03348 4.00000
4.00000 7.03348 4.00000
4.00000 7.03348 4.00000
4.00000 7.03348 4.00000
4.00000 7.03348 4.00000
4.00000 7.03348 4.00000
4.00000 7.03347 4.00000
4.00000 7.03348 4.00000
4.00000 7.03349 4.00000
4.00000 7.03347 4.00000
4.00000 7.03348 4.00000
4.00000 7.03348 4.00000
4.00000 7.03350 4.00000
4.00000 7.03348 4.00000
4.00000 7.03348 4.00000
4.00000 7.03348 4.00000
4.00000 7.03348 4.00000
4.00000 7.03348 4.00000
4.00000 7.03348 4.00000
4.00000 7.03348 4.00000
4.00000 7.03348 4.00000
4.00000 7.03348 4.00000
4.00000 7.03348 4.00000
4.00000 7.03348 4.00000
4.00000 7.03348 4.00000
4.00000 7.03348 4.00000
4.00000 7.03348 4.00000
4.00000 7.03348 4.00000
4.00000 7.03348 4.00000
4.00000 7.03348 4.00000
4.00000 7.03348 4.00000
4.00000 7.03348 4.00000
4.00000 7.03348 4.00000
4.00000 7.03348 4.00000
4.00000 7.03348 4.00000
4.00000 7.03348 4.00000
4.00000 7.03348 4.00000
4.00000 7.03348 4.00000
4.00000 7.03348 4.00000
4.00000 7.03348 4.00000
4.00000 7.03348 4.00000
4.00000 7.03348 4.00000
4.00000 7.03348 4.00000
4.00000 7.03348 4.00000
4.00000 7.03348 4.00000
4.00000 7.03348 4.00000
4.00000 7.03348 4.00000
4.00000 7.03348 4.00000
4.00000 7.03348 4.00000
4.00000 7.03348 4.00000
4.00000 7.03348 4.00000
4.00000 7.03348 4.00000
4.00000 7.03348 4.00000
4.00000 7.03348 4.00000
4.00000 7.03348 4.00000
4.00000 7.03348 4.00000
4.00000 7.03348 4.00000
4.00000 7.03348 4.00000
4.00000 7.03348 4.00000
4.00000 7.03348 4.00000
4.00000 7.03348 4.00000
4.00000 7.03348 4.00000
4.00000 7.03348 4.00000
4.00000 7.03348 4.00000
4.00000 7.03348 4.00000
4.00000 7.03348 4.00000
4.00000 7.03348 4.00000
4.00000 7.03348 4.00000
4.00000 7.03348 4.00000
4.00000 7.03348 4.00000
4.00000 7.03348 4.00000
4.00000 7.03348 4.00000
4.00000 7.03348 4.00000
4.00000 7.03348 4.00000
4.00000 7.03348 4.00000
4.00000 7.03349 4.00000
4.00000 7.03348 4.00000
4.00000 7.03347 4.00000
4.00000 7.03348 4.00000
4.00000 7.03347 4.00000
4.00000 7.03349 4.00000
4.00000 7.03348 4.00000
4.00000 7.03348 4.00000
4.00000 7.03348 4.00000
4.00000 7.03348 4.00000
4.00000 7.03348 4.00000
4.00000 7.03348 4.00000
4.00000 7.03348 4.00000
4.00000 7.03348 4.00000
4.00000 7.03348 4.00000
4.00000 7.03348 4.00000
4.00000 7.03348 4.00000
4.00000 7.03348 4.00000
4.00000 7.03348 4.00000
4.00000 7.03349 4.00000
4.00039 7.04035 4.00039
4.00425 7.10887 4.00426
4.00807 7.17771 4.00807
4.01184 7.24685 4.01184
4.01557 7.31623 4.01557
4.01930 7.38583 4.01930
4.02301 7.45561 4.02301
4.02673 7.52553 4.02673
4.03046 7.59556 4.03046
4.03423 7.66565 4.03423
4.03804 7.73577 4.03803
4.04190 7.80587 4.04190
4.04585 7.87591 4.04585
4.04989 7.94582 4.04989
4.05404 8.01557 4.05404
4.05833 8.08507 4.05833
4.06278 8.15426 4.06279
4.06744 8.22306 4.06743
4.07232 8.29137 4.07232
4.07747 8.35908 4.07747
4.08294 8.42607 4.08294
4.08879 8.49219 4.08880
4.09509 8.55726 4.09509
4.10191 8.62108 4.10191
4.10935 8.68343 4.10935
4.11737 8.74440 4.11737
4.12596 8.80405 4.12596
4.13516 8.86230 4.13516
4.14499 8.91910 4.14499
4.15548 8.97440 4.15548
4.16666 9.02816 4.16666
4.17853 9.08036 4.17853
4.19112 9.13099 4.19112
4.20444 9.18004 4.20444
4.21848 9.22752 4.21848
4.23326 9.27345 4.23325
4.24875 9.31787 4.24875
4.26497 9.36082 4.26497
4.28188 9.40234 4.28188
4.29949 9.44248 4.29948
4.31776 9.48132 4.31776
4.33668 9.51890 4.33668
4.35623 9.55528 4.35623
4.37639 9.59052 4.37639
4.39714 9.62466 4.39714
4.41847 9.65774 4.41847
4.44037 9.68979 4.44037
4.46285 9.72079 4.46284
4.48591 9.75071 4.48591
4.50959 9.77948 4.50960
4.53399 9.80689 4.53399
4.55922 9.83266 4.55922
4.58554 9.85620 4.58554
4.61340 9.87650 4.61339
4.64362 9.89167 4.64362
4.67768 9.89842 4.67767
7.86665 7.36328 4.01809
7.99051 7.32155 4.01586
8.10705 7.28716 4.01401
8.21813 7.25826 4.01245
8.32502 7.23361 4.01112
8.42860 7.21230 4.00996
8.52945 7.19378 4.00895
8.62807 7.17757 4.00806
8.72484 7.16327 4.00727
8.82002 7.15061 4.00657
8.91388 7.13936 4.00595
9.00661 7.12930 4.00539
9.09835 7.12030 4.00489
9.18924 7.11223 4.00444
9.27939 7.10497 4.00404
9.36889 7.09844 4.00367
9.45782 7.09254 4.00334
9.54626 7.08720 4.00304
9.63427 7.08238 4.00277
9.72189 7.07800 4.00252
9.80917 7.07404 4.00230
9.89616 7.07045 4.00210
9.98289 7.06718 4.00191
10.06939 7.06421 4.00175
10.15569 7.06151 4.00159
10.24183 7.05904 4.00145
10.32781 7.05681 4.00133
10.41365 7.05477 4.00121
10.49938 7.05291 4.00111
10.58501 7.05122 4.00101
10.67056 7.04967 4.00092
10.75605 7.04826 4.00084
10.84146 7.04698 4.00077
10.92683 7.04581 4.00070
11.01216 7.04474 4.00064
11.09746 7.04376 4.00059
11.18273 7.04287 4.00053
11.26799 7.04205 4.00049
11.35323 7.04131 4.00045
11.43848 7.04063 4.00041
11.52372 7.04001 4.00037
11.60896 7.03944 4.00034
11.69420 7.03893 4.00031
11.77945 7.03847 4.00028
11.86475 7.03802 4.00026
11.95004 7.03763 4.00024
12.03535 7.03727 4.00022
12.12069 7.03694 4.00020
12.20604 7.03664 4.00018
12.29142 7.03637 4.00016
12.37685 7.03612 4.00015
12.46229 7.03588 4.00014
12.54777 7.03567 4.00013
12.63327 7.03549 4.00011
12.71880 7.03531 4.00010
12.80438 7.03516 4.00010
12.88999 7.03500 4.00009
12.97562 7.03487 4.00008
13.06129 7.03475 4.00007
13.14700 7.03464 4.00007
13.23274 7.03454 4.00006
13.31851 7.03445 4.00006
13.40433 7.03436 4.00005
13.49018 7.03428 4.00005
13.57607 7.03422 4.00004
13.66200 7.03415 4.00004
13.74795 7.03409 4.00003
13.83396 7.03403 4.00003
13.91999 7.03398 4.00003
14.00606 7.03395 4.00003
14.09217 7.03390 4.00002
14.17831 7.03386 4.00002
14.26448 7.03383 4.00002
14.35070 7.03380 4.00002
14.43695 7.03377 4.00002
14.52322 7.03375 4.00002
14.60954 7.03372 4.00001
14.69590 7.03370 4.00001
14.78228 7.03368 4.00001
14.86870 7.03366 4.00001
14.95515 7.03364 4.00001
15.04163 7.03363 4.00001
15.12814 7.03362 4.00001
15.21469 7.03360 4.00001
15.30126 7.03360 4.00001
15.38788 7.03358 4.00001
15.47452 7.03358 4.00001
15.56119 7.03357 4.00001
15.64789 7.03356 4.00000
15.73462 7.03355 4.00000
15.82138 7.03355 4.00000
15.90817 7.03354 4.00000
15.99499 7.03354 4.00000
16.08184 7.03353 4.00000
16.16871 7.03353 4.00000
16.25562 7.03352 4.00000
16.34255 7.03352 4.00000
16.42952 7.03351 4.00000
16.51651 7.03351 4.00000
16.60353 7.03351 4.00000
16.69057 7.03351 4.00000
16.77764 7.03350 4.00000
16.86474 7.03350 4.00000
16.95186 7.03350 4.00000
17.03901 7.03350 4.00000
17.12618 7.03350 4.00000
17.21338 7.03350 4.00000
17.30060 7.03349 4.00000
17.38784 7.03349 4.00000
17.47511 7.03349 4.00000
17.56241 7.03349 4.00000
17.64972 7.03349 4.00000
17.73706 7.03349 4.00000
17.82443 7.03349 4.00000
17.91181 7.03349 4.00000
17.99922 7.03349 4.00000
18.08665 7.03349 4.00000
18.17411 7.03349 4.00000
18.26158 7.03348 4.00000
18.34908 7.03348 4.00000
18.43660 7.03348 4.00000
18.52414 7.03348 4.00000
18.61170 7.03348 4.00000
18.69929 7.03348 4.00000
18.78689 7.03348 4.00000
18.87452 7.03348 4.00000
18.96216 7.03348 4.00000
19.04983 7.03348 4.00000
19.13751 7.03348 4.00000
19.22522 7.03348 4.00000
19.31294 7.03348 4.00000
19.40068 7.03348 4.00000
19.48845 7.03348 4.00000
19.57623 7.03348 4.00000
19.66403 7.03348 4.00000
19.75185 7.03347 4.00000
19.83968 7.03348 4.00000
19.92755 7.03347 4.00000
20.01541 7.03348 4.00000
20.10330 7.03348 4.00000
20.19121 7.03348 4.00000
20.27913 7.03348 4.00000
20.36708 7.03347 4.00000
20.45504 7.03348 4.00000
20.54302 7.03347 4.00000
20.63100 7.03348 4.00000
20.71901 7.03348 4.00000
20.80704 7.03348 4.00000
20.89508 7.03348 4.00000
20.98314 7.03348 4.00000
21.07121 7.03348 4.00000
21.15931 7.03348 4.00000
21.24741 7.03348 4.00000
21.33553 7.03348 4.00000
21.42367 7.03348 4.00000
21.51182 7.03348 4.00000
21.59999 7.03348 4.00000
21.68817 7.03348 4.00000
21.77637 7.03348 4.00000
21.86458 7.03348 4.00000
21.95281 7.03348 4.00000
22.04105 7.03348 4.00000
22.12930 7.03348 4.00000
22.21757 7.03348 4.00000
22.30584 7.03348 4.00000
22.39414 7.03348 4.00000
22.48244 7.03348 4.00000
22.57076 7.03348 4.00000
22.65909 7.03348 4.00000
22.74744 7.03348 4.00000
22.83579 7.03348 4.00000
22.92416 7.03348 4.00000
23.01254 7.03348 4.00000
23.10094 7.03348 4.00000
23.18935 7.03348 4.00000
23.27777 7.03348 4.00000
23.36620 7.03348 4.00000
23.45464 7.03348 4.00000
23.54310 7.03348 4.00000
23.63156 7.03348 4.00000
23.72004 7.03348 4.00000
23.80853 7.03348 4.00000
23.89704 7.03348 4.00000
23.98555 7.03348 4.00000
24.07408 7.03348 4.00000

