0.3378
0.3431
0.3482
0.3533
0.3583
0.3632
0.3681
0.3729
0.3777
0.3824
0.3870
0.3916
0.3967
0.4017
0.4068
0.4118
0.4170
0.4221
0.4273
0.4323
0.4375
0.4430
0.4488
0.4546
0.4582
0.4628
0.4671
0.4717
0.4764
0.4814
0.4866
0.4922
0.4982
0.5052
0.5145
0.5241
0.5266
0.5292
0.5317
0.5343
0.5370
0.5397
0.5425
0.5454
0.5484
0.5514
0.5544
0.5575
0.5607
0.5639
0.5672
0.5705
0.5739
0.5774
0.5809
0.5845
0.5882
0.5919
0.5957
0.5995
0.6033
0.6069
0.6105
0.6140
0.6174
0.6206
0.6238
0.6269
0.6298
0.6327
0.6355
0.6382
0.6408
0.6433
0.6458
0.6483
0.6507
0.6530
0.6553
0.6575
0.6599
0.6620
0.6640
0.6657
0.6671
0.6682
0.6685
0.6713
0.6744
0.6771
0.6801
0.6831
0.6860
0.6890
0.6920
0.6949
0.6978
0.7007
0.7036
0.7064
0.7092
0.7120
0.7148
0.7175
0.7202
0.7229
0.7256
0.7282
0.7308
0.7333
0.7358
0.7382
0.7406
0.7429
0.7451
0.7470
0.7486
0.7488
0.7481
0.7511
0.7541
0.7572
0.7603
0.7634
0.7664
0.7694
0.7724
0.7754
0.7784
0.7813
0.7841
0.7868
0.7894
0.7918
0.7938
0.7952
0.7959
0.7979
0.7998
0.8016
0.8031
0.8044
0.8054
0.8062
0.8069
0.8080
0.8094
0.8108
0.8119
0.8130
0.8141
0.8147
0.8151
0.8155
0.8143
0.8149
0.8157
0.8162
0.8167
0.8171
0.8178
0.8182
0.8185
0.8188
0.8193
0.8194
0.8196
0.8197
0.8199
0.8201
0.8207
0.8214
0.8217
0.8229
0.8250
0.8256
0.8266
0.8280
0.8300
0.8337
0.8330
0.8343
0.8357
0.8370
0.8385
0.8400
0.8414
0.8429
0.8444
0.8459
0.8475
0.8490
0.8506
0.8522
0.8538
0.8555
0.8571
0.8589
0.8606
0.8623
0.8641
0.8659
0.8677
0.8695
0.8714
0.8732
0.8751
0.8770
0.8789
0.8808
0.8828
0.8852
0.8872
0.8892
0.8914
0.8937
0.8959
0.8982
0.9006
0.9031
0.9058
0.9087
0.9118
0.9152
0.9197
0.9243
0.9297
0.9303
0.9309
0.9314
0.9320
0.9325
0.9331
0.9336
0.9342
0.9347
0.9352
0.9357
0.9362
0.9367
0.9372
0.9377
0.9382
0.9388
0.9393
0.9398
0.9403
0.9407
0.9411
0.9416
0.9420
0.9424
0.9429
0.9433
0.9437
0.9441
0.9445
0.9449
0.9453
0.9457
0.9461
0.9465
0.9468
0.9472
0.9476
0.9479
0.9483
0.9486
0.9490
0.9493
0.9497
0.9500
0.9504
0.9507
0.9510
0.9514
0.9517
0.9520
0.9523
0.9526
0.9530
0.9533
0.9536
0.9539
0.9542
0.9546
0.9549
0.9551
0.9554
0.9557
0.9561
0.9563
0.9566
0.9570
0.9572
0.9575
0.9577
0.9580
0.9583
0.9587
0.9590
0.9593
0.9596
0.9599
0.9602
0.9605
0.9608
0.9608
0.9611
0.9614
0.9617
0.9620
0.9622
0.9625
0.9628
0.9630
0.9633
0.9636
0.9638
0.9641
0.9643
0.9646
0.9648
0.9651
0.9653
0.9656
0.9658
0.9661
0.9663
0.9665
0.9668
0.9670
0.9672
0.9675
0.9677
0.9679
0.9682
0.9684
0.9686
0.9688
0.9690
0.9693
0.9695
0.9697
0.9699
0.9702
0.9704
0.9706
0.9709
0.9711
0.9713
0.9715
0.9717
0.9720
0.9722
0.9724
0.9726
0.9728
0.9731
0.9733
0.9735
0.9737
0.9739
0.9742
0.9744
0.9746
0.9748
0.9750
0.9752
0.9754
0.9757
0.9759
0.9761
0.9763
0.9765
0.9767
0.9769
0.9772
0.9774
0.9776
0.9778
0.9780
0.9782
0.9784
0.9786
0.9788
0.9790
0.9792
0.9794
0.9796
0.9798
0.9800
0.9801
0.9803
0.9805
0.9807
0.9809
0.9810
0.9812
0.9814
