0.6685
0.6755
0.6823
0.6892
0.6957
0.7016
0.7068
0.7110
0.7144
0.7172
0.7197
0.7218
0.7238
0.7251
0.7256
0.7257
0.7254
0.7253
0.7263
0.7299
0.7294
0.7288
0.7283
0.7279
0.7277
0.7277
0.7278
0.7281
0.7288
0.7305
0.7328
0.7365
0.7386
0.7367
0.7349
0.7330
0.7311
0.7291
0.7271
0.7250
0.7229
0.7206
0.7181
0.7154
0.7124
0.7086
0.7034
0.6954
0.6946
0.6937
0.6928
0.6919
0.6910
0.6900
0.6890
0.6879
0.6867
0.6855
0.6840
0.6821
0.6797
0.6765
0.6723
0.6721
0.6784
0.6839
0.6630
0.6326
0.6236
0.6011
0.5750
0.5566
0.5599
0.5814
0.6058
0.6249
0.6381
0.6313
0.6282
0.6265
0.6253
0.6243
0.6234
0.6227
0.6220
0.6217
0.6214
0.6212
0.6211
0.6210
0.6210
0.6210
0.6211
0.6215
0.6220
0.6220
0.6216
0.6214
0.6214
0.6214
0.6215
0.6216
0.6218
0.6217
0.6216
0.6215
0.6213
0.6211
0.6210
0.6211
0.6212
0.6216
0.6207
0.6192
0.6238
0.6267
0.6280
0.6293
0.6307
0.6323
0.6339
0.6358
0.6377
0.6398
0.6420
0.6443
0.6467
0.6492
0.6519
0.6546
0.6574
0.6602
0.6630
0.6658
0.6684
0.6711
0.6737
0.6762
0.6789
0.6815
0.6842
0.6867
0.6893
0.6919
0.6944
0.6970
0.6991
0.7015
0.7038
0.7059
0.7081
0.7100
0.7121
0.7144
0.7166
0.7188
0.7211
0.7236
0.7264
0.7297
0.7345
0.7407
0.7518
0.7524
0.7530
0.7537
0.7543
0.7550
0.7557
0.7564
0.7572
0.7579
0.7587
0.7595
0.7603
0.7612
0.7621
0.7630
0.7639
0.7649
0.7660
0.7672
0.7683
0.7695
0.7709
0.7722
0.7737
0.7752
0.7768
0.7785
0.7802
0.7820
0.7839
0.7858
0.7878
0.7898
0.7919
0.7940
0.7962
0.7984
0.8006
0.8029
0.8052
0.8075
0.8097
0.8120
0.8143
0.8166
0.8189
0.8213
0.8236
0.8260
0.8284
0.8308
0.8333
0.8359
0.8384
0.8411
0.8438
0.8465
0.8492
0.8516
0.8539
0.8563
0.8587
0.8611
0.8635
0.8659
0.8684
0.8710
0.8735
0.8761
0.8787
0.8815
0.8843
0.8871
0.8901
0.8931
0.8966
0.9000
0.9039
0.9082
0.9132
0.9217
0.9248
0.9255
0.9260
0.9265
0.9273
0.9277
0.9282
0.9288
0.9295
0.9300
0.9305
0.9310
0.9315
0.9320
0.9325
0.9329
0.9334
0.9339
0.9343
0.9348
0.9352
0.9357
0.9363
0.9367
0.9371
0.9376
0.9380
0.9385
0.9389
0.9393
0.9397
0.9401
0.9405
0.9408
0.9412
0.9417
0.9420
0.9423
0.9427
0.9432
0.9435
0.9439
0.9442
0.9445
0.9448
0.9452
0.9455
0.9458
0.9461
0.9464
0.9468
0.9476
0.9479
0.9482
0.9485
0.9488
0.9491
0.9494
0.9496
0.9499
0.9502
0.9505
0.9508
0.9511
0.9514
0.9516
0.9519
0.9522
0.9525
0.9527
0.9530
0.9533
0.9535
0.9538
0.9541
0.9544
0.9547
0.9550
0.9552
0.9555
0.9558
0.9561
0.9564
0.9567
0.9569
0.9572
0.9575
0.9578
0.9580
0.9583
0.9586
0.9589
0.9591
0.9594
0.9597
0.9599
0.9602
0.9604
0.9607
0.9609
0.9612
0.9615
0.9617
0.9620
0.9622
0.9625
0.9627
0.9630
0.9632
0.9635
0.9637
0.9639
0.9642
0.9644
0.9647
0.9649
0.9652
0.9654
0.9657
0.9659
0.9662
0.9665
0.9667
0.9670
0.9673
0.9673
0.9676
0.9679
0.9682
0.9684
0.9687
0.9690
0.9692
0.9695
0.9697
0.9700
0.9703
0.9705
0.9708
0.9710
0.9712
0.9715
0.9717
0.9720
0.9722
0.9724
0.9727
0.9729
0.9731
0.9733
0.9736
0.9738
0.9740
0.9743
0.9745
0.9747
