0.6354
0.6366
0.6375
0.6382
0.6388
0.6392
0.6395
0.6397
0.6398
0.6398
0.6398
0.6398
0.6398
0.6398
0.6398
0.6398
0.6398
0.6398
0.6399
0.6400
0.6402
0.6404
0.6406
0.6409
0.6412
0.6416
0.6420
0.6424
0.6429
0.6434
0.6440
0.6445
0.6451
0.6456
0.6462
0.6467
0.6472
0.6478
0.6483
0.6488
0.6493
0.6498
0.6503
0.6509
0.6514
0.6520
0.6526
0.6532
0.6539
0.6545
0.6550
0.6556
0.6564
0.6571
0.6578
0.6590
0.6599
0.6609
0.6622
0.6636
0.6660
0.6681
0.6659
0.6633
0.6600
0.6548
0.6492
0.6501
0.6511
0.6521
0.6531
0.6542
0.6553
0.6565
0.6577
0.6589
0.6601
0.6614
0.6627
0.6640
0.6654
0.6668
0.6682
0.6696
0.6711
0.6725
0.6740
0.6755
0.6771
0.6786
0.6802
0.6818
0.6834
0.6850
0.6867
0.6883
0.6900
0.6917
0.6933
0.6950
0.6967
0.6984
0.7002
0.7020
0.7039
0.7059
0.7080
0.7103
0.7128
0.7156
0.7191
0.7255
0.7265
0.7275
0.7286
0.6938
0.6581
0.6439
0.6389
0.6414
0.6500
0.6444
0.6388
0.6359
0.6332
0.6304
0.6276
0.6244
0.6206
0.6141
0.6120
0.6097
0.6074
0.6050
0.6026
0.6002
0.5978
0.5954
0.5931
0.5908
0.5885
0.5863
0.5842
0.5821
0.5800
0.5780
0.5762
0.5744
0.5726
0.5710
0.5695
0.5681
0.5667
0.5655
0.5643
0.5631
0.5621
0.5611
0.5601
0.5591
0.5582
0.5573
0.5565
0.5558
0.5551
0.5546
0.5541
0.5537
0.5534
0.5532
0.5530
0.5530
0.5530
0.5532
0.5534
0.5537
0.5541
0.5546
0.5552
0.5559
0.5567
0.5575
0.5583
0.5595
0.5606
0.5618
0.5631
0.5644
0.5658
0.5674
0.5690
0.5706
0.5726
0.5744
0.5763
0.5785
0.5805
0.5826
0.5848
0.5875
0.5898
0.5923
0.5948
0.5978
0.6006
0.6034
0.6063
0.6093
0.6124
0.6155
0.6188
0.6226
0.6260
0.6295
0.6330
0.6367
0.6404
0.6442
0.6481
0.6521
0.6561
0.6603
0.6645
0.6689
0.6733
0.6778
0.6824
0.6872
0.6920
0.6969
0.7020
0.7072
0.7126
0.7181
0.7237
0.7295
0.7356
0.7419
0.7485
0.7556
0.7634
0.7726
0.7842
0.7879
0.7916
0.7954
0.7993
0.8032
0.8072
0.8114
0.8153
0.8197
0.8238
0.8282
0.8329
0.8374
0.8424
0.8471
0.8522
0.8573
0.8630
0.8688
0.8751
0.8824
0.8891
0.8972
0.9056
0.9073
0.9080
0.9091
0.9097
0.9106
0.9112
0.9119
0.9125
0.9132
0.9138
0.9145
0.9151
0.9162
0.9167
0.9172
0.9178
0.9183
0.9188
0.9196
0.9201
0.9206
0.9211
0.9216
0.9221
0.9226
0.9231
0.9236
0.9241
0.9245
0.9250
0.9255
0.9260
0.9264
0.9269
0.9274
0.9278
0.9283
0.9287
0.9291
0.9296
0.9300
0.9304
0.9309
0.9313
0.9317
0.9321
0.9325
0.9329
0.9333
0.9337
0.9341
0.9346
0.9349
0.9353
0.9357
0.9361
0.9365
0.9369
0.9372
0.9376
0.9380
0.9384
0.9387
0.9391
0.9394
0.9398
0.9401
0.9405
0.9408
0.9412
0.9415
0.9418
0.9422
0.9425
0.9428
0.9431
0.9435
0.9438
0.9441
0.9444
0.9447
0.9451
0.9454
0.9457
0.9460
0.9463
0.9466
0.9469
0.9472
0.9475
0.9478
0.9480
0.9483
0.9486
0.9489
0.9492
0.9495
0.9498
0.9500
0.9503
0.9506
0.9509
0.9511
0.9514
0.9517
0.9520
0.9522
0.9525
0.9527
0.9530
0.9532
0.9535
0.9538
0.9541
0.9544
0.9546
0.9549
0.9552
0.9554
0.9557
0.9559
0.9562
0.9565
0.9567
0.9570
0.9573
0.9575
0.9578
0.9580
0.9583
0.9586
0.9588
0.9591
