0.5921
0.5856
0.5793
0.5774
0.5761
0.5750
0.5741
0.5817
0.5856
0.5885
0.5911
0.5934
0.5955
0.5976
0.5997
0.6017
0.6036
0.6055
0.6074
0.6092
0.6110
0.6127
0.6144
0.6160
0.6176
0.6192
0.6207
0.6293
0.6343
0.6385
0.6422
0.6457
0.6489
0.6519
0.6549
0.6577
0.6605
0.6632
0.6658
0.6684
0.6709
0.6735
0.6761
0.6786
0.6812
0.6838
0.6864
0.6890
0.6916
0.6943
0.6970
0.6997
0.7024
0.7051
0.7081
0.7110
0.7141
0.7172
0.7205
0.7241
0.7281
0.7324
0.7366
0.7402
0.7434
0.7460
0.7479
0.7490
0.7499
0.7505
0.7487
0.7451
0.7469
0.7490
0.7483
0.7478
0.7477
0.7476
0.7471
0.7460
0.7439
0.7434
0.7439
0.7444
0.7449
0.7454
0.7459
0.7463
0.7468
0.7473
0.7477
0.7482
0.7487
0.7491
0.7496
0.7501
0.7506
0.7511
0.7516
0.7520
0.7525
0.7530
0.7535
0.7539
0.7544
0.7548
0.7552
0.7555
0.7558
0.7560
0.7560
0.7556
0.7548
0.7528
0.7521
0.7513
0.7505
0.7498
0.7491
0.7486
0.7482
0.7479
0.7478
0.7478
0.7479
0.7480
0.7480
0.7480
0.7477
0.7474
0.7467
0.7458
0.7444
0.7425
0.7396
0.7365
0.7328
0.7281
0.7230
0.7174
0.7115
0.7054
0.6990
0.6927
0.6865
0.6805
0.6747
0.6693
0.6643
0.6597
0.6556
0.6518
0.6486
0.6458
0.6434
0.6415
0.6401
0.6392
0.6389
0.6394
0.6414
0.6470
0.6457
0.6446
0.6436
0.6428
0.6421
0.6415
0.6411
0.6407
0.6405
0.6404
0.6403
0.6404
0.6405
0.6407
0.6410
0.6414
0.6418
0.6423
0.6428
0.6435
0.6442
0.6449
0.6458
0.6467
0.6476
0.6486
0.6497
0.6508
0.6520
0.6533
0.6546
0.6560
0.6574
0.6592
0.6607
0.6624
0.6640
0.6657
0.6676
0.6696
0.6718
0.6738
0.6760
0.6781
0.6803
0.6826
0.6850
0.6877
0.6903
0.6931
0.6959
0.6990
0.7024
0.7059
0.7097
0.7140
0.7192
0.7278
0.7301
0.7324
0.7347
0.7370
0.7394
0.7417
0.7441
0.7464
0.7488
0.7511
0.7535
0.7559
0.7583
0.7607
0.7631
0.7656
0.7680
0.7704
0.7729
0.7753
0.7778
0.7802
0.7827
0.7852
0.7877
0.7901
0.7926
0.7951
0.7976
0.8001
0.8026
0.8051
0.8076
0.8101
0.8126
0.8151
0.8176
0.8201
0.8226
0.8251
0.8276
0.8302
0.8327
0.8352
0.8378
0.8403
0.8429
0.8454
0.8480
0.8506
0.8532
0.8558
0.8585
0.8611
0.8638
0.8666
0.8694
0.8722
0.8752
0.8783
0.8815
0.8847
0.8879
0.8907
0.8937
0.8968
0.9000
0.9036
0.9044
0.9053
0.9063
0.9071
0.9079
0.9090
0.9098
0.9109
0.9117
0.9130
0.9303
0.9305
0.9304
0.9305
0.9303
0.9301
0.9301
0.9298
0.9293
0.9288
0.9285
0.9275
0.9260
0.9220
0.9226
0.9238
0.9244
0.9249
0.9254
0.9259
0.9264
0.9269
0.9274
0.9279
0.9284
0.9289
0.9293
0.9298
0.9303
0.9311
0.9315
0.9320
0.9324
0.9329
0.9333
0.9338
0.9342
0.9347
0.9351
0.9355
0.9360
0.9364
0.9368
0.9373
0.9377
0.9381
0.9385
0.9389
0.9394
0.9398
0.9402
0.9406
0.9410
0.9414
0.9418
0.9422
0.9426
0.9430
0.9434
0.9438
0.9442
0.9446
0.9450
0.9453
0.9457
0.9461
0.9465
0.9469
0.9472
0.9476
0.9479
0.9483
0.9487
0.9490
0.9494
0.9497
0.9501
0.9504
0.9507
0.9511
0.9514
0.9517
0.9521
0.9524
0.9527
0.9531
0.9534
0.9537
0.9540
0.9543
0.9546
0.9550
0.9553
0.9556
0.9559
0.9562
0.9565
0.9568
0.9570
0.9573
0.9576
0.9579
