0.6724
0.6726
0.6728
0.6731
0.6734
0.6738
0.6742
0.6747
0.6752
0.6758
0.6764
0.6770
0.6777
0.6784
0.6792
0.6799
0.6808
0.6816
0.6825
0.6833
0.6842
0.6851
0.6860
0.6868
0.6877
0.6886
0.6895
0.6905
0.6914
0.6923
0.6933
0.6942
0.6951
0.6960
0.6968
0.6977
0.6985
0.6993
0.7001
0.7008
0.7014
0.7019
0.7021
0.7021
0.7018
0.7000
0.6999
0.6996
0.6993
0.6989
0.6984
0.6978
0.6971
0.6963
0.6953
0.6942
0.6930
0.6918
0.6904
0.6888
0.6871
0.6852
0.6831
0.6808
0.6776
0.6735
0.6693
0.6679
0.6665
0.6652
0.6640
0.6629
0.6620
0.6612
0.6604
0.6598
0.6592
0.6587
0.6582
0.6577
0.6573
0.6568
0.6564
0.6559
0.6555
0.6550
0.6546
0.6544
0.6544
0.6546
0.6553
0.6567
0.6600
0.6613
0.6588
0.6564
0.6542
0.6520
0.6498
0.6478
0.6458
0.6440
0.6423
0.6411
0.6401
0.6393
0.6386
0.6379
0.6371
0.6361
0.6348
0.6335
0.6322
0.6308
0.6293
0.6277
0.6256
0.6233
0.6205
0.6176
0.6150
0.6129
0.6112
0.6100
0.6090
0.6083
0.6079
0.6077
0.6077
0.6078
0.6080
0.6082
0.6086
0.6081
0.6068
0.6082
0.6095
0.6109
0.6125
0.6142
0.6159
0.6178
0.6197
0.6218
0.6239
0.6262
0.6285
0.6309
0.6334
0.6360
0.6387
0.6415
0.6444
0.6474
0.6504
0.6535
0.6568
0.6601
0.6635
0.6670
0.6706
0.6743
0.6782
0.6822
0.6863
0.6906
0.6950
0.6996
0.7044
0.7094
0.7148
0.7204
0.7266
0.7337
0.7431
0.7511
0.7536
0.7562
0.7587
0.7614
0.7640
0.7667
0.7695
0.7723
0.7754
0.7783
0.7813
0.7843
0.7873
0.7904
0.7936
0.7968
0.8001
0.8034
0.8067
0.8101
0.8138
0.8173
0.8209
0.8246
0.8284
0.8324
0.8365
0.8409
0.8455
0.8504
0.8559
0.8625
0.8732
0.8747
0.8763
0.8779
0.8794
0.8810
0.8826
0.8842
0.8858
0.8875
0.8891
0.8907
0.8924
0.8940
0.8956
0.8973
0.8990
0.9006
0.9023
0.9039
0.9056
0.9073
0.9091
0.9108
0.9126
0.9143
0.9161
0.9179
0.9197
0.9215
0.9233
0.9251
0.9269
0.9288
0.9307
0.9326
0.9345
0.9364
0.9384
0.9404
0.9424
0.9444
0.9466
0.9487
0.9510
0.9534
0.9560
0.9586
0.9612
0.9633
0.9650
0.9666
0.9684
0.9691
0.9694
0.9697
0.9699
0.9701
0.9704
0.9706
0.9708
0.9711
0.9713
0.9715
0.9717
0.9720
0.9722
0.9724
0.9726
0.9728
0.9730
0.9732
0.9734
0.9736
0.9738
0.9740
0.9742
0.9743
0.9745
0.9747
0.9749
0.9751
0.9752
0.9754
0.9756
0.9758
0.9759
0.9761
0.9763
0.9764
0.9766
0.9769
0.9771
0.9772
0.9774
0.9775
0.9777
0.9779
0.9780
0.9782
0.9783
0.9785
0.9786
0.9787
0.9789
0.9790
0.9791
0.9793
0.9795
0.9796
0.9797
0.9798
0.9800
0.9801
0.9802
0.9804
0.9805
0.9806
0.9808
0.9809
0.9810
0.9811
0.9812
0.9814
0.9815
0.9816
0.9817
0.9818
0.9819
0.9820
0.9821
0.9822
0.9824
0.9825
0.9826
0.9827
0.9828
0.9829
0.9830
0.9831
0.9832
0.9833
0.9834
0.9835
0.9836
0.9837
0.9838
0.9839
0.9840
0.9841
0.9842
0.9843
0.9844
0.9845
0.9846
0.9847
0.9848
0.9849
0.9850
0.9851
0.9852
0.9853
0.9854
0.9855
0.9856
0.9857
0.9858
0.9858
0.9859
0.9860
0.9861
0.9862
0.9863
0.9864
0.9864
0.9865
0.9866
0.9867
0.9868
0.9869
0.9869
0.9870
0.9871
0.9872
0.9873
0.9874
0.9874
0.9875
0.9876
0.9877
0.9877
0.9878
