0.3706
0.3733
0.3757
0.3780
0.3803
0.3825
0.3848
0.3870
0.3892
0.3918
0.3953
0.3977
0.3997
0.4018
0.4040
0.4062
0.4084
0.4107
0.4130
0.4153
0.4177
0.4201
0.4226
0.4251
0.4279
0.4307
0.4336
0.4365
0.4395
0.4425
0.4455
0.4486
0.4518
0.4550
0.4582
0.4615
0.4648
0.4682
0.4717
0.4752
0.4788
0.4825
0.4862
0.4901
0.4939
0.4978
0.5017
0.5057
0.5098
0.5138
0.5180
0.5221
0.5263
0.5305
0.5347
0.5391
0.5434
0.5478
0.5522
0.5567
0.5612
0.5658
0.5704
0.5751
0.5800
0.5849
0.5899
0.5948
0.5998
0.6049
0.6099
0.6151
0.6202
0.6255
0.6312
0.6404
0.6470
0.6510
0.6551
0.6593
0.6637
0.6681
0.6727
0.6775
0.6832
0.6898
0.6918
0.6935
0.6950
0.6964
0.6979
0.6992
0.7005
0.7018
0.7025
0.7034
0.7062
0.7105
0.7131
0.7130
0.7158
0.7187
0.7215
0.7243
0.7271
0.7299
0.7326
0.7354
0.7381
0.7408
0.7436
0.7463
0.7489
0.7516
0.7542
0.7568
0.7594
0.7619
0.7644
0.7669
0.7693
0.7716
0.7739
0.7761
0.7782
0.7801
0.7820
0.7835
0.7847
0.7853
0.7848
0.7854
0.7883
0.7911
0.7940
0.7968
0.7998
0.8027
0.8055
0.8084
0.8112
0.8143
0.8171
0.8200
0.8228
0.8257
0.8286
0.8314
0.8344
0.8376
0.8405
0.8434
0.8464
0.8495
0.8526
0.8559
0.8594
0.8631
0.8662
0.8678
0.8689
0.8700
0.8711
0.8721
0.8732
0.8742
0.8752
0.8762
0.8772
0.8782
0.8792
0.8801
0.8811
0.8820
0.8829
0.8839
0.8848
0.8856
0.8865
0.8874
0.8883
0.8891
0.8899
0.8908
0.8917
0.8924
0.8932
0.8939
0.8946
0.8954
0.8964
0.8971
0.8978
0.8985
0.8992
0.8999
0.9005
0.9013
0.9018
0.9026
0.9032
0.9042
0.9048
0.9054
0.9060
0.9066
0.9072
0.9078
0.9085
0.9090
0.9096
0.9103
0.9109
0.9114
0.9120
0.9125
0.9130
0.9135
0.9142
0.9147
0.9152
0.9157
0.9163
0.9170
0.9174
0.9179
0.9184
0.9188
0.9194
0.9199
0.9205
0.9210
0.9214
0.9218
0.9225
0.9229
0.9236
0.9235
0.9243
0.9247
0.9252
0.9256
0.9266
0.9266
0.9275
0.9279
0.9283
0.9287
0.9288
0.9297
0.9301
0.9305
0.9309
0.9313
0.9317
0.9321
0.9324
0.9328
0.9332
0.9336
0.9340
0.9344
0.9348
0.9352
0.9356
0.9360
0.9364
0.9368
0.9372
0.9376
0.9379
0.9383
0.9387
0.9391
0.9394
0.9398
0.9402
0.9405
0.9408
0.9412
0.9415
0.9419
0.9422
0.9425
0.9428
0.9432
0.9435
0.9438
0.9441
0.9444
0.9447
0.9450
0.9453
0.9457
0.9460
0.9463
0.9466
0.9469
0.9472
0.9475
0.9478
0.9481
0.9484
0.9487
0.9490
0.9493
0.9496
0.9498
0.9501
0.9504
0.9507
0.9509
0.9512
0.9515
0.9517
0.9520
0.9523
0.9525
0.9528
0.9530
0.9533
0.9536
0.9538
0.9541
0.9543
0.9546
0.9548
0.9550
0.9553
0.9555
0.9558
0.9560
0.9562
0.9565
0.9567
0.9570
0.9572
0.9574
0.9577
0.9579
0.9582
0.9584
0.9587
0.9589
0.9591
0.9594
0.9596
0.9599
0.9601
0.9603
0.9606
0.9608
0.9611
0.9613
0.9615
0.9618
0.9620
0.9622
0.9625
0.9627
0.9630
0.9632
0.9634
0.9637
0.9639
0.9641
0.9643
0.9646
0.9648
0.9650
0.9652
0.9655
0.9657
0.9659
0.9661
0.9663
0.9666
0.9668
0.9670
0.9672
0.9674
0.9676
0.9679
0.9681
0.9683
0.9685
0.9687
0.9689
0.9691
0.9693
0.9695
0.9697
0.9699
0.9701
0.9703
0.9705
0.9707
0.9709
0.9711
0.9713
