0.2627
0.2655
0.2684
0.2713
0.2742
0.2770
0.2799
0.2828
0.2856
0.2884
0.2912
0.2940
0.2968
0.2995
0.3021
0.3047
0.3073
0.3098
0.3123
0.3147
0.3171
0.3195
0.3218
0.3241
0.3263
0.3286
0.3308
0.3329
0.3351
0.3373
0.3394
0.3416
0.3437
0.3459
0.3480
0.3501
0.3522
0.3543
0.3564
0.3585
0.3605
0.3625
0.3644
0.3663
0.3682
0.3700
0.3718
0.3736
0.3753
0.3770
0.3797
0.3815
0.3848
0.3882
0.3916
0.3951
0.3986
0.4021
0.4058
0.4095
0.4133
0.4172
0.4212
0.4253
0.4295
0.4338
0.4383
0.4431
0.4475
0.4521
0.4560
0.4583
0.4642
0.4701
0.4762
0.4825
0.4890
0.4958
0.5030
0.5109
0.5170
0.5231
0.5294
0.5357
0.5421
0.5487
0.5551
0.5614
0.5678
0.5740
0.5800
0.5860
0.5921
0.5983
0.6049
0.6117
0.6162
0.6208
0.6255
0.6302
0.6347
0.6389
0.6428
0.6463
0.6497
0.6528
0.6558
0.6588
0.6617
0.6646
0.6674
0.6702
0.6729
0.6757
0.6784
0.6811
0.6837
0.6864
0.6890
0.6917
0.6943
0.6970
0.6996
0.7023
0.7049
0.7075
0.7101
0.7127
0.7153
0.7179
0.7204
0.7230
0.7256
0.7281
0.7307
0.7333
0.7358
0.7384
0.7410
0.7437
0.7464
0.7492
0.7520
0.7548
0.7577
0.7606
0.7637
0.7668
0.7701
0.7744
0.7789
0.7837
0.7889
0.7952
0.7985
0.7996
0.8007
0.8016
0.8024
0.8031
0.8037
0.8042
0.8046
0.8049
0.8047
0.8032
0.8023
0.8035
0.8046
0.8057
0.8068
0.8080
0.8090
0.8101
0.8111
0.8123
0.8134
0.8146
0.8159
0.8173
0.8189
0.8211
0.8216
0.8230
0.8245
0.8259
0.8273
0.8286
0.8300
0.8313
0.8327
0.8339
0.8352
0.8366
0.8382
0.8395
0.8407
0.8419
0.8431
0.8445
0.8457
0.8469
0.8492
0.8504
0.8515
0.8527
0.8538
0.8549
0.8560
0.8571
0.8582
0.8592
0.8603
0.8613
0.8624
0.8634
0.8644
0.8654
0.8664
0.8674
0.8684
0.8694
0.8703
0.8712
0.8722
0.8731
0.8740
0.8749
0.8758
0.8767
0.8773
0.8782
0.8793
0.8799
0.8806
0.8812
0.8825
0.8832
0.8841
0.8848
0.8858
0.8864
0.8870
0.8877
0.8888
0.8894
0.8900
0.8905
0.8916
0.8922
0.8927
0.8940
0.8946
0.8951
0.8957
0.8962
0.8968
0.8980
0.8985
0.8990
0.8996
0.9002
0.9006
0.9012
0.9017
0.9023
0.9029
0.9034
0.9039
0.9045
0.9051
0.9056
0.9062
0.9066
0.9072
0.9077
0.9082
0.9087
0.9093
0.9098
0.9102
0.9107
0.9112
0.9118
0.9123
0.9128
0.9133
0.9138
0.9143
0.9149
0.9154
0.9159
0.9165
0.9170
0.9175
0.9181
0.9186
0.9191
0.9196
0.9201
0.9206
0.9211
0.9216
0.9221
0.9226
0.9230
0.9235
0.9239
0.9245
0.9249
0.9253
0.9260
0.9264
0.9269
0.9274
0.9278
0.9283
0.9287
0.9291
0.9296
0.9300
0.9305
0.9309
0.9313
0.9318
0.9322
0.9326
0.9330
0.9334
0.9338
0.9343
0.9347
0.9351
0.9355
0.9359
0.9363
0.9367
0.9371
0.9374
0.9378
0.9382
0.9386
0.9390
0.9393
0.9397
0.9401
0.9405
0.9408
0.9412
0.9416
0.9419
0.9423
0.9427
0.9430
0.9434
0.9437
0.9441
0.9444
0.9448
0.9451
0.9455
0.9458
0.9462
0.9465
0.9469
0.9472
0.9475
0.9478
0.9482
0.9485
0.9489
0.9492
0.9495
0.9499
0.9502
0.9506
0.9509
0.9512
0.9516
0.9519
0.9522
0.9526
0.9529
0.9532
0.9536
0.9539
0.9542
0.9545
0.9548
0.9551
0.9554
0.9557
0.9560
0.9563
0.9566
0.9569
0.9572
0.9575
0.9578
0.9581
