0.5701
0.5696
0.5693
0.5691
0.5692
0.5694
0.5698
0.5702
0.5707
0.5712
0.5718
0.5724
0.5730
0.5735
0.5741
0.5746
0.5751
0.5756
0.5761
0.5765
0.5769
0.5779
0.5790
0.5802
0.5813
0.5825
0.5837
0.5846
0.5855
0.5865
0.5874
0.5884
0.5894
0.5904
0.5915
0.5925
0.5936
0.5947
0.5958
0.5969
0.5980
0.5992
0.6003
0.6016
0.6028
0.6041
0.6054
0.6069
0.6085
0.6102
0.6124
0.6140
0.6147
0.6153
0.6161
0.6169
0.6178
0.6188
0.6199
0.6212
0.6227
0.6244
0.6267
0.6297
0.6343
0.6445
0.6670
0.6919
0.6809
0.6623
0.6375
0.6125
0.6034
0.6181
0.6435
0.6659
0.6817
0.6920
0.6821
0.6790
0.6760
0.6730
0.6700
0.6668
0.6633
0.6596
0.6555
0.6510
0.6461
0.6407
0.6344
0.6266
0.6178
0.6096
0.6026
0.5970
0.5920
0.5875
0.5834
0.5799
0.5767
0.5740
0.5715
0.5694
0.5676
0.5662
0.5649
0.5640
0.5634
0.5631
0.5631
0.5636
0.5646
0.5662
0.5690
0.5756
0.5742
0.5731
0.5721
0.5713
0.5708
0.5704
0.5702
0.5702
0.5703
0.5707
0.5712
0.5720
0.5729
0.5740
0.5753
0.5768
0.5785
0.5804
0.5825
0.5848
0.5873
0.5898
0.5923
0.5948
0.5974
0.5999
0.6024
0.6049
0.6077
0.6105
0.6131
0.6156
0.6182
0.6207
0.6231
0.6255
0.6278
0.6298
0.6315
0.6328
0.6341
0.6366
0.6390
0.6415
0.6442
0.6471
0.6502
0.6538
0.6576
0.6616
0.6659
0.6704
0.6758
0.6798
0.6821
0.6845
0.6870
0.6896
0.6923
0.6951
0.6980
0.7010
0.7041
0.7073
0.7106
0.7140
0.7175
0.7210
0.7247
0.7284
0.7322
0.7362
0.7402
0.7442
0.7484
0.7526
0.7569
0.7613
0.7658
0.7703
0.7749
0.7796
0.7844
0.7893
0.7943
0.7994
0.8046
0.8099
0.8153
0.8208
0.8264
0.8322
0.8380
0.8438
0.8495
0.8552
0.8609
0.8665
0.8722
0.8779
0.8837
0.8898
0.8962
0.9030
0.9108
0.9215
0.9290
0.9316
0.9344
0.9377
0.9424
0.9452
0.9457
0.9463
0.9467
0.9472
0.9476
0.9480
0.9484
0.9487
0.9490
0.9493
0.9496
0.9498
0.9500
0.9501
0.9502
0.9503
0.9503
0.9502
0.9501
0.9500
0.9498
0.9495
0.9492
0.9488
0.9483
0.9495
0.9501
0.9506
0.9511
0.9516
0.9521
0.9526
0.9531
0.9536
0.9541
0.9545
0.9550
0.9554
0.9559
0.9563
0.9567
0.9572
0.9576
0.9580
0.9584
0.9588
0.9592
0.9596
0.9600
0.9604
0.9607
0.9611
0.9615
0.9618
0.9622
0.9625
0.9629
0.9632
0.9635
0.9639
0.9642
0.9645
0.9648
0.9651
0.9654
0.9657
0.9660
0.9663
0.9666
0.9669
0.9672
0.9675
0.9678
0.9680
0.9683
0.9686
0.9688
0.9691
0.9694
0.9696
0.9699
0.9701
0.9703
0.9706
0.9708
0.9711
0.9713
0.9715
0.9717
0.9720
0.9722
0.9724
0.9726
0.9728
0.9730
0.9732
0.9735
0.9736
0.9738
0.9740
0.9742
0.9744
0.9745
0.9748
0.9749
0.9751
0.9752
0.9754
0.9755
0.9759
0.9760
0.9761
0.9762
0.9764
0.9766
0.9767
0.9769
0.9770
0.9771
0.9773
0.9774
0.9776
0.9776
0.9778
0.9779
0.9781
0.9782
0.9784
0.9786
0.9787
0.9789
0.9790
0.9792
0.9792
0.9793
0.9795
0.9797
0.9798
0.9800
0.9801
0.9802
0.9804
0.9804
0.9805
0.9806
0.9808
0.9809
0.9811
0.9812
0.9814
0.9815
0.9817
0.9818
0.9819
0.9821
0.9822
0.9824
0.9825
0.9826
0.9827
0.9829
0.9830
0.9831
0.9832
0.9833
0.9835
0.9836
0.9837
0.9838
0.9839
0.9840
0.9841
