0.5327
0.5281
0.5230
0.5174
0.5111
0.5043
0.4973
0.4902
0.4831
0.4760
0.4689
0.4619
0.4550
0.4483
0.4419
0.4356
0.4297
0.4241
0.4189
0.4140
0.4096
0.4055
0.4019
0.3988
0.3960
0.3936
0.3915
0.3896
0.3879
0.3863
0.3847
0.3830
0.3811
0.3790
0.3764
0.3729
0.3691
0.3653
0.3612
0.3568
0.3517
0.3459
0.3397
0.3331
0.3265
0.3198
0.3132
0.3069
0.3010
0.2954
0.2903
0.2856
0.2815
0.2780
0.2748
0.2723
0.2702
0.2687
0.2677
0.2672
0.2671
0.2673
0.2681
0.2697
0.2723
0.2758
0.2801
0.2853
0.2892
0.2908
0.2910
0.2883
0.2812
0.2565
0.2535
0.2447
0.2287
0.2239
0.2162
0.2171
0.2138
0.2120
0.2115
0.2119
0.2132
0.2150
0.2174
0.2203
0.2237
0.2276
0.2320
0.2369
0.2427
0.2496
0.2599
0.2679
0.2708
0.2737
0.2768
0.2800
0.2833
0.2868
0.2904
0.2940
0.2978
0.3017
0.3057
0.3099
0.3141
0.3184
0.3228
0.3273
0.3319
0.3366
0.3414
0.3463
0.3513
0.3564
0.3616
0.3669
0.3723
0.3778
0.3834
0.3890
0.3948
0.4006
0.4065
0.4126
0.4187
0.4249
0.4312
0.4376
0.4441
0.4507
0.4574
0.4642
0.4712
0.4783
0.4855
0.4929
0.5005
0.5083
0.5163
0.5245
0.5329
0.5413
0.5496
0.5579
0.5662
0.5745
0.5829
0.5915
0.6005
0.6101
0.6212
0.6291
0.6375
0.6466
0.6569
0.6728
0.6780
0.6834
0.6890
0.6948
0.7011
0.7077
0.7152
0.7248
0.7304
0.7361
0.7419
0.7478
0.7538
0.7598
0.7660
0.7722
0.7785
0.7850
0.7916
0.7984
0.8056
0.8132
0.8214
0.8309
0.8408
0.8451
0.8491
0.8529
0.8568
0.8607
0.8652
0.8690
0.8712
0.8733
0.8755
0.8777
0.8799
0.8820
0.8842
0.8865
0.8887
0.8908
0.8932
0.8955
0.8978
0.9001
0.9024
0.9049
0.9074
0.9098
0.9126
0.9154
0.9183
0.9213
0.9244
0.9266
0.9284
0.9300
0.9315
0.9329
0.9346
0.9360
0.9374
0.9389
0.9406
0.9423
0.9427
0.9432
0.9436
0.9444
0.9448
0.9452
0.9457
0.9461
0.9465
0.9468
0.9476
0.9480
0.9484
0.9487
0.9491
0.9495
0.9498
0.9502
0.9505
0.9508
0.9512
0.9515
0.9519
0.9522
0.9525
0.9528
0.9531
0.9535
0.9538
0.9541
0.9544
0.9548
0.9551
0.9554
0.9557
0.9560
0.9563
0.9566
0.9569
0.9572
0.9575
0.9577
0.9581
0.9583
0.9586
0.9588
0.9591
0.9594
0.9597
0.9598
0.9602
0.9604
0.9607
0.9609
0.9612
0.9615
0.9616
0.9619
0.9622
0.9625
0.9626
0.9629
0.9632
0.9634
0.9637
0.9640
0.9642
0.9645
0.9647
0.9649
0.9652
0.9654
0.9656
0.9659
0.9661
0.9663
0.9666
0.9668
0.9670
0.9672
0.9674
0.9676
0.9679
0.9680
0.9682
0.9685
0.9687
0.9689
0.9691
0.9693
0.9695
0.9697
0.9699
0.9701
0.9703
0.9705
0.9706
0.9708
0.9710
0.9712
0.9713
0.9715
0.9717
0.9718
0.9720
0.9721
0.9723
0.9725
0.9726
0.9723
0.9725
0.9727
0.9728
0.9730
0.9731
0.9733
0.9734
0.9736
0.9737
0.9739
0.9740
0.9742
0.9743
0.9745
0.9746
0.9747
0.9749
0.9750
0.9751
0.9753
0.9754
0.9755
0.9757
0.9758
0.9759
0.9760
0.9762
0.9763
0.9764
0.9765
0.9766
0.9768
0.9769
0.9770
0.9771
0.9772
0.9773
0.9774
0.9776
0.9777
0.9778
0.9779
0.9780
0.9781
0.9783
0.9784
0.9785
0.9786
0.9787
0.9788
0.9789
0.9790
0.9791
0.9793
0.9794
0.9795
0.9796
0.9797
0.9798
0.9799
0.9800
0.9801
0.9802
0.9803
