0.5226
0.5260
0.5301
0.5345
0.5390
0.5438
0.5507
0.5573
0.5635
0.5693
0.5750
0.5805
0.5860
0.5914
0.5967
0.6019
0.6071
0.6123
0.6173
0.6222
0.6271
0.6319
0.6365
0.6412
0.6457
0.6501
0.6545
0.6587
0.6629
0.6670
0.6709
0.6748
0.6786
0.6824
0.6861
0.6897
0.6933
0.6967
0.7001
0.7035
0.7066
0.7098
0.7127
0.7155
0.7177
0.7188
0.7202
0.7213
0.7213
0.7228
0.7240
0.7252
0.7262
0.7271
0.7279
0.7285
0.7290
0.7292
0.7294
0.7294
0.7291
0.7288
0.7282
0.7275
0.7266
0.7255
0.7243
0.7229
0.7214
0.7198
0.7180
0.7162
0.7143
0.7124
0.7105
0.7085
0.7074
0.7067
0.7058
0.7047
0.7035
0.7020
0.6988
0.6950
0.6911
0.6923
0.6930
0.6936
0.6943
0.6951
0.6958
0.6966
0.6974
0.6983
0.6991
0.7000
0.7009
0.7019
0.7029
0.7039
0.7050
0.7060
0.7071
0.7083
0.7095
0.7107
0.7119
0.7131
0.7144
0.7157
0.7171
0.7185
0.7200
0.7214
0.7229
0.7243
0.7257
0.7271
0.7285
0.7298
0.7311
0.7324
0.7337
0.7350
0.7363
0.7375
0.7391
0.7405
0.7416
0.7426
0.7434
0.7439
0.7440
0.7427
0.7460
0.7484
0.7509
0.7537
0.7564
0.7593
0.7622
0.7651
0.7673
0.7695
0.7717
0.7740
0.7763
0.7785
0.7808
0.7831
0.7854
0.7878
0.7901
0.7925
0.7948
0.7973
0.7997
0.8021
0.8046
0.8070
0.8095
0.8120
0.8146
0.8172
0.8197
0.8224
0.8250
0.8278
0.8305
0.8333
0.8362
0.8391
0.8421
0.8452
0.8482
0.8513
0.8544
0.8573
0.8602
0.8628
0.8657
0.8682
0.8711
0.8735
0.8760
0.8790
0.8815
0.8841
0.8875
0.8904
0.8936
0.8978
0.9038
0.9072
0.9081
0.9087
0.9096
0.9101
0.9112
0.9116
0.9123
0.9127
0.9137
0.9141
0.9145
0.9153
0.9161
0.9165
0.9169
0.9177
0.9180
0.9186
0.9190
0.9198
0.9201
0.9209
0.9213
0.9217
0.9221
0.9224
0.9230
0.9234
0.9237
0.9244
0.9247
0.9251
0.9254
0.9258
0.9262
0.9265
0.9270
0.9273
0.9279
0.9283
0.9286
0.9289
0.9292
0.9296
0.9299
0.9303
0.9306
0.9310
0.9313
0.9316
0.9321
0.9324
0.9327
0.9331
0.9334
0.9337
0.9340
0.9343
0.9346
0.9349
0.9352
0.9355
0.9358
0.9361
0.9364
0.9367
0.9370
0.9373
0.9381
0.9383
0.9386
0.9389
0.9392
0.9395
0.9397
0.9400
0.9403
0.9406
0.9409
0.9412
0.9414
0.9417
0.9420
0.9423
0.9425
0.9428
0.9431
0.9434
0.9436
0.9439
0.9442
0.9444
0.9447
0.9450
0.9452
0.9455
0.9458
0.9460
0.9463
0.9466
0.9468
0.9471
0.9474
0.9476
0.9479
0.9482
0.9484
0.9487
0.9489
0.9492
0.9494
0.9497
0.9500
0.9502
0.9505
0.9507
0.9510
0.9513
0.9515
0.9517
0.9520
0.9522
0.9525
0.9528
0.9530
0.9533
0.9535
0.9538
0.9541
0.9543
0.9546
0.9549
0.9551
0.9554
0.9557
0.9558
0.9560
0.9563
0.9566
0.9568
0.9571
0.9574
0.9577
0.9579
0.9582
0.9585
0.9587
0.9590
0.9593
0.9596
0.9598
0.9601
0.9604
0.9606
0.9609
0.9612
0.9615
0.9617
0.9620
0.9623
0.9626
0.9629
0.9632
0.9635
0.9637
0.9640
0.9643
0.9646
0.9649
0.9652
0.9655
0.9657
0.9660
0.9663
0.9666
0.9669
0.9672
0.9675
0.9677
0.9680
0.9683
0.9686
0.9689
0.9692
0.9695
0.9698
0.9700
0.9703
0.9706
0.9709
0.9712
0.9715
0.9718
0.9721
0.9723
0.9726
0.9729
0.9732
0.9735
0.9738
0.9741
0.9744
0.9746
0.9749
0.9752
0.9754
