Angle 0.216129 2.522548

4.00000 7.03348 4.00000
4.00000 7.03348 4.00000
4.00000 7.03348 4.00000
4.00000 7.03348 4.00000
4.00000 7.03348 4.00000
4.00000 7.03348 4.00000
4.00000 7.03348 4.00000
4.00000 7.03348 4.00000
4.00000 7.03348 4.00000
4.00000 7.03348 4.00000
4.00000 7.03348 4.00000
4.00000 7.03348 4.00000
4.00000 7.03348 4.00000
4.00000 7.03348 4.00000
4.00000 7.03348 4.00000
4.00000 7.03348 4.00000
4.00000 7.03348 4.00000
4.00000 7.03348 4.00000
4.00000 7.03348 4.00000
4.00000 7.03348 4.00000
4.00000 7.03348 4.00000
4.00000 7.03348 4.00000
4.00000 7.03348 4.00000
4.00000 7.03348 4.00000
4.00000 7.03348 4.00000
4.00000 7.03348 4.00000
4.00000 7.03348 4.00000
4.00000 7.03348 4.00000
4.00000 7.03348 4.00000
4.00000 7.03348 4.00000
4.00000 7.03348 4.00000
4.00000 7.03348 4.00000
4.00000 7.03348 4.00000
4.00000 7.03348 4.00000
4.00000 7.03348 4.00000
4.00000 7.03348 4.00000
4.00000 7.03348 4.00000
4.00000 7.03348 4.00000
4.00000 7.03348 4.00000
4.00000 7.03348 4.00000
4.00000 7.03348 4.00000
4.00000 7.03348 4.00000
4.00000 7.03348 4.00000
4.00000 7.03348 4.00000
4.00000 7.03348 4.00000
4.00000 7.03348 4.00000
4.00000 7.03348 4.00000
4.00000 7.03348 4.00000
4.00000 7.03348 4.00000
4.00000 7.03348 4.00000
4.00000 7.03348 4.00000
4.00000 7.03348 4.00000
4.00000 7.03348 4.00000
4.00000 7.03348 4.00000
4.00000 7.03348 4.00000
4.00000 7.03348 4.00000
4.00000 7.03348 4.00000
4.00000 7.03348 4.00000
4.00000 7.03348 4.00000
4.00000 7.03348 4.00000
4.00000 7.03348 4.00000
4.00000 7.03348 4.00000
4.00000 7.03348 4.00000
4.00000 7.03348 4.00000
4.00000 7.03348 4.00000
4.00000 7.03348 4.00000
4.00000 7.03348 4.00000
4.00000 7.03348 4.00000
4.00000 7.03348 4.00000
4.00000 7.03348 4.00000
4.00000 7.03348 4.00000
4.00000 7.03348 4.00000
4.00000 7.03348 4.00000
4.00000 7.03348 4.00000
4.00000 7.03348 4.00000
4.00000 7.03348 4.00000
4.00000 7.03348 4.00000
4.00000 7.03348 4.00000
4.00000 7.03348 4.00000
4.00000 7.03348 4.00000
4.00000 7.03348 4.00000
4.00000 7.03348 4.00000
4.00000 7.03348 4.00000
4.00000 7.03348 4.00000
4.00000 7.03348 4.00000
4.00000 7.03348 4.00000
4.00000 7.03348 4.00000
4.00000 7.03348 4.00000
4.00000 7.03348 4.00000
4.00000 7.03348 4.00000
4.00000 7.03348 4.00000
4.00000 7.03348 4.00000
4.00000 7.03348 4.00000
4.00000 7.03348 4.00000
4.00000 7.03348 4.00000
4.00000 7.03348 4.00000
4.00000 7.03348 4.00000
4.00000 7.03348 4.00000
4.00000 7.03348 4.00000
4.00000 7.03348 4.00000
4.00000 7.03348 4.00000
4.00000 7.03348 4.00000
4.00000 7.03348 4.00000
4.00000 7.03348 4.00000
4.00000 7.03348 4.00000
4.00000 7.03348 4.00000
4.00000 7.03348 4.00000
4.00000 7.03348 4.00000
4.00000 7.03348 4.00000
4.00000 7.03348 4.00000
4.00000 7.03348 4.00000
4.00000 7.03348 4.00000
4.00000 7.03348 4.00000
4.00000 7.03348 4.00000
4.00000 7.03348 4.00000
4.00000 7.03348 4.00000
4.00000 7.03348 4.00000
4.00000 7.03348 4.00000
4.00000 7.03348 4.00000
4.00000 7.03348 4.00000
4.00000 7.03348 4.00000
4.00000 7.03348 4.00000
4.00000 7.03348 4.00000
4.00000 7.03348 4.00000
4.00000 7.03348 4.00000
4.00000 7.03348 4.00000
4.00000 7.03348 4.00000
4.00000 7.03348 4.00000
4.00000 7.03348 4.00000
4.00000 7.03348 4.00000
4.00000 7.03348 4.00000
4.00000 7.03348 4.00000
4.00000 7.03348 4.00000
4.00000 7.03348 4.00000
4.00000 7.03348 4.00000
4.00000 7.03348 4.00000
4.00000 7.03348 4.00000
4.00000 7.03348 4.00000
4.00000 7.03348 4.00000
4.00000 7.03348 4.00000
4.00000 7.03348 4.00000
4.00000 7.03348 4.00000
4.00000 7.03348 4.00000
4.00000 7.03348 4.00000
4.00000 7.03348 4.00000
4.00000 7.03348 4.00000
4.00000 7.03348 4.00000
4.00000 7.03348 4.00000
4.00000 7.03348 4.00000
4.00000 7.03348 4.00000
4.00000 7.03348 4.00000
4.00000 7.03348 4.00000
4.00000 7.03348 4.00000
4.00000 7.03348 4.00000
4.00000 7.03348 4.00000
4.00000 7.03348 4.00000
4.00000 7.03348 4.00000
4.00000 7.03348 4.00000
4.00000 7.03348 4.00000
4.00000 7.03348 4.00000
4.00000 7.03348 4.00000
4.00000 7.03348 4.00000
4.00000 7.03348 4.00000
4.00000 7.03348 4.00000
4.00000 7.03348 4.00000
4.00000 7.03348 4.00000
4.00000 7.03348 4.00000
4.00000 7.03348 4.00000
4.00000 7.03348 4.00000
4.00000 7.03348 4.00000
4.00000 7.03348 4.00000
4.00000 7.03348 4.00000
4.00000 7.03348 4.00000
4.00000 7.03348 4.00000
4.00000 7.03348 4.00000
4.00000 7.03348 4.00000
4.00000 7.03348 4.00000
4.00000 7.03348 4.00000
4.00000 7.03348 4.00000
4.00000 7.03348 4.00000
4.00000 7.03348 4.00000
4.00000 7.03348 4.00000
4.00000 7.03348 4.00000
4.00000 7.03348 4.00000
4.00000 7.03348 4.00000
4.00000 7.03348 4.00000
4.00000 7.03348 4.00000
4.00000 7.03348 4.00000
4.00000 7.03348 4.00000
4.00000 7.03348 4.00000
4.00000 7.03348 4.00000
4.00000 7.03348 4.00000
4.00000 7.03348 4.00000
4.00000 7.03348 4.00000
4.00000 7.03348 4.00000
4.00000 7.03348 4.00000
4.00000 7.03348 4.00000
4.00000 7.03348 4.00000
4.00000 7.03348 4.00000
4.00000 7.03348 4.00000
4.00000 7.03348 4.00000
4.00000 7.03348 4.00000
4.00000 7.03348 4.00000
4.00000 7.03348 4.00000
4.00000 7.03348 4.00000
4.00000 7.03348 4.00000
4.00000 7.03348 4.00000
4.00000 7.03348 4.00000
4.00000 7.03348 4.00000
4.00000 7.03348 4.00000
4.00000 7.03348 4.00000
4.00000 7.03348 4.00000
4.00000 7.03348 4.00000
4.00000 7.03348 4.00000
4.00000 7.03348 4.00000
4.00000 7.03348 4.00000
4.00000 7.03348 4.00000
4.00000 7.03348 4.00000
4.00000 7.03348 4.00000
4.00000 7.03348 4.00000
4.00000 7.03348 4.00000
4.00000 7.03348 4.00000
4.00000 7.03348 4.00000
4.00000 7.03348 4.00000
4.00000 7.03348 4.00000
4.00000 7.03348 4.00000
4.00000 7.03348 4.00000
4.00000 7.03348 4.00000
4.00000 7.03348 4.00000
4.00000 7.03348 4.00000
4.00000 7.03348 4.00000
4.00000 7.03348 4.00000
4.00000 7.03348 4.00000
4.00000 7.03348 4.00000
4.00000 7.03348 4.00000
4.00000 7.03348 4.00000
4.00000 7.03348 4.00000
4.00000 7.03348 4.00000
4.00000 7.03348 4.00000
4.00000 7.03348 4.00000
4.00000 7.03348 4.00000
4.00000 7.03348 4.00000
4.00000 7.03348 4.00000
4.00000 7.03348 4.00000
4.00000 7.03350 4.00000
4.00000 7.03349 4.00000
4.00004 7.03468 4.00004
4.00229 7.11231 4.00229
4.00451 7.19029 4.00451
4.00668 7.26845 4.00668
4.00881 7.34676 4.00881
4.01093 7.42521 4.01093
4.01303 7.50377 4.01303
4.01513 7.58243 4.01512
4.01723 7.66116 4.01723
4.01934 7.73995 4.01934
4.02149 7.81876 4.02149
4.02367 7.89757 4.02367
4.02591 7.97637 4.02591
4.02821 8.05510 4.02821
4.03060 8.13374 4.03060
4.03310 8.21224 4.03310
4.03573 8.29055 4.03573
4.03852 8.36861 4.03852
4.04152 8.44634 4.04152
4.04477 8.52363 4.04477
4.04833 8.60036 4.04833
4.05229 8.67638 4.05229
4.05665 8.75166 4.05665
4.06140 8.82622 4.06140
4.06657 8.90001 4.06657
4.07219 8.97296 4.07219
4.07829 9.04503 4.07829
4.08487 9.11620 4.08487
4.09194 9.18645 4.09194
4.09949 9.25581 4.09949
4.10747 9.32435 4.10747
4.11583 9.39220 4.11583
4.12447 9.45956 4.12447
4.13324 9.52670 4.13324
4.14196 9.59401 4.14196
4.15038 9.66198 4.15038
4.15818 9.73124 4.15818
4.16498 9.80255 4.16498
4.17034 9.87680 4.17034
4.17378 9.95494 4.17378
4.17487 10.03784 4.17487
4.17359 10.12554 4.17359
4.17139 10.21512 4.17139
4.16859 10.30595 4.16859
4.16522 10.39797 4.16522
4.16127 10.49119 4.16127
4.15675 10.58562 4.15675
4.15161 10.68132 4.15161
4.14581 10.77839 4.14581
4.13927 10.87699 4.13927
4.13188 10.97734 4.13188
4.12348 11.07977 4.12348
4.11382 11.18473 4.11382
4.10256 11.29295 4.10256
4.08912 11.40559 4.08912
4.07260 11.52442 4.07260
4.05165 11.65215 4.05165
4.02314 11.79504 4.02314
4.00000 13.19120 4.00000
4.00000 13.19120 4.00000
4.00000 13.19120 4.00000
4.00000 13.19120 4.00000
4.00000 13.19120 4.00000
4.00000 13.19120 4.00000
4.00000 13.19120 4.00000
4.00000 13.19120 4.00000
4.00000 13.19120 4.00000
4.00000 13.19120 4.00000
4.00000 13.19120 4.00000
4.00000 13.19120 4.00000
4.00000 13.19120 4.00000
4.00000 13.19120 4.00000
4.00000 13.19120 4.00000
4.00392 13.21275 4.00392
4.01415 13.27881 4.01415
4.02243 13.34881 4.02242
4.02879 13.42264 4.02879
4.03332 13.50021 4.03332
4.03609 13.58131 4.03609
4.03767 13.66483 4.03767
4.03917 13.74854 4.03917
4.04063 13.83235 4.04063
4.04206 13.91627 4.04206
4.04346 14.00027 4.04346
4.04483 14.08435 4.04483
4.04618 14.16851 4.04618
4.04751 14.25273 4.04751
4.04883 14.33702 4.04883
4.05013 14.42137 4.05013
4.05141 14.50578 4.05141
4.05268 14.59023 4.05268
4.05395 14.67474 4.05395
4.05520 14.75929 4.05520
4.05644 14.84389 4.05644
4.05768 14.92853 4.05768
4.05891 15.01321 4.05891
4.06013 15.09793 4.06013
4.06121 15.18297 4.06121
4.06208 15.26844 4.06208
4.06275 15.35433 4.06275
4.06325 15.44061 4.06325
4.06357 15.52725 4.06357
4.06374 15.61423 4.06374
4.06376 15.70153 4.06376
4.06365 15.78912 4.06365
4.06342 15.87697 4.06342
4.06307 15.96508 4.06307
4.06262 16.05341 4.06262
4.06208 16.14195 4.06208
4.06146 16.23068 4.06146
4.06076 16.31958 4.06076
4.06000 16.40863 4.06000
4.05917 16.49782 4.05918
4.05830 16.58713 4.05830
4.05739 16.67655 4.05739
4.05644 16.76606 4.05644
4.05545 16.85567 4.05545
4.05444 16.94534 4.05444
4.05341 17.03508 4.05341
4.05236 17.12487 4.05236
4.05130 17.21471 4.05130
4.05023 17.30458 4.05023
4.04915 17.39449 4.04915
4.04807 17.48442 4.04807
4.04700 17.57437 4.04700
4.04592 17.66433 4.04592
4.04485 17.75431 4.04485
4.04378 17.84429 4.04378
4.04273 17.93426 4.04273
4.04168 18.02424 4.04168
4.04065 18.11421 4.04065
4.03963 18.20418 4.03963
4.03862 18.29413 4.03862
4.03763 18.38408 4.03763
4.03666 18.47401 4.03665
4.03570 18.56392 4.03569
4.03475 18.65382 4.03475
4.03383 18.74370 4.03383
4.03292 18.83356 4.03292
4.03203 18.92340 4.03203
4.03115 19.01322 4.03116
4.03030 19.10303 4.03030
4.02946 19.19281 4.02947
4.02865 19.28257 4.02865
4.02785 19.37231 4.02785
4.02707 19.46203 4.02707
4.02631 19.55173 4.02631
4.02556 19.64140 4.02556
4.02483 19.73106 4.02483
4.02412 19.82070 4.02413
4.02343 19.91031 4.02343
4.02276 19.99991 4.02276
4.02210 20.08949 4.02210
4.02146 20.17905 4.02146

Angle 0.028485 1.962602

4.00000 7.03348 4.00000
4.00000 7.03348 4.00000
4.00000 7.03348 4.00000
4.00000 7.03348 4.00000
4.00000 7.03348 4.00000
4.00000 7.03348 4.00000
4.00000 7.03348 4.00000
4.00000 7.03348 4.00000
4.00000 7.03348 4.00000
4.00000 7.03348 4.00000
4.00000 7.03348 4.00000
4.00000 7.03348 4.00000
4.00000 7.03348 4.00000
4.00000 7.03348 4.00000
4.00000 7.03348 4.00000
4.00000 7.03348 4.00000
4.00000 7.03348 4.00000
4.00000 7.03348 4.00000
4.00000 7.03348 4.00000
4.00000 7.03348 4.00000
4.00000 7.03348 4.00000
4.00000 7.03348 4.00000
4.00000 7.03348 4.00000
4.00000 7.03348 4.00000
4.00000 7.03348 4.00000
4.00000 7.03348 4.00000
4.00000 7.03348 4.00000
4.00000 7.03348 4.00000
4.00000 7.03348 4.00000
4.00000 7.03348 4.00000
4.00000 7.03348 4.00000
4.00000 7.03348 4.00000
4.00000 7.03348 4.00000
4.00000 7.03348 4.00000
4.00000 7.03348 4.00000
4.00000 7.03348 4.00000
4.00000 7.03348 4.00000
4.00000 7.03348 4.00000
4.00000 7.03348 4.00000
4.00000 7.03348 4.00000
4.00000 7.03348 4.00000
4.00000 7.03348 4.00000
4.00000 7.03348 4.00000
4.00000 7.03348 4.00000
4.00000 7.03348 4.00000
4.00000 7.03348 4.00000
4.00000 7.03348 4.00000
4.00000 7.03348 4.00000
4.00000 7.03348 4.00000
4.00000 7.03348 4.00000
4.00000 7.03348 4.00000
4.00000 7.03348 4.00000
4.00000 7.03348 4.00000
4.00000 7.03348 4.00000
4.00000 7.03348 4.00000
4.00000 7.03348 4.00000
4.00000 7.03348 4.00000
4.00000 7.03348 4.00000
4.00000 7.03348 4.00000
4.00000 7.03348 4.00000
4.00000 7.03348 4.00000
4.00000 7.03348 4.00000
4.00000 7.03348 4.00000
4.00000 7.03348 4.00000
4.00000 7.03348 4.00000
4.00000 7.03348 4.00000
4.00000 7.03348 4.00000
4.00000 7.03348 4.00000
4.00000 7.03348 4.00000
4.00000 7.03348 4.00000
4.00000 7.03348 4.00000
4.00000 7.03348 4.00000
4.00000 7.03348 4.00000
4.00000 7.03348 4.00000
4.00000 7.03348 4.00000
4.00000 7.03348 4.00000
4.00000 7.03348 4.00000
4.00000 7.03348 4.00000
4.00000 7.03348 4.00000
4.00000 7.03348 4.00000
4.00000 7.03348 4.00000
4.00000 7.03348 4.00000
4.00000 7.03348 4.00000
4.00000 7.03348 4.00000
4.00000 7.03348 4.00000
4.00000 7.03348 4.00000
4.00000 7.03348 4.00000
4.00000 7.03348 4.00000
4.00000 7.03348 4.00000
4.00000 7.03348 4.00000
4.00000 7.03348 4.00000
4.00000 7.03348 4.00000
4.00000 7.03348 4.00000
4.00000 7.03348 4.00000
4.00000 7.03348 4.00000
4.00000 7.03348 4.00000
4.00000 7.03348 4.00000
4.00000 7.03348 4.00000
4.00000 7.03348 4.00000
4.00000 7.03348 4.00000
4.00000 7.03348 4.00000
4.00000 7.03348 4.00000
4.00000 7.03348 4.00000
4.00000 7.03348 4.00000
4.00000 7.03348 4.00000
4.00000 7.03348 4.00000
4.00000 7.03348 4.00000
4.00000 7.03348 4.00000
4.00000 7.03348 4.00000
4.00000 7.03348 4.00000
4.00000 7.03348 4.00000
4.00000 7.03348 4.00000
4.00000 7.03348 4.00000
4.00000 7.03348 4.00000
4.00000 7.03348 4.00000
4.00000 7.03348 4.00000
4.00000 7.03348 4.00000
4.00000 7.03348 4.00000
4.00000 7.03348 4.00000
4.00000 7.03348 4.00000
4.00000 7.03348 4.00000
4.00000 7.03348 4.00000
4.00000 7.03348 4.00000
4.00000 7.03348 4.00000
4.00000 7.03348 4.00000
4.00000 7.03348 4.00000
4.00000 7.03348 4.00000
4.00000 7.03347 4.00000
4.00000 7.03347 4.00000
4.00000 7.03348 4.00000
4.00000 7.03348 4.00000
4.00000 7.03348 4.00000
4.00000 7.03348 4.00000
4.00000 7.03348 4.00000
4.00000 7.03348 4.00000
4.00000 7.03348 4.00000
4.00000 7.03348 4.00000
4.00000 7.03348 4.00000
4.00000 7.03348 4.00000
4.00000 7.03348 4.00000
4.00000 7.03348 4.00000
4.00000 7.03348 4.00000
4.00000 7.03348 4.00000
4.00000 7.03348 4.00000
4.00000 7.03348 4.00000
4.00000 7.03348 4.00000
4.00000 7.03348 4.00000
4.00000 7.03348 4.00000
4.00000 7.03348 4.00000
4.00000 7.03348 4.00000
4.00000 7.03348 4.00000
4.00000 7.03348 4.00000
4.00000 7.03348 4.00000
4.00000 7.03348 4.00000
4.00000 7.03348 4.00000
4.00000 7.03348 4.00000
4.00000 7.03348 4.00000
4.00000 7.03348 4.00000
4.00000 7.03348 4.00000
4.00000 7.03348 4.00000
4.00000 7.03348 4.00000
4.00000 7.03348 4.00000
4.00000 7.03348 4.00000
4.00000 7.03348 4.00000
4.00000 7.03348 4.00000
4.00000 7.03348 4.00000
4.00000 7.03348 4.00000
4.00000 7.03348 4.00000
4.00000 7.03348 4.00000
4.00000 7.03348 4.00000
4.00000 7.03348 4.00000
4.00000 7.03348 4.00000
4.00000 7.03348 4.00000
4.00000 7.03348 4.00000
4.00000 7.03348 4.00000
4.00000 7.03348 4.00000
4.00000 7.03348 4.00000
4.00000 7.03348 4.00000
4.00000 7.03348 4.00000
4.00000 7.03348 4.00000
4.00000 7.03348 4.00000
4.00000 7.03348 4.00000
4.00000 7.03348 4.00000
4.00000 7.03348 4.00000
4.00000 7.03348 4.00000
4.00000 7.03348 4.00000
4.00000 7.03348 4.00000
4.00000 7.03348 4.00000
4.00000 7.03348 4.00000
4.00000 7.03348 4.00000
4.00000 7.03348 4.00000
4.00000 7.03348 4.00000
4.00000 7.03348 4.00000
4.00000 7.03348 4.00000
4.00000 7.03348 4.00000
4.00000 7.03348 4.00000
4.00000 7.03348 4.00000
4.00000 7.03348 4.00000
4.00000 7.03349 4.00000
4.00000 7.03349 4.00000
4.00000 7.03348 4.00000
4.00000 7.03348 4.00000
4.00000 7.03348 4.00000
4.00000 7.03348 4.00000
4.00000 7.03348 4.00000
4.00000 7.03348 4.00000
4.00000 7.03348 4.00000
4.00000 7.03348 4.00000
4.00000 7.03348 4.00000
4.00000 7.03348 4.00000
4.00000 7.03348 4.00000
4.00000 7.03348 4.00000
4.00000 7.03348 4.00000
4.00000 7.03348 4.00000
4.00000 7.03348 4.00000
4.00000 7.03349 4.00000
4.00000 7.03348 4.00000
4.00000 7.03348 4.00000
4.00000 7.03348 4.00000
4.00000 7.03348 4.00000
4.00000 7.03348 4.00000
4.00102 7.06812 4.00102
4.00334 7.14893 4.00334
4.00561 7.22989 4.00561
4.00784 7.31100 4.00784
4.01004 7.39222 4.01004
4.01222 7.47355 4.01222
4.01439 7.55494 4.01439
4.01656 7.63639 4.01656
4.01875 7.71786 4.01875
4.02096 7.79934 4.02096
4.02320 7.88080 4.02320
4.02550 7.96220 4.02550
4.02787 8.04352 4.02787
4.03032 8.12471 4.03032
4.03289 8.20573 4.03289
4.03559 8.28652 4.03559
4.03846 8.36701 4.03846
4.04155 8.44712 4.04155
4.04490 8.52675 4.04490
4.04859 8.60575 4.04859
4.05271 8.68395 4.05271
4.05724 8.76135 4.05724
4.06219 8.83796 4.06219
4.06759 8.91371 4.06759
4.07347 8.98854 4.07347
4.07984 9.06242 4.07984
4.08674 9.13531 4.08674
4.09414 9.20721 4.09414
4.10204 9.27817 4.10204
4.11037 9.34829 4.11037
4.11907 9.41772 4.11907
4.12801 9.48671 4.12801
4.13701 9.55561 4.13701
4.14585 9.62487 4.14585
4.15423 9.69508 4.15423
4.16177 9.76700 4.16177
4.16804 9.84152 4.16804
4.17252 9.91963 4.17252
4.17472 10.00234 4.17472
4.17429 10.09036 4.17429
4.17228 10.18154 4.17228
4.16964 10.27405 4.16964
4.16638 10.36780 4.16638
4.16253 10.46277 4.16253
4.15808 10.55898 4.15808
4.15300 10.65647 4.15300
4.14725 10.75535 4.14725
4.14074 10.85575 4.14074
4.13338 10.95791 4.13337
4.12499 11.06213 4.12499
4.11535 11.16889 4.11535
4.10411 11.27888 4.10411
4.09069 11.39327 4.09069
4.07417 11.51386 4.07417
4.05321 11.64338 4.05321
4.02469 11.78804 4.02469
4.00000 13.19120 4.00000
4.00000 13.19120 4.00000
4.00000 13.19120 4.00000
4.00000 13.19120 4.00000
4.00000 13.19120 4.00000
4.00000 13.19120 4.00000
4.00000 13.19120 4.00000
4.00000 13.19120 4.00000
4.00000 13.19120 4.00000
4.00000 13.19120 4.00000
4.00000 13.19120 4.00000
4.00000 13.19120 4.00000
4.00000 13.19120 4.00000
4.00000 13.19121 4.00000
4.00000 13.19121 4.00000
4.00672 13.22924 4.00672
4.01660 13.29750 4.01660
4.02447 13.36981 4.02447
4.03038 13.44605 4.03038
4.03440 13.52608 4.03440
4.03666 13.60968 4.03666
4.03821 13.69470 4.03821
4.03972 13.77983 4.03972
4.04119 13.86505 4.04119
4.04263 13.95036 4.04263
4.04404 14.03574 4.04404
4.04542 14.12120 4.04542
4.04679 14.20671 4.04679
4.04813 14.29228 4.04813
4.04946 14.37791 4.04946
4.05077 14.46358 4.05077
4.05207 14.54930 4.05207
4.05335 14.63506 4.05336
4.05463 14.72086 4.05463
4.05590 14.80669 4.05590
4.05716 14.89256 4.05716
4.05841 14.97846 4.05841
4.05965 15.06439 4.05965
4.06082 15.15048 4.06082
4.06178 15.23701 4.06178
4.06254 15.32397 4.06254
4.06310 15.41132 4.06310
4.06349 15.49905 4.06349
4.06371 15.58713 4.06371
4.06377 15.67552 4.06377
4.06370 15.76422 4.06370
4.06349 15.85319 4.06349
4.06317 15.94241 4.06317
4.06274 16.03186 4.06274
4.06221 16.12151 4.06221
4.06160 16.21136 4.06160
4.06091 16.30138 4.06091
4.06015 16.39154 4.06015
4.05933 16.48185 4.05933
4.05845 16.57227 4.05845
4.05753 16.66280 4.05753
4.05657 16.75342 4.05657
4.05558 16.84412 4.05558
4.05456 16.93488 4.05456
4.05352 17.02571 4.05352
4.05246 17.11658 4.05246
4.05139 17.20750 4.05139
4.05030 17.29844 4.05030
4.04921 17.38941 4.04921
4.04812 17.48040 4.04812
4.04703 17.57140 4.04703
4.04594 17.66241 4.04594
4.04486 17.75341 4.04486
4.04378 17.84442 4.04378
4.04272 17.93542 4.04272
4.04166 18.02641 4.04166
4.04061 18.11739 4.04061
4.03958 18.20835 4.03958
4.03857 18.29929 4.03857
4.03756 18.39022 4.03756
4.03658 18.48112 4.03658
4.03561 18.57200 4.03561
4.03466 18.66286 4.03466
4.03372 18.75370 4.03372
4.03281 18.84450 4.03281
4.03191 18.93529 4.03191
4.03103 19.02604 4.03103
4.03017 19.11677 4.03017
4.02933 19.20747 4.02933
4.02851 19.29814 4.02851
4.02770 19.38879 4.02770
4.02692 19.47941 4.02692
4.02615 19.57000 4.02615
4.02540 19.66056 4.02540
4.02467 19.75110 4.02467
4.02396 19.84161 4.02396
4.02327 19.93209 4.02327
4.02259 20.02255 4.02259
4.02193 20.11298 4.02193
4.02129 20.20339 4.02129
4.02067 20.29377 4.02067
4.02006 20.38413 4.02006
4.01947 20.47446 4.01947
4.01889 20.56478 4.01889
4.01833 20.65506 4.01833
4.01779 20.74533 4.01779
4.01726 20.83558 4.01726
4.01674 20.92580 4.01674
4.01624 21.01601 4.01624
4.01576 21.10619 4.01575
4.01528 21.19636 4.01528
4.01482 21.28651 4.01482
4.01438 21.37663 4.01437
4.01394 21.46675 4.01394
4.01352 21.55684 4.01352
4.01311 21.64692 4.01311
4.01271 21.73698 4.01271
4.01233 21.82703 4.01233
4.01195 21.91707 4.01195
4.01159 22.00709 4.01159
4.01123 22.09709 4.01123
4.01089 22.18708 4.01089
4.01056 22.27706 4.01056
4.01024 22.36703 4.01024
4.00992 22.45698 4.00992
4.00962 22.54693 4.00962
4.00932 22.63686 4.00932
4.00904 22.72678 4.00904

Angle 0.120770 4.620036

4.00000 7.03348 4.00000
4.00000 7.03348 4.00000
4.00000 7.03348 4.00000
4.00000 7.03348 4.00000
4.00000 7.03348 4.00000
4.00000 7.03348 4.00000
4.00000 7.03348 4.00000
4.00000 7.03348 4.00000
4.00000 7.03348 4.00000
4.00000 7.03348 4.00000
4.00000 7.03348 4.00000
4.00000 7.03348 4.00000
4.00000 7.03348 4.00000
4.00000 7.03348 4.00000
4.00000 7.03348 4.00000
4.00000 7.03348 4.00000
4.00000 7.03348 4.00000
4.00000 7.03348 4.00000
4.00000 7.03349 4.00000
4.00000 7.03349 4.00000
4.00000 7.03349 4.00000
4.00000 7.03349 4.00000
4.00000 7.03349 4.00000
4.00000 7.03349 4.00000
4.00000 7.03349 4.00000
4.00000 7.03349 4.00000
4.00000 7.03349 4.00000
4.00000 7.03349 4.00000
4.00000 7.03349 4.00000
4.00000 7.03349 4.00000
4.00000 7.03349 4.00000
4.00000 7.03349 4.00000
4.00000 7.03349 4.00000
4.00000 7.03349 4.00000
4.00000 7.03349 4.00000
4.00000 7.03349 4.00000
4.00000 7.03349 4.00000
4.00000 7.03349 4.00000
4.00000 7.03348 4.00000
4.00000 7.03348 4.00000
4.00000 7.03348 4.00000
4.00000 7.03348 4.00000
4.00000 7.03348 4.00000
4.00000 7.03348 4.00000
4.00000 7.03348 4.00000
4.00000 7.03348 4.00000
4.00000 7.03348 4.00000
4.00000 7.03348 4.00000
4.00000 7.03348 4.00000
4.00000 7.03348 4.00000
4.00000 7.03348 4.00000
4.00000 7.03348 4.00000
4.00000 7.03348 4.00000
4.00000 7.03348 4.00000
4.00000 7.03348 4.00000
4.00000 7.03348 4.00000
4.00000 7.03348 4.00000
4.00000 7.03348 4.00000
4.00000 7.03348 4.00000
4.00000 7.03348 4.00000
4.00000 7.03348 4.00000
4.00000 7.03348 4.00000
4.00000 7.03348 4.00000
4.00000 7.03348 4.00000
4.00000 7.03348 4.00000
4.00000 7.03348 4.00000
4.00000 7.03348 4.00000
4.00000 7.03348 4.00000
4.00000 7.03348 4.00000
4.00000 7.03348 4.00000
4.00000 7.03348 4.00000
4.00000 7.03348 4.00000
4.00000 7.03348 4.00000
4.00000 7.03348 4.00000
4.00000 7.03348 4.00000
4.00000 7.03348 4.00000
4.00000 7.03348 4.00000
4.00000 7.03348 4.00000
4.00000 7.03348 4.00000
4.00000 7.03348 4.00000
4.00000 7.03348 4.00000
4.00000 7.03348 4.00000
4.00000 7.03348 4.00000
4.00000 7.03348 4.00000
4.00000 7.03348 4.00000
4.00000 7.03348 4.00000
4.00000 7.03348 4.00000
4.00000 7.03348 4.00000
4.00000 7.03348 4.00000
4.00000 7.03348 4.00000
4.00000 7.03348 4.00000
4.00000 7.03348 4.00000
4.00000 7.03348 4.00000
4.00000 7.03348 4.00000
4.00000 7.03348 4.00000
4.00000 7.03348 4.00000
4.00000 7.03348 4.00000
4.00000 7.03348 4.00000
4.00000 7.03348 4.00000
4.00000 7.03348 4.00000
4.00000 7.03348 4.00000
4.00000 7.03348 4.00000
4.00000 7.03348 4.00000
4.00000 7.03348 4.00000
4.00000 7.03348 4.00000
4.00000 7.03348 4.00000
4.00000 7.03348 4.00000
4.00000 7.03348 4.00000
4.00000 7.03348 4.00000
4.00000 7.03348 4.00000
4.00000 7.03348 4.00000
4.00000 7.03348 4.00000
4.00000 7.03348 4.00000
4.00000 7.03348 4.00000
4.00000 7.03348 4.00000
4.00000 7.03348 4.00000
4.00000 7.03348 4.00000
4.00000 7.03348 4.00000
4.00000 7.03348 4.00000
4.00000 7.03348 4.00000
4.00000 7.03348 4.00000
4.00000 7.03348 4.00000
4.00000 7.03348 4.00000
4.00000 7.03348 4.00000
4.00000 7.03348 4.00000
4.00000 7.03348 4.00000
4.00000 7.03348 4.00000
4.00000 7.03348 4.00000
4.00000 7.03348 4.00000
4.00000 7.03348 4.00000
4.00000 7.03348 4.00000
4.00000 7.03348 4.00000
4.00000 7.03348 4.00000
4.00000 7.03348 4.00000
4.00000 7.03348 4.00000
4.00000 7.03348 4.00000
4.00000 7.03348 4.00000
4.00000 7.03348 4.00000
4.00000 7.03348 4.00000
4.00000 7.03348 4.00000
4.00000 7.03348 4.00000
4.00000 7.03348 4.00000
4.00000 7.03348 4.00000
4.00000 7.03348 4.00000
4.00000 7.03348 4.00000
4.00000 7.03348 4.00000
4.00000 7.03348 4.00000
4.00000 7.03348 4.00000
4.00000 7.03348 4.00000
4.00000 7.03348 4.00000
4.00000 7.03348 4.00000
4.00000 7.03348 4.00000
4.00000 7.03348 4.00000
4.00000 7.03348 4.00000
4.00000 7.03348 4.00000
4.00000 7.03348 4.00000
4.00000 7.03348 4.00000
4.00000 7.03348 4.00000
4.00000 7.03348 4.00000
4.00000 7.03348 4.00000
4.00000 7.03348 4.00000
4.00000 7.03348 4.00000
4.00000 7.03348 4.00000
4.00000 7.03348 4.00000
4.00000 7.03348 4.00000
4.00000 7.03348 4.00000
4.00000 7.03348 4.00000
4.00000 7.03348 4.00000
4.00000 7.03348 4.00000
4.00000 7.03348 4.00000
4.00000 7.03348 4.00000
4.00000 7.03348 4.00000
4.00000 7.03348 4.00000
4.00000 7.03348 4.00000
4.00000 7.03348 4.00000
4.00000 7.03348 4.00000
4.00000 7.03348 4.00000
4.00000 7.03348 4.00000
4.00000 7.03348 4.00000
4.00000 7.03348 4.00000
4.00000 7.03348 4.00000
4.00000 7.03348 4.00000
4.00000 7.03348 4.00000
4.00000 7.03348 4.00000
4.00000 7.03349 4.00000
4.00000 7.03349 4.00000
4.00000 7.03348 4.00000
4.00000 7.03348 4.00000
4.00000 7.03349 4.00000
4.00000 7.03348 4.00000
4.00000 7.03348 4.00000
4.00000 7.03348 4.00000
4.00030 7.04374 4.00030
4.00248 7.11885 4.00248
4.00462 7.19418 4.00462
4.00671 7.26971 4.00671
4.00878 7.34541 4.00878
4.01082 7.42128 4.01082
4.01286 7.49728 4.01286
4.01488 7.57342 4.01488
4.01692 7.64965 4.01692
4.01897 7.72597 4.01897
4.02104 7.80234 4.02104
4.02315 7.87875 4.02315
4.02530 7.95518 4.02530
4.02751 8.03159 4.02751
4.02981 8.10795 4.02981
4.03219 8.18423 4.03219
4.03470 8.26036 4.03470
4.03734 8.33631 4.03734
4.04017 8.41201 4.04017
4.04321 8.48737 4.04320
4.04651 8.56228 4.04651
4.05016 8.63661 4.05016
4.05420 8.71025 4.05420
4.05860 8.78324 4.05860
4.06340 8.85555 4.06340
4.06860 8.92712 4.06860
4.07424 8.99791 4.07424
4.08034 9.06787 4.08034
4.08690 9.13698 4.08690
4.09393 9.20524 4.09393
4.10141 9.27269 4.10141
4.10929 9.33940 4.10929
4.11752 9.40551 4.11752
4.12599 9.47121 4.12599
4.13456 9.53678 4.13456
4.14305 9.60259 4.14305
4.15122 9.66911 4.15122
4.15878 9.73695 4.15878
4.16534 9.80682 4.16534
4.17051 9.87958 4.17051
4.17382 9.95612 4.17382
4.17488 10.03723 4.17488
4.17364 10.12299 4.17364
4.17152 10.21061 4.17151
4.16881 10.29945 4.16881
4.16555 10.38947 4.16555
4.16175 10.48064 4.16175
4.15739 10.57298 4.15739
4.15244 10.66656 4.15244
4.14687 10.76146 4.14687
4.14060 10.85782 4.14060
4.13353 10.95582 4.13353
4.12553 11.05577 4.12553
4.11639 11.15805 4.11639
4.10580 11.26329 4.10580
4.09328 11.37243 4.09328
4.07808 11.48701 4.07808
4.05911 11.60916 4.05911
4.03418 11.74331 4.03418
4.00000 13.19120 4.00000
4.00000 13.19120 4.00000
4.00000 13.19120 4.00000
4.00000 13.19120 4.00000
4.00000 13.19120 4.00000
4.00000 13.19120 4.00000
4.00000 13.19120 4.00000
4.00000 13.19120 4.00000
4.00000 13.19120 4.00000
4.00000 13.19120 4.00000
4.00000 13.19120 4.00000
4.00000 13.19120 4.00000
4.00000 13.19120 4.00000
4.00000 13.19120 4.00000
4.00000 13.19120 4.00000
4.00000 13.19120 4.00000
4.00791 13.23658 4.00791
4.01728 13.30301 4.01728
4.02478 13.37324 4.02478
4.03045 13.44717 4.03045
4.03435 13.52467 4.03435
4.03658 13.60556 4.03658
4.03809 13.68794 4.03809
4.03955 13.77045 4.03955
4.04098 13.85306 4.04098
4.04238 13.93578 4.04238
4.04376 14.01859 4.04376
4.04511 14.10149 4.04511
4.04644 14.18447 4.04644
4.04774 14.26752 4.04774
4.04904 14.35065 4.04904
4.05032 14.43384 4.05032
4.05158 14.51710 4.05158
4.05284 14.60042 4.05284
4.05408 14.68379 4.05408
4.05532 14.76722 4.05532
4.05654 14.85070 4.05654
4.05776 14.93423 4.05776
4.05898 15.01781 4.05898
4.06018 15.10145 4.06018
4.06123 15.18541 4.06123
4.06209 15.26981 4.06209
4.06276 15.35462 4.06276
4.06325 15.43981 4.06325
4.06357 15.52537 4.06357
4.06374 15.61127 4.06374
4.06377 15.69749 4.06377
4.06366 15.78400 4.06366
4.06344 15.87079 4.06344
4.06310 15.95782 4.06310
4.06267 16.04509 4.06267
4.06214 16.13257 4.06214
4.06153 16.22024 4.06153
4.06085 16.30809 4.06085
4.06011 16.39610 4.06011
4.05930 16.48425 4.05930
4.05845 16.57253 4.05845
4.05755 16.66093 4.05755
4.05662 16.74944 4.05662
4.05565 16.83803 4.05565
4.05465 16.92671 4.05465
4.05364 17.01545 4.05364
4.05260 17.10426 4.05260
4.05156 17.19312 4.05156
4.05050 17.28203 4.05050
4.04943 17.37098 4.04943
4.04837 17.45996 4.04837
4.04730 17.54897 4.04730
4.04623 17.63800 4.04623
4.04517 17.72704 4.04517
4.04412 17.81610 4.04412
4.04307 17.90517 4.04307
4.04203 17.99424 4.04203
4.04100 18.08332 4.04100
4.03999 18.17239 4.03999
4.03899 18.26147 4.03899
4.03800 18.35053 4.03800
4.03703 18.43959 4.03703
4.03607 18.52865 4.03607
4.03513 18.61769 4.03513
4.03420 18.70672 4.03420
4.03330 18.79574 4.03330
4.03241 18.88475 4.03241
4.03154 18.97375 4.03154
4.03068 19.06273 4.03068
4.02984 19.15169 4.02984
4.02903 19.24064 4.02903
4.02823 19.32958 4.02823
4.02744 19.41850 4.02744
4.02668 19.50741 4.02668
4.02593 19.59630 4.02593
4.02520 19.68518 4.02520
4.02449 19.77404 4.02449
4.02380 19.86288 4.02380
4.02312 19.95172 4.02312
4.02246 20.04053 4.02246
4.02182 20.12934 4.02182
4.02119 20.21813 4.02119
4.02058 20.30691 4.02058
4.01998 20.39567 4.01998
4.01940 20.48442 4.01940
4.01884 20.57316 4.01884
4.01829 20.66189 4.01829
4.01776 20.75061 4.01776
4.01723 20.83931 4.01723
4.01673 20.92801 4.01673
4.01624 21.01669 4.01624
4.01576 21.10537 4.01576
4.01529 21.19404 4.01529
4.01484 21.28270 4.01484
4.01440 21.37134 4.01440
4.01397 21.45999 4.01397
4.01356 21.54862 4.01356
4.01315 21.63725 4.01315
4.01276 21.72587 4.01276
4.01238 21.81449 4.01238
4.01201 21.90310 4.01201
4.01165 21.99170 4.01165
4.01130 22.08030 4.01130
4.01096 22.16890 4.01096
4.01063 22.25749 4.01063
4.01031 22.34608 4.01031
4.01000 22.43466 4.01000
4.00970 22.52325 4.00970
4.00940 22.61183 4.00940
4.00912 22.70040 4.00912
4.00884 22.78898 4.00884
4.00857 22.87755 4.00857
4.00831 22.96612 4.00831
4.00806 23.05470 4.00806
4.00782 23.14327 4.00782
4.00758 23.23184 4.00758
4.00735 23.32041 4.00735
4.00713 23.40898 4.00712
4.00691 23.49755 4.00691
4.00670 23.58612 4.00670
4.00649 23.67469 4.00649
4.00629 23.76327 4.00629
4.00610 23.85185 4.00610
4.00592 23.94042 4.00592
4.00573 24.02900 4.00573
4.00556 24.11759 4.00556
4.00539 24.20617 4.00539
4.00522 24.29476 4.00522
4.00506 24.38335 4.00506
4.00491 24.47194 4.00491
4.00476 24.56053 4.00476
4.00461 24.64913 4.00461
4.00447 24.73774 4.00447

Angle 0.289272 0.146003

4.00000 7.03348 4.00000
4.00000 7.03348 4.00000
4.00000 7.03348 4.00000
4.00000 7.03348 4.00000
4.00000 7.03348 4.00000
4.00000 7.03348 4.00000
4.00000 7.03348 4.00000
4.00000 7.03348 4.00000
4.00000 7.03348 4.00000
4.00000 7.03348 4.00000
4.00000 7.03348 4.00000
4.00000 7.03348 4.00000
4.00000 7.03348 4.00000
4.00000 7.03348 4.00000
4.00000 7.03348 4.00000
4.00000 7.03348 4.00000
4.00000 7.03348 4.00000
4.00000 7.03348 4.00000
4.00000 7.03348 4.00000
4.00000 7.03348 4.00000
4.00000 7.03348 4.00000
4.00000 7.03348 4.00000
4.00000 7.03348 4.00000
4.00000 7.03348 4.00000
4.00000 7.03348 4.00000
4.00000 7.03348 4.00000
4.00000 7.03348 4.00000
4.00000 7.03348 4.00000
4.00000 7.03348 4.00000
4.00000 7.03348 4.00000
4.00000 7.03348 4.00000
4.00000 7.03348 4.00000
4.00000 7.03348 4.00000
4.00000 7.03348 4.00000
4.00000 7.03348 4.00000
4.00000 7.03348 4.00000
4.00000 7.03347 4.00000
4.00000 7.03348 4.00000
4.00000 7.03348 4.00000
4.00000 7.03348 4.00000
4.00000 7.03348 4.00000
4.00000 7.03348 4.00000
4.00000 7.03348 4.00000
4.00000 7.03348 4.00000
4.00000 7.03348 4.00000
4.00000 7.03348 4.00000
4.00000 7.03348 4.00000
4.00000 7.03348 4.00000
4.00000 7.03348 4.00000
4.00000 7.03348 4.00000
4.00000 7.03348 4.00000
4.00000 7.03348 4.00000
4.00000 7.03348 4.00000
4.00000 7.03348 4.00000
4.00000 7.03348 4.00000
4.00000 7.03348 4.00000
4.00000 7.03348 4.00000
4.00000 7.03348 4.00000
4.00000 7.03348 4.00000
4.00000 7.03348 4.00000
4.00000 7.03348 4.00000
4.00000 7.03348 4.00000
4.00000 7.03348 4.00000
4.00000 7.03348 4.00000
4.00000 7.03348 4.00000
4.00000 7.03348 4.00000
4.00000 7.03348 4.00000
4.00000 7.03348 4.00000
4.00000 7.03348 4.00000
4.00000 7.03348 4.00000
4.00000 7.03348 4.00000
4.00000 7.03348 4.00000
4.00000 7.03348 4.00000
4.00000 7.03348 4.00000
4.00000 7.03348 4.00000
4.00000 7.03348 4.00000
4.00000 7.03348 4.00000
4.00000 7.03348 4.00000
4.00000 7.03348 4.00000
4.00000 7.03348 4.00000
4.00000 7.03348 4.00000
4.00000 7.03348 4.00000
4.00000 7.03348 4.00000
4.00000 7.03348 4.00000
4.00000 7.03348 4.00000
4.00000 7.03348 4.00000
4.00000 7.03348 4.00000
4.00000 7.03348 4.00000
4.00000 7.03348 4.00000
4.00000 7.03348 4.00000
4.00000 7.03348 4.00000
4.00000 7.03348 4.00000
4.00000 7.03348 4.00000
4.00000 7.03349 4.00000
4.00000 7.03348 4.00000
4.00000 7.03348 4.00000
4.00000 7.03348 4.00000
4.00000 7.03348 4.00000
4.00000 7.03348 4.00000
4.00000 7.03349 4.00000
4.00000 7.03348 4.00000
4.00000 7.03349 4.00000
4.00000 7.03348 4.00000
4.00000 7.03352 4.00000
4.00093 7.06514 4.00093
4.00327 7.14642 4.00327
4.00555 7.22786 4.00555
4.00780 7.30943 4.00780
4.01001 7.39112 4.01001
4.01220 7.47291 4.01220
4.01439 7.55476 4.01439
4.01657 7.63666 4.01657
4.01877 7.71858 4.01877
4.02099 7.80050 4.02099
4.02325 7.88239 4.02325
4.02556 7.96422 4.02556
4.02794 8.04595 4.02794
4.03041 8.12756 4.03041
4.03299 8.20898 4.03299
4.03572 8.29016 4.03572
4.03861 8.37104 4.03861
4.04173 8.45153 4.04173
4.04512 8.53151 4.04512
4.04885 8.61084 4.04885
4.05301 8.68935 4.05301
4.05759 8.76706 4.05759
4.06260 8.84396 4.06260
4.06806 8.91999 4.06806
4.07401 8.99508 4.07401
4.08046 9.06920 4.08046
4.08743 9.14232 4.08743
4.09492 9.21444 4.09492
4.10290 9.28561 4.10290
4.11132 9.35595 4.11132
4.12008 9.42561 4.12008
4.12907 9.49487 4.12908
4.13811 9.56407 4.13811
4.14694 9.63370 4.14694
4.15527 9.70438 4.15527
4.16270 9.77688 4.16270
4.16878 9.85212 4.16878
4.17298 9.93114 4.17298
4.17483 10.01490 4.17483
4.17403 10.10399 4.17403
4.17192 10.19574 4.17192
4.16916 10.28879 4.16916
4.16580 10.38309 4.16580
4.16184 10.47862 4.16184
4.15726 10.57539 4.15726
4.15206 10.67347 4.15206
4.14616 10.77296 4.14616
4.13948 10.87402 4.13948
4.13192 10.97688 4.13192
4.12329 11.08190 4.12329
4.11335 11.18957 4.11335
4.10170 11.30068 4.10170
4.08770 11.41652 4.08770
4.07038 11.53903 4.07038
4.04816 11.67137 4.04816
4.01719 11.82121 4.01719
4.00000 13.19120 4.00000
4.00000 13.19120 4.00000
4.00000 13.19120 4.00000
4.00000 13.19120 4.00000
4.00000 13.19120 4.00000
4.00000 13.19120 4.00000
4.00000 13.19120 4.00000
4.00000 13.19120 4.00000
4.00000 13.19120 4.00000
4.00000 13.19120 4.00000
4.00000 13.19120 4.00000
4.00000 13.19120 4.00000
4.00000 13.19121 4.00000
4.00000 13.19120 4.00000
4.00000 13.19120 4.00000
4.00944 13.24635 4.00944
4.01883 13.31586 4.01883
4.02620 13.38941 4.02620
4.03162 13.46688 4.03162
4.03517 13.54811 4.03517
4.03708 13.63265 4.03708
4.03863 13.71793 4.03863
4.04013 13.80332 4.04013
4.04159 13.88879 4.04159
4.04303 13.97435 4.04303
4.04443 14.05998 4.04443
4.04582 14.14567 4.04582
4.04718 14.23142 4.04718
4.04852 14.31723 4.04852
4.04985 14.40308 4.04985
4.05116 14.48899 4.05116
4.05246 14.57493 4.05245
4.05374 14.66091 4.05374
4.05502 14.74693 4.05502
4.05628 14.83299 4.05628
4.05754 14.91907 4.05754
4.05879 15.00519 4.05879
4.06004 15.09134 4.06004
4.06115 15.17776 4.06115
4.06204 15.26463 4.06204
4.06274 15.35192 4.06274
4.06324 15.43960 4.06324
4.06358 15.52764 4.06358
4.06374 15.61602 4.06374
4.06376 15.70472 4.06376
4.06364 15.79371 4.06364
4.06340 15.88296 4.06340
4.06304 15.97245 4.06304
4.06257 16.06217 4.06257
4.06201 16.15209 4.06201
4.06137 16.24219 4.06137
4.06065 16.33245 4.06065
4.05987 16.42286 4.05987
4.05903 16.51339 4.05903
4.05813 16.60404 4.05813
4.05720 16.69479 4.05720
4.05622 16.78563 4.05622
4.05522 16.87654 4.05522
4.05419 16.96751 4.05419
4.05314 17.05853 4.05314
4.05207 17.14961 4.05207
4.05099 17.24071 4.05099
4.04990 17.33184 4.04990
4.04881 17.42300 4.04881
4.04772 17.51417 4.04772
4.04662 17.60534 4.04662
4.04554 17.69652 4.04554
4.04445 17.78770 4.04445
4.04338 17.87888 4.04338
4.04231 17.97004 4.04231
4.04126 18.06120 4.04126
4.04022 18.15234 4.04022
4.03919 18.24346 4.03919
4.03818 18.33456 4.03818
4.03718 18.42564 4.03718
4.03620 18.51670 4.03620
4.03523 18.60774 4.03523
4.03429 18.69874 4.03429
4.03336 18.78973 4.03336
4.03245 18.88068 4.03245
4.03156 18.97161 4.03156
4.03068 19.06251 4.03068
4.02983 19.15338 4.02983
4.02899 19.24423 4.02899
4.02818 19.33504 4.02818
4.02738 19.42583 4.02738
4.02660 19.51658 4.02660
4.02584 19.60731 4.02584
4.02510 19.69801 4.02510
4.02438 19.78869 4.02438
4.02367 19.87933 4.02367
4.02298 19.96995 4.02298
4.02231 20.06054 4.02231
4.02166 20.15110 4.02166
4.02103 20.24164 4.02103
4.02041 20.33216 4.02041
4.01981 20.42265 4.01981
4.01922 20.51311 4.01922
4.01865 20.60355 4.01865
4.01809 20.69397 4.01809
4.01756 20.78436 4.01756
4.01703 20.87473 4.01703
4.01652 20.96509 4.01652
4.01603 21.05542 4.01603
4.01554 21.14573 4.01554
4.01508 21.23602 4.01508
4.01462 21.32629 4.01462
4.01418 21.41654 4.01418
4.01375 21.50677 4.01375
4.01333 21.59699 4.01334
4.01293 21.68719 4.01293
4.01254 21.77737 4.01254
4.01216 21.86754 4.01216
4.01178 21.95769 4.01179
4.01143 22.04783 4.01143
4.01108 22.13795 4.01108
4.01074 22.22806 4.01074
4.01041 22.31816 4.01041
4.01009 22.40824 4.01009
4.00978 22.49831 4.00978
4.00948 22.58837 4.00948
4.00919 22.67842 4.00919
4.00891 22.76846 4.00891
4.00863 22.85848 4.00863
4.00837 22.94850 4.00837
4.00811 23.03851 4.00811
4.00786 23.12850 4.00786
4.00761 23.21849 4.00762
4.00738 23.30847 4.00738
4.00715 23.39844 4.00715
4.00693 23.48841 4.00693
4.00671 23.57836 4.00672
4.00651 23.66831 4.00651
4.00631 23.75825 4.00631
4.00611 23.84819 4.00611
4.00592 23.93812 4.00592
4.00574 24.02804 4.00574
4.00556 24.11796 4.00556
4.00538 24.20787 4.00539
4.00522 24.29778 4.00522
4.00505 24.38768 4.00506
4.00490 24.47758 4.00490
4.00474 24.56747 4.00475
4.00460 24.65736 4.00460
4.00445 24.74725 4.00445
4.00432 24.83713 4.00432
4.00418 24.92701 4.00418
4.00405 25.01689 4.00405
4.00392 25.10676 4.00392
4.00380 25.19663 4.00380
4.00368 25.28650 4.00368
4.00357 25.37637 4.00357
4.00346 25.46623 4.00346
4.00335 25.55609 4.00335
4.00324 25.64595 4.00324
4.00314 25.73581 4.00314
4.00304 25.82567 4.00304
4.00295 25.91552 4.00295
4.00286 26.00538 4.00286
4.00277 26.09523 4.00277
4.00268 26.18508 4.00268
4.00260 26.27493 4.00260
4.00251 26.36478 4.00251
4.00244 26.45463 4.00244
4.00236 26.54448 4.00236
4.00229 26.63433 4.00229
4.00221 26.72418 4.00221
4.00214 26.81403 4.00214
4.00208 26.90388 4.00208
4.00201 26.99373 4.00201
4.00195 27.08358 4.00195
4.00189 27.17343 4.00189
4.00183 27.26328 4.00183
4.00177 27.35314 4.00177
4.00171 27.44299 4.00172
4.00166 27.53284 4.00166
4.00161 27.62269 4.00161
4.00156 27.71255 4.00156
4.00151 27.80240 4.00151
4.00146 27.89226 4.00146
4.00142 27.98212 4.00142
4.00137 28.07198 4.00137
4.00133 28.16183 4.00133
4.00129 28.25170 4.00129
4.00125 28.34156 4.00125
4.00121 28.43142 4.00121
4.00117 28.52129 4.00117
4.00113 28.61115 4.00113
4.00110 28.70102 4.00110
4.00106 28.79089 4.00106
4.00103 28.88076 4.00103
4.00100 28.97063 4.00100
4.00096 29.06051 4.00096
4.00093 29.15038 4.00093
4.00090 29.24026 4.00090
4.00088 29.33014 4.00088
4.00085 29.42002 4.00085
4.00082 29.50990 4.00082
4.00080 29.59978 4.00080
4.00077 29.68967 4.00077
4.00075 29.77956 4.00075
4.00072 29.86945 4.00072
4.00070 29.95934 4.00070
4.00068 30.04924 4.00068
4.00066 30.13913 4.00066
4.00064 30.22903 4.00064
4.00062 30.31893 4.00062
4.00060 30.40883 4.00060
4.00058 30.49874 4.00058
4.00056 30.58864 4.00056
4.00054 30.67855 4.00054
4.00052 30.76846 4.00052
4.00051 30.85837 4.00051
4.00049 30.94829 4.00049
4.00048 31.03820 4.00048
4.00046 31.12812 4.00046
4.00045 31.21804 4.00045
4.00043 31.30797 4.00043
4.00042 31.39789 4.00042
4.00041 31.48782 4.00041
4.00039 31.57775 4.00039
4.00038 31.66768 4.00038
4.00037 31.75762 4.00037
4.00036 31.84755 4.00036
4.00035 31.93749 4.00035
4.00034 32.02743 4.00034
4.00032 32.11737 4.00032
4.00031 32.20732 4.00031
4.00030 32.29727 4.00030
4.00029 32.38722 4.00029
4.00029 32.47717 4.00029
4.00028 32.56712 4.00028
4.00027 32.65708 4.00027
4.00026 32.74704 4.00026
4.00025 32.83700 4.00025
4.00024 32.92696 4.00024
4.00024 33.01692 4.00024
4.00023 33.10689 4.00023
4.00022 33.19686 4.00022
4.00021 33.28683 4.00021

Angle 0.000846 2.611329

4.00000 7.03348 4.00000
4.00000 7.03348 4.00000
4.00000 7.03348 4.00000
4.00000 7.03348 4.00000
4.00000 7.03348 4.00000
4.00000 7.03348 4.00000
4.00000 7.03348 4.00000
4.00000 7.03348 4.00000
4.00000 7.03349 4.00000
4.00000 7.03348 4.00000
4.00000 7.03348 4.00000
4.00000 7.03348 4.00000
4.00000 7.03348 4.00000
4.00000 7.03348 4.00000
4.00000 7.03349 4.00000
4.00000 7.03349 4.00000
4.00000 7.03349 4.00000
4.00000 7.03349 4.00000
4.00000 7.03349 4.00000
4.00000 7.03349 4.00000
4.00000 7.03349 4.00000
4.00000 7.03349 4.00000
4.00000 7.03349 4.00000
4.00000 7.03348 4.00000
4.00000 7.03348 4.00000
4.00000 7.03348 4.00000
4.00000 7.03348 4.00000
4.00000 7.03348 4.00000
4.00000 7.03348 4.00000
4.00000 7.03348 4.00000
4.00000 7.03348 4.00000
4.00000 7.03348 4.00000
4.00000 7.03348 4.00000
4.00000 7.03348 4.00000
4.00000 7.03348 4.00000
4.00000 7.03348 4.00000
4.00000 7.03348 4.00000
4.00000 7.03348 4.00000
4.00000 7.03348 4.00000
4.00000 7.03348 4.00000
4.00000 7.03348 4.00000
4.00000 7.03348 4.00000
4.00000 7.03348 4.00000
4.00000 7.03348 4.00000
4.00000 7.03348 4.00000
4.00000 7.03348 4.00000
4.00000 7.03348 4.00000
4.00000 7.03348 4.00000
4.00000 7.03348 4.00000
4.00000 7.03348 4.00000
4.00000 7.03348 4.00000
4.00000 7.03348 4.00000
4.00000 7.03348 4.00000
4.00000 7.03348 4.00000
4.00000 7.03348 4.00000
4.00000 7.03348 4.00000
4.00000 7.03348 4.00000
4.00000 7.03348 4.00000
4.00000 7.03348 4.00000
4.00000 7.03348 4.00000
4.00000 7.03348 4.00000
4.00000 7.03348 4.00000
4.00000 7.03348 4.00000
4.00000 7.03348 4.00000
4.00000 7.03348 4.00000
4.00000 7.03348 4.00000
4.00000 7.03348 4.00000
4.00000 7.03348 4.00000
4.00000 7.03348 4.00000
4.00000 7.03348 4.00000
4.00000 7.03348 4.00000
4.00000 7.03348 4.00000
4.00000 7.03348 4.00000
4.00000 7.03348 4.00000
4.00000 7.03348 4.00000
4.00000 7.03348 4.00000
4.00000 7.03348 4.00000
4.00000 7.03348 4.00000
4.00000 7.03348 4.00000
4.00000 7.03348 4.00000
4.00000 7.03348 4.00000
4.00000 7.03348 4.00000
4.00000 7.03348 4.00000
4.00000 7.03348 4.00000
4.00000 7.03348 4.00000
4.00000 7.03348 4.00000
4.00000 7.03348 4.00000
4.00000 7.03348 4.00000
4.00000 7.03348 4.00000
4.00000 7.03348 4.00000
4.00000 7.03348 4.00000
4.00000 7.03348 4.00000
4.00000 7.03348 4.00000
4.00000 7.03348 4.00000
4.00000 7.03348 4.00000
4.00000 7.03348 4.00000
4.00000 7.03348 4.00000
4.00000 7.03348 4.00000
4.00000 7.03348 4.00000
4.00000 7.03348 4.00000
4.00000 7.03348 4.00000
4.00000 7.03347 4.00000
4.00000 7.03348 4.00000
4.00000 7.03348 4.00000
4.00000 7.03348 4.00000
4.00000 7.03348 4.00000
4.00000 7.03348 4.00000
4.00000 7.03348 4.00000
4.00000 7.03348 4.00000
4.00000 7.03348 4.00000
4.00000 7.03348 4.00000
4.00000 7.03348 4.00000
4.00000 7.03348 4.00000
4.00000 7.03348 4.00000
4.00000 7.03348 4.00000
4.00000 7.03348 4.00000
4.00000 7.03348 4.00000
4.00000 7.03348 4.00000
4.00000 7.03348 4.00000
4.00000 7.03348 4.00000
4.00000 7.03348 4.00000
4.00000 7.03348 4.00000
4.00000 7.03348 4.00000
4.00000 7.03348 4.00000
4.00000 7.03348 4.00000
4.00000 7.03348 4.00000
4.00000 7.03348 4.00000
4.00000 7.03348 4.00000
4.00000 7.03348 4.00000
4.00000 7.03348 4.00000
4.00000 7.03348 4.00000
4.00000 7.03348 4.00000
4.00000 7.03348 4.00000
4.00000 7.03348 4.00000
4.00000 7.03348 4.00000
4.00000 7.03348 4.00000
4.00000 7.03348 4.00000
4.00000 7.03348 4.00000
4.00000 7.03348 4.00000
4.00000 7.03348 4.00000
4.00000 7.03348 4.00000
4.00000 7.03348 4.00000
4.00000 7.03348 4.00000
4.00000 7.03348 4.00000
4.00000 7.03348 4.00000
4.00000 7.03348 4.00000
4.00000 7.03348 4.00000
4.00000 7.03348 4.00000
4.00000 7.03348 4.00000
4.00000 7.03348 4.00000
4.00000 7.03348 4.00000
4.00000 7.03348 4.00000
4.00000 7.03348 4.00000
4.00000 7.03348 4.00000
4.00000 7.03348 4.00000
4.00000 7.03348 4.00000
4.00000 7.03348 4.00000
4.00000 7.03348 4.00000
4.00000 7.03348 4.00000
4.00000 7.03348 4.00000
4.00000 7.03348 4.00000
4.00000 7.03348 4.00000
4.00000 7.03348 4.00000
4.00000 7.03348 4.00000
4.00000 7.03348 4.00000
4.00000 7.03348 4.00000
4.00000 7.03348 4.00000
4.00000 7.03348 4.00000
4.00000 7.03348 4.00000
4.00000 7.03348 4.00000
4.00000 7.03348 4.00000
4.00000 7.03348 4.00000
4.00000 7.03348 4.00000
4.00000 7.03348 4.00000
4.00000 7.03348 4.00000
4.00000 7.03348 4.00000
4.00000 7.03348 4.00000
4.00000 7.03348 4.00000
4.00000 7.03348 4.00000
4.00000 7.03348 4.00000
4.00000 7.03348 4.00000
4.00000 7.03348 4.00000
4.00000 7.03348 4.00000
4.00000 7.03348 4.00000
4.00000 7.03348 4.00000
4.00000 7.03348 4.00000
4.00000 7.03348 4.00000
4.00000 7.03348 4.00000
4.00000 7.03348 4.00000
4.00000 7.03348 4.00000
4.00000 7.03348 4.00000
4.00000 7.03348 4.00000
4.00000 7.03348 4.00000
4.00000 7.03348 4.00000
4.00000 7.03348 4.00000
4.00000 7.03348 4.00000
4.00000 7.03348 4.00000
4.00000 7.03348 4.00000
4.00000 7.03348 4.00000
4.00000 7.03348 4.00000
4.00000 7.03348 4.00000
4.00000 7.03348 4.00000
4.00000 7.03348 4.00000
4.00000 7.03348 4.00000
4.00000 7.03348 4.00000
4.00000 7.03348 4.00000
4.00000 7.03348 4.00000
4.00000 7.03348 4.00000
4.00000 7.03348 4.00000
4.00000 7.03348 4.00000
4.00000 7.03348 4.00000
4.00000 7.03348 4.00000
4.00000 7.03348 4.00000
4.00000 7.03348 4.00000
4.00000 7.03348 4.00000
4.00000 7.03348 4.00000
4.00000 7.03348 4.00000
4.00000 7.03348 4.00000
4.00000 7.03348 4.00000
4.00000 7.03348 4.00000
4.00000 7.03348 4.00000
4.00000 7.03348 4.00000
4.00000 7.03348 4.00000
4.00000 7.03348 4.00000
4.00000 7.03348 4.00000
4.00000 7.03348 4.00000
4.00000 7.03348 4.00000
4.00000 7.03348 4.00000
4.00000 7.03348 4.00000
4.00000 7.03348 4.00000
4.00000 7.03348 4.00000
4.00000 7.03348 4.00000
4.00000 7.03348 4.00000
4.00000 7.03348 4.00000
4.00000 7.03348 4.00000
4.00000 7.03348 4.00000
4.00000 7.03348 4.00000
4.00000 7.03348 4.00000
4.00000 7.03348 4.00000
4.00000 7.03348 4.00000
4.00000 7.03348 4.00000
4.00000 7.03348 4.00000
4.00000 7.03348 4.00000
4.00000 7.03348 4.00000
4.00000 7.03348 4.00000
4.00000 7.03348 4.00000
4.00000 7.03348 4.00000
4.00000 7.03348 4.00000
4.00000 7.03348 4.00000
4.00000 7.03348 4.00000
4.00000 7.03348 4.00000
4.00000 7.03348 4.00000
4.00000 7.03348 4.00000
4.00000 7.03348 4.00000
4.00000 7.03348 4.00000
4.00000 7.03348 4.00000
4.00000 7.03349 4.00000
4.00000 7.03348 4.00000
4.00000 7.03348 4.00000
4.00000 7.03348 4.00000
4.00000 7.03360 4.00000
4.00084 7.06217 4.00084
4.00318 7.14332 4.00318
4.00546 7.22463 4.00546
4.00771 7.30609 4.00771
4.00992 7.38765 4.00992
4.01211 7.46931 4.01211
4.01429 7.55105 4.01429
4.01647 7.63283 4.01647
4.01866 7.71464 4.01866
4.02088 7.79645 4.02088
4.02313 7.87823 4.02313
4.02544 7.95996 4.02544
4.02781 8.04159 4.02781
4.03027 8.12310 4.03027
4.03284 8.20443 4.03284
4.03555 8.28552 4.03555
4.03844 8.36632 4.03844
4.04153 8.44673 4.04153
4.04490 8.52665 4.04490
4.04860 8.60593 4.04860
4.05273 8.68440 4.05273
4.05728 8.76207 4.05728
4.06225 8.83894 4.06225
4.06768 8.91493 4.06768
4.07359 8.99001 4.07359
4.08000 9.06411 4.08000
4.08693 9.13721 4.08693
4.09437 9.20932 4.09437
4.10230 9.28049 4.10230
4.11068 9.35080 4.11068
4.11942 9.42043 4.11942
4.12839 9.48963 4.12839
4.13742 9.55875 4.13742
4.14627 9.62825 4.14627
4.15464 9.69875 4.15464
4.16215 9.77100 4.16215
4.16835 9.84592 4.16835
4.17272 9.92451 4.17272
4.17478 10.00777 4.17478
4.17417 10.09637 4.17417
4.17212 10.18791 4.17212
4.16942 10.28077 4.16942
4.16611 10.37487 4.16611
4.16221 10.47021 4.16221
4.15769 10.56678 4.15769
4.15255 10.66464 4.15255
4.14672 10.76391 4.14672
4.14013 10.86473 4.14013
4.13266 10.96732 4.13266
4.12414 11.07203 4.12414
4.11435 11.17934 4.11435
4.10289 11.28998 4.10289
4.08917 11.40519 4.08917
4.07223 11.52686 4.07223
4.05061 11.65791 4.05061
4.02084 11.80529 4.02084
4.00000 13.19120 4.00000
4.00000 13.19120 4.00000
4.00000 13.19120 4.00000
4.00000 13.19120 4.00000
4.00000 13.19120 4.00000
4.00000 13.19120 4.00000
4.00000 13.19120 4.00000
4.00000 13.19120 4.00000
4.00000 13.19120 4.00000
4.00000 13.19120 4.00000
4.00000 13.19120 4.00000
4.00000 13.19120 4.00000
4.00000 13.19120 4.00000
4.00000 13.19120 4.00000
4.00000 13.19120 4.00000
4.00828 13.23892 4.00828
4.01788 13.30793 4.01788
4.02547 13.38099 4.02547
4.03111 13.45797 4.03111
4.03486 13.53873 4.03486
4.03690 13.62294 4.03690
4.03845 13.70815 4.03845
4.03996 13.79346 4.03996
4.04142 13.87887 4.04142
4.04286 13.96436 4.04286
4.04427 14.04992 4.04427
4.04565 14.13555 4.04565
4.04702 14.22124 4.04702
4.04836 14.30699 4.04836
4.04969 14.39278 4.04969
4.05100 14.47863 4.05100
4.05230 14.56451 4.05230
4.05359 14.65044 4.05359
4.05486 14.73640 4.05486
4.05613 14.82240 4.05613
4.05739 14.90843 4.05739
4.05864 14.99449 4.05864
4.05988 15.08058 4.05988
4.06102 15.16689 4.06102
4.06194 15.25366 4.06194
4.06266 15.34084 4.06266
4.06319 15.42842 4.06319
4.06354 15.51637 4.06354
4.06373 15.60466 4.06373
4.06377 15.69327 4.06377
4.06367 15.78217 4.06367
4.06344 15.87134 4.06344
4.06309 15.96075 4.06309
4.06264 16.05039 4.06264
4.06209 16.14024 4.06209
4.06146 16.23026 4.06146
4.06075 16.32045 4.06075
4.05998 16.41080 4.05998
4.05914 16.50127 4.05914
4.05826 16.59185 4.05826
4.05733 16.68254 4.05733
4.05636 16.77332 4.05636
4.05536 16.86417 4.05536
4.05433 16.95509 4.05433
4.05328 17.04607 4.05328
4.05222 17.13709 4.05222
4.05114 17.22814 4.05114
4.05005 17.31923 4.05005
4.04896 17.41033 4.04896
4.04787 17.50145 4.04787
4.04678 17.59259 4.04678
4.04569 17.68372 4.04569
4.04460 17.77486 4.04460
4.04353 17.86599 4.04353
4.04246 17.95712 4.04246
4.04141 18.04823 4.04141
4.04036 18.13933 4.04036
4.03934 18.23041 4.03934
4.03832 18.32147 4.03832
4.03732 18.41252 4.03732
4.03634 18.50354 4.03634
4.03537 18.59453 4.03537
4.03442 18.68551 4.03442
4.03349 18.77645 4.03349
4.03258 18.86737 4.03258
4.03169 18.95827 4.03169
4.03081 19.04913 4.03081
4.02995 19.13997 4.02995

Angle 0.515765 2.044414

4.00000 7.03348 4.00000
4.00000 7.03348 4.00000
4.00000 7.03348 4.00000
4.00000 7.03348 4.00000
4.00000 7.03348 4.00000
4.00000 7.03348 4.00000
4.00000 7.03348 4.00000
4.00000 7.03348 4.00000
4.00000 7.03348 4.00000
4.00000 7.03348 4.00000
4.00000 7.03348 4.00000
4.00000 7.03348 4.00000
4.00000 7.03348 4.00000
4.00000 7.03348 4.00000
4.00000 7.03348 4.00000
4.00000 7.03348 4.00000
4.00000 7.03348 4.00000
4.00000 7.03348 4.00000
4.00000 7.03348 4.00000
4.00000 7.03348 4.00000
4.00000 7.03348 4.00000
4.00000 7.03348 4.00000
4.00000 7.03348 4.00000
4.00000 7.03348 4.00000
4.00000 7.03348 4.00000
4.00000 7.03347 4.00000
4.00000 7.03347 4.00000
4.00000 7.03347 4.00000
4.00000 7.03348 4.00000
4.00000 7.03348 4.00000
4.00000 7.03348 4.00000
4.00000 7.03348 4.00000
4.00000 7.03348 4.00000
4.00000 7.03348 4.00000
4.00000 7.03348 4.00000
4.00000 7.03348 4.00000
4.00000 7.03348 4.00000
4.00000 7.03348 4.00000
4.00000 7.03348 4.00000
4.00000 7.03348 4.00000
4.00000 7.03348 4.00000
4.00000 7.03348 4.00000
4.00000 7.03348 4.00000
4.00000 7.03348 4.00000
4.00000 7.03348 4.00000
4.00000 7.03348 4.00000
4.00000 7.03348 4.00000
4.00000 7.03348 4.00000
4.00000 7.03348 4.00000
4.00000 7.03348 4.00000
4.00000 7.03348 4.00000
4.00000 7.03348 4.00000
4.00000 7.03348 4.00000
4.00000 7.03348 4.00000
4.00000 7.03348 4.00000
4.00000 7.03348 4.00000
4.00000 7.03348 4.00000
4.00000 7.03348 4.00000
4.00000 7.03348 4.00000
4.00000 7.03348 4.00000
4.00000 7.03348 4.00000
4.00000 7.03348 4.00000
4.00000 7.03348 4.00000
4.00000 7.03348 4.00000
4.00000 7.03348 4.00000
4.00000 7.03348 4.00000
4.00000 7.03348 4.00000
4.00000 7.03348 4.00000
4.00000 7.03348 4.00000
4.00000 7.03348 4.00000
4.00000 7.03348 4.00000
4.00000 7.03348 4.00000
4.00000 7.03348 4.00000
4.00000 7.03348 4.00000
4.00000 7.03348 4.00000
4.00000 7.03348 4.00000
4.00000 7.03348 4.00000
4.00000 7.03348 4.00000
4.00000 7.03348 4.00000
4.00000 7.03348 4.00000
4.00000 7.03348 4.00000
4.00000 7.03348 4.00000
4.00000 7.03348 4.00000
4.00000 7.03348 4.00000
4.00000 7.03348 4.00000
4.00000 7.03348 4.00000
4.00000 7.03348 4.00000
4.00000 7.03348 4.00000
4.00000 7.03348 4.00000
4.00000 7.03348 4.00000
4.00000 7.03348 4.00000
4.00000 7.03348 4.00000
4.00000 7.03348 4.00000
4.00000 7.03348 4.00000
4.00000 7.03348 4.00000
4.00000 7.03348 4.00000
4.00000 7.03348 4.00000
4.00000 7.03348 4.00000
4.00000 7.03348 4.00000
4.00000 7.03348 4.00000
4.00000 7.03348 4.00000
4.00000 7.03348 4.00000
4.00000 7.03348 4.00000
4.00000 7.03348 4.00000
4.00000 7.03348 4.00000
4.00000 7.03348 4.00000
4.00000 7.03348 4.00000
4.00000 7.03348 4.00000
4.00000 7.03348 4.00000
4.00000 7.03348 4.00000
4.00000 7.03348 4.00000
4.00000 7.03348 4.00000
4.00000 7.03348 4.00000
4.00000 7.03348 4.00000
4.00000 7.03348 4.00000
4.00000 7.03348 4.00000
4.00000 7.03348 4.00000
4.00000 7.03348 4.00000
4.00000 7.03348 4.00000
4.00000 7.03348 4.00000
4.00000 7.03348 4.00000
4.00000 7.03348 4.00000
4.00000 7.03348 4.00000
4.00000 7.03348 4.00000
4.00000 7.03348 4.00000
4.00000 7.03348 4.00000
4.00000 7.03348 4.00000
4.00000 7.03348 4.00000
4.00000 7.03348 4.00000
4.00000 7.03348 4.00000
4.00000 7.03348 4.00000
4.00000 7.03348 4.00000
4.00000 7.03348 4.00000
4.00000 7.03348 4.00000
4.00000 7.03348 4.00000
4.00000 7.03348 4.00000
4.00000 7.03348 4.00000
4.00000 7.03348 4.00000
4.00000 7.03348 4.00000
4.00000 7.03348 4.00000
4.00000 7.03348 4.00000
4.00000 7.03348 4.00000
4.00000 7.03348 4.00000
4.00000 7.03348 4.00000
4.00000 7.03348 4.00000
4.00000 7.03348 4.00000
4.00000 7.03348 4.00000
4.00000 7.03348 4.00000
4.00000 7.03348 4.00000
4.00000 7.03348 4.00000
4.00000 7.03348 4.00000
4.00000 7.03348 4.00000
4.00000 7.03348 4.00000
4.00000 7.03348 4.00000
4.00000 7.03348 4.00000
4.00000 7.03348 4.00000
4.00000 7.03348 4.00000
4.00000 7.03348 4.00000
4.00000 7.03348 4.00000
4.00000 7.03348 4.00000
4.00000 7.03348 4.00000
4.00000 7.03348 4.00000
4.00000 7.03348 4.00000
4.00000 7.03348 4.00000
4.00000 7.03348 4.00000
4.00000 7.03348 4.00000
4.00000 7.03348 4.00000
4.00000 7.03348 4.00000
4.00000 7.03348 4.00000
4.00000 7.03348 4.00000
4.00000 7.03348 4.00000
4.00000 7.03348 4.00000
4.00000 7.03348 4.00000
4.00000 7.03348 4.00000
4.00000 7.03348 4.00000
4.00000 7.03348 4.00000
4.00000 7.03348 4.00000
4.00000 7.03348 4.00000
4.00000 7.03348 4.00000
4.00000 7.03348 4.00000
4.00000 7.03348 4.00000
4.00000 7.03348 4.00000
4.00000 7.03348 4.00000
4.00000 7.03348 4.00000
4.00000 7.03348 4.00000
4.00000 7.03348 4.00000
4.00000 7.03348 4.00000
4.00000 7.03348 4.00000
4.00000 7.03348 4.00000
4.00000 7.03348 4.00000
4.00000 7.03348 4.00000
4.00000 7.03348 4.00000
4.00000 7.03348 4.00000
4.00000 7.03348 4.00000
4.00000 7.03348 4.00000
4.00000 7.03349 4.00000
4.00000 7.03348 4.00000
4.00000 7.03348 4.00000
4.00000 7.03348 4.00000
4.00000 7.03349 4.00000
4.00000 7.03349 4.00000
4.00098 7.06696 4.00098
4.00330 7.14749 4.00330
4.00556 7.22819 4.00556
4.00779 7.30903 4.00779
4.00998 7.38999 4.00998
4.01215 7.47105 4.01215
4.01432 7.55219 4.01432
4.01648 7.63339 4.01648
4.01866 7.71461 4.01866
4.02086 7.79585 4.02086
4.02310 7.87706 4.02310
4.02539 7.95823 4.02539
4.02774 8.03932 4.02774
4.03019 8.12028 4.03018
4.03274 8.20108 4.03274
4.03542 8.28166 4.03542
4.03828 8.36195 4.03828
4.04134 8.44187 4.04134
4.04466 8.52131 4.04466
4.04832 8.60015 4.04832
4.05239 8.67820 4.05239
4.05688 8.75546 4.05688
4.06178 8.83193 4.06178
4.06713 8.90756 4.06713
4.07295 8.98228 4.07295
4.07927 9.05606 4.07927
4.08610 9.12885 4.08610
4.09344 9.20067 4.09344
4.10128 9.27154 4.10128
4.10955 9.34156 4.10955
4.11820 9.41089 4.11820
4.12710 9.47975 4.12710
4.13608 9.54847 4.13608
4.14493 9.61751 4.14493
4.15336 9.68743 4.15336
4.16100 9.75896 4.16100
4.16741 9.83298 4.16741
4.17211 9.91046 4.17211
4.17460 9.99241 4.17460
4.17448 10.07960 4.17448
4.17256 10.17042 4.17256
4.17000 10.26257 4.17000
4.16682 10.35598 4.16682
4.16305 10.45060 4.16305
4.15869 10.54645 4.15869
4.15371 10.64357 4.15371
4.14806 10.74206 4.14806
4.14167 10.84205 4.14167
4.13444 10.94375 4.13444
4.12623 11.04746 4.12623
4.11680 11.15361 4.11680
4.10584 11.26288 4.10584
4.09280 11.37632 4.09280
4.07684 11.49565 4.07684
4.05670 11.62335 4.05670
4.02971 11.76479 4.02971
4.00000 13.19120 4.00000
4.00000 13.19120 4.00000
4.00000 13.19120 4.00000
4.00000 13.19120 4.00000
4.00000 13.19120 4.00000
4.00000 13.19120 4.00000
4.00000 13.19120 4.00000
4.00000 13.19120 4.00000
4.00000 13.19120 4.00000
4.00000 13.19120 4.00000
4.00000 13.19120 4.00000
4.00000 13.19120 4.00000
4.00000 13.19121 4.00000
4.00000 13.19120 4.00000
4.00000 13.19122 4.00000
4.00475 13.21750 4.00475
4.01497 13.28494 4.01497
4.02319 13.35641 4.02319
4.02944 13.43182 4.02944
4.03380 13.51105 4.03380
4.03636 13.59389 4.03636
4.03792 13.67876 4.03792
4.03944 13.76374 4.03944
4.04091 13.84882 4.04091
4.04235 13.93399 4.04235
4.04377 14.01923 4.04377
4.04516 14.10455 4.04516
4.04652 14.18993 4.04652
4.04787 14.27537 4.04787
4.04920 14.36086 4.04920
4.05051 14.44640 4.05051
4.05181 14.53199 4.05181
4.05310 14.61763 4.05309
4.05437 14.70330 4.05437
4.05564 14.78901 4.05564
4.05690 14.87476 4.05690
4.05815 14.96054 4.05815
4.05939 15.04635 4.05939
4.06059 15.13226 4.06059
4.06159 15.21858 4.06159
4.06239 15.30533 4.06239
4.06300 15.39249 4.06300
4.06342 15.48003 4.06342
4.06367 15.56792 4.06367
4.06377 15.65614 4.06377
4.06373 15.74466 4.06373
4.06355 15.83346 4.06355
4.06325 15.92252 4.06325
4.06285 16.01181 4.06285
4.06234 16.10131 4.06234
4.06175 16.19101 4.06174
4.06107 16.28088 4.06107
4.06033 16.37091 4.06033
4.05952 16.46108 4.05952
4.05866 16.55137 4.05866
4.05775 16.64177 4.05775
4.05680 16.73227 4.05680
4.05582 16.82285 4.05582
4.05480 16.91350 4.05480
4.05377 17.00421 4.05377
4.05271 17.09497 4.05271
4.05164 17.18577 4.05164
4.05056 17.27661 4.05056
4.04948 17.36748 4.04948
4.04839 17.45836 4.04839
4.04730 17.54926 4.04730
4.04621 17.64017 4.04621
4.04512 17.73108 4.04512
4.04405 17.82199 4.04405
4.04298 17.91290 4.04298
4.04192 18.00380 4.04192
4.04087 18.09469 4.04087
4.03984 18.18556 4.03984
4.03882 18.27642 4.03882
4.03782 18.36726 4.03781
4.03683 18.45807 4.03683
4.03585 18.54887 4.03585
4.03490 18.63965 4.03490
4.03396 18.73040 4.03396
4.03304 18.82113 4.03304
4.03214 18.91183 4.03214
4.03126 19.00250 4.03126
4.03039 19.09315 4.03039
4.02955 19.18377 4.02955
4.02872 19.27437 4.02872
4.02791 19.36494 4.02791
4.02712 19.45548 4.02712
4.02635 19.54599 4.02635
4.02560 19.63648 4.02560
4.02487 19.72694 4.02487
4.02415 19.81738 4.02415
4.02345 19.90779 4.02345
4.02277 19.99817 4.02277
4.02211 20.08853 4.02211
4.02146 20.17886 4.02146
4.02084 20.26917 4.02084
4.02022 20.35946 4.02022
4.01963 20.44972 4.01963
4.01905 20.53996 4.01905
4.01849 20.63018 4.01849
4.01794 20.72038 4.01794
4.01740 20.81055 4.01740
4.01688 20.90071 4.01688
4.01638 20.99085 4.01638
4.01589 21.08096 4.01589
4.01541 21.17106 4.01541
4.01495 21.26114 4.01495
4.01450 21.35120 4.01450
4.01406 21.44125 4.01406
4.01364 21.53127 4.01364
4.01323 21.62129 4.01322
4.01282 21.71128 4.01283
4.01244 21.80127 4.01243
4.01206 21.89123 4.01206
4.01169 21.98119 4.01169
4.01134 22.07113 4.01133
4.01099 22.16105 4.01099
4.01065 22.25097 4.01065
4.01033 22.34087 4.01033
4.01001 22.43076 4.01001
4.00971 22.52064 4.00970
4.00941 22.61051 4.00941
4.00912 22.70037 4.00912
4.00884 22.79022 4.00884
4.00857 22.88006 4.00857
4.00830 22.96989 4.00830
4.00805 23.05971 4.00805
4.00780 23.14953 4.00780
4.00756 23.23934 4.00756
4.00733 23.32914 4.00733
4.00710 23.41893 4.00710
4.00688 23.50871 4.00688
4.00667 23.59849 4.00667
4.00646 23.68827 4.00646
4.00626 23.77803 4.00626
4.00607 23.86780 4.00607
4.00588 23.95755 4.00588
4.00570 24.04731 4.00570
4.00552 24.13705 4.00552
4.00535 24.22680 4.00535
4.00518 24.31654 4.00518
4.00502 24.40627 4.00502
4.00487 24.49601 4.00487

Angle 0.065366 4.477980

4.00000 7.03348 4.00000
4.00000 7.03348 4.00000
4.00000 7.03348 4.00000
4.00000 7.03348 4.00000
4.00000 7.03348 4.00000
4.00000 7.03348 4.00000
4.00000 7.03348 4.00000
4.00000 7.03348 4.00000
4.00000 7.03348 4.00000
4.00000 7.03348 4.00000
4.00000 7.03348 4.00000
4.00000 7.03348 4.00000
4.00000 7.03348 4.00000
4.00000 7.03348 4.00000
4.00000 7.03348 4.00000
4.00000 7.03348 4.00000
4.00000 7.03348 4.00000
4.00000 7.03348 4.00000
4.00000 7.03348 4.00000
4.00000 7.03348 4.00000
4.00000 7.03348 4.00000
4.00000 7.03347 4.00000
4.00000 7.03348 4.00000
4.00000 7.03348 4.00000
4.00000 7.03347 4.00000
4.00000 7.03348 4.00000
4.00000 7.03348 4.00000
4.00000 7.03348 4.00000
4.00000 7.03348 4.00000
4.00000 7.03348 4.00000
4.00000 7.03348 4.00000
4.00000 7.03348 4.00000
4.00000 7.03348 4.00000
4.00000 7.03348 4.00000
4.00000 7.03348 4.00000
4.00000 7.03348 4.00000
4.00000 7.03348 4.00000
4.00000 7.03348 4.00000
4.00000 7.03348 4.00000
4.00000 7.03348 4.00000
4.00000 7.03348 4.00000
4.00000 7.03348 4.00000
4.00000 7.03348 4.00000
4.00000 7.03348 4.00000
4.00000 7.03347 4.00000
4.00000 7.03347 4.00000
4.00000 7.03347 4.00000
4.00000 7.03347 4.00000
4.00000 7.03349 4.00000
4.00000 7.03348 4.00000
4.00000 7.03348 4.00000
4.00000 7.03348 4.00000
4.00000 7.03348 4.00000
4.00000 7.03348 4.00000
4.00000 7.03348 4.00000
4.00000 7.03348 4.00000
4.00000 7.03348 4.00000
4.00000 7.03348 4.00000
4.00000 7.03348 4.00000
4.00000 7.03348 4.00000
4.00000 7.03348 4.00000
4.00000 7.03348 4.00000
4.00000 7.03348 4.00000
4.00000 7.03348 4.00000
4.00000 7.03348 4.00000
4.00000 7.03348 4.00000
4.00000 7.03348 4.00000
4.00000 7.03348 4.00000
4.00000 7.03348 4.00000
4.00000 7.03348 4.00000
4.00000 7.03348 4.00000
4.00000 7.03348 4.00000
4.00000 7.03348 4.00000
4.00000 7.03348 4.00000
4.00000 7.03348 4.00000
4.00000 7.03348 4.00000
4.00000 7.03348 4.00000
4.00000 7.03348 4.00000
4.00000 7.03348 4.00000
4.00000 7.03348 4.00000
4.00000 7.03348 4.00000
4.00000 7.03348 4.00000
4.00000 7.03348 4.00000
4.00000 7.03348 4.00000
4.00000 7.03348 4.00000
4.00000 7.03348 4.00000
4.00000 7.03348 4.00000
4.00000 7.03348 4.00000
4.00000 7.03348 4.00000
4.00000 7.03348 4.00000
4.00000 7.03348 4.00000
4.00000 7.03348 4.00000
4.00000 7.03348 4.00000
4.00000 7.03348 4.00000
4.00000 7.03348 4.00000
4.00000 7.03348 4.00000
4.00000 7.03348 4.00000
4.00000 7.03348 4.00000
4.00000 7.03348 4.00000
4.00000 7.03348 4.00000
4.00000 7.03348 4.00000
4.00000 7.03348 4.00000
4.00000 7.03348 4.00000
4.00000 7.03348 4.00000
4.00000 7.03348 4.00000
4.00000 7.03348 4.00000
4.00000 7.03348 4.00000
4.00000 7.03348 4.00000
4.00000 7.03348 4.00000
4.00000 7.03348 4.00000
4.00000 7.03348 4.00000
4.00000 7.03348 4.00000
4.00000 7.03347 4.00000
4.00000 7.03348 4.00000
4.00000 7.03348 4.00000
4.00000 7.03348 4.00000
4.00000 7.03348 4.00000
4.00000 7.03348 4.00000
4.00000 7.03348 4.00000
4.00000 7.03348 4.00000
4.00000 7.03348 4.00000
4.00000 7.03348 4.00000
4.00000 7.03348 4.00000
4.00000 7.03348 4.00000
4.00000 7.03348 4.00000
4.00000 7.03348 4.00000
4.00000 7.03348 4.00000
4.00000 7.03348 4.00000
4.00000 7.03348 4.00000
4.00000 7.03348 4.00000
4.00000 7.03348 4.00000
4.00000 7.03348 4.00000
4.00000 7.03348 4.00000
4.00000 7.03348 4.00000
4.00000 7.03348 4.00000
4.00000 7.03348 4.00000
4.00000 7.03348 4.00000
4.00000 7.03348 4.00000
4.00000 7.03348 4.00000
4.00000 7.03348 4.00000
4.00000 7.03348 4.00000
4.00000 7.03348 4.00000
4.00000 7.03348 4.00000
4.00000 7.03348 4.00000
4.00000 7.03348 4.00000
4.00000 7.03348 4.00000
4.00000 7.03348 4.00000
4.00000 7.03348 4.00000
4.00000 7.03348 4.00000
4.00000 7.03348 4.00000
4.00000 7.03348 4.00000
4.00000 7.03348 4.00000
4.00000 7.03348 4.00000
4.00000 7.03348 4.00000
4.00000 7.03348 4.00000
4.00000 7.03348 4.00000
4.00000 7.03348 4.00000
4.00000 7.03348 4.00000
4.00000 7.03348 4.00000
4.00000 7.03348 4.00000
4.00000 7.03348 4.00000
4.00000 7.03348 4.00000
4.00000 7.03348 4.00000
4.00000 7.03348 4.00000
4.00000 7.03348 4.00000
4.00000 7.03348 4.00000
4.00000 7.03348 4.00000
4.00000 7.03348 4.00000
4.00000 7.03348 4.00000
4.00000 7.03348 4.00000
4.00000 7.03348 4.00000
4.00000 7.03348 4.00000
4.00000 7.03348 4.00000
4.00000 7.03348 4.00000
4.00000 7.03348 4.00000
4.00000 7.03348 4.00000
4.00000 7.03348 4.00000
4.00000 7.03349 4.00000
4.00000 7.03349 4.00000
4.00000 7.03348 4.00000
4.00000 7.03348 4.00000
4.00000 7.03348 4.00000
4.00000 7.03348 4.00000
4.00000 7.03348 4.00000
4.00000 7.03348 4.00000
4.00000 7.03348 4.00000
4.00000 7.03348 4.00000
4.00000 7.03348 4.00000
4.00000 7.03348 4.00000
4.00000 7.03348 4.00000
4.00000 7.03348 4.00000
4.00000 7.03348 4.00000
4.00000 7.03348 4.00000
4.00000 7.03348 4.00000
4.00000 7.03348 4.00000
4.00000 7.03348 4.00000
4.00000 7.03348 4.00000
4.00000 7.03348 4.00000
4.00000 7.03349 4.00000
4.00000 7.03349 4.00000
4.00000 7.03349 4.00000
4.00000 7.03348 4.00000
4.00000 7.03348 4.00000
4.00053 7.05148 4.00053
4.00286 7.13223 4.00286
4.00515 7.21316 4.00515
4.00738 7.29424 4.00738
4.00959 7.37545 4.00959
4.01177 7.45675 4.01177
4.01394 7.53813 4.01394
4.01611 7.61957 4.01611
4.01830 7.70104 4.01830
4.02050 7.78252 4.02050
4.02274 7.86399 4.02274
4.02502 7.94541 4.02502
4.02737 8.02674 4.02737
4.02981 8.10796 4.02981
4.03235 8.18902 4.03235
4.03502 8.26986 4.03502
4.03785 8.35043 4.03785
4.04089 8.43063 4.04089
4.04419 8.51036 4.04419
4.04780 8.58951 4.04780
4.05182 8.66788 4.05182
4.05627 8.74544 4.05627
4.06113 8.82222 4.06113
4.06643 8.89815 4.06643
4.07221 8.97318 4.07221
4.07849 9.04726 4.07849
4.08527 9.12035 4.08527
4.09257 9.19245 4.09257
4.10037 9.26360 4.10037
4.10862 9.33388 4.10862
4.11725 9.40344 4.11725
4.12615 9.47250 4.12615
4.13516 9.54138 4.13516
4.14405 9.61052 4.14405
4.15256 9.68049 4.15256
4.16031 9.75199 4.16031
4.16687 9.82589 4.16687
4.17177 9.90318 4.17177
4.17448 9.98486 4.17448
4.17460 10.07176 4.17460
4.17275 10.16262 4.17275
4.17023 10.25487 4.17023
4.16710 10.34836 4.16710
4.16337 10.44309 4.16337
4.15905 10.53904 4.15905
4.15410 10.63626 4.15410
4.14849 10.73484 4.14849
4.14215 10.83491 4.14215
4.13497 10.93669 4.13497
4.12681 11.04045 4.12681
4.11746 11.14664 4.11746
4.10658 11.25589 4.10658
4.09367 11.36924 4.09367
4.07788 11.48839 4.07788
4.05800 11.61573 4.05800
4.03147 11.75641 4.03147
4.00000 13.19120 4.00000
4.00000 13.19120 4.00000
4.00000 13.19120 4.00000
4.00000 13.19120 4.00000
4.00000 13.19120 4.00000
4.00000 13.19120 4.00000
4.00000 13.19120 4.00000
4.00000 13.19120 4.00000
4.00000 13.19120 4.00000
4.00000 13.19120 4.00000
4.00000 13.19120 4.00000
4.00000 13.19120 4.00000
4.00000 13.19120 4.00000
4.00000 13.19120 4.00000
4.00000 13.19120 4.00000
4.00443 13.21567 4.00443
4.01473 13.28310 4.01473
4.02301 13.35458 4.02301
4.02931 13.43002 4.02931
4.03372 13.50929 4.03372
4.03633 13.59219 4.03633
4.03789 13.67717 4.03789
4.03941 13.76228 4.03941
4.04089 13.84748 4.04089
4.04233 13.93278 4.04233
4.04375 14.01814 4.04375
4.04514 14.10358 4.04514
4.04651 14.18909 4.04651
4.04786 14.27465 4.04786
4.04919 14.36026 4.04919
4.05050 14.44593 4.05050
4.05180 14.53163 4.05180
4.05309 14.61739 4.05309
4.05437 14.70318 4.05437
4.05564 14.78901 4.05564
4.05690 14.87487 4.05690
4.05815 14.96076 4.05815
4.05939 15.04669 4.05939
4.06060 15.13271 4.06060
4.06160 15.21915 4.06160
4.06240 15.30602 4.06240
4.06300 15.39330 4.06300
4.06342 15.48095 4.06342
4.06367 15.56895 4.06367
4.06377 15.65729 4.06377
4.06372 15.74592 4.06372
4.06354 15.83484 4.06354
4.06325 15.92401 4.06324
4.06284 16.01341 4.06284
4.06233 16.10303 4.06233
4.06173 16.19284 4.06173
4.06106 16.28282 4.06106
4.06031 16.37296 4.06031
4.05950 16.46324 4.05950
4.05864 16.55364 4.05864
4.05772 16.64414 4.05772
4.05677 16.73475 4.05677
4.05579 16.82543 4.05579
4.05477 16.91618 4.05477
4.05373 17.00700 4.05373
4.05268 17.09786 4.05268
4.05161 17.18877 4.05161
4.05053 17.27971 4.05053
4.04944 17.37068 4.04944
4.04835 17.46166 4.04835
4.04726 17.55266 4.04726
4.04617 17.64366 4.04617
4.04508 17.73467 4.04508
4.04400 17.82568 4.04400
4.04293 17.91668 4.04293
4.04188 18.00767 4.04188
4.04083 18.09865 4.04083
4.03979 18.18962 4.03979
4.03877 18.28057 4.03877
4.03777 18.37150 4.03777
4.03678 18.46240 4.03678
4.03581 18.55329 4.03581
4.03485 18.64416 4.03485
4.03391 18.73499 4.03391
4.03299 18.82581 4.03299
4.03209 18.91660 4.03209
4.03121 19.00736 4.03121
4.03035 19.09809 4.03035
4.02950 19.18880 4.02950
4.02867 19.27948 4.02867
4.02787 19.37013 4.02787
4.02708 19.46075 4.02708
4.02631 19.55135 4.02631
4.02556 19.64192 4.02556
4.02482 19.73246 4.02482
4.02411 19.82297 4.02411
4.02341 19.91346 4.02341
4.02273 20.00393 4.02273
4.02207 20.09436 4.02207
4.02142 20.18478 4.02142
4.02079 20.27517 4.02079
4.02018 20.36553 4.02018
4.01959 20.45587 4.01959
4.01901 20.54618 4.01901
4.01845 20.63648 4.01845
4.01790 20.72675 4.01790
4.01736 20.81700 4.01736
4.01685 20.90723 4.01685
4.01634 20.99744 4.01634
4.01585 21.08763 4.01585
4.01538 21.17780 4.01538
4.01492 21.26795 4.01492
4.01447 21.35808 4.01447
4.01403 21.44820 4.01403
4.01361 21.53830 4.01360
4.01319 21.62838 4.01319
4.01279 21.71845 4.01279
4.01241 21.80850 4.01240
4.01203 21.89853 4.01203
4.01166 21.98856 4.01166
4.01131 22.07856 4.01131
4.01096 22.16856 4.01096
4.01063 22.25854 4.01063
4.01030 22.34851 4.01030
4.00999 22.43847 4.00999
4.00968 22.52842 4.00968
4.00938 22.61835 4.00938
4.00910 22.70828 4.00909
4.00882 22.79819 4.00882
4.00854 22.88810 4.00854
4.00828 22.97799 4.00828
4.00803 23.06788 4.00803
4.00778 23.15776 4.00778
4.00754 23.24763 4.00754
4.00731 23.33749 4.00731
4.00708 23.42735 4.00708
4.00686 23.51719 4.00686
4.00665 23.60704 4.00665
4.00644 23.69687 4.00644
4.00624 23.78670 4.00624
4.00605 23.87652 4.00605
4.00586 23.96634 4.00586
4.00568 24.05615 4.00568
4.00550 24.14596 4.00550
4.00533 24.23576 4.00533
4.00517 24.32556 4.00517

Angle 0.231080 3.028871

4.00000 7.03348 4.00000
4.00000 7.03348 4.00000
4.00000 7.03348 4.00000
4.00000 7.03348 4.00000
4.00000 7.03348 4.00000
4.00000 7.03348 4.00000
4.00000 7.03348 4.00000
4.00000 7.03348 4.00000
4.00000 7.03348 4.00000
4.00000 7.03348 4.00000
4.00000 7.03348 4.00000
4.00000 7.03348 4.00000
4.00000 7.03348 4.00000
4.00000 7.03348 4.00000
4.00000 7.03348 4.00000
4.00000 7.03348 4.00000
4.00000 7.03348 4.00000
4.00000 7.03348 4.00000
4.00000 7.03348 4.00000
4.00000 7.03348 4.00000
4.00000 7.03348 4.00000
4.00000 7.03348 4.00000
4.00000 7.03348 4.00000
4.00000 7.03348 4.00000
4.00000 7.03348 4.00000
4.00000 7.03348 4.00000
4.00000 7.03348 4.00000
4.00000 7.03348 4.00000
4.00000 7.03348 4.00000
4.00000 7.03348 4.00000
4.00000 7.03348 4.00000
4.00000 7.03348 4.00000
4.00000 7.03348 4.00000
4.00000 7.03348 4.00000
4.00000 7.03348 4.00000
4.00000 7.03348 4.00000
4.00000 7.03348 4.00000
4.00000 7.03348 4.00000
4.00000 7.03348 4.00000
4.00000 7.03348 4.00000
4.00000 7.03348 4.00000
4.00000 7.03348 4.00000
4.00000 7.03348 4.00000
4.00000 7.03348 4.00000
4.00000 7.03348 4.00000
4.00000 7.03348 4.00000
4.00000 7.03348 4.00000
4.00000 7.03348 4.00000
4.00000 7.03348 4.00000
4.00000 7.03348 4.00000
4.00000 7.03348 4.00000
4.00000 7.03348 4.00000
4.00000 7.03348 4.00000
4.00000 7.03348 4.00000
4.00000 7.03348 4.00000
4.00000 7.03348 4.00000
4.00000 7.03348 4.00000
4.00000 7.03348 4.00000
4.00000 7.03348 4.00000
4.00000 7.03348 4.00000
4.00000 7.03348 4.00000
4.00000 7.03348 4.00000
4.00000 7.03348 4.00000
4.00000 7.03348 4.00000
4.00000 7.03348 4.00000
4.00000 7.03348 4.00000
4.00000 7.03348 4.00000
4.00000 7.03348 4.00000
4.00000 7.03348 4.00000
4.00000 7.03348 4.00000
4.00000 7.03348 4.00000
4.00000 7.03348 4.00000
4.00000 7.03348 4.00000
4.00000 7.03348 4.00000
4.00000 7.03348 4.00000
4.00000 7.03348 4.00000
4.00000 7.03348 4.00000
4.00000 7.03348 4.00000
4.00000 7.03348 4.00000
4.00000 7.03348 4.00000
4.00000 7.03348 4.00000
4.00000 7.03348 4.00000
4.00000 7.03348 4.00000
4.00000 7.03348 4.00000
4.00000 7.03348 4.00000
4.00000 7.03348 4.00000
4.00000 7.03348 4.00000
4.00000 7.03348 4.00000
4.00000 7.03348 4.00000
4.00000 7.03348 4.00000
4.00000 7.03348 4.00000
4.00000 7.03348 4.00000
4.00000 7.03348 4.00000
4.00000 7.03348 4.00000
4.00000 7.03348 4.00000
4.00000 7.03348 4.00000
4.00000 7.03348 4.00000
4.00000 7.03348 4.00000
4.00000 7.03348 4.00000
4.00000 7.03348 4.00000
4.00000 7.03348 4.00000
4.00000 7.03348 4.00000
4.00000 7.03348 4.00000
4.00000 7.03348 4.00000
4.00000 7.03348 4.00000
4.00000 7.03348 4.00000
4.00000 7.03348 4.00000
4.00000 7.03348 4.00000
4.00000 7.03348 4.00000
4.00000 7.03348 4.00000
4.00000 7.03348 4.00000
4.00000 7.03348 4.00000
4.00000 7.03348 4.00000
4.00000 7.03348 4.00000
4.00000 7.03348 4.00000
4.00000 7.03348 4.00000
4.00000 7.03348 4.00000
4.00000 7.03348 4.00000
4.00000 7.03348 4.00000
4.00000 7.03348 4.00000
4.00000 7.03348 4.00000
4.00000 7.03348 4.00000
4.00000 7.03348 4.00000
4.00000 7.03348 4.00000
4.00000 7.03348 4.00000
4.00000 7.03348 4.00000
4.00000 7.03348 4.00000
4.00000 7.03348 4.00000
4.00000 7.03348 4.00000
4.00000 7.03348 4.00000
4.00000 7.03348 4.00000
4.00000 7.03348 4.00000
4.00000 7.03348 4.00000
4.00000 7.03348 4.00000
4.00000 7.03348 4.00000
4.00000 7.03348 4.00000
4.00000 7.03348 4.00000
4.00000 7.03348 4.00000
4.00000 7.03348 4.00000
4.00000 7.03348 4.00000
4.00000 7.03348 4.00000
4.00000 7.03348 4.00000
4.00000 7.03348 4.00000
4.00000 7.03348 4.00000
4.00000 7.03348 4.00000
4.00000 7.03348 4.00000
4.00000 7.03348 4.00000
4.00000 7.03348 4.00000
4.00000 7.03348 4.00000
4.00000 7.03348 4.00000
4.00000 7.03348 4.00000
4.00000 7.03348 4.00000
4.00000 7.03348 4.00000
4.00000 7.03348 4.00000
4.00000 7.03348 4.00000
4.00000 7.03348 4.00000
4.00000 7.03348 4.00000
4.00000 7.03348 4.00000
4.00000 7.03348 4.00000
4.00000 7.03348 4.00000
4.00000 7.03348 4.00000
4.00000 7.03349 4.00000
4.00000 7.03348 4.00000
4.00000 7.03348 4.00000
4.00000 7.03348 4.00000
4.00000 7.03351 4.00000
4.00000 7.03359 4.00000
4.00136 7.07993 4.00136
4.00363 7.15905 4.00363
4.00584 7.23834 4.00585
4.00803 7.31778 4.00803
4.01018 7.39736 4.01018
4.01231 7.47705 4.01231
4.01444 7.55683 4.01444
4.01657 7.63667 4.01657
4.01871 7.71656 4.01871
4.02088 7.79648 4.02088
4.02308 7.87639 4.02308
4.02533 7.95628 4.02533
4.02765 8.03610 4.02765
4.03005 8.11581 4.03005
4.03255 8.19539 4.03255
4.03519 8.27477 4.03519
4.03798 8.35389 4.03798
4.04097 8.43267 4.04097
4.04422 8.51102 4.04422
4.04777 8.58881 4.04777
4.05171 8.66588 4.05171
4.05607 8.74216 4.05607
4.06083 8.81772 4.06083
4.06602 8.89247 4.06602
4.07166 8.96636 4.07166
4.07779 9.03935 4.07779
4.08441 9.11140 4.08441
4.09153 9.18250 4.09153
4.09914 9.25268 4.09914
4.10719 9.32202 4.10719
4.11563 9.39063 4.11563
4.12436 9.45873 4.12436
4.13323 9.52659 4.13323
4.14204 9.59462 4.14204
4.15054 9.66332 4.15054
4.15840 9.73334 4.15840
4.16523 9.80547 4.16523
4.17057 9.88063 4.17057
4.17392 9.95981 4.17392
4.17485 10.04387 4.17485
4.17344 10.13267 4.17344
4.17116 10.22324 4.17116
4.16828 10.31506 4.16828
4.16481 10.40809 4.16481
4.16077 10.50233 4.16077
4.15613 10.59779 4.15613
4.15086 10.69456 4.15086
4.14491 10.79273 4.14491
4.13818 10.89247 4.13818
4.13057 10.99404 4.13057
4.12190 11.09777 4.12190
4.11190 11.20418 4.11190
4.10019 11.31407 4.10019
4.08609 11.42875 4.08609
4.06867 11.55013 4.06867
4.04628 11.68147 4.04628
4.01497 11.83069 4.01498
4.00000 13.19120 4.00000
4.00000 13.19120 4.00000
4.00000 13.19120 4.00000
4.00000 13.19120 4.00000
4.00000 13.19120 4.00000
4.00000 13.19120 4.00000
4.00000 13.19120 4.00000
4.00000 13.19120 4.00000
4.00000 13.19120 4.00000
4.00000 13.19120 4.00000
4.00000 13.19120 4.00000
4.00000 13.19120 4.00000
4.00000 13.19120 4.00000
4.00000 13.19122 4.00000
4.00000 13.19120 4.00000
4.00771 13.23535 4.00771
4.01732 13.30329 4.01732
4.02496 13.37518 4.02496
4.03068 13.45093 4.03068
4.03456 13.53039 4.03456
4.03673 13.61333 4.03673
4.03826 13.69754 4.03826
4.03975 13.78186 4.03975
4.04121 13.86628 4.04121
4.04264 13.95079 4.04264
4.04403 14.03539 4.04403
4.04541 14.12005 4.04541
4.04676 14.20478 4.04676
4.04809 14.28958 4.04809
4.04941 14.37444 4.04941
4.05071 14.45935 4.05071
4.05199 14.54431 4.05199
4.05327 14.62931 4.05327
4.05453 14.71437 4.05454
4.05579 14.79946 4.05579
4.05704 14.88459 4.05704
4.05828 14.96976 4.05828
4.05951 15.05497 4.05951
4.06069 15.14030 4.06069
4.06167 15.22606 4.06167
4.06245 15.31225 4.06245
4.06303 15.39884 4.06303
4.06344 15.48581 4.06344
4.06368 15.57312 4.06368
4.06377 15.66077 4.06377
4.06372 15.74872 4.06372
4.06354 15.83694 4.06354
4.06324 15.92542 4.06324
4.06283 16.01414 4.06283
4.06233 16.10307 4.06233
4.06173 16.19220 4.06174
4.06106 16.28150 4.06107
4.06032 16.37096 4.06033
4.05952 16.46057 4.05952
4.05867 16.55030 4.05867
4.05777 16.64014 4.05777
4.05682 16.73008 4.05682
4.05585 16.82010 4.05585
4.05484 16.91020 4.05484
4.05381 17.00037 4.05381
4.05276 17.09059 4.05276
4.05170 17.18086 4.05170
4.05063 17.27116 4.05063
4.04955 17.36150 4.04955
4.04846 17.45186 4.04846
4.04738 17.54224 4.04738
4.04630 17.63263 4.04630
4.04522 17.72302 4.04522
4.04415 17.81343 4.04415
4.04309 17.90383 4.04309
4.04203 17.99422 4.04203
4.04099 18.08461 4.04099
4.03996 18.17499 4.03996
4.03894 18.26536 4.03894
4.03794 18.35571 4.03794
4.03696 18.44605 4.03696
4.03599 18.53637 4.03599
4.03503 18.62667 4.03503
4.03410 18.71695 4.03410
4.03318 18.80721 4.03318
4.03228 18.89745 4.03228
4.03140 18.98766 4.03140
4.03054 19.07785 4.03054
4.02969 19.16802 4.02969
4.02887 19.25817 4.02887
4.02806 19.34829 4.02806
4.02727 19.43839 4.02727
4.02650 19.52846 4.02650
4.02575 19.61851 4.02575
4.02501 19.70854 4.02501
4.02430 19.79855 4.02430
4.02360 19.88853 4.02360
4.02292 19.97849 4.02292
4.02226 20.06842 4.02226
4.02161 20.15834 4.02161
4.02098 20.24823 4.02098
4.02037 20.33811 4.02037
4.01977 20.42796 4.01977
4.01919 20.51779 4.01919
4.01862 20.60761 4.01862
4.01807 20.69740 4.01807
4.01754 20.78718 4.01754
4.01702 20.87694 4.01702
4.01651 20.96668 4.01651
4.01602 21.05640 4.01602
4.01554 21.14611 4.01554
4.01508 21.23581 4.01508
4.01463 21.32548 4.01463
4.01419 21.41515 4.01419
4.01376 21.50479 4.01376
4.01335 21.59443 4.01335
4.01294 21.68405 4.01294
4.01255 21.77366 4.01255
4.01217 21.86326 4.01217
4.01180 21.95284 4.01180
4.01145 22.04242 4.01145
4.01110 22.13198 4.01110
4.01076 22.22153 4.01076
4.01043 22.31108 4.01043
4.01012 22.40061 4.01012
4.00981 22.49013 4.00981
4.00951 22.57965 4.00951
4.00922 22.66916 4.00922
4.00894 22.75866 4.00894
4.00866 22.84816 4.00866
4.00840 22.93764 4.00840
4.00814 23.02712 4.00814
4.00789 23.11659 4.00789
4.00765 23.20606 4.00765
4.00741 23.29553 4.00741
4.00719 23.38498 4.00719
4.00696 23.47444 4.00696
4.00675 23.56388 4.00675
4.00654 23.65333 4.00654
4.00634 23.74277 4.00634
4.00614 23.83220 4.00614
4.00595 23.92164 4.00596
4.00577 24.01107 4.00577
4.00559 24.10049 4.00559
4.00542 24.18992 4.00542
4.00525 24.27934 4.00525
4.00509 24.36876 4.00509
4.00493 24.45818 4.00493
4.00478 24.54760 4.00478
4.00463 24.63701 4.00463
4.00449 24.72643 4.00449
4.00435 24.81584 4.00435
4.00421 24.90525 4.00421
4.00408 24.99467 4.00408
4.00396 25.08408 4.00396
4.00383 25.17349 4.00383
4.00371 25.26290 4.00371
4.00360 25.35232 4.00360
4.00349 25.44173 4.00349
4.00338 25.53114 4.00338
4.00327 25.62055 4.00327
4.00317 25.70997 4.00317
4.00307 25.79938 4.00307
4.00298 25.88880 4.00298
4.00288 25.97822 4.00288
4.00279 26.06763 4.00279
4.00271 26.15705 4.00271
4.00262 26.24648 4.00262
4.00254 26.33590 4.00254
4.00246 26.42532 4.00246
4.00238 26.51475 4.00238
4.00231 26.60418 4.00231
4.00224 26.69361 4.00224
4.00217 26.78304 4.00217
4.00210 26.87248 4.00210
4.00203 26.96191 4.00203
4.00197 27.05135 4.00197
4.00191 27.14080 4.00191
4.00185 27.23024 4.00185
4.00179 27.31969 4.00179
4.00173 27.40914 4.00174

