Angle 0.297078 1.640082

4.00000 7.03348 4.00000
4.00000 7.03350 4.00000
4.00000 7.03350 4.00000
4.00000 7.03348 4.00000
4.00000 7.03348 4.00000
4.00000 7.03348 4.00000
4.00000 7.03348 4.00000
4.00000 7.03348 4.00000
4.00000 7.03348 4.00000
4.00000 7.03348 4.00000
4.00000 7.03348 4.00000
4.00000 7.03348 4.00000
4.00000 7.03348 4.00000
4.00000 7.03348 4.00000
4.00000 7.03348 4.00000
4.00000 7.03348 4.00000
4.00000 7.03348 4.00000
4.00000 7.03348 4.00000
4.00000 7.03348 4.00000
4.00000 7.03348 4.00000
4.00000 7.03348 4.00000
4.00000 7.03348 4.00000
4.00000 7.03348 4.00000
4.00000 7.03348 4.00000
4.00000 7.03348 4.00000
4.00000 7.03348 4.00000
4.00000 7.03348 4.00000
4.00000 7.03348 4.00000
4.00000 7.03347 4.00000
4.00000 7.03348 4.00000
4.00000 7.03348 4.00000
4.00000 7.03348 4.00000
4.00000 7.03348 4.00000
4.00000 7.03348 4.00000
4.00000 7.03348 4.00000
4.00000 7.03348 4.00000
4.00000 7.03348 4.00000
4.00000 7.03348 4.00000
4.00000 7.03348 4.00000
4.00000 7.03348 4.00000
4.00000 7.03348 4.00000
4.00000 7.03348 4.00000
4.00000 7.03348 4.00000
4.00000 7.03348 4.00000
4.00000 7.03348 4.00000
4.00000 7.03348 4.00000
4.00000 7.03348 4.00000
4.00000 7.03348 4.00000
4.00000 7.03348 4.00000
4.00000 7.03348 4.00000
4.00000 7.03348 4.00000
4.00000 7.03348 4.00000
4.00000 7.03348 4.00000
4.00000 7.03348 4.00000
4.00000 7.03348 4.00000
4.00000 7.03348 4.00000
4.00000 7.03348 4.00000
4.00000 7.03348 4.00000
4.00000 7.03348 4.00000
4.00000 7.03348 4.00000
4.00000 7.03348 4.00000
4.00000 7.03348 4.00000
4.00000 7.03348 4.00000
4.00000 7.03348 4.00000
4.00000 7.03348 4.00000
4.00000 7.03348 4.00000
4.00000 7.03348 4.00000
4.00000 7.03348 4.00000
4.00000 7.03348 4.00000
4.00000 7.03348 4.00000
4.00000 7.03348 4.00000
4.00000 7.03348 4.00000
4.00000 7.03348 4.00000
4.00000 7.03348 4.00000
4.00000 7.03348 4.00000
4.00000 7.03348 4.00000
4.00000 7.03348 4.00000
4.00000 7.03348 4.00000
4.00000 7.03348 4.00000
4.00000 7.03348 4.00000
4.00000 7.03348 4.00000
4.00000 7.03348 4.00000
4.00000 7.03348 4.00000
4.00000 7.03348 4.00000
4.00000 7.03348 4.00000
4.00000 7.03348 4.00000
4.00000 7.03348 4.00000
4.00000 7.03348 4.00000
4.00000 7.03348 4.00000
4.00000 7.03348 4.00000
4.00000 7.03348 4.00000
4.00000 7.03348 4.00000
4.00000 7.03348 4.00000
4.00000 7.03348 4.00000
4.00000 7.03348 4.00000
4.00000 7.03348 4.00000
4.00000 7.03348 4.00000
4.00000 7.03348 4.00000
4.00000 7.03348 4.00000
4.00000 7.03348 4.00000
4.00000 7.03348 4.00000
4.00000 7.03348 4.00000
4.00000 7.03348 4.00000
4.00000 7.03348 4.00000
4.00000 7.03348 4.00000
4.00000 7.03348 4.00000
4.00000 7.03348 4.00000
4.00000 7.03348 4.00000
4.00000 7.03348 4.00000
4.00000 7.03348 4.00000
4.00000 7.03348 4.00000
4.00000 7.03348 4.00000
4.00000 7.03348 4.00000
4.00000 7.03348 4.00000
4.00000 7.03348 4.00000
4.00000 7.03348 4.00000
4.00000 7.03348 4.00000
4.00000 7.03348 4.00000
4.00000 7.03348 4.00000
4.00000 7.03348 4.00000
4.00000 7.03348 4.00000
4.00000 7.03348 4.00000
4.00000 7.03348 4.00000
4.00000 7.03348 4.00000
4.00000 7.03348 4.00000
4.00000 7.03348 4.00000
4.00000 7.03348 4.00000
4.00000 7.03348 4.00000
4.00000 7.03348 4.00000
4.00000 7.03348 4.00000
4.00000 7.03348 4.00000
4.00000 7.03348 4.00000
4.00000 7.03348 4.00000
4.00000 7.03348 4.00000
4.00000 7.03348 4.00000
4.00000 7.03348 4.00000
4.00000 7.03348 4.00000
4.00000 7.03348 4.00000
4.00000 7.03349 4.00000
4.00000 7.03348 4.00000
4.00000 7.03348 4.00000
4.00000 7.03348 4.00000
4.00000 7.03348 4.00000
4.00000 7.03348 4.00000
4.00000 7.03348 4.00000
4.00000 7.03348 4.00000
4.00000 7.03348 4.00000
4.00000 7.03352 4.00000
4.00000 7.03348 4.00000
4.00000 7.03349 4.00000
4.00000 7.03348 4.00000
4.00000 7.03350 4.00000
4.00000 7.03348 4.00000
4.00207 7.10442 4.00207
4.00438 7.18585 4.00438
4.00665 7.26743 4.00665
4.00888 7.34913 4.00888
4.01108 7.43094 4.01108
4.01327 7.51283 4.01327
4.01545 7.59477 4.01545
4.01764 7.67675 4.01764
4.01985 7.75874 4.01985
4.02209 7.84071 4.02209
4.02438 7.92264 4.02438
4.02672 8.00449 4.02672
4.02915 8.08623 4.02915
4.03167 8.16781 4.03167
4.03432 8.24918 4.03432
4.03713 8.33029 4.03713
4.04013 8.41104 4.04013
4.04337 8.49135 4.04337
4.04692 8.57108 4.04692
4.05086 8.65008 4.05086
4.05524 8.72823 4.05524
4.06004 8.80560 4.06004
4.06527 8.88212 4.06527
4.07098 8.95774 4.07098
4.07718 9.03240 4.07718
4.08390 9.10606 4.08390
4.09114 9.17872 4.09114
4.09888 9.25041 4.09888
4.10709 9.32119 4.10709
4.11571 9.39120 4.11571
4.12461 9.46066 4.12461
4.13366 9.52988 4.13366
4.14263 9.59927 4.14263
4.15126 9.66939 4.15126
4.15919 9.74093 4.15919
4.16599 9.81474 4.16599
4.17119 9.89182 4.17119
4.17425 9.97319 4.17425
4.17474 10.05973 4.17474
4.17303 10.15070 4.17303
4.17058 10.24318 4.17058
4.16751 10.33693 4.16751
4.16384 10.43191 4.16384
4.15957 10.52812 4.15957
4.15467 10.62560 4.15467
4.14911 10.72444 4.14911
4.14282 10.82477 4.14282
4.13570 10.92678 4.13570
4.12761 11.03075 4.12761
4.11834 11.13712 4.11834
4.10758 11.24650 4.10757
4.09481 11.35991 4.09481
4.07922 11.47899 4.07922
4.05963 11.60608 4.05963
4.03362 11.74605 4.03362
4.00000 13.19120 4.00000
4.00000 13.19120 4.00000
4.00000 13.19120 4.00000
4.00000 13.19120 4.00000
4.00000 13.19120 4.00000
4.00000 13.19120 4.00000
4.00000 13.19120 4.00000
4.00000 13.19120 4.00000
4.00000 13.19120 4.00000
4.00000 13.19120 4.00000
4.00000 13.19120 4.00000
4.00000 13.19120 4.00000
4.00000 13.19120 4.00000
4.00000 13.19122 4.00000
4.00001 13.19124 4.00001
4.00429 13.21483 4.00429
4.01464 13.28244 4.01464
4.02296 13.35412 4.02296
4.02930 13.42978 4.02930
4.03372 13.50929 4.03372
4.03633 13.59246 4.03633
4.03790 13.67771 4.03790
4.03942 13.76308 4.03942
4.04091 13.84855 4.04091
4.04236 13.93410 4.04236
4.04378 14.01973 4.04378
4.04517 14.10542 4.04517
4.04654 14.19119 4.04654
4.04789 14.27700 4.04789
4.04923 14.36286 4.04923
4.05055 14.44877 4.05055
4.05185 14.53473 4.05185
4.05314 14.62073 4.05314
4.05442 14.70676 4.05442
4.05569 14.79283 4.05569
4.05696 14.87894 4.05696
4.05821 14.96507 4.05821
4.05946 15.05123 4.05946
4.06066 15.13750 4.06066
4.06165 15.22420 4.06165
4.06244 15.31133 4.06244
4.06303 15.39886 4.06303
4.06344 15.48676 4.06344
4.06369 15.57502 4.06369
4.06377 15.66360 4.06377
4.06372 15.75249 4.06372
4.06353 15.84165 4.06353
4.06322 15.93106 4.06322
4.06280 16.02071 4.06280
4.06228 16.11057 4.06228
4.06168 16.20061 4.06168
4.06099 16.29083 4.06099
4.06024 16.38120 4.06024
4.05942 16.47171 4.05942
4.05855 16.56233 4.05855
4.05763 16.65307 4.05763
4.05668 16.74389 4.05668
4.05568 16.83480 4.05568
4.05466 16.92577 4.05466
4.05362 17.01680 4.05362
4.05256 17.10788 4.05256
4.05149 17.19899 4.05149
4.05040 17.29014 4.05040
4.04931 17.38131 4.04931
4.04822 17.47250 4.04822
4.04712 17.56370 4.04712
4.04603 17.65491 4.04603
4.04495 17.74611 4.04495
4.04387 17.83732 4.04387
4.04280 17.92851 4.04280
4.04174 18.01970 4.04174
4.04069 18.11087 4.04069
4.03965 18.20202 4.03965
4.03863 18.29316 4.03863
4.03763 18.38427 4.03763
4.03664 18.47537 4.03664
4.03567 18.56644 4.03567
4.03471 18.65748 4.03471
4.03378 18.74850 4.03378
4.03286 18.83949 4.03286
4.03196 18.93045 4.03196
4.03108 19.02139 4.03108
4.03021 19.11230 4.03021
4.02937 19.20318 4.02937
4.02854 19.29403 4.02854
4.02774 19.38485 4.02774
4.02695 19.47564 4.02695
4.02618 19.56640 4.02618
4.02543 19.65714 4.02543
4.02470 19.74785 4.02470
4.02399 19.83853 4.02399
4.02329 19.92918 4.02329
4.02261 20.01980 4.02261
4.02195 20.11040 4.02195
4.02131 20.20097 4.02131
4.02068 20.29152 4.02068
4.02007 20.38204 4.02007
4.01948 20.47253 4.01948
4.01890 20.56301 4.01890
4.01834 20.65345 4.01834
4.01780 20.74388 4.01779
4.01726 20.83428 4.01726
4.01675 20.92466 4.01675
4.01625 21.01502 4.01625
4.01576 21.10536 4.01576
4.01529 21.19568 4.01528
4.01483 21.28597 4.01482
4.01438 21.37625 4.01438
4.01394 21.46652 4.01394
4.01352 21.55676 4.01352
4.01311 21.64699 4.01311
4.01271 21.73720 4.01271
4.01233 21.82739 4.01232
4.01195 21.91757 4.01195
4.01159 22.00773 4.01158
4.01123 22.09788 4.01123
4.01089 22.18801 4.01089
4.01056 22.27813 4.01055
4.01023 22.36824 4.01023
4.00992 22.45833 4.00992
4.00961 22.54842 4.00961
4.00932 22.63849 4.00932
4.00903 22.72855 4.00903
4.00875 22.81859 4.00875
4.00848 22.90863 4.00848
4.00822 22.99866 4.00822
4.00797 23.08868 4.00797
4.00772 23.17869 4.00772
4.00748 23.26869 4.00748
4.00725 23.35868 4.00725
4.00703 23.44866 4.00703
4.00681 23.53864 4.00681
4.00660 23.62861 4.00660
4.00639 23.71857 4.00639
4.00620 23.80852 4.00620
4.00600 23.89847 4.00600
4.00582 23.98841 4.00582
4.00564 24.07835 4.00564
4.00546 24.16828 4.00546
4.00529 24.25821 4.00529
4.00513 24.34813 4.00513
4.00497 24.43804 4.00497
4.00481 24.52796 4.00481
4.00466 24.61786 4.00466
4.00452 24.70777 4.00452
4.00438 24.79767 4.00438
4.00424 24.88756 4.00424
4.00411 24.97745 4.00411
4.00398 25.06734 4.00398
4.00385 25.15723 4.00385
4.00373 25.24712 4.00373
4.00362 25.33700 4.00362
4.00350 25.42688 4.00350
4.00339 25.51675 4.00339
4.00329 25.60663 4.00329
4.00319 25.69650 4.00319
4.00309 25.78637 4.00309
4.00299 25.87624 4.00299
4.00290 25.96611 4.00290
4.00281 26.05598 4.00281
4.00272 26.14585 4.00272
4.00263 26.23571 4.00263
4.00255 26.32558 4.00255
4.00247 26.41544 4.00247
4.00239 26.50531 4.00239
4.00232 26.59517 4.00232
4.00224 26.68503 4.00224
4.00217 26.77490 4.00217
4.00211 26.86476 4.00211
4.00204 26.95463 4.00204
4.00198 27.04449 4.00198
4.00191 27.13435 4.00191
4.00185 27.22422 4.00185
4.00180 27.31408 4.00180
4.00174 27.40395 4.00174
4.00168 27.49381 4.00168
4.00163 27.58368 4.00163
4.00158 27.67354 4.00158
4.00153 27.76341 4.00153
4.00148 27.85328 4.00148
4.00144 27.94315 4.00144
4.00139 28.03302 4.00139
4.00135 28.12289 4.00135
4.00130 28.21277 4.00130
4.00126 28.30264 4.00126
4.00122 28.39251 4.00122
4.00119 28.48239 4.00119
4.00115 28.57227 4.00115
4.00111 28.66215 4.00111
4.00108 28.75203 4.00108
4.00104 28.84191 4.00104
4.00101 28.93179 4.00101

Angle 0.652201 2.087085

4.00000 7.03348 4.00000
4.00000 7.03348 4.00000
4.00000 7.03348 4.00000
4.00000 7.03348 4.00000
4.00000 7.03348 4.00000
4.00000 7.03348 4.00000
4.00000 7.03348 4.00000
4.00000 7.03348 4.00000
4.00000 7.03348 4.00000
4.00000 7.03348 4.00000
4.00000 7.03348 4.00000
4.00000 7.03348 4.00000
4.00000 7.03348 4.00000
4.00000 7.03348 4.00000
4.00000 7.03348 4.00000
4.00000 7.03348 4.00000
4.00000 7.03348 4.00000
4.00000 7.03348 4.00000
4.00000 7.03348 4.00000
4.00000 7.03348 4.00000
4.00000 7.03348 4.00000
4.00000 7.03348 4.00000
4.00000 7.03348 4.00000
4.00000 7.03348 4.00000
4.00000 7.03348 4.00000
4.00000 7.03348 4.00000
4.00000 7.03348 4.00000
4.00000 7.03348 4.00000
4.00000 7.03348 4.00000
4.00000 7.03348 4.00000
4.00000 7.03348 4.00000
4.00000 7.03348 4.00000
4.00000 7.03348 4.00000
4.00000 7.03348 4.00000
4.00000 7.03348 4.00000
4.00000 7.03348 4.00000
4.00000 7.03348 4.00000
4.00000 7.03348 4.00000
4.00000 7.03348 4.00000
4.00000 7.03347 4.00000
4.00000 7.03348 4.00000
4.00000 7.03348 4.00000
4.00000 7.03348 4.00000
4.00000 7.03348 4.00000
4.00000 7.03348 4.00000
4.00000 7.03348 4.00000
4.00000 7.03348 4.00000
4.00000 7.03348 4.00000
4.00000 7.03348 4.00000
4.00000 7.03348 4.00000
4.00000 7.03348 4.00000
4.00000 7.03348 4.00000
4.00000 7.03348 4.00000
4.00000 7.03348 4.00000
4.00000 7.03348 4.00000
4.00000 7.03348 4.00000
4.00000 7.03348 4.00000
4.00000 7.03348 4.00000
4.00000 7.03348 4.00000
4.00000 7.03348 4.00000
4.00000 7.03348 4.00000
4.00000 7.03348 4.00000
4.00000 7.03348 4.00000
4.00000 7.03348 4.00000
4.00000 7.03348 4.00000
4.00000 7.03348 4.00000
4.00000 7.03348 4.00000
4.00000 7.03348 4.00000
4.00000 7.03348 4.00000
4.00000 7.03348 4.00000
4.00000 7.03348 4.00000
4.00000 7.03348 4.00000
4.00000 7.03348 4.00000
4.00000 7.03348 4.00000
4.00000 7.03348 4.00000
4.00000 7.03348 4.00000
4.00000 7.03348 4.00000
4.00000 7.03348 4.00000
4.00000 7.03348 4.00000
4.00000 7.03348 4.00000
4.00000 7.03348 4.00000
4.00000 7.03348 4.00000
4.00000 7.03348 4.00000
4.00000 7.03348 4.00000
4.00000 7.03348 4.00000
4.00000 7.03348 4.00000
4.00000 7.03348 4.00000
4.00000 7.03348 4.00000
4.00000 7.03348 4.00000
4.00000 7.03348 4.00000
4.00000 7.03348 4.00000
4.00000 7.03348 4.00000
4.00000 7.03348 4.00000
4.00000 7.03348 4.00000
4.00000 7.03348 4.00000
4.00000 7.03348 4.00000
4.00000 7.03348 4.00000
4.00000 7.03348 4.00000
4.00000 7.03348 4.00000
4.00000 7.03348 4.00000
4.00000 7.03348 4.00000
4.00000 7.03348 4.00000
4.00000 7.03348 4.00000
4.00000 7.03348 4.00000
4.00000 7.03348 4.00000
4.00000 7.03348 4.00000
4.00000 7.03348 4.00000
4.00000 7.03348 4.00000
4.00000 7.03348 4.00000
4.00000 7.03348 4.00000
4.00000 7.03348 4.00000
4.00000 7.03348 4.00000
4.00000 7.03348 4.00000
4.00000 7.03348 4.00000
4.00000 7.03348 4.00000
4.00000 7.03348 4.00000
4.00000 7.03348 4.00000
4.00000 7.03348 4.00000
4.00000 7.03348 4.00000
4.00000 7.03348 4.00000
4.00000 7.03348 4.00000
4.00000 7.03348 4.00000
4.00000 7.03348 4.00000
4.00000 7.03348 4.00000
4.00000 7.03348 4.00000
4.00000 7.03349 4.00000
4.00000 7.03348 4.00000
4.00000 7.03348 4.00000
4.00000 7.03347 4.00000
4.00000 7.03348 4.00000
4.00000 7.03348 4.00000
4.00000 7.03348 4.00000
4.00000 7.03348 4.00000
4.00000 7.03348 4.00000
4.00000 7.03348 4.00000
4.00000 7.03348 4.00000
4.00000 7.03348 4.00000
4.00000 7.03348 4.00000
4.00000 7.03348 4.00000
4.00000 7.03348 4.00000
4.00000 7.03348 4.00000
4.00000 7.03348 4.00000
4.00000 7.03348 4.00000
4.00000 7.03348 4.00000
4.00000 7.03348 4.00000
4.00000 7.03348 4.00000
4.00000 7.03348 4.00000
4.00000 7.03348 4.00000
4.00000 7.03348 4.00000
4.00000 7.03348 4.00000
4.00000 7.03348 4.00000
4.00000 7.03348 4.00000
4.00000 7.03348 4.00000
4.00000 7.03348 4.00000
4.00000 7.03348 4.00000
4.00000 7.03348 4.00000
4.00000 7.03348 4.00000
4.00000 7.03348 4.00000
4.00000 7.03348 4.00000
4.00000 7.03348 4.00000
4.00000 7.03348 4.00000
4.00000 7.03348 4.00000
4.00000 7.03348 4.00000
4.00000 7.03348 4.00000
4.00000 7.03348 4.00000
4.00000 7.03348 4.00000
4.00000 7.03348 4.00000
4.00000 7.03348 4.00000
4.00000 7.03348 4.00000
4.00000 7.03348 4.00000
4.00000 7.03348 4.00000
4.00000 7.03348 4.00000
4.00000 7.03348 4.00000
4.00000 7.03348 4.00000
4.00000 7.03348 4.00000
4.00000 7.03348 4.00000
4.00000 7.03348 4.00000
4.00000 7.03348 4.00000
4.00000 7.03349 4.00000
4.00000 7.03348 4.00000
4.00000 7.03348 4.00000
4.00000 7.03348 4.00000
4.00000 7.03348 4.00000
4.00000 7.03348 4.00000
4.00000 7.03348 4.00000
4.00000 7.03348 4.00000
4.00000 7.03348 4.00000
4.00000 7.03348 4.00000
4.00000 7.03348 4.00000
4.00000 7.03348 4.00000
4.00000 7.03348 4.00000
4.00000 7.03348 4.00000
4.00000 7.03348 4.00000
4.00000 7.03349 4.00000
4.00000 7.03351 4.00000
4.00000 7.03348 4.00000
4.00000 7.03349 4.00000
4.00000 7.03348 4.00000
4.00000 7.03348 4.00000
4.00000 7.03349 4.00000
4.00104 7.06901 4.00104
4.00271 7.12685 4.00271
4.00436 7.18504 4.00436
4.00599 7.24354 4.00599
4.00761 7.30237 4.00761
4.00921 7.36149 4.00921
4.01081 7.42091 4.01081
4.01241 7.48060 4.01241
4.01401 7.54057 4.01401
4.01561 7.60080 4.01561
4.01723 7.66127 4.01723
4.01886 7.72197 4.01886
4.02051 7.78290 4.02051
4.02218 7.84403 4.02218
4.02389 7.90535 4.02389
4.02563 7.96685 4.02563
4.02742 8.02850 4.02742
4.02927 8.09029 4.02927
4.03118 8.15219 4.03118
4.03316 8.21417 4.03316
4.03524 8.27622 4.03524
4.03741 8.33828 4.03741
4.03972 8.40033 4.03972
4.04217 8.46232 4.04217
4.04479 8.52417 4.04479
4.04762 8.58583 4.04762
4.05071 8.64721 4.05071
4.05408 8.70823 4.05408
4.05771 8.76895 4.05771
4.06161 8.82934 4.06161
4.06579 8.88937 4.06579
4.07029 8.94898 4.07029
4.07510 9.00816 4.07510
4.08025 9.06687 4.08025
4.08574 9.12510 4.08574
4.09157 9.18285 4.09157
4.09773 9.24011 4.09773
4.10422 9.29693 4.10422
4.11100 9.35335 4.11100
4.11802 9.40947 4.11802
4.12523 9.46540 4.12523
4.13254 9.52132 4.13254
4.13984 9.57744 4.13984
4.14699 9.63403 4.14699
4.15382 9.69144 4.15382
4.16012 9.75008 4.16012
4.16564 9.81044 4.16564
4.17012 9.87307 4.17012
4.17326 9.93856 4.17326
4.17477 10.00745 4.17477
4.17447 10.08014 4.17447
4.17292 10.15549 4.17292
4.17091 10.23191 4.17091
4.16848 10.30935 4.16848
4.16562 10.38780 4.16562
4.16234 10.46723 4.16234
4.15863 10.54767 4.15863
4.15448 10.62916 4.15448
4.14986 10.71173 4.14986
4.14473 10.79548 4.14473
4.13903 10.88051 4.13903
4.13268 10.96697 4.13268
4.12559 11.05507 4.12559
4.11760 11.14510 4.11760
4.10852 11.23746 4.10852
4.09803 11.33277 4.09803
4.08567 11.43197 4.08567
4.07080 11.53632 4.07080
4.05242 11.64780 4.05242
4.02848 11.77056 4.02848
4.00000 13.19120 4.00000
4.00000 13.19120 4.00000
4.00000 13.19120 4.00000
4.00000 13.19120 4.00000
4.00000 13.19120 4.00000
4.00000 13.19121 4.00000
4.00000 13.19120 4.00000
4.00000 13.19120 4.00000
4.00000 13.19120 4.00000
4.00000 13.19120 4.00000
4.00000 13.19120 4.00000
4.00000 13.19120 4.00000
4.00000 13.19120 4.00000
4.00000 13.19120 4.00000
4.00000 13.19120 4.00000
4.00000 13.19121 4.00000
4.00000 13.19120 4.00000
4.00068 13.19479 4.00068
4.01038 13.25249 4.01038
4.01854 13.31340 4.01854
4.02516 13.37748 4.02516
4.03029 13.44466 4.03029
4.03396 13.51485 4.03396
4.03624 13.58792 4.03624
4.03763 13.66286 4.03763
4.03898 13.73799 4.03898
4.04030 13.81329 4.04030
4.04159 13.88873 4.04159
4.04286 13.96431 4.04286
4.04411 14.04003 4.04411
4.04534 14.11588 4.04534
4.04655 14.19186 4.04655
4.04775 14.26796 4.04775
4.04894 14.34417 4.04894
4.05011 14.42049 4.05011
4.05128 14.49693 4.05128
4.05243 14.57347 4.05243
4.05358 14.65012 4.05358
4.05472 14.72686 4.05472
4.05585 14.80371 4.05585
4.05698 14.88065 4.05698
4.05810 14.95769 4.05810
4.05922 15.03481 4.05922
4.06032 15.11205 4.06032
4.06128 15.18966 4.06128
4.06207 15.26769 4.06207
4.06270 15.34612 4.06270
4.06317 15.42494 4.06317
4.06350 15.50412 4.06350
4.06370 15.58364 4.06370
4.06377 15.66349 4.06377
4.06373 15.74365 4.06373
4.06357 15.82411 4.06357
4.06332 15.90483 4.06332
4.06297 15.98582 4.06297
4.06254 16.06704 4.06254
4.06204 16.14849 4.06204
4.06146 16.23015 4.06146
4.06082 16.31201 4.06082
4.06012 16.39405 4.06013
4.05938 16.47626 4.05938
4.05859 16.55863 4.05859
4.05776 16.64115 4.05776
4.05689 16.72380 4.05689
4.05600 16.80657 4.05599
4.05507 16.88947 4.05507
4.05413 16.97247 4.05413
4.05317 17.05557 4.05317
4.05220 17.13876 4.05220
4.05121 17.22204 4.05121
4.05022 17.30540 4.05022
4.04922 17.38883 4.04922
4.04822 17.47233 4.04822
4.04722 17.55589 4.04722
4.04622 17.63951 4.04622
4.04522 17.72318 4.04522
4.04423 17.80690 4.04423
4.04324 17.89066 4.04324
4.04226 17.97447 4.04226
4.04129 18.05832 4.04129
4.04033 18.14220 4.04033
4.03938 18.22612 4.03938
4.03845 18.31007 4.03845
4.03752 18.39405 4.03752
4.03661 18.47806 4.03661
4.03571 18.56210 4.03571
4.03483 18.64616 4.03483
4.03396 18.73025 4.03396
4.03311 18.81436 4.03311
4.03227 18.89849 4.03227
4.03145 18.98264 4.03145
4.03064 19.06681 4.03064
4.02985 19.15100 4.02985
4.02908 19.23521 4.02908
4.02832 19.31944 4.02832
4.02757 19.40369 4.02757
4.02685 19.48795 4.02685
4.02613 19.57223 4.02613
4.02544 19.65652 4.02544
4.02476 19.74084 4.02476
4.02409 19.82517 4.02409
4.02344 19.90952 4.02344
4.02280 19.99388 4.02281
4.02219 20.07826 4.02218
4.02158 20.16266 4.02158
4.02099 20.24707 4.02099
4.02041 20.33150 4.02041
4.01985 20.41594 4.01985
4.01930 20.50040 4.01930
4.01877 20.58488 4.01877
4.01824 20.66938 4.01824
4.01774 20.75389 4.01774
4.01724 20.83841 4.01724
4.01676 20.92296 4.01676
4.01629 21.00752 4.01629
4.01583 21.09210 4.01583
4.01538 21.17670 4.01538
4.01495 21.26131 4.01495
4.01452 21.34594 4.01452
4.01411 21.43059 4.01411
4.01371 21.51526 4.01371
4.01332 21.59994 4.01332
4.01294 21.68464 4.01294
4.01257 21.76936 4.01257
4.01221 21.85410 4.01221
4.01186 21.93886 4.01186
4.01152 22.02364 4.01152
4.01119 22.10844 4.01119
4.01087 22.19325 4.01087
4.01055 22.27809 4.01055

Angle 0.232673 1.645669

4.00000 7.03348 4.00000
4.00000 7.03348 4.00000
4.00000 7.03347 4.00000
4.00000 7.03347 4.00000
4.00000 7.03347 4.00000
4.00000 7.03347 4.00000
4.00000 7.03347 4.00000
4.00000 7.03347 4.00000
4.00000 7.03347 4.00000
4.00000 7.03347 4.00000
4.00000 7.03347 4.00000
4.00000 7.03347 4.00000
4.00000 7.03347 4.00000
4.00000 7.03347 4.00000
4.00000 7.03347 4.00000
4.00000 7.03348 4.00000
4.00000 7.03348 4.00000
4.00000 7.03348 4.00000
4.00000 7.03348 4.00000
4.00000 7.03348 4.00000
4.00000 7.03348 4.00000
4.00000 7.03348 4.00000
4.00000 7.03348 4.00000
4.00000 7.03348 4.00000
4.00000 7.03348 4.00000
4.00000 7.03348 4.00000
4.00000 7.03348 4.00000
4.00000 7.03348 4.00000
4.00000 7.03348 4.00000
4.00000 7.03348 4.00000
4.00000 7.03348 4.00000
4.00000 7.03348 4.00000
4.00000 7.03348 4.00000
4.00000 7.03348 4.00000
4.00000 7.03348 4.00000
4.00000 7.03348 4.00000
4.00000 7.03348 4.00000
4.00000 7.03348 4.00000
4.00000 7.03348 4.00000
4.00000 7.03348 4.00000
4.00000 7.03348 4.00000
4.00000 7.03348 4.00000
4.00000 7.03348 4.00000
4.00000 7.03348 4.00000
4.00000 7.03348 4.00000
4.00000 7.03348 4.00000
4.00000 7.03348 4.00000
4.00000 7.03348 4.00000
4.00000 7.03348 4.00000
4.00000 7.03348 4.00000
4.00000 7.03348 4.00000
4.00000 7.03348 4.00000
4.00000 7.03348 4.00000
4.00000 7.03346 4.00000
4.00000 7.03346 4.00000
4.00000 7.03348 4.00000
4.00000 7.03348 4.00000
4.00000 7.03348 4.00000
4.00000 7.03348 4.00000
4.00000 7.03348 4.00000
4.00000 7.03348 4.00000
4.00000 7.03348 4.00000
4.00000 7.03348 4.00000
4.00000 7.03348 4.00000
4.00000 7.03348 4.00000
4.00000 7.03348 4.00000
4.00000 7.03348 4.00000
4.00000 7.03348 4.00000
4.00000 7.03348 4.00000
4.00000 7.03348 4.00000
4.00000 7.03346 4.00000
4.00000 7.03345 4.00000
4.00000 7.03348 4.00000
4.00000 7.03348 4.00000
4.00000 7.03348 4.00000
4.00000 7.03348 4.00000
4.00000 7.03348 4.00000
4.00000 7.03348 4.00000
4.00000 7.03348 4.00000
4.00000 7.03348 4.00000
4.00000 7.03348 4.00000
4.00000 7.03348 4.00000
4.00000 7.03348 4.00000
4.00000 7.03348 4.00000
4.00000 7.03348 4.00000
4.00000 7.03348 4.00000
4.00000 7.03348 4.00000
4.00000 7.03348 4.00000
4.00000 7.03348 4.00000
4.00000 7.03348 4.00000
4.00000 7.03348 4.00000
4.00000 7.03348 4.00000
4.00000 7.03348 4.00000
4.00000 7.03348 4.00000
4.00000 7.03348 4.00000
4.00000 7.03348 4.00000
4.00000 7.03348 4.00000
4.00000 7.03348 4.00000
4.00000 7.03348 4.00000
4.00000 7.03348 4.00000
4.00000 7.03348 4.00000
4.00000 7.03348 4.00000
4.00000 7.03348 4.00000
4.00000 7.03348 4.00000
4.00000 7.03348 4.00000
4.00000 7.03348 4.00000
4.00000 7.03348 4.00000
4.00000 7.03348 4.00000
4.00000 7.03348 4.00000
4.00000 7.03348 4.00000
4.00000 7.03348 4.00000
4.00000 7.03348 4.00000
4.00000 7.03348 4.00000
4.00000 7.03348 4.00000
4.00000 7.03348 4.00000
4.00000 7.03348 4.00000
4.00000 7.03348 4.00000
4.00000 7.03348 4.00000
4.00000 7.03348 4.00000
4.00000 7.03348 4.00000
4.00000 7.03348 4.00000
4.00000 7.03348 4.00000
4.00000 7.03348 4.00000
4.00000 7.03348 4.00000
4.00000 7.03348 4.00000
4.00000 7.03348 4.00000
4.00000 7.03348 4.00000
4.00000 7.03348 4.00000
4.00000 7.03348 4.00000
4.00000 7.03348 4.00000
4.00000 7.03348 4.00000
4.00000 7.03348 4.00000
4.00000 7.03348 4.00000
4.00000 7.03348 4.00000
4.00000 7.03348 4.00000
4.00000 7.03348 4.00000
4.00000 7.03348 4.00000
4.00000 7.03348 4.00000
4.00000 7.03348 4.00000
4.00000 7.03348 4.00000
4.00000 7.03348 4.00000
4.00000 7.03348 4.00000
4.00000 7.03348 4.00000
4.00000 7.03348 4.00000
4.00000 7.03348 4.00000
4.00000 7.03348 4.00000
4.00000 7.03348 4.00000
4.00000 7.03348 4.00000
4.00000 7.03348 4.00000
4.00000 7.03348 4.00000
4.00000 7.03348 4.00000
4.00000 7.03348 4.00000
4.00000 7.03348 4.00000
4.00000 7.03348 4.00000
4.00000 7.03348 4.00000
4.00000 7.03348 4.00000
4.00000 7.03348 4.00000
4.00000 7.03348 4.00000
4.00000 7.03348 4.00000
4.00000 7.03348 4.00000
4.00000 7.03348 4.00000
4.00000 7.03348 4.00000
4.00000 7.03348 4.00000
4.00000 7.03348 4.00000
4.00000 7.03348 4.00000
4.00000 7.03348 4.00000
4.00000 7.03348 4.00000
4.00000 7.03348 4.00000
4.00000 7.03348 4.00000
4.00000 7.03348 4.00000
4.00000 7.03348 4.00000
4.00000 7.03348 4.00000
4.00000 7.03348 4.00000
4.00000 7.03348 4.00000
4.00000 7.03348 4.00000
4.00000 7.03348 4.00000
4.00000 7.03348 4.00000
4.00000 7.03348 4.00000
4.00000 7.03348 4.00000
4.00000 7.03348 4.00000
4.00000 7.03348 4.00000
4.00000 7.03348 4.00000
4.00000 7.03348 4.00000
4.00000 7.03348 4.00000
4.00000 7.03348 4.00000
4.00000 7.03348 4.00000
4.00000 7.03348 4.00000
4.00000 7.03348 4.00000
4.00000 7.03348 4.00000
4.00000 7.03348 4.00000
4.00000 7.03348 4.00000
4.00000 7.03348 4.00000
4.00000 7.03348 4.00000
4.00000 7.03348 4.00000
4.00000 7.03348 4.00000
4.00000 7.03348 4.00000
4.00000 7.03348 4.00000
4.00000 7.03348 4.00000
4.00000 7.03348 4.00000
4.00000 7.03348 4.00000
4.00000 7.03349 4.00000
4.00000 7.03348 4.00000
4.00000 7.03348 4.00000
4.00000 7.03348 4.00000
4.00000 7.03348 4.00000
4.00000 7.03348 4.00000
4.00000 7.03348 4.00000
4.00000 7.03348 4.00000
4.00000 7.03348 4.00000
4.00000 7.03348 4.00000
4.00000 7.03348 4.00000
4.00039 7.04665 4.00039
4.00274 7.12782 4.00274
4.00503 7.20914 4.00503
4.00728 7.29061 4.00728
4.00950 7.37220 4.00950
4.01170 7.45389 4.01170
4.01388 7.53565 4.01388
4.01606 7.61747 4.01606
4.01825 7.69931 4.01825
4.02046 7.78116 4.02046
4.02271 7.86299 4.02271
4.02500 7.94477 4.02500
4.02736 8.02646 4.02737
4.02981 8.10803 4.02981
4.03236 8.18944 4.03236
4.03504 8.27062 4.03504
4.03789 8.35151 4.03789
4.04095 8.43204 4.04095
4.04426 8.51208 4.04426
4.04790 8.59153 4.04790
4.05195 8.67020 4.05195
4.05643 8.74803 4.05643
4.06132 8.82508 4.06132
4.06666 8.90127 4.06666
4.07248 8.97655 4.07248
4.07881 9.05086 4.07881
4.08564 9.12417 4.08564
4.09300 9.19649 4.09300
4.10085 9.26784 4.10085
4.10916 9.33832 4.10916
4.11784 9.40809 4.11784
4.12679 9.47737 4.12679
4.13583 9.54649 4.13583
4.14473 9.61592 4.14473
4.15322 9.68621 4.15322
4.16091 9.75812 4.16091
4.16738 9.83252 4.16738
4.17211 9.91042 4.17211
4.17460 9.99283 4.17460
4.17446 10.08053 4.17446
4.17253 10.17186 4.17253
4.16994 10.26453 4.16993
4.16673 10.35845 4.16673
4.16293 10.45360 4.16293
4.15852 10.54998 4.15852
4.15348 10.64765 4.15348
4.14777 10.74670 4.14777
4.14132 10.84727 4.14132
4.13401 10.94957 4.13401
4.12569 11.05392 4.12569
4.11613 11.16077 4.11613
4.10499 11.27081 4.10499
4.09171 11.38516 4.09171
4.07539 11.50561 4.07539
4.05472 11.63478 4.05472
4.02675 11.77857 4.02675
4.00000 13.19120 4.00000
4.00000 13.19120 4.00000
4.00000 13.19120 4.00000
4.00000 13.19120 4.00000
4.00000 13.19120 4.00000
4.00000 13.19120 4.00000
4.00000 13.19120 4.00000
4.00000 13.19120 4.00000
4.00000 13.19120 4.00000
4.00000 13.19120 4.00000
4.00000 13.19120 4.00000
4.00000 13.19120 4.00000
4.00000 13.19120 4.00000
4.00000 13.19121 4.00000
4.00000 13.19120 4.00000
4.00650 13.22792 4.00650
4.01644 13.29627 4.01644
4.02436 13.36868 4.02436
4.03031 13.44505 4.03031
4.03437 13.52522 4.03437
4.03664 13.60898 4.03664
4.03820 13.69420 4.03820
4.03971 13.77952 4.03971
4.04119 13.86493 4.04119
4.04263 13.95043 4.04263
4.04404 14.03600 4.04404
4.04543 14.12164 4.04543
4.04680 14.20734 4.04680
4.04814 14.29309 4.04814
4.04947 14.37890 4.04947
4.05079 14.46475 4.05079
4.05209 14.55065 4.05209
4.05338 14.63659 4.05338
4.05466 14.72257 4.05466
4.05593 14.80858 4.05593
4.05719 14.89462 4.05719
4.05844 14.98069 4.05844
4.05968 15.06680 4.05968
4.06085 15.15307 4.06085
4.06181 15.23978 4.06181
4.06256 15.32692 4.06256
4.06312 15.41446 4.06312
4.06350 15.50236 4.06350
4.06371 15.59062 4.06371
4.06377 15.67920 4.06377
4.06369 15.76807 4.06369
4.06348 15.85721 4.06348
4.06315 15.94661 4.06315
4.06272 16.03623 4.06272
4.06218 16.12606 4.06218
4.06156 16.21608 4.06156
4.06087 16.30627 4.06087
4.06010 16.39660 4.06010
4.05928 16.48707 4.05928
4.05840 16.57766 4.05840
4.05747 16.66835 4.05747
4.05651 16.75913 4.05651
4.05552 16.84999 4.05552
4.05449 16.94091 4.05449
4.05345 17.03189 4.05345
4.05238 17.12292 4.05238
4.05131 17.21399 4.05131
4.05022 17.30509 4.05022
4.04913 17.39621 4.04913
4.04804 17.48734 4.04804
4.04695 17.57849 4.04695
4.04586 17.66964 4.04586
4.04477 17.76079 4.04477
4.04369 17.85194 4.04369
4.04263 17.94308 4.04263
4.04157 18.03421 4.04157
4.04052 18.12533 4.04052
4.03949 18.21643 4.03949
4.03847 18.30751 4.03847
4.03747 18.39857 4.03747
4.03649 18.48961 4.03649
4.03552 18.58063 4.03552
4.03457 18.67162 4.03457
4.03363 18.76258 4.03363
4.03272 18.85352 4.03272
4.03182 18.94443 4.03182
4.03094 19.03531 4.03094
4.03008 19.12617 4.03008
4.02924 19.21699 4.02924
4.02842 19.30779 4.02842
4.02762 19.39856 4.02762
4.02683 19.48930 4.02683
4.02607 19.58002 4.02607
4.02532 19.67070 4.02532
4.02459 19.76136 4.02459
4.02388 19.85199 4.02388
4.02319 19.94259 4.02319
4.02251 20.03316 4.02251
4.02186 20.12371 4.02186
4.02122 20.21424 4.02122
4.02059 20.30473 4.02059
4.01999 20.39521 4.01999
4.01940 20.48566 4.01940
4.01882 20.57608 4.01882
4.01826 20.66648 4.01826
4.01772 20.75686 4.01772
4.01719 20.84722 4.01719
4.01667 20.93756 4.01668
4.01618 21.02787 4.01618
4.01569 21.11816 4.01569
4.01522 21.20844 4.01522
4.01476 21.29869 4.01476
4.01431 21.38893 4.01431
4.01388 21.47915 4.01388
4.01346 21.56935 4.01346
4.01305 21.65954 4.01305
4.01266 21.74970 4.01266
4.01227 21.83985 4.01227
4.01190 21.92999 4.01190
4.01153 22.02011 4.01153
4.01118 22.11022 4.01118
4.01084 22.20031 4.01084
4.01051 22.29039 4.01051
4.01019 22.38046 4.01019
4.00987 22.47052 4.00987
4.00957 22.56056 4.00957
4.00928 22.65059 4.00928
4.00899 22.74061 4.00899
4.00872 22.83062 4.00872
4.00845 22.92062 4.00845
4.00819 23.01061 4.00819
4.00793 23.10059 4.00793
4.00769 23.19056 4.00769
4.00745 23.28053 4.00745
4.00722 23.37048 4.00722
4.00700 23.46043 4.00700
4.00678 23.55037 4.00678
4.00657 23.64030 4.00657

Angle 0.394800 3.309135

4.00000 7.03348 4.00000
4.00000 7.03348 4.00000
4.00000 7.03348 4.00000
4.00000 7.03349 4.00000
4.00000 7.03347 4.00000
4.00000 7.03348 4.00000
4.00000 7.03347 4.00000
4.00000 7.03348 4.00000
4.00000 7.03348 4.00000
4.00000 7.03348 4.00000
4.00000 7.03348 4.00000
4.00000 7.03348 4.00000
4.00000 7.03348 4.00000
4.00000 7.03348 4.00000
4.00000 7.03348 4.00000
4.00000 7.03348 4.00000
4.00000 7.03348 4.00000
4.00000 7.03348 4.00000
4.00000 7.03348 4.00000
4.00000 7.03348 4.00000
4.00000 7.03348 4.00000
4.00000 7.03348 4.00000
4.00000 7.03348 4.00000
4.00000 7.03348 4.00000
4.00000 7.03348 4.00000
4.00000 7.03348 4.00000
4.00000 7.03348 4.00000
4.00000 7.03348 4.00000
4.00000 7.03348 4.00000
4.00000 7.03348 4.00000
4.00000 7.03348 4.00000
4.00000 7.03348 4.00000
4.00000 7.03348 4.00000
4.00000 7.03348 4.00000
4.00000 7.03348 4.00000
4.00000 7.03348 4.00000
4.00000 7.03348 4.00000
4.00000 7.03348 4.00000
4.00000 7.03348 4.00000
4.00000 7.03348 4.00000
4.00000 7.03348 4.00000
4.00000 7.03348 4.00000
4.00000 7.03348 4.00000
4.00000 7.03348 4.00000
4.00000 7.03348 4.00000
4.00000 7.03348 4.00000
4.00000 7.03348 4.00000
4.00000 7.03348 4.00000
4.00000 7.03348 4.00000
4.00000 7.03348 4.00000
4.00000 7.03348 4.00000
4.00000 7.03348 4.00000
4.00000 7.03348 4.00000
4.00000 7.03348 4.00000
4.00000 7.03348 4.00000
4.00000 7.03348 4.00000
4.00000 7.03348 4.00000
4.00000 7.03348 4.00000
4.00000 7.03348 4.00000
4.00000 7.03348 4.00000
4.00000 7.03348 4.00000
4.00000 7.03348 4.00000
4.00000 7.03348 4.00000
4.00000 7.03348 4.00000
4.00000 7.03348 4.00000
4.00000 7.03348 4.00000
4.00000 7.03348 4.00000
4.00000 7.03348 4.00000
4.00000 7.03348 4.00000
4.00000 7.03348 4.00000
4.00000 7.03348 4.00000
4.00000 7.03348 4.00000
4.00000 7.03348 4.00000
4.00000 7.03348 4.00000
4.00000 7.03348 4.00000
4.00000 7.03348 4.00000
4.00000 7.03348 4.00000
4.00000 7.03348 4.00000
4.00000 7.03348 4.00000
4.00000 7.03348 4.00000
4.00000 7.03348 4.00000
4.00000 7.03348 4.00000
4.00000 7.03348 4.00000
4.00000 7.03348 4.00000
4.00000 7.03348 4.00000
4.00000 7.03348 4.00000
4.00000 7.03348 4.00000
4.00000 7.03348 4.00000
4.00000 7.03348 4.00000
4.00000 7.03348 4.00000
4.00000 7.03348 4.00000
4.00000 7.03348 4.00000
4.00000 7.03348 4.00000
4.00000 7.03348 4.00000
4.00000 7.03348 4.00000
4.00000 7.03348 4.00000
4.00000 7.03348 4.00000
4.00000 7.03348 4.00000
4.00000 7.03348 4.00000
4.00000 7.03348 4.00000
4.00000 7.03348 4.00000
4.00000 7.03348 4.00000
4.00000 7.03348 4.00000
4.00000 7.03348 4.00000
4.00000 7.03348 4.00000
4.00000 7.03348 4.00000
4.00000 7.03348 4.00000
4.00000 7.03348 4.00000
4.00000 7.03349 4.00000
4.00000 7.03348 4.00000
4.00000 7.03348 4.00000
4.00000 7.03348 4.00000
4.00000 7.03348 4.00000
4.00000 7.03348 4.00000
4.00000 7.03348 4.00000
4.00000 7.03348 4.00000
4.00000 7.03348 4.00000
4.00000 7.03348 4.00000
4.00000 7.03348 4.00000
4.00000 7.03348 4.00000
4.00000 7.03348 4.00000
4.00000 7.03348 4.00000
4.00000 7.03348 4.00000
4.00000 7.03348 4.00000
4.00000 7.03348 4.00000
4.00000 7.03348 4.00000
4.00000 7.03348 4.00000
4.00000 7.03348 4.00000
4.00000 7.03348 4.00000
4.00000 7.03348 4.00000
4.00000 7.03348 4.00000
4.00000 7.03348 4.00000
4.00000 7.03348 4.00000
4.00000 7.03348 4.00000
4.00000 7.03348 4.00000
4.00000 7.03348 4.00000
4.00000 7.03348 4.00000
4.00000 7.03348 4.00000
4.00000 7.03348 4.00000
4.00000 7.03348 4.00000
4.00000 7.03348 4.00000
4.00000 7.03348 4.00000
4.00000 7.03348 4.00000
4.00000 7.03348 4.00000
4.00000 7.03348 4.00000
4.00000 7.03348 4.00000
4.00000 7.03348 4.00000
4.00000 7.03348 4.00000
4.00000 7.03348 4.00000
4.00000 7.03348 4.00000
4.00000 7.03348 4.00000
4.00000 7.03348 4.00000
4.00000 7.03348 4.00000
4.00000 7.03348 4.00000
4.00000 7.03347 4.00000
4.00000 7.03348 4.00000
4.00000 7.03349 4.00000
4.00000 7.03349 4.00000
4.00000 7.03349 4.00000
4.00000 7.03349 4.00000
4.00000 7.03349 4.00000
4.00000 7.03349 4.00000
4.00000 7.03348 4.00000
4.00000 7.03348 4.00000
4.00000 7.03348 4.00000
4.00000 7.03348 4.00000
4.00000 7.03348 4.00000
4.00000 7.03348 4.00000
4.00000 7.03348 4.00000
4.00000 7.03348 4.00000
4.00000 7.03348 4.00000
4.00000 7.03348 4.00000
4.00000 7.03348 4.00000
4.00000 7.03348 4.00000
4.00000 7.03348 4.00000
4.00000 7.03348 4.00000
4.00000 7.03348 4.00000
4.00000 7.03348 4.00000
4.00000 7.03348 4.00000
4.00000 7.03348 4.00000
4.00000 7.03348 4.00000
4.00000 7.03348 4.00000
4.00000 7.03348 4.00000
4.00000 7.03348 4.00000
4.00000 7.03348 4.00000
4.00000 7.03348 4.00000
4.00000 7.03348 4.00000
4.00000 7.03348 4.00000
4.00000 7.03348 4.00000
4.00000 7.03348 4.00000
4.00000 7.03348 4.00000
4.00000 7.03348 4.00000
4.00000 7.03348 4.00000
4.00000 7.03348 4.00000
4.00000 7.03348 4.00000
4.00000 7.03348 4.00000
4.00000 7.03348 4.00000
4.00000 7.03349 4.00000
4.00000 7.03349 4.00000
4.00000 7.03349 4.00000
4.00000 7.03348 4.00000
4.00000 7.03348 4.00000
4.00000 7.03348 4.00000
4.00000 7.03348 4.00000
4.00000 7.03348 4.00000
4.00000 7.03348 4.00000
4.00000 7.03348 4.00000
4.00000 7.03348 4.00000
4.00000 7.03348 4.00000
4.00000 7.03348 4.00000
4.00000 7.03348 4.00000
4.00000 7.03348 4.00000
4.00000 7.03348 4.00000
4.00000 7.03348 4.00000
4.00000 7.03348 4.00000
4.00000 7.03348 4.00000
4.00000 7.03348 4.00000
4.00000 7.03348 4.00000
4.00000 7.03348 4.00000
4.00000 7.03348 4.00000
4.00000 7.03348 4.00000
4.00000 7.03348 4.00000
4.00000 7.03348 4.00000
4.00000 7.03348 4.00000
4.00000 7.03348 4.00000
4.00000 7.03348 4.00000
4.00000 7.03348 4.00000
4.00000 7.03348 4.00000
4.00000 7.03348 4.00000
4.00000 7.03348 4.00000
4.00000 7.03348 4.00000
4.00000 7.03348 4.00000
4.00000 7.03348 4.00000
4.00000 7.03348 4.00000
4.00000 7.03348 4.00000
4.00000 7.03348 4.00000
4.00000 7.03348 4.00000
4.00000 7.03348 4.00000
4.00000 7.03351 4.00000
4.00000 7.03348 4.00000
4.00000 7.03348 4.00000
4.00071 7.05774 4.00071
4.00295 7.13516 4.00295
4.00514 7.21277 4.00514
4.00728 7.29057 4.00728
4.00940 7.36851 4.00940
4.01150 7.44659 4.01150
4.01359 7.52478 4.01359
4.01567 7.60307 4.01567
4.01777 7.68142 4.01777
4.01988 7.75983 4.01988
4.02202 7.83827 4.02202
4.02421 7.91671 4.02421
4.02645 7.99512 4.02645
4.02876 8.07347 4.02876
4.03116 8.15172 4.03116
4.03368 8.22982 4.03368
4.03633 8.30773 4.03633
4.03915 8.38538 4.03915
4.04218 8.46268 4.04218
4.04548 8.53953 4.04547
4.04909 8.61581 4.04909
4.05312 8.69135 4.05312
4.05754 8.76618 4.05754
4.06235 8.84029 4.06235
4.06758 8.91362 4.06758
4.07327 8.98612 4.07327
4.07942 9.05774 4.07942
4.08606 9.12847 4.08606
4.09319 9.19828 4.09319
4.10078 9.26723 4.10078
4.10880 9.33539 4.10880
4.11718 9.40289 4.11718
4.12582 9.46995 4.12582
4.13457 9.53684 4.13457
4.14323 9.60397 4.14323
4.15155 9.67184 4.15154
4.15920 9.74108 4.15920
4.16581 9.81249 4.16581
4.17092 9.88695 4.17092
4.17406 9.96540 4.17407
4.17483 10.04866 4.17483
4.17335 10.13646 4.17335
4.17109 10.22589 4.17109
4.16823 10.31656 4.16823
4.16480 10.40842 4.16480
4.16081 10.50147 4.16081
4.15623 10.59572 4.15623
4.15105 10.69125 4.15105
4.14520 10.78817 4.14520
4.13860 10.88662 4.13860
4.13114 10.98684 4.13114
4.12266 11.08916 4.12266
4.11291 11.19406 4.11291
4.10152 11.30228 4.10152
4.08790 11.41503 4.08790
4.07114 11.53409 4.07114
4.04981 11.66232 4.04981
4.02059 11.80639 4.02059
4.00000 13.19120 4.00000
4.00000 13.19120 4.00000
4.00000 13.19120 4.00000
4.00000 13.19120 4.00000
4.00000 13.19120 4.00000
4.00000 13.19120 4.00000
4.00000 13.19120 4.00000
4.00000 13.19120 4.00000
4.00000 13.19120 4.00000
4.00000 13.19120 4.00000
4.00000 13.19120 4.00000
4.00000 13.19120 4.00000
4.00000 13.19120 4.00000
4.00000 13.19120 4.00000
4.00000 13.19120 4.00000
4.00426 13.21468 4.00426
4.01440 13.28069 4.01440
4.02261 13.35061 4.02261
4.02892 13.42436 4.02892
4.03339 13.50182 4.03339
4.03612 13.58280 4.03612
4.03769 13.66612 4.03769
4.03919 13.74964 4.03919
4.04064 13.83326 4.04064
4.04207 13.91698 4.04207
4.04346 14.00079 4.04346
4.04484 14.08469 4.04483
4.04618 14.16866 4.04618
4.04751 14.25269 4.04751
4.04882 14.33680 4.04882
4.05012 14.42096 4.05012
4.05140 14.50518 4.05140
4.05267 14.58946 4.05267
4.05393 14.67378 4.05393
4.05518 14.75815 4.05518
4.05642 14.84257 4.05642
4.05766 14.92704 4.05766
4.05889 15.01154 4.05889
4.06010 15.09609 4.06010
4.06118 15.18094 4.06118
4.06206 15.26623 4.06206
4.06274 15.35194 4.06274
4.06324 15.43803 4.06324
4.06357 15.52449 4.06357
4.06374 15.61129 4.06374
4.06377 15.69841 4.06377
4.06366 15.78582 4.06366
4.06343 15.87350 4.06343
4.06309 15.96143 4.06309
4.06264 16.04959 4.06264
4.06211 16.13795 4.06211
4.06149 16.22651 4.06149
4.06079 16.31523 4.06079
4.06004 16.40412 4.06004
4.05922 16.49314 4.05922
4.05835 16.58228 4.05835
4.05744 16.67154 4.05744
4.05649 16.76089 4.05649
4.05551 16.85033 4.05551
4.05450 16.93984 4.05450
4.05348 17.02942 4.05348
4.05243 17.11906 4.05243
4.05137 17.20874 4.05137
4.05030 17.29846 4.05030
4.04923 17.38821 4.04923
4.04815 17.47799 4.04815
4.04707 17.56779 4.04707
4.04600 17.65761 4.04600
4.04493 17.74743 4.04493
4.04387 17.83727 4.04387
4.04281 17.92710 4.04281
4.04177 18.01694 4.04177
4.04074 18.10677 4.04074
4.03972 18.19659 4.03972
4.03871 18.28641 4.03871
4.03772 18.37621 4.03772
4.03674 18.46600 4.03674
4.03578 18.55578 4.03578
4.03484 18.64554 4.03484
4.03391 18.73529 4.03391
4.03300 18.82502 4.03300
4.03211 18.91473 4.03211
4.03124 19.00442 4.03124
4.03038 19.09409 4.03038
4.02955 19.18375 4.02955
4.02873 19.27338 4.02873
4.02793 19.36299 4.02793
4.02715 19.45259 4.02715
4.02638 19.54216 4.02639
4.02564 19.63171 4.02564
4.02491 19.72125 4.02491
4.02420 19.81076 4.02420
4.02351 19.90026 4.02351
4.02284 19.98973 4.02284
4.02218 20.07919 4.02218
4.02154 20.16863 4.02154
4.02091 20.25805 4.02091
4.02030 20.34746 4.02030
4.01971 20.43684 4.01971
4.01914 20.52621 4.01914
4.01857 20.61557 4.01857

Angle 0.716810 1.388182

4.00000 7.03348 4.00000
4.00000 7.03348 4.00000
4.00000 7.03348 4.00000
4.00000 7.03348 4.00000
4.00000 7.03348 4.00000
4.00000 7.03348 4.00000
4.00000 7.03348 4.00000
4.00000 7.03348 4.00000
4.00000 7.03348 4.00000
4.00000 7.03348 4.00000
4.00000 7.03348 4.00000
4.00000 7.03348 4.00000
4.00000 7.03348 4.00000
4.00000 7.03348 4.00000
4.00000 7.03348 4.00000
4.00000 7.03348 4.00000
4.00000 7.03348 4.00000
4.00000 7.03348 4.00000
4.00000 7.03348 4.00000
4.00000 7.03348 4.00000
4.00000 7.03348 4.00000
4.00000 7.03348 4.00000
4.00000 7.03348 4.00000
4.00000 7.03348 4.00000
4.00000 7.03349 4.00000
4.00000 7.03349 4.00000
4.00000 7.03349 4.00000
4.00000 7.03348 4.00000
4.00000 7.03348 4.00000
4.00000 7.03348 4.00000
4.00000 7.03348 4.00000
4.00000 7.03348 4.00000
4.00000 7.03348 4.00000
4.00000 7.03348 4.00000
4.00000 7.03348 4.00000
4.00000 7.03348 4.00000
4.00000 7.03348 4.00000
4.00000 7.03348 4.00000
4.00000 7.03348 4.00000
4.00000 7.03348 4.00000
4.00000 7.03348 4.00000
4.00000 7.03348 4.00000
4.00000 7.03348 4.00000
4.00000 7.03348 4.00000
4.00000 7.03348 4.00000
4.00000 7.03348 4.00000
4.00000 7.03349 4.00000
4.00000 7.03350 4.00000
4.00000 7.03348 4.00000
4.00000 7.03350 4.00000
4.00043 7.04820 4.00043
4.00207 7.10464 4.00207
4.00369 7.16142 4.00369
4.00530 7.21854 4.00530
4.00688 7.27599 4.00688
4.00846 7.33375 4.00846
4.01003 7.39182 4.01003
4.01160 7.45019 4.01160
4.01316 7.50884 4.01316
4.01473 7.56776 4.01474
4.01631 7.62695 4.01631
4.01790 7.68638 4.01790
4.01951 7.74605 4.01951
4.02114 7.80595 4.02114
4.02279 7.86605 4.02279
4.02448 7.92636 4.02448
4.02621 7.98684 4.02621
4.02798 8.04748 4.02798
4.02982 8.10827 4.02982
4.03171 8.16917 4.03171
4.03369 8.23016 4.03369
4.03575 8.29122 4.03575
4.03792 8.35231 4.03792
4.04022 8.41338 4.04022
4.04266 8.47438 4.04267
4.04528 8.53528 4.04528
4.04811 8.59598 4.04811
4.05120 8.65640 4.05120
4.05456 8.71649 4.05456
4.05817 8.77630 4.05817
4.06204 8.83580 4.06204
4.06620 8.89495 4.06620
4.07066 8.95372 4.07066
4.07543 9.01206 4.07543
4.08053 9.06997 4.08053
4.08596 9.12741 4.08596
4.09173 9.18439 4.09173
4.09782 9.24091 4.09782
4.10423 9.29701 4.10423
4.11092 9.35273 4.11092
4.11785 9.40816 4.11785
4.12497 9.46342 4.12497
4.13219 9.51866 4.13219
4.13941 9.57410 4.13941
4.14649 9.62999 4.14649
4.15327 9.68667 4.15327
4.15955 9.74451 4.15955
4.16511 9.80400 4.16511
4.16967 9.86566 4.16966
4.17294 9.93005 4.17294
4.17467 9.99772 4.17467
4.17463 10.06909 4.17463
4.17320 10.14342 4.17320
4.17129 10.21887 4.17129
4.16895 10.29534 4.16895
4.16619 10.37281 4.16619
4.16303 10.45125 4.16303
4.15945 10.53069 4.15945
4.15543 10.61115 4.15543
4.15097 10.69267 4.15097
4.14601 10.77533 4.14601
4.14050 10.85923 4.14050
4.13439 10.94451 4.13439
4.12757 11.03134 4.12757
4.11991 11.11999 4.11991
4.11124 11.21082 4.11124
4.10129 11.30435 4.10129
4.08966 11.40139 4.08966
4.07575 11.50310 4.07575
4.05879 11.61108 4.05879
4.03719 11.72846 4.03719
4.00720 11.86277 4.00720
4.00000 13.19120 4.00000
4.00000 13.19120 4.00000
4.00000 13.19120 4.00000
4.00000 13.19120 4.00000
4.00000 13.19120 4.00000
4.00000 13.19120 4.00000
4.00000 13.19120 4.00000
4.00000 13.19120 4.00000
4.00000 13.19120 4.00000
4.00000 13.19120 4.00000
4.00000 13.19120 4.00000
4.00000 13.19120 4.00000
4.00000 13.19120 4.00000
4.00000 13.19120 4.00000
4.00000 13.19120 4.00000
4.00000 13.19120 4.00000
4.00000 13.19120 4.00000
4.00596 13.22464 4.00596
4.01479 13.28360 4.01479
4.02211 13.34571 4.02211
4.02793 13.41093 4.02793
4.03229 13.47916 4.03229
4.03524 13.55032 4.03524
4.03692 13.62412 4.03692
4.03828 13.69868 4.03828
4.03961 13.77340 4.03961
4.04090 13.84828 4.04090
4.04217 13.92331 4.04218
4.04343 13.99848 4.04343
4.04466 14.07379 4.04466
4.04587 14.14922 4.04587
4.04707 14.22479 4.04707
4.04826 14.30047 4.04826
4.04943 14.37628 4.04943
4.05060 14.45219 4.05060
4.05175 14.52822 4.05175
4.05290 14.60436 4.05290
4.05403 14.68060 4.05403
4.05516 14.75695 4.05516
4.05629 14.83339 4.05629
4.05741 14.90993 4.05741
4.05852 14.98657 4.05852
4.05963 15.06330 4.05963
4.06069 15.14022 4.06069
4.06158 15.21756 4.06158
4.06231 15.29532 4.06231
4.06288 15.37346 4.06288
4.06330 15.45199 4.06330
4.06358 15.53087 4.06358
4.06374 15.61009 4.06374
4.06377 15.68963 4.06377
4.06369 15.76948 4.06369
4.06350 15.84961 4.06350
4.06322 15.93002 4.06322
4.06285 16.01067 4.06285
4.06240 16.09157 4.06240
4.06187 16.17268 4.06187
4.06128 16.25400 4.06128
4.06063 16.33552 4.06063
4.05992 16.41721 4.05992
4.05916 16.49908 4.05916
4.05836 16.58110 4.05836
4.05753 16.66327 4.05753
4.05666 16.74557 4.05666
4.05576 16.82800 4.05576
4.05484 16.91054 4.05484
4.05389 16.99320 4.05389
4.05293 17.07595 4.05293
4.05196 17.15880 4.05196
4.05098 17.24173 4.05098
4.04999 17.32473 4.04999
4.04899 17.40782 4.04899
4.04800 17.49097 4.04800
4.04700 17.57419 4.04700
4.04600 17.65746 4.04600
4.04501 17.74079 4.04501
4.04402 17.82417 4.04402
4.04304 17.90760 4.04304
4.04207 17.99107 4.04207
4.04110 18.07458 4.04110
4.04015 18.15813 4.04015
4.03921 18.24172 4.03921
4.03828 18.32534 4.03828
4.03736 18.40900 4.03736
4.03645 18.49268 4.03645
4.03556 18.57639 4.03556
4.03469 18.66013 4.03469
4.03382 18.74390 4.03382
4.03298 18.82769 4.03298
4.03214 18.91151 4.03214
4.03133 18.99534 4.03133
4.03052 19.07920 4.03052
4.02974 19.16309 4.02974
4.02897 19.24699 4.02897
4.02821 19.33091 4.02821
4.02747 19.41486 4.02747
4.02675 19.49882 4.02675
4.02605 19.58280 4.02604
4.02535 19.66680 4.02535
4.02468 19.75082 4.02468
4.02401 19.83486 4.02401
4.02337 19.91891 4.02337
4.02274 20.00299 4.02274
4.02212 20.08708 4.02212
4.02152 20.17119 4.02152
4.02093 20.25532 4.02093
4.02036 20.33946 4.02036
4.01980 20.42363 4.01980
4.01925 20.50781 4.01925
4.01872 20.59201 4.01872
4.01820 20.67623 4.01820
4.01770 20.76047 4.01770
4.01720 20.84473 4.01720
4.01672 20.92900 4.01672
4.01626 21.01330 4.01626
4.01580 21.09761 4.01580
4.01536 21.18194 4.01536
4.01492 21.26630 4.01492
4.01450 21.35067 4.01450
4.01409 21.43506 4.01409
4.01369 21.51947 4.01369
4.01330 21.60389 4.01330
4.01292 21.68834 4.01292
4.01256 21.77281 4.01256
4.01220 21.85730 4.01220
4.01185 21.94181 4.01185
4.01151 22.02634 4.01151
4.01118 22.11089 4.01118
4.01086 22.19546 4.01086
4.01055 22.28005 4.01055
4.01024 22.36466 4.01024
4.00995 22.44929 4.00995
4.00966 22.53395 4.00966
4.00938 22.61862 4.00938
4.00911 22.70332 4.00911
4.00885 22.78803 4.00885
4.00859 22.87277 4.00859
4.00834 22.95753 4.00834
4.00810 23.04231 4.00810
4.00786 23.12712 4.00786
4.00763 23.21194 4.00763
4.00741 23.29679 4.00741
4.00719 23.38166 4.00719
4.00698 23.46654 4.00698
4.00678 23.55146 4.00678
4.00658 23.63639 4.00658
4.00639 23.72134 4.00639
4.00620 23.80632 4.00620
4.00602 23.89132 4.00602
4.00584 23.97635 4.00584
4.00567 24.06139 4.00567
4.00550 24.14645 4.00550
4.00534 24.23154 4.00534
4.00518 24.31665 4.00518
4.00503 24.40178 4.00503
4.00488 24.48694 4.00488
4.00474 24.57211 4.00474
4.00460 24.65731 4.00460
4.00446 24.74254 4.00446
4.00433 24.82778 4.00433
4.00420 24.91304 4.00420
4.00408 24.99833 4.00408
4.00396 25.08364 4.00396
4.00384 25.16897 4.00384
4.00372 25.25433 4.00372
4.00361 25.33970 4.00361
4.00351 25.42510 4.00351
4.00340 25.51052 4.00340
4.00330 25.59596 4.00330
4.00320 25.68142 4.00320
4.00311 25.76691 4.00311
4.00302 25.85241 4.00302
4.00292 25.93794 4.00292
4.00284 26.02349 4.00284
4.00275 26.10906 4.00275
4.00267 26.19466 4.00267
4.00259 26.28027 4.00259
4.00251 26.36591 4.00251
4.00244 26.45156 4.00244
4.00237 26.53724 4.00237
4.00229 26.62294 4.00229
4.00223 26.70867 4.00223
4.00216 26.79441 4.00216
4.00209 26.88017 4.00209
4.00203 26.96596 4.00203
4.00197 27.05176 4.00197
4.00191 27.13759 4.00191
4.00185 27.22344 4.00185
4.00180 27.30930 4.00180
4.00175 27.39519 4.00175
4.00169 27.48110 4.00169
4.00164 27.56703 4.00164
4.00160 27.65298 4.00159
4.00155 27.73895 4.00154
4.00150 27.82494 4.00150
4.00145 27.91095 4.00145
4.00141 27.99698 4.00141
4.00136 28.08303 4.00137
4.00132 28.16911 4.00133
4.00128 28.25519 4.00129
4.00125 28.34131 4.00124
4.00121 28.42744 4.00121
4.00117 28.51359 4.00117
4.00113 28.59976 4.00113
4.00110 28.68594 4.00110
4.00107 28.77215 4.00107
4.00104 28.85838 4.00104
4.00101 28.94462 4.00100
4.00098 29.03088 4.00097
4.00094 29.11717 4.00095
4.00092 29.20347 4.00092
4.00089 29.28979 4.00089
4.00086 29.37613 4.00086
4.00084 29.46249 4.00084
4.00081 29.54887 4.00081
4.00079 29.63526 4.00079
4.00076 29.72168 4.00076
4.00074 29.80811 4.00074
4.00071 29.89456 4.00072
4.00069 29.98103 4.00070
4.00067 30.06752 4.00067
4.00065 30.15402 4.00065
4.00063 30.24054 4.00063
4.00061 30.32708 4.00061
4.00059 30.41364 4.00060
4.00058 30.50021 4.00058
4.00056 30.58680 4.00056
4.00054 30.67341 4.00054
4.00053 30.76004 4.00053
4.00051 30.84668 4.00051
4.00050 30.93334 4.00050
4.00048 31.02002 4.00048
4.00047 31.10671 4.00047
4.00045 31.19342 4.00045
4.00044 31.28015 4.00044
4.00042 31.36689 4.00042
4.00041 31.45365 4.00041
4.00040 31.54043 4.00040
4.00039 31.62722 4.00039
4.00038 31.71403 4.00037
4.00036 31.80086 4.00036
4.00035 31.88770 4.00035
4.00034 31.97456 4.00034
4.00033 32.06143 4.00033
4.00032 32.14832 4.00032
4.00031 32.23522 4.00031
4.00030 32.32214 4.00030
4.00029 32.40908 4.00029
4.00028 32.49603 4.00028
4.00027 32.58299 4.00028
4.00027 32.66998 4.00027
4.00026 32.75697 4.00026
4.00025 32.84399 4.00025
4.00024 32.93101 4.00024
4.00023 33.01805 4.00024
4.00023 33.10511 4.00023
4.00022 33.19218 4.00022
4.00021 33.27927 4.00021
4.00021 33.36637 4.00021
4.00020 33.45348 4.00020
4.00019 33.54061 4.00020
4.00019 33.62776 4.00019
4.00018 33.71491 4.00018
4.00018 33.80209 4.00018
4.00017 33.88927 4.00017
4.00017 33.97647 4.00017
4.00016 34.06369 4.00016
4.00016 34.15092 4.00016
4.00015 34.23816 4.00015
4.00015 34.32541 4.00015
4.00014 34.41268 4.00014
4.00014 34.49997 4.00014
4.00013 34.58726 4.00013
4.00013 34.67457 4.00013
4.00013 34.76189 4.00013
4.00012 34.84923 4.00012
4.00012 34.93658 4.00012
4.00011 35.02394 4.00011

Angle 0.178255 5.601755

4.00000 7.03348 4.00000
4.00000 7.03348 4.00000
4.00000 7.03348 4.00000
4.00000 7.03348 4.00000
4.00000 7.03348 4.00000
4.00000 7.03348 4.00000
4.00000 7.03348 4.00000
4.00000 7.03348 4.00000
4.00000 7.03348 4.00000
4.00000 7.03348 4.00000
4.00000 7.03348 4.00000
4.00000 7.03348 4.00000
4.00000 7.03348 4.00000
4.00000 7.03348 4.00000
4.00000 7.03348 4.00000
4.00000 7.03348 4.00000
4.00000 7.03348 4.00000
4.00000 7.03348 4.00000
4.00000 7.03347 4.00000
4.00000 7.03347 4.00000
4.00000 7.03347 4.00000
4.00000 7.03347 4.00000
4.00000 7.03347 4.00000
4.00000 7.03347 4.00000
4.00000 7.03346 4.00000
4.00000 7.03346 4.00000
4.00000 7.03346 4.00000
4.00000 7.03346 4.00000
4.00000 7.03346 4.00000
4.00000 7.03345 4.00000
4.00000 7.03345 4.00000
4.00000 7.03348 4.00000
4.00000 7.03348 4.00000
4.00000 7.03348 4.00000
4.00000 7.03348 4.00000
4.00000 7.03348 4.00000
4.00000 7.03348 4.00000
4.00000 7.03348 4.00000
4.00000 7.03344 4.00000
4.00000 7.03344 4.00000
4.00000 7.03344 4.00000
4.00000 7.03345 4.00000
4.00000 7.03345 4.00000
4.00000 7.03348 4.00000
4.00000 7.03348 4.00000
4.00000 7.03348 4.00000
4.00000 7.03348 4.00000
4.00000 7.03348 4.00000
4.00000 7.03348 4.00000
4.00000 7.03348 4.00000
4.00000 7.03348 4.00000
4.00000 7.03348 4.00000
4.00000 7.03348 4.00000
4.00000 7.03348 4.00000
4.00000 7.03348 4.00000
4.00000 7.03348 4.00000
4.00000 7.03348 4.00000
4.00000 7.03348 4.00000
4.00000 7.03348 4.00000
4.00000 7.03348 4.00000
4.00000 7.03348 4.00000
4.00000 7.03348 4.00000
4.00000 7.03348 4.00000
4.00000 7.03348 4.00000
4.00000 7.03348 4.00000
4.00000 7.03348 4.00000
4.00000 7.03348 4.00000
4.00000 7.03348 4.00000
4.00000 7.03348 4.00000
4.00000 7.03348 4.00000
4.00000 7.03348 4.00000
4.00000 7.03348 4.00000
4.00000 7.03348 4.00000
4.00000 7.03348 4.00000
4.00000 7.03348 4.00000
4.00000 7.03348 4.00000
4.00000 7.03348 4.00000
4.00000 7.03348 4.00000
4.00000 7.03348 4.00000
4.00000 7.03348 4.00000
4.00000 7.03348 4.00000
4.00000 7.03348 4.00000
4.00000 7.03348 4.00000
4.00000 7.03348 4.00000
4.00000 7.03348 4.00000
4.00000 7.03348 4.00000
4.00000 7.03348 4.00000
4.00000 7.03348 4.00000
4.00000 7.03348 4.00000
4.00000 7.03348 4.00000
4.00000 7.03348 4.00000
4.00000 7.03348 4.00000
4.00000 7.03348 4.00000
4.00000 7.03348 4.00000
4.00000 7.03349 4.00000
4.00000 7.03348 4.00000
4.00000 7.03348 4.00000
4.00000 7.03348 4.00000
4.00000 7.03348 4.00000
4.00000 7.03348 4.00000
4.00000 7.03349 4.00000
4.00000 7.03348 4.00000
4.00000 7.03349 4.00000
4.00000 7.03347 4.00000
4.00000 7.03348 4.00000
4.00120 7.07439 4.00120
4.00340 7.15096 4.00340
4.00555 7.22774 4.00555
4.00767 7.30469 4.00767
4.00976 7.38179 4.00976
4.01183 7.45904 4.01183
4.01390 7.53640 4.01390
4.01596 7.61387 4.01596
4.01804 7.69141 4.01804
4.02013 7.76902 4.02013
4.02226 7.84665 4.02226
4.02442 7.92430 4.02442
4.02665 8.00192 4.02665
4.02894 8.07949 4.02894
4.03133 8.15697 4.03133
4.03382 8.23431 4.03382
4.03646 8.31147 4.03646
4.03926 8.38837 4.03926
4.04227 8.46494 4.04227
4.04554 8.54108 4.04554
4.04914 8.61666 4.04914
4.05313 8.69151 4.05313
4.05750 8.76568 4.05751
4.06227 8.83915 4.06227
4.06745 8.91186 4.06745
4.07307 8.98377 4.07307
4.07916 9.05482 4.07916
4.08572 9.12499 4.08572
4.09277 9.19428 4.09277
4.10027 9.26271 4.10027
4.10820 9.33037 4.10820
4.11649 9.39738 4.11649
4.12504 9.46393 4.12504
4.13371 9.53030 4.13371
4.14232 9.59686 4.14232
4.15063 9.66410 4.15063
4.15833 9.73263 4.15833
4.16504 9.80318 4.16504
4.17033 9.87663 4.17033
4.17375 9.95390 4.17375
4.17488 10.03582 4.17488
4.17365 10.12250 4.17365
4.17150 10.21109 4.17150
4.16876 10.30092 4.16876
4.16545 10.39193 4.16545
4.16159 10.48412 4.16159
4.15716 10.57751 4.15716
4.15213 10.67214 4.15213
4.14646 10.76811 4.14646
4.14007 10.86558 4.14007
4.13285 10.96474 4.13285
4.12467 11.06590 4.12467
4.11530 11.16949 4.11530
4.10441 11.27616 4.10441
4.09148 11.38695 4.09148
4.07569 11.50353 4.07569
4.05586 11.62824 4.05586
4.02939 11.76626 4.02939
4.00000 13.19120 4.00000
4.00000 13.19119 4.00000
4.00000 13.19120 4.00000
4.00000 13.19120 4.00000
4.00000 13.19120 4.00000
4.00000 13.19120 4.00000
4.00000 13.19120 4.00000
4.00000 13.19120 4.00000
4.00000 13.19120 4.00000
4.00000 13.19120 4.00000
4.00000 13.19120 4.00000
4.00000 13.19120 4.00000
4.00000 13.19120 4.00000
4.00000 13.19121 4.00000
4.00000 13.19120 4.00000
4.00021 13.19229 4.00021
4.01099 13.25656 4.01099
4.01984 13.32472 4.01984
4.02681 13.39671 4.02681
4.03193 13.47242 4.03193
4.03529 13.55169 4.03529
4.03711 13.63407 4.03711
4.03861 13.71713 4.03861
4.04008 13.80030 4.04008
4.04150 13.88358 4.04150
4.04290 13.96695 4.04290
4.04428 14.05041 4.04428
4.04563 14.13395 4.04563
4.04696 14.21756 4.04696
4.04827 14.30124 4.04827
4.04957 14.38499 4.04957
4.05085 14.46880 4.05085
4.05212 14.55267 4.05212
4.05338 14.63660 4.05338
4.05463 14.72057 4.05463
4.05587 14.80460 4.05587
4.05710 14.88867 4.05710
4.05832 14.97278 4.05832
4.05954 15.05694 4.05954
4.06071 15.14124 4.06071
4.06167 15.22597 4.06167
4.06244 15.31112 4.06244
4.06302 15.39667 4.06302
4.06343 15.48260 4.06343
4.06367 15.56888 4.06367
4.06377 15.65548 4.06377
4.06373 15.74240 4.06373
4.06356 15.82959 4.06356
4.06327 15.91705 4.06327
4.06288 16.00474 4.06288
4.06239 16.09266 4.06239
4.06182 16.18077 4.06182
4.06116 16.26907 4.06116
4.06044 16.35753 4.06044
4.05966 16.44614 4.05966
4.05882 16.53488 4.05882
4.05793 16.62375 4.05793
4.05701 16.71271 4.05701
4.05605 16.80178 4.05605
4.05506 16.89092 4.05506
4.05404 16.98014 4.05404
4.05301 17.06942 4.05301
4.05196 17.15875 4.05196
4.05090 17.24814 4.05090
4.04983 17.33755 4.04983
4.04876 17.42700 4.04876
4.04769 17.51648 4.04769
4.04662 17.60598 4.04662
4.04555 17.69549 4.04555
4.04449 17.78501 4.04448
4.04343 17.87454 4.04343
4.04238 17.96407 4.04238
4.04135 18.05360 4.04135
4.04032 18.14313 4.04032
4.03931 18.23266 4.03931
4.03831 18.32217 4.03831
4.03733 18.41168 4.03733
4.03636 18.50118 4.03636
4.03541 18.59066 4.03541
4.03448 18.68013 4.03448
4.03356 18.76959 4.03356
4.03266 18.85903 4.03266
4.03178 18.94846 4.03178
4.03092 19.03786 4.03092
4.03007 19.12725 4.03007
4.02925 19.21662 4.02925
4.02844 19.30598 4.02844
4.02765 19.39532 4.02765
4.02687 19.48463 4.02687
4.02612 19.57393 4.02612
4.02538 19.66322 4.02538
4.02466 19.75248 4.02466
4.02396 19.84173 4.02396
4.02328 19.93096 4.02328
4.02261 20.02017 4.02261
4.02196 20.10937 4.02196
4.02133 20.19855 4.02133
4.02071 20.28771 4.02071
4.02011 20.37686 4.02011
4.01952 20.46599 4.01952
4.01895 20.55511 4.01895
4.01840 20.64421 4.01840
4.01786 20.73330 4.01786
4.01733 20.82238 4.01733
4.01682 20.91144 4.01682
4.01633 21.00049 4.01633
4.01584 21.08953 4.01584
4.01537 21.17856 4.01537
4.01492 21.26758 4.01492
4.01447 21.35658 4.01447
4.01404 21.44558 4.01404
4.01362 21.53456 4.01362
4.01321 21.62354 4.01321
4.01282 21.71251 4.01282
4.01243 21.80147 4.01243
4.01206 21.89042 4.01206
4.01170 21.97936 4.01170
4.01134 22.06830 4.01135
4.01100 22.15723 4.01100
4.01067 22.24616 4.01067
4.01035 22.33507 4.01035
4.01003 22.42399 4.01004
4.00973 22.51290 4.00973
4.00944 22.60180 4.00944
4.00915 22.69070 4.00915
4.00887 22.77960 4.00887
4.00860 22.86849 4.00860
4.00834 22.95738 4.00834
4.00809 23.04626 4.00809
4.00784 23.13515 4.00784
4.00760 23.22403 4.00760
4.00737 23.31291 4.00737
4.00714 23.40179 4.00714
4.00692 23.49066 4.00692
4.00671 23.57954 4.00671
4.00651 23.66841 4.00651
4.00631 23.75729 4.00631
4.00611 23.84616 4.00612
4.00593 23.93504 4.00593
4.00575 24.02391 4.00574
4.00557 24.11279 4.00557
4.00540 24.20166 4.00540
4.00523 24.29054 4.00523
4.00507 24.37942 4.00507
4.00491 24.46829 4.00491
4.00476 24.55717 4.00476
4.00462 24.64606 4.00461
4.00447 24.73494 4.00447
4.00434 24.82382 4.00434
4.00420 24.91271 4.00420
4.00407 25.00160 4.00407
4.00395 25.09050 4.00394
4.00382 25.17940 4.00382
4.00371 25.26829 4.00371
4.00359 25.35719 4.00359
4.00348 25.44610 4.00348
4.00337 25.53501 4.00337
4.00327 25.62392 4.00327
4.00317 25.71283 4.00317
4.00307 25.80175 4.00307
4.00297 25.89068 4.00297
4.00288 25.97960 4.00288
4.00279 26.06853 4.00279
4.00271 26.15746 4.00271
4.00262 26.24640 4.00262
4.00254 26.33534 4.00254
4.00246 26.42429 4.00246
4.00239 26.51324 4.00238
4.00231 26.60220 4.00231
4.00224 26.69116 4.00224
4.00217 26.78012 4.00217
4.00210 26.86909 4.00210
4.00204 26.95806 4.00204
4.00197 27.04705 4.00197
4.00191 27.13603 4.00191
4.00185 27.22501 4.00185
4.00180 27.31401 4.00180
4.00174 27.40300 4.00174
4.00169 27.49201 4.00168
4.00163 27.58102 4.00163
4.00158 27.67003 4.00158
4.00153 27.75905 4.00153
4.00148 27.84807 4.00149
4.00144 27.93710 4.00144
4.00139 28.02613 4.00140
4.00135 28.11518 4.00135
4.00131 28.20422 4.00131
4.00127 28.29327 4.00127
4.00123 28.38232 4.00123
4.00119 28.47138 4.00119
4.00115 28.56045 4.00115
4.00112 28.64952 4.00112
4.00108 28.73860 4.00108
4.00105 28.82768 4.00105
4.00102 28.91677 4.00102
4.00098 29.00586 4.00098
4.00095 29.09496 4.00095
4.00092 29.18406 4.00092
4.00089 29.27317 4.00089
4.00087 29.36229 4.00087
4.00084 29.45141 4.00084
4.00081 29.54054 4.00081
4.00079 29.62967 4.00079
4.00076 29.71880 4.00076
4.00074 29.80794 4.00074
4.00072 29.89709 4.00072
4.00069 29.98625 4.00069
4.00067 30.07540 4.00067
4.00065 30.16457 4.00065
4.00063 30.25374 4.00063
4.00061 30.34291 4.00061
4.00059 30.43209 4.00059
4.00057 30.52128 4.00057
4.00056 30.61047 4.00055
4.00054 30.69967 4.00054
4.00052 30.78887 4.00052
4.00050 30.87808 4.00050
4.00049 30.96729 4.00049
4.00047 31.05651 4.00047
4.00046 31.14573 4.00046
4.00044 31.23496 4.00044
4.00043 31.32419 4.00043
4.00042 31.41343 4.00042
4.00040 31.50268 4.00040
4.00039 31.59193 4.00039
4.00038 31.68118 4.00038
4.00037 31.77044 4.00037
4.00036 31.85971 4.00036
4.00034 31.94898 4.00034
4.00033 32.03826 4.00033
4.00032 32.12754 4.00032
4.00031 32.21683 4.00031
4.00030 32.30612 4.00030
4.00029 32.39541 4.00029
4.00028 32.48472 4.00028
4.00028 32.57402 4.00028
4.00027 32.66334 4.00027

Angle 0.683567 1.414609

4.00000 7.03348 4.00000
4.00000 7.03348 4.00000
4.00000 7.03348 4.00000
4.00000 7.03348 4.00000
4.00000 7.03348 4.00000
4.00000 7.03348 4.00000
4.00000 7.03348 4.00000
4.00000 7.03348 4.00000
4.00000 7.03348 4.00000
4.00000 7.03348 4.00000
4.00000 7.03348 4.00000
4.00000 7.03348 4.00000
4.00000 7.03348 4.00000
4.00000 7.03348 4.00000
4.00000 7.03348 4.00000
4.00000 7.03348 4.00000
4.00000 7.03348 4.00000
4.00000 7.03348 4.00000
4.00000 7.03348 4.00000
4.00000 7.03348 4.00000
4.00000 7.03348 4.00000
4.00000 7.03348 4.00000
4.00000 7.03348 4.00000
4.00000 7.03348 4.00000
4.00000 7.03348 4.00000
4.00000 7.03348 4.00000
4.00000 7.03348 4.00000
4.00000 7.03348 4.00000
4.00000 7.03348 4.00000
4.00000 7.03348 4.00000
4.00000 7.03348 4.00000
4.00000 7.03348 4.00000
4.00000 7.03348 4.00000
4.00000 7.03348 4.00000
4.00000 7.03348 4.00000
4.00000 7.03348 4.00000
4.00000 7.03348 4.00000
4.00000 7.03348 4.00000
4.00000 7.03348 4.00000
4.00000 7.03348 4.00000
4.00000 7.03348 4.00000
4.00000 7.03348 4.00000
4.00000 7.03348 4.00000
4.00000 7.03348 4.00000
4.00000 7.03348 4.00000
4.00000 7.03348 4.00000
4.00000 7.03348 4.00000
4.00000 7.03348 4.00000
4.00000 7.03348 4.00000
4.00000 7.03348 4.00000
4.00000 7.03348 4.00000
4.00000 7.03348 4.00000
4.00000 7.03348 4.00000
4.00000 7.03348 4.00000
4.00000 7.03348 4.00000
4.00000 7.03348 4.00000
4.00000 7.03348 4.00000
4.00000 7.03347 4.00000
4.00000 7.03347 4.00000
4.00000 7.03347 4.00000
4.00000 7.03348 4.00000
4.00000 7.03348 4.00000
4.00000 7.03348 4.00000
4.00000 7.03348 4.00000
4.00000 7.03348 4.00000
4.00000 7.03348 4.00000
4.00000 7.03348 4.00000
4.00000 7.03348 4.00000
4.00000 7.03348 4.00000
4.00000 7.03348 4.00000
4.00000 7.03348 4.00000
4.00000 7.03348 4.00000
4.00000 7.03348 4.00000
4.00000 7.03348 4.00000
4.00000 7.03348 4.00000
4.00000 7.03348 4.00000
4.00000 7.03348 4.00000
4.00000 7.03348 4.00000
4.00000 7.03348 4.00000
4.00000 7.03348 4.00000
4.00000 7.03348 4.00000
4.00000 7.03348 4.00000
4.00000 7.03348 4.00000
4.00000 7.03348 4.00000
4.00000 7.03348 4.00000
4.00000 7.03348 4.00000
4.00000 7.03348 4.00000
4.00000 7.03348 4.00000
4.00000 7.03348 4.00000
4.00000 7.03348 4.00000
4.00000 7.03348 4.00000
4.00000 7.03348 4.00000
4.00000 7.03348 4.00000
4.00000 7.03348 4.00000
4.00000 7.03348 4.00000
4.00000 7.03349 4.00000
4.00000 7.03351 4.00000
4.00000 7.03349 4.00000
4.00000 7.03348 4.00000
4.00086 7.06282 4.00086
4.00315 7.14209 4.00315
4.00538 7.22155 4.00538
4.00757 7.30116 4.00757
4.00974 7.38091 4.00974
4.01188 7.46077 4.01188
4.01401 7.54073 4.01401
4.01615 7.62075 4.01615
4.01829 7.70083 4.01829
4.02045 7.78093 4.02045
4.02265 7.86103 4.02265
4.02490 7.94110 4.02490
4.02721 8.02111 4.02721
4.02960 8.10102 4.02960
4.03208 8.18080 4.03208
4.03470 8.26040 4.03470
4.03747 8.33974 4.03747
4.04043 8.41875 4.04043
4.04363 8.49735 4.04363
4.04713 8.57541 4.04713
4.05101 8.65277 4.05101
4.05531 8.72934 4.05531
4.06001 8.80517 4.06001
4.06513 8.88020 4.06513
4.07071 8.95438 4.07071
4.07677 9.02766 4.07677
4.08332 9.10000 4.08332
4.09038 9.17139 4.09038
4.09792 9.24184 4.09792
4.10593 9.31143 4.10593
4.11433 9.38027 4.11433
4.12304 9.44855 4.12304
4.13191 9.51655 4.13191
4.14076 9.58464 4.14076
4.14934 9.65332 4.14934
4.15733 9.72323 4.15733
4.16435 9.79513 4.16435
4.16993 9.86993 4.16993
4.17359 9.94863 4.17359
4.17488 10.03212 4.17488
4.17369 10.12060 4.17369
4.17150 10.21113 4.17150
4.16869 10.30294 4.16869
4.16530 10.39596 4.16530
4.16132 10.49019 4.16132
4.15675 10.58565 4.15675
4.15155 10.68239 4.15155
4.14568 10.78053 4.14568
4.13905 10.88022 4.13905
4.13154 10.98170 4.13154
4.12299 11.08530 4.12299
4.11316 11.19151 4.11316
4.10165 11.30110 4.10165
4.08786 11.41530 4.08786
4.07085 11.53598 4.07085
4.04912 11.66612 4.04912
4.01912 11.81283 4.01912
4.00000 13.19120 4.00000
4.00000 13.19120 4.00000
4.00000 13.19120 4.00000
4.00000 13.19120 4.00000
4.00000 13.19120 4.00000
4.00000 13.19120 4.00000
4.00000 13.19120 4.00000
4.00000 13.19120 4.00000
4.00000 13.19120 4.00000
4.00000 13.19120 4.00000
4.00000 13.19120 4.00000
4.00000 13.19120 4.00000
4.00000 13.19120 4.00000
4.00000 13.19120 4.00000
4.00000 13.19120 4.00000
4.00676 13.22945 4.00676
4.01655 13.29712 4.01655
4.02437 13.36875 4.02437
4.03026 13.44426 4.03026
4.03430 13.52350 4.03430
4.03659 13.60627 4.03659
4.03814 13.69057 4.03814
4.03963 13.77498 4.03963
4.04109 13.85949 4.04109
4.04252 13.94409 4.04252
4.04392 14.02877 4.04392
4.04530 14.11352 4.04530
4.04666 14.19834 4.04666
4.04799 14.28322 4.04799
4.04931 14.36817 4.04931
4.05061 14.45316 4.05061
4.05190 14.53821 4.05190
4.05318 14.62330 4.05318
4.05445 14.70844 4.05445
4.05571 14.79361 4.05571
4.05696 14.87883 4.05695
4.05820 14.96409 4.05820
4.05943 15.04937 4.05943
4.06062 15.13477 4.06062
4.06162 15.22059 4.06162
4.06240 15.30684 4.06240
4.06300 15.39349 4.06300
4.06342 15.48051 4.06342
4.06367 15.56789 4.06367
4.06377 15.65560 4.06377
4.06373 15.74361 4.06373
4.06355 15.83191 4.06355
4.06326 15.92046 4.06326
4.06286 16.00924 4.06286
4.06236 16.09824 4.06236
4.06177 16.18744 4.06177
4.06110 16.27682 4.06110
4.06037 16.36635 4.06037
4.05957 16.45602 4.05957
4.05871 16.54582 4.05871
4.05781 16.63574 4.05781
4.05687 16.72575 4.05687
4.05589 16.81585 4.05589
4.05489 16.90603 4.05489
4.05386 16.99627 4.05386
4.05281 17.08656 4.05281
4.05175 17.17690 4.05175
4.05067 17.26728 4.05067
4.04959 17.35769 4.04959
4.04851 17.44812 4.04851
4.04742 17.53857 4.04742
4.04634 17.62903 4.04634
4.04526 17.71950 4.04526
4.04419 17.80998 4.04419
4.04312 17.90045 4.04312
4.04207 17.99091 4.04207
4.04103 18.08137 4.04103
4.04000 18.17182 4.04000
4.03898 18.26226 4.03898
4.03798 18.35268 4.03798
4.03699 18.44309 4.03699
4.03602 18.53348 4.03602
4.03506 18.62384 4.03506
4.03413 18.71419 4.03413
4.03321 18.80452 4.03321
4.03231 18.89482 4.03231
4.03143 18.98510 4.03143
4.03056 19.07536 4.03056
4.02972 19.16559 4.02972
4.02889 19.25580 4.02889
4.02808 19.34599 4.02808
4.02729 19.43615 4.02729
4.02652 19.52629 4.02652
4.02577 19.61640 4.02577
4.02503 19.70649 4.02503
4.02431 19.79655 4.02431
4.02361 19.88660 4.02361
4.02293 19.97662 4.02293
4.02227 20.06662 4.02227
4.02162 20.15659 4.02162
4.02099 20.24654 4.02099
4.02038 20.33648 4.02038
4.01978 20.42639 4.01978
4.01920 20.51628 4.01920
4.01863 20.60615 4.01863
4.01808 20.69600 4.01808
4.01755 20.78584 4.01755
4.01703 20.87565 4.01703
4.01652 20.96545 4.01652
4.01603 21.05523 4.01603
4.01555 21.14499 4.01555
4.01508 21.23474 4.01508
4.01463 21.32447 4.01463
4.01419 21.41419 4.01419
4.01376 21.50389 4.01376
4.01335 21.59358 4.01335
4.01295 21.68326 4.01295
4.01256 21.77292 4.01256
4.01218 21.86257 4.01218
4.01181 21.95221 4.01181
4.01145 22.04183 4.01145
4.01110 22.13145 4.01110
4.01076 22.22105 4.01076
4.01044 22.31065 4.01044
4.01012 22.40023 4.01012
4.00981 22.48981 4.00981
4.00951 22.57937 4.00951
4.00922 22.66893 4.00922
4.00894 22.75848 4.00894
4.00866 22.84802 4.00866
4.00840 22.93756 4.00840
4.00814 23.02709 4.00814
4.00789 23.11661 4.00789
4.00765 23.20612 4.00765
4.00741 23.29564 4.00741
4.00718 23.38514 4.00718
4.00696 23.47464 4.00696
4.00675 23.56413 4.00675
4.00654 23.65362 4.00654
4.00634 23.74311 4.00634
4.00614 23.83259 4.00614
4.00595 23.92207 4.00595
4.00577 24.01155 4.00577
4.00559 24.10102 4.00559
4.00542 24.19049 4.00542
4.00525 24.27995 4.00525
4.00509 24.36942 4.00509
4.00493 24.45888 4.00493
4.00478 24.54834 4.00478
4.00463 24.63780 4.00463
4.00449 24.72726 4.00449
4.00435 24.81672 4.00435
4.00421 24.90617 4.00421
4.00408 24.99563 4.00408
4.00395 25.08508 4.00395
4.00383 25.17454 4.00383
4.00371 25.26399 4.00371
4.00360 25.35344 4.00360
4.00348 25.44290 4.00348
4.00338 25.53235 4.00338
4.00327 25.62181 4.00327
4.00317 25.71126 4.00317
4.00307 25.80072 4.00307
4.00298 25.89017 4.00297
4.00288 25.97963 4.00288
4.00279 26.06909 4.00279
4.00271 26.15855 4.00271
4.00262 26.24801 4.00262
4.00254 26.33747 4.00254
4.00246 26.42694 4.00246
4.00238 26.51640 4.00238
4.00231 26.60587 4.00231
4.00224 26.69534 4.00224
4.00217 26.78481 4.00217
4.00210 26.87428 4.00210
4.00203 26.96376 4.00203
4.00197 27.05324 4.00197
4.00191 27.14271 4.00191
4.00185 27.23219 4.00185
4.00179 27.32168 4.00179
4.00173 27.41117 4.00173
4.00168 27.50066 4.00168
4.00163 27.59015 4.00163
4.00158 27.67964 4.00158
4.00153 27.76914 4.00153
4.00148 27.85864 4.00148
4.00143 27.94814 4.00143
4.00139 28.03765 4.00139
4.00134 28.12716 4.00134
4.00130 28.21667 4.00130
4.00126 28.30618 4.00126
4.00122 28.39570 4.00122
4.00118 28.48522 4.00118
4.00115 28.57474 4.00115
4.00111 28.66427 4.00111
4.00108 28.75380 4.00108
4.00104 28.84333 4.00104
4.00101 28.93287 4.00101
4.00098 29.02241 4.00098
4.00095 29.11195 4.00095
4.00092 29.20150 4.00092
4.00089 29.29105 4.00089
4.00086 29.38060 4.00086
4.00083 29.47016 4.00083
4.00081 29.55972 4.00081
4.00078 29.64928 4.00078
4.00076 29.73885 4.00076
4.00073 29.82842 4.00073
4.00071 29.91799 4.00071
4.00069 30.00757 4.00069
4.00067 30.09715 4.00067
4.00065 30.18673 4.00065
4.00063 30.27632 4.00063
4.00061 30.36591 4.00061
4.00059 30.45550 4.00059
4.00057 30.54510 4.00057
4.00055 30.63470 4.00055
4.00053 30.72431 4.00053
4.00052 30.81392 4.00052
4.00050 30.90353 4.00050
4.00049 30.99314 4.00048
4.00047 31.08276 4.00047
4.00045 31.17239 4.00045
4.00044 31.26201 4.00044
4.00043 31.35164 4.00043
4.00041 31.44128 4.00041
4.00040 31.53091 4.00040
4.00039 31.62055 4.00039
4.00038 31.71020 4.00038
4.00036 31.79984 4.00036
4.00035 31.88949 4.00035
4.00034 31.97915 4.00034
4.00033 32.06880 4.00033
4.00032 32.15847 4.00032
4.00031 32.24813 4.00031
4.00030 32.33780 4.00030
4.00029 32.42747 4.00029
4.00028 32.51714 4.00028
4.00027 32.60682 4.00027
4.00026 32.69650 4.00026
4.00026 32.78619 4.00026
4.00025 32.87588 4.00025
4.00024 32.96557 4.00024
4.00023 33.05527 4.00023
4.00022 33.14496 4.00022
4.00022 33.23467 4.00022
4.00021 33.32437 4.00021
4.00020 33.41408 4.00020
4.00020 33.50379 4.00020

Angle 0.678676 6.189834

4.00000 7.03348 4.00000
4.00000 7.03348 4.00000
4.00000 7.03348 4.00000
4.00000 7.03348 4.00000
4.00000 7.03348 4.00000
4.00000 7.03348 4.00000
4.00000 7.03348 4.00000
4.00000 7.03348 4.00000
4.00000 7.03348 4.00000
4.00000 7.03348 4.00000
4.00000 7.03349 4.00000
4.00000 7.03349 4.00000
4.00000 7.03349 4.00000
4.00000 7.03349 4.00000
4.00000 7.03348 4.00000
4.00000 7.03348 4.00000
4.00000 7.03348 4.00000
4.00000 7.03348 4.00000
4.00000 7.03348 4.00000
4.00000 7.03348 4.00000
4.00000 7.03348 4.00000
4.00000 7.03348 4.00000
4.00000 7.03348 4.00000
4.00000 7.03348 4.00000
4.00000 7.03348 4.00000
4.00000 7.03348 4.00000
4.00000 7.03348 4.00000
4.00000 7.03348 4.00000
4.00000 7.03348 4.00000
4.00000 7.03348 4.00000
4.00000 7.03348 4.00000
4.00000 7.03348 4.00000
4.00000 7.03348 4.00000
4.00000 7.03348 4.00000
4.00000 7.03348 4.00000
4.00000 7.03348 4.00000
4.00000 7.03348 4.00000
4.00000 7.03348 4.00000
4.00000 7.03348 4.00000
4.00000 7.03348 4.00000
4.00000 7.03348 4.00000
4.00000 7.03348 4.00000
4.00000 7.03348 4.00000
4.00000 7.03348 4.00000
4.00000 7.03348 4.00000
4.00000 7.03348 4.00000
4.00000 7.03348 4.00000
4.00000 7.03348 4.00000
4.00000 7.03348 4.00000
4.00000 7.03348 4.00000
4.00000 7.03348 4.00000
4.00000 7.03348 4.00000
4.00000 7.03348 4.00000
4.00000 7.03348 4.00000
4.00000 7.03348 4.00000
4.00000 7.03348 4.00000
4.00000 7.03348 4.00000
4.00000 7.03348 4.00000
4.00000 7.03348 4.00000
4.00000 7.03348 4.00000
4.00000 7.03348 4.00000
4.00000 7.03348 4.00000
4.00000 7.03348 4.00000
4.00000 7.03348 4.00000
4.00000 7.03348 4.00000
4.00000 7.03348 4.00000
4.00000 7.03348 4.00000
4.00000 7.03348 4.00000
4.00000 7.03348 4.00000
4.00000 7.03348 4.00000
4.00000 7.03348 4.00000
4.00000 7.03348 4.00000
4.00000 7.03348 4.00000
4.00000 7.03348 4.00000
4.00000 7.03348 4.00000
4.00000 7.03348 4.00000
4.00000 7.03348 4.00000
4.00000 7.03348 4.00000
4.00000 7.03348 4.00000
4.00000 7.03348 4.00000
4.00000 7.03348 4.00000
4.00000 7.03348 4.00000
4.00000 7.03348 4.00000
4.00000 7.03348 4.00000
4.00000 7.03348 4.00000
4.00000 7.03348 4.00000
4.00000 7.03348 4.00000
4.00000 7.03350 4.00000
4.00000 7.03348 4.00000
4.00000 7.03348 4.00000
4.00000 7.03348 4.00000
4.00088 7.06346 4.00088
4.00319 7.14370 4.00319
4.00545 7.22412 4.00545
4.00767 7.30469 4.00767
4.00986 7.38537 4.00986
4.01202 7.46616 4.01202
4.01418 7.54704 4.01418
4.01634 7.62797 4.01634
4.01851 7.70894 4.01851
4.02070 7.78992 4.02070
4.02293 7.87089 4.02293
4.02520 7.95181 4.02520
4.02755 8.03266 4.02755
4.02997 8.11340 4.02997
4.03251 8.19398 4.03251
4.03517 8.27434 4.03517
4.03800 8.35443 4.03800
4.04103 8.43417 4.04103
4.04432 8.51344 4.04432
4.04793 8.59213 4.04793
4.05194 8.67006 4.05194
4.05638 8.74718 4.05638
4.06122 8.82354 4.06122
4.06650 8.89907 4.06650
4.07225 8.97370 4.07225
4.07850 9.04739 4.07850
4.08525 9.12012 4.08525
4.09251 9.19187 4.09251
4.10027 9.26268 4.10027
4.10847 9.33263 4.10847
4.11705 9.40186 4.11705
4.12591 9.47060 4.12591
4.13487 9.53916 4.13487
4.14373 9.60796 4.14373
4.15221 9.67755 4.15221
4.15997 9.74864 4.15997
4.16658 9.82207 4.16658
4.17155 9.89881 4.17155
4.17438 9.97985 4.17439
4.17467 10.06603 4.17467
4.17290 10.15637 4.17290
4.17044 10.24812 4.17044
4.16736 10.34113 4.16736
4.16370 10.43535 4.16370
4.15944 10.53080 4.15944
4.15457 10.62751 4.15457
4.14905 10.72555 4.14905
4.14280 10.82507 4.14280
4.13574 10.92626 4.13574
4.12773 11.02939 4.12773
4.11855 11.13487 4.11855
4.10791 11.24331 4.10791
4.09532 11.35568 4.09532
4.07998 11.47358 4.07998
4.06078 11.59924 4.06078
4.03542 11.73723 4.03542
4.00000 13.19120 4.00000
4.00000 13.19120 4.00000
4.00000 13.19120 4.00000
4.00000 13.19120 4.00000
4.00000 13.19120 4.00000
4.00000 13.19120 4.00000
4.00000 13.19120 4.00000
4.00000 13.19120 4.00000
4.00000 13.19120 4.00000
4.00000 13.19120 4.00000
4.00000 13.19120 4.00000
4.00000 13.19120 4.00000
4.00000 13.19120 4.00000
4.00000 13.19121 4.00000
4.00000 13.19120 4.00000
4.00231 13.20369 4.00231
4.01295 13.27015 4.01295
4.02158 13.34064 4.02158
4.02824 13.41510 4.02824
4.03300 13.49338 4.03300
4.03594 13.57532 4.03594
4.03758 13.65989 4.03758
4.03910 13.74472 4.03910
4.04058 13.82965 4.04058
4.04203 13.91467 4.04203
4.04345 13.99977 4.04345
4.04484 14.08494 4.04484
4.04621 14.17018 4.04621
4.04756 14.25548 4.04756
4.04889 14.34083 4.04889
4.05020 14.42624 4.05020
4.05150 14.51170 4.05150
4.05279 14.59720 4.05279
4.05407 14.68274 4.05407
4.05533 14.76833 4.05533
4.05659 14.85394 4.05659
4.05784 14.93960 4.05784
4.05908 15.02528 4.05908
4.06031 15.11102 4.06031
4.06137 15.19712 4.06137
4.06221 15.28365 4.06221
4.06286 15.37060 4.06286
4.06333 15.45793 4.06333
4.06362 15.54562 4.06362
4.06376 15.63364 4.06376
4.06375 15.72197 4.06375
4.06361 15.81059 4.06361
4.06334 15.89947 4.06334
4.06296 15.98859 4.06296
4.06248 16.07793 4.06248
4.06191 16.16747 4.06191
4.06126 16.25719 4.06126
4.06053 16.34707 4.06053
4.05974 16.43709 4.05974
4.05889 16.52724 4.05889
4.05800 16.61751 4.05800
4.05706 16.70787 4.05706
4.05609 16.79832 4.05609
4.05508 16.88885 4.05508
4.05405 16.97944 4.05405
4.05300 17.07009 4.05300
4.05194 17.16078 4.05194
4.05086 17.25151 4.05086
4.04978 17.34226 4.04978
4.04869 17.43304 4.04869
4.04760 17.52384 4.04760
4.04651 17.61464 4.04651
4.04543 17.70546 4.04543
4.04435 17.79627 4.04435
4.04328 17.88708 4.04328
4.04222 17.97788 4.04222
4.04117 18.06868 4.04117
4.04014 18.15946 4.04014
4.03911 18.25023 4.03911
4.03810 18.34098 4.03810
4.03711 18.43171 4.03711
4.03614 18.52242 4.03614
4.03518 18.61311 4.03518
4.03423 18.70378 4.03423
4.03331 18.79442 4.03331
4.03240 18.88504 4.03240
4.03152 18.97563 4.03152
4.03065 19.06620 4.03065
4.02980 19.15674 4.02980
4.02897 19.24726 4.02897
4.02815 19.33775 4.02815
4.02736 19.42821 4.02736
4.02658 19.51865 4.02658
4.02583 19.60906 4.02583
4.02509 19.69944 4.02509
4.02437 19.78980 4.02437
4.02366 19.88014 4.02366
4.02298 19.97044 4.02298
4.02231 20.06073 4.02231
4.02166 20.15099 4.02166
4.02103 20.24123 4.02103
4.02041 20.33144 4.02041
4.01981 20.42163 4.01981
4.01923 20.51180 4.01923
4.01866 20.60195 4.01866
4.01811 20.69207 4.01811
4.01757 20.78218 4.01757
4.01704 20.87226 4.01705
4.01654 20.96232 4.01654
4.01604 21.05237 4.01604
4.01556 21.14240 4.01556
4.01509 21.23241 4.01509
4.01464 21.32240 4.01464
4.01420 21.41238 4.01420
4.01377 21.50233 4.01377
4.01336 21.59228 4.01336
4.01295 21.68221 4.01295
4.01256 21.77212 4.01256
4.01218 21.86202 4.01218
4.01181 21.95191 4.01181
4.01145 22.04178 4.01145
4.01110 22.13164 4.01110
4.01076 22.22149 4.01076
4.01043 22.31133 4.01043
4.01011 22.40115 4.01012
4.00980 22.49097 4.00981
4.00950 22.58077 4.00951
4.00921 22.67056 4.00921
4.00893 22.76035 4.00893
4.00866 22.85012 4.00866
4.00839 22.93989 4.00839
4.00813 23.02965 4.00813
4.00788 23.11940 4.00788
4.00764 23.20914 4.00764
4.00740 23.29888 4.00741
4.00718 23.38861 4.00718
4.00696 23.47833 4.00696
4.00674 23.56805 4.00674
4.00653 23.65776 4.00653
4.00633 23.74747 4.00633
4.00613 23.83717 4.00613
4.00594 23.92687 4.00594
4.00576 24.01656 4.00576
4.00558 24.10624 4.00558
4.00541 24.19593 4.00541
4.00524 24.28561 4.00524
4.00508 24.37528 4.00508
4.00492 24.46496 4.00492
4.00477 24.55463 4.00477
4.00462 24.64429 4.00462
4.00448 24.73396 4.00448
4.00434 24.82362 4.00434
4.00420 24.91328 4.00420
4.00407 25.00294 4.00407
4.00394 25.09259 4.00394
4.00382 25.18225 4.00382
4.00370 25.27190 4.00370
4.00359 25.36155 4.00359
4.00347 25.45121 4.00348
4.00337 25.54086 4.00337
4.00326 25.63051 4.00326
4.00316 25.72016 4.00316
4.00306 25.80980 4.00306
4.00296 25.89945 4.00297
4.00287 25.98910 4.00287
4.00278 26.07875 4.00278
4.00270 26.16840 4.00270
4.00261 26.25805 4.00261
4.00253 26.34770 4.00253
4.00245 26.43735 4.00245
4.00237 26.52700 4.00237
4.00230 26.61665 4.00230
4.00223 26.70630 4.00223
4.00216 26.79596 4.00216
4.00209 26.88561 4.00209
4.00202 26.97527 4.00203
4.00196 27.06492 4.00196
4.00190 27.15458 4.00190
4.00184 27.24424 4.00184
4.00178 27.33390 4.00178
4.00173 27.42357 4.00173
4.00167 27.51323 4.00167
4.00162 27.60290 4.00162
4.00157 27.69256 4.00157
4.00152 27.78223 4.00152
4.00147 27.87191 4.00147
4.00143 27.96158 4.00143
4.00138 28.05126 4.00138
4.00134 28.14093 4.00134
4.00130 28.23061 4.00130
4.00126 28.32030 4.00126
4.00122 28.40998 4.00122
4.00118 28.49967 4.00118
4.00114 28.58935 4.00114
4.00110 28.67905 4.00111
4.00107 28.76874 4.00107
4.00104 28.85844 4.00104
4.00100 28.94813 4.00100
4.00097 29.03784 4.00097
4.00094 29.12754 4.00094
4.00091 29.21724 4.00091
4.00088 29.30695 4.00088
4.00086 29.39666 4.00086
4.00083 29.48638 4.00083
4.00080 29.57609 4.00080
4.00078 29.66581 4.00078
4.00075 29.75553 4.00075
4.00073 29.84526 4.00073
4.00071 29.93498 4.00071
4.00068 30.02471 4.00068
4.00066 30.11445 4.00066
4.00064 30.20418 4.00064
4.00062 30.29392 4.00062
4.00060 30.38366 4.00060
4.00058 30.47340 4.00058
4.00056 30.56315 4.00056
4.00055 30.65290 4.00055
4.00053 30.74265 4.00053
4.00051 30.83241 4.00051
4.00050 30.92216 4.00050
4.00048 31.01193 4.00048
4.00047 31.10169 4.00047
4.00045 31.19146 4.00045
4.00044 31.28122 4.00044
4.00042 31.37100 4.00042
4.00041 31.46077 4.00041
4.00040 31.55055 4.00040
4.00038 31.64033 4.00038
4.00037 31.73011 4.00037
4.00036 31.81990 4.00036
4.00035 31.90969 4.00035
4.00034 31.99948 4.00034
4.00033 32.08927 4.00033
4.00032 32.17907 4.00032
4.00031 32.26888 4.00031
4.00030 32.35868 4.00030
4.00029 32.44848 4.00029
4.00028 32.53829 4.00028
4.00027 32.62811 4.00027
4.00026 32.71792 4.00026
4.00025 32.80774 4.00025
4.00025 32.89756 4.00025
4.00024 32.98738 4.00024
4.00023 33.07721 4.00023
4.00022 33.16704 4.00022
4.00022 33.25687 4.00022
4.00021 33.34670 4.00021
4.00020 33.43654 4.00020
4.00020 33.52638 4.00020
4.00019 33.61623 4.00019
4.00018 33.70607 4.00018
4.00018 33.79592 4.00018
4.00017 33.88577 4.00017
4.00017 33.97563 4.00017
4.00016 34.06548 4.00016
4.00016 34.15534 4.00016
4.00015 34.24520 4.00015
4.00015 34.33507 4.00015

