Angle 0.222188 2.705710

4.00000 7.03348 4.00000
4.00000 7.03348 4.00000
4.00000 7.03348 4.00000
4.00000 7.03348 4.00000
4.00000 7.03348 4.00000
4.00000 7.03348 4.00000
4.00000 7.03348 4.00000
4.00000 7.03348 4.00000
4.00000 7.03348 4.00000
4.00000 7.03348 4.00000
4.00000 7.03348 4.00000
4.00000 7.03348 4.00000
4.00000 7.03348 4.00000
4.00000 7.03348 4.00000
4.00000 7.03348 4.00000
4.00000 7.03348 4.00000
4.00000 7.03348 4.00000
4.00000 7.03348 4.00000
4.00000 7.03348 4.00000
4.00000 7.03348 4.00000
4.00000 7.03348 4.00000
4.00000 7.03348 4.00000
4.00000 7.03348 4.00000
4.00000 7.03348 4.00000
4.00000 7.03348 4.00000
4.00000 7.03348 4.00000
4.00000 7.03348 4.00000
4.00000 7.03348 4.00000
4.00000 7.03348 4.00000
4.00000 7.03348 4.00000
4.00000 7.03348 4.00000
4.00000 7.03348 4.00000
4.00000 7.03348 4.00000
4.00000 7.03348 4.00000
4.00000 7.03348 4.00000
4.00000 7.03348 4.00000
4.00000 7.03348 4.00000
4.00000 7.03348 4.00000
4.00000 7.03348 4.00000
4.00000 7.03348 4.00000
4.00000 7.03348 4.00000
4.00000 7.03348 4.00000
4.00000 7.03348 4.00000
4.00000 7.03348 4.00000
4.00000 7.03348 4.00000
4.00000 7.03348 4.00000
4.00000 7.03348 4.00000
4.00000 7.03348 4.00000
4.00000 7.03348 4.00000
4.00000 7.03348 4.00000
4.00000 7.03348 4.00000
4.00000 7.03348 4.00000
4.00000 7.03348 4.00000
4.00000 7.03348 4.00000
4.00000 7.03348 4.00000
4.00000 7.03348 4.00000
4.00000 7.03348 4.00000
4.00000 7.03348 4.00000
4.00000 7.03348 4.00000
4.00000 7.03348 4.00000
4.00000 7.03348 4.00000
4.00000 7.03348 4.00000
4.00000 7.03348 4.00000
4.00000 7.03348 4.00000
4.00000 7.03348 4.00000
4.00000 7.03348 4.00000
4.00000 7.03348 4.00000
4.00000 7.03348 4.00000
4.00000 7.03348 4.00000
4.00000 7.03348 4.00000
4.00000 7.03348 4.00000
4.00000 7.03348 4.00000
4.00000 7.03348 4.00000
4.00000 7.03348 4.00000
4.00000 7.03348 4.00000
4.00000 7.03348 4.00000
4.00000 7.03348 4.00000
4.00000 7.03348 4.00000
4.00000 7.03348 4.00000
4.00000 7.03348 4.00000
4.00000 7.03348 4.00000
4.00000 7.03348 4.00000
4.00000 7.03348 4.00000
4.00000 7.03348 4.00000
4.00000 7.03348 4.00000
4.00000 7.03348 4.00000
4.00000 7.03348 4.00000
4.00000 7.03348 4.00000
4.00000 7.03348 4.00000
4.00000 7.03348 4.00000
4.00000 7.03348 4.00000
4.00000 7.03348 4.00000
4.00000 7.03348 4.00000
4.00000 7.03348 4.00000
4.00000 7.03348 4.00000
4.00000 7.03348 4.00000
4.00000 7.03348 4.00000
4.00000 7.03348 4.00000
4.00000 7.03348 4.00000
4.00000 7.03348 4.00000
4.00000 7.03348 4.00000
4.00000 7.03348 4.00000
4.00000 7.03348 4.00000
4.00000 7.03348 4.00000
4.00000 7.03348 4.00000
4.00000 7.03348 4.00000
4.00000 7.03348 4.00000
4.00000 7.03348 4.00000
4.00000 7.03348 4.00000
4.00000 7.03348 4.00000
4.00000 7.03348 4.00000
4.00000 7.03348 4.00000
4.00000 7.03348 4.00000
4.00000 7.03348 4.00000
4.00000 7.03348 4.00000
4.00000 7.03348 4.00000
4.00000 7.03348 4.00000
4.00000 7.03348 4.00000
4.00000 7.03348 4.00000
4.00000 7.03348 4.00000
4.00000 7.03348 4.00000
4.00000 7.03348 4.00000
4.00000 7.03348 4.00000
4.00000 7.03348 4.00000
4.00000 7.03348 4.00000
4.00000 7.03348 4.00000
4.00000 7.03348 4.00000
4.00000 7.03348 4.00000
4.00000 7.03348 4.00000
4.00000 7.03348 4.00000
4.00000 7.03348 4.00000
4.00000 7.03348 4.00000
4.00000 7.03348 4.00000
4.00000 7.03348 4.00000
4.00000 7.03348 4.00000
4.00000 7.03348 4.00000
4.00000 7.03348 4.00000
4.00000 7.03348 4.00000
4.00000 7.03348 4.00000
4.00000 7.03348 4.00000
4.00000 7.03348 4.00000
4.00000 7.03348 4.00000
4.00000 7.03348 4.00000
4.00000 7.03348 4.00000
4.00000 7.03348 4.00000
4.00000 7.03348 4.00000
4.00000 7.03348 4.00000
4.00000 7.03348 4.00000
4.00000 7.03348 4.00000
4.00000 7.03348 4.00000
4.00000 7.03348 4.00000
4.00000 7.03348 4.00000
4.00000 7.03348 4.00000
4.00000 7.03348 4.00000
4.00000 7.03348 4.00000
4.00000 7.03348 4.00000
4.00000 7.03348 4.00000
4.00000 7.03348 4.00000
4.00000 7.03348 4.00000
4.00000 7.03348 4.00000
4.00000 7.03348 4.00000
4.00000 7.03348 4.00000
4.00000 7.03348 4.00000
4.00000 7.03348 4.00000
4.00000 7.03348 4.00000
4.00000 7.03348 4.00000
4.00000 7.03348 4.00000
4.00000 7.03348 4.00000
4.00000 7.03348 4.00000
4.00000 7.03348 4.00000
4.00000 7.03348 4.00000
4.00000 7.03348 4.00000
4.00000 7.03348 4.00000
4.00000 7.03348 4.00000
4.00000 7.03348 4.00000
4.00000 7.03348 4.00000
4.00000 7.03348 4.00000
4.00000 7.03348 4.00000
4.00000 7.03348 4.00000
4.00000 7.03348 4.00000
4.00000 7.03348 4.00000
4.00000 7.03348 4.00000
4.00000 7.03350 4.00000
4.00000 7.03352 4.00000
4.00187 7.09745 4.00187
4.00414 7.17753 4.00415
4.00638 7.25778 4.00638
4.00858 7.33816 4.00858
4.01075 7.41867 4.01075
4.01291 7.49927 4.01291
4.01506 7.57994 4.01506
4.01721 7.66067 4.01721
4.01938 7.74142 4.01938
4.02158 7.82219 4.02158
4.02382 7.90293 4.02382
4.02612 7.98362 4.02612
4.02848 8.06422 4.02848
4.03094 8.14469 4.03094
4.03352 8.22499 4.03352
4.03623 8.30506 4.03623
4.03913 8.38483 4.03913
4.04224 8.46420 4.04224
4.04563 8.54309 4.04563
4.04937 8.62132 4.04937
4.05354 8.69875 4.05354
4.05811 8.77542 4.05811
4.06310 8.85131 4.06310
4.06854 8.92634 4.06854
4.07446 9.00048 4.07446
4.08087 9.07366 4.08087
4.08779 9.14587 4.08779
4.09521 9.21713 4.09521
4.10311 9.28747 4.10311
4.11144 9.35699 4.11144
4.12012 9.42588 4.12012
4.12901 9.49437 4.12901
4.13795 9.56282 4.13795
4.14670 9.63168 4.14669
4.15496 9.70156 4.15496
4.16236 9.77320 4.16236
4.16846 9.84748 4.16846
4.17276 9.92540 4.17276
4.17478 10.00793 4.17478
4.17419 10.09571 4.17419
4.17216 10.18640 4.17216
4.16950 10.27840 4.16950
4.16624 10.37163 4.16624
4.16239 10.46608 4.16239
4.15794 10.56175 4.15794
4.15288 10.65870 4.15288
4.14714 10.75702 4.14714
4.14066 10.85687 4.14066
4.13333 10.95845 4.13333
4.12499 11.06209 4.12499
4.11542 11.16823 4.11542
4.10425 11.27758 4.10425
4.09094 11.39126 4.09094
4.07459 11.51105 4.07459
4.05388 11.63959 4.05388
4.02583 11.78284 4.02583
4.00000 13.19120 4.00000
4.00000 13.19120 4.00000
4.00000 13.19120 4.00000
4.00000 13.19120 4.00000
4.00000 13.19120 4.00000
4.00000 13.19120 4.00000
4.00000 13.19120 4.00000
4.00000 13.19120 4.00000
4.00000 13.19120 4.00000
4.00000 13.19120 4.00000
4.00000 13.19120 4.00000
4.00000 13.19120 4.00000
4.00000 13.19120 4.00000
4.00000 13.19120 4.00000
4.00000 13.19121 4.00000
4.00548 13.22178 4.00548
4.01554 13.28927 4.01554
4.02361 13.36077 4.02361
4.02973 13.43618 4.02973
4.03398 13.51538 4.03398
4.03644 13.59816 4.03644
4.03800 13.68279 4.03800
4.03950 13.76754 4.03950
4.04097 13.85238 4.04097
4.04241 13.93731 4.04241
4.04382 14.02231 4.04382
4.04520 14.10740 4.04520
4.04656 14.19254 4.04656
4.04790 14.27775 4.04790
4.04923 14.36301 4.04923
4.05054 14.44833 4.05054
4.05183 14.53369 4.05183
4.05312 14.61910 4.05312
4.05439 14.70455 4.05439
4.05565 14.79003 4.05565
4.05691 14.87556 4.05691
4.05815 14.96112 4.05815
4.05939 15.04671 4.05939
4.06059 15.13241 4.06059
4.06159 15.21852 4.06159
4.06239 15.30505 4.06239
4.06299 15.39200 4.06299
4.06341 15.47932 4.06341
4.06367 15.56699 4.06367
4.06377 15.65499 4.06377
4.06373 15.74330 4.06373
4.06355 15.83189 4.06355
4.06326 15.92073 4.06326
4.06286 16.00981 4.06286
4.06235 16.09910 4.06235
4.06176 16.18859 4.06176
4.06109 16.27825 4.06109
4.06035 16.36807 4.06035
4.05955 16.45803 4.05955
4.05869 16.54812 4.05869
4.05778 16.63832 4.05779
4.05684 16.72861 4.05684
4.05586 16.81899 4.05586
4.05485 16.90944 4.05485
4.05382 16.99996 4.05382
4.05276 17.09052 4.05276
4.05170 17.18113 4.05170
4.05062 17.27178 4.05062
4.04954 17.36246 4.04954
4.04845 17.45315 4.04845
4.04736 17.54386 4.04736
4.04627 17.63459 4.04628
4.04519 17.72531 4.04519
4.04412 17.81604 4.04412
4.04305 17.90677 4.04305
4.04199 17.99749 4.04199
4.04095 18.08820 4.04095
4.03992 18.17889 4.03992
4.03890 18.26958 4.03890
4.03789 18.36024 4.03789
4.03690 18.45089 4.03690
4.03593 18.54152 4.03593
4.03498 18.63212 4.03498
4.03404 18.72271 4.03404
4.03312 18.81326 4.03312
4.03222 18.90380 4.03222
4.03134 18.99431 4.03134
4.03047 19.08480 4.03047
4.02963 19.17526 4.02963
4.02880 19.26569 4.02880
4.02799 19.35610 4.02799
4.02720 19.44649 4.02720
4.02643 19.53684 4.02643
4.02568 19.62718 4.02568
4.02494 19.71748 4.02494
4.02423 19.80777 4.02423
4.02353 19.89802 4.02353
4.02285 19.98826 4.02285
4.02218 20.07846 4.02218
4.02154 20.16865 4.02154
4.02091 20.25881 4.02091
4.02029 20.34895 4.02029
4.01970 20.43907 4.01970
4.01912 20.52916 4.01912
4.01855 20.61924 4.01855
4.01800 20.70929 4.01800
4.01747 20.79933 4.01747
4.01695 20.88934 4.01695
4.01644 20.97933 4.01644
4.01595 21.06931 4.01595
4.01547 21.15927 4.01547
4.01501 21.24921 4.01501
4.01456 21.33914 4.01456
4.01412 21.42905 4.01412
4.01369 21.51894 4.01369
4.01328 21.60882 4.01328
4.01288 21.69868 4.01288
4.01249 21.78853 4.01249
4.01211 21.87836 4.01211
4.01174 21.96818 4.01174
4.01139 22.05799 4.01139
4.01104 22.14779 4.01104
4.01070 22.23758 4.01070
4.01038 22.32735 4.01038
4.01006 22.41711 4.01006
4.00975 22.50687 4.00975
4.00945 22.59661 4.00945
4.00916 22.68635 4.00916
4.00888 22.77607 4.00888
4.00861 22.86579 4.00861
4.00835 22.95550 4.00835
4.00809 23.04520 4.00809
4.00784 23.13489 4.00784
4.00760 23.22457 4.00760
4.00736 23.31425 4.00736
4.00714 23.40393 4.00714
4.00692 23.49359 4.00692
4.00670 23.58325 4.00670
4.00650 23.67291 4.00650
4.00630 23.76256 4.00630
4.00610 23.85221 4.00610
4.00591 23.94185 4.00591
4.00573 24.03148 4.00573
4.00555 24.12112 4.00555
4.00538 24.21075 4.00538
4.00521 24.30037 4.00521
4.00505 24.39000 4.00505
4.00489 24.47962 4.00489
4.00474 24.56923 4.00474
4.00460 24.65885 4.00460
4.00445 24.74846 4.00445
4.00431 24.83807 4.00431
4.00418 24.92768 4.00418
4.00405 25.01729 4.00405
4.00392 25.10689 4.00392
4.00380 25.19650 4.00380
4.00368 25.28610 4.00368
4.00357 25.37571 4.00357
4.00346 25.46531 4.00346
4.00335 25.55491 4.00335
4.00324 25.64451 4.00324
4.00314 25.73411 4.00314
4.00305 25.82371 4.00305
4.00295 25.91331 4.00295
4.00286 26.00291 4.00286

Angle 0.269224 5.898060

4.00000 7.03348 4.00000
4.00000 7.03348 4.00000
4.00000 7.03348 4.00000
4.00000 7.03348 4.00000
4.00000 7.03348 4.00000
4.00000 7.03348 4.00000
4.00000 7.03348 4.00000
4.00000 7.03348 4.00000
4.00000 7.03348 4.00000
4.00000 7.03348 4.00000
4.00000 7.03348 4.00000
4.00000 7.03348 4.00000
4.00000 7.03348 4.00000
4.00000 7.03348 4.00000
4.00000 7.03348 4.00000
4.00000 7.03348 4.00000
4.00000 7.03348 4.00000
4.00000 7.03348 4.00000
4.00000 7.03348 4.00000
4.00000 7.03348 4.00000
4.00000 7.03348 4.00000
4.00000 7.03350 4.00000
4.00000 7.03348 4.00000
4.00000 7.03348 4.00000
4.00000 7.03355 4.00000
4.00204 7.10355 4.00204
4.00434 7.18449 4.00434
4.00660 7.26558 4.00660
4.00881 7.34681 4.00881
4.01101 7.42814 4.01101
4.01318 7.50955 4.01318
4.01535 7.59103 4.01535
4.01753 7.67255 4.01753
4.01973 7.75409 4.01973
4.02195 7.83562 4.02195
4.02422 7.91711 4.02422
4.02655 7.99854 4.02655
4.02895 8.07986 4.02895
4.03146 8.16103 4.03146
4.03408 8.24201 4.03408
4.03686 8.32273 4.03686
4.03982 8.40311 4.03982
4.04302 8.48307 4.04303
4.04652 8.56248 4.04652
4.05039 8.64119 4.05039
4.05471 8.71906 4.05471
4.05943 8.79616 4.05943
4.06458 8.87243 4.06458
4.07020 8.94782 4.07020
4.07630 9.02227 4.07630
4.08292 9.09574 4.08292
4.09005 9.16821 4.09005
4.09769 9.23972 4.09769
4.10580 9.31032 4.10580
4.11432 9.38014 4.11432
4.12315 9.44937 4.12315
4.13214 9.51831 4.13214
4.14111 9.58734 4.14111
4.14978 9.65700 4.14978
4.15783 9.72793 4.15783
4.16485 9.80097 4.16485
4.17036 9.87706 4.17036
4.17385 9.95721 4.17385
4.17486 10.04236 4.17486
4.17344 10.13240 4.17344
4.17113 10.22425 4.17113
4.16820 10.31739 4.16820
4.16467 10.41175 4.16467
4.16054 10.50734 4.16054
4.15580 10.60418 4.15580
4.15041 10.70235 4.15041
4.14431 10.80196 4.14431
4.13742 10.90320 4.13742
4.12960 11.00632 4.12960
4.12066 11.11171 4.12066
4.11032 11.21992 4.11032
4.09814 11.33183 4.09814
4.08339 11.44893 4.08339
4.06501 11.57330 4.06501
4.04107 11.70883 4.04107
4.00647 11.86570 4.00647
4.00000 13.19120 4.00000
4.00000 13.19120 4.00000
4.00000 13.19120 4.00000
4.00000 13.19120 4.00000
4.00000 13.19120 4.00000
4.00000 13.19120 4.00000
4.00000 13.19120 4.00000
4.00000 13.19120 4.00000
4.00000 13.19120 4.00000
4.00000 13.19120 4.00000
4.00000 13.19120 4.00000
4.00000 13.19120 4.00000
4.00000 13.19120 4.00000
4.00000 13.19120 4.00000
4.00073 13.19511 4.00074
4.01168 13.26127 4.01168
4.02060 13.33149 4.02060
4.02753 13.40572 4.02753
4.03253 13.48382 4.03253
4.03569 13.56563 4.03569
4.03741 13.65034 4.03741
4.03894 13.73545 4.03894
4.04043 13.82065 4.04043
4.04188 13.90595 4.04188
4.04331 13.99132 4.04331
4.04471 14.07677 4.04471
4.04608 14.16228 4.04608
4.04744 14.24785 4.04744
4.04877 14.33348 4.04877
4.05009 14.41915 4.05009
4.05140 14.50488 4.05140
4.05269 14.59064 4.05269
4.05397 14.67645 4.05397
4.05524 14.76229 4.05524
4.05651 14.84817 4.05651
4.05776 14.93408 4.05776
4.05901 15.02003 4.05901
4.06024 15.10601 4.06024
4.06131 15.19234 4.06131
4.06217 15.27910 4.06217
4.06283 15.36628 4.06283
4.06331 15.45385 4.06331
4.06361 15.54177 4.06361
4.06376 15.63003 4.06376
4.06375 15.71860 4.06375
4.06361 15.80746 4.06361
4.06335 15.89658 4.06335
4.06297 15.98594 4.06297
4.06249 16.07552 4.06249
4.06192 16.16530 4.06192
4.06127 16.25525 4.06127
4.06054 16.34537 4.06054
4.05975 16.43563 4.05975
4.05891 16.52602 4.05891
4.05801 16.61652 4.05801
4.05707 16.70712 4.05707
4.05609 16.79780 4.05609
4.05508 16.88856 4.05508
4.05405 16.97938 4.05405
4.05300 17.07025 4.05300
4.05193 17.16117 4.05193
4.05085 17.25212 4.05085
4.04977 17.34311 4.04977
4.04868 17.43411 4.04868
4.04759 17.52512 4.04759
4.04650 17.61615 4.04650
4.04541 17.70718 4.04541
4.04433 17.79821 4.04433
4.04326 17.88924 4.04326
4.04219 17.98025 4.04219
4.04114 18.07126 4.04114
4.04010 18.16225 4.04010
4.03908 18.25323 4.03908
4.03807 18.34418 4.03807
4.03708 18.43512 4.03708
4.03610 18.52603 4.03610
4.03514 18.61692 4.03514
4.03419 18.70779 4.03419
4.03327 18.79863 4.03327
4.03236 18.88945 4.03236
4.03147 18.98024 4.03147
4.03060 19.07100 4.03060
4.02975 19.16173 4.02975
4.02892 19.25244 4.02892
4.02811 19.34312 4.02811
4.02731 19.43377 4.02731
4.02654 19.52440 4.02654
4.02578 19.61499 4.02578
4.02504 19.70556 4.02504
4.02432 19.79610 4.02432
4.02361 19.88662 4.02361
4.02293 19.97711 4.02293
4.02226 20.06757 4.02226
4.02161 20.15801 4.02161
4.02098 20.24842 4.02098
4.02036 20.33881 4.02036
4.01976 20.42918 4.01976
4.01918 20.51952 4.01918
4.01861 20.60984 4.01861
4.01806 20.70013 4.01806
4.01752 20.79041 4.01752
4.01700 20.88066 4.01700
4.01649 20.97089 4.01649
4.01600 21.06111 4.01600
4.01552 21.15130 4.01552
4.01505 21.24147 4.01505
4.01460 21.33163 4.01460
4.01415 21.42177 4.01416
4.01373 21.51189 4.01373
4.01331 21.60199 4.01331
4.01291 21.69208 4.01291
4.01252 21.78215 4.01252
4.01214 21.87221 4.01214
4.01177 21.96225 4.01177
4.01141 22.05228 4.01141
4.01106 22.14229 4.01106
4.01072 22.23229 4.01072
4.01039 22.32228 4.01039
4.01008 22.41226 4.01008
4.00977 22.50223 4.00977
4.00947 22.59218 4.00947
4.00918 22.68212 4.00918
4.00889 22.77206 4.00889
4.00862 22.86198 4.00862
4.00836 22.95189 4.00836
4.00810 23.04180 4.00810
4.00785 23.13169 4.00785
4.00761 23.22158 4.00761
4.00737 23.31146 4.00737
4.00714 23.40133 4.00714
4.00692 23.49120 4.00692
4.00671 23.58105 4.00671
4.00650 23.67091 4.00650
4.00630 23.76075 4.00630
4.00610 23.85059 4.00610
4.00592 23.94042 4.00592
4.00573 24.03025 4.00573
4.00555 24.12007 4.00555
4.00538 24.20989 4.00538
4.00521 24.29971 4.00521
4.00505 24.38952 4.00505
4.00490 24.47932 4.00490
4.00474 24.56912 4.00474
4.00460 24.65892 4.00460
4.00445 24.74872 4.00445
4.00431 24.83851 4.00431
4.00418 24.92830 4.00418
4.00405 25.01808 4.00405
4.00392 25.10787 4.00392
4.00380 25.19765 4.00380
4.00368 25.28743 4.00368
4.00357 25.37721 4.00357
4.00345 25.46699 4.00346
4.00335 25.55676 4.00335
4.00324 25.64653 4.00324
4.00314 25.73631 4.00314
4.00304 25.82608 4.00304
4.00295 25.91585 4.00295
4.00286 26.00562 4.00286
4.00277 26.09539 4.00277
4.00268 26.18516 4.00268
4.00260 26.27493 4.00260
4.00251 26.36470 4.00251
4.00244 26.45446 4.00244
4.00236 26.54423 4.00236
4.00229 26.63400 4.00229
4.00221 26.72377 4.00221
4.00214 26.81354 4.00214
4.00208 26.90331 4.00208
4.00201 26.99308 4.00201
4.00195 27.08285 4.00195
4.00189 27.17262 4.00189
4.00183 27.26240 4.00183
4.00177 27.35217 4.00177
4.00172 27.44194 4.00172
4.00166 27.53172 4.00166
4.00161 27.62150 4.00161
4.00156 27.71128 4.00156
4.00151 27.80105 4.00151
4.00146 27.89084 4.00146
4.00142 27.98062 4.00142
4.00137 28.07040 4.00137
4.00133 28.16019 4.00133
4.00129 28.24997 4.00129
4.00125 28.33976 4.00125
4.00121 28.42955 4.00121
4.00117 28.51934 4.00117
4.00113 28.60914 4.00113
4.00110 28.69893 4.00110
4.00106 28.78873 4.00106
4.00103 28.87853 4.00103
4.00100 28.96833 4.00100
4.00097 29.05813 4.00097
4.00094 29.14794 4.00094
4.00091 29.23775 4.00091
4.00088 29.32756 4.00088
4.00085 29.41737 4.00085
4.00082 29.50718 4.00082
4.00080 29.59700 4.00080
4.00077 29.68682 4.00077
4.00075 29.77664 4.00075
4.00072 29.86646 4.00072
4.00070 29.95628 4.00070
4.00068 30.04611 4.00068
4.00066 30.13594 4.00066
4.00064 30.22577 4.00064
4.00062 30.31560 4.00062
4.00060 30.40544 4.00060
4.00058 30.49528 4.00058
4.00056 30.58512 4.00056
4.00054 30.67496 4.00054
4.00053 30.76481 4.00053
4.00051 30.85466 4.00051
4.00049 30.94451 4.00049
4.00048 31.03436 4.00048
4.00046 31.12422 4.00046
4.00045 31.21407 4.00045
4.00043 31.30394 4.00043
4.00042 31.39380 4.00042
4.00041 31.48366 4.00041
4.00039 31.57353 4.00039
4.00038 31.66340 4.00038
4.00037 31.75327 4.00037
4.00036 31.84315 4.00036
4.00035 31.93303 4.00035
4.00034 32.02291 4.00034
4.00033 32.11279 4.00033
4.00031 32.20267 4.00031
4.00030 32.29256 4.00030
4.00030 32.38245 4.00030
4.00029 32.47234 4.00029
4.00028 32.56224 4.00028
4.00027 32.65214 4.00027
4.00026 32.74204 4.00026
4.00025 32.83194 4.00025
4.00024 32.92184 4.00024
4.00024 33.01175 4.00024
4.00023 33.10166 4.00023
4.00022 33.19157 4.00022
4.00021 33.28149 4.00021
4.00021 33.37140 4.00021
4.00020 33.46132 4.00020
4.00019 33.55125 4.00019
4.00019 33.64117 4.00019
4.00018 33.73110 4.00018
4.00018 33.82103 4.00018
4.00017 33.91096 4.00017
4.00017 34.00089 4.00017
4.00016 34.09083 4.00016
4.00016 34.18077 4.00016
4.00015 34.27071 4.00015
4.00015 34.36065 4.00015
4.00014 34.45060 4.00014
4.00014 34.54055 4.00014
4.00013 34.63050 4.00013
4.00013 34.72045 4.00013
4.00012 34.81040 4.00012
4.00012 34.90036 4.00012
4.00012 34.99032 4.00012
4.00011 35.08028 4.00011
4.00011 35.17025 4.00011
4.00011 35.26022 4.00011
4.00010 35.35018 4.00010
4.00010 35.44016 4.00010
4.00010 35.53013 4.00010
4.00009 35.62011 4.00009
4.00009 35.71008 4.00009
4.00009 35.80006 4.00009
4.00008 35.89005 4.00008
4.00008 35.98003 4.00008
4.00008 36.07002 4.00008
4.00008 36.16001 4.00008
4.00007 36.25000 4.00007
4.00007 36.33999 4.00007
4.00007 36.42999 4.00007
4.00007 36.51999 4.00007
4.00007 36.60999 4.00007
4.00006 36.69999 4.00006
4.00006 36.79000 4.00006
4.00006 36.88000 4.00006
4.00006 36.97001 4.00006
4.00006 37.06002 4.00006
4.00005 37.15004 4.00005
4.00005 37.24005 4.00005
4.00005 37.33007 4.00005
4.00005 37.42009 4.00005
4.00005 37.51011 4.00005
4.00005 37.60013 4.00005
4.00004 37.69016 4.00004
4.00004 37.78018 4.00004
4.00004 37.87021 4.00004
4.00004 37.96025 4.00004
4.00004 38.05028 4.00004
4.00004 38.14032 4.00004
4.00004 38.23035 4.00004
4.00004 38.32039 4.00004
4.00003 38.41043 4.00003
4.00003 38.50048 4.00003
4.00003 38.59052 4.00003
4.00003 38.68057 4.00003
4.00003 38.77062 4.00003
4.00003 38.86067 4.00003
4.00003 38.95072 4.00003
4.00003 39.04078 4.00003
4.00003 39.13083 4.00003
4.00003 39.22089 4.00003
4.00002 39.31095 4.00002
4.00002 39.40102 4.00002
4.00002 39.49108 4.00002
4.00002 39.58115 4.00002
4.00002 39.67122 4.00002
4.00002 39.76129 4.00002
4.00002 39.85136 4.00002
4.00002 39.94143 4.00002
4.00002 40.03150 4.00002
4.00002 40.12158 4.00002
4.00002 40.21166 4.00002
4.00002 40.30174 4.00002
4.00002 40.39183 4.00002

Angle 0.305479 5.457062

4.00000 7.03348 4.00000
4.00000 7.03348 4.00000
4.00000 7.03348 4.00000
4.00000 7.03348 4.00000
4.00000 7.03348 4.00000
4.00000 7.03348 4.00000
4.00000 7.03348 4.00000
4.00000 7.03348 4.00000
4.00000 7.03348 4.00000
4.00000 7.03348 4.00000
4.00000 7.03348 4.00000
4.00000 7.03348 4.00000
4.00000 7.03348 4.00000
4.00000 7.03348 4.00000
4.00000 7.03348 4.00000
4.00000 7.03348 4.00000
4.00000 7.03348 4.00000
4.00000 7.03348 4.00000
4.00000 7.03348 4.00000
4.00000 7.03348 4.00000
4.00000 7.03348 4.00000
4.00000 7.03347 4.00000
4.00000 7.03348 4.00000
4.00000 7.03348 4.00000
4.00000 7.03348 4.00000
4.00000 7.03347 4.00000
4.00000 7.03348 4.00000
4.00000 7.03348 4.00000
4.00000 7.03348 4.00000
4.00000 7.03348 4.00000
4.00000 7.03348 4.00000
4.00000 7.03348 4.00000
4.00000 7.03348 4.00000
4.00000 7.03348 4.00000
4.00000 7.03348 4.00000
4.00000 7.03348 4.00000
4.00000 7.03348 4.00000
4.00000 7.03348 4.00000
4.00000 7.03348 4.00000
4.00000 7.03348 4.00000
4.00000 7.03348 4.00000
4.00000 7.03348 4.00000
4.00000 7.03348 4.00000
4.00000 7.03348 4.00000
4.00000 7.03348 4.00000
4.00000 7.03348 4.00000
4.00000 7.03348 4.00000
4.00000 7.03348 4.00000
4.00000 7.03348 4.00000
4.00000 7.03348 4.00000
4.00000 7.03348 4.00000
4.00000 7.03348 4.00000
4.00000 7.03348 4.00000
4.00000 7.03348 4.00000
4.00000 7.03348 4.00000
4.00000 7.03348 4.00000
4.00000 7.03348 4.00000
4.00000 7.03348 4.00000
4.00000 7.03348 4.00000
4.00000 7.03348 4.00000
4.00000 7.03348 4.00000
4.00000 7.03348 4.00000
4.00000 7.03348 4.00000
4.00000 7.03348 4.00000
4.00000 7.03348 4.00000
4.00000 7.03348 4.00000
4.00000 7.03348 4.00000
4.00000 7.03348 4.00000
4.00000 7.03348 4.00000
4.00000 7.03348 4.00000
4.00000 7.03348 4.00000
4.00000 7.03348 4.00000
4.00000 7.03348 4.00000
4.00000 7.03348 4.00000
4.00000 7.03348 4.00000
4.00000 7.03348 4.00000
4.00000 7.03348 4.00000
4.00000 7.03348 4.00000
4.00000 7.03348 4.00000
4.00000 7.03348 4.00000
4.00000 7.03348 4.00000
4.00000 7.03348 4.00000
4.00000 7.03348 4.00000
4.00000 7.03348 4.00000
4.00000 7.03348 4.00000
4.00000 7.03348 4.00000
4.00000 7.03348 4.00000
4.00000 7.03348 4.00000
4.00000 7.03348 4.00000
4.00000 7.03348 4.00000
4.00000 7.03348 4.00000
4.00000 7.03348 4.00000
4.00000 7.03348 4.00000
4.00000 7.03348 4.00000
4.00000 7.03348 4.00000
4.00000 7.03348 4.00000
4.00000 7.03348 4.00000
4.00000 7.03348 4.00000
4.00000 7.03349 4.00000
4.00000 7.03348 4.00000
4.00000 7.03348 4.00000
4.00000 7.03354 4.00000
4.00165 7.08998 4.00165
4.00389 7.16854 4.00389
4.00609 7.24727 4.00609
4.00825 7.32617 4.00825
4.01039 7.40519 4.01039
4.01251 7.48433 4.01251
4.01462 7.56357 4.01462
4.01674 7.64288 4.01674
4.01887 7.72224 4.01887
4.02102 7.80162 4.02102
4.02321 7.88101 4.02321
4.02545 7.96037 4.02545
4.02775 8.03968 4.02775
4.03014 8.11889 4.03014
4.03263 8.19796 4.03263
4.03526 8.27684 4.03526
4.03804 8.35547 4.03804
4.04102 8.43377 4.04102
4.04424 8.51165 4.04424
4.04778 8.58898 4.04778
4.05170 8.66560 4.05170
4.05603 8.74145 4.05603
4.06076 8.81658 4.06076
4.06591 8.89093 4.06591
4.07151 8.96443 4.07151
4.07759 9.03704 4.07759
4.08415 9.10873 4.08415
4.09122 9.17949 4.09122
4.09876 9.24934 4.09876
4.10675 9.31835 4.10675
4.11513 9.38664 4.11513
4.12380 9.45441 4.12380
4.13262 9.52194 4.13262
4.14140 9.58959 4.14140
4.14989 9.65788 4.14989
4.15778 9.72742 4.15778
4.16468 9.79898 4.16468
4.17015 9.87346 4.17015
4.17369 9.95184 4.17369
4.17488 10.03498 4.17488
4.17364 10.12302 4.17364
4.17145 10.21302 4.17145
4.16865 10.30428 4.16865
4.16526 10.39675 4.16526
4.16131 10.49041 4.16131
4.15677 10.58529 4.15677
4.15161 10.68145 4.15161
4.14578 10.77899 4.14578
4.13920 10.87808 4.13920
4.13176 10.97892 4.13176
4.12329 11.08186 4.12329
4.11356 11.18738 4.11356
4.10220 11.29619 4.10220
4.08861 11.40950 4.08861
4.07189 11.52913 4.07189
4.05062 11.65788 4.05062
4.02150 11.80236 4.02150
4.00000 13.19120 4.00000
4.00000 13.19120 4.00000
4.00000 13.19120 4.00000
4.00000 13.19120 4.00000
4.00000 13.19120 4.00000
4.00000 13.19120 4.00000
4.00000 13.19120 4.00000
4.00000 13.19120 4.00000
4.00000 13.19120 4.00000
4.00000 13.19119 4.00000
4.00000 13.19120 4.00000
4.00000 13.19120 4.00000
4.00000 13.19120 4.00000
4.00000 13.19120 4.00000
4.00000 13.19120 4.00000
4.00516 13.21994 4.00516
4.01520 13.28670 4.01520
4.02328 13.35741 4.02328
4.02945 13.43198 4.02945
4.03376 13.51027 4.03376
4.03632 13.59212 4.03632
4.03787 13.67601 4.03787
4.03937 13.76003 4.03937
4.04083 13.84416 4.04083
4.04226 13.92838 4.04226
4.04366 14.01268 4.04366
4.04504 14.09706 4.04504
4.04639 14.18151 4.04639
4.04772 14.26603 4.04772
4.04904 14.35061 4.04904
4.05034 14.43525 4.05034
4.05163 14.51994 4.05163
4.05290 14.60468 4.05290
4.05417 14.68947 4.05417
4.05542 14.77430 4.05542
4.05667 14.85917 4.05667
4.05791 14.94409 4.05791
4.05914 15.02904 4.05914
4.06035 15.11405 4.06035
4.06139 15.19944 4.06139
4.06223 15.28526 4.06222
4.06287 15.37148 4.06287
4.06333 15.45809 4.06333
4.06362 15.54506 4.06362
4.06376 15.63237 4.06376
4.06375 15.71998 4.06375
4.06361 15.80788 4.06361
4.06335 15.89605 4.06335
4.06298 15.98446 4.06298
4.06251 16.07309 4.06251
4.06195 16.16192 4.06195
4.06130 16.25094 4.06130
4.06059 16.34012 4.06059
4.05981 16.42945 4.05981
4.05897 16.51891 4.05897
4.05809 16.60849 4.05809
4.05716 16.69818 4.05716
4.05620 16.78795 4.05620
4.05520 16.87781 4.05520
4.05419 16.96774 4.05419
4.05315 17.05772 4.05315
4.05209 17.14776 4.05209
4.05102 17.23784 4.05102
4.04995 17.32795 4.04995
4.04887 17.41809 4.04887
4.04779 17.50826 4.04779
4.04671 17.59844 4.04671
4.04563 17.68863 4.04563
4.04456 17.77882 4.04456
4.04349 17.86902 4.04349
4.04244 17.95922 4.04244
4.04139 18.04941 4.04139
4.04036 18.13960 4.04036
4.03934 18.22977 4.03934
4.03834 18.31994 4.03834
4.03735 18.41009 4.03735
4.03637 18.50022 4.03637
4.03542 18.59034 4.03542
4.03448 18.68043 4.03448
4.03355 18.77051 4.03355
4.03265 18.86057 4.03265
4.03176 18.95061 4.03176
4.03089 19.04063 4.03089
4.03004 19.13062 4.03004
4.02921 19.22059 4.02921
4.02840 19.31055 4.02840
4.02760 19.40047 4.02760
4.02682 19.49038 4.02682
4.02607 19.58026 4.02607
4.02533 19.67013 4.02533
4.02460 19.75997 4.02460
4.02390 19.84978 4.02390
4.02321 19.93958 4.02321
4.02254 20.02936 4.02254
4.02189 20.11911 4.02189
4.02125 20.20885 4.02125
4.02063 20.29856 4.02063
4.02003 20.38825 4.02003
4.01945 20.47793 4.01945
4.01887 20.56759 4.01887
4.01832 20.65723 4.01832
4.01778 20.74685 4.01778
4.01725 20.83646 4.01725
4.01674 20.92605 4.01674
4.01624 21.01562 4.01624
4.01576 21.10518 4.01576
4.01529 21.19472 4.01529
4.01483 21.28425 4.01483
4.01439 21.37377 4.01439
4.01396 21.46327 4.01396
4.01354 21.55276 4.01354
4.01313 21.64223 4.01313
4.01273 21.73170 4.01273
4.01235 21.82115 4.01235
4.01198 21.91059 4.01198
4.01161 22.00002 4.01162
4.01126 22.08944 4.01126
4.01092 22.17885 4.01092
4.01059 22.26826 4.01059
4.01027 22.35765 4.01027
4.00996 22.44704 4.00996
4.00965 22.53641 4.00965
4.00936 22.62578 4.00936
4.00907 22.71515 4.00907
4.00880 22.80450 4.00880
4.00853 22.89385 4.00853
4.00827 22.98320 4.00827
4.00801 23.07254 4.00801
4.00777 23.16187 4.00777
4.00753 23.25120 4.00753
4.00730 23.34053 4.00730
4.00707 23.42985 4.00707
4.00686 23.51917 4.00686
4.00664 23.60848 4.00665
4.00644 23.69779 4.00644
4.00624 23.78709 4.00624
4.00605 23.87640 4.00605
4.00586 23.96570 4.00586
4.00568 24.05500 4.00568
4.00551 24.14430 4.00551
4.00534 24.23360 4.00534
4.00517 24.32289 4.00517
4.00501 24.41218 4.00501
4.00486 24.50148 4.00486
4.00471 24.59077 4.00471
4.00456 24.68006 4.00456
4.00442 24.76935 4.00442
4.00428 24.85864 4.00428
4.00415 24.94793 4.00415
4.00402 25.03722 4.00402
4.00390 25.12651 4.00390
4.00378 25.21580 4.00378
4.00366 25.30510 4.00366
4.00354 25.39439 4.00355
4.00343 25.48369 4.00343
4.00333 25.57298 4.00333
4.00323 25.66228 4.00323
4.00312 25.75158 4.00312
4.00303 25.84088 4.00303
4.00293 25.93018 4.00293
4.00284 26.01948 4.00284
4.00275 26.10879 4.00275
4.00267 26.19810 4.00267
4.00259 26.28741 4.00258
4.00250 26.37672 4.00250
4.00243 26.46603 4.00243
4.00235 26.55535 4.00235
4.00228 26.64467 4.00228
4.00221 26.73399 4.00221
4.00214 26.82332 4.00214
4.00207 26.91264 4.00207
4.00200 27.00198 4.00201
4.00194 27.09131 4.00194
4.00188 27.18065 4.00188
4.00182 27.26999 4.00182
4.00177 27.35933 4.00177
4.00171 27.44868 4.00171
4.00166 27.53802 4.00166
4.00161 27.62738 4.00161
4.00156 27.71673 4.00156
4.00151 27.80609 4.00151
4.00146 27.89546 4.00146
4.00141 27.98482 4.00142
4.00137 28.07419 4.00137
4.00133 28.16357 4.00133
4.00129 28.25295 4.00129
4.00125 28.34233 4.00125
4.00121 28.43171 4.00121
4.00117 28.52110 4.00117
4.00113 28.61049 4.00113
4.00110 28.69989 4.00110
4.00106 28.78929 4.00106
4.00103 28.87869 4.00103
4.00100 28.96810 4.00100
4.00097 29.05751 4.00097
4.00094 29.14693 4.00094
4.00091 29.23635 4.00091
4.00088 29.32577 4.00088
4.00085 29.41520 4.00085
4.00082 29.50463 4.00082
4.00080 29.59406 4.00080
4.00077 29.68350 4.00077
4.00075 29.77295 4.00075
4.00072 29.86239 4.00073
4.00070 29.95185 4.00070
4.00068 30.04130 4.00068
4.00066 30.13076 4.00066
4.00064 30.22023 4.00064
4.00062 30.30969 4.00062
4.00060 30.39916 4.00060
4.00058 30.48864 4.00058
4.00056 30.57812 4.00056
4.00054 30.66760 4.00054
4.00053 30.75709 4.00053
4.00051 30.84658 4.00051
4.00049 30.93608 4.00049
4.00048 31.02558 4.00048
4.00046 31.11509 4.00046
4.00045 31.20459 4.00045
4.00044 31.29411 4.00044
4.00042 31.38362 4.00042
4.00041 31.47314 4.00041
4.00040 31.56267 4.00040
4.00038 31.65220 4.00038
4.00037 31.74173 4.00037
4.00036 31.83127 4.00036
4.00035 31.92081 4.00035
4.00034 32.01035 4.00034
4.00033 32.09990 4.00033
4.00032 32.18945 4.00032
4.00031 32.27901 4.00031
4.00030 32.36857 4.00030
4.00029 32.45813 4.00029
4.00028 32.54770 4.00028
4.00027 32.63727 4.00027
4.00026 32.72685 4.00026
4.00025 32.81643 4.00025
4.00024 32.90601 4.00024
4.00024 32.99560 4.00024
4.00023 33.08519 4.00023
4.00022 33.17479 4.00022

Angle 0.274266 3.217387

4.00000 7.03348 4.00000
4.00000 7.03348 4.00000
4.00000 7.03348 4.00000
4.00000 7.03348 4.00000
4.00000 7.03348 4.00000
4.00000 7.03348 4.00000
4.00000 7.03348 4.00000
4.00000 7.03348 4.00000
4.00000 7.03348 4.00000
4.00000 7.03348 4.00000
4.00000 7.03348 4.00000
4.00000 7.03348 4.00000
4.00000 7.03348 4.00000
4.00000 7.03348 4.00000
4.00000 7.03348 4.00000
4.00000 7.03348 4.00000
4.00000 7.03348 4.00000
4.00000 7.03348 4.00000
4.00000 7.03348 4.00000
4.00000 7.03348 4.00000
4.00000 7.03348 4.00000
4.00000 7.03348 4.00000
4.00000 7.03348 4.00000
4.00000 7.03348 4.00000
4.00000 7.03348 4.00000
4.00000 7.03348 4.00000
4.00000 7.03348 4.00000
4.00000 7.03348 4.00000
4.00000 7.03348 4.00000
4.00000 7.03348 4.00000
4.00000 7.03348 4.00000
4.00000 7.03348 4.00000
4.00000 7.03348 4.00000
4.00000 7.03348 4.00000
4.00000 7.03348 4.00000
4.00000 7.03348 4.00000
4.00000 7.03348 4.00000
4.00000 7.03348 4.00000
4.00000 7.03348 4.00000
4.00000 7.03348 4.00000
4.00000 7.03348 4.00000
4.00000 7.03348 4.00000
4.00000 7.03348 4.00000
4.00000 7.03348 4.00000
4.00000 7.03348 4.00000
4.00000 7.03348 4.00000
4.00000 7.03348 4.00000
4.00000 7.03348 4.00000
4.00000 7.03348 4.00000
4.00000 7.03348 4.00000
4.00000 7.03348 4.00000
4.00000 7.03348 4.00000
4.00000 7.03348 4.00000
4.00000 7.03348 4.00000
4.00000 7.03348 4.00000
4.00000 7.03348 4.00000
4.00000 7.03348 4.00000
4.00000 7.03348 4.00000
4.00000 7.03348 4.00000
4.00000 7.03348 4.00000
4.00000 7.03348 4.00000
4.00000 7.03348 4.00000
4.00000 7.03348 4.00000
4.00000 7.03348 4.00000
4.00000 7.03348 4.00000
4.00000 7.03348 4.00000
4.00000 7.03348 4.00000
4.00000 7.03348 4.00000
4.00000 7.03348 4.00000
4.00000 7.03348 4.00000
4.00000 7.03348 4.00000
4.00000 7.03348 4.00000
4.00000 7.03348 4.00000
4.00000 7.03348 4.00000
4.00000 7.03348 4.00000
4.00000 7.03348 4.00000
4.00000 7.03348 4.00000
4.00000 7.03348 4.00000
4.00000 7.03348 4.00000
4.00000 7.03348 4.00000
4.00000 7.03348 4.00000
4.00000 7.03348 4.00000
4.00000 7.03348 4.00000
4.00000 7.03348 4.00000
4.00000 7.03348 4.00000
4.00000 7.03348 4.00000
4.00000 7.03348 4.00000
4.00000 7.03348 4.00000
4.00000 7.03348 4.00000
4.00000 7.03348 4.00000
4.00000 7.03348 4.00000
4.00000 7.03348 4.00000
4.00000 7.03348 4.00000
4.00000 7.03348 4.00000
4.00000 7.03348 4.00000
4.00000 7.03348 4.00000
4.00000 7.03348 4.00000
4.00000 7.03348 4.00000
4.00000 7.03348 4.00000
4.00000 7.03348 4.00000
4.00000 7.03348 4.00000
4.00000 7.03348 4.00000
4.00000 7.03348 4.00000
4.00000 7.03348 4.00000
4.00000 7.03348 4.00000
4.00000 7.03348 4.00000
4.00000 7.03348 4.00000
4.00000 7.03348 4.00000
4.00000 7.03348 4.00000
4.00000 7.03348 4.00000
4.00000 7.03348 4.00000
4.00000 7.03348 4.00000
4.00000 7.03348 4.00000
4.00000 7.03348 4.00000
4.00000 7.03348 4.00000
4.00000 7.03348 4.00000
4.00000 7.03348 4.00000
4.00000 7.03348 4.00000
4.00000 7.03348 4.00000
4.00000 7.03348 4.00000
4.00000 7.03348 4.00000
4.00000 7.03348 4.00000
4.00000 7.03348 4.00000
4.00000 7.03348 4.00000
4.00000 7.03348 4.00000
4.00000 7.03348 4.00000
4.00000 7.03348 4.00000
4.00000 7.03348 4.00000
4.00000 7.03348 4.00000
4.00000 7.03348 4.00000
4.00000 7.03348 4.00000
4.00000 7.03348 4.00000
4.00000 7.03348 4.00000
4.00000 7.03348 4.00000
4.00000 7.03348 4.00000
4.00000 7.03348 4.00000
4.00000 7.03348 4.00000
4.00000 7.03348 4.00000
4.00000 7.03348 4.00000
4.00000 7.03348 4.00000
4.00000 7.03348 4.00000
4.00000 7.03348 4.00000
4.00000 7.03348 4.00000
4.00000 7.03348 4.00000
4.00000 7.03348 4.00000
4.00000 7.03348 4.00000
4.00000 7.03348 4.00000
4.00000 7.03348 4.00000
4.00000 7.03348 4.00000
4.00000 7.03348 4.00000
4.00000 7.03348 4.00000
4.00000 7.03348 4.00000
4.00000 7.03348 4.00000
4.00000 7.03348 4.00000
4.00000 7.03348 4.00000
4.00000 7.03349 4.00000
4.00000 7.03348 4.00000
4.00000 7.03348 4.00000
4.00000 7.03348 4.00000
4.00000 7.03348 4.00000
4.00107 7.06990 4.00107
4.00339 7.15087 4.00339
4.00567 7.23199 4.00567
4.00790 7.31325 4.00790
4.01011 7.39463 4.01011
4.01229 7.47610 4.01229
4.01446 7.55765 4.01446
4.01664 7.63924 4.01664
4.01883 7.72086 4.01883
4.02104 7.80249 4.02104
4.02329 7.88408 4.02329
4.02560 7.96562 4.02560
4.02797 8.04706 4.02797
4.03044 8.12838 4.03044
4.03301 8.20952 4.03301
4.03572 8.29043 4.03572
4.03861 8.37104 4.03861
4.04172 8.45125 4.04172
4.04509 8.53098 4.04509
4.04881 8.61006 4.04881
4.05295 8.68833 4.05295
4.05751 8.76580 4.05751
4.06250 8.84248 4.06250
4.06793 8.91829 4.06793
4.07385 8.99317 4.07385
4.08027 9.06709 4.08027
4.08720 9.14002 4.08720
4.09465 9.21196 4.09465
4.10259 9.28296 4.10259
4.11097 9.35312 4.11097
4.11970 9.42261 4.11970
4.12866 9.49168 4.12866
4.13767 9.56067 4.13767
4.14650 9.63008 4.14650
4.15484 9.70049 4.15484
4.16231 9.77267 4.16231
4.16846 9.84753 4.16846
4.17279 9.92606 4.17279
4.17479 10.00928 4.17479
4.17415 10.09782 4.17415
4.17208 10.18923 4.17209
4.16938 10.28196 4.16938
4.16607 10.37593 4.16607
4.16217 10.47112 4.16217
4.15766 10.56755 4.15766
4.15251 10.66528 4.15251
4.14669 10.76440 4.14669
4.14010 10.86507 4.14010
4.13264 10.96752 4.13264
4.12414 11.07207 4.12414
4.11436 11.17922 4.11436
4.10292 11.28970 4.10292
4.08923 11.40472 4.08923
4.07233 11.52618 4.07233
4.05078 11.65697 4.05078
4.02114 11.80397 4.02114
4.00000 13.19120 4.00000
4.00000 13.19120 4.00000
4.00000 13.19120 4.00000
4.00000 13.19120 4.00000
4.00000 13.19120 4.00000
4.00000 13.19120 4.00000
4.00000 13.19120 4.00000
4.00000 13.19120 4.00000
4.00000 13.19120 4.00000
4.00000 13.19120 4.00000
4.00000 13.19120 4.00000
4.00000 13.19120 4.00000
4.00000 13.19120 4.00000
4.00000 13.19120 4.00000
4.00000 13.19120 4.00000
4.00797 13.23698 4.00797
4.01762 13.30579 4.01762
4.02527 13.37863 4.02527
4.03095 13.45540 4.03095
4.03477 13.53594 4.03476
4.03685 13.61996 4.03685
4.03840 13.70507 4.03840
4.03990 13.79029 4.03990
4.04137 13.87559 4.04137
4.04281 13.96098 4.04281
4.04421 14.04645 4.04421
4.04560 14.13198 4.04560
4.04696 14.21757 4.04696
4.04830 14.30322 4.04830
4.04963 14.38893 4.04963
4.05094 14.47467 4.05094
4.05224 14.56047 4.05224
4.05352 14.64630 4.05352
4.05480 14.73217 4.05480
4.05606 14.81808 4.05606
4.05732 14.90402 4.05732
4.05857 14.98999 4.05857
4.05982 15.07599 4.05982
4.06096 15.16220 4.06096
4.06190 15.24885 4.06190
4.06263 15.33593 4.06263
4.06316 15.42340 4.06316
4.06353 15.51124 4.06353
4.06372 15.59943 4.06372
4.06377 15.68793 4.06377
4.06368 15.77673 4.06368
4.06345 15.86580 4.06345
4.06311 15.95512 4.06312
4.06267 16.04466 4.06267
4.06213 16.13441 4.06213
4.06150 16.22434 4.06150
4.06080 16.31444 4.06080
4.06003 16.40469 4.06003
4.05920 16.49507 4.05920
4.05832 16.58557 4.05832
4.05739 16.67618 4.05739
4.05643 16.76687 4.05643
4.05543 16.85764 4.05543
4.05441 16.94848 4.05441
4.05336 17.03937 4.05336
4.05230 17.13031 4.05230
4.05122 17.22128 4.05122
4.05014 17.31229 4.05014
4.04905 17.40332 4.04905
4.04795 17.49437 4.04795
4.04686 17.58542 4.04686
4.04577 17.67649 4.04577
4.04469 17.76755 4.04469
4.04362 17.85861 4.04362
4.04255 17.94966 4.04255
4.04149 18.04070 4.04149
4.04045 18.13173 4.04045
4.03942 18.22275 4.03942
4.03841 18.31374 4.03841
4.03741 18.40472 4.03741
4.03642 18.49567 4.03642
4.03546 18.58660 4.03546
4.03451 18.67750 4.03451
4.03357 18.76839 4.03357
4.03266 18.85924 4.03266
4.03177 18.95007 4.03177
4.03089 19.04087 4.03089
4.03003 19.13164 4.03003
4.02919 19.22239 4.02919
4.02837 19.31311 4.02837
4.02757 19.40380 4.02757
4.02679 19.49446 4.02679
4.02603 19.58509 4.02603
4.02528 19.67570 4.02528
4.02455 19.76628 4.02455
4.02384 19.85683 4.02384
4.02315 19.94736 4.02315
4.02248 20.03786 4.02248
4.02182 20.12833 4.02182
4.02118 20.21878 4.02118
4.02056 20.30920 4.02056
4.01996 20.39960 4.01996
4.01937 20.48998 4.01937
4.01879 20.58033 4.01879
4.01824 20.67066 4.01824
4.01769 20.76097 4.01769
4.01717 20.85126 4.01717
4.01665 20.94152 4.01665
4.01615 21.03176 4.01615
4.01567 21.12199 4.01567
4.01520 21.21220 4.01520
4.01474 21.30238 4.01474
4.01430 21.39255 4.01430
4.01386 21.48270 4.01386
4.01345 21.57284 4.01344
4.01304 21.66295 4.01304
4.01264 21.75305 4.01264
4.01226 21.84314 4.01226
4.01188 21.93321 4.01188
4.01152 22.02327 4.01152
4.01117 22.11331 4.01117
4.01083 22.20334 4.01083
4.01050 22.29336 4.01050
4.01018 22.38336 4.01018
4.00987 22.47335 4.00986
4.00956 22.56333 4.00956
4.00927 22.65330 4.00927
4.00898 22.74326 4.00899
4.00871 22.83321 4.00871
4.00844 22.92315 4.00844
4.00818 23.01308 4.00818
4.00793 23.10300 4.00793
4.00768 23.19291 4.00768
4.00745 23.28282 4.00745
4.00722 23.37271 4.00722
4.00699 23.46260 4.00699
4.00678 23.55248 4.00678
4.00657 23.64236 4.00657
4.00636 23.73223 4.00636
4.00617 23.82209 4.00617
4.00597 23.91194 4.00598
4.00579 24.00180 4.00579
4.00561 24.09164 4.00561
4.00544 24.18148 4.00544
4.00527 24.27132 4.00527
4.00510 24.36115 4.00510
4.00494 24.45098 4.00494
4.00479 24.54080 4.00479
4.00464 24.63062 4.00464
4.00450 24.72044 4.00450
4.00436 24.81025 4.00436
4.00422 24.90006 4.00422
4.00409 24.98987 4.00409
4.00396 25.07967 4.00396
4.00384 25.16947 4.00384
4.00372 25.25927 4.00372
4.00360 25.34907 4.00360
4.00349 25.43887 4.00349
4.00338 25.52866 4.00338
4.00328 25.61845 4.00327
4.00317 25.70825 4.00317
4.00307 25.79804 4.00307
4.00298 25.88783 4.00298
4.00288 25.97762 4.00288
4.00279 26.06740 4.00279
4.00271 26.15719 4.00271
4.00262 26.24698 4.00262
4.00254 26.33677 4.00254
4.00246 26.42655 4.00246
4.00238 26.51634 4.00238
4.00231 26.60613 4.00231
4.00224 26.69591 4.00224
4.00217 26.78570 4.00217
4.00210 26.87549 4.00210
4.00203 26.96527 4.00203
4.00197 27.05506 4.00197
4.00191 27.14485 4.00191
4.00185 27.23464 4.00185
4.00179 27.32443 4.00179
4.00173 27.41422 4.00173
4.00168 27.50402 4.00168
4.00163 27.59381 4.00163
4.00157 27.68360 4.00157
4.00152 27.77340 4.00153
4.00148 27.86320 4.00148
4.00143 27.95300 4.00143
4.00139 28.04280 4.00139
4.00134 28.13260 4.00134
4.00130 28.22240 4.00130

Angle 0.310939 0.332885

4.00000 7.03348 4.00000
4.00000 7.03348 4.00000
4.00000 7.03348 4.00000
4.00000 7.03348 4.00000
4.00000 7.03348 4.00000
4.00000 7.03348 4.00000
4.00000 7.03348 4.00000
4.00000 7.03348 4.00000
4.00000 7.03348 4.00000
4.00000 7.03348 4.00000
4.00000 7.03348 4.00000
4.00000 7.03348 4.00000
4.00000 7.03348 4.00000
4.00000 7.03348 4.00000
4.00000 7.03348 4.00000
4.00000 7.03348 4.00000
4.00000 7.03348 4.00000
4.00000 7.03348 4.00000
4.00000 7.03348 4.00000
4.00000 7.03348 4.00000
4.00000 7.03348 4.00000
4.00000 7.03348 4.00000
4.00000 7.03348 4.00000
4.00000 7.03348 4.00000
4.00000 7.03348 4.00000
4.00000 7.03348 4.00000
4.00000 7.03348 4.00000
4.00000 7.03348 4.00000
4.00000 7.03348 4.00000
4.00000 7.03348 4.00000
4.00000 7.03348 4.00000
4.00000 7.03348 4.00000
4.00000 7.03348 4.00000
4.00000 7.03348 4.00000
4.00000 7.03348 4.00000
4.00000 7.03348 4.00000
4.00000 7.03348 4.00000
4.00000 7.03348 4.00000
4.00000 7.03348 4.00000
4.00000 7.03348 4.00000
4.00000 7.03348 4.00000
4.00000 7.03348 4.00000
4.00000 7.03348 4.00000
4.00000 7.03348 4.00000
4.00000 7.03348 4.00000
4.00000 7.03348 4.00000
4.00000 7.03348 4.00000
4.00000 7.03348 4.00000
4.00000 7.03348 4.00000
4.00000 7.03348 4.00000
4.00000 7.03348 4.00000
4.00000 7.03348 4.00000
4.00000 7.03348 4.00000
4.00000 7.03348 4.00000
4.00000 7.03348 4.00000
4.00000 7.03348 4.00000
4.00000 7.03348 4.00000
4.00000 7.03348 4.00000
4.00000 7.03348 4.00000
4.00000 7.03348 4.00000
4.00000 7.03348 4.00000
4.00000 7.03348 4.00000
4.00000 7.03348 4.00000
4.00000 7.03348 4.00000
4.00000 7.03348 4.00000
4.00000 7.03348 4.00000
4.00000 7.03348 4.00000
4.00000 7.03348 4.00000
4.00000 7.03348 4.00000
4.00000 7.03348 4.00000
4.00000 7.03348 4.00000
4.00000 7.03348 4.00000
4.00000 7.03349 4.00000
4.00000 7.03350 4.00000
4.00000 7.03353 4.00000
4.00000 7.03348 4.00000
4.00000 7.03349 4.00000
4.00000 7.03348 4.00000
4.00000 7.03349 4.00000
4.00000 7.03348 4.00000
4.00110 7.07112 4.00110
4.00331 7.14781 4.00331
4.00547 7.22470 4.00547
4.00759 7.30177 4.00759
4.00968 7.37899 4.00968
4.01176 7.45635 4.01176
4.01383 7.53383 4.01383
4.01590 7.61141 4.01590
4.01797 7.68907 4.01797
4.02007 7.76678 4.02007
4.02220 7.84453 4.02220
4.02437 7.92229 4.02437
4.02659 8.00002 4.02659
4.02889 8.07770 4.02889
4.03127 8.15529 4.03127
4.03377 8.23274 4.03377
4.03641 8.31001 4.03641
4.03921 8.38702 4.03921
4.04222 8.46370 4.04222
4.04549 8.53994 4.04549
4.04909 8.61562 4.04909
4.05308 8.69058 4.05308
4.05745 8.76485 4.05745
4.06222 8.83842 4.06222
4.06740 8.91123 4.06740
4.07303 8.98323 4.07303
4.07912 9.05437 4.07912
4.08569 9.12463 4.08569
4.09274 9.19400 4.09274
4.10025 9.26252 4.10025
4.10818 9.33026 4.10818
4.11648 9.39734 4.11648
4.12504 9.46397 4.12504
4.13373 9.53041 4.13373
4.14235 9.59705 4.14235
4.15066 9.66436 4.15066
4.15836 9.73297 4.15836
4.16507 9.80362 4.16507
4.17037 9.87717 4.17037
4.17377 9.95455 4.17377
4.17488 10.03659 4.17488
4.17364 10.12339 4.17364
4.17147 10.21208 4.17147
4.16872 10.30202 4.16872
4.16541 10.39314 4.16541
4.16153 10.48543 4.16153
4.15709 10.57892 4.15709
4.15204 10.67366 4.15204
4.14636 10.76975 4.14636
4.13994 10.86734 4.13994
4.13271 10.96663 4.13271
4.12450 11.06792 4.12450
4.11509 11.17166 4.11509
4.10415 11.27850 4.10415
4.09116 11.38950 4.09116
4.07528 11.50633 4.07528
4.05531 11.63140 4.05531
4.02860 11.76998 4.02860
4.00000 13.19120 4.00000
4.00000 13.19120 4.00000
4.00000 13.19120 4.00000
4.00000 13.19120 4.00000
4.00000 13.19120 4.00000
4.00000 13.19120 4.00000
4.00000 13.19121 4.00000
4.00000 13.19120 4.00000
4.00000 13.19120 4.00000
4.00000 13.19120 4.00000
4.00000 13.19120 4.00000
4.00000 13.19120 4.00000
4.00000 13.19120 4.00000
4.00000 13.19121 4.00000
4.00000 13.19120 4.00000
4.00065 13.19465 4.00065
4.01136 13.25912 4.01136
4.02015 13.32748 4.02015
4.02705 13.39967 4.02705
4.03210 13.47558 4.03210
4.03539 13.55505 4.03539
4.03717 13.63757 4.03717
4.03867 13.72069 4.03867
4.04014 13.80393 4.04014
4.04157 13.88726 4.04157
4.04297 13.97070 4.04297
4.04434 14.05421 4.04434
4.04569 14.13781 4.04569
4.04702 14.22149 4.04702
4.04833 14.30523 4.04833
4.04963 14.38903 4.04963
4.05091 14.47290 4.05091
4.05218 14.55683 4.05218
4.05344 14.64081 4.05344
4.05469 14.72484 4.05469
4.05593 14.80891 4.05593
4.05716 14.89304 4.05716
4.05839 14.97721 4.05839
4.05961 15.06142 4.05961
4.06076 15.14579 4.06076
4.06172 15.23059 4.06172
4.06247 15.31582 4.06247
4.06305 15.40144 4.06305
4.06345 15.48744 4.06345
4.06368 15.57379 4.06368
4.06377 15.66046 4.06377
4.06372 15.74744 4.06372
4.06355 15.83470 4.06355
4.06325 15.92222 4.06325
4.06285 16.00998 4.06285
4.06236 16.09796 4.06236
4.06178 16.18613 4.06178
4.06112 16.27449 4.06112
4.06039 16.36300 4.06039
4.05961 16.45167 4.05961
4.05876 16.54047 4.05876
4.05788 16.62938 4.05788
4.05695 16.71841 4.05695
4.05598 16.80752 4.05598
4.05499 16.89672 4.05499
4.05398 16.98599 4.05398
4.05294 17.07532 4.05294
4.05189 17.16470 4.05189
4.05083 17.25413 4.05083
4.04976 17.34359 4.04976
4.04869 17.43309 4.04869
4.04762 17.52261 4.04762
4.04654 17.61215 4.04654
4.04547 17.70171 4.04547
4.04441 17.79127 4.04441
4.04335 17.88084 4.04335
4.04231 17.97042 4.04231
4.04127 18.05999 4.04127
4.04025 18.14956 4.04025
4.03924 18.23913 4.03924
4.03824 18.32869 4.03824
4.03726 18.41824 4.03726
4.03629 18.50777 4.03629
4.03534 18.59730 4.03534
4.03441 18.68681 4.03441
4.03349 18.77630 4.03349
4.03260 18.86578 4.03260
4.03172 18.95524 4.03172
4.03085 19.04469 4.03085
4.03001 19.13411 4.03001
4.02918 19.22352 4.02918
4.02837 19.31291 4.02837
4.02759 19.40229 4.02759
4.02681 19.49164 4.02681
4.02606 19.58098 4.02606
4.02532 19.67029 4.02532
4.02461 19.75960 4.02461
4.02391 19.84888 4.02391
4.02322 19.93814 4.02322
4.02256 20.02739 4.02256
4.02191 20.11662 4.02191
4.02128 20.20583 4.02128
4.02066 20.29503 4.02066
4.02006 20.38421 4.02006
4.01947 20.47338 4.01947
4.01891 20.56253 4.01891
4.01835 20.65167 4.01835
4.01781 20.74079 4.01781
4.01729 20.82990 4.01729
4.01678 20.91900 4.01678
4.01628 21.00808 4.01628
4.01580 21.09715 4.01580
4.01533 21.18621 4.01533
4.01488 21.27526 4.01488
4.01443 21.36429 4.01443
4.01400 21.45332 4.01400
4.01359 21.54234 4.01359
4.01318 21.63135 4.01318
4.01278 21.72035 4.01278
4.01240 21.80934 4.01240
4.01203 21.89832 4.01203
4.01167 21.98729 4.01167
4.01131 22.07626 4.01131
4.01097 22.16522 4.01097
4.01064 22.25418 4.01064
4.01032 22.34313 4.01032
4.01001 22.43207 4.01001
4.00970 22.52101 4.00970
4.00941 22.60994 4.00941
4.00912 22.69887 4.00912
4.00885 22.78779 4.00885
4.00858 22.87672 4.00858
4.00832 22.96564 4.00831
4.00806 23.05455 4.00806
4.00782 23.14346 4.00782
4.00758 23.23237 4.00758
4.00735 23.32128 4.00735
4.00712 23.41018 4.00712
4.00690 23.49909 4.00690
4.00669 23.58799 4.00669
4.00649 23.67689 4.00649
4.00629 23.76580 4.00629
4.00610 23.85470 4.00610
4.00591 23.94360 4.00591
4.00573 24.03250 4.00573
4.00555 24.12140 4.00555
4.00538 24.21030 4.00538
4.00522 24.29921 4.00521
4.00506 24.38811 4.00505
4.00490 24.47702 4.00490
4.00475 24.56593 4.00475
4.00460 24.65484 4.00460
4.00446 24.74374 4.00446
4.00432 24.83266 4.00432
4.00419 24.92157 4.00419
4.00406 25.01049 4.00406
4.00394 25.09940 4.00393
4.00381 25.18833 4.00381
4.00370 25.27725 4.00369
4.00358 25.36618 4.00358
4.00347 25.45511 4.00347
4.00336 25.54404 4.00336
4.00326 25.63297 4.00326
4.00316 25.72192 4.00316
4.00306 25.81086 4.00306
4.00296 25.89981 4.00296
4.00287 25.98876 4.00287
4.00278 26.07771 4.00278
4.00270 26.16667 4.00270
4.00261 26.25563 4.00261
4.00253 26.34460 4.00253
4.00245 26.43357 4.00245
4.00238 26.52254 4.00238
4.00230 26.61152 4.00230
4.00223 26.70051 4.00223
4.00216 26.78949 4.00216
4.00210 26.87849 4.00209
4.00203 26.96748 4.00203
4.00197 27.05648 4.00197
4.00191 27.14549 4.00191
4.00185 27.23450 4.00185
4.00179 27.32352 4.00179
4.00173 27.41254 4.00173
4.00168 27.50156 4.00168
4.00163 27.59059 4.00163
4.00158 27.67963 4.00158
4.00153 27.76867 4.00153
4.00148 27.85771 4.00148
4.00143 27.94677 4.00143
4.00139 28.03582 4.00139
4.00135 28.12488 4.00135
4.00130 28.21395 4.00130
4.00126 28.30302 4.00126
4.00122 28.39210 4.00122
4.00119 28.48118 4.00119
4.00115 28.57027 4.00115
4.00111 28.65936 4.00111
4.00108 28.74846 4.00108
4.00104 28.83756 4.00104
4.00101 28.92667 4.00101
4.00098 29.01578 4.00098
4.00095 29.10490 4.00095
4.00092 29.19402 4.00092
4.00089 29.28315 4.00089
4.00086 29.37229 4.00086
4.00084 29.46143 4.00084
4.00081 29.55058 4.00081
4.00078 29.63973 4.00078
4.00076 29.72888 4.00076
4.00074 29.81805 4.00074
4.00071 29.90721 4.00071
4.00069 29.99639 4.00069
4.00067 30.08557 4.00067
4.00065 30.17475 4.00065
4.00063 30.26394 4.00063
4.00061 30.35313 4.00061
4.00059 30.44233 4.00059
4.00057 30.53154 4.00057
4.00055 30.62075 4.00055
4.00054 30.70996 4.00054
4.00052 30.79918 4.00052
4.00050 30.88841 4.00050
4.00049 30.97764 4.00049
4.00047 31.06688 4.00047
4.00046 31.15612 4.00046
4.00044 31.24537 4.00044
4.00043 31.33462 4.00043
4.00042 31.42388 4.00042
4.00040 31.51314 4.00040
4.00039 31.60241 4.00039
4.00038 31.69168 4.00038
4.00037 31.78096 4.00037
4.00035 31.87025 4.00035
4.00034 31.95953 4.00034
4.00033 32.04883 4.00033
4.00032 32.13813 4.00032
4.00031 32.22743 4.00031
4.00030 32.31674 4.00030
4.00029 32.40606 4.00029
4.00028 32.49537 4.00028
4.00027 32.58470 4.00027
4.00027 32.67403 4.00027
4.00026 32.76336 4.00026
4.00025 32.85270 4.00025
4.00024 32.94205 4.00024
4.00023 33.03140 4.00023
4.00023 33.12075 4.00023
4.00022 33.21011 4.00022
4.00021 33.29947 4.00021
4.00021 33.38884 4.00021
4.00020 33.47821 4.00020
4.00019 33.56759 4.00019
4.00019 33.65698 4.00019
4.00018 33.74636 4.00018
4.00018 33.83576 4.00018
4.00017 33.92515 4.00017
4.00017 34.01455 4.00016
4.00016 34.10396 4.00016
4.00015 34.19337 4.00015
4.00015 34.28279 4.00015
4.00015 34.37221 4.00015
4.00014 34.46163 4.00014
4.00014 34.55106 4.00014
4.00013 34.64050 4.00013
4.00013 34.72994 4.00013
4.00012 34.81938 4.00012
4.00012 34.90883 4.00012

Angle 0.381495 0.877653

4.00000 7.03348 4.00000
4.00000 7.03348 4.00000
4.00000 7.03348 4.00000
4.00000 7.03348 4.00000
4.00000 7.03348 4.00000
4.00000 7.03348 4.00000
4.00000 7.03348 4.00000
4.00000 7.03348 4.00000
4.00000 7.03348 4.00000
4.00000 7.03348 4.00000
4.00000 7.03348 4.00000
4.00000 7.03348 4.00000
4.00000 7.03348 4.00000
4.00000 7.03348 4.00000
4.00000 7.03348 4.00000
4.00000 7.03348 4.00000
4.00000 7.03348 4.00000
4.00000 7.03348 4.00000
4.00000 7.03348 4.00000
4.00000 7.03348 4.00000
4.00000 7.03348 4.00000
4.00000 7.03348 4.00000
4.00000 7.03348 4.00000
4.00000 7.03348 4.00000
4.00000 7.03348 4.00000
4.00000 7.03348 4.00000
4.00000 7.03348 4.00000
4.00000 7.03348 4.00000
4.00000 7.03348 4.00000
4.00000 7.03348 4.00000
4.00000 7.03348 4.00000
4.00000 7.03348 4.00000
4.00000 7.03348 4.00000
4.00000 7.03348 4.00000
4.00000 7.03348 4.00000
4.00000 7.03348 4.00000
4.00000 7.03348 4.00000
4.00000 7.03348 4.00000
4.00000 7.03348 4.00000
4.00000 7.03348 4.00000
4.00000 7.03348 4.00000
4.00000 7.03348 4.00000
4.00000 7.03348 4.00000
4.00000 7.03348 4.00000
4.00000 7.03348 4.00000
4.00000 7.03348 4.00000
4.00000 7.03348 4.00000
4.00000 7.03348 4.00000
4.00000 7.03348 4.00000
4.00000 7.03348 4.00000
4.00000 7.03347 4.00000
4.00000 7.03348 4.00000
4.00000 7.03348 4.00000
4.00000 7.03348 4.00000
4.00000 7.03348 4.00000
4.00000 7.03348 4.00000
4.00000 7.03348 4.00000
4.00000 7.03348 4.00000
4.00000 7.03348 4.00000
4.00000 7.03348 4.00000
4.00000 7.03348 4.00000
4.00000 7.03348 4.00000
4.00000 7.03348 4.00000
4.00000 7.03348 4.00000
4.00000 7.03348 4.00000
4.00000 7.03348 4.00000
4.00000 7.03348 4.00000
4.00000 7.03348 4.00000
4.00000 7.03348 4.00000
4.00000 7.03348 4.00000
4.00000 7.03348 4.00000
4.00000 7.03348 4.00000
4.00000 7.03348 4.00000
4.00000 7.03348 4.00000
4.00000 7.03348 4.00000
4.00000 7.03348 4.00000
4.00000 7.03348 4.00000
4.00000 7.03348 4.00000
4.00000 7.03348 4.00000
4.00000 7.03348 4.00000
4.00000 7.03348 4.00000
4.00000 7.03348 4.00000
4.00000 7.03348 4.00000
4.00000 7.03348 4.00000
4.00000 7.03348 4.00000
4.00000 7.03348 4.00000
4.00000 7.03348 4.00000
4.00000 7.03348 4.00000
4.00000 7.03348 4.00000
4.00000 7.03348 4.00000
4.00000 7.03348 4.00000
4.00000 7.03348 4.00000
4.00000 7.03348 4.00000
4.00000 7.03348 4.00000
4.00000 7.03348 4.00000
4.00000 7.03348 4.00000
4.00000 7.03348 4.00000
4.00000 7.03348 4.00000
4.00000 7.03348 4.00000
4.00000 7.03348 4.00000
4.00000 7.03348 4.00000
4.00000 7.03348 4.00000
4.00000 7.03348 4.00000
4.00000 7.03348 4.00000
4.00000 7.03349 4.00000
4.00000 7.03348 4.00000
4.00000 7.03350 4.00000
4.00000 7.03348 4.00000
4.00000 7.03348 4.00000
4.00000 7.03348 4.00000
4.00000 7.03348 4.00000
4.00000 7.03348 4.00000
4.00000 7.03349 4.00000
4.00000 7.03348 4.00000
4.00083 7.06180 4.00083
4.00306 7.13910 4.00306
4.00524 7.21660 4.00524
4.00738 7.29427 4.00738
4.00950 7.37210 4.00950
4.01159 7.45006 4.01159
4.01368 7.52813 4.01368
4.01576 7.60630 4.01576
4.01785 7.68454 4.01785
4.01996 7.76284 4.01996
4.02210 7.84116 4.02211
4.02429 7.91948 4.02429
4.02653 7.99778 4.02653
4.02884 8.07601 4.02884
4.03124 8.15415 4.03124
4.03375 8.23214 4.03375
4.03640 8.30994 4.03640
4.03923 8.38747 4.03923
4.04226 8.46466 4.04226
4.04556 8.54140 4.04556
4.04918 8.61756 4.04918
4.05321 8.69299 4.05321
4.05763 8.76771 4.05763
4.06244 8.84171 4.06244
4.06768 8.91494 4.06768
4.07337 8.98733 4.07337
4.07952 9.05885 4.07952
4.08616 9.12948 4.08616
4.09329 9.19920 4.09329
4.10088 9.26806 4.10088
4.10889 9.33613 4.10889
4.11727 9.40355 4.11727
4.12590 9.47052 4.12590
4.13463 9.53734 4.13463
4.14328 9.60440 4.14328
4.15159 9.67220 4.15159
4.15923 9.74138 4.15923
4.16583 9.81272 4.16583
4.17093 9.88710 4.17093
4.17407 9.96548 4.17407
4.17483 10.04866 4.17483
4.17336 10.13636 4.17336
4.17109 10.22570 4.17109
4.16824 10.31628 4.16824
4.16482 10.40804 4.16482
4.16083 10.50099 4.16083
4.15626 10.59515 4.15626
4.15109 10.69058 4.15109
4.14525 10.78739 4.14525
4.13866 10.88573 4.13866
4.13122 10.98584 4.13122
4.12276 11.08804 4.12276
4.11303 11.19282 4.11303
4.10168 11.30089 4.10168
4.08810 11.41346 4.08810
4.07141 11.53231 4.07141
4.05019 11.66026 4.05019
4.02117 11.80385 4.02117
4.00000 13.19120 4.00000
4.00000 13.19120 4.00000
4.00000 13.19120 4.00000
4.00000 13.19120 4.00000
4.00000 13.19120 4.00000
4.00000 13.19120 4.00000
4.00000 13.19120 4.00000
4.00000 13.19120 4.00000
4.00000 13.19120 4.00000
4.00000 13.19120 4.00000
4.00000 13.19120 4.00000
4.00000 13.19121 4.00000
4.00000 13.19120 4.00000
4.00000 13.19122 4.00000
4.00000 13.19120 4.00000
4.00393 13.21281 4.00393
4.01413 13.27866 4.01413
4.02239 13.34841 4.02239
4.02875 13.42199 4.02875
4.03328 13.49927 4.03328
4.03606 13.58008 4.03606
4.03764 13.66332 4.03764
4.03914 13.74678 4.03914
4.04059 13.83034 4.04059
4.04202 13.91400 4.04202
4.04341 13.99775 4.04341
4.04478 14.08158 4.04478
4.04613 14.16549 4.04613
4.04746 14.24946 4.04746
4.04877 14.33351 4.04877
4.05007 14.41761 4.05007
4.05135 14.50178 4.05135
4.05262 14.58599 4.05262
4.05388 14.67026 4.05388
4.05513 14.75458 4.05513
4.05637 14.83895 4.05637
4.05760 14.92335 4.05760
4.05883 15.00780 4.05883
4.06005 15.09229 4.06005
4.06114 15.17707 4.06114
4.06202 15.26229 4.06202
4.06271 15.34793 4.06271
4.06322 15.43395 4.06322
4.06355 15.52035 4.06355
4.06373 15.60708 4.06373
4.06377 15.69413 4.06377
4.06367 15.78147 4.06367
4.06344 15.86909 4.06344
4.06311 15.95696 4.06311
4.06267 16.04505 4.06267
4.06214 16.13336 4.06214
4.06152 16.22185 4.06152
4.06083 16.31052 4.06083
4.06008 16.39935 4.06008
4.05927 16.48831 4.05927
4.05840 16.57740 4.05840
4.05749 16.66660 4.05749
4.05655 16.75590 4.05655
4.05557 16.84529 4.05557
4.05456 16.93475 4.05456
4.05353 17.02428 4.05353
4.05249 17.11387 4.05249
4.05143 17.20350 4.05143
4.05037 17.29317 4.05037
4.04929 17.38288 4.04929
4.04822 17.47261 4.04822
4.04714 17.56237 4.04714
4.04607 17.65214 4.04607
4.04500 17.74192 4.04500
4.04393 17.83171 4.04393
4.04288 17.92150 4.04288
4.04183 18.01129 4.04183
4.04080 18.10108 4.04080
4.03978 18.19086 4.03978
4.03877 18.28063 4.03877
4.03778 18.37040 4.03778
4.03680 18.46015 4.03680
4.03584 18.54988 4.03584
4.03490 18.63961 4.03490
4.03397 18.72931 4.03397
4.03306 18.81900 4.03306
4.03217 18.90867 4.03217
4.03130 18.99833 4.03130
4.03044 19.08796 4.03044
4.02960 19.17758 4.02960
4.02879 19.26717 4.02879
4.02799 19.35675 4.02798
4.02720 19.44631 4.02720
4.02644 19.53584 4.02644
4.02569 19.62536 4.02569
4.02496 19.71486 4.02496
4.02425 19.80433 4.02425
4.02356 19.89379 4.02356
4.02288 19.98323 4.02288
4.02223 20.07266 4.02223
4.02158 20.16206 4.02158
4.02096 20.25145 4.02096
4.02035 20.34082 4.02035
4.01976 20.43017 4.01976
4.01918 20.51950 4.01918
4.01862 20.60882 4.01862
4.01807 20.69813 4.01807
4.01754 20.78742 4.01754
4.01702 20.87669 4.01702
4.01652 20.96595 4.01652
4.01603 21.05520 4.01603
4.01555 21.14443 4.01555
4.01509 21.23366 4.01509
4.01464 21.32287 4.01464
4.01420 21.41206 4.01420
4.01378 21.50125 4.01378
4.01336 21.59043 4.01336
4.01296 21.67959 4.01296
4.01257 21.76875 4.01257
4.01220 21.85789 4.01220
4.01183 21.94703 4.01183
4.01147 22.03616 4.01147
4.01112 22.12528 4.01112
4.01079 22.21440 4.01079
4.01046 22.30350 4.01046
4.01014 22.39261 4.01014
4.00984 22.48170 4.00984
4.00954 22.57079 4.00954
4.00925 22.65987 4.00925
4.00897 22.74895 4.00897
4.00869 22.83802 4.00869
4.00843 22.92709 4.00843
4.00817 23.01615 4.00817
4.00792 23.10522 4.00792
4.00768 23.19427 4.00768
4.00745 23.28333 4.00745
4.00722 23.37238 4.00722
4.00700 23.46143 4.00700
4.00678 23.55047 4.00678
4.00657 23.63952 4.00657
4.00637 23.72856 4.00637
4.00618 23.81761 4.00618
4.00599 23.90665 4.00599
4.00580 23.99569 4.00580
4.00562 24.08473 4.00562
4.00545 24.17377 4.00545
4.00528 24.26281 4.00528
4.00512 24.35185 4.00512
4.00496 24.44089 4.00496
4.00481 24.52993 4.00481
4.00466 24.61897 4.00466
4.00451 24.70801 4.00452
4.00438 24.79705 4.00438
4.00424 24.88610 4.00424
4.00411 24.97514 4.00411
4.00398 25.06419 4.00399
4.00386 25.15324 4.00386
4.00374 25.24229 4.00374
4.00362 25.33135 4.00362
4.00351 25.42040 4.00351
4.00340 25.50946 4.00340
4.00330 25.59852 4.00330
4.00320 25.68758 4.00320
4.00310 25.77665 4.00310
4.00300 25.86572 4.00300
4.00291 25.95479 4.00291
4.00282 26.04386 4.00282
4.00273 26.13294 4.00273
4.00264 26.22202 4.00265
4.00256 26.31111 4.00256
4.00248 26.40020 4.00248
4.00241 26.48929 4.00241
4.00233 26.57839 4.00233
4.00226 26.66749 4.00226
4.00219 26.75659 4.00219
4.00212 26.84570 4.00212
4.00205 26.93481 4.00206
4.00199 27.02392 4.00199
4.00193 27.11304 4.00193
4.00187 27.20217 4.00187
4.00181 27.29129 4.00181
4.00175 27.38043 4.00175
4.00170 27.46956 4.00170
4.00165 27.55870 4.00164
4.00159 27.64784 4.00160
4.00154 27.73699 4.00155
4.00150 27.82615 4.00149
4.00145 27.91530 4.00145
4.00141 28.00447 4.00140
4.00136 28.09364 4.00136
4.00132 28.18281 4.00132
4.00128 28.27199 4.00127
4.00124 28.36117 4.00124
4.00120 28.45036 4.00120
4.00116 28.53954 4.00116
4.00112 28.62874 4.00113
4.00109 28.71794 4.00109
4.00106 28.80715 4.00106
4.00102 28.89636 4.00102
4.00099 28.98557 4.00099
4.00096 29.07480 4.00096
4.00093 29.16402 4.00093
4.00090 29.25325 4.00090
4.00087 29.34248 4.00087
4.00085 29.43172 4.00085
4.00082 29.52097 4.00082
4.00079 29.61022 4.00079
4.00077 29.69947 4.00077
4.00074 29.78873 4.00075
4.00072 29.87799 4.00072
4.00070 29.96726 4.00070
4.00068 30.05653 4.00068
4.00065 30.14581 4.00066
4.00063 30.23510 4.00064
4.00062 30.32438 4.00062
4.00060 30.41368 4.00059
4.00058 30.50298 4.00058
4.00056 30.59228 4.00056
4.00054 30.68159 4.00054
4.00052 30.77090 4.00053
4.00051 30.86022 4.00051
4.00049 30.94954 4.00049
4.00048 31.03887 4.00048
4.00046 31.12820 4.00046
4.00045 31.21754 4.00045
4.00043 31.30688 4.00043
4.00042 31.39623 4.00042
4.00041 31.48558 4.00041
4.00039 31.57493 4.00039
4.00038 31.66430 4.00038
4.00037 31.75366 4.00037
4.00036 31.84303 4.00036
4.00035 31.93241 4.00035

Angle 0.373307 5.317618

4.00000 7.03348 4.00000
4.00000 7.03348 4.00000
4.00000 7.03348 4.00000
4.00000 7.03348 4.00000
4.00000 7.03348 4.00000
4.00000 7.03348 4.00000
4.00000 7.03348 4.00000
4.00000 7.03348 4.00000
4.00000 7.03348 4.00000
4.00000 7.03348 4.00000
4.00000 7.03348 4.00000
4.00000 7.03348 4.00000
4.00000 7.03348 4.00000
4.00000 7.03348 4.00000
4.00000 7.03348 4.00000
4.00000 7.03348 4.00000
4.00000 7.03348 4.00000
4.00000 7.03348 4.00000
4.00000 7.03348 4.00000
4.00000 7.03348 4.00000
4.00000 7.03348 4.00000
4.00000 7.03348 4.00000
4.00000 7.03348 4.00000
4.00000 7.03348 4.00000
4.00000 7.03348 4.00000
4.00000 7.03348 4.00000
4.00000 7.03348 4.00000
4.00000 7.03348 4.00000
4.00000 7.03348 4.00000
4.00000 7.03348 4.00000
4.00000 7.03348 4.00000
4.00000 7.03348 4.00000
4.00000 7.03348 4.00000
4.00000 7.03348 4.00000
4.00000 7.03348 4.00000
4.00000 7.03348 4.00000
4.00000 7.03348 4.00000
4.00000 7.03348 4.00000
4.00000 7.03348 4.00000
4.00000 7.03348 4.00000
4.00000 7.03348 4.00000
4.00000 7.03348 4.00000
4.00000 7.03348 4.00000
4.00000 7.03348 4.00000
4.00000 7.03348 4.00000
4.00000 7.03348 4.00000
4.00000 7.03348 4.00000
4.00000 7.03348 4.00000
4.00000 7.03348 4.00000
4.00000 7.03348 4.00000
4.00000 7.03348 4.00000
4.00000 7.03349 4.00000
4.00000 7.03348 4.00000
4.00043 7.04789 4.00042
4.00212 7.10617 4.00212
4.00379 7.16478 4.00379
4.00544 7.22371 4.00544
4.00707 7.28297 4.00707
4.00870 7.34252 4.00870
4.01031 7.40236 4.01032
4.01193 7.46249 4.01193
4.01354 7.52288 4.01354
4.01515 7.58354 4.01515
4.01678 7.64443 4.01678
4.01842 7.70556 4.01842
4.02007 7.76691 4.02008
4.02175 7.82847 4.02175
4.02347 7.89021 4.02347
4.02521 7.95213 4.02521
4.02700 8.01421 4.02700
4.02885 8.07642 4.02885
4.03076 8.13874 4.03076
4.03274 8.20115 4.03274
4.03481 8.26362 4.03481
4.03698 8.32611 4.03698
4.03927 8.38859 4.03927
4.04171 8.45100 4.04171
4.04431 8.51329 4.04431
4.04713 8.57539 4.04713
4.05019 8.63721 4.05019
4.05353 8.69867 4.05353
4.05714 8.75982 4.05714
4.06103 8.82063 4.06103
4.06520 8.88107 4.06520
4.06967 8.94110 4.06967
4.07447 9.00068 4.07447
4.07961 9.05979 4.07961
4.08509 9.11841 4.08509
4.09091 9.17654 4.09091
4.09707 9.23417 4.09707
4.10356 9.29134 4.10356
4.11035 9.34810 4.11035
4.11739 9.40454 4.11739
4.12463 9.46078 4.12463
4.13197 9.51698 4.13197
4.13931 9.57336 4.13931
4.14651 9.63020 4.14651
4.15340 9.68783 4.15340
4.15977 9.74667 4.15977
4.16538 9.80722 4.16538
4.16994 9.87002 4.16994
4.17315 9.93567 4.17315
4.17475 10.00474 4.17475
4.17451 10.07763 4.17451
4.17297 10.15327 4.17297
4.17097 10.23001 4.17097
4.16853 10.30778 4.16853
4.16566 10.38655 4.16566
4.16238 10.46632 4.16238
4.15866 10.54710 4.15866
4.15450 10.62892 4.15450
4.14985 10.71184 4.14986
4.14470 10.79593 4.14470
4.13897 10.88132 4.13897
4.13259 10.96815 4.13259
4.12546 11.05664 4.12546
4.11742 11.14707 4.11742
4.10827 11.23985 4.10827
4.09770 11.33562 4.09770
4.08522 11.43534 4.08522
4.07019 11.54029 4.07019
4.05158 11.65254 4.05158
4.02722 11.77640 4.02722
4.00000 13.19120 4.00000
4.00000 13.19120 4.00000
4.00000 13.19120 4.00000
4.00000 13.19120 4.00000
4.00000 13.19120 4.00000
4.00000 13.19120 4.00000
4.00000 13.19120 4.00000
4.00000 13.19120 4.00000
4.00000 13.19120 4.00000
4.00000 13.19120 4.00000
4.00000 13.19120 4.00000
4.00000 13.19120 4.00000
4.00000 13.19120 4.00000
4.00000 13.19120 4.00000
4.00000 13.19120 4.00000
4.00000 13.19120 4.00000
4.00000 13.19121 4.00000
4.00176 13.20068 4.00176
4.01133 13.25890 4.01133
4.01934 13.32034 4.01935
4.02582 13.38496 4.02582
4.03079 13.45269 4.03079
4.03430 13.52343 4.03430
4.03642 13.59706 4.03642
4.03781 13.67226 4.03781
4.03915 13.74763 4.03915
4.04047 13.82315 4.04047
4.04176 13.89882 4.04176
4.04303 13.97463 4.04303
4.04428 14.05058 4.04428
4.04551 14.12665 4.04551
4.04673 14.20284 4.04673
4.04793 14.27916 4.04793
4.04912 14.35559 4.04911
4.05029 14.43213 4.05029
4.05146 14.50878 4.05146
4.05261 14.58553 4.05261
4.05376 14.66239 4.05376
4.05490 14.73934 4.05490
4.05604 14.81640 4.05604
4.05717 14.89354 4.05717
4.05829 14.97078 4.05829
4.05942 15.04811 4.05941
4.06050 15.12558 4.06050
4.06143 15.20344 4.06143
4.06219 15.28173 4.06219
4.06280 15.36041 4.06279
4.06324 15.43948 4.06324
4.06355 15.51891 4.06355
4.06372 15.59867 4.06372
4.06377 15.67877 4.06377
4.06371 15.75916 4.06371
4.06353 15.83985 4.06353
4.06326 15.92080 4.06326
4.06289 16.00201 4.06289
4.06245 16.08346 4.06245
4.06193 16.16513 4.06193
4.06133 16.24700 4.06133
4.06068 16.32907 4.06068
4.05997 16.41132 4.05997
4.05921 16.49373 4.05921
4.05841 16.57630 4.05841
4.05757 16.65902 4.05757
4.05670 16.74186 4.05670
4.05579 16.82483 4.05579
4.05487 16.90792 4.05487
4.05392 16.99111 4.05392
4.05295 17.07439 4.05295
4.05197 17.15776 4.05197
4.05098 17.24122 4.05098
4.04999 17.32476 4.04999
4.04899 17.40836 4.04899
4.04798 17.49203 4.04798
4.04698 17.57576 4.04698
4.04598 17.65954 4.04598
4.04498 17.74338 4.04498
4.04399 17.82726 4.04399
4.04300 17.91119 4.04300
4.04202 17.99516 4.04202
4.04105 18.07917 4.04105
4.04009 18.16321 4.04009
4.03915 18.24728 4.03915
4.03821 18.33139 4.03821
4.03729 18.41552 4.03729
4.03638 18.49968 4.03638
4.03548 18.58387 4.03548
4.03460 18.66808 4.03460
4.03374 18.75231 4.03374
4.03289 18.83656 4.03289
4.03205 18.92083 4.03205
4.03123 19.00513 4.03123
4.03043 19.08944 4.03043
4.02964 19.17378 4.02964
4.02887 19.25813 4.02887
4.02811 19.34249 4.02811
4.02737 19.42688 4.02737
4.02665 19.51128 4.02665
4.02594 19.59569 4.02594
4.02524 19.68013 4.02524
4.02457 19.76457 4.02457
4.02390 19.84904 4.02390
4.02326 19.93352 4.02326
4.02263 20.01801 4.02263
4.02201 20.10252 4.02201
4.02141 20.18705 4.02141
4.02082 20.27159 4.02082
4.02025 20.35614 4.02025
4.01969 20.44072 4.01969
4.01914 20.52530 4.01914
4.01861 20.60991 4.01861
4.01809 20.69453 4.01809
4.01759 20.77916 4.01759
4.01709 20.86381 4.01709
4.01661 20.94848 4.01661
4.01615 21.03316 4.01615
4.01569 21.11786 4.01569
4.01525 21.20258 4.01525
4.01482 21.28731 4.01482
4.01440 21.37206 4.01440
4.01399 21.45683 4.01399
4.01359 21.54161 4.01359
4.01320 21.62642 4.01320
4.01282 21.71124 4.01282
4.01246 21.79607 4.01246
4.01210 21.88093 4.01210
4.01175 21.96580 4.01175
4.01141 22.05069 4.01141
4.01109 22.13560 4.01109
4.01077 22.22053 4.01077
4.01045 22.30548 4.01045
4.01015 22.39044 4.01015
4.00986 22.47543 4.00986
4.00957 22.56043 4.00957
4.00929 22.64545 4.00929
4.00902 22.73049 4.00903
4.00876 22.81556 4.00876
4.00851 22.90064 4.00851
4.00826 22.98574 4.00826
4.00802 23.07086 4.00802
4.00778 23.15600 4.00778
4.00755 23.24115 4.00755
4.00733 23.32633 4.00733
4.00712 23.41153 4.00712
4.00691 23.49675 4.00691
4.00671 23.58199 4.00670
4.00651 23.66725 4.00651
4.00632 23.75253 4.00632
4.00613 23.83783 4.00613
4.00595 23.92315 4.00595
4.00578 24.00849 4.00578
4.00561 24.09385 4.00561
4.00544 24.17923 4.00544
4.00528 24.26463 4.00528
4.00512 24.35005 4.00512
4.00497 24.43550 4.00497
4.00482 24.52096 4.00482
4.00468 24.60644 4.00468
4.00454 24.69194 4.00454
4.00441 24.77747 4.00441
4.00428 24.86301 4.00428
4.00415 24.94858 4.00415
4.00403 25.03416 4.00403
4.00391 25.11977 4.00391
4.00379 25.20540 4.00379
4.00368 25.29105 4.00368
4.00357 25.37671 4.00357
4.00346 25.46240 4.00346
4.00336 25.54811 4.00336
4.00326 25.63384 4.00326
4.00316 25.71959 4.00316
4.00307 25.80536 4.00307
4.00297 25.89115 4.00297
4.00289 25.97696 4.00289
4.00280 26.06279 4.00280
4.00271 26.14865 4.00271
4.00263 26.23452 4.00263
4.00255 26.32041 4.00255
4.00248 26.40632 4.00248
4.00240 26.49225 4.00240
4.00233 26.57821 4.00233
4.00226 26.66418 4.00226
4.00219 26.75017 4.00219
4.00212 26.83618 4.00213
4.00206 26.92221 4.00206
4.00200 27.00826 4.00200
4.00194 27.09433 4.00194
4.00188 27.18042 4.00188
4.00182 27.26653 4.00183
4.00177 27.35266 4.00177
4.00172 27.43880 4.00172
4.00167 27.52497 4.00167
4.00162 27.61116 4.00162
4.00157 27.69736 4.00157
4.00152 27.78359 4.00152
4.00147 27.86984 4.00148
4.00143 27.95610 4.00143
4.00138 28.04238 4.00139
4.00134 28.12868 4.00134
4.00131 28.21499 4.00131
4.00127 28.30133 4.00126
4.00123 28.38770 4.00122
4.00119 28.47407 4.00119
4.00115 28.56046 4.00115
4.00112 28.64687 4.00112
4.00108 28.73330 4.00109
4.00105 28.81975 4.00105
4.00102 28.90621 4.00102
4.00099 28.99270 4.00099
4.00096 29.07920 4.00096
4.00093 29.16572 4.00093
4.00090 29.25226 4.00090
4.00087 29.33881 4.00087
4.00085 29.42539 4.00085
4.00082 29.51198 4.00082
4.00080 29.59858 4.00080
4.00077 29.68521 4.00077
4.00075 29.77185 4.00075
4.00073 29.85851 4.00073
4.00070 29.94519 4.00070
4.00068 30.03188 4.00068
4.00066 30.11859 4.00066
4.00064 30.20532 4.00064
4.00062 30.29206 4.00062
4.00060 30.37882 4.00060
4.00058 30.46560 4.00058
4.00057 30.55239 4.00057
4.00055 30.63920 4.00055
4.00053 30.72603 4.00053
4.00052 30.81287 4.00052
4.00050 30.89973 4.00050
4.00048 30.98660 4.00049
4.00047 31.07349 4.00047
4.00046 31.16039 4.00046
4.00044 31.24732 4.00044
4.00043 31.33426 4.00043
4.00042 31.42121 4.00042
4.00040 31.50818 4.00040
4.00039 31.59516 4.00039
4.00038 31.68216 4.00038
4.00037 31.76918 4.00037
4.00036 31.85621 4.00036
4.00035 31.94325 4.00035
4.00033 32.03031 4.00034
4.00032 32.11739 4.00032
4.00031 32.20448 4.00031
4.00031 32.29158 4.00030
4.00030 32.37870 4.00030
4.00029 32.46584 4.00029
4.00028 32.55298 4.00028
4.00027 32.64015 4.00027
4.00026 32.72733 4.00026
4.00025 32.81452 4.00025
4.00025 32.90172 4.00025
4.00024 32.98894 4.00024
4.00023 33.07618 4.00023
4.00022 33.16343 4.00022
4.00022 33.25069 4.00022
4.00021 33.33796 4.00021
4.00020 33.42525 4.00020
4.00020 33.51256 4.00020
4.00019 33.59988 4.00019
4.00019 33.68721 4.00019
4.00018 33.77455 4.00018
4.00017 33.86191 4.00017
4.00017 33.94928 4.00017
4.00016 34.03666 4.00016
4.00016 34.12406 4.00016
4.00015 34.21147 4.00015
4.00015 34.29889 4.00015
4.00014 34.38633 4.00014
4.00014 34.47378 4.00014
4.00014 34.56124 4.00014
4.00013 34.64871 4.00013
4.00013 34.73620 4.00013
4.00012 34.82370 4.00012
4.00012 34.91121 4.00012
4.00012 34.99874 4.00012

Angle 0.272609 2.459639

4.00000 7.03348 4.00000
4.00000 7.03348 4.00000
4.00000 7.03348 4.00000
4.00000 7.03348 4.00000
4.00000 7.03348 4.00000
4.00000 7.03348 4.00000
4.00000 7.03348 4.00000
4.00000 7.03348 4.00000
4.00000 7.03348 4.00000
4.00000 7.03348 4.00000
4.00000 7.03348 4.00000
4.00000 7.03348 4.00000
4.00000 7.03348 4.00000
4.00000 7.03348 4.00000
4.00000 7.03348 4.00000
4.00000 7.03348 4.00000
4.00000 7.03348 4.00000
4.00000 7.03348 4.00000
4.00000 7.03348 4.00000
4.00000 7.03348 4.00000
4.00000 7.03348 4.00000
4.00000 7.03348 4.00000
4.00000 7.03348 4.00000
4.00000 7.03348 4.00000
4.00000 7.03348 4.00000
4.00000 7.03348 4.00000
4.00000 7.03348 4.00000
4.00000 7.03348 4.00000
4.00000 7.03348 4.00000
4.00000 7.03348 4.00000
4.00000 7.03348 4.00000
4.00000 7.03348 4.00000
4.00000 7.03348 4.00000
4.00000 7.03348 4.00000
4.00000 7.03348 4.00000
4.00000 7.03348 4.00000
4.00000 7.03348 4.00000
4.00000 7.03348 4.00000
4.00000 7.03348 4.00000
4.00000 7.03348 4.00000
4.00000 7.03348 4.00000
4.00000 7.03348 4.00000
4.00000 7.03348 4.00000
4.00000 7.03348 4.00000
4.00000 7.03348 4.00000
4.00000 7.03348 4.00000
4.00000 7.03348 4.00000
4.00000 7.03348 4.00000
4.00000 7.03348 4.00000
4.00000 7.03348 4.00000
4.00000 7.03348 4.00000
4.00000 7.03348 4.00000
4.00000 7.03348 4.00000
4.00000 7.03348 4.00000
4.00000 7.03348 4.00000
4.00000 7.03348 4.00000
4.00000 7.03348 4.00000
4.00000 7.03348 4.00000
4.00000 7.03348 4.00000
4.00000 7.03348 4.00000
4.00000 7.03348 4.00000
4.00000 7.03348 4.00000
4.00000 7.03348 4.00000
4.00000 7.03348 4.00000
4.00000 7.03348 4.00000
4.00000 7.03348 4.00000
4.00000 7.03348 4.00000
4.00000 7.03348 4.00000
4.00000 7.03348 4.00000
4.00000 7.03348 4.00000
4.00000 7.03348 4.00000
4.00000 7.03348 4.00000
4.00000 7.03348 4.00000
4.00000 7.03348 4.00000
4.00000 7.03348 4.00000
4.00000 7.03348 4.00000
4.00000 7.03348 4.00000
4.00000 7.03348 4.00000
4.00000 7.03348 4.00000
4.00000 7.03348 4.00000
4.00000 7.03348 4.00000
4.00000 7.03348 4.00000
4.00000 7.03348 4.00000
4.00000 7.03348 4.00000
4.00000 7.03348 4.00000
4.00000 7.03348 4.00000
4.00000 7.03348 4.00000
4.00000 7.03348 4.00000
4.00000 7.03348 4.00000
4.00000 7.03348 4.00000
4.00000 7.03348 4.00000
4.00000 7.03348 4.00000
4.00000 7.03348 4.00000
4.00000 7.03348 4.00000
4.00000 7.03348 4.00000
4.00000 7.03348 4.00000
4.00000 7.03348 4.00000
4.00000 7.03348 4.00000
4.00000 7.03348 4.00000
4.00000 7.03348 4.00000
4.00000 7.03348 4.00000
4.00000 7.03348 4.00000
4.00000 7.03348 4.00000
4.00000 7.03348 4.00000
4.00000 7.03348 4.00000
4.00000 7.03348 4.00000
4.00000 7.03348 4.00000
4.00000 7.03348 4.00000
4.00000 7.03348 4.00000
4.00000 7.03348 4.00000
4.00000 7.03348 4.00000
4.00000 7.03348 4.00000
4.00000 7.03348 4.00000
4.00000 7.03348 4.00000
4.00000 7.03348 4.00000
4.00000 7.03348 4.00000
4.00000 7.03348 4.00000
4.00000 7.03348 4.00000
4.00000 7.03348 4.00000
4.00000 7.03348 4.00000
4.00000 7.03348 4.00000
4.00000 7.03348 4.00000
4.00000 7.03348 4.00000
4.00000 7.03348 4.00000
4.00000 7.03348 4.00000
4.00000 7.03348 4.00000
4.00000 7.03348 4.00000
4.00000 7.03348 4.00000
4.00000 7.03348 4.00000
4.00000 7.03348 4.00000
4.00000 7.03348 4.00000
4.00000 7.03348 4.00000
4.00000 7.03348 4.00000
4.00000 7.03348 4.00000
4.00000 7.03348 4.00000
4.00000 7.03348 4.00000
4.00000 7.03348 4.00000
4.00000 7.03348 4.00000
4.00000 7.03348 4.00000
4.00000 7.03348 4.00000
4.00000 7.03348 4.00000
4.00000 7.03348 4.00000
4.00000 7.03348 4.00000
4.00000 7.03348 4.00000
4.00000 7.03348 4.00000
4.00000 7.03348 4.00000
4.00000 7.03348 4.00000
4.00000 7.03348 4.00000
4.00000 7.03348 4.00000
4.00000 7.03348 4.00000
4.00000 7.03348 4.00000
4.00000 7.03348 4.00000
4.00000 7.03348 4.00000
4.00000 7.03348 4.00000
4.00000 7.03348 4.00000
4.00000 7.03348 4.00000
4.00000 7.03348 4.00000
4.00000 7.03348 4.00000
4.00000 7.03348 4.00000
4.00000 7.03348 4.00000
4.00000 7.03348 4.00000
4.00000 7.03348 4.00000
4.00000 7.03348 4.00000
4.00000 7.03348 4.00000
4.00000 7.03348 4.00000
4.00000 7.03348 4.00000
4.00000 7.03348 4.00000
4.00000 7.03348 4.00000
4.00000 7.03348 4.00000
4.00000 7.03348 4.00000
4.00000 7.03348 4.00000
4.00000 7.03348 4.00000
4.00000 7.03348 4.00000
4.00000 7.03348 4.00000
4.00000 7.03348 4.00000
4.00000 7.03348 4.00000
4.00000 7.03348 4.00000
4.00000 7.03348 4.00000
4.00000 7.03348 4.00000
4.00000 7.03348 4.00000
4.00000 7.03348 4.00000
4.00000 7.03348 4.00000
4.00000 7.03348 4.00000
4.00000 7.03348 4.00000
4.00000 7.03348 4.00000
4.00000 7.03348 4.00000
4.00000 7.03348 4.00000
4.00000 7.03348 4.00000
4.00000 7.03348 4.00000
4.00000 7.03348 4.00000
4.00000 7.03348 4.00000
4.00000 7.03348 4.00000
4.00000 7.03348 4.00000
4.00000 7.03348 4.00000
4.00000 7.03348 4.00000
4.00000 7.03348 4.00000
4.00000 7.03349 4.00000
4.00000 7.03348 4.00000
4.00000 7.03348 4.00000
4.00215 7.10747 4.00215
4.00435 7.18476 4.00435
4.00650 7.26224 4.00650
4.00863 7.33988 4.00863
4.01073 7.41766 4.01072
4.01281 7.49557 4.01281
4.01489 7.57358 4.01489
4.01697 7.65168 4.01697
4.01907 7.72984 4.01907
4.02119 7.80803 4.02119
4.02335 7.88625 4.02335
4.02557 7.96444 4.02557
4.02784 8.04260 4.02784
4.03020 8.12067 4.03020
4.03266 8.19863 4.03266
4.03524 8.27641 4.03524
4.03798 8.35396 4.03798
4.04092 8.43120 4.04092
4.04409 8.50805 4.04409
4.04755 8.58438 4.04755
4.05139 8.66005 4.05139
4.05564 8.73497 4.05564
4.06027 8.80920 4.06027
4.06531 8.88268 4.06531
4.07079 8.95536 4.07079
4.07673 9.02719 4.07673
4.08315 9.09813 4.08315
4.09005 9.16817 4.09005
4.09742 9.23733 4.09742
4.10525 9.30566 4.10525
4.11346 9.37327 4.11346
4.12198 9.44034 4.12198
4.13068 9.50711 4.13068
4.13938 9.57393 4.13938
4.14787 9.64124 4.14787
4.15585 9.70963 4.15585
4.16297 9.77981 4.16297
4.16881 9.85260 4.16881
4.17290 9.92896 4.17290
4.17479 10.00976 4.17479
4.17419 10.09562 4.17419
4.17221 10.18427 4.17221
4.16963 10.27419 4.16963
4.16647 10.36531 4.16647
4.16275 10.45762 4.16275
4.15846 10.55112 4.15846
4.15358 10.64585 4.15358
4.14807 10.74190 4.14807
4.14185 10.83941 4.14185
4.13483 10.93857 4.13483
4.12688 11.03964 4.12688
4.11779 11.14303 4.11779
4.10728 11.24934 4.10728
4.09486 11.35949 4.09486
4.07978 11.47502 4.07978
4.06098 11.59803 4.06098
4.03632 11.73280 4.03632
4.00000 11.89097 4.00000
4.00000 13.19120 4.00000
4.00000 13.19120 4.00000
4.00000 13.19120 4.00000
4.00000 13.19120 4.00000
4.00000 13.19120 4.00000
4.00000 13.19120 4.00000
4.00000 13.19120 4.00000
4.00000 13.19120 4.00000
4.00000 13.19120 4.00000
4.00000 13.19120 4.00000
4.00000 13.19120 4.00000
4.00000 13.19120 4.00000
4.00000 13.19120 4.00000
4.00000 13.19120 4.00000
4.00000 13.19121 4.00000
4.00938 13.24591 4.00937
4.01857 13.31370 4.01857
4.02585 13.38536 4.02585
4.03127 13.46078 4.03127
4.03490 13.53982 4.03490
4.03689 13.62217 4.03689
4.03840 13.70551 4.03840
4.03988 13.78896 4.03988
4.04132 13.87251 4.04132
4.04272 13.95616 4.04272
4.04411 14.03989 4.04411
4.04546 14.12371 4.04546
4.04680 14.20759 4.04680
4.04812 14.29155 4.04812
4.04942 14.37557 4.04942
4.05071 14.45965 4.05071
4.05199 14.54378 4.05199
4.05325 14.62797 4.05325
4.05450 14.71221 4.05450
4.05575 14.79650 4.05575
4.05698 14.88083 4.05698
4.05821 14.96521 4.05821
4.05944 15.04962 4.05944
4.06062 15.13415 4.06062
4.06160 15.21910 4.06160
4.06238 15.30448 4.06238
4.06298 15.39026 4.06298
4.06340 15.47642 4.06340
4.06366 15.56293 4.06366
4.06377 15.64977 4.06377
4.06373 15.73691 4.06373
4.06357 15.82434 4.06357
4.06329 15.91204 4.06329
4.06290 15.99997 4.06290
4.06242 16.08812 4.06242
4.06185 16.17647 4.06185
4.06120 16.26500 4.06120
4.06047 16.35370 4.06047
4.05969 16.44255 4.05969
4.05885 16.53152 4.05885
4.05797 16.62062 4.05797
4.05704 16.70982 4.05704
4.05608 16.79912 4.05608
4.05508 16.88850 4.05508
4.05407 16.97795 4.05407
4.05303 17.06746 4.05303
4.05198 17.15702 4.05198
4.05092 17.24663 4.05092
4.04985 17.33627 4.04985
4.04878 17.42595 4.04878
4.04770 17.51565 4.04770
4.04662 17.60536 4.04662
4.04555 17.69510 4.04555
4.04449 17.78484 4.04449
4.04343 17.87458 4.04343
4.04238 17.96433 4.04238
4.04134 18.05408 4.04134
4.04031 18.14382 4.04031
4.03930 18.23356 4.03930
4.03830 18.32328 4.03830
4.03732 18.41300 4.03732
4.03635 18.50270 4.03635
4.03539 18.59239 4.03539
4.03446 18.68206 4.03446
4.03354 18.77172 4.03354
4.03264 18.86136 4.03264
4.03176 18.95099 4.03176
4.03089 19.04059 4.03089
4.03005 19.13018 4.03005
4.02922 19.21974 4.02922
4.02841 19.30929 4.02841
4.02762 19.39882 4.02762
4.02684 19.48833 4.02684
4.02609 19.57782 4.02609
4.02535 19.66729 4.02535
4.02463 19.75674 4.02463
4.02393 19.84617 4.02393
4.02324 19.93558 4.02324
4.02257 20.02498 4.02257
4.02192 20.11435 4.02192
4.02129 20.20371 4.02129
4.02067 20.29306 4.02067
4.02007 20.38238 4.02007
4.01949 20.47169 4.01949
4.01892 20.56098 4.01892
4.01836 20.65026 4.01836
4.01782 20.73952 4.01782
4.01730 20.82877 4.01730
4.01679 20.91800 4.01679
4.01629 21.00722 4.01629
4.01581 21.09643 4.01581
4.01534 21.18563 4.01533
4.01488 21.27481 4.01488
4.01444 21.36398 4.01444
4.01400 21.45314 4.01400
4.01359 21.54229 4.01359
4.01318 21.63142 4.01318
4.01278 21.72055 4.01278
4.01240 21.80967 4.01240
4.01203 21.89878 4.01203
4.01166 21.98789 4.01166
4.01131 22.07698 4.01131
4.01097 22.16607 4.01097
4.01064 22.25515 4.01064
4.01032 22.34422 4.01032
4.01000 22.43329 4.01000
4.00970 22.52235 4.00970
4.00941 22.61140 4.00940
4.00912 22.70045 4.00912
4.00884 22.78950 4.00884
4.00857 22.87854 4.00857
4.00831 22.96757 4.00831
4.00806 23.05661 4.00806
4.00781 23.14564 4.00781
4.00757 23.23466 4.00757
4.00734 23.32369 4.00734
4.00712 23.41271 4.00712
4.00690 23.50173 4.00690
4.00669 23.59075 4.00669
4.00648 23.67976 4.00648
4.00628 23.76878 4.00628
4.00609 23.85779 4.00609
4.00590 23.94680 4.00590
4.00572 24.03582 4.00572
4.00554 24.12483 4.00554
4.00537 24.21384 4.00537
4.00521 24.30285 4.00521
4.00505 24.39186 4.00505

