Angle 0.448271 2.065541

4.00000 7.03348 4.00000
4.00000 7.03348 4.00000
4.00000 7.03348 4.00000
4.00000 7.03348 4.00000
4.00000 7.03348 4.00000
4.00000 7.03348 4.00000
4.00000 7.03348 4.00000
4.00000 7.03348 4.00000
4.00000 7.03348 4.00000
4.00000 7.03348 4.00000
4.00000 7.03348 4.00000
4.00000 7.03348 4.00000
4.00000 7.03348 4.00000
4.00000 7.03348 4.00000
4.00000 7.03348 4.00000
4.00000 7.03348 4.00000
4.00000 7.03348 4.00000
4.00000 7.03348 4.00000
4.00000 7.03348 4.00000
4.00000 7.03348 4.00000
4.00000 7.03348 4.00000
4.00000 7.03348 4.00000
4.00000 7.03348 4.00000
4.00000 7.03348 4.00000
4.00000 7.03348 4.00000
4.00000 7.03348 4.00000
4.00000 7.03348 4.00000
4.00000 7.03348 4.00000
4.00000 7.03348 4.00000
4.00000 7.03348 4.00000
4.00000 7.03348 4.00000
4.00000 7.03348 4.00000
4.00000 7.03348 4.00000
4.00000 7.03348 4.00000
4.00000 7.03348 4.00000
4.00000 7.03348 4.00000
4.00000 7.03348 4.00000
4.00000 7.03348 4.00000
4.00000 7.03348 4.00000
4.00000 7.03348 4.00000
4.00000 7.03348 4.00000
4.00000 7.03348 4.00000
4.00000 7.03348 4.00000
4.00000 7.03348 4.00000
4.00000 7.03348 4.00000
4.00000 7.03348 4.00000
4.00000 7.03348 4.00000
4.00000 7.03348 4.00000
4.00000 7.03348 4.00000
4.00000 7.03348 4.00000
4.00000 7.03348 4.00000
4.00000 7.03348 4.00000
4.00000 7.03348 4.00000
4.00000 7.03348 4.00000
4.00000 7.03348 4.00000
4.00000 7.03348 4.00000
4.00000 7.03348 4.00000
4.00000 7.03348 4.00000
4.00000 7.03348 4.00000
4.00000 7.03348 4.00000
4.00000 7.03348 4.00000
4.00000 7.03348 4.00000
4.00000 7.03348 4.00000
4.00000 7.03348 4.00000
4.00000 7.03348 4.00000
4.00000 7.03348 4.00000
4.00000 7.03348 4.00000
4.00000 7.03348 4.00000
4.00000 7.03348 4.00000
4.00000 7.03348 4.00000
4.00000 7.03348 4.00000
4.00000 7.03348 4.00000
4.00000 7.03348 4.00000
4.00000 7.03348 4.00000
4.00000 7.03348 4.00000
4.00000 7.03348 4.00000
4.00000 7.03348 4.00000
4.00000 7.03348 4.00000
4.00000 7.03348 4.00000
4.00000 7.03348 4.00000
4.00000 7.03348 4.00000
4.00000 7.03348 4.00000
4.00000 7.03348 4.00000
4.00000 7.03348 4.00000
4.00000 7.03348 4.00000
4.00000 7.03348 4.00000
4.00000 7.03348 4.00000
4.00000 7.03348 4.00000
4.00000 7.03348 4.00000
4.00000 7.03348 4.00000
4.00000 7.03348 4.00000
4.00000 7.03348 4.00000
4.00000 7.03347 4.00000
4.00000 7.03347 4.00000
4.00000 7.03347 4.00000
4.00000 7.03347 4.00000
4.00000 7.03347 4.00000
4.00000 7.03348 4.00000
4.00000 7.03348 4.00000
4.00000 7.03347 4.00000
4.00000 7.03347 4.00000
4.00000 7.03347 4.00000
4.00000 7.03347 4.00000
4.00000 7.03348 4.00000
4.00000 7.03348 4.00000
4.00000 7.03348 4.00000
4.00000 7.03348 4.00000
4.00000 7.03348 4.00000
4.00000 7.03348 4.00000
4.00000 7.03348 4.00000
4.00000 7.03348 4.00000
4.00000 7.03348 4.00000
4.00000 7.03348 4.00000
4.00000 7.03348 4.00000
4.00000 7.03348 4.00000
4.00000 7.03348 4.00000
4.00000 7.03348 4.00000
4.00000 7.03348 4.00000
4.00000 7.03348 4.00000
4.00000 7.03348 4.00000
4.00000 7.03348 4.00000
4.00000 7.03348 4.00000
4.00000 7.03348 4.00000
4.00000 7.03348 4.00000
4.00000 7.03348 4.00000
4.00000 7.03348 4.00000
4.00000 7.03348 4.00000
4.00000 7.03348 4.00000
4.00000 7.03348 4.00000
4.00000 7.03348 4.00000
4.00000 7.03348 4.00000
4.00000 7.03348 4.00000
4.00000 7.03347 4.00000
4.00000 7.03347 4.00000
4.00000 7.03347 4.00000
4.00000 7.03347 4.00000
4.00000 7.03347 4.00000
4.00000 7.03347 4.00000
4.00000 7.03347 4.00000
4.00000 7.03347 4.00000
4.00000 7.03348 4.00000
4.00000 7.03348 4.00000
4.00000 7.03348 4.00000
4.00000 7.03348 4.00000
4.00000 7.03348 4.00000
4.00000 7.03348 4.00000
4.00000 7.03348 4.00000
4.00000 7.03349 4.00000
4.00000 7.03349 4.00000
4.00000 7.03349 4.00000
4.00000 7.03348 4.00000
4.00000 7.03348 4.00000
4.00000 7.03348 4.00000
4.00000 7.03348 4.00000
4.00000 7.03348 4.00000
4.00000 7.03348 4.00000
4.00000 7.03348 4.00000
4.00000 7.03348 4.00000
4.00000 7.03347 4.00000
4.00000 7.03347 4.00000
4.00000 7.03347 4.00000
4.00000 7.03347 4.00000
4.00000 7.03347 4.00000
4.00000 7.03347 4.00000
4.00000 7.03347 4.00000
4.00000 7.03347 4.00000
4.00000 7.03347 4.00000
4.00000 7.03347 4.00000
4.00000 7.03347 4.00000
4.00000 7.03346 4.00000
4.00000 7.03346 4.00000
4.00000 7.03346 4.00000
4.00000 7.03346 4.00000
4.00000 7.03346 4.00000
4.00000 7.03346 4.00000
4.00000 7.03346 4.00000
4.00000 7.03346 4.00000
4.00000 7.03346 4.00000
4.00000 7.03346 4.00000
4.00000 7.03346 4.00000
4.00000 7.03347 4.00000
4.00000 7.03347 4.00000
4.00000 7.03347 4.00000
4.00000 7.03347 4.00000
4.00000 7.03347 4.00000
4.00000 7.03347 4.00000
4.00000 7.03347 4.00000
4.00000 7.03347 4.00000
4.00000 7.03348 4.00000
4.00000 7.03348 4.00000
4.00000 7.03348 4.00000
4.00000 7.03348 4.00000
4.00000 7.03348 4.00000
4.00000 7.03348 4.00000
4.00000 7.03348 4.00000
4.00000 7.03348 4.00000
4.00000 7.03348 4.00000
4.00000 7.03348 4.00000
4.00000 7.03348 4.00000
4.00000 7.03348 4.00000
4.00000 7.03348 4.00000
4.00000 7.03349 4.00000
4.00000 7.03349 4.00000
4.00000 7.03349 4.00000
4.00000 7.03348 4.00000
4.00000 7.03348 4.00000
4.00000 7.03348 4.00000
4.00000 7.03348 4.00000
4.00000 7.03348 4.00000
4.00000 7.03348 4.00000
4.00000 7.03348 4.00000
4.00000 7.03348 4.00000
4.00000 7.03348 4.00000
4.00000 7.03348 4.00000
4.00000 7.03348 4.00000
4.00000 7.03348 4.00000
4.00000 7.03348 4.00000
4.00000 7.03348 4.00000
4.00000 7.03348 4.00000
4.00000 7.03348 4.00000
4.00000 7.03348 4.00000
4.00000 7.03348 4.00000
4.00000 7.03348 4.00000
4.00000 7.03348 4.00000
4.00000 7.03348 4.00000
4.00000 7.03348 4.00000
4.00000 7.03348 4.00000
4.00000 7.03348 4.00000
4.00000 7.03348 4.00000
4.00000 7.03348 4.00000
4.00000 7.03348 4.00000
4.00000 7.03348 4.00000
4.00000 7.03348 4.00000
4.00000 7.03348 4.00000
4.00000 7.03348 4.00000
4.00000 7.03348 4.00000
4.00000 7.03348 4.00000
4.00000 7.03348 4.00000
4.00000 7.03348 4.00000
4.00000 7.03348 4.00000
4.00000 7.03348 4.00000
4.00000 7.03348 4.00000
4.00000 7.03348 4.00000
4.00000 7.03348 4.00000
4.00000 7.03348 4.00000
4.00000 7.03348 4.00000
4.00000 7.03348 4.00000
4.00000 7.03348 4.00000
4.00000 7.03348 4.00000
4.00000 7.03348 4.00000
4.00000 7.03348 4.00000
4.00000 7.03348 4.00000
4.00000 7.03348 4.00000
4.00000 7.03348 4.00000
4.00000 7.03348 4.00000
4.00000 7.03348 4.00000
4.00000 7.03349 4.00000
4.00000 7.03348 4.00000
4.00000 7.03348 4.00000
4.00000 7.03348 4.00000
4.00000 7.03348 4.00000
4.00000 7.03348 4.00000
4.00000 7.03348 4.00000
4.00000 7.03348 4.00000
4.00000 7.03348 4.00000
4.00000 7.03348 4.00000
4.00000 7.03350 4.00000
4.00000 7.03348 4.00000
4.00000 7.03348 4.00000
4.00188 7.09799 4.00188
4.00411 7.17613 4.00411
4.00629 7.25444 4.00629
4.00844 7.33291 4.00844
4.01056 7.41152 4.01056
4.01267 7.49024 4.01267
4.01477 7.56907 4.01477
4.01687 7.64796 4.01687
4.01899 7.72692 4.01899
4.02114 7.80590 4.02114
4.02332 7.88489 4.02332
4.02555 7.96385 4.02555
4.02784 8.04276 4.02784
4.03023 8.12158 4.03023
4.03271 8.20027 4.03271
4.03532 8.27877 4.03532
4.03810 8.35703 4.03810
4.04106 8.43496 4.04107
4.04428 8.51248 4.04428
4.04780 8.58945 4.04780
4.05170 8.66573 4.05170
4.05602 8.74124 4.05602
4.06072 8.81605 4.06072
4.06585 8.89008 4.06585
4.07142 8.96328 4.07142
4.07746 9.03560 4.07746
4.08399 9.10701 4.08399
4.09101 9.17750 4.09101
4.09851 9.24709 4.09851
4.10646 9.31585 4.10646
4.11479 9.38390 4.11479
4.12341 9.45142 4.12341
4.13219 9.51868 4.13219
4.14094 9.58606 4.14094
4.14943 9.65403 4.14943
4.15733 9.72322 4.15733
4.16428 9.79436 4.16428
4.16983 9.86835 4.16983
4.17351 9.94614 4.17351
4.17488 10.02861 4.17488
4.17379 10.11605 4.17379
4.17165 10.20563 4.17165
4.16891 10.29647 4.16891
4.16559 10.38851 4.16559
4.16170 10.48174 4.16170
4.15723 10.57618 4.15723
4.15214 10.67189 4.15214
4.14640 10.76896 4.14640
4.13993 10.86755 4.13993
4.13261 10.96787 4.13261
4.12430 11.07022 4.12430
4.11476 11.17507 4.11476
4.10365 11.28311 4.10365
4.09041 11.39544 4.09041
4.07418 11.51380 4.07418
4.05367 11.64076 4.05367
4.02598 11.78212 4.02598
4.00000 13.19120 4.00000
4.00000 13.19120 4.00000
4.00000 13.19120 4.00000
4.00000 13.19120 4.00000
4.00000 13.19120 4.00000
4.00000 13.19120 4.00000
4.00000 13.19120 4.00000
4.00000 13.19120 4.00000
4.00000 13.19120 4.00000
4.00000 13.19120 4.00000
4.00000 13.19120 4.00000
4.00000 13.19120 4.00000
4.00000 13.19121 4.00000
4.00000 13.19120 4.00000
4.00000 13.19120 4.00000
4.00319 13.20860 4.00319
4.01355 13.27448 4.01355
4.02196 13.34430 4.02196
4.02846 13.41799 4.02846
4.03310 13.49541 4.03310
4.03597 13.57640 4.03597
4.03758 13.65994 4.03758
4.03908 13.74373 4.03908
4.04055 13.82763 4.04055
4.04198 13.91163 4.04198
4.04338 13.99571 4.04338
4.04476 14.07988 4.04476
4.04611 14.16411 4.04611
4.04745 14.24842 4.04745
4.04876 14.33279 4.04876
4.05006 14.41722 4.05006
4.05135 14.50170 4.05135
4.05262 14.58624 4.05263
4.05389 14.67083 4.05389
4.05514 14.75546 4.05514
4.05639 14.84014 4.05639
4.05763 14.92485 4.05763
4.05886 15.00961 4.05886
4.06008 15.09441 4.06008
4.06117 15.17950 4.06117
4.06205 15.26504 4.06205
4.06273 15.35099 4.06273
4.06323 15.43733 4.06323
4.06357 15.52403 4.06357
4.06374 15.61108 4.06374
4.06377 15.69844 4.06377
4.06366 15.78609 4.06366
4.06343 15.87402 4.06343
4.06308 15.96219 4.06308
4.06264 16.05059 4.06264
4.06210 16.13920 4.06210
4.06148 16.22800 4.06148
4.06078 16.31696 4.06078
4.06002 16.40608 4.06002
4.05920 16.49534 4.05920
4.05833 16.58472 4.05833
4.05741 16.67421 4.05741
4.05646 16.76380 4.05646
4.05548 16.85346 4.05548
4.05447 16.94321 4.05447
4.05343 17.03301 4.05343
4.05238 17.12287 4.05238
4.05132 17.21278 4.05132
4.05025 17.30272 4.05025
4.04917 17.39270 4.04917
4.04810 17.48269 4.04810
4.04702 17.57271 4.04702
4.04594 17.66274 4.04594
4.04487 17.75278 4.04487
4.04380 17.84283 4.04380
4.04275 17.93287 4.04275
4.04170 18.02291 4.04170
4.04067 18.11295 4.04067
4.03964 18.20298 4.03964

Angle 0.074657 5.981172

4.00000 7.03348 4.00000
4.00000 7.03348 4.00000
4.00000 7.03348 4.00000
4.00000 7.03348 4.00000
4.00000 7.03348 4.00000
4.00000 7.03348 4.00000
4.00000 7.03348 4.00000
4.00000 7.03348 4.00000
4.00000 7.03348 4.00000
4.00000 7.03348 4.00000
4.00000 7.03348 4.00000
4.00000 7.03348 4.00000
4.00000 7.03348 4.00000
4.00000 7.03348 4.00000
4.00000 7.03348 4.00000
4.00000 7.03348 4.00000
4.00000 7.03348 4.00000
4.00000 7.03348 4.00000
4.00000 7.03348 4.00000
4.00000 7.03348 4.00000
4.00000 7.03348 4.00000
4.00000 7.03348 4.00000
4.00000 7.03348 4.00000
4.00000 7.03348 4.00000
4.00000 7.03347 4.00000
4.00000 7.03348 4.00000
4.00000 7.03348 4.00000
4.00000 7.03348 4.00000
4.00000 7.03348 4.00000
4.00000 7.03348 4.00000
4.00000 7.03348 4.00000
4.00000 7.03348 4.00000
4.00000 7.03348 4.00000
4.00000 7.03348 4.00000
4.00000 7.03348 4.00000
4.00000 7.03348 4.00000
4.00000 7.03348 4.00000
4.00000 7.03348 4.00000
4.00000 7.03348 4.00000
4.00000 7.03348 4.00000
4.00000 7.03348 4.00000
4.00000 7.03348 4.00000
4.00000 7.03348 4.00000
4.00000 7.03348 4.00000
4.00000 7.03348 4.00000
4.00000 7.03348 4.00000
4.00000 7.03348 4.00000
4.00000 7.03348 4.00000
4.00000 7.03348 4.00000
4.00000 7.03348 4.00000
4.00000 7.03348 4.00000
4.00000 7.03348 4.00000
4.00000 7.03348 4.00000
4.00000 7.03348 4.00000
4.00000 7.03348 4.00000
4.00000 7.03348 4.00000
4.00000 7.03347 4.00000
4.00000 7.03348 4.00000
4.00000 7.03348 4.00000
4.00000 7.03348 4.00000
4.00000 7.03348 4.00000
4.00000 7.03348 4.00000
4.00000 7.03348 4.00000
4.00000 7.03348 4.00000
4.00000 7.03348 4.00000
4.00000 7.03348 4.00000
4.00000 7.03348 4.00000
4.00000 7.03348 4.00000
4.00000 7.03348 4.00000
4.00000 7.03348 4.00000
4.00000 7.03348 4.00000
4.00000 7.03348 4.00000
4.00000 7.03348 4.00000
4.00000 7.03348 4.00000
4.00000 7.03348 4.00000
4.00000 7.03348 4.00000
4.00000 7.03348 4.00000
4.00000 7.03349 4.00000
4.00000 7.03348 4.00000
4.00000 7.03348 4.00000
4.00000 7.03348 4.00000
4.00000 7.03349 4.00000
4.00000 7.03348 4.00000
4.00000 7.03348 4.00000
4.00000 7.03348 4.00000
4.00133 7.07903 4.00133
4.00349 7.15435 4.00349
4.00561 7.22987 4.00561
4.00769 7.30557 4.00769
4.00975 7.38145 4.00975
4.01179 7.45748 4.01179
4.01382 7.53364 4.01382
4.01586 7.60991 4.01586
4.01790 7.68627 4.01790
4.01996 7.76270 4.01996
4.02205 7.83919 4.02205
4.02418 7.91570 4.02418
4.02636 7.99220 4.02636
4.02862 8.06867 4.02862
4.03095 8.14508 4.03095
4.03340 8.22137 4.03340
4.03597 8.29751 4.03597
4.03870 8.37342 4.03870
4.04163 8.44903 4.04163
4.04479 8.52426 4.04479
4.04826 8.59899 4.04826
4.05210 8.67305 4.05210
4.05633 8.74644 4.05633
4.06093 8.81917 4.06093
4.06593 8.89119 4.06593
4.07135 8.96244 4.07135
4.07722 9.03288 4.07722
4.08356 9.10248 4.08356
4.09036 9.17123 4.09036
4.09762 9.23914 4.09762
4.10532 9.30626 4.10532
4.11339 9.37271 4.11339
4.12176 9.43864 4.12176
4.13031 9.50429 4.13031
4.13887 9.56998 4.13887
4.14725 9.63614 4.14725
4.15515 9.70330 4.15515
4.16226 9.77213 4.16226
4.16817 9.84342 4.16817
4.17245 9.91805 4.17245
4.17466 9.99689 4.17466
4.17446 10.08062 4.17446
4.17263 10.16768 4.17263
4.17020 10.25600 4.17020
4.16720 10.34551 4.16720
4.16366 10.43619 4.16366
4.15957 10.52803 4.15957
4.15491 10.62107 4.15491
4.14965 10.71538 4.14965
4.14372 10.81108 4.14372
4.13705 10.90833 4.13705
4.12951 11.00737 4.12951
4.12094 11.10854 4.12094
4.11109 11.21234 4.11109
4.09956 11.31952 4.09956
4.08575 11.43135 4.08575
4.06875 11.54961 4.06875
4.04706 11.67730 4.04706
4.01711 11.82157 4.01711
4.00000 13.19120 4.00000
4.00000 13.19120 4.00000
4.00000 13.19120 4.00000
4.00000 13.19120 4.00000
4.00000 13.19120 4.00000
4.00000 13.19120 4.00000
4.00000 13.19120 4.00000
4.00000 13.19120 4.00000
4.00000 13.19120 4.00000
4.00000 13.19120 4.00000
4.00000 13.19120 4.00000
4.00000 13.19120 4.00000
4.00000 13.19120 4.00000
4.00000 13.19120 4.00000
4.00000 13.19120 4.00000
4.00288 13.20686 4.00288
4.01314 13.27153 4.01314
4.02152 13.34004 4.02152
4.02803 13.41230 4.02803
4.03275 13.48820 4.03275
4.03574 13.56759 4.03574
4.03739 13.64971 4.03739
4.03888 13.73220 4.03888
4.04033 13.81481 4.04033
4.04174 13.89752 4.04174
4.04313 13.98034 4.04313
4.04449 14.06324 4.04449
4.04583 14.14622 4.04583
4.04714 14.22928 4.04714
4.04845 14.31242 4.04845
4.04973 14.39562 4.04973
4.05100 14.47889 4.05100
4.05226 14.56222 4.05226
4.05351 14.64561 4.05351
4.05475 14.72906 4.05475
4.05598 14.81256 4.05598
4.05721 14.89610 4.05721
4.05842 14.97970 4.05842
4.05963 15.06334 4.05963
4.06078 15.14715 4.06078
4.06173 15.23139 4.06172
4.06248 15.31605 4.06248
4.06304 15.40111 4.06304
4.06344 15.48655 4.06344
4.06368 15.57234 4.06368
4.06377 15.65845 4.06377
4.06373 15.74487 4.06373
4.06355 15.83157 4.06355
4.06327 15.91853 4.06327
4.06288 16.00573 4.06288
4.06239 16.09316 4.06239
4.06182 16.18078 4.06182
4.06117 16.26859 4.06117
4.06045 16.35656 4.06045
4.05967 16.44469 4.05967
4.05884 16.53295 4.05884
4.05796 16.62133 4.05796
4.05704 16.70983 4.05704
4.05608 16.79842 4.05608
4.05510 16.88709 4.05510
4.05409 16.97584 4.05409
4.05307 17.06466 4.05307
4.05202 17.15353 4.05202
4.05097 17.24246 4.05097
4.04991 17.33142 4.04991
4.04884 17.42042 4.04884
4.04777 17.50945 4.04777
4.04671 17.59850 4.04671
4.04564 17.68757 4.04564
4.04458 17.77666 4.04458
4.04353 17.86576 4.04353
4.04249 17.95486 4.04249
4.04146 18.04397 4.04146
4.04044 18.13307 4.04044
4.03943 18.22218 4.03943
4.03843 18.31128 4.03843
4.03745 18.40037 4.03745
4.03649 18.48946 4.03649
4.03554 18.57854 4.03554
4.03461 18.66761 4.03461
4.03369 18.75666 4.03369
4.03280 18.84570 4.03280
4.03192 18.93473 4.03192
4.03105 19.02375 4.03105
4.03021 19.11275 4.03021
4.02938 19.20174 4.02938
4.02857 19.29071 4.02857
4.02778 19.37967 4.02778
4.02701 19.46861 4.02701
4.02626 19.55753 4.02626
4.02552 19.64644 4.02552
4.02480 19.73534 4.02480
4.02410 19.82422 4.02410
4.02341 19.91309 4.02341
4.02274 20.00194 4.02274
4.02209 20.09077 4.02209
4.02146 20.17960 4.02146
4.02084 20.26841 4.02084
4.02024 20.35720 4.02024
4.01965 20.44599 4.01965
4.01908 20.53476 4.01908
4.01853 20.62352 4.01853
4.01798 20.71226 4.01798
4.01746 20.80100 4.01746
4.01695 20.88972 4.01695
4.01645 20.97844 4.01645
4.01596 21.06714 4.01596
4.01549 21.15584 4.01549
4.01503 21.24453 4.01503
4.01459 21.33320 4.01459
4.01415 21.42188 4.01415
4.01373 21.51054 4.01373
4.01332 21.59919 4.01332
4.01293 21.68784 4.01293
4.01254 21.77648 4.01254
4.01217 21.86512 4.01217
4.01180 21.95375 4.01180
4.01145 22.04237 4.01145
4.01110 22.13100 4.01110
4.01077 22.21961 4.01077
4.01044 22.30822 4.01044
4.01013 22.39683 4.01013
4.00983 22.48544 4.00982
4.00953 22.57404 4.00953
4.00924 22.66264 4.00924
4.00896 22.75124 4.00896
4.00869 22.83984 4.00869
4.00842 22.92843 4.00842
4.00817 23.01703 4.00817
4.00792 23.10562 4.00792
4.00768 23.19421 4.00768
4.00745 23.28280 4.00745
4.00722 23.37139 4.00722
4.00700 23.45999 4.00700
4.00679 23.54858 4.00679
4.00658 23.63717 4.00658
4.00638 23.72577 4.00638
4.00618 23.81436 4.00618
4.00599 23.90296 4.00599
4.00581 23.99156 4.00581
4.00563 24.08016 4.00563
4.00546 24.16876 4.00546
4.00529 24.25737 4.00529
4.00513 24.34598 4.00513
4.00497 24.43459 4.00497
4.00482 24.52320 4.00482
4.00467 24.61182 4.00467
4.00453 24.70044 4.00453
4.00439 24.78906 4.00439
4.00426 24.87769 4.00426
4.00412 24.96632 4.00412
4.00400 25.05496 4.00400
4.00387 25.14360 4.00387
4.00375 25.23224 4.00375
4.00364 25.32089 4.00364
4.00353 25.40954 4.00353
4.00342 25.49820 4.00342
4.00331 25.58686 4.00331
4.00321 25.67553 4.00321
4.00311 25.76420 4.00311
4.00301 25.85287 4.00301
4.00292 25.94155 4.00292
4.00283 26.03024 4.00283
4.00274 26.11893 4.00274
4.00266 26.20763 4.00266
4.00258 26.29633 4.00258
4.00250 26.38504 4.00250
4.00242 26.47375 4.00242
4.00234 26.56247 4.00234
4.00227 26.65120 4.00227
4.00220 26.73993 4.00220
4.00213 26.82867 4.00213
4.00207 26.91741 4.00207
4.00200 27.00616 4.00200
4.00194 27.09491 4.00194
4.00188 27.18367 4.00188
4.00182 27.27244 4.00182
4.00177 27.36121 4.00176
4.00171 27.44999 4.00171
4.00166 27.53877 4.00166
4.00161 27.62756 4.00161
4.00156 27.71636 4.00156
4.00151 27.80516 4.00151
4.00146 27.89397 4.00146
4.00142 27.98279 4.00141
4.00137 28.07161 4.00137
4.00133 28.16044 4.00133
4.00129 28.24927 4.00129
4.00125 28.33811 4.00125
4.00121 28.42696 4.00121
4.00117 28.51582 4.00117
4.00114 28.60467 4.00114
4.00110 28.69354 4.00110
4.00107 28.78242 4.00107
4.00103 28.87129 4.00103
4.00100 28.96018 4.00100
4.00097 29.04908 4.00097
4.00094 29.13797 4.00094
4.00091 29.22688 4.00091
4.00088 29.31579 4.00088
4.00085 29.40471 4.00085
4.00083 29.49363 4.00083
4.00080 29.58256 4.00080
4.00078 29.67150 4.00078
4.00075 29.76045 4.00075
4.00073 29.84940 4.00073
4.00071 29.93835 4.00071
4.00068 30.02732 4.00068
4.00066 30.11629 4.00066
4.00064 30.20526 4.00064
4.00062 30.29424 4.00062
4.00060 30.38323 4.00060
4.00058 30.47223 4.00058
4.00057 30.56123 4.00056
4.00055 30.65024 4.00055
4.00053 30.73925 4.00053
4.00051 30.82827 4.00051
4.00050 30.91729 4.00050
4.00048 31.00633 4.00048
4.00047 31.09537 4.00047
4.00045 31.18441 4.00045
4.00044 31.27346 4.00044
4.00042 31.36252 4.00042
4.00041 31.45158 4.00041
4.00040 31.54065 4.00040
4.00039 31.62973 4.00039
4.00037 31.71881 4.00037
4.00036 31.80790 4.00036
4.00035 31.89699 4.00035
4.00034 31.98609 4.00034
4.00033 32.07519 4.00033
4.00032 32.16430 4.00032
4.00031 32.25342 4.00031
4.00030 32.34255 4.00030
4.00029 32.43167 4.00029
4.00028 32.52081 4.00028
4.00027 32.60995 4.00027
4.00026 32.69910 4.00026
4.00026 32.78825 4.00026
4.00025 32.87741 4.00025
4.00024 32.96657 4.00024
4.00023 33.05574 4.00023
4.00022 33.14491 4.00022
4.00022 33.23410 4.00022
4.00021 33.32328 4.00021
4.00020 33.41247 4.00020
4.00020 33.50167 4.00020
4.00019 33.59087 4.00019
4.00019 33.68008 4.00019
4.00018 33.76930 4.00018
4.00017 33.85852 4.00017
4.00017 33.94774 4.00017
4.00016 34.03697 4.00016
4.00016 34.12621 4.00016
4.00015 34.21545 4.00015
4.00015 34.30470 4.00015

Angle 0.520623 0.652978

4.00000 7.03348 4.00000
4.00000 7.03348 4.00000
4.00000 7.03348 4.00000
4.00000 7.03348 4.00000
4.00000 7.03348 4.00000
4.00000 7.03348 4.00000
4.00000 7.03348 4.00000
4.00000 7.03348 4.00000
4.00000 7.03348 4.00000
4.00000 7.03348 4.00000
4.00000 7.03348 4.00000
4.00000 7.03348 4.00000
4.00000 7.03348 4.00000
4.00000 7.03348 4.00000
4.00000 7.03348 4.00000
4.00000 7.03348 4.00000
4.00000 7.03348 4.00000
4.00000 7.03348 4.00000
4.00000 7.03348 4.00000
4.00000 7.03348 4.00000
4.00000 7.03348 4.00000
4.00000 7.03348 4.00000
4.00000 7.03348 4.00000
4.00000 7.03348 4.00000
4.00000 7.03348 4.00000
4.00000 7.03348 4.00000
4.00000 7.03348 4.00000
4.00000 7.03348 4.00000
4.00000 7.03348 4.00000
4.00000 7.03348 4.00000
4.00000 7.03348 4.00000
4.00000 7.03348 4.00000
4.00000 7.03348 4.00000
4.00000 7.03348 4.00000
4.00000 7.03348 4.00000
4.00000 7.03348 4.00000
4.00000 7.03348 4.00000
4.00000 7.03348 4.00000
4.00000 7.03348 4.00000
4.00000 7.03348 4.00000
4.00000 7.03348 4.00000
4.00000 7.03348 4.00000
4.00000 7.03348 4.00000
4.00000 7.03348 4.00000
4.00000 7.03348 4.00000
4.00000 7.03348 4.00000
4.00000 7.03348 4.00000
4.00000 7.03348 4.00000
4.00000 7.03348 4.00000
4.00000 7.03348 4.00000
4.00000 7.03348 4.00000
4.00000 7.03348 4.00000
4.00000 7.03348 4.00000
4.00000 7.03348 4.00000
4.00000 7.03348 4.00000
4.00000 7.03348 4.00000
4.00000 7.03348 4.00000
4.00000 7.03348 4.00000
4.00000 7.03348 4.00000
4.00000 7.03348 4.00000
4.00000 7.03349 4.00000
4.00000 7.03348 4.00000
4.00000 7.03348 4.00000
4.00030 7.04381 4.00030
4.00196 7.10056 4.00196
4.00359 7.15765 4.00359
4.00520 7.21508 4.00520
4.00680 7.27284 4.00680
4.00838 7.33090 4.00839
4.00996 7.38928 4.00996
4.01154 7.44794 4.01154
4.01311 7.50689 4.01311
4.01469 7.56611 4.01469
4.01628 7.62559 4.01628
4.01787 7.68532 4.01787
4.01949 7.74529 4.01949
4.02112 7.80547 4.02113
4.02279 7.86587 4.02279
4.02448 7.92646 4.02448
4.02622 7.98722 4.02622
4.02800 8.04814 4.02801
4.02984 8.10920 4.02984
4.03175 8.17037 4.03175
4.03374 8.23163 4.03374
4.03581 8.29295 4.03581
4.03800 8.35430 4.03800
4.04031 8.41562 4.04031
4.04277 8.47688 4.04277
4.04541 8.53801 4.04541
4.04826 8.59894 4.04826
4.05137 8.65957 4.05137
4.05476 8.71988 4.05476
4.05839 8.77991 4.05839
4.06230 8.83961 4.06230
4.06649 8.89895 4.06649
4.07099 8.95790 4.07099
4.07580 9.01643 4.07580
4.08094 9.07450 4.08095
4.08642 9.13211 4.08642
4.09224 9.18924 4.09224
4.09838 9.24592 4.09838
4.10483 9.30217 4.10483
4.11157 9.35804 4.11157
4.11855 9.41363 4.11855
4.12571 9.46906 4.12570
4.13295 9.52449 4.13295
4.14018 9.58013 4.14018
4.14726 9.63627 4.14726
4.15402 9.69322 4.15402
4.16025 9.75141 4.16025
4.16572 9.81131 4.16572
4.17014 9.87345 4.17014
4.17325 9.93841 4.17325
4.17477 10.00673 4.17477
4.17449 10.07880 4.17449
4.17297 10.15353 4.17297
4.17099 10.22933 4.17099
4.16858 10.30615 4.16858
4.16576 10.38397 4.16576
4.16253 10.46276 4.16253
4.15888 10.54256 4.15888
4.15479 10.62338 4.15479
4.15024 10.70528 4.15024
4.14519 10.78833 4.14519
4.13958 10.87265 4.13958
4.13334 10.95837 4.13334
4.12638 11.04570 4.12638
4.11855 11.13490 4.11855
4.10966 11.22635 4.10966
4.09944 11.32063 4.09944
4.08743 11.41861 4.08743
4.07303 11.52151 4.07303
4.05536 11.63110 4.05536
4.03260 11.75100 4.03260
4.00013 11.89045 4.00013
4.00000 13.19120 4.00000
4.00000 13.19120 4.00000
4.00000 13.19120 4.00000
4.00000 13.19120 4.00000
4.00000 13.19120 4.00000
4.00000 13.19120 4.00000
4.00000 13.19120 4.00000
4.00000 13.19120 4.00000
4.00000 13.19120 4.00000
4.00000 13.19120 4.00000
4.00000 13.19120 4.00000
4.00000 13.19120 4.00000
4.00000 13.19120 4.00000
4.00000 13.19120 4.00000
4.00000 13.19120 4.00000
4.00000 13.19120 4.00000
4.00000 13.19121 4.00000
4.00802 13.23724 4.00802
4.01653 13.29701 4.01653
4.02353 13.35992 4.02353
4.02903 13.42593 4.02903
4.03308 13.49496 4.03308
4.03573 13.56688 4.03573
4.03724 13.64118 4.03724
4.03859 13.71591 4.03859
4.03991 13.79079 4.03991
4.04120 13.86583 4.04120
4.04247 13.94102 4.04247
4.04372 14.01635 4.04372
4.04495 14.09181 4.04495
4.04616 14.16740 4.04616
4.04736 14.24312 4.04736
4.04855 14.31895 4.04855
4.04972 14.39490 4.04972
4.05088 14.47097 4.05088
4.05204 14.54714 4.05204
4.05318 14.62342 4.05318
4.05432 14.69981 4.05432
4.05545 14.77629 4.05545
4.05657 14.85288 4.05657
4.05769 14.92956 4.05769
4.05881 15.00633 4.05881
4.05992 15.08320 4.05992
4.06094 15.16033 4.06094
4.06179 15.23789 4.06179
4.06247 15.31586 4.06247
4.06301 15.39422 4.06301
4.06339 15.47295 4.06339
4.06364 15.55203 4.06364
4.06376 15.63145 4.06376
4.06376 15.71119 4.06376
4.06365 15.79122 4.06365
4.06344 15.87153 4.06344
4.06313 15.95211 4.06313
4.06273 16.03294 4.06273
4.06226 16.11400 4.06226
4.06171 16.19528 4.06172
4.06110 16.27676 4.06110
4.06043 16.35843 4.06043
4.05971 16.44028 4.05971
4.05894 16.52229 4.05894
4.05813 16.60446 4.05813
4.05728 16.68677 4.05728
4.05640 16.76921 4.05640
4.05550 16.85177 4.05550
4.05457 16.93444 4.05457
4.05362 17.01722 4.05362
4.05265 17.10010 4.05265
4.05167 17.18307 4.05168
4.05069 17.26612 4.05069
4.04969 17.34925 4.04969
4.04870 17.43244 4.04870
4.04770 17.51571 4.04770
4.04670 17.59904 4.04670
4.04570 17.68242 4.04570
4.04471 17.76586 4.04471
4.04373 17.84934 4.04373
4.04275 17.93287 4.04275
4.04177 18.01645 4.04177
4.04081 18.10006 4.04081
4.03986 18.18371 4.03986
4.03892 18.26740 4.03892
4.03799 18.35112 4.03799
4.03708 18.43487 4.03708
4.03618 18.51865 4.03618
4.03529 18.60246 4.03529
4.03442 18.68629 4.03442
4.03356 18.77015 4.03356
4.03271 18.85403 4.03271
4.03188 18.93794 4.03188
4.03107 19.02186 4.03107
4.03027 19.10581 4.03027
4.02949 19.18978 4.02949
4.02873 19.27377 4.02873
4.02798 19.35778 4.02798
4.02724 19.44181 4.02724
4.02652 19.52586 4.02652
4.02582 19.60993 4.02582
4.02513 19.69401 4.02513
4.02446 19.77811 4.02446
4.02380 19.86223 4.02380
4.02316 19.94637 4.02316
4.02253 20.03053 4.02253
4.02192 20.11470 4.02192
4.02132 20.19889 4.02132
4.02074 20.28310 4.02074
4.02017 20.36733 4.02017
4.01962 20.45157 4.01962
4.01907 20.53584 4.01907
4.01855 20.62012 4.01855
4.01803 20.70441 4.01803
4.01753 20.78873 4.01753
4.01704 20.87306 4.01704
4.01656 20.95742 4.01656
4.01610 21.04179 4.01610
4.01565 21.12618 4.01565
4.01521 21.21058 4.01521
4.01478 21.29501 4.01478
4.01436 21.37946 4.01436
4.01395 21.46392 4.01395
4.01356 21.54840 4.01356
4.01317 21.63291 4.01317
4.01280 21.71743 4.01280
4.01243 21.80197 4.01243
4.01208 21.88653 4.01208
4.01173 21.97111 4.01173
4.01139 22.05571 4.01139
4.01107 22.14033 4.01107
4.01075 22.22498 4.01075
4.01044 22.30964 4.01044
4.01014 22.39432 4.01014
4.00985 22.47902 4.00985
4.00956 22.56375 4.00956
4.00928 22.64849 4.00928
4.00902 22.73325 4.00902
4.00875 22.81804 4.00875
4.00850 22.90285 4.00850
4.00825 22.98768 4.00825
4.00801 23.07252 4.00801
4.00778 23.15740 4.00778
4.00755 23.24229 4.00755
4.00733 23.32720 4.00733
4.00712 23.41213 4.00712
4.00691 23.49709 4.00691
4.00671 23.58207 4.00671
4.00651 23.66707 4.00651
4.00632 23.75209 4.00632
4.00613 23.83713 4.00613
4.00595 23.92220 4.00595
4.00578 24.00728 4.00578
4.00561 24.09239 4.00561
4.00544 24.17752 4.00544
4.00528 24.26267 4.00528
4.00513 24.34784 4.00513
4.00498 24.43304 4.00497
4.00483 24.51826 4.00483
4.00469 24.60350 4.00469
4.00454 24.68876 4.00455
4.00441 24.77404 4.00441
4.00428 24.85934 4.00428
4.00416 24.94467 4.00415
4.00403 25.03002 4.00403
4.00391 25.11539 4.00391
4.00380 25.20078 4.00380
4.00368 25.28619 4.00368
4.00357 25.37163 4.00357
4.00347 25.45708 4.00347
4.00336 25.54256 4.00336
4.00326 25.62807 4.00326
4.00316 25.71359 4.00317
4.00307 25.79913 4.00307
4.00298 25.88470 4.00298
4.00289 25.97028 4.00289
4.00280 26.05589 4.00281
4.00272 26.14152 4.00272
4.00263 26.22717 4.00264
4.00256 26.31284 4.00256
4.00248 26.39853 4.00248
4.00241 26.48425 4.00241
4.00234 26.56998 4.00234
4.00227 26.65574 4.00227
4.00220 26.74151 4.00220
4.00214 26.82731 4.00213
4.00207 26.91313 4.00207
4.00201 26.99897 4.00201
4.00195 27.08483 4.00195
4.00189 27.17071 4.00189
4.00183 27.25661 4.00183
4.00178 27.34253 4.00178
4.00172 27.42847 4.00173
4.00167 27.51443 4.00167
4.00162 27.60042 4.00162
4.00157 27.68642 4.00157
4.00153 27.77244 4.00152
4.00148 27.85848 4.00148
4.00144 27.94455 4.00144
4.00139 28.03063 4.00139
4.00135 28.11673 4.00135
4.00131 28.20285 4.00131
4.00127 28.28900 4.00127
4.00123 28.37516 4.00123
4.00119 28.46134 4.00119
4.00116 28.54754 4.00116
4.00112 28.63376 4.00112
4.00109 28.71999 4.00109
4.00105 28.80625 4.00106
4.00102 28.89253 4.00102
4.00099 28.97882 4.00099
4.00096 29.06513 4.00096
4.00094 29.15146 4.00093
4.00091 29.23782 4.00091
4.00088 29.32418 4.00088
4.00085 29.41057 4.00085
4.00083 29.49698 4.00082
4.00080 29.58341 4.00080
4.00078 29.66985 4.00078
4.00075 29.75631 4.00075
4.00073 29.84279 4.00073
4.00071 29.92928 4.00071
4.00069 30.01580 4.00069
4.00066 30.10233 4.00067
4.00065 30.18888 4.00065
4.00062 30.27545 4.00063
4.00061 30.36203 4.00061
4.00059 30.44863 4.00059
4.00057 30.53525 4.00057
4.00055 30.62189 4.00055
4.00054 30.70854 4.00054
4.00052 30.79521 4.00052
4.00050 30.88190 4.00050
4.00049 30.96860 4.00049
4.00047 31.05532 4.00047
4.00046 31.14206 4.00046
4.00044 31.22882 4.00045
4.00043 31.31559 4.00043
4.00042 31.40237 4.00042
4.00041 31.48918 4.00041
4.00039 31.57600 4.00039
4.00038 31.66283 4.00038
4.00037 31.74968 4.00037
4.00036 31.83655 4.00036
4.00035 31.92343 4.00035
4.00034 32.01033 4.00034
4.00033 32.09725 4.00033
4.00032 32.18418 4.00032
4.00031 32.27112 4.00031
4.00030 32.35808 4.00030
4.00029 32.44506 4.00029
4.00028 32.53205 4.00028
4.00027 32.61906 4.00027
4.00026 32.70608 4.00026
4.00025 32.79312 4.00026
4.00025 32.88017 4.00025
4.00024 32.96724 4.00024
4.00023 33.05432 4.00023
4.00023 33.14141 4.00023
4.00022 33.22852 4.00022
4.00021 33.31565 4.00021
4.00021 33.40279 4.00021
4.00020 33.48994 4.00020
4.00019 33.57711 4.00019
4.00019 33.66429 4.00019
4.00018 33.75149 4.00018
4.00018 33.83870 4.00018
4.00017 33.92592 4.00017

Angle 0.466945 2.445521

4.00000 7.03348 4.00000
4.00000 7.03348 4.00000
4.00000 7.03348 4.00000
4.00000 7.03348 4.00000
4.00000 7.03348 4.00000
4.00000 7.03348 4.00000
4.00000 7.03348 4.00000
4.00000 7.03348 4.00000
4.00000 7.03348 4.00000
4.00000 7.03348 4.00000
4.00000 7.03348 4.00000
4.00000 7.03348 4.00000
4.00000 7.03348 4.00000
4.00000 7.03348 4.00000
4.00000 7.03348 4.00000
4.00000 7.03348 4.00000
4.00000 7.03348 4.00000
4.00000 7.03348 4.00000
4.00000 7.03348 4.00000
4.00000 7.03348 4.00000
4.00000 7.03348 4.00000
4.00000 7.03348 4.00000
4.00000 7.03348 4.00000
4.00000 7.03348 4.00000
4.00000 7.03348 4.00000
4.00000 7.03348 4.00000
4.00000 7.03348 4.00000
4.00000 7.03348 4.00000
4.00000 7.03348 4.00000
4.00000 7.03348 4.00000
4.00000 7.03348 4.00000
4.00000 7.03348 4.00000
4.00000 7.03348 4.00000
4.00000 7.03348 4.00000
4.00000 7.03348 4.00000
4.00000 7.03348 4.00000
4.00000 7.03348 4.00000
4.00000 7.03348 4.00000
4.00000 7.03348 4.00000
4.00000 7.03348 4.00000
4.00000 7.03348 4.00000
4.00000 7.03348 4.00000
4.00000 7.03348 4.00000
4.00000 7.03348 4.00000
4.00000 7.03348 4.00000
4.00000 7.03348 4.00000
4.00000 7.03348 4.00000
4.00000 7.03348 4.00000
4.00000 7.03348 4.00000
4.00000 7.03348 4.00000
4.00000 7.03348 4.00000
4.00000 7.03348 4.00000
4.00000 7.03348 4.00000
4.00000 7.03348 4.00000
4.00000 7.03348 4.00000
4.00000 7.03348 4.00000
4.00000 7.03348 4.00000
4.00000 7.03348 4.00000
4.00000 7.03348 4.00000
4.00000 7.03348 4.00000
4.00000 7.03348 4.00000
4.00000 7.03348 4.00000
4.00000 7.03348 4.00000
4.00000 7.03348 4.00000
4.00000 7.03348 4.00000
4.00000 7.03348 4.00000
4.00000 7.03348 4.00000
4.00000 7.03348 4.00000
4.00000 7.03348 4.00000
4.00000 7.03348 4.00000
4.00000 7.03348 4.00000
4.00000 7.03348 4.00000
4.00000 7.03348 4.00000
4.00000 7.03348 4.00000
4.00000 7.03348 4.00000
4.00000 7.03348 4.00000
4.00000 7.03348 4.00000
4.00000 7.03348 4.00000
4.00000 7.03348 4.00000
4.00000 7.03348 4.00000
4.00000 7.03348 4.00000
4.00000 7.03348 4.00000
4.00000 7.03348 4.00000
4.00000 7.03348 4.00000
4.00000 7.03348 4.00000
4.00000 7.03348 4.00000
4.00000 7.03348 4.00000
4.00000 7.03348 4.00000
4.00000 7.03348 4.00000
4.00000 7.03348 4.00000
4.00000 7.03348 4.00000
4.00000 7.03348 4.00000
4.00000 7.03348 4.00000
4.00000 7.03348 4.00000
4.00000 7.03348 4.00000
4.00000 7.03348 4.00000
4.00000 7.03348 4.00000
4.00000 7.03348 4.00000
4.00000 7.03348 4.00000
4.00000 7.03348 4.00000
4.00000 7.03348 4.00000
4.00000 7.03348 4.00000
4.00000 7.03348 4.00000
4.00000 7.03348 4.00000
4.00000 7.03348 4.00000
4.00000 7.03348 4.00000
4.00000 7.03348 4.00000
4.00000 7.03348 4.00000
4.00000 7.03348 4.00000
4.00000 7.03348 4.00000
4.00000 7.03348 4.00000
4.00000 7.03348 4.00000
4.00000 7.03348 4.00000
4.00000 7.03348 4.00000
4.00000 7.03348 4.00000
4.00000 7.03348 4.00000
4.00000 7.03348 4.00000
4.00000 7.03348 4.00000
4.00000 7.03348 4.00000
4.00000 7.03348 4.00000
4.00000 7.03348 4.00000
4.00000 7.03348 4.00000
4.00000 7.03348 4.00000
4.00000 7.03348 4.00000
4.00000 7.03348 4.00000
4.00000 7.03348 4.00000
4.00000 7.03348 4.00000
4.00000 7.03348 4.00000
4.00000 7.03348 4.00000
4.00000 7.03348 4.00000
4.00000 7.03348 4.00000
4.00000 7.03348 4.00000
4.00000 7.03348 4.00000
4.00000 7.03348 4.00000
4.00000 7.03348 4.00000
4.00000 7.03348 4.00000
4.00000 7.03348 4.00000
4.00000 7.03348 4.00000
4.00000 7.03348 4.00000
4.00000 7.03348 4.00000
4.00000 7.03348 4.00000
4.00000 7.03348 4.00000
4.00000 7.03348 4.00000
4.00000 7.03348 4.00000
4.00000 7.03348 4.00000
4.00000 7.03348 4.00000
4.00000 7.03348 4.00000
4.00000 7.03348 4.00000
4.00000 7.03348 4.00000
4.00000 7.03348 4.00000
4.00000 7.03348 4.00000
4.00000 7.03348 4.00000
4.00000 7.03348 4.00000
4.00000 7.03348 4.00000
4.00000 7.03348 4.00000
4.00000 7.03348 4.00000
4.00000 7.03348 4.00000
4.00000 7.03348 4.00000
4.00000 7.03348 4.00000
4.00000 7.03348 4.00000
4.00000 7.03348 4.00000
4.00000 7.03348 4.00000
4.00000 7.03348 4.00000
4.00000 7.03348 4.00000
4.00000 7.03348 4.00000
4.00000 7.03348 4.00000
4.00000 7.03348 4.00000
4.00000 7.03348 4.00000
4.00000 7.03348 4.00000
4.00000 7.03348 4.00000
4.00000 7.03348 4.00000
4.00000 7.03348 4.00000
4.00000 7.03348 4.00000
4.00000 7.03348 4.00000
4.00000 7.03348 4.00000
4.00000 7.03348 4.00000
4.00000 7.03348 4.00000
4.00000 7.03349 4.00000
4.00000 7.03350 4.00000
4.00000 7.03348 4.00000
4.00000 7.03348 4.00000
4.00000 7.03348 4.00000
4.00000 7.03349 4.00000
4.00000 7.03348 4.00000
4.00000 7.03343 4.00000
4.00221 7.10926 4.00221
4.00438 7.18592 4.00438
4.00652 7.26276 4.00652
4.00862 7.33977 4.00862
4.01071 7.41692 4.01071
4.01277 7.49421 4.01277
4.01484 7.57161 4.01484
4.01690 7.64910 4.01690
4.01899 7.72666 4.01899
4.02109 7.80426 4.02109
4.02323 7.88189 4.02323
4.02542 7.95952 4.02542
4.02768 8.03711 4.02768
4.03001 8.11463 4.03001
4.03244 8.19204 4.03244
4.03500 8.26929 4.03500
4.03771 8.34633 4.03771
4.04060 8.42308 4.04060
4.04372 8.49946 4.04372
4.04712 8.57535 4.04713
4.05089 8.65060 4.05089
4.05506 8.72512 4.05506
4.05961 8.79897 4.05961
4.06456 8.87209 4.06456
4.06993 8.94444 4.06993
4.07576 9.01595 4.07576
4.08206 9.08659 4.08206
4.08884 9.15636 4.08884
4.09609 9.22524 4.09609
4.10379 9.29331 4.10379
4.11189 9.36064 4.11189
4.12031 9.42741 4.12031
4.12894 9.49383 4.12894
4.13761 9.56022 4.13761
4.14612 9.62701 4.14612
4.15419 9.69474 4.15419
4.16149 9.76407 4.16149
4.16762 9.83581 4.16762
4.17213 9.91085 4.17213
4.17456 9.99011 4.17456
4.17456 10.07430 4.17456
4.17276 10.16214 4.17276
4.17034 10.25129 4.17034
4.16734 10.34164 4.16734
4.16379 10.43317 4.16379
4.15967 10.52588 4.15967
4.15498 10.61980 4.15498
4.14967 10.71501 4.14967
4.14369 10.81162 4.14368
4.13694 10.90981 4.13694
4.12932 11.00981 4.12932
4.12063 11.11198 4.12063
4.11063 11.21684 4.11063
4.09891 11.32518 4.09891
4.08482 11.43833 4.08482
4.06742 11.55814 4.06742
4.04508 11.68786 4.04508
4.01385 11.83543 4.01385
4.00000 13.19120 4.00000
4.00000 13.19120 4.00000
4.00000 13.19120 4.00000
4.00000 13.19120 4.00000
4.00000 13.19120 4.00000
4.00000 13.19120 4.00000
4.00000 13.19120 4.00000
4.00000 13.19120 4.00000
4.00000 13.19120 4.00000
4.00000 13.19120 4.00000
4.00000 13.19120 4.00000
4.00000 13.19120 4.00000
4.00000 13.19120 4.00000
4.00000 13.19120 4.00000
4.00000 13.19120 4.00000
4.00525 13.22046 4.00525
4.01517 13.28647 4.01517
4.02318 13.35634 4.02318
4.02931 13.42999 4.02931
4.03364 13.50730 4.03364
4.03624 13.58810 4.03624
4.03778 13.67105 4.03778
4.03927 13.75415 4.03927
4.04072 13.83736 4.04072
4.04213 13.92067 4.04213
4.04352 14.00408 4.04352
4.04488 14.08756 4.04488
4.04622 14.17113 4.04622
4.04754 14.25477 4.04754
4.04885 14.33847 4.04885
4.05014 14.42224 4.05014
4.05142 14.50607 4.05142
4.05268 14.58996 4.05268
4.05393 14.67390 4.05393
4.05518 14.75789 4.05518
4.05641 14.84193 4.05641
4.05764 14.92602 4.05764
4.05886 15.01014 4.05887
4.06008 15.09432 4.06008
4.06116 15.17879 4.06116
4.06203 15.26370 4.06203
4.06272 15.34903 4.06272
4.06322 15.43475 4.06322
4.06356 15.52083 4.06356
4.06373 15.60725 4.06373
4.06377 15.69399 4.06377
4.06367 15.78102 4.06367
4.06345 15.86833 4.06345
4.06311 15.95589 4.06311
4.06268 16.04368 4.06268
4.06215 16.13167 4.06215
4.06154 16.21987 4.06154
4.06085 16.30823 4.06085
4.06010 16.39675 4.06010
4.05929 16.48542 4.05929
4.05843 16.57421 4.05843
4.05753 16.66312 4.05753
4.05659 16.75212 4.05659
4.05561 16.84122 4.05561
4.05461 16.93039 4.05461
4.05359 17.01963 4.05359
4.05255 17.10893 4.05255
4.05149 17.19828 4.05149
4.05043 17.28767 4.05043
4.04936 17.37710 4.04936
4.04829 17.46656 4.04829
4.04722 17.55604 4.04722
4.04614 17.64554 4.04614
4.04508 17.73505 4.04508
4.04402 17.82457 4.04402
4.04297 17.91409 4.04297
4.04192 18.00362 4.04192
4.04089 18.09315 4.04089
4.03987 18.18267 4.03987
4.03887 18.27219 4.03887
4.03788 18.36169 4.03788
4.03690 18.45119 4.03690
4.03594 18.54068 4.03594
4.03500 18.63015 4.03500
4.03407 18.71961 4.03407
4.03316 18.80906 4.03316
4.03227 18.89849 4.03227
4.03140 18.98790 4.03140
4.03054 19.07729 4.03054
4.02971 19.16667 4.02971
4.02889 19.25603 4.02889
4.02809 19.34537 4.02809
4.02730 19.43469 4.02730
4.02654 19.52400 4.02654
4.02579 19.61329 4.02579
4.02506 19.70256 4.02506
4.02435 19.79181 4.02435
4.02366 19.88105 4.02366
4.02298 19.97026 4.02298
4.02232 20.05946 4.02232
4.02168 20.14865 4.02168
4.02105 20.23782 4.02105
4.02044 20.32697 4.02044
4.01985 20.41611 4.01985
4.01927 20.50523 4.01927
4.01871 20.59434 4.01871
4.01816 20.68343 4.01816
4.01763 20.77251 4.01763
4.01711 20.86157 4.01711
4.01660 20.95063 4.01660
4.01611 21.03967 4.01611
4.01563 21.12870 4.01564
4.01517 21.21772 4.01517
4.01472 21.30672 4.01472
4.01428 21.39572 4.01428
4.01385 21.48471 4.01386
4.01344 21.57369 4.01344
4.01304 21.66266 4.01304
4.01265 21.75162 4.01265
4.01227 21.84057 4.01227
4.01190 21.92951 4.01190
4.01154 22.01845 4.01154
4.01119 22.10738 4.01119
4.01086 22.19631 4.01086
4.01053 22.28522 4.01053
4.01021 22.37414 4.01021
4.00990 22.46304 4.00990
4.00960 22.55195 4.00960
4.00931 22.64084 4.00931
4.00903 22.72974 4.00903
4.00875 22.81863 4.00875
4.00849 22.90752 4.00849
4.00823 22.99640 4.00823
4.00798 23.08528 4.00798
4.00773 23.17416 4.00773
4.00750 23.26304 4.00750
4.00727 23.35191 4.00727
4.00705 23.44079 4.00705
4.00683 23.52966 4.00683
4.00662 23.61853 4.00662
4.00642 23.70740 4.00642
4.00622 23.79627 4.00622
4.00603 23.88515 4.00603
4.00585 23.97402 4.00585
4.00567 24.06289 4.00567
4.00549 24.15176 4.00549
4.00532 24.24063 4.00532
4.00516 24.32951 4.00516
4.00500 24.41838 4.00500
4.00485 24.50726 4.00485
4.00470 24.59613 4.00470
4.00455 24.68501 4.00455
4.00441 24.77390 4.00441
4.00428 24.86278 4.00427
4.00414 24.95166 4.00414
4.00402 25.04056 4.00401
4.00389 25.12944 4.00389
4.00377 25.21834 4.00377
4.00366 25.30724 4.00366
4.00354 25.39614 4.00354
4.00343 25.48504 4.00343
4.00333 25.57395 4.00333

Angle 0.039480 5.750943

4.00000 7.03348 4.00000
4.00000 7.03348 4.00000
4.00000 7.03348 4.00000
4.00000 7.03348 4.00000
4.00000 7.03348 4.00000
4.00000 7.03348 4.00000
4.00000 7.03348 4.00000
4.00000 7.03348 4.00000
4.00000 7.03348 4.00000
4.00000 7.03348 4.00000
4.00000 7.03348 4.00000
4.00000 7.03348 4.00000
4.00000 7.03348 4.00000
4.00000 7.03348 4.00000
4.00000 7.03348 4.00000
4.00000 7.03348 4.00000
4.00000 7.03348 4.00000
4.00000 7.03348 4.00000
4.00000 7.03348 4.00000
4.00000 7.03348 4.00000
4.00000 7.03348 4.00000
4.00000 7.03348 4.00000
4.00000 7.03348 4.00000
4.00000 7.03348 4.00000
4.00000 7.03348 4.00000
4.00000 7.03348 4.00000
4.00000 7.03348 4.00000
4.00000 7.03348 4.00000
4.00000 7.03348 4.00000
4.00000 7.03348 4.00000
4.00000 7.03348 4.00000
4.00000 7.03348 4.00000
4.00000 7.03348 4.00000
4.00000 7.03348 4.00000
4.00000 7.03348 4.00000
4.00000 7.03348 4.00000
4.00000 7.03348 4.00000
4.00000 7.03348 4.00000
4.00000 7.03348 4.00000
4.00000 7.03348 4.00000
4.00000 7.03348 4.00000
4.00000 7.03348 4.00000
4.00000 7.03348 4.00000
4.00000 7.03348 4.00000
4.00000 7.03348 4.00000
4.00000 7.03348 4.00000
4.00000 7.03348 4.00000
4.00000 7.03348 4.00000
4.00000 7.03348 4.00000
4.00000 7.03348 4.00000
4.00000 7.03348 4.00000
4.00000 7.03347 4.00000
4.00000 7.03348 4.00000
4.00000 7.03348 4.00000
4.00000 7.03348 4.00000
4.00000 7.03348 4.00000
4.00000 7.03348 4.00000
4.00000 7.03348 4.00000
4.00000 7.03348 4.00000
4.00000 7.03348 4.00000
4.00000 7.03348 4.00000
4.00000 7.03348 4.00000
4.00000 7.03348 4.00000
4.00000 7.03348 4.00000
4.00000 7.03348 4.00000
4.00000 7.03348 4.00000
4.00000 7.03348 4.00000
4.00000 7.03348 4.00000
4.00000 7.03348 4.00000
4.00000 7.03348 4.00000
4.00000 7.03348 4.00000
4.00000 7.03348 4.00000
4.00000 7.03348 4.00000
4.00000 7.03348 4.00000
4.00000 7.03348 4.00000
4.00000 7.03348 4.00000
4.00000 7.03348 4.00000
4.00000 7.03349 4.00000
4.00000 7.03348 4.00000
4.00000 7.03348 4.00000
4.00000 7.03348 4.00000
4.00149 7.08450 4.00149
4.00370 7.16163 4.00370
4.00586 7.23896 4.00586
4.00799 7.31646 4.00799
4.01009 7.39411 4.01009
4.01218 7.47189 4.01218
4.01425 7.54978 4.01425
4.01633 7.62776 4.01633
4.01842 7.70581 4.01842
4.02054 7.78390 4.02054
4.02268 7.86202 4.02268
4.02487 7.94014 4.02487
4.02712 8.01823 4.02712
4.02945 8.09624 4.02945
4.03187 8.17415 4.03187
4.03441 8.25191 4.03441
4.03710 8.32946 4.03710
4.03996 8.40673 4.03996
4.04305 8.48364 4.04305
4.04641 8.56007 4.04641
4.05012 8.63589 4.05012
4.05424 8.71097 4.05424
4.05874 8.78535 4.05874
4.06364 8.85901 4.06364
4.06896 8.93189 4.06896
4.07474 9.00393 4.07474
4.08100 9.07509 4.08100
4.08774 9.14536 4.08774
4.09495 9.21474 4.09495
4.10263 9.28327 4.10263
4.11071 9.35104 4.11071
4.11913 9.41820 4.11913
4.12778 9.48498 4.12778
4.13650 9.55168 4.13650
4.14508 9.61872 4.14508
4.15326 9.68662 4.15326
4.16071 9.75605 4.16071
4.16702 9.82781 4.16702
4.17175 9.90280 4.17175
4.17442 9.98195 4.17442
4.17467 10.06601 4.17467
4.17295 10.15406 4.17295
4.17057 10.24349 4.17057
4.16761 10.33414 4.16761
4.16409 10.42597 4.16409
4.16000 10.51899 4.16000
4.15533 10.61322 4.15533
4.15004 10.70873 4.15004
4.14407 10.80565 4.14407
4.13735 10.90414 4.13735
4.12975 11.00444 4.12975
4.12109 11.10690 4.12109
4.11112 11.21204 4.11112
4.09944 11.32064 4.09944
4.08540 11.43401 4.08540
4.06807 11.55400 4.06807
4.04584 11.68383 4.04584
4.01484 11.83126 4.01484
4.00000 13.19120 4.00000
4.00000 13.19120 4.00000
4.00000 13.19120 4.00000
4.00000 13.19120 4.00000
4.00000 13.19120 4.00000
4.00000 13.19120 4.00000
4.00000 13.19120 4.00000
4.00000 13.19120 4.00000
4.00000 13.19120 4.00000
4.00000 13.19120 4.00000
4.00000 13.19120 4.00000
4.00000 13.19120 4.00000
4.00000 13.19120 4.00000
4.00000 13.19120 4.00000
4.00000 13.19120 4.00000
4.00558 13.22240 4.00558
4.01547 13.28875 4.01547
4.02344 13.35898 4.02344
4.02952 13.43301 4.02952
4.03378 13.51072 4.03378
4.03632 13.59191 4.03632
4.03786 13.67514 4.03786
4.03934 13.75850 4.03934
4.04079 13.84197 4.04079
4.04221 13.92554 4.04221
4.04360 14.00920 4.04360
4.04497 14.09294 4.04497
4.04631 14.17676 4.04631
4.04764 14.26065 4.04764
4.04894 14.34460 4.04894
4.05024 14.42861 4.05024
4.05152 14.51269 4.05152
4.05278 14.59681 4.05278
4.05404 14.68099 4.05404
4.05529 14.76522 4.05529
4.05653 14.84949 4.05653
4.05776 14.93381 4.05776
4.05898 15.01817 4.05898
4.06019 15.10259 4.06019
4.06126 15.18733 4.06126
4.06211 15.27251 4.06211
4.06278 15.35810 4.06278
4.06327 15.44408 4.06327
4.06358 15.53042 4.06358
4.06375 15.61710 4.06375
4.06376 15.70409 4.06376
4.06365 15.79138 4.06365
4.06341 15.87894 4.06341
4.06306 15.96674 4.06306
4.06261 16.05477 4.06261
4.06207 16.14301 4.06207
4.06145 16.23144 4.06145
4.06076 16.32004 4.06075
4.06000 16.40879 4.05999
4.05918 16.49768 4.05918
4.05831 16.58670 4.05831
4.05740 16.67583 4.05740
4.05645 16.76505 4.05645
4.05547 16.85436 4.05547
4.05446 16.94375 4.05446
4.05343 17.03320 4.05343
4.05239 17.12271 4.05239
4.05133 17.21226 4.05133
4.05026 17.30186 4.05026
4.04919 17.39149 4.04919
4.04811 17.48115 4.04811
4.04704 17.57082 4.04704
4.04596 17.66051 4.04596
4.04490 17.75022 4.04490
4.04384 17.83993 4.04384
4.04278 17.92964 4.04278
4.04174 18.01936 4.04174
4.04071 18.10907 4.04071
4.03969 18.19877 4.03969
4.03869 18.28847 4.03869
4.03770 18.37816 4.03770
4.03672 18.46783 4.03672
4.03576 18.55750 4.03576
4.03482 18.64714 4.03482
4.03390 18.73678 4.03390
4.03299 18.82639 4.03299
4.03210 18.91599 4.03210
4.03123 19.00557 4.03123
4.03037 19.09513 4.03037
4.02954 19.18468 4.02954
4.02872 19.27420 4.02872
4.02792 19.36371 4.02792
4.02714 19.45319 4.02714
4.02638 19.54266 4.02638
4.02564 19.63211 4.02564
4.02491 19.72154 4.02491
4.02420 19.81095 4.02420
4.02351 19.90034 4.02351
4.02284 19.98971 4.02284
4.02218 20.07907 4.02218
4.02154 20.16841 4.02154
4.02091 20.25773 4.02091
4.02031 20.34703 4.02031
4.01972 20.43632 4.01972
4.01914 20.52559 4.01914
4.01858 20.61485 4.01858
4.01803 20.70409 4.01803
4.01750 20.79331 4.01750
4.01699 20.88253 4.01699
4.01648 20.97173 4.01648
4.01600 21.06091 4.01600
4.01552 21.15008 4.01552
4.01506 21.23924 4.01506
4.01461 21.32839 4.01461
4.01418 21.41753 4.01418
4.01375 21.50666 4.01375
4.01334 21.59578 4.01334
4.01294 21.68488 4.01294
4.01255 21.77398 4.01255
4.01217 21.86307 4.01217
4.01181 21.95215 4.01181
4.01145 22.04122 4.01145
4.01111 22.13029 4.01111
4.01077 22.21935 4.01077
4.01044 22.30840 4.01044
4.01013 22.39744 4.01013
4.00982 22.48648 4.00982
4.00952 22.57552 4.00952
4.00923 22.66454 4.00923
4.00895 22.75357 4.00895
4.00868 22.84259 4.00868
4.00842 22.93160 4.00841
4.00816 23.02061 4.00816
4.00791 23.10962 4.00791
4.00767 23.19863 4.00767
4.00743 23.28763 4.00743
4.00721 23.37663 4.00721
4.00699 23.46563 4.00699
4.00677 23.55462 4.00677
4.00656 23.64362 4.00656
4.00636 23.73261 4.00636
4.00617 23.82160 4.00617
4.00598 23.91060 4.00598
4.00579 23.99959 4.00579
4.00562 24.08858 4.00562
4.00544 24.17757 4.00544
4.00528 24.26656 4.00528
4.00511 24.35555 4.00511
4.00496 24.44454 4.00496
4.00480 24.53353 4.00480
4.00465 24.62253 4.00465
4.00451 24.71152 4.00451
4.00437 24.80052 4.00437
4.00424 24.88952 4.00424
4.00411 24.97852 4.00411
4.00398 25.06752 4.00398
4.00386 25.15652 4.00386
4.00374 25.24553 4.00374
4.00362 25.33454 4.00362
4.00351 25.42355 4.00351
4.00340 25.51256 4.00340
4.00329 25.60158 4.00329
4.00319 25.69059 4.00319
4.00309 25.77962 4.00309
4.00300 25.86864 4.00300
4.00290 25.95767 4.00290
4.00281 26.04670 4.00281
4.00273 26.13574 4.00273
4.00264 26.22477 4.00264
4.00256 26.31382 4.00256
4.00248 26.40286 4.00248
4.00240 26.49191 4.00241
4.00233 26.58097 4.00233
4.00226 26.67002 4.00226
4.00219 26.75909 4.00219
4.00212 26.84815 4.00212
4.00205 26.93722 4.00205
4.00199 27.02630 4.00199
4.00193 27.11537 4.00193
4.00187 27.20446 4.00187
4.00181 27.29355 4.00181
4.00175 27.38263 4.00175
4.00170 27.47173 4.00170
4.00164 27.56083 4.00164
4.00159 27.64994 4.00159
4.00154 27.73905 4.00154
4.00149 27.82817 4.00149
4.00145 27.91728 4.00145
4.00140 28.00641 4.00140
4.00136 28.09554 4.00136
4.00132 28.18467 4.00132
4.00128 28.27381 4.00128
4.00124 28.36295 4.00124
4.00120 28.45210 4.00120
4.00116 28.54126 4.00116
4.00112 28.63041 4.00112
4.00109 28.71958 4.00109
4.00105 28.80875 4.00106
4.00102 28.89792 4.00102
4.00099 28.98710 4.00099
4.00096 29.07628 4.00096
4.00093 29.16547 4.00093
4.00090 29.25466 4.00090
4.00087 29.34386 4.00087
4.00085 29.43306 4.00085
4.00082 29.52227 4.00082
4.00079 29.61149 4.00079
4.00077 29.70071 4.00077
4.00074 29.78993 4.00074
4.00072 29.87916 4.00072
4.00070 29.96839 4.00070
4.00068 30.05763 4.00068
4.00066 30.14688 4.00065
4.00063 30.23613 4.00063
4.00061 30.32538 4.00062
4.00060 30.41464 4.00060
4.00058 30.50390 4.00058
4.00056 30.59317 4.00056
4.00054 30.68245 4.00054
4.00052 30.77173 4.00052
4.00051 30.86101 4.00051
4.00049 30.95030 4.00049
4.00048 31.03960 4.00048
4.00046 31.12890 4.00046
4.00045 31.21820 4.00045
4.00043 31.30751 4.00043
4.00042 31.39683 4.00042
4.00041 31.48615 4.00041
4.00039 31.57547 4.00039
4.00038 31.66480 4.00038
4.00037 31.75413 4.00037
4.00036 31.84347 4.00036
4.00035 31.93282 4.00035
4.00034 32.02217 4.00034
4.00033 32.11152 4.00033
4.00032 32.20088 4.00031
4.00031 32.29024 4.00030
4.00030 32.37961 4.00030
4.00029 32.46898 4.00029
4.00028 32.55836 4.00028
4.00027 32.64774 4.00027
4.00026 32.73713 4.00026
4.00025 32.82652 4.00025
4.00024 32.91592 4.00024
4.00024 33.00532 4.00024
4.00023 33.09473 4.00023
4.00022 33.18414 4.00022
4.00021 33.27355 4.00021
4.00021 33.36297 4.00021
4.00020 33.45240 4.00020
4.00020 33.54183 4.00020
4.00019 33.63126 4.00019
4.00018 33.72070 4.00018
4.00018 33.81014 4.00018
4.00017 33.89959 4.00017
4.00017 33.98904 4.00017
4.00016 34.07850 4.00016
4.00016 34.16796 4.00016
4.00015 34.25743 4.00015
4.00015 34.34689 4.00015
4.00014 34.43637 4.00014
4.00014 34.52585 4.00014
4.00013 34.61533 4.00013
4.00013 34.70482 4.00013
4.00012 34.79431 4.00012
4.00012 34.88380 4.00012

Angle 0.381754 3.602108

4.00000 7.03348 4.00000
4.00000 7.03348 4.00000
4.00000 7.03348 4.00000
4.00000 7.03348 4.00000
4.00000 7.03348 4.00000
4.00000 7.03348 4.00000
4.00000 7.03348 4.00000
4.00000 7.03348 4.00000
4.00000 7.03348 4.00000
4.00000 7.03348 4.00000
4.00000 7.03348 4.00000
4.00000 7.03348 4.00000
4.00000 7.03348 4.00000
4.00000 7.03348 4.00000
4.00000 7.03348 4.00000
4.00000 7.03348 4.00000
4.00000 7.03348 4.00000
4.00000 7.03348 4.00000
4.00000 7.03348 4.00000
4.00000 7.03348 4.00000
4.00000 7.03348 4.00000
4.00000 7.03348 4.00000
4.00000 7.03348 4.00000
4.00000 7.03348 4.00000
4.00000 7.03348 4.00000
4.00000 7.03348 4.00000
4.00000 7.03348 4.00000
4.00000 7.03348 4.00000
4.00000 7.03348 4.00000
4.00000 7.03348 4.00000
4.00000 7.03348 4.00000
4.00000 7.03348 4.00000
4.00000 7.03348 4.00000
4.00000 7.03348 4.00000
4.00000 7.03348 4.00000
4.00000 7.03348 4.00000
4.00000 7.03348 4.00000
4.00000 7.03348 4.00000
4.00000 7.03348 4.00000
4.00000 7.03348 4.00000
4.00000 7.03348 4.00000
4.00000 7.03348 4.00000
4.00000 7.03348 4.00000
4.00000 7.03348 4.00000
4.00000 7.03348 4.00000
4.00000 7.03348 4.00000
4.00000 7.03348 4.00000
4.00000 7.03348 4.00000
4.00000 7.03348 4.00000
4.00000 7.03348 4.00000
4.00000 7.03348 4.00000
4.00000 7.03348 4.00000
4.00000 7.03348 4.00000
4.00000 7.03348 4.00000
4.00000 7.03348 4.00000
4.00000 7.03348 4.00000
4.00000 7.03348 4.00000
4.00000 7.03348 4.00000
4.00000 7.03348 4.00000
4.00000 7.03348 4.00000
4.00000 7.03348 4.00000
4.00000 7.03348 4.00000
4.00000 7.03348 4.00000
4.00000 7.03348 4.00000
4.00000 7.03348 4.00000
4.00000 7.03348 4.00000
4.00000 7.03348 4.00000
4.00000 7.03348 4.00000
4.00000 7.03348 4.00000
4.00000 7.03348 4.00000
4.00000 7.03348 4.00000
4.00000 7.03348 4.00000
4.00000 7.03348 4.00000
4.00000 7.03348 4.00000
4.00000 7.03348 4.00000
4.00000 7.03348 4.00000
4.00000 7.03348 4.00000
4.00000 7.03348 4.00000
4.00000 7.03348 4.00000
4.00000 7.03348 4.00000
4.00000 7.03348 4.00000
4.00000 7.03348 4.00000
4.00000 7.03348 4.00000
4.00000 7.03348 4.00000
4.00000 7.03348 4.00000
4.00000 7.03348 4.00000
4.00000 7.03348 4.00000
4.00000 7.03348 4.00000
4.00000 7.03348 4.00000
4.00000 7.03348 4.00000
4.00000 7.03348 4.00000
4.00000 7.03348 4.00000
4.00000 7.03348 4.00000
4.00000 7.03348 4.00000
4.00000 7.03348 4.00000
4.00000 7.03348 4.00000
4.00000 7.03348 4.00000
4.00000 7.03348 4.00000
4.00000 7.03348 4.00000
4.00000 7.03348 4.00000
4.00000 7.03348 4.00000
4.00000 7.03348 4.00000
4.00000 7.03348 4.00000
4.00000 7.03348 4.00000
4.00000 7.03348 4.00000
4.00000 7.03348 4.00000
4.00000 7.03348 4.00000
4.00000 7.03348 4.00000
4.00000 7.03348 4.00000
4.00000 7.03348 4.00000
4.00000 7.03348 4.00000
4.00000 7.03348 4.00000
4.00000 7.03348 4.00000
4.00000 7.03348 4.00000
4.00000 7.03348 4.00000
4.00000 7.03348 4.00000
4.00000 7.03348 4.00000
4.00000 7.03348 4.00000
4.00000 7.03348 4.00000
4.00000 7.03348 4.00000
4.00000 7.03348 4.00000
4.00000 7.03348 4.00000
4.00000 7.03348 4.00000
4.00000 7.03348 4.00000
4.00000 7.03348 4.00000
4.00000 7.03348 4.00000
4.00000 7.03348 4.00000
4.00000 7.03348 4.00000
4.00000 7.03348 4.00000
4.00000 7.03348 4.00000
4.00000 7.03348 4.00000
4.00000 7.03348 4.00000
4.00000 7.03348 4.00000
4.00000 7.03348 4.00000
4.00000 7.03348 4.00000
4.00000 7.03348 4.00000
4.00000 7.03348 4.00000
4.00000 7.03348 4.00000
4.00000 7.03348 4.00000
4.00000 7.03348 4.00000
4.00000 7.03348 4.00000
4.00000 7.03348 4.00000
4.00000 7.03348 4.00000
4.00000 7.03348 4.00000
4.00000 7.03348 4.00000
4.00000 7.03348 4.00000
4.00000 7.03348 4.00000
4.00000 7.03348 4.00000
4.00000 7.03348 4.00000
4.00000 7.03348 4.00000
4.00000 7.03348 4.00000
4.00000 7.03348 4.00000
4.00000 7.03348 4.00000
4.00000 7.03348 4.00000
4.00000 7.03348 4.00000
4.00000 7.03348 4.00000
4.00000 7.03348 4.00000
4.00000 7.03348 4.00000
4.00000 7.03348 4.00000
4.00000 7.03348 4.00000
4.00000 7.03348 4.00000
4.00000 7.03348 4.00000
4.00000 7.03348 4.00000
4.00000 7.03348 4.00000
4.00000 7.03348 4.00000
4.00000 7.03348 4.00000
4.00000 7.03348 4.00000
4.00000 7.03348 4.00000
4.00000 7.03348 4.00000
4.00000 7.03348 4.00000
4.00000 7.03348 4.00000
4.00000 7.03348 4.00000
4.00000 7.03348 4.00000
4.00000 7.03348 4.00000
4.00000 7.03348 4.00000
4.00000 7.03348 4.00000
4.00000 7.03348 4.00000
4.00000 7.03348 4.00000
4.00000 7.03348 4.00000
4.00000 7.03348 4.00000
4.00000 7.03348 4.00000
4.00000 7.03348 4.00000
4.00000 7.03348 4.00000
4.00000 7.03348 4.00000
4.00000 7.03348 4.00000
4.00000 7.03348 4.00000
4.00000 7.03348 4.00000
4.00000 7.03348 4.00000
4.00000 7.03348 4.00000
4.00000 7.03348 4.00000
4.00000 7.03348 4.00000
4.00000 7.03348 4.00000
4.00000 7.03348 4.00000
4.00000 7.03348 4.00000
4.00000 7.03348 4.00000
4.00000 7.03348 4.00000
4.00000 7.03348 4.00000
4.00000 7.03348 4.00000
4.00000 7.03348 4.00000
4.00000 7.03348 4.00000
4.00000 7.03348 4.00000
4.00000 7.03348 4.00000
4.00000 7.03348 4.00000
4.00000 7.03348 4.00000
4.00000 7.03348 4.00000
4.00000 7.03348 4.00000
4.00000 7.03348 4.00000
4.00000 7.03348 4.00000
4.00000 7.03348 4.00000
4.00000 7.03348 4.00000
4.00000 7.03348 4.00000
4.00000 7.03348 4.00000
4.00000 7.03348 4.00000
4.00000 7.03348 4.00000
4.00000 7.03348 4.00000
4.00000 7.03348 4.00000
4.00000 7.03348 4.00000
4.00000 7.03348 4.00000
4.00000 7.03348 4.00000
4.00000 7.03348 4.00000
4.00000 7.03348 4.00000
4.00000 7.03348 4.00000
4.00000 7.03348 4.00000
4.00000 7.03348 4.00000
4.00000 7.03348 4.00000
4.00000 7.03348 4.00000
4.00000 7.03348 4.00000
4.00000 7.03348 4.00000
4.00000 7.03348 4.00000
4.00000 7.03348 4.00000
4.00000 7.03348 4.00000
4.00000 7.03348 4.00000
4.00000 7.03348 4.00000
4.00000 7.03348 4.00000
4.00000 7.03348 4.00000
4.00000 7.03348 4.00000
4.00000 7.03348 4.00000
4.00000 7.03348 4.00000
4.00000 7.03348 4.00000
4.00000 7.03348 4.00000
4.00000 7.03348 4.00000
4.00000 7.03348 4.00000
4.00000 7.03348 4.00000
4.00000 7.03348 4.00000
4.00000 7.03349 4.00000
4.00000 7.03348 4.00000
4.00000 7.03350 4.00000
4.00000 7.03349 4.00000
4.00000 7.03348 4.00000
4.00020 7.04015 4.00020
4.00249 7.11925 4.00249
4.00474 7.19853 4.00474
4.00694 7.27797 4.00694
4.00911 7.35755 4.00911
4.01125 7.43726 4.01125
4.01338 7.51706 4.01338
4.01551 7.59694 4.01551
4.01765 7.67689 4.01765
4.01980 7.75686 4.01980
4.02199 7.83685 4.02199
4.02421 7.91681 4.02421
4.02650 7.99673 4.02650
4.02885 8.07657 4.02885
4.03131 8.15628 4.03131
4.03387 8.23583 4.03387
4.03659 8.31515 4.03659
4.03948 8.39417 4.03948
4.04260 8.47280 4.04260
4.04599 8.55094 4.04599
4.04973 8.62844 4.04973
4.05390 8.70515 4.05390
4.05847 8.78112 4.05847
4.06345 8.85632 4.06345
4.06887 8.93069 4.06887
4.07477 9.00417 4.07477
4.08115 9.07673 4.08115
4.08803 9.14833 4.08803
4.09541 9.21900 4.09541
4.10327 9.28878 4.10327
4.11154 9.35776 4.11154
4.12015 9.42612 4.12015
4.12898 9.49410 4.12898
4.13785 9.56204 4.13785
4.14654 9.63039 4.14654
4.15475 9.69973 4.15475
4.16213 9.77079 4.16213
4.16825 9.84443 4.16825
4.17260 9.92163 4.17260
4.17473 10.00333 4.17473
4.17429 10.09022 4.17429
4.17232 10.18021 4.17232
4.16972 10.27150 4.16972
4.16652 10.36401 4.16652
4.16275 10.45773 4.16275
4.15839 10.55267 4.15839
4.15342 10.64886 4.15342
4.14779 10.74641 4.14779
4.14144 10.84544 4.14144
4.13426 10.94617 4.13426
4.12611 11.04889 4.12611
4.11677 11.15402 4.11677
4.10591 11.26222 4.10591
4.09303 11.37451 4.09303
4.07728 11.49256 4.07728
4.05749 11.61874 4.05749
4.03111 11.75812 4.03111
4.00000 13.19120 4.00000
4.00000 13.19120 4.00000
4.00000 13.19120 4.00000
4.00000 13.19120 4.00000
4.00000 13.19120 4.00000
4.00000 13.19120 4.00000
4.00000 13.19120 4.00000
4.00000 13.19120 4.00000
4.00000 13.19120 4.00000
4.00000 13.19120 4.00000
4.00000 13.19120 4.00000
4.00000 13.19120 4.00000
4.00000 13.19120 4.00000
4.00000 13.19120 4.00000
4.00000 13.19121 4.00000
4.00265 13.20559 4.00265
4.01317 13.27173 4.01317
4.02171 13.34185 4.02171
4.02830 13.41589 4.02830
4.03302 13.49371 4.03302
4.03594 13.57514 4.03594
4.03757 13.65919 4.03757
4.03908 13.74350 4.03908
4.04055 13.82791 4.04055
4.04199 13.91242 4.04199
4.04340 13.99701 4.04340
4.04479 14.08167 4.04479
4.04615 14.16641 4.04615
4.04749 14.25121 4.04749
4.04881 14.33608 4.04881
4.05012 14.42099 4.05012
4.05141 14.50596 4.05141
4.05270 14.59098 4.05270
4.05397 14.67604 4.05397
4.05523 14.76115 4.05523
4.05648 14.84630 4.05648
4.05772 14.93148 4.05772
4.05896 15.01670 4.05896
4.06019 15.10197 4.06019
4.06126 15.18756 4.06126
4.06212 15.27359 4.06212
4.06279 15.36004 4.06279
4.06328 15.44687 4.06328
4.06359 15.53406 4.06359
4.06375 15.62159 4.06375
4.06376 15.70943 4.06376
4.06363 15.79757 4.06364
4.06339 15.88597 4.06339
4.06303 15.97461 4.06303
4.06256 16.06348 4.06257
4.06201 16.15255 4.06201
4.06137 16.24181 4.06137
4.06066 16.33123 4.06066
4.05989 16.42080 4.05989
4.05905 16.51050 4.05905
4.05817 16.60032 4.05817
4.05725 16.69025 4.05724
4.05628 16.78027 4.05628
4.05529 16.87037 4.05529
4.05427 16.96053 4.05427
4.05323 17.05076 4.05323
4.05217 17.14103 4.05217
4.05110 17.23135 4.05110
4.05002 17.32170 4.05002
4.04894 17.41208 4.04894
4.04786 17.50247 4.04786
4.04677 17.59288 4.04677
4.04569 17.68331 4.04569
4.04462 17.77373 4.04462
4.04355 17.86416 4.04355
4.04249 17.95458 4.04249
4.04144 18.04500 4.04144
4.04041 18.13541 4.04041
4.03939 18.22581 4.03939
4.03838 18.31619 4.03838
4.03739 18.40656 4.03739
4.03641 18.49691 4.03641
4.03545 18.58725 4.03545
4.03451 18.67756 4.03451
4.03358 18.76785 4.03358
4.03267 18.85812 4.03267
4.03178 18.94837 4.03178
4.03091 19.03860 4.03091
4.03006 19.12880 4.03006
4.02922 19.21898 4.02922
4.02841 19.30913 4.02841
4.02761 19.39926 4.02761
4.02683 19.48937 4.02683
4.02607 19.57945 4.02607
4.02533 19.66951 4.02533
4.02461 19.75955 4.02461
4.02390 19.84957 4.02390
4.02321 19.93956 4.02321
4.02254 20.02952 4.02254

Angle 0.557729 5.864677

4.00000 7.03348 4.00000
4.00000 7.03348 4.00000
4.00000 7.03348 4.00000
4.00000 7.03348 4.00000
4.00000 7.03348 4.00000
4.00000 7.03348 4.00000
4.00000 7.03348 4.00000
4.00000 7.03348 4.00000
4.00000 7.03348 4.00000
4.00000 7.03348 4.00000
4.00000 7.03348 4.00000
4.00000 7.03348 4.00000
4.00000 7.03348 4.00000
4.00000 7.03348 4.00000
4.00000 7.03348 4.00000
4.00000 7.03348 4.00000
4.00000 7.03348 4.00000
4.00000 7.03348 4.00000
4.00000 7.03348 4.00000
4.00000 7.03348 4.00000
4.00000 7.03348 4.00000
4.00000 7.03348 4.00000
4.00000 7.03348 4.00000
4.00000 7.03348 4.00000
4.00000 7.03348 4.00000
4.00000 7.03348 4.00000
4.00000 7.03348 4.00000
4.00000 7.03348 4.00000
4.00000 7.03349 4.00000
4.00000 7.03348 4.00000
4.00000 7.03348 4.00000
4.00000 7.03348 4.00000
4.00000 7.03348 4.00000
4.00000 7.03348 4.00000
4.00000 7.03348 4.00000
4.00000 7.03348 4.00000
4.00000 7.03348 4.00000
4.00000 7.03348 4.00000
4.00000 7.03348 4.00000
4.00000 7.03348 4.00000
4.00000 7.03348 4.00000
4.00000 7.03348 4.00000
4.00000 7.03348 4.00000
4.00000 7.03348 4.00000
4.00000 7.03348 4.00000
4.00000 7.03348 4.00000
4.00000 7.03348 4.00000
4.00000 7.03348 4.00000
4.00000 7.03348 4.00000
4.00000 7.03348 4.00000
4.00000 7.03348 4.00000
4.00000 7.03348 4.00000
4.00000 7.03348 4.00000
4.00000 7.03348 4.00000
4.00000 7.03348 4.00000
4.00000 7.03348 4.00000
4.00000 7.03348 4.00000
4.00000 7.03348 4.00000
4.00000 7.03348 4.00000
4.00000 7.03348 4.00000
4.00000 7.03348 4.00000
4.00000 7.03348 4.00000
4.00000 7.03348 4.00000
4.00000 7.03348 4.00000
4.00000 7.03348 4.00000
4.00000 7.03348 4.00000
4.00000 7.03348 4.00000
4.00000 7.03348 4.00000
4.00000 7.03348 4.00000
4.00000 7.03348 4.00000
4.00000 7.03348 4.00000
4.00000 7.03348 4.00000
4.00000 7.03348 4.00000
4.00000 7.03348 4.00000
4.00000 7.03348 4.00000
4.00000 7.03348 4.00000
4.00000 7.03348 4.00000
4.00000 7.03348 4.00000
4.00000 7.03348 4.00000
4.00000 7.03349 4.00000
4.00000 7.03348 4.00000
4.00000 7.03351 4.00000
4.00000 7.03349 4.00000
4.00000 7.03349 4.00000
4.00000 7.03348 4.00000
4.00000 7.03348 4.00000
4.00000 7.03348 4.00000
4.00000 7.03348 4.00000
4.00000 7.03350 4.00000
4.00123 7.07543 4.00123
4.00348 7.15377 4.00348
4.00568 7.23229 4.00568
4.00784 7.31097 4.00784
4.00998 7.38980 4.00998
4.01209 7.46874 4.01209
4.01420 7.54778 4.01420
4.01631 7.62691 4.01631
4.01843 7.70609 4.01843
4.02057 7.78530 4.02057
4.02275 7.86453 4.02275
4.02497 7.94373 4.02497
4.02726 8.02289 4.02726
4.02962 8.10196 4.02962
4.03209 8.18091 4.03209
4.03467 8.25968 4.03467
4.03741 8.33822 4.03741
4.04034 8.41645 4.04034
4.04350 8.49429 4.04350
4.04695 8.57161 4.04695
4.05077 8.64826 4.05077
4.05500 8.72414 4.05500
4.05963 8.79930 4.05963
4.06467 8.87370 4.06467
4.07015 8.94727 4.07015
4.07611 9.01997 4.07611
4.08255 9.09176 4.08255
4.08948 9.16261 4.08948
4.09690 9.23256 4.09690
4.10477 9.30165 4.10477
4.11305 9.36999 4.11305
4.12165 9.43775 4.12165
4.13043 9.50520 4.13043
4.13922 9.57267 4.13922
4.14780 9.64063 4.14780
4.15586 9.70968 4.15586
4.16304 9.78054 4.16304
4.16891 9.85407 4.16891
4.17299 9.93124 4.17299
4.17482 10.01296 4.17482
4.17411 10.09980 4.17411
4.17208 10.18933 4.17208
4.16944 10.28013 4.16944
4.16622 10.37215 4.16622
4.16242 10.46536 4.16242
4.15804 10.55978 4.15804
4.15306 10.65545 4.15306
4.14742 10.75247 4.14742
4.14107 10.85098 4.14107
4.13388 10.95119 4.13388
4.12573 11.05338 4.12573
4.11639 11.15798 4.11639
4.10554 11.26564 4.10554
4.09267 11.37740 4.09267
4.07694 11.49491 4.07694
4.05719 11.62051 4.05719
4.03087 11.75927 4.03087
4.00000 13.19120 4.00000
4.00000 13.19120 4.00000
4.00000 13.19120 4.00000
4.00000 13.19120 4.00000
4.00000 13.19120 4.00000
4.00000 13.19120 4.00000
4.00000 13.19120 4.00000
4.00000 13.19120 4.00000
4.00000 13.19120 4.00000
4.00000 13.19120 4.00000
4.00000 13.19120 4.00000
4.00000 13.19120 4.00000
4.00000 13.19121 4.00000
4.00000 13.19120 4.00000
4.00000 13.19120 4.00000
4.00175 13.20062 4.00175
4.01238 13.26611 4.01238
4.02104 13.33555 4.02104
4.02777 13.40888 4.02777
4.03264 13.48598 4.03264
4.03572 13.56668 4.03572
4.03740 13.65020 4.03740
4.03891 13.73410 4.03891
4.04038 13.81811 4.04038
4.04182 13.90221 4.04182
4.04323 13.98641 4.04323
4.04461 14.07068 4.04461
4.04597 14.15503 4.04597
4.04730 14.23945 4.04730
4.04862 14.32392 4.04862
4.04993 14.40846 4.04993
4.05122 14.49306 4.05122
4.05250 14.57770 4.05250
4.05376 14.66239 4.05376
4.05502 14.74713 4.05502
4.05627 14.83191 4.05627
4.05751 14.91674 4.05751
4.05874 15.00160 4.05874
4.05997 15.08650 4.05997
4.06108 15.17166 4.06108
4.06198 15.25726 4.06198
4.06268 15.34328 4.06268
4.06320 15.42970 4.06320
4.06354 15.51648 4.06354
4.06373 15.60360 4.06373
4.06377 15.69104 4.06377
4.06367 15.77877 4.06367
4.06345 15.86678 4.06345
4.06312 15.95504 4.06312
4.06268 16.04353 4.06268
4.06214 16.13222 4.06214
4.06153 16.22110 4.06153
4.06084 16.31016 4.06084
4.06008 16.39937 4.06008
4.05926 16.48872 4.05926
4.05839 16.57819 4.05839
4.05748 16.66777 4.05748
4.05653 16.75745 4.05653
4.05555 16.84721 4.05555
4.05454 16.93704 4.05454
4.05350 17.02694 4.05350
4.05245 17.11690 4.05245
4.05139 17.20689 4.05139
4.05032 17.29693 4.05032
4.04924 17.38699 4.04924
4.04816 17.47708 4.04816
4.04708 17.56719 4.04708
4.04600 17.65732 4.04600
4.04493 17.74744 4.04493
4.04386 17.83758 4.04386
4.04281 17.92771 4.04281
4.04176 18.01785 4.04176
4.04072 18.10797 4.04072
4.03970 18.19809 4.03970
4.03869 18.28819 4.03869
4.03769 18.37829 4.03769
4.03672 18.46837 4.03672
4.03575 18.55843 4.03575
4.03481 18.64847 4.03481
4.03388 18.73850 4.03388
4.03297 18.82851 4.03297
4.03207 18.91849 4.03207
4.03120 19.00846 4.03120
4.03034 19.09840 4.03034
4.02951 19.18833 4.02951
4.02869 19.27823 4.02869
4.02789 19.36811 4.02789
4.02710 19.45797 4.02710
4.02634 19.54780 4.02634
4.02559 19.63761 4.02559
4.02486 19.72741 4.02486
4.02415 19.81718 4.02415
4.02346 19.90693 4.02346
4.02278 19.99666 4.02278
4.02213 20.08637 4.02213
4.02148 20.17606 4.02148
4.02086 20.26572 4.02086
4.02025 20.35537 4.02025
4.01966 20.44501 4.01966
4.01908 20.53462 4.01908
4.01852 20.62421 4.01852
4.01798 20.71379 4.01798
4.01744 20.80335 4.01744
4.01693 20.89290 4.01693
4.01643 20.98243 4.01643
4.01594 21.07194 4.01594
4.01546 21.16144 4.01546
4.01500 21.25092 4.01500
4.01455 21.34039 4.01455
4.01412 21.42985 4.01412
4.01369 21.51929 4.01369
4.01328 21.60873 4.01328
4.01288 21.69815 4.01288
4.01249 21.78756 4.01249
4.01212 21.87696 4.01212
4.01175 21.96634 4.01175
4.01139 22.05572 4.01139
4.01105 22.14509 4.01105
4.01071 22.23445 4.01071
4.01039 22.32380 4.01039
4.01007 22.41315 4.01007
4.00977 22.50248 4.00977
4.00947 22.59181 4.00947
4.00918 22.68113 4.00918
4.00890 22.77045 4.00890
4.00863 22.85976 4.00863
4.00836 22.94906 4.00837
4.00811 23.03836 4.00811
4.00786 23.12765 4.00786
4.00762 23.21694 4.00762
4.00739 23.30622 4.00738
4.00716 23.39550 4.00716
4.00694 23.48478 4.00694
4.00673 23.57405 4.00672
4.00652 23.66332 4.00652
4.00632 23.75259 4.00632
4.00612 23.84185 4.00612
4.00593 23.93111 4.00593
4.00575 24.02037 4.00575
4.00557 24.10963 4.00557
4.00540 24.19888 4.00540
4.00524 24.28814 4.00524
4.00507 24.37739 4.00507
4.00492 24.46665 4.00492
4.00476 24.55590 4.00477
4.00462 24.64515 4.00462
4.00447 24.73441 4.00447
4.00434 24.82366 4.00434
4.00420 24.91291 4.00420
4.00407 25.00216 4.00407
4.00394 25.09142 4.00394
4.00382 25.18067 4.00382
4.00371 25.26992 4.00370
4.00359 25.35918 4.00359
4.00348 25.44844 4.00348
4.00337 25.53769 4.00337
4.00327 25.62695 4.00327
4.00316 25.71621 4.00317
4.00307 25.80548 4.00306
4.00297 25.89474 4.00297
4.00288 25.98401 4.00288
4.00279 26.07328 4.00279
4.00270 26.16255 4.00270
4.00262 26.25182 4.00262
4.00253 26.34110 4.00254
4.00246 26.43038 4.00246
4.00238 26.51966 4.00238
4.00230 26.60894 4.00231
4.00223 26.69823 4.00223
4.00216 26.78752 4.00216
4.00210 26.87681 4.00210
4.00203 26.96611 4.00203
4.00197 27.05541 4.00197
4.00191 27.14471 4.00191
4.00185 27.23401 4.00185
4.00179 27.32332 4.00179
4.00173 27.41263 4.00173
4.00168 27.50195 4.00168
4.00163 27.59127 4.00163
4.00158 27.68059 4.00158
4.00153 27.76992 4.00153
4.00148 27.85924 4.00148
4.00143 27.94858 4.00143
4.00139 28.03791 4.00139
4.00135 28.12725 4.00134
4.00130 28.21660 4.00130
4.00126 28.30595 4.00126
4.00122 28.39530 4.00122
4.00118 28.48465 4.00118
4.00115 28.57401 4.00115
4.00111 28.66338 4.00111
4.00108 28.75275 4.00108
4.00104 28.84212 4.00104
4.00101 28.93149 4.00101
4.00098 29.02087 4.00098
4.00095 29.11026 4.00095
4.00092 29.19965 4.00092
4.00089 29.28904 4.00089
4.00086 29.37843 4.00086
4.00083 29.46783 4.00083
4.00081 29.55724 4.00081
4.00078 29.64665 4.00078
4.00076 29.73606 4.00076
4.00073 29.82548 4.00073
4.00071 29.91490 4.00071
4.00069 30.00432 4.00069
4.00067 30.09375 4.00067
4.00065 30.18319 4.00065
4.00063 30.27262 4.00063
4.00061 30.36207 4.00061
4.00059 30.45151 4.00059
4.00057 30.54096 4.00057
4.00055 30.63042 4.00055
4.00053 30.71988 4.00053
4.00052 30.80934 4.00052
4.00050 30.89881 4.00050
4.00049 30.98828 4.00049
4.00047 31.07775 4.00047
4.00046 31.16723 4.00046
4.00044 31.25672 4.00044
4.00043 31.34620 4.00043
4.00041 31.43570 4.00041
4.00040 31.52519 4.00040
4.00039 31.61469 4.00039
4.00038 31.70420 4.00038
4.00036 31.79371 4.00036
4.00035 31.88322 4.00035
4.00034 31.97274 4.00034
4.00033 32.06226 4.00033
4.00032 32.15178 4.00032
4.00031 32.24131 4.00031
4.00030 32.33084 4.00030
4.00029 32.42038 4.00029
4.00028 32.50992 4.00028
4.00027 32.59947 4.00027
4.00026 32.68902 4.00026
4.00026 32.77857 4.00026
4.00025 32.86813 4.00025
4.00024 32.95769 4.00024
4.00023 33.04726 4.00023
4.00023 33.13683 4.00023
4.00022 33.22640 4.00022
4.00021 33.31598 4.00021
4.00020 33.40556 4.00020
4.00020 33.49514 4.00020
4.00019 33.58473 4.00019
4.00019 33.67432 4.00019
4.00018 33.76392 4.00018
4.00017 33.85352 4.00017
4.00017 33.94313 4.00017
4.00016 34.03273 4.00016
4.00016 34.12235 4.00016
4.00015 34.21196 4.00015
4.00015 34.30158 4.00015

Angle 0.488851 4.981873

4.00000 7.03348 4.00000
4.00000 7.03348 4.00000
4.00000 7.03348 4.00000
4.00000 7.03348 4.00000
4.00000 7.03348 4.00000
4.00000 7.03348 4.00000
4.00000 7.03348 4.00000
4.00000 7.03348 4.00000
4.00000 7.03348 4.00000
4.00000 7.03348 4.00000
4.00000 7.03348 4.00000
4.00000 7.03348 4.00000
4.00000 7.03348 4.00000
4.00000 7.03348 4.00000
4.00000 7.03348 4.00000
4.00000 7.03348 4.00000
4.00000 7.03348 4.00000
4.00000 7.03346 4.00000
4.00000 7.03346 4.00000
4.00000 7.03346 4.00000
4.00000 7.03348 4.00000
4.00000 7.03348 4.00000
4.00000 7.03349 4.00000
4.00000 7.03348 4.00000
4.00000 7.03347 4.00000
4.00000 7.03347 4.00000
4.00000 7.03348 4.00000
4.00000 7.03348 4.00000
4.00000 7.03348 4.00000
4.00000 7.03346 4.00000
4.00000 7.03349 4.00000
4.00000 7.03345 4.00000
4.00000 7.03344 4.00000
4.00000 7.03345 4.00000
4.00000 7.03347 4.00000
4.00000 7.03348 4.00000
4.00000 7.03348 4.00000
4.00000 7.03348 4.00000
4.00000 7.03348 4.00000
4.00000 7.03348 4.00000
4.00000 7.03348 4.00000
4.00000 7.03349 4.00000
4.00000 7.03348 4.00000
4.00036 7.04577 4.00036
4.00133 7.07888 4.00133
4.00230 7.11244 4.00230
4.00327 7.14646 4.00327
4.00424 7.18093 4.00424
4.00522 7.21585 4.00522
4.00620 7.25121 4.00620
4.00719 7.28700 4.00719
4.00818 7.32323 4.00817
4.00917 7.35988 4.00917
4.01017 7.39696 4.01017
4.01118 7.43446 4.01118
4.01219 7.47237 4.01219
4.01321 7.51068 4.01321
4.01425 7.54940 4.01424
4.01529 7.58853 4.01529
4.01634 7.62804 4.01634
4.01741 7.66793 4.01741
4.01849 7.70821 4.01849
4.01959 7.74886 4.01959
4.02070 7.78989 4.02070
4.02183 7.83127 4.02183
4.02299 7.87300 4.02298
4.02416 7.91508 4.02416
4.02537 7.95750 4.02537
4.02660 8.00024 4.02660
4.02786 8.04331 4.02786
4.02916 8.08668 4.02916
4.03050 8.13035 4.03050
4.03188 8.17431 4.03188
4.03330 8.21855 4.03330
4.03479 8.26304 4.03479
4.03633 8.30777 4.03633
4.03794 8.35273 4.03794
4.03962 8.39790 4.03962
4.04139 8.44324 4.04139
4.04326 8.48875 4.04326
4.04524 8.53437 4.04524
4.04735 8.58009 4.04735
4.04960 8.62586 4.04960
4.05203 8.67163 4.05203
4.05461 8.71740 4.05461
4.05735 8.76320 4.05735
4.06026 8.80899 4.06026
4.06334 8.85476 4.06334
4.06661 8.90049 4.06661
4.07007 8.94615 4.07007
4.07373 8.99172 4.07373
4.07760 9.03718 4.07760
4.08169 9.08253 4.08169
4.08599 9.12774 4.08599
4.09052 9.17281 4.09052
4.09528 9.21774 4.09528
4.10025 9.26254 4.10025
4.10543 9.30721 4.10543
4.11080 9.35179 4.11080
4.11635 9.39632 4.11635
4.12204 9.44084 4.12204
4.12784 9.48544 4.12784
4.13370 9.53020 4.13370
4.13955 9.57525 4.13955
4.14533 9.62073 4.14533
4.15095 9.66681 4.15095
4.15630 9.71370 4.15630
4.16126 9.76164 4.16126
4.16568 9.81091 4.16568
4.16942 9.86182 4.16942
4.17231 9.91470 4.17231
4.17417 9.96988 4.17417
4.17488 10.02764 4.17488
4.17433 10.08816 4.17433
4.17304 10.15041 4.17304
4.17143 10.21355 4.17143
4.16952 10.27754 4.16953
4.16732 10.34237 4.16732
4.16482 10.40804 4.16482
4.16202 10.47454 4.16202
4.15891 10.54189 4.15891
4.15549 10.61011 4.15549
4.15173 10.67923 4.15173
4.14762 10.74930 4.14762
4.14311 10.82038 4.14311
4.13818 10.89254 4.13818
4.13277 10.96589 4.13277
4.12680 11.04056 4.12680
4.12021 11.11672 4.12021
4.11285 11.19461 4.11285
4.10458 11.27455 4.10458
4.09516 11.35701 4.09516
4.08423 11.44268 4.08423
4.07139 11.53240 4.07139
4.05600 11.62743 4.05600
4.03685 11.73017 4.03685
4.01137 11.84578 4.01137
4.00000 13.19120 4.00000
4.00000 13.19120 4.00000
4.00000 13.19120 4.00000
4.00000 13.19120 4.00000
4.00000 13.19120 4.00000
4.00000 13.19120 4.00000
4.00000 13.19121 4.00000
4.00000 13.19120 4.00000
4.00000 13.19120 4.00000
4.00000 13.19120 4.00000
4.00000 13.19120 4.00000
4.00000 13.19120 4.00000
4.00000 13.19120 4.00000
4.00000 13.19120 4.00000
4.00000 13.19120 4.00000
4.00000 13.19120 4.00000
4.00000 13.19120 4.00000
4.00000 13.19121 4.00000
4.00000 13.19120 4.00000
4.00139 13.19864 4.00139
4.00999 13.24993 4.00999
4.01738 13.30382 4.01738
4.02356 13.36029 4.02356
4.02855 13.41930 4.02855
4.03237 13.48080 4.03237
4.03506 13.54473 4.03507
4.03668 13.61096 4.03668
4.03791 13.67812 4.03791
4.03911 13.74549 4.03911
4.04030 13.81305 4.04030
4.04146 13.88080 4.04146
4.04260 13.94874 4.04260
4.04373 14.01686 4.04373
4.04484 14.08515 4.04484
4.04594 14.15362 4.04594
4.04703 14.22225 4.04703
4.04811 14.29104 4.04811
4.04918 14.35999 4.04918
4.05024 14.42910 4.05024
4.05130 14.49836 4.05130
4.05235 14.56777 4.05235
4.05339 14.63733 4.05339
4.05443 14.70703 4.05443
4.05546 14.77688 4.05546
4.05649 14.84687 4.05649
4.05751 14.91699 4.05751
4.05853 14.98725 4.05853
4.05955 15.05764 4.05955
4.06054 15.12823 4.06054
4.06139 15.19921 4.06139
4.06210 15.27061 4.06210
4.06267 15.34239 4.06267
4.06312 15.41455 4.06312
4.06344 15.48708 4.06344
4.06366 15.55995 4.06366
4.06376 15.63316 4.06376
4.06376 15.70669 4.06376
4.06367 15.78052 4.06367
4.06349 15.85465 4.06349
4.06323 15.92906 4.06323
4.06289 16.00373 4.06289
4.06248 16.07866 4.06248
4.06200 16.15383 4.06200
4.06147 16.22922 4.06147
4.06088 16.30484 4.06088
4.06024 16.38066 4.06024
4.05956 16.45668 4.05956
4.05884 16.53289 4.05884
4.05808 16.60927 4.05808
4.05729 16.68582 4.05729
4.05647 16.76253 4.05647
4.05563 16.83939 4.05563
4.05477 16.91640 4.05477
4.05389 16.99354 4.05389
4.05299 17.07081 4.05299
4.05209 17.14821 4.05209
4.05117 17.22573 4.05117
4.05024 17.30335 4.05024
4.04931 17.38109 4.04931
4.04838 17.45892 4.04838
4.04745 17.53685 4.04745
4.04651 17.61488 4.04651
4.04558 17.69300 4.04558
4.04465 17.77120 4.04465
4.04372 17.84948 4.04372
4.04280 17.92785 4.04280
4.04189 18.00629 4.04189
4.04099 18.08480 4.04099
4.04009 18.16339 4.04009
4.03920 18.24204 4.03920
4.03833 18.32076 4.03833
4.03746 18.39954 4.03746
4.03661 18.47839 4.03661
4.03577 18.55730 4.03577
4.03493 18.63627 4.03493
4.03412 18.71529 4.03412
4.03331 18.79438 4.03331
4.03252 18.87351 4.03252
4.03174 18.95270 4.03174
4.03097 19.03195 4.03097
4.03022 19.11125 4.03022
4.02949 19.19060 4.02949
4.02876 19.27000 4.02876
4.02805 19.34945 4.02805
4.02735 19.42895 4.02735
4.02667 19.50850 4.02667
4.02600 19.58809 4.02600
4.02535 19.66773 4.02535
4.02470 19.74743 4.02470
4.02407 19.82716 4.02407
4.02346 19.90695 4.02346
4.02286 19.98678 4.02286
4.02227 20.06665 4.02227
4.02169 20.14657 4.02169
4.02113 20.22654 4.02113
4.02058 20.30655 4.02058
4.02004 20.38660 4.02004
4.01952 20.46670 4.01952
4.01900 20.54684 4.01900
4.01850 20.62703 4.01850
4.01801 20.70726 4.01801
4.01754 20.78753 4.01754
4.01707 20.86785 4.01707
4.01662 20.94821 4.01662
4.01617 21.02861 4.01617
4.01574 21.10906 4.01574
4.01532 21.18955 4.01532
4.01490 21.27008 4.01490
4.01450 21.35065 4.01450
4.01411 21.43127 4.01411
4.01373 21.51193 4.01373
4.01335 21.59263 4.01335
4.01299 21.67337 4.01299
4.01264 21.75415 4.01264
4.01229 21.83498 4.01229
4.01196 21.91585 4.01196
4.01163 21.99676 4.01163
4.01131 22.07771 4.01131
4.01100 22.15870 4.01100
4.01070 22.23974 4.01069
4.01040 22.32081 4.01040
4.01011 22.40193 4.01011
4.00983 22.48309 4.00983
4.00956 22.56429 4.00956
4.00929 22.64553 4.00929
4.00903 22.72681 4.00904
4.00878 22.80813 4.00878
4.00854 22.88950 4.00854
4.00830 22.97090 4.00830
4.00807 23.05234 4.00807
4.00784 23.13383 4.00784
4.00762 23.21535 4.00762
4.00741 23.29692 4.00741
4.00720 23.37852 4.00720
4.00700 23.46017 4.00700
4.00680 23.54185 4.00680
4.00661 23.62358 4.00661
4.00642 23.70534 4.00642
4.00624 23.78714 4.00624
4.00607 23.86899 4.00607
4.00589 23.95087 4.00589
4.00573 24.03279 4.00573
4.00556 24.11475 4.00556
4.00541 24.19675 4.00541
4.00525 24.27879 4.00525
4.00510 24.36086 4.00510
4.00496 24.44298 4.00496
4.00482 24.52513 4.00482
4.00468 24.60732 4.00468
4.00454 24.68955 4.00455
4.00442 24.77182 4.00442
4.00429 24.85412 4.00429
4.00417 24.93646 4.00417
4.00405 25.01884 4.00405
4.00393 25.10126 4.00393
4.00382 25.18371 4.00382
4.00371 25.26620 4.00371
4.00360 25.34873 4.00360
4.00350 25.43129 4.00350
4.00339 25.51390 4.00340
4.00330 25.59653 4.00330
4.00321 25.67920 4.00321
4.00311 25.76191 4.00311
4.00302 25.84466 4.00302
4.00294 25.92744 4.00294
4.00285 26.01026 4.00285
4.00277 26.09311 4.00277
4.00269 26.17600 4.00269
4.00261 26.25892 4.00261
4.00253 26.34188 4.00254
4.00246 26.42487 4.00246
4.00239 26.50790 4.00239
4.00232 26.59096 4.00232
4.00225 26.67405 4.00225
4.00219 26.75718 4.00219
4.00212 26.84034 4.00212
4.00206 26.92354 4.00206
4.00200 27.00677 4.00200
4.00194 27.09004 4.00194
4.00189 27.17333 4.00189
4.00183 27.25666 4.00183
4.00178 27.34003 4.00178
4.00173 27.42342 4.00173
4.00168 27.50685 4.00168
4.00163 27.59031 4.00163
4.00158 27.67381 4.00158
4.00153 27.75733 4.00153
4.00149 27.84089 4.00149
4.00145 27.92448 4.00145
4.00140 28.00810 4.00140
4.00136 28.09176 4.00136
4.00132 28.17544 4.00132
4.00128 28.25915 4.00128
4.00125 28.34290 4.00125
4.00121 28.42668 4.00121
4.00117 28.51048 4.00117
4.00114 28.59433 4.00114
4.00110 28.67819 4.00111
4.00107 28.76209 4.00107
4.00104 28.84601 4.00104
4.00101 28.92997 4.00101
4.00098 29.01396 4.00098
4.00095 29.09797 4.00095
4.00092 29.18202 4.00093
4.00090 29.26610 4.00090
4.00087 29.35021 4.00087
4.00084 29.43434 4.00085
4.00082 29.51850 4.00082
4.00080 29.60269 4.00080
4.00077 29.68691 4.00077
4.00075 29.77116 4.00075
4.00073 29.85543 4.00073
4.00071 29.93973 4.00070
4.00068 30.02406 4.00069
4.00067 30.10842 4.00067
4.00064 30.19281 4.00065
4.00063 30.27722 4.00063
4.00061 30.36166 4.00061
4.00059 30.44612 4.00059
4.00057 30.53062 4.00057
4.00055 30.61514 4.00055
4.00054 30.69969 4.00054
4.00052 30.78426 4.00052
4.00051 30.86886 4.00051
4.00049 30.95349 4.00049
4.00048 31.03814 4.00048
4.00046 31.12281 4.00046
4.00045 31.20752 4.00045
4.00044 31.29224 4.00044
4.00042 31.37700 4.00042
4.00041 31.46177 4.00041
4.00040 31.54658 4.00040
4.00039 31.63141 4.00039
4.00038 31.71626 4.00037
4.00036 31.80114 4.00036
4.00035 31.88604 4.00035
4.00034 31.97097 4.00034
4.00033 32.05592 4.00033
4.00032 32.14089 4.00032
4.00031 32.22589 4.00031
4.00030 32.31091 4.00030
4.00029 32.39596 4.00029
4.00028 32.48103 4.00029

