Angle 0.462442 5.917329

4.00000 7.03348 4.00000
4.00000 7.03348 4.00000
4.00000 7.03348 4.00000
4.00000 7.03348 4.00000
4.00000 7.03348 4.00000
4.00000 7.03348 4.00000
4.00000 7.03348 4.00000
4.00000 7.03348 4.00000
4.00000 7.03348 4.00000
4.00000 7.03348 4.00000
4.00000 7.03348 4.00000
4.00000 7.03348 4.00000
4.00000 7.03348 4.00000
4.00000 7.03348 4.00000
4.00000 7.03348 4.00000
4.00000 7.03348 4.00000
4.00000 7.03348 4.00000
4.00000 7.03348 4.00000
4.00000 7.03348 4.00000
4.00000 7.03348 4.00000
4.00000 7.03348 4.00000
4.00000 7.03348 4.00000
4.00000 7.03348 4.00000
4.00000 7.03348 4.00000
4.00000 7.03348 4.00000
4.00000 7.03348 4.00000
4.00000 7.03348 4.00000
4.00000 7.03348 4.00000
4.00000 7.03348 4.00000
4.00000 7.03348 4.00000
4.00000 7.03348 4.00000
4.00000 7.03348 4.00000
4.00000 7.03348 4.00000
4.00000 7.03348 4.00000
4.00000 7.03348 4.00000
4.00000 7.03348 4.00000
4.00000 7.03348 4.00000
4.00000 7.03348 4.00000
4.00000 7.03348 4.00000
4.00000 7.03348 4.00000
4.00000 7.03348 4.00000
4.00000 7.03348 4.00000
4.00000 7.03348 4.00000
4.00000 7.03348 4.00000
4.00000 7.03348 4.00000
4.00000 7.03348 4.00000
4.00000 7.03348 4.00000
4.00000 7.03348 4.00000
4.00000 7.03348 4.00000
4.00000 7.03348 4.00000
4.00000 7.03348 4.00000
4.00000 7.03348 4.00000
4.00000 7.03348 4.00000
4.00000 7.03348 4.00000
4.00000 7.03348 4.00000
4.00000 7.03348 4.00000
4.00000 7.03348 4.00000
4.00000 7.03348 4.00000
4.00000 7.03348 4.00000
4.00000 7.03348 4.00000
4.00000 7.03348 4.00000
4.00000 7.03348 4.00000
4.00000 7.03348 4.00000
4.00000 7.03348 4.00000
4.00000 7.03348 4.00000
4.00000 7.03348 4.00000
4.00000 7.03348 4.00000
4.00000 7.03348 4.00000
4.00000 7.03348 4.00000
4.00000 7.03348 4.00000
4.00000 7.03348 4.00000
4.00000 7.03348 4.00000
4.00000 7.03348 4.00000
4.00000 7.03348 4.00000
4.00000 7.03348 4.00000
4.00000 7.03348 4.00000
4.00000 7.03348 4.00000
4.00000 7.03348 4.00000
4.00000 7.03347 4.00000
4.00000 7.03348 4.00000
4.00000 7.03348 4.00000
4.00000 7.03348 4.00000
4.00000 7.03348 4.00000
4.00000 7.03348 4.00000
4.00000 7.03348 4.00000
4.00000 7.03348 4.00000
4.00000 7.03348 4.00000
4.00000 7.03348 4.00000
4.00000 7.03348 4.00000
4.00000 7.03348 4.00000
4.00000 7.03348 4.00000
4.00000 7.03348 4.00000
4.00000 7.03348 4.00000
4.00000 7.03348 4.00000
4.00000 7.03348 4.00000
4.00000 7.03348 4.00000
4.00000 7.03348 4.00000
4.00000 7.03348 4.00000
4.00000 7.03348 4.00000
4.00000 7.03348 4.00000
4.00000 7.03348 4.00000
4.00000 7.03348 4.00000
4.00000 7.03348 4.00000
4.00000 7.03348 4.00000
4.00000 7.03348 4.00000
4.00000 7.03348 4.00000
4.00000 7.03348 4.00000
4.00000 7.03348 4.00000
4.00000 7.03348 4.00000
4.00000 7.03348 4.00000
4.00000 7.03348 4.00000
4.00000 7.03348 4.00000
4.00000 7.03351 4.00000
4.00000 7.03348 4.00000
4.00000 7.03349 4.00000
4.00000 7.03348 4.00000
4.00000 7.03348 4.00000
4.00000 7.03348 4.00000
4.00000 7.03348 4.00000
4.00000 7.03348 4.00000
4.00129 7.07747 4.00129
4.00353 7.15548 4.00353
4.00572 7.23368 4.00572
4.00787 7.31204 4.00787
4.01000 7.39055 4.01000
4.01210 7.46918 4.01210
4.01420 7.54791 4.01420
4.01631 7.62672 4.01631
4.01842 7.70560 4.01842
4.02055 7.78451 4.02055
4.02272 7.86344 4.02272
4.02494 7.94235 4.02493
4.02721 8.02122 4.02721
4.02956 8.10001 4.02956
4.03202 8.17868 4.03202
4.03459 8.25718 4.03459
4.03731 8.33545 4.03731
4.04022 8.41342 4.04022
4.04336 8.49101 4.04336
4.04678 8.56810 4.04678
4.05057 8.64453 4.05057
4.05477 8.72019 4.05477
4.05936 8.79515 4.05936
4.06436 8.86935 4.06436
4.06980 8.94274 4.06980
4.07570 9.01527 4.07570
4.08209 9.08689 4.08209
4.08897 9.15760 4.08897
4.09633 9.22739 4.09633
4.10415 9.29634 4.10415
4.11237 9.36453 4.11237
4.12092 9.43213 4.12092
4.12967 9.49939 4.12967
4.13844 9.56665 4.13844
4.14703 9.63436 4.14703
4.15513 9.70308 4.15513
4.16239 9.77353 4.16239
4.16840 9.84656 4.16839
4.17267 9.92310 4.17267
4.17474 10.00409 4.17474
4.17429 10.09018 4.17429
4.17234 10.17933 4.17234
4.16977 10.26975 4.16977
4.16662 10.36140 4.16662
4.16290 10.45423 4.16290
4.15860 10.54826 4.15860
4.15371 10.64354 4.15371
4.14817 10.74014 4.14817
4.14193 10.83821 4.14193
4.13488 10.93793 4.13488
4.12688 11.03959 4.12688
4.11774 11.14359 4.11774
4.10715 11.25053 4.10715
4.09463 11.36137 4.09463
4.07940 11.47767 4.07940
4.06038 11.60160 4.06038
4.03535 11.73760 4.03535
4.00000 13.19120 4.00000
4.00000 13.19120 4.00000
4.00000 13.19120 4.00000
4.00000 13.19120 4.00000
4.00000 13.19119 4.00000
4.00000 13.19120 4.00000
4.00000 13.19120 4.00000
4.00000 13.19120 4.00000
4.00000 13.19120 4.00000
4.00000 13.19120 4.00000
4.00000 13.19120 4.00000
4.00000 13.19120 4.00000
4.00000 13.19120 4.00000
4.00000 13.19120 4.00000
4.00000 13.19120 4.00000
4.00000 13.19120 4.00000
4.01058 13.25381 4.01058
4.01958 13.32239 4.01958
4.02666 13.39487 4.02666
4.03186 13.47113 4.03186
4.03526 13.55100 4.03526
4.03711 13.63404 4.03711
4.03862 13.71776 4.03862
4.04010 13.80160 4.04010
4.04154 13.88553 4.04154
4.04295 13.96956 4.04295
4.04433 14.05367 4.04433
4.04569 14.13785 4.04569
4.04703 14.22210 4.04703
4.04835 14.30642 4.04835
4.04966 14.39080 4.04966
4.05095 14.47524 4.05095
4.05223 14.55973 4.05223
4.05349 14.64427 4.05349
4.05475 14.72886 4.05475
4.05600 14.81349 4.05600
4.05724 14.89817 4.05724
4.05847 14.98288 4.05847
4.05970 15.06764 4.05970
4.06085 15.15257 4.06085
4.06179 15.23794 4.06179
4.06253 15.32373 4.06253
4.06309 15.40992 4.06309
4.06348 15.49649 4.06348
4.06370 15.58340 4.06370
4.06377 15.67063 4.06377
4.06371 15.75817 4.06371
4.06351 15.84598 4.06351
4.06320 15.93405 4.06320
4.06279 16.02235 4.06279
4.06228 16.11087 4.06228
4.06168 16.19958 4.06168
4.06101 16.28846 4.06101
4.06027 16.37751 4.06027
4.05947 16.46670 4.05947
4.05861 16.55602 4.05861
4.05771 16.64544 4.05771
4.05677 16.73497 4.05677
4.05580 16.82459 4.05580
4.05479 16.91429 4.05479
4.05377 17.00405 4.05377
4.05272 17.09386 4.05272
4.05167 17.18373 4.05167
4.05060 17.27364 4.05060
4.04952 17.36358 4.04952
4.04844 17.45354 4.04844
4.04737 17.54353 4.04737
4.04629 17.63353 4.04629
4.04521 17.72354 4.04521
4.04415 17.81356 4.04415
4.04309 17.90358 4.04309
4.04204 17.99360 4.04204
4.04100 18.08362 4.04100
4.03998 18.17363 4.03998
4.03896 18.26362 4.03896
4.03797 18.35361 4.03797
4.03698 18.44358 4.03698
4.03602 18.53354 4.03602
4.03507 18.62348 4.03507
4.03414 18.71341 4.03414
4.03322 18.80332 4.03322
4.03232 18.89320 4.03232
4.03145 18.98307 4.03145
4.03058 19.07292 4.03058
4.02974 19.16274 4.02974
4.02892 19.25255 4.02892
4.02811 19.34233 4.02811
4.02733 19.43209 4.02733
4.02656 19.52184 4.02656
4.02581 19.61156 4.02581
4.02507 19.70126 4.02507
4.02436 19.79094 4.02436
4.02366 19.88059 4.02366
4.02298 19.97023 4.02298
4.02232 20.05985 4.02232
4.02167 20.14945 4.02167
4.02104 20.23903 4.02104
4.02043 20.32859 4.02043
4.01983 20.41813 4.01983
4.01925 20.50766 4.01925
4.01869 20.59717 4.01869
4.01814 20.68666 4.01814
4.01760 20.77613 4.01760
4.01708 20.86559 4.01708
4.01658 20.95504 4.01658
4.01609 21.04447 4.01608
4.01561 21.13388 4.01561
4.01514 21.22328 4.01514
4.01469 21.31267 4.01469
4.01425 21.40204 4.01425
4.01382 21.49140 4.01382
4.01341 21.58075 4.01341
4.01301 21.67009 4.01301
4.01261 21.75942 4.01261
4.01223 21.84874 4.01223
4.01186 21.93805 4.01186
4.01151 22.02734 4.01151
4.01116 22.11663 4.01116
4.01082 22.20591 4.01082
4.01049 22.29519 4.01049
4.01017 22.38445 4.01017
4.00986 22.47371 4.00986
4.00956 22.56296 4.00956
4.00927 22.65220 4.00927
4.00899 22.74144 4.00899
4.00872 22.83067 4.00872
4.00845 22.91990 4.00845
4.00819 23.00912 4.00819
4.00794 23.09834 4.00794
4.00770 23.18755 4.00770
4.00746 23.27676 4.00746
4.00723 23.36596 4.00723
4.00701 23.45517 4.00701
4.00680 23.54436 4.00680
4.00659 23.63356 4.00659
4.00638 23.72275 4.00638
4.00619 23.81194 4.00619
4.00600 23.90113 4.00600
4.00581 23.99032 4.00581
4.00563 24.07951 4.00563
4.00546 24.16869 4.00546
4.00529 24.25787 4.00529
4.00513 24.34706 4.00513
4.00497 24.43624 4.00497
4.00482 24.52542 4.00482
4.00467 24.61460 4.00467
4.00452 24.70379 4.00452
4.00438 24.79297 4.00438
4.00425 24.88215 4.00425
4.00412 24.97134 4.00412
4.00399 25.06052 4.00399
4.00387 25.14971 4.00387
4.00375 25.23889 4.00375
4.00363 25.32808 4.00363
4.00352 25.41727 4.00352
4.00341 25.50646 4.00341
4.00330 25.59566 4.00330
4.00320 25.68485 4.00320
4.00310 25.77405 4.00310
4.00300 25.86325 4.00300
4.00291 25.95245 4.00291
4.00282 26.04165 4.00282
4.00273 26.13086 4.00273
4.00265 26.22007 4.00265
4.00256 26.30928 4.00257
4.00248 26.39850 4.00248
4.00241 26.48771 4.00241
4.00233 26.57694 4.00233
4.00226 26.66616 4.00226
4.00219 26.75539 4.00219
4.00212 26.84462 4.00212
4.00205 26.93385 4.00205
4.00199 27.02309 4.00199
4.00193 27.11233 4.00193
4.00187 27.20157 4.00187
4.00181 27.29082 4.00181
4.00175 27.38007 4.00175
4.00170 27.46933 4.00170
4.00165 27.55858 4.00165
4.00159 27.64785 4.00160
4.00154 27.73711 4.00154
4.00150 27.82638 4.00150
4.00145 27.91566 4.00145
4.00140 28.00493 4.00141
4.00136 28.09422 4.00136
4.00132 28.18350 4.00132
4.00128 28.27279 4.00128
4.00124 28.36209 4.00124
4.00120 28.45139 4.00120
4.00116 28.54069 4.00116
4.00112 28.63000 4.00113
4.00109 28.71931 4.00109
4.00106 28.80862 4.00105
4.00102 28.89794 4.00102
4.00099 28.98727 4.00099
4.00096 29.07660 4.00096
4.00093 29.16593 4.00093
4.00090 29.25527 4.00090
4.00087 29.34461 4.00087
4.00084 29.43395 4.00084
4.00082 29.52330 4.00082
4.00079 29.61266 4.00079
4.00077 29.70202 4.00077
4.00074 29.79138 4.00074
4.00072 29.88075 4.00072
4.00070 29.97012 4.00070
4.00068 30.05950 4.00068
4.00066 30.14888 4.00066
4.00063 30.23826 4.00063
4.00061 30.32765 4.00061
4.00060 30.41705 4.00059
4.00058 30.50645 4.00058
4.00056 30.59585 4.00056
4.00054 30.68526 4.00054
4.00052 30.77467 4.00052
4.00051 30.86409 4.00051
4.00049 30.95351 4.00049
4.00048 31.04293 4.00048
4.00046 31.13236 4.00046
4.00045 31.22180 4.00045
4.00043 31.31124 4.00043
4.00042 31.40068 4.00042
4.00041 31.49013 4.00041

Angle 0.361027 1.470073

4.00000 7.03348 4.00000
4.00000 7.03348 4.00000
4.00000 7.03348 4.00000
4.00000 7.03348 4.00000
4.00000 7.03348 4.00000
4.00000 7.03348 4.00000
4.00000 7.03348 4.00000
4.00000 7.03348 4.00000
4.00000 7.03348 4.00000
4.00000 7.03348 4.00000
4.00000 7.03348 4.00000
4.00000 7.03348 4.00000
4.00000 7.03348 4.00000
4.00000 7.03348 4.00000
4.00000 7.03348 4.00000
4.00000 7.03348 4.00000
4.00000 7.03347 4.00000
4.00000 7.03348 4.00000
4.00000 7.03348 4.00000
4.00000 7.03348 4.00000
4.00000 7.03348 4.00000
4.00000 7.03348 4.00000
4.00000 7.03348 4.00000
4.00000 7.03348 4.00000
4.00000 7.03348 4.00000
4.00000 7.03348 4.00000
4.00000 7.03348 4.00000
4.00000 7.03347 4.00000
4.00000 7.03347 4.00000
4.00000 7.03347 4.00000
4.00000 7.03347 4.00000
4.00000 7.03347 4.00000
4.00000 7.03348 4.00000
4.00000 7.03348 4.00000
4.00000 7.03347 4.00000
4.00000 7.03347 4.00000
4.00000 7.03347 4.00000
4.00000 7.03347 4.00000
4.00000 7.03347 4.00000
4.00000 7.03347 4.00000
4.00000 7.03348 4.00000
4.00000 7.03348 4.00000
4.00000 7.03348 4.00000
4.00000 7.03348 4.00000
4.00000 7.03348 4.00000
4.00000 7.03348 4.00000
4.00000 7.03348 4.00000
4.00000 7.03348 4.00000
4.00000 7.03348 4.00000
4.00000 7.03348 4.00000
4.00000 7.03348 4.00000
4.00000 7.03348 4.00000
4.00000 7.03348 4.00000
4.00000 7.03348 4.00000
4.00000 7.03348 4.00000
4.00000 7.03348 4.00000
4.00000 7.03348 4.00000
4.00000 7.03348 4.00000
4.00000 7.03348 4.00000
4.00000 7.03348 4.00000
4.00000 7.03348 4.00000
4.00000 7.03348 4.00000
4.00000 7.03348 4.00000
4.00000 7.03348 4.00000
4.00000 7.03348 4.00000
4.00000 7.03348 4.00000
4.00000 7.03348 4.00000
4.00000 7.03348 4.00000
4.00000 7.03348 4.00000
4.00000 7.03348 4.00000
4.00000 7.03348 4.00000
4.00000 7.03348 4.00000
4.00000 7.03348 4.00000
4.00000 7.03348 4.00000
4.00000 7.03348 4.00000
4.00000 7.03348 4.00000
4.00000 7.03348 4.00000
4.00000 7.03348 4.00000
4.00000 7.03348 4.00000
4.00000 7.03348 4.00000
4.00000 7.03348 4.00000
4.00000 7.03348 4.00000
4.00000 7.03348 4.00000
4.00000 7.03348 4.00000
4.00000 7.03348 4.00000
4.00000 7.03348 4.00000
4.00000 7.03348 4.00000
4.00000 7.03348 4.00000
4.00000 7.03348 4.00000
4.00000 7.03348 4.00000
4.00000 7.03348 4.00000
4.00000 7.03348 4.00000
4.00000 7.03348 4.00000
4.00000 7.03348 4.00000
4.00000 7.03348 4.00000
4.00000 7.03348 4.00000
4.00000 7.03348 4.00000
4.00000 7.03348 4.00000
4.00000 7.03348 4.00000
4.00000 7.03348 4.00000
4.00000 7.03348 4.00000
4.00000 7.03348 4.00000
4.00000 7.03348 4.00000
4.00000 7.03348 4.00000
4.00000 7.03348 4.00000
4.00000 7.03348 4.00000
4.00000 7.03348 4.00000
4.00000 7.03348 4.00000
4.00000 7.03348 4.00000
4.00000 7.03349 4.00000
4.00000 7.03348 4.00000
4.00000 7.03348 4.00000
4.00000 7.03348 4.00000
4.00000 7.03348 4.00000
4.00000 7.03348 4.00000
4.00000 7.03348 4.00000
4.00000 7.03348 4.00000
4.00000 7.03348 4.00000
4.00000 7.03348 4.00000
4.00000 7.03348 4.00000
4.00000 7.03348 4.00000
4.00000 7.03348 4.00000
4.00000 7.03348 4.00000
4.00000 7.03348 4.00000
4.00000 7.03348 4.00000
4.00000 7.03348 4.00000
4.00000 7.03348 4.00000
4.00000 7.03348 4.00000
4.00000 7.03348 4.00000
4.00000 7.03348 4.00000
4.00000 7.03348 4.00000
4.00000 7.03348 4.00000
4.00000 7.03348 4.00000
4.00000 7.03348 4.00000
4.00000 7.03348 4.00000
4.00000 7.03348 4.00000
4.00000 7.03348 4.00000
4.00000 7.03348 4.00000
4.00000 7.03348 4.00000
4.00000 7.03348 4.00000
4.00000 7.03348 4.00000
4.00000 7.03348 4.00000
4.00000 7.03348 4.00000
4.00000 7.03348 4.00000
4.00000 7.03348 4.00000
4.00000 7.03348 4.00000
4.00000 7.03348 4.00000
4.00000 7.03348 4.00000
4.00000 7.03348 4.00000
4.00000 7.03348 4.00000
4.00000 7.03348 4.00000
4.00000 7.03348 4.00000
4.00000 7.03348 4.00000
4.00000 7.03348 4.00000
4.00000 7.03348 4.00000
4.00000 7.03348 4.00000
4.00000 7.03348 4.00000
4.00000 7.03348 4.00000
4.00000 7.03348 4.00000
4.00000 7.03348 4.00000
4.00000 7.03348 4.00000
4.00000 7.03348 4.00000
4.00000 7.03348 4.00000
4.00000 7.03348 4.00000
4.00000 7.03348 4.00000
4.00174 7.09311 4.00174
4.00348 7.15392 4.00348
4.00520 7.21504 4.00520
4.00690 7.27646 4.00690
4.00858 7.33817 4.00858
4.01025 7.40016 4.01025
4.01192 7.46241 4.01192
4.01359 7.52492 4.01359
4.01526 7.58766 4.01526
4.01694 7.65064 4.01694
4.01864 7.71382 4.01864
4.02035 7.77721 4.02035
4.02209 7.84077 4.02209
4.02387 7.90451 4.02387
4.02568 7.96839 4.02568
4.02754 8.03241 4.02754
4.02946 8.09653 4.02946
4.03145 8.16073 4.03145
4.03352 8.22499 4.03352
4.03568 8.28927 4.03568
4.03797 8.35353 4.03797
4.04039 8.41773 4.04039
4.04297 8.48180 4.04297
4.04575 8.54569 4.04575
4.04877 8.60931 4.04877
4.05207 8.67254 4.05208
4.05567 8.73541 4.05567
4.05954 8.79791 4.05954
4.06371 8.86001 4.06371
4.06819 8.92167 4.06819
4.07300 8.98286 4.07300
4.07816 9.04354 4.07816
4.08367 9.10369 4.08367
4.08955 9.16330 4.08955
4.09578 9.22238 4.09578
4.10236 9.28094 4.10236
4.10925 9.33905 4.10925
4.11641 9.39679 4.11641
4.12378 9.45428 4.12378
4.13128 9.51169 4.13128
4.13878 9.56925 4.13878
4.14615 9.62725 4.14615
4.15320 9.68604 4.15320
4.15971 9.74606 4.15971
4.16543 9.80784 4.16543
4.17005 9.87195 4.17005
4.17327 9.93903 4.17327
4.17479 10.00967 4.17479
4.17440 10.08428 4.17440
4.17278 10.16149 4.17278
4.17068 10.23980 4.17068
4.16814 10.31915 4.16814
4.16516 10.39953 4.16516
4.16173 10.48092 4.16173
4.15786 10.56335 4.15786
4.15353 10.64685 4.15353
4.14869 10.73148 4.14869
4.14331 10.81734 4.14331
4.13732 10.90456 4.13732
4.13063 10.99330 4.13063
4.12313 11.08380 4.12313
4.11463 11.17642 4.11463
4.10490 11.27164 4.10490
4.09356 11.37019 4.09356
4.08002 11.47326 4.08002
4.06355 11.58233 4.06355
4.04273 11.70022 4.04273
4.01434 11.83337 4.01434
4.00000 13.19120 4.00000
4.00000 13.19120 4.00000
4.00000 13.19120 4.00000
4.00000 13.19120 4.00000
4.00000 13.19120 4.00000
4.00000 13.19120 4.00000
4.00000 13.19120 4.00000
4.00000 13.19120 4.00000
4.00000 13.19120 4.00000
4.00000 13.19120 4.00000
4.00000 13.19120 4.00000
4.00000 13.19120 4.00000
4.00000 13.19120 4.00000
4.00000 13.19120 4.00000
4.00000 13.19120 4.00000
4.00000 13.19120 4.00000
4.00000 13.19120 4.00000
4.00831 13.23910 4.00831
4.01694 13.30025 4.01694
4.02398 13.36467 4.02398
4.02947 13.43230 4.02947
4.03345 13.50304 4.03345
4.03598 13.57676 4.03598
4.03745 13.65270 4.03745
4.03882 13.72892 4.03882
4.04016 13.80530 4.04016
4.04147 13.88182 4.04148
4.04276 13.95848 4.04276
4.04403 14.03527 4.04403
4.04528 14.11218 4.04528
4.04651 14.18921 4.04651
4.04773 14.26635 4.04773
4.04893 14.34361 4.04893
4.05012 14.42097 4.05012
4.05130 14.49844 4.05130
4.05247 14.57600 4.05247
4.05363 14.65366 4.05363
4.05479 14.73142 4.05479
4.05594 14.80926 4.05594
4.05708 14.88720 4.05708
4.05821 14.96522 4.05821
4.05935 15.04333 4.05935
4.06045 15.12157 4.06045
4.06140 15.20019 4.06140
4.06217 15.27924 4.06217
4.06278 15.35868 4.06278
4.06324 15.43851 4.06324
4.06355 15.51870 4.06355
4.06372 15.59923 4.06372
4.06377 15.68009 4.06377
4.06370 15.76125 4.06370
4.06352 15.84269 4.06352
4.06324 15.92440 4.06324
4.06287 16.00637 4.06287
4.06242 16.08857 4.06242
4.06188 16.17099 4.06188
4.06128 16.25361 4.06128
4.06062 16.33642 4.06062
4.05990 16.41940 4.05990
4.05913 16.50255 4.05913
4.05832 16.58585 4.05832
4.05746 16.66929 4.05746
4.05658 16.75286 4.05658
4.05566 16.83654 4.05566
4.05472 16.92034 4.05473
4.05377 17.00423 4.05377
4.05279 17.08822 4.05279
4.05180 17.17229 4.05180
4.05080 17.25643 4.05080
4.04980 17.34065 4.04980
4.04879 17.42493 4.04879
4.04778 17.50928 4.04778
4.04676 17.59368 4.04676
4.04575 17.67812 4.04576
4.04475 17.76262 4.04475
4.04375 17.84715 4.04375
4.04276 17.93173 4.04276
4.04178 18.01634 4.04178
4.04080 18.10099 4.04080
4.03984 18.18566 4.03984
4.03889 18.27036 4.03889
4.03795 18.35509 4.03795
4.03702 18.43984 4.03702
4.03611 18.52462 4.03611
4.03522 18.60941 4.03522
4.03433 18.69423 4.03433
4.03347 18.77906 4.03347
4.03261 18.86391 4.03261
4.03178 18.94878 4.03178
4.03096 19.03366 4.03096
4.03015 19.11855 4.03015
4.02937 19.20346 4.02937
4.02859 19.28839 4.02859
4.02784 19.37333 4.02784
4.02710 19.45828 4.02710
4.02638 19.54324 4.02638
4.02567 19.62821 4.02567
4.02498 19.71320 4.02498
4.02430 19.79820 4.02430
4.02364 19.88321 4.02364
4.02300 19.96824 4.02300
4.02237 20.05327 4.02237
4.02175 20.13832 4.02175
4.02115 20.22338 4.02115
4.02057 20.30845 4.02057
4.02000 20.39353 4.02000
4.01944 20.47863 4.01944
4.01890 20.56373 4.01890
4.01837 20.64885 4.01837
4.01785 20.73399 4.01785
4.01735 20.81913 4.01735
4.01686 20.90429 4.01686
4.01639 20.98946 4.01639
4.01592 21.07464 4.01592
4.01547 21.15984 4.01547
4.01503 21.24505 4.01503
4.01460 21.33028 4.01460
4.01418 21.41552 4.01418
4.01378 21.50077 4.01378
4.01338 21.58604 4.01338
4.01300 21.67132 4.01300
4.01263 21.75662 4.01263
4.01226 21.84193 4.01226
4.01191 21.92726 4.01191
4.01156 22.01260 4.01156
4.01123 22.09796 4.01123
4.01090 22.18333 4.01090
4.01059 22.26872 4.01059
4.01028 22.35412 4.01028
4.00998 22.43954 4.00998
4.00969 22.52498 4.00969
4.00941 22.61044 4.00941
4.00913 22.69591 4.00913
4.00887 22.78139 4.00887
4.00861 22.86690 4.00861
4.00835 22.95242 4.00835
4.00811 23.03796 4.00811
4.00787 23.12351 4.00787
4.00764 23.20908 4.00764
4.00742 23.29467 4.00742
4.00720 23.38028 4.00720
4.00699 23.46591 4.00699
4.00678 23.55156 4.00678
4.00658 23.63721 4.00658
4.00638 23.72289 4.00638
4.00619 23.80859 4.00619
4.00601 23.89430 4.00601
4.00583 23.98004 4.00583
4.00566 24.06578 4.00566
4.00549 24.15155 4.00549
4.00533 24.23734 4.00533
4.00517 24.32315 4.00517
4.00502 24.40897 4.00502
4.00487 24.49481 4.00487
4.00472 24.58067 4.00472
4.00458 24.66655 4.00458
4.00445 24.75245 4.00445
4.00431 24.83836 4.00432
4.00418 24.92430 4.00419
4.00406 25.01026 4.00406
4.00394 25.09623 4.00394
4.00382 25.18222 4.00382
4.00371 25.26822 4.00371
4.00360 25.35425 4.00360
4.00349 25.44030 4.00349
4.00338 25.52637 4.00338
4.00328 25.61245 4.00328

Angle 0.245865 4.183198

4.00000 7.03348 4.00000
4.00000 7.03348 4.00000
4.00000 7.03348 4.00000
4.00000 7.03348 4.00000
4.00000 7.03348 4.00000
4.00000 7.03348 4.00000
4.00000 7.03348 4.00000
4.00000 7.03348 4.00000
4.00000 7.03348 4.00000
4.00000 7.03348 4.00000
4.00000 7.03348 4.00000
4.00000 7.03348 4.00000
4.00000 7.03348 4.00000
4.00000 7.03348 4.00000
4.00000 7.03348 4.00000
4.00000 7.03348 4.00000
4.00000 7.03348 4.00000
4.00000 7.03348 4.00000
4.00000 7.03348 4.00000
4.00000 7.03348 4.00000
4.00000 7.03348 4.00000
4.00000 7.03348 4.00000
4.00000 7.03348 4.00000
4.00000 7.03348 4.00000
4.00000 7.03348 4.00000
4.00000 7.03348 4.00000
4.00000 7.03348 4.00000
4.00000 7.03348 4.00000
4.00000 7.03348 4.00000
4.00000 7.03348 4.00000
4.00000 7.03348 4.00000
4.00000 7.03348 4.00000
4.00000 7.03348 4.00000
4.00000 7.03348 4.00000
4.00000 7.03348 4.00000
4.00000 7.03348 4.00000
4.00000 7.03348 4.00000
4.00000 7.03348 4.00000
4.00000 7.03348 4.00000
4.00000 7.03348 4.00000
4.00000 7.03348 4.00000
4.00000 7.03348 4.00000
4.00000 7.03348 4.00000
4.00000 7.03348 4.00000
4.00000 7.03348 4.00000
4.00000 7.03348 4.00000
4.00000 7.03348 4.00000
4.00000 7.03348 4.00000
4.00000 7.03348 4.00000
4.00000 7.03348 4.00000
4.00000 7.03348 4.00000
4.00000 7.03348 4.00000
4.00000 7.03348 4.00000
4.00000 7.03348 4.00000
4.00000 7.03348 4.00000
4.00000 7.03348 4.00000
4.00000 7.03348 4.00000
4.00000 7.03348 4.00000
4.00000 7.03348 4.00000
4.00000 7.03348 4.00000
4.00000 7.03348 4.00000
4.00000 7.03348 4.00000
4.00000 7.03348 4.00000
4.00000 7.03348 4.00000
4.00000 7.03348 4.00000
4.00000 7.03348 4.00000
4.00000 7.03348 4.00000
4.00000 7.03349 4.00000
4.00000 7.03349 4.00000
4.00000 7.03348 4.00000
4.00000 7.03348 4.00000
4.00000 7.03351 4.00000
4.00000 7.03351 4.00000
4.00000 7.03348 4.00000
4.00000 7.03348 4.00000
4.00000 7.03348 4.00000
4.00000 7.03349 4.00000
4.00000 7.03348 4.00000
4.00000 7.03350 4.00000
4.00018 7.03978 4.00019
4.00141 7.08159 4.00141
4.00262 7.12384 4.00262
4.00384 7.16651 4.00384
4.00505 7.20959 4.00505
4.00625 7.25307 4.00625
4.00746 7.29696 4.00746
4.00866 7.34124 4.00866
4.00987 7.38590 4.00987
4.01108 7.43095 4.01108
4.01230 7.47637 4.01230
4.01352 7.52216 4.01352
4.01475 7.56831 4.01475
4.01599 7.61481 4.01599
4.01724 7.66166 4.01724
4.01851 7.70885 4.01851
4.01979 7.75636 4.01979
4.02109 7.80420 4.02109
4.02241 7.85235 4.02241
4.02376 7.90080 4.02376
4.02514 7.94954 4.02514
4.02655 7.99857 4.02655
4.02800 8.04786 4.02800
4.02948 8.09740 4.02948
4.03102 8.14719 4.03102
4.03261 8.19721 4.03261
4.03426 8.24743 4.03426
4.03598 8.29784 4.03598
4.03778 8.34841 4.03778
4.03967 8.39912 4.03967
4.04166 8.44994 4.04166
4.04378 8.50083 4.04378
4.04603 8.55176 4.04603
4.04844 8.60267 4.04844
4.05104 8.65351 4.05104
4.05385 8.70424 4.05385
4.05684 8.75490 4.05684
4.06003 8.80546 4.06003
4.06342 8.85591 4.06342
4.06703 8.90621 4.06703
4.07087 8.95633 4.07087
4.07494 9.00627 4.07494
4.07927 9.05599 4.07927
4.08384 9.10548 4.08384
4.08868 9.15473 4.08868
4.09377 9.20373 4.09377
4.09912 9.25250 4.09912
4.10470 9.30106 4.10470
4.11051 9.34942 4.11051
4.11652 9.39766 4.11652
4.12269 9.44584 4.12269
4.12897 9.49405 4.12897
4.13529 9.54241 4.13529
4.14159 9.59109 4.14159
4.14775 9.64028 4.14776
4.15367 9.69020 4.15368
4.15921 9.74114 4.15921
4.16420 9.79341 4.16420
4.16845 9.84738 4.16845
4.17178 9.90345 4.17178
4.17398 9.96200 4.17398
4.17487 10.02341 4.17487
4.17433 10.08789 4.17433
4.17295 10.15430 4.17295
4.17121 10.22164 4.17121
4.16913 10.28989 4.16913
4.16671 10.35902 4.16671
4.16396 10.42904 4.16396
4.16088 10.49994 4.16088
4.15745 10.57174 4.15745
4.15366 10.64448 4.15366
4.14948 10.71819 4.14948
4.14489 10.79294 4.14489
4.13984 10.86881 4.13984
4.13428 10.94591 4.13428
4.12814 11.02438 4.12814
4.12131 11.10440 4.12131
4.11368 11.18624 4.11368
4.10505 11.27026 4.10505
4.09516 11.35698 4.09516
4.08362 11.44721 4.08362
4.06994 11.54189 4.06994
4.05334 11.64260 4.05335
4.03231 11.75236 4.03231
4.00326 11.87835 4.00326
4.00000 13.19120 4.00000
4.00000 13.19120 4.00000
4.00000 13.19120 4.00000
4.00000 13.19120 4.00000
4.00000 13.19120 4.00000
4.00000 13.19120 4.00000
4.00000 13.19120 4.00000
4.00000 13.19120 4.00000
4.00000 13.19120 4.00000
4.00000 13.19120 4.00000
4.00000 13.19120 4.00000
4.00000 13.19120 4.00000
4.00000 13.19120 4.00000
4.00000 13.19120 4.00000
4.00000 13.19120 4.00000
4.00000 13.19120 4.00000
4.00000 13.19120 4.00000
4.00000 13.19120 4.00000
4.00212 13.20262 4.00212
4.01093 13.25615 4.01093
4.01843 13.31246 4.01843
4.02462 13.37151 4.02462
4.02954 13.43328 4.02954
4.03320 13.49768 4.03320
4.03566 13.56464 4.03566
4.03710 13.63378 4.03710
4.03837 13.70341 4.03837
4.03960 13.77322 4.03960
4.04082 13.84323 4.04082
4.04201 13.91340 4.04201
4.04318 13.98375 4.04318
4.04434 14.05426 4.04434
4.04548 14.12493 4.04548
4.04661 14.19576 4.04661
4.04773 14.26674 4.04773
4.04884 14.33787 4.04884
4.04994 14.40913 4.04994
4.05103 14.48054 4.05103
4.05211 14.55209 4.05211
4.05319 14.62378 4.05319
4.05426 14.69560 4.05426
4.05532 14.76754 4.05532
4.05638 14.83962 4.05638
4.05744 14.91182 4.05744
4.05849 14.98414 4.05849
4.05954 15.05659 4.05954
4.06055 15.12921 4.06055
4.06142 15.20224 4.06142
4.06214 15.27568 4.06214
4.06272 15.34951 4.06272
4.06317 15.42372 4.06317
4.06348 15.49829 4.06348
4.06368 15.57321 4.06368
4.06377 15.64846 4.06377
4.06375 15.72403 4.06375
4.06363 15.79990 4.06363
4.06342 15.87605 4.06342
4.06313 15.95248 4.06313
4.06275 16.02916 4.06275
4.06231 16.10609 4.06231
4.06180 16.18325 4.06180
4.06123 16.26063 4.06123
4.06060 16.33822 4.06060
4.05993 16.41600 4.05993
4.05921 16.49396 4.05921
4.05845 16.57210 4.05845
4.05766 16.65040 4.05766
4.05684 16.72886 4.05684
4.05599 16.80747 4.05598
4.05511 16.88621 4.05511
4.05422 16.96508 4.05422
4.05331 17.04408 4.05331
4.05238 17.12319 4.05238
4.05145 17.20242 4.05145
4.05050 17.28174 4.05050
4.04955 17.36117 4.04955
4.04860 17.44069 4.04860
4.04764 17.52029 4.04764
4.04669 17.59998 4.04669
4.04574 17.67975 4.04574
4.04479 17.75960 4.04479
4.04384 17.83952 4.04384
4.04290 17.91951 4.04290
4.04197 17.99956 4.04197
4.04105 18.07968 4.04105
4.04013 18.15986 4.04013
4.03923 18.24010 4.03923
4.03833 18.32039 4.03833
4.03745 18.40074 4.03745
4.03658 18.48114 4.03658
4.03572 18.56159 4.03572
4.03487 18.64210 4.03487
4.03404 18.72265 4.03404
4.03322 18.80324 4.03322
4.03242 18.88388 4.03242
4.03162 18.96457 4.03162
4.03085 19.04530 4.03085
4.03008 19.12607 4.03008
4.02933 19.20689 4.02934
4.02860 19.28774 4.02860
4.02788 19.36864 4.02788
4.02717 19.44957 4.02717
4.02648 19.53055 4.02648
4.02581 19.61156 4.02581
4.02514 19.69261 4.02514
4.02449 19.77370 4.02449
4.02386 19.85483 4.02386
4.02324 19.93600 4.02324
4.02263 20.01720 4.02263
4.02204 20.09844 4.02204
4.02146 20.17971 4.02146
4.02089 20.26103 4.02089
4.02034 20.34238 4.02034
4.01980 20.42376 4.01980
4.01927 20.50518 4.01927
4.01875 20.58664 4.01875
4.01825 20.66813 4.01825
4.01776 20.74966 4.01776
4.01728 20.83122 4.01728
4.01681 20.91282 4.01681
4.01636 20.99445 4.01636
4.01591 21.07612 4.01591
4.01548 21.15783 4.01548
4.01506 21.23957 4.01506
4.01465 21.32134 4.01465
4.01424 21.40315 4.01424
4.01385 21.48500 4.01385
4.01347 21.56688 4.01347
4.01310 21.64879 4.01310
4.01274 21.73075 4.01274
4.01239 21.81273 4.01239
4.01204 21.89475 4.01204
4.01171 21.97681 4.01171
4.01138 22.05890 4.01138
4.01106 22.14102 4.01107
4.01075 22.22318 4.01076
4.01045 22.30538 4.01045
4.01016 22.38761 4.01016
4.00988 22.46988 4.00988
4.00960 22.55218 4.00960
4.00933 22.63451 4.00933
4.00907 22.71688 4.00907
4.00881 22.79928 4.00881
4.00856 22.88172 4.00856
4.00832 22.96419 4.00832
4.00808 23.04670 4.00809
4.00786 23.12924 4.00786
4.00763 23.21182 4.00763
4.00741 23.29443 4.00742
4.00720 23.37708 4.00720
4.00700 23.45975 4.00700
4.00680 23.54247 4.00680
4.00661 23.62522 4.00661
4.00642 23.70800 4.00642
4.00623 23.79081 4.00623
4.00605 23.87366 4.00606
4.00588 23.95654 4.00588
4.00571 24.03947 4.00571
4.00555 24.12241 4.00555
4.00539 24.20540 4.00539
4.00523 24.28842 4.00524
4.00508 24.37147 4.00509
4.00494 24.45455 4.00494
4.00479 24.53767 4.00480
4.00466 24.62082 4.00466
4.00452 24.70401 4.00452
4.00439 24.78722 4.00439
4.00427 24.87047 4.00426
4.00414 24.95375 4.00414
4.00402 25.03706 4.00402
4.00391 25.12041 4.00390
4.00379 25.20379 4.00379
4.00368 25.28720 4.00368
4.00358 25.37065 4.00357
4.00347 25.45412 4.00347
4.00337 25.53763 4.00337
4.00327 25.62117 4.00327
4.00318 25.70474 4.00318
4.00309 25.78834 4.00308
4.00299 25.87198 4.00299
4.00291 25.95564 4.00291
4.00282 26.03934 4.00282
4.00274 26.12307 4.00274
4.00266 26.20682 4.00266
4.00258 26.29061 4.00258
4.00251 26.37443 4.00251
4.00243 26.45828 4.00243
4.00236 26.54216 4.00236
4.00229 26.62608 4.00229
4.00222 26.71002 4.00222
4.00216 26.79399 4.00216
4.00210 26.87798 4.00210
4.00203 26.96202 4.00203
4.00197 27.04608 4.00197
4.00192 27.13017 4.00192
4.00186 27.21429 4.00186
4.00180 27.29844 4.00181
4.00175 27.38261 4.00175
4.00170 27.46682 4.00170
4.00165 27.55105 4.00165
4.00160 27.63531 4.00160
4.00155 27.71961 4.00155
4.00151 27.80393 4.00151
4.00146 27.88827 4.00146
4.00142 27.97265 4.00142
4.00138 28.05705 4.00138
4.00134 28.14149 4.00134
4.00130 28.22595 4.00130
4.00126 28.31043 4.00126
4.00122 28.39495 4.00122
4.00119 28.47949 4.00119
4.00115 28.56405 4.00115
4.00112 28.64865 4.00112
4.00109 28.73327 4.00108
4.00105 28.81792 4.00105
4.00102 28.90260 4.00102
4.00099 28.98730 4.00099
4.00096 29.07203 4.00096
4.00093 29.15678 4.00093
4.00091 29.24156 4.00090
4.00088 29.32637 4.00088
4.00085 29.41120 4.00085
4.00083 29.49605 4.00083
4.00080 29.58094 4.00080
4.00078 29.66584 4.00078
4.00075 29.75078 4.00075
4.00073 29.83573 4.00073
4.00071 29.92071 4.00071
4.00069 30.00572 4.00069
4.00067 30.09076 4.00067
4.00065 30.17581 4.00065
4.00063 30.26089 4.00063
4.00061 30.34599 4.00061
4.00059 30.43112 4.00059
4.00057 30.51627 4.00058
4.00056 30.60145 4.00056

Angle 0.407365 5.245045

4.00000 7.03348 4.00000
4.00000 7.03348 4.00000
4.00000 7.03348 4.00000
4.00000 7.03348 4.00000
4.00000 7.03348 4.00000
4.00000 7.03348 4.00000
4.00000 7.03348 4.00000
4.00000 7.03348 4.00000
4.00000 7.03348 4.00000
4.00000 7.03348 4.00000
4.00000 7.03348 4.00000
4.00000 7.03348 4.00000
4.00000 7.03348 4.00000
4.00000 7.03348 4.00000
4.00000 7.03348 4.00000
4.00000 7.03348 4.00000
4.00000 7.03348 4.00000
4.00000 7.03348 4.00000
4.00000 7.03348 4.00000
4.00000 7.03348 4.00000
4.00000 7.03348 4.00000
4.00000 7.03348 4.00000
4.00000 7.03348 4.00000
4.00000 7.03348 4.00000
4.00000 7.03348 4.00000
4.00000 7.03348 4.00000
4.00000 7.03349 4.00000
4.00000 7.03349 4.00000
4.00000 7.03350 4.00000
4.00000 7.03349 4.00000
4.00000 7.03347 4.00000
4.00000 7.03348 4.00000
4.00000 7.03348 4.00000
4.00000 7.03348 4.00000
4.00000 7.03348 4.00000
4.00000 7.03348 4.00000
4.00000 7.03348 4.00000
4.00000 7.03348 4.00000
4.00000 7.03348 4.00000
4.00000 7.03348 4.00000
4.00000 7.03348 4.00000
4.00000 7.03348 4.00000
4.00000 7.03348 4.00000
4.00000 7.03348 4.00000
4.00000 7.03348 4.00000
4.00000 7.03348 4.00000
4.00000 7.03348 4.00000
4.00000 7.03348 4.00000
4.00000 7.03348 4.00000
4.00000 7.03348 4.00000
4.00000 7.03348 4.00000
4.00000 7.03348 4.00000
4.00000 7.03348 4.00000
4.00000 7.03348 4.00000
4.00000 7.03348 4.00000
4.00000 7.03348 4.00000
4.00000 7.03348 4.00000
4.00000 7.03348 4.00000
4.00000 7.03348 4.00000
4.00000 7.03348 4.00000
4.00000 7.03348 4.00000
4.00000 7.03348 4.00000
4.00000 7.03348 4.00000
4.00000 7.03348 4.00000
4.00000 7.03348 4.00000
4.00000 7.03348 4.00000
4.00000 7.03348 4.00000
4.00000 7.03348 4.00000
4.00000 7.03348 4.00000
4.00000 7.03348 4.00000
4.00000 7.03348 4.00000
4.00000 7.03348 4.00000
4.00000 7.03348 4.00000
4.00000 7.03348 4.00000
4.00000 7.03348 4.00000
4.00000 7.03348 4.00000
4.00000 7.03348 4.00000
4.00000 7.03348 4.00000
4.00000 7.03349 4.00000
4.00000 7.03349 4.00000
4.00000 7.03349 4.00000
4.00000 7.03349 4.00000
4.00000 7.03349 4.00000
4.00000 7.03349 4.00000
4.00000 7.03349 4.00000
4.00000 7.03348 4.00000
4.00000 7.03348 4.00000
4.00000 7.03348 4.00000
4.00000 7.03348 4.00000
4.00000 7.03348 4.00000
4.00000 7.03348 4.00000
4.00000 7.03348 4.00000
4.00000 7.03348 4.00000
4.00000 7.03348 4.00000
4.00000 7.03348 4.00000
4.00000 7.03348 4.00000
4.00000 7.03348 4.00000
4.00000 7.03348 4.00000
4.00000 7.03348 4.00000
4.00000 7.03348 4.00000
4.00000 7.03348 4.00000
4.00000 7.03348 4.00000
4.00000 7.03348 4.00000
4.00000 7.03348 4.00000
4.00000 7.03348 4.00000
4.00000 7.03348 4.00000
4.00000 7.03348 4.00000
4.00000 7.03348 4.00000
4.00000 7.03349 4.00000
4.00000 7.03348 4.00000
4.00000 7.03348 4.00000
4.00000 7.03348 4.00000
4.00000 7.03348 4.00000
4.00000 7.03348 4.00000
4.00000 7.03351 4.00000
4.00000 7.03348 4.00000
4.00000 7.03348 4.00000
4.00000 7.03348 4.00000
4.00057 7.05296 4.00057
4.00291 7.13371 4.00291
4.00519 7.21463 4.00519
4.00742 7.29569 4.00742
4.00963 7.37688 4.00963
4.01181 7.45816 4.01181
4.01398 7.53953 4.01398
4.01615 7.62095 4.01615
4.01833 7.70240 4.01833
4.02053 7.78386 4.02053
4.02277 7.86531 4.02277
4.02506 7.94671 4.02506
4.02741 8.02802 4.02741
4.02985 8.10922 4.02985
4.03239 8.19026 4.03239
4.03506 8.27108 4.03506
4.03790 8.35162 4.03790
4.04094 8.43180 4.04094
4.04424 8.51151 4.04424
4.04785 8.59063 4.04785
4.05188 8.66897 4.05188
4.05633 8.74651 4.05633
4.06120 8.82326 4.06120
4.06651 8.89917 4.06651
4.07229 8.97417 4.07229
4.07857 9.04822 4.07857
4.08536 9.12128 4.08536
4.09267 9.19336 4.09267
4.10047 9.26449 4.10047
4.10873 9.33474 4.10873
4.11736 9.40428 4.11736
4.12626 9.47332 4.12626
4.13527 9.54219 4.13527
4.14416 9.61133 4.14416
4.15265 9.68129 4.15265
4.16039 9.75280 4.16039
4.16694 9.82672 4.16694
4.17181 9.90404 4.17181
4.17449 9.98577 4.17449
4.17458 10.07271 4.17458
4.17273 10.16358 4.17273
4.17020 10.25582 4.17020
4.16707 10.34931 4.16707
4.16333 10.44403 4.16333
4.15900 10.53998 4.15900
4.15405 10.63720 4.15405
4.14843 10.73578 4.14844
4.14209 10.83585 4.14209
4.13490 10.93763 4.13490
4.12673 11.04140 4.12674
4.11737 11.14759 4.11737
4.10648 11.25685 4.10648
4.09355 11.37023 4.09355
4.07773 11.48942 4.07773
4.05782 11.61683 4.05782
4.03121 11.75763 4.03121
4.00000 13.19120 4.00000
4.00000 13.19120 4.00000
4.00000 13.19120 4.00000
4.00000 13.19120 4.00000
4.00000 13.19120 4.00000
4.00000 13.19120 4.00000
4.00000 13.19120 4.00000
4.00000 13.19120 4.00000
4.00000 13.19120 4.00000
4.00000 13.19120 4.00000
4.00000 13.19120 4.00000
4.00000 13.19120 4.00000
4.00000 13.19121 4.00000
4.00000 13.19120 4.00000
4.00001 13.19124 4.00001
4.00450 13.21607 4.00450
4.01478 13.28351 4.01478
4.02305 13.35501 4.02305
4.02934 13.43046 4.02934
4.03374 13.50974 4.03374
4.03633 13.59265 4.03633
4.03790 13.67762 4.03790
4.03942 13.76272 4.03942
4.04090 13.84792 4.04090
4.04234 13.93320 4.04234
4.04376 14.01856 4.04376
4.04515 14.10399 4.04515
4.04651 14.18948 4.04651
4.04786 14.27503 4.04786
4.04919 14.36064 4.04919
4.05051 14.44629 4.05051
4.05181 14.53200 4.05181
4.05310 14.61774 4.05310
4.05437 14.70352 4.05437
4.05564 14.78934 4.05564
4.05690 14.87519 4.05690
4.05815 14.96108 4.05815
4.05940 15.04700 4.05940
4.06060 15.13301 4.06060
4.06160 15.21945 4.06160
4.06240 15.30631 4.06240
4.06300 15.39358 4.06300
4.06342 15.48122 4.06342
4.06367 15.56922 4.06367
4.06377 15.65754 4.06377
4.06372 15.74617 4.06372
4.06354 15.83508 4.06354
4.06324 15.92424 4.06324
4.06284 16.01364 4.06284
4.06233 16.10325 4.06233
4.06173 16.19305 4.06173
4.06105 16.28302 4.06105
4.06031 16.37315 4.06031
4.05950 16.46342 4.05950
4.05863 16.55381 4.05863
4.05772 16.64431 4.05772
4.05677 16.73491 4.05677
4.05579 16.82559 4.05579
4.05477 16.91633 4.05477
4.05373 17.00714 4.05373
4.05268 17.09800 4.05268
4.05161 17.18890 4.05161
4.05052 17.27983 4.05052
4.04944 17.37079 4.04944
4.04835 17.46176 4.04835
4.04725 17.55275 4.04725
4.04617 17.64375 4.04617
4.04508 17.73475 4.04508
4.04400 17.82575 4.04400
4.04293 17.91674 4.04293
4.04187 18.00773 4.04188
4.04083 18.09870 4.04083
4.03979 18.18966 4.03979
4.03877 18.28060 4.03877
4.03777 18.37153 4.03777
4.03678 18.46243 4.03678
4.03581 18.55331 4.03581
4.03485 18.64416 4.03485
4.03391 18.73500 4.03391
4.03299 18.82580 4.03299
4.03209 18.91658 4.03209
4.03121 19.00734 4.03121
4.03035 19.09807 4.03035
4.02950 19.18877 4.02950
4.02868 19.27944 4.02868
4.02787 19.37008 4.02787
4.02708 19.46070 4.02708
4.02631 19.55129 4.02631
4.02556 19.64185 4.02556
4.02482 19.73239 4.02482
4.02411 19.82290 4.02411
4.02341 19.91338 4.02341
4.02273 20.00384 4.02273
4.02207 20.09427 4.02207
4.02142 20.18468 4.02142
4.02080 20.27506 4.02080
4.02018 20.36542 4.02018
4.01959 20.45575 4.01959
4.01901 20.54606 4.01901
4.01845 20.63635 4.01845
4.01790 20.72661 4.01790
4.01737 20.81686 4.01737
4.01685 20.90708 4.01685
4.01634 20.99728 4.01634
4.01586 21.08747 4.01585
4.01538 21.17763 4.01538
4.01492 21.26778 4.01492
4.01447 21.35791 4.01447
4.01403 21.44802 4.01403
4.01361 21.53811 4.01361
4.01319 21.62819 4.01319
4.01279 21.71825 4.01279
4.01241 21.80830 4.01241
4.01203 21.89833 4.01203
4.01166 21.98834 4.01166
4.01131 22.07835 4.01131
4.01096 22.16834 4.01096
4.01063 22.25831 4.01063
4.01030 22.34828 4.01030
4.00999 22.43823 4.00999
4.00968 22.52817 4.00968
4.00938 22.61810 4.00938
4.00910 22.70802 4.00910
4.00882 22.79793 4.00882
4.00854 22.88783 4.00855
4.00828 22.97772 4.00828
4.00803 23.06760 4.00803
4.00778 23.15748 4.00778
4.00754 23.24734 4.00754
4.00731 23.33720 4.00731
4.00708 23.42705 4.00708
4.00686 23.51690 4.00686
4.00665 23.60673 4.00665
4.00644 23.69656 4.00644
4.00624 23.78639 4.00624
4.00605 23.87621 4.00605
4.00586 23.96602 4.00586
4.00568 24.05583 4.00568
4.00550 24.14563 4.00551
4.00533 24.23543 4.00533
4.00517 24.32522 4.00517
4.00501 24.41501 4.00501
4.00485 24.50480 4.00485
4.00470 24.59458 4.00470
4.00455 24.68436 4.00455
4.00441 24.77414 4.00441
4.00428 24.86391 4.00428
4.00414 24.95368 4.00414
4.00401 25.04345 4.00401
4.00389 25.13322 4.00389
4.00377 25.22298 4.00377
4.00365 25.31275 4.00365
4.00353 25.40250 4.00354
4.00342 25.49226 4.00342
4.00332 25.58202 4.00332
4.00321 25.67178 4.00321
4.00311 25.76153 4.00311
4.00302 25.85129 4.00302
4.00292 25.94104 4.00292
4.00283 26.03080 4.00283
4.00274 26.12055 4.00274
4.00266 26.21030 4.00266
4.00257 26.30005 4.00257
4.00249 26.38981 4.00249
4.00241 26.47956 4.00241
4.00234 26.56931 4.00234
4.00227 26.65907 4.00227
4.00219 26.74882 4.00219
4.00213 26.83857 4.00213
4.00206 26.92833 4.00206
4.00199 27.01808 4.00199
4.00193 27.10784 4.00193
4.00187 27.19759 4.00187
4.00181 27.28735 4.00181
4.00176 27.37711 4.00176
4.00170 27.46687 4.00170
4.00165 27.55663 4.00165
4.00159 27.64639 4.00160
4.00155 27.73616 4.00155
4.00150 27.82592 4.00150
4.00145 27.91569 4.00145
4.00140 28.00546 4.00140
4.00136 28.09523 4.00136
4.00132 28.18500 4.00132
4.00128 28.27477 4.00128
4.00124 28.36454 4.00124
4.00120 28.45432 4.00120
4.00116 28.54410 4.00116
4.00112 28.63388 4.00112
4.00109 28.72366 4.00109
4.00105 28.81344 4.00105
4.00102 28.90323 4.00102
4.00099 28.99302 4.00099
4.00096 29.08281 4.00096
4.00093 29.17260 4.00093
4.00090 29.26239 4.00090
4.00087 29.35219 4.00087
4.00084 29.44199 4.00084
4.00082 29.53179 4.00082
4.00079 29.62159 4.00079
4.00076 29.71140 4.00077
4.00074 29.80121 4.00074
4.00072 29.89102 4.00072
4.00069 29.98083 4.00069
4.00067 30.07064 4.00067
4.00065 30.16046 4.00065
4.00063 30.25028 4.00063
4.00061 30.34010 4.00061
4.00059 30.42992 4.00059
4.00057 30.51975 4.00057
4.00056 30.60958 4.00056
4.00054 30.69941 4.00054
4.00052 30.78924 4.00052
4.00050 30.87908 4.00051
4.00049 30.96892 4.00049
4.00047 31.05876 4.00047
4.00046 31.14860 4.00046
4.00044 31.23845 4.00044
4.00043 31.32830 4.00043
4.00042 31.41815 4.00042
4.00040 31.50800 4.00040
4.00039 31.59786 4.00039
4.00038 31.68772 4.00038
4.00037 31.77758 4.00037
4.00035 31.86744 4.00036
4.00034 31.95731 4.00034

Angle 0.452519 5.005195

4.00000 7.03348 4.00000
4.00000 7.03349 4.00000
4.00000 7.03349 4.00000
4.00000 7.03349 4.00000
4.00000 7.03347 4.00000
4.00000 7.03347 4.00000
4.00000 7.03347 4.00000
4.00000 7.03347 4.00000
4.00000 7.03347 4.00000
4.00000 7.03348 4.00000
4.00000 7.03348 4.00000
4.00000 7.03348 4.00000
4.00000 7.03348 4.00000
4.00000 7.03348 4.00000
4.00000 7.03348 4.00000
4.00000 7.03348 4.00000
4.00000 7.03348 4.00000
4.00000 7.03348 4.00000
4.00000 7.03348 4.00000
4.00000 7.03348 4.00000
4.00000 7.03348 4.00000
4.00000 7.03348 4.00000
4.00000 7.03348 4.00000
4.00000 7.03348 4.00000
4.00000 7.03348 4.00000
4.00000 7.03348 4.00000
4.00000 7.03348 4.00000
4.00000 7.03348 4.00000
4.00000 7.03349 4.00000
4.00000 7.03348 4.00000
4.00000 7.03348 4.00000
4.00000 7.03348 4.00000
4.00000 7.03348 4.00000
4.00000 7.03348 4.00000
4.00000 7.03348 4.00000
4.00000 7.03348 4.00000
4.00000 7.03348 4.00000
4.00000 7.03348 4.00000
4.00000 7.03348 4.00000
4.00000 7.03348 4.00000
4.00000 7.03348 4.00000
4.00000 7.03348 4.00000
4.00000 7.03348 4.00000
4.00000 7.03348 4.00000
4.00000 7.03348 4.00000
4.00000 7.03348 4.00000
4.00000 7.03350 4.00000
4.00000 7.03348 4.00000
4.00000 7.03348 4.00000
4.00072 7.05792 4.00072
4.00262 7.12350 4.00262
4.00448 7.18936 4.00448
4.00632 7.25549 4.00632
4.00814 7.32188 4.00814
4.00994 7.38852 4.00994
4.01174 7.45538 4.01174
4.01353 7.52246 4.01353
4.01532 7.58975 4.01532
4.01712 7.65721 4.01712
4.01894 7.72485 4.01894
4.02077 7.79264 4.02077
4.02264 7.86057 4.02264
4.02455 7.92862 4.02455
4.02650 7.99676 4.02650
4.02851 8.06497 4.02851
4.03058 8.13322 4.03059
4.03275 8.20149 4.03275
4.03501 8.26973 4.03501
4.03740 8.33791 4.03740
4.03993 8.40598 4.03993
4.04264 8.47386 4.04264
4.04556 8.54149 4.04556
4.04874 8.60876 4.04874
4.05224 8.67557 4.05224
4.05606 8.74190 4.05606
4.06018 8.80778 4.06018
4.06463 8.87316 4.06463
4.06943 8.93800 4.06943
4.07460 9.00226 4.07460
4.08016 9.06590 4.08016
4.08611 9.12891 4.08611
4.09245 9.19128 4.09245
4.09917 9.25303 4.09918
4.10626 9.31420 4.10626
4.11366 9.37489 4.11366
4.12132 9.43520 4.12132
4.12914 9.49533 4.12914
4.13700 9.55552 4.13700
4.14475 9.61606 4.14475
4.15219 9.67735 4.15219
4.15908 9.73989 4.15908
4.16513 9.80423 4.16513
4.17000 9.87106 4.17000
4.17334 9.94107 4.17335
4.17483 10.01492 4.17483
4.17424 10.09306 4.17424
4.17248 10.17364 4.17248
4.17022 10.25537 4.17022
4.16747 10.33818 4.16747
4.16425 10.42206 4.16425
4.16055 10.50700 4.16055
4.15637 10.59303 4.15637
4.15168 10.68020 4.15168
4.14643 10.76859 4.14643
4.14057 10.85832 4.14057
4.13401 10.94955 4.13401
4.12664 11.04250 4.12664
4.11831 11.13750 4.11831
4.10877 11.23501 4.10877
4.09769 11.33573 4.09769
4.08449 11.44076 4.08449
4.06844 11.55162 4.06844
4.04826 11.67083 4.04826
4.02112 11.80405 4.02112
4.00000 13.19120 4.00000
4.00000 13.19120 4.00000
4.00000 13.19120 4.00000
4.00000 13.19120 4.00000
4.00000 13.19120 4.00000
4.00000 13.19120 4.00000
4.00000 13.19120 4.00000
4.00000 13.19120 4.00000
4.00000 13.19120 4.00000
4.00000 13.19120 4.00000
4.00000 13.19120 4.00000
4.00000 13.19120 4.00000
4.00000 13.19120 4.00000
4.00000 13.19120 4.00000
4.00000 13.19121 4.00000
4.00000 13.19120 4.00000
4.00155 13.19954 4.00155
4.01152 13.26017 4.01152
4.01979 13.32427 4.01979
4.02640 13.39177 4.02640
4.03138 13.46262 4.03138
4.03479 13.53667 4.03479
4.03673 13.61374 4.03673
4.03816 13.69191 4.03816
4.03955 13.77023 4.03955
4.04091 13.84869 4.04091
4.04224 13.92728 4.04224
4.04355 14.00599 4.04355
4.04484 14.08481 4.04484
4.04611 14.16374 4.04611
4.04736 14.24277 4.04736
4.04859 14.32191 4.04859
4.04982 14.40113 4.04982
4.05103 14.48045 4.05103
4.05223 14.55986 4.05223
4.05342 14.63935 4.05342
4.05460 14.71893 4.05460
4.05578 14.79858 4.05578
4.05695 14.87831 4.05695
4.05811 14.95812 4.05811
4.05927 15.03800 4.05927
4.06040 15.11799 4.06040
4.06138 15.19836 4.06138
4.06217 15.27915 4.06217
4.06279 15.36035 4.06279
4.06326 15.44193 4.06326
4.06356 15.52387 4.06356
4.06373 15.60615 4.06373
4.06377 15.68875 4.06377
4.06369 15.77165 4.06369
4.06349 15.85484 4.06349
4.06319 15.93828 4.06319
4.06279 16.02198 4.06279
4.06231 16.10589 4.06231
4.06175 16.19002 4.06175
4.06112 16.27434 4.06112
4.06043 16.35885 4.06043
4.05968 16.44351 4.05968
4.05888 16.52833 4.05888
4.05804 16.61329 4.05804
4.05716 16.69838 4.05716
4.05625 16.78358 4.05625
4.05530 16.86889 4.05530
4.05434 16.95429 4.05434
4.05336 17.03978 4.05336
4.05236 17.12535 4.05236
4.05134 17.21100 4.05134
4.05032 17.29671 4.05032
4.04930 17.38248 4.04930
4.04827 17.46830 4.04827
4.04724 17.55416 4.04724
4.04621 17.64007 4.04621
4.04518 17.72602 4.04518
4.04417 17.81200 4.04417
4.04315 17.89802 4.04315
4.04215 17.98406 4.04215
4.04116 18.07012 4.04116
4.04017 18.15620 4.04017
4.03920 18.24231 4.03920
4.03824 18.32843 4.03824
4.03730 18.41456 4.03730
4.03637 18.50071 4.03637
4.03545 18.58687 4.03545
4.03455 18.67304 4.03455
4.03367 18.75922 4.03367
4.03280 18.84541 4.03280
4.03195 18.93160 4.03195
4.03111 19.01781 4.03111
4.03029 19.10401 4.03029
4.02949 19.19022 4.02949
4.02870 19.27644 4.02870
4.02793 19.36266 4.02793
4.02718 19.44889 4.02718
4.02644 19.53511 4.02644
4.02573 19.62135 4.02573
4.02502 19.70758 4.02502
4.02434 19.79382 4.02434
4.02367 19.88006 4.02367
4.02301 19.96631 4.02301
4.02237 20.05256 4.02237
4.02175 20.13881 4.02175
4.02114 20.22507 4.02114
4.02055 20.31133 4.02055
4.01997 20.39760 4.01997
4.01941 20.48387 4.01941
4.01886 20.57014 4.01886
4.01832 20.65642 4.01832
4.01780 20.74271 4.01780
4.01729 20.82900 4.01729
4.01680 20.91529 4.01680
4.01632 21.00159 4.01632
4.01585 21.08790 4.01585
4.01540 21.17421 4.01540
4.01495 21.26053 4.01495
4.01452 21.34686 4.01452
4.01410 21.43319 4.01410
4.01369 21.51953 4.01369
4.01329 21.60588 4.01329
4.01291 21.69224 4.01291
4.01253 21.77860 4.01253
4.01217 21.86498 4.01217
4.01181 21.95136 4.01181
4.01147 22.03775 4.01146
4.01113 22.12415 4.01113
4.01080 22.21056 4.01080
4.01049 22.29698 4.01049
4.01018 22.38341 4.01018
4.00988 22.46985 4.00988
4.00959 22.55629 4.00959
4.00930 22.64275 4.00930
4.00903 22.72922 4.00903
4.00876 22.81570 4.00876
4.00850 22.90220 4.00850
4.00825 22.98870 4.00825
4.00800 23.07522 4.00800
4.00777 23.16174 4.00777
4.00754 23.24828 4.00754
4.00731 23.33483 4.00731
4.00710 23.42139 4.00710
4.00688 23.50797 4.00688
4.00667 23.59456 4.00668
4.00648 23.68116 4.00648
4.00628 23.76777 4.00628
4.00610 23.85439 4.00610
4.00591 23.94103 4.00592
4.00574 24.02768 4.00574
4.00557 24.11435 4.00557
4.00540 24.20102 4.00540
4.00523 24.28771 4.00524
4.00508 24.37442 4.00508
4.00493 24.46114 4.00493
4.00478 24.54787 4.00478
4.00464 24.63461 4.00463
4.00450 24.72137 4.00450
4.00436 24.80814 4.00436
4.00423 24.89493 4.00423
4.00410 24.98173 4.00410
4.00398 25.06854 4.00398
4.00386 25.15537 4.00386
4.00374 25.24221 4.00374
4.00363 25.32907 4.00362
4.00352 25.41594 4.00352
4.00341 25.50282 4.00341
4.00331 25.58972 4.00331
4.00321 25.67664 4.00321
4.00311 25.76356 4.00311
4.00302 25.85050 4.00302
4.00293 25.93746 4.00293
4.00283 26.02443 4.00284
4.00275 26.11141 4.00275
4.00267 26.19841 4.00267
4.00258 26.28542 4.00259
4.00251 26.37245 4.00251
4.00243 26.45949 4.00243
4.00236 26.54654 4.00236
4.00229 26.63361 4.00229
4.00221 26.72070 4.00222
4.00215 26.80780 4.00215
4.00208 26.89491 4.00208
4.00202 26.98203 4.00202
4.00196 27.06918 4.00196
4.00190 27.15633 4.00190
4.00184 27.24350 4.00184
4.00178 27.33068 4.00178
4.00173 27.41788 4.00173
4.00167 27.50510 4.00168
4.00163 27.59232 4.00163
4.00158 27.67956 4.00158
4.00153 27.76681 4.00153
4.00148 27.85408 4.00148
4.00144 27.94136 4.00144
4.00139 28.02866 4.00139
4.00135 28.11596 4.00135
4.00131 28.20329 4.00131
4.00126 28.29063 4.00127
4.00123 28.37798 4.00123
4.00120 28.46534 4.00119
4.00116 28.55272 4.00116
4.00112 28.64011 4.00112
4.00109 28.72752 4.00109
4.00106 28.81493 4.00105
4.00102 28.90237 4.00102
4.00099 28.98981 4.00099
4.00096 29.07727 4.00096
4.00093 29.16475 4.00093
4.00090 29.25223 4.00090
4.00088 29.33972 4.00087
4.00085 29.42724 4.00084
4.00082 29.51477 4.00082
4.00080 29.60230 4.00080
4.00077 29.68985 4.00077
4.00075 29.77742 4.00075
4.00073 29.86499 4.00072
4.00070 29.95259 4.00070
4.00068 30.04019 4.00068
4.00066 30.12780 4.00066
4.00064 30.21543 4.00064
4.00062 30.30307 4.00062
4.00060 30.39072 4.00060
4.00058 30.47838 4.00058
4.00056 30.56607 4.00056
4.00055 30.65375 4.00055
4.00053 30.74146 4.00053
4.00051 30.82917 4.00051
4.00050 30.91690 4.00050
4.00048 31.00464 4.00048
4.00047 31.09239 4.00047
4.00045 31.18015 4.00045
4.00044 31.26792 4.00044
4.00043 31.35571 4.00043
4.00041 31.44351 4.00041
4.00040 31.53132 4.00040
4.00039 31.61914 4.00039
4.00038 31.70698 4.00038
4.00036 31.79482 4.00036
4.00035 31.88268 4.00035
4.00034 31.97055 4.00034
4.00033 32.05843 4.00033
4.00032 32.14632 4.00032
4.00031 32.23422 4.00031
4.00030 32.32213 4.00030
4.00029 32.41006 4.00029
4.00028 32.49800 4.00028
4.00027 32.58594 4.00027
4.00027 32.67390 4.00027
4.00026 32.76187 4.00026
4.00025 32.84985 4.00025
4.00024 32.93784 4.00024
4.00023 33.02585 4.00023
4.00023 33.11386 4.00023
4.00022 33.20188 4.00022
4.00021 33.28991 4.00021
4.00021 33.37796 4.00021
4.00020 33.46601 4.00020
4.00020 33.55408 4.00019
4.00019 33.64215 4.00019
4.00018 33.73024 4.00018
4.00018 33.81833 4.00018
4.00017 33.90644 4.00017
4.00017 33.99456 4.00017
4.00016 34.08268 4.00016
4.00016 34.17082 4.00016
4.00015 34.25897 4.00015
4.00015 34.34712 4.00015
4.00014 34.43529 4.00014
4.00014 34.52347 4.00014
4.00013 34.61165 4.00013
4.00013 34.69985 4.00013
4.00013 34.78805 4.00013
4.00012 34.87627 4.00012
4.00012 34.96449 4.00012
4.00011 35.05273 4.00011
4.00011 35.14097 4.00011
4.00011 35.22922 4.00011
4.00010 35.31748 4.00010
4.00010 35.40576 4.00010
4.00010 35.49404 4.00010
4.00009 35.58233 4.00009
4.00009 35.67063 4.00009
4.00009 35.75893 4.00009
4.00009 35.84725 4.00009
4.00008 35.93558 4.00008
4.00008 36.02391 4.00008
4.00008 36.11226 4.00008
4.00008 36.20061 4.00008
4.00007 36.28897 4.00007

Angle 0.664413 3.282384

4.00000 7.03348 4.00000
4.00000 7.03348 4.00000
4.00000 7.03348 4.00000
4.00000 7.03348 4.00000
4.00000 7.03348 4.00000
4.00000 7.03348 4.00000
4.00000 7.03348 4.00000
4.00000 7.03348 4.00000
4.00000 7.03348 4.00000
4.00000 7.03348 4.00000
4.00000 7.03348 4.00000
4.00000 7.03348 4.00000
4.00000 7.03348 4.00000
4.00000 7.03348 4.00000
4.00000 7.03348 4.00000
4.00000 7.03348 4.00000
4.00000 7.03348 4.00000
4.00000 7.03348 4.00000
4.00000 7.03348 4.00000
4.00000 7.03348 4.00000
4.00000 7.03348 4.00000
4.00000 7.03348 4.00000
4.00000 7.03348 4.00000
4.00000 7.03348 4.00000
4.00000 7.03348 4.00000
4.00000 7.03348 4.00000
4.00000 7.03348 4.00000
4.00000 7.03348 4.00000
4.00000 7.03348 4.00000
4.00000 7.03348 4.00000
4.00000 7.03348 4.00000
4.00000 7.03348 4.00000
4.00000 7.03348 4.00000
4.00000 7.03348 4.00000
4.00000 7.03348 4.00000
4.00000 7.03348 4.00000
4.00000 7.03348 4.00000
4.00000 7.03348 4.00000
4.00000 7.03348 4.00000
4.00000 7.03348 4.00000
4.00000 7.03348 4.00000
4.00000 7.03348 4.00000
4.00000 7.03348 4.00000
4.00000 7.03348 4.00000
4.00000 7.03348 4.00000
4.00000 7.03348 4.00000
4.00000 7.03348 4.00000
4.00000 7.03348 4.00000
4.00000 7.03348 4.00000
4.00000 7.03348 4.00000
4.00000 7.03349 4.00000
4.00000 7.03348 4.00000
4.00000 7.03348 4.00000
4.00000 7.03348 4.00000
4.00000 7.03348 4.00000
4.00000 7.03348 4.00000
4.00000 7.03348 4.00000
4.00000 7.03348 4.00000
4.00000 7.03348 4.00000
4.00000 7.03348 4.00000
4.00000 7.03348 4.00000
4.00000 7.03348 4.00000
4.00000 7.03348 4.00000
4.00000 7.03348 4.00000
4.00000 7.03348 4.00000
4.00000 7.03348 4.00000
4.00000 7.03348 4.00000
4.00000 7.03348 4.00000
4.00000 7.03348 4.00000
4.00000 7.03348 4.00000
4.00000 7.03348 4.00000
4.00000 7.03348 4.00000
4.00000 7.03348 4.00000
4.00000 7.03348 4.00000
4.00000 7.03348 4.00000
4.00000 7.03348 4.00000
4.00000 7.03348 4.00000
4.00000 7.03348 4.00000
4.00000 7.03348 4.00000
4.00000 7.03348 4.00000
4.00000 7.03348 4.00000
4.00000 7.03348 4.00000
4.00000 7.03348 4.00000
4.00000 7.03348 4.00000
4.00000 7.03348 4.00000
4.00000 7.03348 4.00000
4.00000 7.03348 4.00000
4.00000 7.03348 4.00000
4.00000 7.03348 4.00000
4.00000 7.03348 4.00000
4.00000 7.03348 4.00000
4.00000 7.03348 4.00000
4.00000 7.03348 4.00000
4.00000 7.03348 4.00000
4.00000 7.03348 4.00000
4.00000 7.03348 4.00000
4.00000 7.03348 4.00000
4.00000 7.03348 4.00000
4.00000 7.03348 4.00000
4.00000 7.03348 4.00000
4.00000 7.03348 4.00000
4.00000 7.03348 4.00000
4.00000 7.03348 4.00000
4.00000 7.03348 4.00000
4.00000 7.03348 4.00000
4.00000 7.03348 4.00000
4.00000 7.03348 4.00000
4.00000 7.03348 4.00000
4.00000 7.03348 4.00000
4.00000 7.03348 4.00000
4.00000 7.03348 4.00000
4.00000 7.03348 4.00000
4.00000 7.03348 4.00000
4.00000 7.03348 4.00000
4.00000 7.03348 4.00000
4.00000 7.03348 4.00000
4.00000 7.03348 4.00000
4.00000 7.03348 4.00000
4.00000 7.03348 4.00000
4.00000 7.03348 4.00000
4.00000 7.03348 4.00000
4.00000 7.03348 4.00000
4.00000 7.03348 4.00000
4.00000 7.03348 4.00000
4.00000 7.03348 4.00000
4.00000 7.03348 4.00000
4.00000 7.03348 4.00000
4.00000 7.03348 4.00000
4.00000 7.03348 4.00000
4.00000 7.03348 4.00000
4.00000 7.03348 4.00000
4.00000 7.03348 4.00000
4.00000 7.03348 4.00000
4.00000 7.03348 4.00000
4.00000 7.03348 4.00000
4.00000 7.03348 4.00000
4.00000 7.03348 4.00000
4.00000 7.03348 4.00000
4.00000 7.03348 4.00000
4.00000 7.03348 4.00000
4.00000 7.03348 4.00000
4.00000 7.03348 4.00000
4.00000 7.03348 4.00000
4.00000 7.03348 4.00000
4.00000 7.03348 4.00000
4.00000 7.03348 4.00000
4.00000 7.03348 4.00000
4.00000 7.03348 4.00000
4.00000 7.03348 4.00000
4.00000 7.03348 4.00000
4.00000 7.03348 4.00000
4.00000 7.03348 4.00000
4.00000 7.03348 4.00000
4.00000 7.03348 4.00000
4.00000 7.03348 4.00000
4.00000 7.03348 4.00000
4.00000 7.03348 4.00000
4.00000 7.03348 4.00000
4.00000 7.03348 4.00000
4.00000 7.03348 4.00000
4.00000 7.03348 4.00000
4.00000 7.03348 4.00000
4.00000 7.03348 4.00000
4.00000 7.03348 4.00000
4.00000 7.03348 4.00000
4.00000 7.03348 4.00000
4.00000 7.03348 4.00000
4.00000 7.03348 4.00000
4.00000 7.03348 4.00000
4.00000 7.03348 4.00000
4.00000 7.03348 4.00000
4.00000 7.03348 4.00000
4.00000 7.03348 4.00000
4.00000 7.03348 4.00000
4.00000 7.03348 4.00000
4.00000 7.03348 4.00000
4.00000 7.03348 4.00000
4.00000 7.03348 4.00000
4.00000 7.03348 4.00000
4.00000 7.03348 4.00000
4.00000 7.03348 4.00000
4.00000 7.03348 4.00000
4.00000 7.03348 4.00000
4.00000 7.03348 4.00000
4.00000 7.03348 4.00000
4.00000 7.03348 4.00000
4.00000 7.03348 4.00000
4.00000 7.03348 4.00000
4.00000 7.03348 4.00000
4.00000 7.03348 4.00000
4.00000 7.03348 4.00000
4.00000 7.03348 4.00000
4.00000 7.03348 4.00000
4.00000 7.03348 4.00000
4.00000 7.03348 4.00000
4.00000 7.03348 4.00000
4.00000 7.03348 4.00000
4.00000 7.03348 4.00000
4.00000 7.03348 4.00000
4.00000 7.03348 4.00000
4.00000 7.03348 4.00000
4.00000 7.03348 4.00000
4.00000 7.03348 4.00000
4.00000 7.03348 4.00000
4.00000 7.03348 4.00000
4.00000 7.03348 4.00000
4.00000 7.03348 4.00000
4.00000 7.03348 4.00000
4.00000 7.03348 4.00000
4.00000 7.03348 4.00000
4.00000 7.03348 4.00000
4.00000 7.03348 4.00000
4.00000 7.03348 4.00000
4.00000 7.03348 4.00000
4.00000 7.03348 4.00000
4.00000 7.03348 4.00000
4.00000 7.03348 4.00000
4.00000 7.03349 4.00000
4.00000 7.03349 4.00000
4.00000 7.03348 4.00000
4.00012 7.03752 4.00012
4.00248 7.11874 4.00248
4.00478 7.20012 4.00478
4.00704 7.28165 4.00704
4.00926 7.36330 4.00926
4.01146 7.44504 4.01146
4.01364 7.52687 4.01364
4.01583 7.60875 4.01583
4.01802 7.69066 4.01802
4.02023 7.77258 4.02023
4.02247 7.85447 4.02247
4.02476 7.93632 4.02476
4.02712 8.01809 4.02712
4.02956 8.09974 4.02956
4.03210 8.18123 4.03210
4.03477 8.26249 4.03477
4.03760 8.34348 4.03760
4.04064 8.42410 4.04064
4.04392 8.50427 4.04392
4.04753 8.58383 4.04753
4.05153 8.66264 4.05153
4.05598 8.74060 4.05598
4.06084 8.81779 4.06084
4.06614 8.89411 4.06614
4.07192 8.96953 4.07192
4.07820 9.04398 4.07820
4.08499 9.11743 4.08499
4.09230 9.18989 4.09230
4.10012 9.26138 4.10012
4.10839 9.33198 4.10839
4.11705 9.40185 4.11705
4.12598 9.47120 4.12598
4.13503 9.54037 4.13503
4.14396 9.60978 4.14396
4.15250 9.68002 4.15250
4.16029 9.75180 4.16029
4.16688 9.82599 4.16688
4.17179 9.90359 4.17179
4.17449 9.98563 4.17449
4.17458 10.07292 4.17458
4.17271 10.16416 4.17271
4.17018 10.25677 4.17017
4.16702 10.35064 4.16702
4.16326 10.44574 4.16326
4.15890 10.54208 4.15890
4.15392 10.63970 4.15392
4.14826 10.73868 4.14826
4.14186 10.83917 4.14186
4.13462 10.94138 4.13462
4.12638 11.04561 4.12638
4.11693 11.15230 4.11693
4.10592 11.26212 4.10592
4.09283 11.37613 4.09283
4.07677 11.49610 4.07677
4.05650 11.62452 4.05650
4.02926 11.76691 4.02926
4.00000 13.19120 4.00000
4.00000 13.19120 4.00000
4.00000 13.19120 4.00000
4.00000 13.19120 4.00000
4.00000 13.19120 4.00000
4.00000 13.19120 4.00000
4.00000 13.19120 4.00000
4.00000 13.19120 4.00000
4.00000 13.19120 4.00000
4.00000 13.19120 4.00000
4.00000 13.19120 4.00000
4.00000 13.19120 4.00000
4.00000 13.19120 4.00000
4.00000 13.19121 4.00000
4.00000 13.19121 4.00000
4.00575 13.22340 4.00575
4.01583 13.29150 4.01583
4.02389 13.36367 4.02389
4.02997 13.43981 4.02997
4.03416 13.51976 4.03416
4.03654 13.60334 4.03654
4.03810 13.68858 4.03810
4.03961 13.77393 4.03962
4.04109 13.85937 4.04109
4.04254 13.94490 4.04254
4.04395 14.03050 4.04395
4.04534 14.11617 4.04534
4.04671 14.20190 4.04671
4.04806 14.28768 4.04806
4.04939 14.37352 4.04939
4.05071 14.45940 4.05071
4.05201 14.54533 4.05201
4.05330 14.63130 4.05330
4.05458 14.71731 4.05458
4.05585 14.80335 4.05585
4.05711 14.88942 4.05711
4.05836 14.97552 4.05836
4.05961 15.06165 4.05961
4.06079 15.14793 4.06079
4.06176 15.23465 4.06176
4.06252 15.32180 4.06252
4.06309 15.40934 4.06309
4.06348 15.49726 4.06348
4.06370 15.58552 4.06370
4.06377 15.67411 4.06377
4.06370 15.76300 4.06370
4.06350 15.85216 4.06350
4.06317 15.94157 4.06317
4.06274 16.03121 4.06274
4.06222 16.12106 4.06222
4.06160 16.21110 4.06160
4.06091 16.30130 4.06091
4.06015 16.39166 4.06015
4.05932 16.48215 4.05932
4.05845 16.57276 4.05845
4.05753 16.66347 4.05752
4.05656 16.75428 4.05656
4.05557 16.84516 4.05557
4.05455 16.93611 4.05455
4.05350 17.02712 4.05350
4.05244 17.11817 4.05244
4.05136 17.20926 4.05136
4.05028 17.30039 4.05028
4.04919 17.39153 4.04919
4.04809 17.48269 4.04810
4.04700 17.57386 4.04700
4.04591 17.66504 4.04591
4.04483 17.75622 4.04483
4.04375 17.84740 4.04375
4.04268 17.93856 4.04268
4.04162 18.02972 4.04162
4.04057 18.12086 4.04057
4.03954 18.21199 4.03954
4.03852 18.30310 4.03852
4.03752 18.39418 4.03752
4.03653 18.48525 4.03653
4.03556 18.57629 4.03556
4.03461 18.66730 4.03461
4.03368 18.75829 4.03368
4.03276 18.84926 4.03276
4.03186 18.94019 4.03186
4.03098 19.03110 4.03098
4.03012 19.12198 4.03012
4.02928 19.21283 4.02928
4.02846 19.30365 4.02846
4.02765 19.39445 4.02765
4.02687 19.48521 4.02687
4.02610 19.57595 4.02610
4.02535 19.66666 4.02535
4.02462 19.75734 4.02462
4.02391 19.84799 4.02391
4.02322 19.93862 4.02322
4.02254 20.02921 4.02254
4.02188 20.11979 4.02188
4.02124 20.21033 4.02124
4.02062 20.30085 4.02062
4.02001 20.39135 4.02001
4.01942 20.48182 4.01942
4.01884 20.57227 4.01884
4.01829 20.66269 4.01829
4.01774 20.75309 4.01774
4.01721 20.84347 4.01721
4.01670 20.93383 4.01670
4.01620 21.02416 4.01620
4.01571 21.11448 4.01571
4.01524 21.20477 4.01524
4.01478 21.29505 4.01478
4.01433 21.38530 4.01433
4.01390 21.47554 4.01390
4.01348 21.56576 4.01348
4.01307 21.65597 4.01307
4.01267 21.74616 4.01267
4.01229 21.83633 4.01229
4.01191 21.92648 4.01191
4.01155 22.01663 4.01155
4.01120 22.10675 4.01120
4.01085 22.19686 4.01086
4.01052 22.28696 4.01052
4.01020 22.37705 4.01020
4.00989 22.46712 4.00989
4.00958 22.55719 4.00958
4.00929 22.64724 4.00929
4.00900 22.73728 4.00900
4.00872 22.82730 4.00873

Angle 0.080915 5.396931

4.00000 7.03348 4.00000
4.00000 7.03348 4.00000
4.00000 7.03348 4.00000
4.00000 7.03348 4.00000
4.00000 7.03348 4.00000
4.00000 7.03348 4.00000
4.00000 7.03348 4.00000
4.00000 7.03348 4.00000
4.00000 7.03348 4.00000
4.00000 7.03348 4.00000
4.00000 7.03348 4.00000
4.00000 7.03348 4.00000
4.00000 7.03348 4.00000
4.00000 7.03348 4.00000
4.00000 7.03348 4.00000
4.00000 7.03348 4.00000
4.00000 7.03348 4.00000
4.00000 7.03348 4.00000
4.00000 7.03348 4.00000
4.00000 7.03348 4.00000
4.00000 7.03348 4.00000
4.00000 7.03348 4.00000
4.00000 7.03348 4.00000
4.00000 7.03348 4.00000
4.00000 7.03348 4.00000
4.00000 7.03348 4.00000
4.00000 7.03348 4.00000
4.00000 7.03348 4.00000
4.00000 7.03348 4.00000
4.00000 7.03348 4.00000
4.00000 7.03348 4.00000
4.00000 7.03348 4.00000
4.00000 7.03348 4.00000
4.00000 7.03348 4.00000
4.00000 7.03348 4.00000
4.00000 7.03348 4.00000
4.00000 7.03348 4.00000
4.00000 7.03348 4.00000
4.00000 7.03348 4.00000
4.00000 7.03348 4.00000
4.00000 7.03348 4.00000
4.00000 7.03348 4.00000
4.00000 7.03348 4.00000
4.00000 7.03348 4.00000
4.00000 7.03348 4.00000
4.00000 7.03348 4.00000
4.00000 7.03348 4.00000
4.00000 7.03348 4.00000
4.00000 7.03348 4.00000
4.00000 7.03348 4.00000
4.00000 7.03348 4.00000
4.00000 7.03348 4.00000
4.00000 7.03348 4.00000
4.00000 7.03348 4.00000
4.00000 7.03348 4.00000
4.00000 7.03348 4.00000
4.00000 7.03348 4.00000
4.00000 7.03348 4.00000
4.00000 7.03348 4.00000
4.00000 7.03348 4.00000
4.00000 7.03348 4.00000
4.00000 7.03348 4.00000
4.00000 7.03348 4.00000
4.00000 7.03348 4.00000
4.00000 7.03348 4.00000
4.00000 7.03348 4.00000
4.00000 7.03348 4.00000
4.00000 7.03348 4.00000
4.00000 7.03348 4.00000
4.00000 7.03348 4.00000
4.00000 7.03348 4.00000
4.00000 7.03348 4.00000
4.00000 7.03348 4.00000
4.00000 7.03348 4.00000
4.00000 7.03348 4.00000
4.00000 7.03348 4.00000
4.00000 7.03348 4.00000
4.00000 7.03348 4.00000
4.00000 7.03346 4.00000
4.00000 7.03348 4.00000
4.00000 7.03348 4.00000
4.00000 7.03348 4.00000
4.00000 7.03348 4.00000
4.00000 7.03348 4.00000
4.00000 7.03348 4.00000
4.00000 7.03347 4.00000
4.00000 7.03348 4.00000
4.00000 7.03348 4.00000
4.00000 7.03348 4.00000
4.00000 7.03348 4.00000
4.00000 7.03348 4.00000
4.00000 7.03348 4.00000
4.00000 7.03348 4.00000
4.00000 7.03348 4.00000
4.00000 7.03348 4.00000
4.00000 7.03348 4.00000
4.00000 7.03348 4.00000
4.00000 7.03348 4.00000
4.00000 7.03348 4.00000
4.00000 7.03348 4.00000
4.00000 7.03348 4.00000
4.00000 7.03348 4.00000
4.00000 7.03348 4.00000
4.00000 7.03348 4.00000
4.00000 7.03348 4.00000
4.00000 7.03348 4.00000
4.00000 7.03348 4.00000
4.00000 7.03348 4.00000
4.00000 7.03348 4.00000
4.00000 7.03348 4.00000
4.00000 7.03348 4.00000
4.00000 7.03348 4.00000
4.00000 7.03348 4.00000
4.00000 7.03348 4.00000
4.00000 7.03348 4.00000
4.00000 7.03348 4.00000
4.00000 7.03348 4.00000
4.00000 7.03348 4.00000
4.00000 7.03348 4.00000
4.00000 7.03348 4.00000
4.00000 7.03348 4.00000
4.00000 7.03348 4.00000
4.00000 7.03349 4.00000
4.00000 7.03350 4.00000
4.00000 7.03348 4.00000
4.00000 7.03348 4.00000
4.00000 7.03348 4.00000
4.00000 7.03348 4.00000
4.00000 7.03348 4.00000
4.00000 7.03350 4.00000
4.00000 7.03348 4.00000
4.00000 7.03348 4.00000
4.00000 7.03348 4.00000
4.00189 7.09814 4.00189
4.00412 7.17639 4.00412
4.00630 7.25482 4.00630
4.00845 7.33341 4.00845
4.01058 7.41213 4.01058
4.01269 7.49097 4.01269
4.01479 7.56990 4.01479
4.01690 7.64891 4.01690
4.01902 7.72797 4.01902
4.02117 7.80706 4.02117
4.02335 7.88616 4.02335
4.02559 7.96523 4.02559
4.02789 8.04424 4.02789
4.03027 8.12316 4.03027
4.03276 8.20195 4.03276
4.03538 8.28055 4.03538
4.03816 8.35889 4.03816
4.04114 8.43692 4.04114
4.04437 8.51451 4.04437
4.04790 8.59157 4.04790
4.05182 8.66791 4.05182
4.05615 8.74349 4.05615
4.06088 8.81836 4.06088
4.06602 8.89246 4.06602
4.07161 8.96571 4.07161
4.07768 9.03808 4.07768
4.08423 9.10954 4.08423
4.09128 9.18008 4.09128
4.09880 9.24971 4.09880
4.10677 9.31851 4.10677
4.11513 9.38661 4.11513
4.12377 9.45418 4.12377
4.13256 9.52151 4.13256
4.14132 9.58898 4.14132
4.14979 9.65706 4.14979
4.15767 9.72638 4.15767
4.16457 9.79771 4.16457
4.17005 9.87193 4.17005
4.17364 9.95000 4.17364
4.17488 10.03280 4.17488
4.17370 10.12050 4.17370
4.17153 10.21023 4.17153
4.16875 10.30122 4.16875
4.16540 10.39341 4.16540
4.16147 10.48680 4.16147
4.15696 10.58139 4.15696
4.15184 10.67725 4.15184
4.14606 10.77449 4.14606
4.13953 10.87326 4.13953
4.13216 10.97377 4.13216
4.12377 11.07635 4.12377
4.11414 11.18146 4.11414
4.10291 11.28980 4.10291
4.08951 11.40254 4.08951
4.07304 11.52145 4.07304
4.05217 11.64920 4.05217
4.02382 11.79196 4.02382
4.00000 13.19120 4.00000
4.00000 13.19120 4.00000
4.00000 13.19120 4.00000
4.00000 13.19120 4.00000
4.00000 13.19119 4.00000
4.00000 13.19120 4.00000
4.00000 13.19120 4.00000
4.00000 13.19120 4.00000
4.00000 13.19120 4.00000
4.00000 13.19120 4.00000
4.00000 13.19120 4.00000
4.00000 13.19120 4.00000
4.00000 13.19120 4.00000
4.00000 13.19121 4.00000
4.00000 13.19120 4.00000
4.00405 13.21348 4.00405
4.01427 13.27971 4.01427
4.02253 13.34989 4.02253
4.02889 13.42392 4.02889
4.03339 13.50168 4.03339
4.03613 13.58300 4.03613
4.03770 13.66667 4.03770
4.03920 13.75053 4.03920
4.04067 13.83449 4.04067
4.04210 13.91855 4.04210
4.04350 14.00269 4.04350
4.04487 14.08692 4.04487
4.04622 14.17121 4.04622
4.04756 14.25558 4.04756
4.04887 14.34001 4.04887
4.05017 14.42449 4.05017
4.05146 14.50903 4.05146
4.05274 14.59363 4.05274
4.05400 14.67827 4.05400
4.05525 14.76296 4.05525
4.05650 14.84768 4.05650
4.05774 14.93246 4.05774
4.05897 15.01727 4.05897
4.06019 15.10212 4.06019
4.06126 15.18731 4.06126
4.06212 15.27293 4.06212
4.06279 15.35897 4.06279
4.06327 15.44539 4.06327
4.06359 15.53218 4.06359
4.06375 15.61930 4.06375
4.06376 15.70674 4.06376
4.06364 15.79447 4.06364
4.06340 15.88246 4.06340
4.06304 15.97071 4.06304
4.06259 16.05917 4.06259
4.06204 16.14785 4.06204
4.06141 16.23671 4.06141
4.06071 16.32574 4.06071
4.05994 16.41492 4.05994
4.05911 16.50423 4.05911
4.05824 16.59367 4.05824
4.05732 16.68322 4.05732
4.05636 16.77285 4.05636
4.05537 16.86258 4.05538
4.05436 16.95237 4.05436
4.05333 17.04223 4.05333
4.05228 17.13213 4.05228
4.05121 17.22209 4.05121
4.05014 17.31208 4.05014
4.04906 17.40210 4.04906
4.04798 17.49214 4.04798
4.04690 17.58220 4.04690
4.04582 17.67227 4.04582
4.04475 17.76236 4.04475
4.04369 17.85244 4.04369
4.04263 17.94253 4.04263
4.04159 18.03261 4.04159
4.04055 18.12268 4.04055
4.03953 18.21275 4.03953
4.03853 18.30281 4.03853
4.03754 18.39285 4.03754
4.03656 18.48288 4.03656
4.03560 18.57289 4.03560
4.03466 18.66289 4.03466
4.03373 18.75287 4.03373
4.03282 18.84283 4.03282
4.03193 18.93276 4.03193
4.03106 19.02268 4.03106
4.03021 19.11258 4.03021
4.02938 19.20245 4.02938
4.02856 19.29231 4.02856
4.02776 19.38214 4.02776
4.02698 19.47195 4.02698
4.02622 19.56174 4.02622
4.02548 19.65151 4.02548
4.02475 19.74126 4.02475
4.02404 19.83098 4.02404
4.02335 19.92069 4.02336
4.02268 20.01037 4.02268
4.02203 20.10004 4.02203
4.02139 20.18968 4.02139
4.02077 20.27931 4.02077
4.02016 20.36891 4.02016
4.01957 20.45850 4.01957
4.01900 20.54807 4.01900
4.01844 20.63762 4.01844
4.01790 20.72716 4.01789
4.01737 20.81668 4.01737
4.01685 20.90618 4.01685
4.01635 20.99567 4.01635
4.01587 21.08514 4.01587
4.01539 21.17460 4.01539
4.01493 21.26405 4.01493
4.01449 21.35348 4.01449
4.01405 21.44290 4.01405
4.01363 21.53230 4.01363
4.01322 21.62170 4.01322
4.01283 21.71108 4.01282
4.01244 21.80045 4.01244
4.01206 21.88981 4.01206
4.01170 21.97916 4.01170
4.01135 22.06850 4.01134
4.01100 22.15783 4.01100
4.01067 22.24716 4.01067
4.01034 22.33647 4.01034
4.01003 22.42578 4.01003
4.00973 22.51508 4.00973
4.00943 22.60438 4.00943
4.00914 22.69366 4.00914
4.00886 22.78294 4.00886
4.00859 22.87221 4.00859
4.00833 22.96148 4.00833
4.00807 23.05075 4.00807
4.00783 23.14001 4.00783
4.00759 23.22926 4.00759
4.00735 23.31851 4.00735
4.00713 23.40776 4.00713
4.00691 23.49700 4.00691
4.00670 23.58624 4.00670
4.00649 23.67548 4.00649
4.00629 23.76471 4.00629
4.00610 23.85394 4.00610
4.00591 23.94317 4.00591
4.00573 24.03240 4.00573
4.00555 24.12163 4.00555
4.00538 24.21085 4.00538
4.00521 24.30008 4.00521
4.00505 24.38930 4.00505
4.00490 24.47852 4.00490
4.00475 24.56775 4.00475
4.00460 24.65697 4.00460
4.00446 24.74619 4.00446
4.00432 24.83541 4.00432
4.00418 24.92464 4.00418
4.00405 25.01386 4.00405
4.00393 25.10308 4.00393
4.00381 25.19231 4.00381
4.00369 25.28153 4.00369
4.00357 25.37076 4.00357
4.00346 25.45999 4.00346
4.00336 25.54922 4.00336
4.00325 25.63845 4.00325
4.00315 25.72768 4.00315
4.00305 25.81692 4.00305
4.00296 25.90616 4.00296
4.00287 25.99540 4.00287
4.00278 26.08464 4.00278
4.00269 26.17388 4.00269
4.00261 26.26313 4.00261
4.00253 26.35238 4.00253
4.00245 26.44163 4.00245
4.00237 26.53089 4.00237
4.00230 26.62014 4.00230
4.00222 26.70940 4.00222
4.00216 26.79867 4.00216
4.00209 26.88793 4.00209
4.00202 26.97720 4.00202
4.00196 27.06648 4.00196
4.00190 27.15575 4.00190
4.00184 27.24503 4.00184
4.00178 27.33431 4.00178
4.00173 27.42360 4.00173
4.00167 27.51289 4.00167
4.00162 27.60219 4.00162
4.00157 27.69148 4.00157
4.00152 27.78079 4.00152
4.00147 27.87009 4.00147
4.00143 27.95940 4.00143
4.00138 28.04871 4.00138
4.00134 28.13803 4.00134
4.00130 28.22735 4.00130
4.00126 28.31667 4.00126
4.00122 28.40600 4.00122
4.00118 28.49533 4.00118
4.00114 28.58467 4.00114
4.00111 28.67401 4.00111
4.00107 28.76335 4.00107
4.00104 28.85270 4.00104
4.00101 28.94206 4.00101
4.00098 29.03141 4.00097
4.00094 29.12078 4.00094
4.00091 29.21014 4.00091
4.00089 29.29951 4.00089
4.00086 29.38888 4.00086
4.00083 29.47826 4.00083
4.00080 29.56764 4.00081
4.00078 29.65703 4.00078
4.00076 29.74642 4.00075
4.00073 29.83582 4.00073
4.00071 29.92521 4.00071
4.00069 30.01462 4.00069
4.00066 30.10403 4.00066
4.00064 30.19344 4.00064
4.00062 30.28286 4.00062
4.00060 30.37228 4.00061

Angle 0.184676 3.603647

4.00000 7.03350 4.00000
4.00000 7.03351 4.00000
4.00000 7.03348 4.00000
4.00000 7.03348 4.00000
4.00000 7.03348 4.00000
4.00000 7.03348 4.00000
4.00000 7.03348 4.00000
4.00000 7.03348 4.00000
4.00000 7.03348 4.00000
4.00000 7.03349 4.00000
4.00000 7.03349 4.00000
4.00000 7.03348 4.00000
4.00000 7.03348 4.00000
4.00000 7.03348 4.00000
4.00000 7.03348 4.00000
4.00000 7.03348 4.00000
4.00000 7.03348 4.00000
4.00000 7.03348 4.00000
4.00000 7.03348 4.00000
4.00000 7.03348 4.00000
4.00000 7.03348 4.00000
4.00000 7.03348 4.00000
4.00000 7.03348 4.00000
4.00000 7.03348 4.00000
4.00000 7.03348 4.00000
4.00000 7.03348 4.00000
4.00000 7.03348 4.00000
4.00000 7.03348 4.00000
4.00000 7.03348 4.00000
4.00000 7.03348 4.00000
4.00000 7.03348 4.00000
4.00000 7.03348 4.00000
4.00000 7.03348 4.00000
4.00000 7.03348 4.00000
4.00000 7.03348 4.00000
4.00000 7.03348 4.00000
4.00000 7.03348 4.00000
4.00000 7.03348 4.00000
4.00000 7.03348 4.00000
4.00000 7.03348 4.00000
4.00000 7.03348 4.00000
4.00000 7.03348 4.00000
4.00000 7.03348 4.00000
4.00000 7.03348 4.00000
4.00000 7.03348 4.00000
4.00000 7.03348 4.00000
4.00000 7.03348 4.00000
4.00000 7.03348 4.00000
4.00000 7.03348 4.00000
4.00000 7.03348 4.00000
4.00000 7.03348 4.00000
4.00000 7.03348 4.00000
4.00000 7.03348 4.00000
4.00000 7.03348 4.00000
4.00000 7.03348 4.00000
4.00000 7.03348 4.00000
4.00000 7.03348 4.00000
4.00000 7.03348 4.00000
4.00000 7.03348 4.00000
4.00000 7.03348 4.00000
4.00000 7.03348 4.00000
4.00000 7.03348 4.00000
4.00000 7.03348 4.00000
4.00000 7.03348 4.00000
4.00000 7.03348 4.00000
4.00000 7.03348 4.00000
4.00000 7.03348 4.00000
4.00000 7.03348 4.00000
4.00000 7.03348 4.00000
4.00000 7.03348 4.00000
4.00000 7.03348 4.00000
4.00000 7.03348 4.00000
4.00000 7.03348 4.00000
4.00000 7.03348 4.00000
4.00000 7.03348 4.00000
4.00000 7.03348 4.00000
4.00000 7.03348 4.00000
4.00000 7.03348 4.00000
4.00000 7.03348 4.00000
4.00000 7.03348 4.00000
4.00000 7.03348 4.00000
4.00000 7.03348 4.00000
4.00000 7.03348 4.00000
4.00000 7.03348 4.00000
4.00000 7.03348 4.00000
4.00000 7.03348 4.00000
4.00000 7.03348 4.00000
4.00000 7.03346 4.00000
4.00000 7.03346 4.00000
4.00000 7.03347 4.00000
4.00000 7.03347 4.00000
4.00000 7.03347 4.00000
4.00000 7.03347 4.00000
4.00000 7.03347 4.00000
4.00000 7.03347 4.00000
4.00000 7.03348 4.00000
4.00000 7.03348 4.00000
4.00000 7.03348 4.00000
4.00000 7.03348 4.00000
4.00000 7.03348 4.00000
4.00000 7.03348 4.00000
4.00000 7.03348 4.00000
4.00000 7.03348 4.00000
4.00000 7.03348 4.00000
4.00000 7.03348 4.00000
4.00000 7.03348 4.00000
4.00000 7.03348 4.00000
4.00000 7.03346 4.00000
4.00000 7.03348 4.00000
4.00000 7.03347 4.00000
4.00000 7.03347 4.00000
4.00000 7.03348 4.00000
4.00000 7.03348 4.00000
4.00000 7.03348 4.00000
4.00000 7.03348 4.00000
4.00000 7.03348 4.00000
4.00000 7.03348 4.00000
4.00000 7.03348 4.00000
4.00000 7.03348 4.00000
4.00000 7.03348 4.00000
4.00000 7.03348 4.00000
4.00000 7.03348 4.00000
4.00000 7.03348 4.00000
4.00000 7.03348 4.00000
4.00000 7.03348 4.00000
4.00000 7.03348 4.00000
4.00000 7.03348 4.00000
4.00000 7.03348 4.00000
4.00000 7.03348 4.00000
4.00000 7.03348 4.00000
4.00000 7.03348 4.00000
4.00000 7.03348 4.00000
4.00000 7.03348 4.00000
4.00000 7.03348 4.00000
4.00000 7.03348 4.00000
4.00000 7.03348 4.00000
4.00000 7.03348 4.00000
4.00000 7.03348 4.00000
4.00000 7.03348 4.00000
4.00000 7.03348 4.00000
4.00000 7.03348 4.00000
4.00000 7.03348 4.00000
4.00000 7.03348 4.00000
4.00000 7.03348 4.00000
4.00000 7.03348 4.00000
4.00000 7.03348 4.00000
4.00000 7.03348 4.00000
4.00000 7.03348 4.00000
4.00000 7.03348 4.00000
4.00000 7.03348 4.00000
4.00000 7.03348 4.00000
4.00000 7.03348 4.00000
4.00000 7.03348 4.00000
4.00000 7.03348 4.00000
4.00000 7.03348 4.00000
4.00000 7.03348 4.00000
4.00000 7.03348 4.00000
4.00000 7.03348 4.00000
4.00000 7.03348 4.00000
4.00000 7.03348 4.00000
4.00000 7.03348 4.00000
4.00000 7.03348 4.00000
4.00000 7.03348 4.00000
4.00000 7.03348 4.00000
4.00000 7.03348 4.00000
4.00000 7.03348 4.00000
4.00000 7.03348 4.00000
4.00000 7.03348 4.00000
4.00000 7.03348 4.00000
4.00000 7.03348 4.00000
4.00000 7.03348 4.00000
4.00000 7.03348 4.00000
4.00000 7.03348 4.00000
4.00000 7.03348 4.00000
4.00000 7.03348 4.00000
4.00000 7.03348 4.00000
4.00000 7.03348 4.00000
4.00000 7.03348 4.00000
4.00000 7.03348 4.00000
4.00000 7.03348 4.00000
4.00000 7.03348 4.00000
4.00000 7.03348 4.00000
4.00000 7.03348 4.00000
4.00000 7.03348 4.00000
4.00000 7.03348 4.00000
4.00000 7.03348 4.00000
4.00000 7.03348 4.00000
4.00000 7.03348 4.00000
4.00000 7.03348 4.00000
4.00000 7.03348 4.00000
4.00000 7.03348 4.00000
4.00000 7.03348 4.00000
4.00000 7.03348 4.00000
4.00000 7.03348 4.00000
4.00000 7.03348 4.00000
4.00000 7.03348 4.00000
4.00000 7.03348 4.00000
4.00000 7.03348 4.00000
4.00000 7.03348 4.00000
4.00000 7.03348 4.00000
4.00000 7.03348 4.00000
4.00000 7.03348 4.00000
4.00000 7.03348 4.00000
4.00000 7.03348 4.00000
4.00000 7.03348 4.00000
4.00000 7.03348 4.00000
4.00000 7.03349 4.00000
4.00000 7.03349 4.00000
4.00000 7.03349 4.00000
4.00000 7.03349 4.00000
4.00000 7.03348 4.00000
4.00000 7.03348 4.00000
4.00000 7.03348 4.00000
4.00000 7.03348 4.00000
4.00000 7.03348 4.00000
4.00000 7.03348 4.00000
4.00000 7.03348 4.00000
4.00000 7.03348 4.00000
4.00000 7.03348 4.00000
4.00000 7.03348 4.00000
4.00000 7.03348 4.00000
4.00000 7.03348 4.00000
4.00000 7.03348 4.00000
4.00000 7.03348 4.00000
4.00000 7.03348 4.00000
4.00000 7.03348 4.00000
4.00000 7.03348 4.00000
4.00000 7.03348 4.00000
4.00000 7.03348 4.00000
4.00000 7.03348 4.00000
4.00104 7.06907 4.00104
4.00336 7.14971 4.00336
4.00563 7.23051 4.00563
4.00785 7.31145 4.00785
4.01005 7.39251 4.01005
4.01222 7.47367 4.01222
4.01439 7.55490 4.01439
4.01656 7.63619 4.01656
4.01874 7.71751 4.01874
4.02094 7.79883 4.02094
4.02318 7.88014 4.02318
4.02548 7.96139 4.02548
4.02784 8.04256 4.02784
4.03029 8.12360 4.03029
4.03285 8.20448 4.03285
4.03554 8.28513 4.03554
4.03841 8.36548 4.03841
4.04148 8.44547 4.04148
4.04483 8.52497 4.04483
4.04850 8.60385 4.04850
4.05260 8.68194 4.05259
4.05711 8.75923 4.05711
4.06204 8.83574 4.06204
4.06741 8.91139 4.06741
4.07327 8.98614 4.07327
4.07962 9.05993 4.07962
4.08648 9.13274 4.08648
4.09386 9.20456 4.09386
4.10172 9.27545 4.10172
4.11003 9.34549 4.11003
4.11871 9.41484 4.11871
4.12762 9.48374 4.12762
4.13661 9.55254 4.13661
4.14545 9.62167 4.14545
4.15385 9.69172 4.15385
4.16143 9.76344 4.16143
4.16776 9.83770 4.16776
4.17234 9.91549 4.17234
4.17467 9.99782 4.17467
4.17438 10.08544 4.17438
4.17241 10.17642 4.17241
4.16980 10.26873 4.16980
4.16659 10.36229 4.16659
4.16278 10.45707 4.16278
4.15837 10.55307 4.15837
4.15334 10.65036 4.15334
4.14763 10.74901 4.14764
4.14119 10.84919 4.14119
4.13389 10.95110 4.13389
4.12559 11.05504 4.12559
4.11606 11.16147 4.11606
4.10496 11.27108 4.10496
4.09173 11.38497 4.09173
4.07549 11.50491 4.07549
4.05495 11.63348 4.05495
4.02721 11.77647 4.02721
4.00000 13.19120 4.00000
4.00000 13.19120 4.00000
4.00000 13.19121 4.00000
4.00000 13.19120 4.00000
4.00000 13.19120 4.00000
4.00000 13.19120 4.00000
4.00000 13.19120 4.00000
4.00000 13.19120 4.00000
4.00000 13.19120 4.00000
4.00000 13.19121 4.00000
4.00000 13.19120 4.00000
4.00000 13.19120 4.00000
4.00000 13.19120 4.00000
4.00000 13.19120 4.00000
4.00000 13.19121 4.00000
4.00571 13.22317 4.00571
4.01577 13.29100 4.01576
4.02381 13.36286 4.02381
4.02990 13.43866 4.02990
4.03410 13.51826 4.03410
4.03651 13.60146 4.03651
4.03806 13.68639 4.03806
4.03957 13.77143 4.03957
4.04104 13.85657 4.04104
4.04249 13.94179 4.04249
4.04390 14.02708 4.04390
4.04528 14.11245 4.04528
4.04665 14.19788 4.04665
4.04799 14.28337 4.04799
4.04932 14.36891 4.04932
4.05063 14.45451 4.05063
4.05193 14.54014 4.05193
4.05322 14.62582 4.05322
4.05449 14.71154 4.05449
4.05576 14.79730 4.05576
4.05702 14.88309 4.05702
4.05827 14.96892 4.05827
4.05951 15.05477 4.05951
4.06070 15.14075 4.06070
4.06168 15.22716 4.06168
4.06246 15.31400 4.06246
4.06305 15.40124 4.06305
4.06345 15.48885 4.06345
4.06369 15.57682 4.06369
4.06377 15.66511 4.06377
4.06371 15.75370 4.06371
4.06352 15.84257 4.06352
4.06321 15.93169 4.06321
4.06280 16.02105 4.06280
4.06228 16.11061 4.06228
4.06168 16.20037 4.06168
4.06100 16.29030 4.06100
4.06024 16.38038 4.06024
4.05943 16.47060 4.05943
4.05856 16.56094 4.05856
4.05765 16.65139 4.05765
4.05670 16.74193 4.05670
4.05571 16.83256 4.05571
4.05469 16.92325 4.05469
4.05365 17.01401 4.05365
4.05260 17.10481 4.05260
4.05153 17.19566 4.05153
4.05044 17.28654 4.05044
4.04936 17.37744 4.04936
4.04827 17.46836 4.04827
4.04718 17.55930 4.04718
4.04609 17.65024 4.04609
4.04500 17.74119 4.04500
4.04393 17.83214 4.04393
4.04286 17.92308 4.04286
4.04180 18.01401 4.04180
4.04076 18.10493 4.04076
4.03972 18.19583 4.03972
4.03871 18.28672 4.03871
4.03770 18.37759 4.03770
4.03672 18.46844 4.03672
4.03574 18.55927 4.03574
4.03479 18.65008 4.03479
4.03385 18.74086 4.03385
4.03294 18.83161 4.03294
4.03204 18.92234 4.03204
4.03116 19.01305 4.03116
4.03029 19.10373 4.03029
4.02945 19.19438 4.02945
4.02863 19.28500 4.02862
4.02782 19.37560 4.02782
4.02703 19.46617 4.02703
4.02626 19.55671 4.02626
4.02551 19.64722 4.02551
4.02478 19.73771 4.02478
4.02407 19.82817 4.02407
4.02337 19.91861 4.02337
4.02269 20.00902 4.02269
4.02203 20.09940 4.02203
4.02139 20.18976 4.02139
4.02076 20.28010 4.02076
4.02015 20.37041 4.02015
4.01956 20.46070 4.01956
4.01898 20.55097 4.01898
4.01842 20.64121 4.01842
4.01787 20.73144 4.01787
4.01734 20.82164 4.01734
4.01682 20.91182 4.01682
4.01632 21.00198 4.01632
4.01583 21.09212 4.01583
4.01535 21.18224 4.01535
4.01489 21.27235 4.01489
4.01444 21.36243 4.01444
4.01401 21.45250 4.01401
4.01358 21.54256 4.01358
4.01317 21.63259 4.01317
4.01277 21.72261 4.01277
4.01239 21.81262 4.01239
4.01201 21.90261 4.01201

