Angle 0.557163 5.348677

4.00000 7.03348 4.00000
4.00000 7.03348 4.00000
4.00000 7.03348 4.00000
4.00000 7.03348 4.00000
4.00000 7.03348 4.00000
4.00000 7.03348 4.00000
4.00000 7.03348 4.00000
4.00000 7.03348 4.00000
4.00000 7.03348 4.00000
4.00000 7.03348 4.00000
4.00000 7.03348 4.00000
4.00000 7.03348 4.00000
4.00000 7.03348 4.00000
4.00000 7.03348 4.00000
4.00000 7.03348 4.00000
4.00000 7.03348 4.00000
4.00000 7.03348 4.00000
4.00000 7.03348 4.00000
4.00000 7.03348 4.00000
4.00000 7.03348 4.00000
4.00000 7.03348 4.00000
4.00000 7.03348 4.00000
4.00000 7.03348 4.00000
4.00000 7.03348 4.00000
4.00000 7.03348 4.00000
4.00000 7.03348 4.00000
4.00000 7.03348 4.00000
4.00000 7.03348 4.00000
4.00000 7.03348 4.00000
4.00000 7.03348 4.00000
4.00000 7.03348 4.00000
4.00000 7.03348 4.00000
4.00000 7.03348 4.00000
4.00000 7.03348 4.00000
4.00000 7.03348 4.00000
4.00000 7.03348 4.00000
4.00000 7.03348 4.00000
4.00000 7.03348 4.00000
4.00000 7.03348 4.00000
4.00000 7.03348 4.00000
4.00000 7.03348 4.00000
4.00000 7.03348 4.00000
4.00000 7.03348 4.00000
4.00000 7.03348 4.00000
4.00000 7.03348 4.00000
4.00000 7.03348 4.00000
4.00000 7.03348 4.00000
4.00000 7.03348 4.00000
4.00000 7.03348 4.00000
4.00000 7.03348 4.00000
4.00000 7.03348 4.00000
4.00000 7.03348 4.00000
4.00000 7.03348 4.00000
4.00000 7.03348 4.00000
4.00000 7.03348 4.00000
4.00000 7.03348 4.00000
4.00000 7.03348 4.00000
4.00000 7.03348 4.00000
4.00000 7.03348 4.00000
4.00000 7.03348 4.00000
4.00000 7.03348 4.00000
4.00000 7.03348 4.00000
4.00000 7.03348 4.00000
4.00000 7.03348 4.00000
4.00000 7.03348 4.00000
4.00000 7.03348 4.00000
4.00000 7.03348 4.00000
4.00000 7.03348 4.00000
4.00000 7.03348 4.00000
4.00000 7.03348 4.00000
4.00000 7.03348 4.00000
4.00000 7.03348 4.00000
4.00000 7.03348 4.00000
4.00000 7.03348 4.00000
4.00000 7.03348 4.00000
4.00000 7.03348 4.00000
4.00000 7.03348 4.00000
4.00000 7.03349 4.00000
4.00000 7.03348 4.00000
4.00000 7.03352 4.00000
4.00000 7.03348 4.00000
4.00044 7.04846 4.00044
4.00272 7.12711 4.00272
4.00495 7.20595 4.00495
4.00713 7.28496 4.00713
4.00928 7.36410 4.00928
4.01141 7.44338 4.01141
4.01353 7.52275 4.01353
4.01565 7.60221 4.01565
4.01778 7.68172 4.01778
4.01992 7.76127 4.01992
4.02209 7.84084 4.02210
4.02431 7.92039 4.02431
4.02659 7.99990 4.02659
4.02894 8.07933 4.02894
4.03138 8.15865 4.03138
4.03394 8.23779 4.03394
4.03664 8.31672 4.03664
4.03953 8.39536 4.03953
4.04263 8.47361 4.04263
4.04601 8.55138 4.04601
4.04974 8.62852 4.04974
4.05389 8.70488 4.05389
4.05843 8.78051 4.05843
4.06338 8.85538 4.06338
4.06878 8.92943 4.06878
4.07463 9.00261 4.07463
4.08098 9.07487 4.08098
4.08782 9.14620 4.08782
4.09515 9.21659 4.09515
4.10296 9.28611 4.10296
4.11118 9.35484 4.11118
4.11974 9.42294 4.11974
4.12852 9.49066 4.12852
4.13736 9.55831 4.13736
4.14604 9.62635 4.14604
4.15426 9.69534 4.15426
4.16168 9.76599 4.16168
4.16787 9.83914 4.16787
4.17235 9.91576 4.17235
4.17466 9.99678 4.17466
4.17442 10.08293 4.17442
4.17251 10.17247 4.17251
4.16997 10.26332 4.16997
4.16684 10.35539 4.16684
4.16314 10.44866 4.16314
4.15885 10.54314 4.15885
4.15396 10.63887 4.15396
4.14843 10.73593 4.14843
4.14218 10.83445 4.14218
4.13512 10.93464 4.13512
4.12712 11.03676 4.12712
4.11796 11.14123 4.11796
4.10735 11.24865 4.10735
4.09480 11.35998 4.09480
4.07953 11.47681 4.07953
4.06043 11.60131 4.06043
4.03527 11.73798 4.03527
4.00000 13.19120 4.00000
4.00000 13.19120 4.00000
4.00000 13.19120 4.00000
4.00000 13.19120 4.00000
4.00000 13.19120 4.00000
4.00000 13.19120 4.00000
4.00000 13.19120 4.00000
4.00000 13.19120 4.00000
4.00000 13.19120 4.00000
4.00000 13.19120 4.00000
4.00000 13.19121 4.00000
4.00000 13.19120 4.00000
4.00000 13.19120 4.00000
4.00000 13.19120 4.00000
4.00000 13.19120 4.00000
4.00051 13.19389 4.00051
4.01136 13.25911 4.01136
4.02024 13.32830 4.02024
4.02719 13.40140 4.02719
4.03224 13.47830 4.03224
4.03550 13.55883 4.03550
4.03726 13.64239 4.03726
4.03878 13.72645 4.03878
4.04025 13.81063 4.04025
4.04170 13.89490 4.04170
4.04311 13.97926 4.04311
4.04449 14.06370 4.04449
4.04586 14.14822 4.04586
4.04720 14.23280 4.04720
4.04852 14.31744 4.04852
4.04983 14.40214 4.04983
4.05113 14.48690 4.05113
4.05241 14.57170 4.05241
4.05368 14.65656 4.05368
4.05494 14.74146 4.05494
4.05619 14.82640 4.05619
4.05743 14.91138 4.05743
4.05867 14.99640 4.05867
4.05990 15.08145 4.05990
4.06102 15.16674 4.06102
4.06193 15.25248 4.06193
4.06264 15.33863 4.06264
4.06317 15.42518 4.06317
4.06353 15.51209 4.06353
4.06372 15.59935 4.06372
4.06377 15.68693 4.06377
4.06368 15.77481 4.06368
4.06346 15.86296 4.06346
4.06313 15.95135 4.06313
4.06270 16.03998 4.06270
4.06217 16.12882 4.06217
4.06155 16.21784 4.06155
4.06086 16.30704 4.06086
4.06010 16.39639 4.06010
4.05929 16.48588 4.05929
4.05842 16.57550 4.05842
4.05751 16.66522 4.05751
4.05656 16.75504 4.05656
4.05557 16.84494 4.05557
4.05456 16.93491 4.05456
4.05353 17.02495 4.05353
4.05248 17.11504 4.05248
4.05141 17.20518 4.05141
4.05034 17.29535 4.05034
4.04926 17.38555 4.04926
4.04818 17.47578 4.04818
4.04710 17.56602 4.04710
4.04602 17.65628 4.04602
4.04494 17.74654 4.04494
4.04387 17.83681 4.04387
4.04281 17.92707 4.04281
4.04176 18.01733 4.04176
4.04073 18.10759 4.04073
4.03970 18.19783 4.03970
4.03869 18.28807 4.03869
4.03770 18.37828 4.03770
4.03671 18.46849 4.03671
4.03575 18.55868 4.03575
4.03480 18.64884 4.03480
4.03387 18.73899 4.03387
4.03296 18.82912 4.03296
4.03207 18.91923 4.03207
4.03119 19.00932 4.03119
4.03034 19.09938 4.03034
4.02950 19.18942 4.02950
4.02868 19.27944 4.02868
4.02787 19.36943 4.02787
4.02709 19.45941 4.02709
4.02633 19.54936 4.02633
4.02558 19.63929 4.02558
4.02485 19.72919 4.02485
4.02414 19.81907 4.02414
4.02344 19.90894 4.02344
4.02277 19.99878 4.02277
4.02211 20.08860 4.02211
4.02147 20.17839 4.02147
4.02084 20.26817 4.02084
4.02023 20.35793 4.02023
4.01964 20.44767 4.01964
4.01907 20.53739 4.01907
4.01850 20.62709 4.01850
4.01796 20.71677 4.01796
4.01743 20.80643 4.01743
4.01691 20.89608 4.01691
4.01641 20.98572 4.01641
4.01592 21.07533 4.01592
4.01544 21.16493 4.01544
4.01498 21.25452 4.01498
4.01453 21.34409 4.01453
4.01410 21.43364 4.01410
4.01367 21.52319 4.01367
4.01326 21.61272 4.01326
4.01286 21.70224 4.01286
4.01248 21.79174 4.01248
4.01210 21.88124 4.01210
4.01173 21.97072 4.01173
4.01138 22.06020 4.01138
4.01103 22.14966 4.01103
4.01070 22.23911 4.01070
4.01037 22.32856 4.01037
4.01006 22.41799 4.01006
4.00975 22.50742 4.00975
4.00945 22.59684 4.00945
4.00916 22.68626 4.00916
4.00888 22.77566 4.00888
4.00861 22.86506 4.00861
4.00835 22.95445 4.00835
4.00809 23.04384 4.00809
4.00784 23.13322 4.00784
4.00760 23.22260 4.00760
4.00737 23.31197 4.00737
4.00714 23.40134 4.00714
4.00692 23.49070 4.00692
4.00671 23.58006 4.00671
4.00650 23.66941 4.00650
4.00630 23.75876 4.00630
4.00611 23.84811 4.00611
4.00592 23.93746 4.00592
4.00574 24.02680 4.00574
4.00556 24.11614 4.00556
4.00539 24.20548 4.00539
4.00522 24.29482 4.00522
4.00506 24.38415 4.00506
4.00491 24.47349 4.00491
4.00475 24.56282 4.00475
4.00461 24.65216 4.00461
4.00446 24.74149 4.00446
4.00433 24.83082 4.00433
4.00419 24.92015 4.00419
4.00406 25.00948 4.00406
4.00394 25.09881 4.00394
4.00381 25.18814 4.00381
4.00369 25.27748 4.00369
4.00358 25.36681 4.00358
4.00347 25.45614 4.00347
4.00336 25.54548 4.00336
4.00326 25.63481 4.00326
4.00315 25.72415 4.00315
4.00306 25.81349 4.00306
4.00296 25.90283 4.00296
4.00287 25.99217 4.00287
4.00278 26.08151 4.00278
4.00269 26.17086 4.00269
4.00261 26.26020 4.00261
4.00253 26.34955 4.00253
4.00245 26.43890 4.00245
4.00237 26.52826 4.00237
4.00230 26.61761 4.00230
4.00223 26.70697 4.00223
4.00216 26.79633 4.00216
4.00209 26.88569 4.00209
4.00203 26.97506 4.00203
4.00196 27.06443 4.00196
4.00190 27.15380 4.00190
4.00184 27.24317 4.00184
4.00178 27.33255 4.00178
4.00173 27.42193 4.00173
4.00167 27.51131 4.00167
4.00162 27.60070 4.00162
4.00157 27.69009 4.00157
4.00152 27.77948 4.00152
4.00147 27.86888 4.00147
4.00143 27.95828 4.00143
4.00138 28.04768 4.00138
4.00134 28.13709 4.00134
4.00130 28.22650 4.00130
4.00126 28.31591 4.00126
4.00122 28.40533 4.00122
4.00118 28.49475 4.00118
4.00114 28.58417 4.00114
4.00111 28.67360 4.00111
4.00107 28.76303 4.00107
4.00104 28.85247 4.00104
4.00101 28.94190 4.00101
4.00097 29.03135 4.00097
4.00094 29.12079 4.00094
4.00091 29.21024 4.00091
4.00089 29.29970 4.00089
4.00086 29.38915 4.00086
4.00083 29.47862 4.00083
4.00080 29.56808 4.00080
4.00078 29.65755 4.00078
4.00076 29.74702 4.00076
4.00073 29.83650 4.00073
4.00071 29.92598 4.00071
4.00069 30.01547 4.00069
4.00066 30.10495 4.00067
4.00064 30.19445 4.00064
4.00062 30.28394 4.00062
4.00060 30.37344 4.00060
4.00059 30.46295 4.00059
4.00057 30.55246 4.00057
4.00055 30.64197 4.00055
4.00053 30.73148 4.00053
4.00052 30.82100 4.00052
4.00050 30.91053 4.00050
4.00048 31.00006 4.00048
4.00047 31.08959 4.00047
4.00045 31.17912 4.00045
4.00044 31.26866 4.00044
4.00043 31.35821 4.00043
4.00041 31.44775 4.00041
4.00040 31.53731 4.00040
4.00039 31.62686 4.00039
4.00037 31.71642 4.00037
4.00036 31.80598 4.00036
4.00035 31.89555 4.00035
4.00034 31.98512 4.00034
4.00033 32.07470 4.00033
4.00032 32.16427 4.00032
4.00031 32.25386 4.00031
4.00030 32.34344 4.00030
4.00029 32.43303 4.00029
4.00028 32.52263 4.00028
4.00027 32.61222 4.00027
4.00026 32.70182 4.00026
4.00026 32.79143 4.00026
4.00025 32.88104 4.00025
4.00024 32.97065 4.00024
4.00023 33.06027 4.00023
4.00022 33.14989 4.00022
4.00022 33.23951 4.00022
4.00021 33.32914 4.00021
4.00020 33.41877 4.00020
4.00020 33.50841 4.00020
4.00019 33.59804 4.00019
4.00019 33.68769 4.00019
4.00018 33.77733 4.00018
4.00017 33.86698 4.00017
4.00017 33.95664 4.00017
4.00016 34.04629 4.00016
4.00016 34.13595 4.00016
4.00015 34.22562 4.00015
4.00015 34.31528 4.00015
4.00014 34.40495 4.00014
4.00014 34.49463 4.00014
4.00013 34.58431 4.00013
4.00013 34.67399 4.00013
4.00013 34.76367 4.00013
4.00012 34.85336 4.00012
4.00012 34.94305 4.00012
4.00011 35.03275 4.00011

Angle 0.527990 4.523300

4.00000 7.03348 4.00000
4.00000 7.03347 4.00000
4.00000 7.03347 4.00000
4.00000 7.03347 4.00000
4.00000 7.03347 4.00000
4.00000 7.03348 4.00000
4.00000 7.03348 4.00000
4.00000 7.03348 4.00000
4.00000 7.03348 4.00000
4.00000 7.03348 4.00000
4.00000 7.03348 4.00000
4.00000 7.03348 4.00000
4.00000 7.03348 4.00000
4.00000 7.03348 4.00000
4.00000 7.03348 4.00000
4.00000 7.03348 4.00000
4.00000 7.03348 4.00000
4.00000 7.03349 4.00000
4.00000 7.03349 4.00000
4.00000 7.03349 4.00000
4.00000 7.03348 4.00000
4.00000 7.03348 4.00000
4.00000 7.03349 4.00000
4.00000 7.03348 4.00000
4.00000 7.03348 4.00000
4.00000 7.03349 4.00000
4.00000 7.03349 4.00000
4.00000 7.03350 4.00000
4.00000 7.03350 4.00000
4.00000 7.03351 4.00000
4.00000 7.03351 4.00000
4.00000 7.03351 4.00000
4.00000 7.03352 4.00000
4.00000 7.03352 4.00000
4.00000 7.03348 4.00000
4.00000 7.03348 4.00000
4.00000 7.03348 4.00000
4.00000 7.03348 4.00000
4.00000 7.03348 4.00000
4.00000 7.03348 4.00000
4.00000 7.03348 4.00000
4.00000 7.03348 4.00000
4.00000 7.03348 4.00000
4.00000 7.03348 4.00000
4.00000 7.03348 4.00000
4.00000 7.03348 4.00000
4.00000 7.03348 4.00000
4.00000 7.03348 4.00000
4.00000 7.03348 4.00000
4.00000 7.03348 4.00000
4.00000 7.03348 4.00000
4.00000 7.03348 4.00000
4.00000 7.03348 4.00000
4.00000 7.03348 4.00000
4.00000 7.03348 4.00000
4.00000 7.03348 4.00000
4.00000 7.03348 4.00000
4.00000 7.03348 4.00000
4.00000 7.03348 4.00000
4.00000 7.03348 4.00000
4.00043 7.04811 4.00043
4.00121 7.07490 4.00121
4.00200 7.10217 4.00200
4.00280 7.12991 4.00280
4.00360 7.15813 4.00360
4.00441 7.18681 4.00441
4.00522 7.21596 4.00522
4.00604 7.24557 4.00604
4.00687 7.27564 4.00687
4.00771 7.30616 4.00771
4.00855 7.33714 4.00855
4.00940 7.36856 4.00940
4.01026 7.40043 4.01026
4.01113 7.43274 4.01113
4.01201 7.46548 4.01201
4.01289 7.49866 4.01289
4.01379 7.53227 4.01379
4.01469 7.56630 4.01469
4.01561 7.60075 4.01561
4.01654 7.63561 4.01654
4.01749 7.67089 4.01749
4.01844 7.70657 4.01844
4.01942 7.74265 4.01942
4.02041 7.77913 4.02041
4.02141 7.81599 4.02141
4.02244 7.85324 4.02244
4.02348 7.89086 4.02348
4.02455 7.92885 4.02455
4.02564 7.96721 4.02564
4.02676 8.00592 4.02676
4.02791 8.04498 4.02791
4.02909 8.08438 4.02909
4.03030 8.12411 4.03030
4.03155 8.16416 4.03155
4.03285 8.20452 4.03285
4.03419 8.24518 4.03419
4.03558 8.28612 4.03558
4.03702 8.32733 4.03702
4.03853 8.36880 4.03853
4.04011 8.41051 4.04011
4.04176 8.45243 4.04176
4.04351 8.49455 4.04351
4.04535 8.53684 4.04535
4.04731 8.57926 4.04731
4.04940 8.62179 4.04940
4.05163 8.66439 4.05163
4.05401 8.70704 4.05401
4.05653 8.74977 4.05653
4.05920 8.79257 4.05920
4.06201 8.83540 4.06201
4.06499 8.87825 4.06499
4.06814 8.92111 4.06814
4.07147 8.96395 4.07147
4.07498 9.00675 4.07498
4.07869 9.04950 4.07869
4.08259 9.09219 4.08259
4.08669 9.13480 4.08669
4.09099 9.17733 4.09099
4.09550 9.21978 4.09550
4.10020 9.26214 4.10020
4.10510 9.30444 4.10510
4.11018 9.34669 4.11018
4.11542 9.38893 4.11542
4.12080 9.43119 4.12080
4.12629 9.47354 4.12629
4.13185 9.51605 4.13185
4.13743 9.55881 4.13743
4.14297 9.60195 4.14297
4.14840 9.64560 4.14840
4.15364 9.68993 4.15364
4.15859 9.73513 4.15859
4.16312 9.78144 4.16312
4.16712 9.82910 4.16712
4.17044 9.87841 4.17044
4.17293 9.92965 4.17293
4.17445 9.98311 4.17445
4.17487 10.03903 4.17487
4.17415 10.09750 4.17415
4.17288 10.15736 4.17288
4.17131 10.21806 4.17131
4.16946 10.27959 4.16946
4.16733 10.34193 4.16733
4.16493 10.40508 4.16493
4.16226 10.46904 4.16226
4.15930 10.53382 4.15930
4.15604 10.59944 4.15604
4.15248 10.66592 4.15248
4.14858 10.73331 4.14858
4.14433 10.80166 4.14433
4.13969 10.87103 4.13969
4.13461 10.94151 4.13461
4.12904 11.01321 4.12904
4.12291 11.08628 4.12291
4.11612 11.16089 4.11612
4.10853 11.23732 4.10853
4.09998 11.31591 4.09998
4.09019 11.39721 4.09019
4.07880 11.48191 4.07880
4.06540 11.57088 4.06540
4.04921 11.66564 4.04921
4.02880 11.76905 4.02880
4.00082 11.88783 4.00081
4.00000 13.19120 4.00000
4.00000 13.19120 4.00000
4.00000 13.19120 4.00000
4.00000 13.19120 4.00000
4.00000 13.19119 4.00000
4.00000 13.19120 4.00000
4.00000 13.19120 4.00000
4.00000 13.19120 4.00000
4.00000 13.19120 4.00000
4.00000 13.19120 4.00000
4.00000 13.19120 4.00000
4.00000 13.19120 4.00000
4.00000 13.19120 4.00000
4.00000 13.19120 4.00000
4.00000 13.19120 4.00000
4.00000 13.19120 4.00000
4.00000 13.19120 4.00000
4.00000 13.19120 4.00000
4.00000 13.19120 4.00000
4.00000 13.19120 4.00000
4.00820 13.23840 4.00820
4.01570 13.29047 4.01570
4.02204 13.34502 4.02204
4.02724 13.40203 4.02724
4.03131 13.46146 4.03131
4.03429 13.52325 4.03429
4.03622 13.58731 4.03622
4.03745 13.65293 4.03745
4.03864 13.71880 4.03864
4.03981 13.78487 4.03981
4.04095 13.85115 4.04095
4.04208 13.91762 4.04208
4.04319 13.98428 4.04319
4.04429 14.05112 4.04429
4.04538 14.11815 4.04538
4.04645 14.18535 4.04645
4.04751 14.25272 4.04751
4.04857 14.32026 4.04857
4.04961 14.38797 4.04961
4.05065 14.45583 4.05065
4.05168 14.52386 4.05168
4.05271 14.59205 4.05271
4.05373 14.66039 4.05373
4.05475 14.72888 4.05475
4.05576 14.79752 4.05576
4.05677 14.86630 4.05677
4.05778 14.93523 4.05778
4.05878 15.00431 4.05878
4.05978 15.07352 4.05978
4.06073 15.14298 4.06073
4.06153 15.21285 4.06153
4.06221 15.28312 4.06221
4.06275 15.35377 4.06275
4.06317 15.42481 4.06317
4.06348 15.49620 4.06348
4.06367 15.56794 4.06367
4.06376 15.64002 4.06376
4.06376 15.71241 4.06376
4.06366 15.78511 4.06366
4.06348 15.85811 4.06348
4.06322 15.93138 4.06322
4.06288 16.00493 4.06288
4.06248 16.07872 4.06248
4.06201 16.15277 4.06201
4.06148 16.22704 4.06148
4.06091 16.30154 4.06091
4.06028 16.37625 4.06028
4.05961 16.45116 4.05961
4.05890 16.52627 4.05890
4.05816 16.60155 4.05816
4.05738 16.67701 4.05738
4.05658 16.75263 4.05658
4.05575 16.82841 4.05575
4.05491 16.90435 4.05491
4.05404 16.98042 4.05404
4.05316 17.05663 4.05316
4.05227 17.13298 4.05227
4.05136 17.20944 4.05136
4.05045 17.28603 4.05045
4.04953 17.36273 4.04953
4.04861 17.43954 4.04861
4.04769 17.51645 4.04769
4.04677 17.59347 4.04677
4.04585 17.67058 4.04584
4.04493 17.74778 4.04493
4.04401 17.82507 4.04401
4.04310 17.90245 4.04310
4.04220 17.97991 4.04220
4.04130 18.05745 4.04130
4.04041 18.13507 4.04041
4.03953 18.21277 4.03953
4.03866 18.29054 4.03866
4.03780 18.36838 4.03780
4.03695 18.44629 4.03696
4.03612 18.52426 4.03612
4.03529 18.60231 4.03529
4.03448 18.68041 4.03448
4.03367 18.75858 4.03367
4.03288 18.83682 4.03288
4.03211 18.91511 4.03211
4.03134 18.99346 4.03134
4.03059 19.07187 4.03059
4.02986 19.15034 4.02986
4.02913 19.22886 4.02913
4.02842 19.30744 4.02842
4.02773 19.38608 4.02773
4.02704 19.46477 4.02704
4.02637 19.54351 4.02637
4.02572 19.62231 4.02572
4.02507 19.70116 4.02507
4.02444 19.78006 4.02445
4.02383 19.85901 4.02383
4.02322 19.93801 4.02322
4.02263 20.01706 4.02263
4.02206 20.09617 4.02206
4.02149 20.17533 4.02149
4.02094 20.25453 4.02094
4.02040 20.33378 4.02040
4.01987 20.41309 4.01987
4.01935 20.49244 4.01935
4.01885 20.57184 4.01885
4.01835 20.65129 4.01835
4.01787 20.73078 4.01787
4.01740 20.81033 4.01740
4.01694 20.88992 4.01694
4.01650 20.96956 4.01650
4.01606 21.04925 4.01606
4.01563 21.12898 4.01563
4.01522 21.20876 4.01522
4.01481 21.28859 4.01481
4.01441 21.36847 4.01441
4.01403 21.44839 4.01403
4.01365 21.52836 4.01365
4.01328 21.60837 4.01328
4.01292 21.68843 4.01292
4.01257 21.76854 4.01257
4.01223 21.84869 4.01223
4.01190 21.92889 4.01190
4.01158 22.00913 4.01158
4.01126 22.08942 4.01126
4.01096 22.16975 4.01096
4.01066 22.25013 4.01066
4.01036 22.33056 4.01036
4.01008 22.41103 4.01008
4.00980 22.49154 4.00980
4.00953 22.57210 4.00953
4.00927 22.65271 4.00927
4.00902 22.73335 4.00902
4.00877 22.81405 4.00877
4.00852 22.89478 4.00852
4.00829 22.97556 4.00829
4.00806 23.05639 4.00806
4.00783 23.13726 4.00783
4.00762 23.21817 4.00762
4.00740 23.29913 4.00740
4.00720 23.38013 4.00720
4.00700 23.46116 4.00700
4.00680 23.54225 4.00680
4.00661 23.62338 4.00661
4.00643 23.70455 4.00642
4.00624 23.78577 4.00624
4.00607 23.86702 4.00607
4.00590 23.94832 4.00590
4.00573 24.02966 4.00573
4.00557 24.11104 4.00557
4.00541 24.19247 4.00542
4.00526 24.27394 4.00526
4.00511 24.35544 4.00511
4.00497 24.43699 4.00497
4.00483 24.51858 4.00483
4.00469 24.60021 4.00469
4.00456 24.68188 4.00456
4.00443 24.76360 4.00443
4.00430 24.84535 4.00430
4.00418 24.92715 4.00418
4.00407 25.00897 4.00406
4.00394 25.09086 4.00394
4.00383 25.17277 4.00383
4.00372 25.25472 4.00372
4.00362 25.33672 4.00362
4.00351 25.41875 4.00351
4.00341 25.50082 4.00341
4.00332 25.58293 4.00332
4.00322 25.66508 4.00322
4.00313 25.74727 4.00312
4.00304 25.82949 4.00304
4.00295 25.91176 4.00295
4.00287 25.99407 4.00287
4.00278 26.07641 4.00278
4.00271 26.15879 4.00270
4.00263 26.24120 4.00263
4.00255 26.32366 4.00255
4.00248 26.40615 4.00248
4.00241 26.48868 4.00241
4.00234 26.57124 4.00234
4.00227 26.65384 4.00227
4.00220 26.73648 4.00221
4.00214 26.81916 4.00214
4.00208 26.90187 4.00208
4.00202 26.98462 4.00202
4.00196 27.06740 4.00196
4.00190 27.15022 4.00190
4.00185 27.23307 4.00185
4.00179 27.31596 4.00179
4.00174 27.39888 4.00174
4.00169 27.48184 4.00169
4.00164 27.56483 4.00164
4.00160 27.64786 4.00160
4.00155 27.73093 4.00155
4.00150 27.81402 4.00150
4.00146 27.89715 4.00146
4.00142 27.98032 4.00142
4.00138 28.06351 4.00138
4.00134 28.14674 4.00134
4.00130 28.23001 4.00130
4.00126 28.31331 4.00126
4.00122 28.39664 4.00122
4.00119 28.48000 4.00119
4.00115 28.56340 4.00115
4.00112 28.64682 4.00112
4.00109 28.73028 4.00108
4.00105 28.81378 4.00105
4.00102 28.89730 4.00102
4.00099 28.98085 4.00099
4.00096 29.06444 4.00096
4.00093 29.14806 4.00094
4.00091 29.23171 4.00091
4.00088 29.31539 4.00088
4.00085 29.39910 4.00085
4.00083 29.48284 4.00083
4.00081 29.56661 4.00081
4.00078 29.65041 4.00078
4.00076 29.73425 4.00076
4.00074 29.81811 4.00074
4.00071 29.90200 4.00072
4.00069 29.98592 4.00069
4.00067 30.06987 4.00067
4.00065 30.15385 4.00066

Angle 0.075131 5.178281

4.00000 7.03348 4.00000
4.00000 7.03348 4.00000
4.00000 7.03348 4.00000
4.00000 7.03348 4.00000
4.00000 7.03348 4.00000
4.00000 7.03348 4.00000
4.00000 7.03348 4.00000
4.00000 7.03348 4.00000
4.00000 7.03348 4.00000
4.00000 7.03348 4.00000
4.00000 7.03348 4.00000
4.00000 7.03348 4.00000
4.00000 7.03348 4.00000
4.00000 7.03348 4.00000
4.00000 7.03348 4.00000
4.00000 7.03348 4.00000
4.00000 7.03348 4.00000
4.00000 7.03348 4.00000
4.00000 7.03348 4.00000
4.00000 7.03348 4.00000
4.00000 7.03348 4.00000
4.00000 7.03348 4.00000
4.00000 7.03348 4.00000
4.00000 7.03348 4.00000
4.00000 7.03348 4.00000
4.00000 7.03348 4.00000
4.00000 7.03348 4.00000
4.00000 7.03348 4.00000
4.00000 7.03348 4.00000
4.00000 7.03348 4.00000
4.00000 7.03348 4.00000
4.00000 7.03348 4.00000
4.00000 7.03348 4.00000
4.00000 7.03348 4.00000
4.00000 7.03348 4.00000
4.00000 7.03348 4.00000
4.00000 7.03348 4.00000
4.00000 7.03348 4.00000
4.00000 7.03348 4.00000
4.00000 7.03348 4.00000
4.00000 7.03348 4.00000
4.00000 7.03348 4.00000
4.00000 7.03348 4.00000
4.00000 7.03348 4.00000
4.00000 7.03348 4.00000
4.00000 7.03348 4.00000
4.00000 7.03348 4.00000
4.00000 7.03348 4.00000
4.00000 7.03348 4.00000
4.00000 7.03348 4.00000
4.00000 7.03348 4.00000
4.00000 7.03348 4.00000
4.00000 7.03348 4.00000
4.00000 7.03348 4.00000
4.00000 7.03348 4.00000
4.00000 7.03348 4.00000
4.00000 7.03348 4.00000
4.00000 7.03348 4.00000
4.00000 7.03348 4.00000
4.00000 7.03348 4.00000
4.00000 7.03348 4.00000
4.00000 7.03348 4.00000
4.00000 7.03348 4.00000
4.00000 7.03348 4.00000
4.00000 7.03348 4.00000
4.00000 7.03348 4.00000
4.00000 7.03348 4.00000
4.00000 7.03348 4.00000
4.00000 7.03348 4.00000
4.00000 7.03348 4.00000
4.00000 7.03348 4.00000
4.00000 7.03348 4.00000
4.00000 7.03347 4.00000
4.00000 7.03348 4.00000
4.00000 7.03348 4.00000
4.00000 7.03348 4.00000
4.00000 7.03348 4.00000
4.00000 7.03348 4.00000
4.00000 7.03348 4.00000
4.00000 7.03348 4.00000
4.00000 7.03348 4.00000
4.00000 7.03348 4.00000
4.00000 7.03348 4.00000
4.00000 7.03348 4.00000
4.00000 7.03348 4.00000
4.00000 7.03348 4.00000
4.00000 7.03348 4.00000
4.00000 7.03348 4.00000
4.00000 7.03348 4.00000
4.00000 7.03348 4.00000
4.00000 7.03348 4.00000
4.00000 7.03348 4.00000
4.00000 7.03348 4.00000
4.00000 7.03348 4.00000
4.00000 7.03348 4.00000
4.00000 7.03348 4.00000
4.00000 7.03348 4.00000
4.00000 7.03348 4.00000
4.00000 7.03348 4.00000
4.00000 7.03348 4.00000
4.00000 7.03348 4.00000
4.00000 7.03348 4.00000
4.00000 7.03348 4.00000
4.00000 7.03348 4.00000
4.00000 7.03348 4.00000
4.00000 7.03348 4.00000
4.00000 7.03349 4.00000
4.00000 7.03348 4.00000
4.00000 7.03348 4.00000
4.00000 7.03348 4.00000
4.00000 7.03348 4.00000
4.00000 7.03348 4.00000
4.00000 7.03348 4.00000
4.00000 7.03348 4.00000
4.00000 7.03348 4.00000
4.00000 7.03348 4.00000
4.00000 7.03348 4.00000
4.00000 7.03348 4.00000
4.00000 7.03348 4.00000
4.00107 7.06996 4.00107
4.00262 7.12365 4.00262
4.00415 7.17770 4.00415
4.00567 7.23211 4.00567
4.00718 7.28685 4.00718
4.00868 7.34193 4.00868
4.01018 7.39733 4.01018
4.01167 7.45304 4.01167
4.01317 7.50906 4.01317
4.01467 7.56537 4.01467
4.01618 7.62196 4.01618
4.01770 7.67882 4.01770
4.01924 7.73595 4.01924
4.02079 7.79333 4.02079
4.02237 7.85093 4.02237
4.02399 7.90877 4.02399
4.02563 7.96681 4.02563
4.02732 8.02504 4.02732
4.02906 8.08345 4.02906
4.03086 8.14200 4.03086
4.03272 8.20070 4.03272
4.03467 8.25949 4.03467
4.03670 8.31837 4.03670
4.03885 8.37728 4.03885
4.04111 8.43620 4.04111
4.04353 8.49508 4.04353
4.04612 8.55385 4.04612
4.04893 8.61245 4.04893
4.05198 8.67079 4.05198
4.05528 8.72887 4.05528
4.05882 8.78671 4.05882
4.06262 8.84428 4.06262
4.06668 8.90154 4.06668
4.07103 8.95847 4.07103
4.07568 9.01502 4.07568
4.08064 9.07117 4.08064
4.08591 9.12692 4.08591
4.09150 9.18226 4.09150
4.09741 9.23718 4.09741
4.10361 9.29172 4.10361
4.11009 9.34592 4.11009
4.11680 9.39986 4.11680
4.12370 9.45363 4.12370
4.13071 9.50738 4.13071
4.13775 9.56129 4.13775
4.14469 9.61559 4.14469
4.15139 9.67056 4.15139
4.15769 9.72655 4.15769
4.16335 9.78398 4.16335
4.16817 9.84331 4.16817
4.17186 9.90507 4.17186
4.17417 9.96978 4.17417
4.17487 10.03789 4.17487
4.17392 10.10950 4.17392
4.17225 10.18271 4.17225
4.17017 10.25694 4.17017
4.16768 10.33214 4.16768
4.16481 10.40831 4.16481
4.16153 10.48544 4.16153
4.15785 10.56355 4.15785
4.15376 10.64267 4.15376
4.14921 10.72285 4.14921
4.14417 10.80418 4.14417
4.13859 10.88676 4.13859
4.13239 10.97072 4.13239
4.12549 11.05627 4.12549
4.11773 11.14367 4.11773
4.10895 11.23329 4.10895
4.09886 11.32568 4.09886
4.08702 11.42170 4.08702
4.07289 11.52248 4.07289
4.05560 11.62971 4.05560
4.03347 11.74678 4.03347
4.00232 11.88203 4.00232
4.00000 13.19120 4.00000
4.00000 13.19120 4.00000
4.00000 13.19120 4.00000
4.00000 13.19120 4.00000
4.00000 13.19120 4.00000
4.00000 13.19120 4.00000
4.00000 13.19120 4.00000
4.00000 13.19120 4.00000
4.00000 13.19120 4.00000
4.00000 13.19120 4.00000
4.00000 13.19120 4.00000
4.00000 13.19120 4.00000
4.00000 13.19120 4.00000
4.00000 13.19120 4.00000
4.00000 13.19120 4.00000
4.00000 13.19120 4.00000
4.00000 13.19120 4.00000
4.00423 13.21452 4.00423
4.01321 13.27200 4.01321
4.02071 13.33255 4.02071
4.02676 13.39613 4.02676
4.03138 13.46268 4.03138
4.03463 13.53209 4.03463
4.03656 13.60424 4.03656
4.03790 13.67768 4.03790
4.03922 13.75128 4.03922
4.04050 13.82506 4.04050
4.04177 13.89899 4.04177
4.04301 13.97307 4.04301
4.04423 14.04729 4.04423
4.04543 14.12165 4.04543
4.04662 14.19615 4.04662
4.04780 14.27077 4.04780
4.04896 14.34552 4.04896
4.05011 14.42039 4.05011
4.05125 14.49539 4.05126
4.05239 14.57049 4.05239
4.05351 14.64571 4.05352
4.05463 14.72104 4.05463
4.05575 14.79648 4.05575
4.05685 14.87203 4.05686
4.05796 14.94767 4.05796
4.05906 15.02342 4.05906
4.06015 15.09927 4.06015
4.06112 15.17546 4.06112
4.06193 15.25206 4.06193
4.06257 15.32907 4.06258
4.06307 15.40647 4.06307
4.06343 15.48423 4.06343
4.06366 15.56234 4.06366
4.06376 15.64079 4.06376
4.06375 15.71955 4.06375
4.06363 15.79861 4.06363
4.06341 15.87795 4.06341
4.06310 15.95755 4.06310
4.06271 16.03741 4.06271
4.06224 16.11750 4.06224
4.06170 16.19781 4.06170
4.06109 16.27833 4.06109
4.06043 16.35904 4.06043
4.05971 16.43992 4.05971
4.05895 16.52098 4.05895
4.05815 16.60220 4.05815
4.05732 16.68356 4.05732
4.05645 16.76506 4.05645
4.05555 16.84669 4.05555
4.05463 16.92843 4.05463
4.05370 17.01029 4.05370
4.05275 17.09225 4.05274
4.05178 17.17431 4.05178
4.05080 17.25645 4.05080
4.04982 17.33868 4.04982
4.04884 17.42098 4.04884
4.04785 17.50336 4.04785
4.04686 17.58581 4.04686
4.04587 17.66832 4.04587
4.04489 17.75089 4.04489
4.04391 17.83351 4.04391
4.04294 17.91619 4.04294
4.04198 17.99891 4.04198
4.04102 18.08168 4.04102
4.04008 18.16450 4.04008
4.03915 18.24735 4.03915
4.03822 18.33024 4.03822
4.03731 18.41318 4.03731
4.03642 18.49614 4.03642
4.03553 18.57914 4.03553
4.03467 18.66217 4.03466
4.03381 18.74524 4.03381
4.03297 18.82833 4.03297
4.03214 18.91145 4.03214
4.03133 18.99460 4.03133
4.03054 19.07778 4.03054
4.02976 19.16098 4.02976
4.02899 19.24420 4.02899
4.02824 19.32746 4.02824
4.02751 19.41073 4.02751
4.02679 19.49403 4.02679
4.02609 19.57736 4.02609
4.02540 19.66071 4.02540
4.02473 19.74408 4.02473
4.02407 19.82747 4.02407
4.02343 19.91089 4.02343
4.02280 19.99432 4.02280
4.02219 20.07778 4.02219
4.02159 20.16127 4.02159
4.02100 20.24477 4.02100
4.02043 20.32830 4.02043
4.01987 20.41185 4.01988
4.01933 20.49542 4.01933
4.01880 20.57902 4.01880
4.01829 20.66263 4.01829
4.01778 20.74627 4.01778
4.01729 20.82993 4.01729
4.01681 20.91362 4.01681
4.01634 20.99732 4.01634
4.01589 21.08105 4.01589
4.01544 21.16480 4.01544
4.01501 21.24857 4.01501
4.01459 21.33237 4.01459
4.01418 21.41619 4.01418
4.01378 21.50003 4.01378
4.01339 21.58390 4.01339
4.01302 21.66779 4.01302
4.01265 21.75170 4.01265
4.01229 21.83563 4.01229
4.01194 21.91959 4.01194
4.01160 22.00357 4.01160
4.01127 22.08758 4.01127
4.01095 22.17161 4.01095
4.01064 22.25566 4.01064
4.01033 22.33974 4.01033
4.01004 22.42384 4.01004
4.00975 22.50796 4.00975
4.00947 22.59211 4.00947
4.00920 22.67629 4.00920
4.00893 22.76048 4.00893
4.00867 22.84471 4.00867
4.00842 22.92895 4.00842
4.00818 23.01322 4.00818
4.00794 23.09752 4.00794
4.00771 23.18184 4.00771
4.00749 23.26618 4.00749
4.00727 23.35055 4.00727
4.00706 23.43494 4.00706
4.00686 23.51936 4.00686
4.00666 23.60380 4.00666
4.00646 23.68827 4.00646
4.00627 23.77276 4.00627
4.00609 23.85728 4.00609
4.00591 23.94182 4.00591
4.00574 24.02639 4.00574
4.00557 24.11098 4.00557
4.00541 24.19559 4.00541
4.00525 24.28023 4.00525
4.00510 24.36490 4.00510
4.00495 24.44959 4.00495
4.00480 24.53430 4.00480
4.00466 24.61904 4.00466
4.00452 24.70380 4.00452
4.00439 24.78859 4.00439
4.00426 24.87340 4.00426
4.00414 24.95824 4.00414
4.00401 25.04310 4.00401
4.00390 25.12798 4.00389
4.00378 25.21289 4.00378
4.00367 25.29783 4.00367
4.00356 25.38278 4.00356
4.00345 25.46777 4.00345
4.00335 25.55277 4.00335
4.00325 25.63780 4.00325
4.00316 25.72286 4.00316
4.00306 25.80794 4.00306
4.00297 25.89304 4.00297
4.00288 25.97816 4.00288
4.00280 26.06331 4.00280
4.00272 26.14849 4.00271
4.00263 26.23368 4.00263
4.00256 26.31891 4.00256
4.00248 26.40415 4.00248
4.00241 26.48942 4.00241
4.00233 26.57471 4.00233
4.00226 26.66002 4.00226
4.00220 26.74536 4.00220
4.00213 26.83072 4.00213
4.00207 26.91610 4.00207
4.00200 27.00151 4.00201
4.00195 27.08694 4.00194
4.00189 27.17239 4.00189
4.00183 27.25786 4.00183
4.00178 27.34337 4.00178
4.00172 27.42888 4.00173
4.00167 27.51443 4.00167
4.00162 27.59999 4.00162
4.00157 27.68557 4.00158
4.00153 27.77118 4.00153
4.00148 27.85681 4.00148
4.00144 27.94246 4.00144
4.00139 28.02814 4.00139
4.00135 28.11384 4.00135
4.00131 28.19955 4.00131
4.00127 28.28529 4.00127
4.00123 28.37105 4.00123
4.00120 28.45684 4.00120
4.00116 28.54264 4.00116
4.00113 28.62846 4.00113
4.00109 28.71430 4.00109

Angle 0.647886 0.083360

4.00000 7.03348 4.00000
4.00000 7.03348 4.00000
4.00000 7.03348 4.00000
4.00000 7.03348 4.00000
4.00000 7.03348 4.00000
4.00000 7.03348 4.00000
4.00000 7.03348 4.00000
4.00000 7.03348 4.00000
4.00000 7.03348 4.00000
4.00000 7.03348 4.00000
4.00000 7.03348 4.00000
4.00000 7.03348 4.00000
4.00000 7.03348 4.00000
4.00000 7.03348 4.00000
4.00000 7.03348 4.00000
4.00161 7.08859 4.00161
4.00393 7.16993 4.00393
4.00621 7.25141 4.00621
4.00844 7.33303 4.00844
4.01065 7.41475 4.01065
4.01284 7.49656 4.01284
4.01502 7.57843 4.01502
4.01720 7.66034 4.01720
4.01941 7.74227 4.01941
4.02164 7.82419 4.02164
4.02391 7.90607 4.02391
4.02624 7.98788 4.02624
4.02864 8.06959 4.02864
4.03114 8.15115 4.03114
4.03376 8.23251 4.03376
4.03653 8.31362 4.03653
4.03949 8.39440 4.03949
4.04268 8.47475 4.04268
4.04616 8.55457 4.04615
4.05000 8.63368 4.05000
4.05430 8.71195 4.05429
4.05900 8.78944 4.05900
4.06414 8.86610 4.06413
4.06973 8.94186 4.06973
4.07583 9.01668 4.07582
4.08243 9.09051 4.08243
4.08956 9.16334 4.08955
4.09719 9.23518 4.09719
4.10530 9.30611 4.10529
4.11383 9.37623 4.11382
4.12268 9.44574 4.12268
4.13170 9.51494 4.13170
4.14071 9.58421 4.14071
4.14943 9.65408 4.14943
4.15754 9.72520 4.15754
4.16463 9.79841 4.16463
4.17022 9.87464 4.17022
4.17378 9.95494 4.17378
4.17487 10.04025 4.17487
4.17348 10.13051 4.17348
4.17118 10.22265 4.17118
4.16825 10.31608 4.16825
4.16471 10.41074 4.16471
4.16057 10.50663 4.16057
4.15582 10.60377 4.15582
4.15041 10.70225 4.15041
4.14430 10.80218 4.14430
4.13738 10.90374 4.13738
4.12953 11.00719 4.12953
4.12055 11.11293 4.12055
4.11016 11.22151 4.11016
4.09791 11.33383 4.09791
4.08305 11.45140 4.08305
4.06452 11.57632 4.06452
4.04033 11.71262 4.04033
4.00517 11.87086 4.00517
4.00000 13.19120 4.00000
4.00000 13.19120 4.00000
4.00000 13.19120 4.00000
4.00000 13.19120 4.00000
4.00000 13.19120 4.00000
4.00000 13.19120 4.00000
4.00000 13.19120 4.00000
4.00000 13.19120 4.00000
4.00000 13.19120 4.00000
4.00000 13.19120 4.00000
4.00000 13.19120 4.00000
4.00000 13.19120 4.00000
4.00000 13.19121 4.00000
4.00000 13.19120 4.00000
4.00157 13.19959 4.00156
4.01239 13.26620 4.01239
4.02118 13.33690 4.02118
4.02798 13.41161 4.02798
4.03285 13.49020 4.03285
4.03587 13.57249 4.03587
4.03754 13.65752 4.03754
4.03907 13.74284 4.03907
4.04056 13.82825 4.04056
4.04201 13.91375 4.04201
4.04344 13.99933 4.04344
4.04484 14.08498 4.04484
4.04622 14.17070 4.04622
4.04757 14.25647 4.04757
4.04891 14.34229 4.04891
4.05023 14.42816 4.05023
4.05154 14.51408 4.05154
4.05283 14.60004 4.05283
4.05412 14.68603 4.05411
4.05539 14.77207 4.05539
4.05666 14.85813 4.05665
4.05791 14.94423 4.05791
4.05916 15.03035 4.05915
4.06038 15.11654 4.06038
4.06143 15.20310 4.06143
4.06227 15.29010 4.06227
4.06291 15.37751 4.06290
4.06336 15.46529 4.06336
4.06364 15.55344 4.06364
4.06376 15.64192 4.06376
4.06374 15.73071 4.06374
4.06358 15.81977 4.06358
4.06330 15.90910 4.06330
4.06291 15.99866 4.06291
4.06242 16.08844 4.06242
4.06183 16.17842 4.06183
4.06117 16.26857 4.06117
4.06043 16.35888 4.06043
4.05963 16.44933 4.05963
4.05877 16.53990 4.05877
4.05786 16.63058 4.05786
4.05692 16.72136 4.05692
4.05593 16.81222 4.05593
4.05492 16.90315 4.05492
4.05388 16.99414 4.05388
4.05283 17.08518 4.05283
4.05176 17.17627 4.05176
4.05067 17.26738 4.05067
4.04958 17.35852 4.04958
4.04849 17.44968 4.04849
4.04740 17.54086 4.04740
4.04631 17.63204 4.04631
4.04522 17.72322 4.04522
4.04414 17.81440 4.04414
4.04307 17.90557 4.04306
4.04200 17.99674 4.04200
4.04095 18.08789 4.04095
4.03991 18.17903 4.03991
4.03889 18.27014 4.03889
4.03788 18.36124 4.03788
4.03689 18.45232 4.03689
4.03591 18.54337 4.03591
4.03495 18.63440 4.03495
4.03401 18.72540 4.03401
4.03309 18.81638 4.03309
4.03218 18.90733 4.03218
4.03130 18.99825 4.03130
4.03043 19.08914 4.03043
4.02958 19.18001 4.02958
4.02875 19.27084 4.02875
4.02794 19.36165 4.02794
4.02715 19.45243 4.02715
4.02638 19.54318 4.02638
4.02562 19.63390 4.02562
4.02489 19.72460 4.02489
4.02417 19.81526 4.02417
4.02347 19.90590 4.02347
4.02279 19.99651 4.02279
4.02212 20.08710 4.02212
4.02147 20.17766 4.02147
4.02084 20.26819 4.02084
4.02023 20.35870 4.02023
4.01963 20.44918 4.01963
4.01905 20.53964 4.01905
4.01849 20.63007 4.01849
4.01794 20.72049 4.01794
4.01740 20.81087 4.01740
4.01688 20.90124 4.01688
4.01637 20.99159 4.01637
4.01588 21.08191 4.01588
4.01541 21.17222 4.01541
4.01494 21.26251 4.01494
4.01449 21.35277 4.01449
4.01405 21.44302 4.01405
4.01363 21.53325 4.01363
4.01321 21.62346 4.01321
4.01281 21.71366 4.01281
4.01242 21.80384 4.01242
4.01205 21.89400 4.01205
4.01168 21.98415 4.01168
4.01132 22.07429 4.01132
4.01098 22.16441 4.01098
4.01064 22.25452 4.01064
4.01031 22.34461 4.01031
4.01000 22.43469 4.01000
4.00969 22.52476 4.00969
4.00939 22.61482 4.00939
4.00910 22.70486 4.00910
4.00882 22.79490 4.00882
4.00855 22.88492 4.00855
4.00829 22.97493 4.00829
4.00803 23.06494 4.00803
4.00779 23.15493 4.00779
4.00755 23.24492 4.00755
4.00731 23.33490 4.00731
4.00709 23.42487 4.00709
4.00687 23.51483 4.00687
4.00665 23.60479 4.00665
4.00645 23.69473 4.00645
4.00625 23.78468 4.00625
4.00605 23.87461 4.00605
4.00587 23.96454 4.00587
4.00568 24.05446 4.00568
4.00551 24.14438 4.00551
4.00534 24.23429 4.00534
4.00517 24.32420 4.00517
4.00501 24.41410 4.00501
4.00485 24.50400 4.00485
4.00470 24.59389 4.00470
4.00456 24.68378 4.00456
4.00441 24.77367 4.00441
4.00428 24.86355 4.00428
4.00414 24.95343 4.00414
4.00401 25.04331 4.00401
4.00389 25.13318 4.00389
4.00377 25.22305 4.00377
4.00365 25.31292 4.00365
4.00353 25.40278 4.00353
4.00342 25.49265 4.00342
4.00332 25.58251 4.00332
4.00321 25.67237 4.00321
4.00311 25.76223 4.00311
4.00302 25.85209 4.00302
4.00292 25.94194 4.00292
4.00283 26.03180 4.00283
4.00274 26.12165 4.00274
4.00265 26.21150 4.00265
4.00257 26.30136 4.00257
4.00249 26.39121 4.00249
4.00241 26.48106 4.00241
4.00234 26.57091 4.00234
4.00226 26.66076 4.00226
4.00219 26.75061 4.00219
4.00212 26.84046 4.00212
4.00206 26.93031 4.00206
4.00199 27.02016 4.00199
4.00193 27.11002 4.00193
4.00187 27.19987 4.00187
4.00181 27.28972 4.00181
4.00175 27.37957 4.00175
4.00170 27.46942 4.00170
4.00165 27.55928 4.00165
4.00159 27.64913 4.00159
4.00154 27.73899 4.00154
4.00150 27.82884 4.00150
4.00145 27.91870 4.00145
4.00140 28.00856 4.00140
4.00136 28.09842 4.00136
4.00132 28.18828 4.00132
4.00127 28.27814 4.00127
4.00123 28.36801 4.00123
4.00120 28.45787 4.00120
4.00116 28.54774 4.00116
4.00112 28.63760 4.00112
4.00109 28.72747 4.00109
4.00105 28.81734 4.00105
4.00102 28.90721 4.00102
4.00099 28.99709 4.00099
4.00096 29.08696 4.00096
4.00093 29.17684 4.00093
4.00090 29.26672 4.00090
4.00087 29.35660 4.00087
4.00084 29.44648 4.00084
4.00081 29.53637 4.00081
4.00079 29.62625 4.00079
4.00076 29.71614 4.00076
4.00074 29.80603 4.00074
4.00072 29.89592 4.00072
4.00069 29.98581 4.00069
4.00067 30.07571 4.00067
4.00065 30.16561 4.00065
4.00063 30.25551 4.00063
4.00061 30.34541 4.00061
4.00059 30.43531 4.00059
4.00057 30.52522 4.00057
4.00055 30.61512 4.00055
4.00054 30.70503 4.00054
4.00052 30.79494 4.00052
4.00050 30.88486 4.00050
4.00049 30.97477 4.00049
4.00047 31.06469 4.00047
4.00046 31.15461 4.00046
4.00044 31.24453 4.00044
4.00043 31.33446 4.00043
4.00042 31.42439 4.00042
4.00040 31.51431 4.00040
4.00039 31.60425 4.00039
4.00038 31.69418 4.00038
4.00037 31.78411 4.00037
4.00035 31.87405 4.00035
4.00034 31.96399 4.00034
4.00033 32.05393 4.00033
4.00032 32.14388 4.00032
4.00031 32.23382 4.00031
4.00030 32.32377 4.00030
4.00029 32.41372 4.00029
4.00028 32.50368 4.00028
4.00027 32.59363 4.00027
4.00027 32.68359 4.00027
4.00026 32.77355 4.00026
4.00025 32.86351 4.00025
4.00024 32.95347 4.00024
4.00023 33.04344 4.00023
4.00023 33.13341 4.00023
4.00022 33.22338 4.00022
4.00021 33.31335 4.00021
4.00021 33.40333 4.00021
4.00020 33.49330 4.00020
4.00019 33.58328 4.00019
4.00019 33.67327 4.00019
4.00018 33.76325 4.00018
4.00017 33.85323 4.00017
4.00017 33.94322 4.00017
4.00016 34.03321 4.00016
4.00016 34.12321 4.00016
4.00015 34.21320 4.00015
4.00015 34.30320 4.00015
4.00014 34.39320 4.00014
4.00014 34.48320 4.00014
4.00014 34.57320 4.00014
4.00013 34.66321 4.00013
4.00013 34.75321 4.00013
4.00012 34.84322 4.00012
4.00012 34.93323 4.00012
4.00012 35.02325 4.00012
4.00011 35.11326 4.00011
4.00011 35.20328 4.00011
4.00010 35.29330 4.00010
4.00010 35.38332 4.00010
4.00010 35.47335 4.00010
4.00009 35.56337 4.00009
4.00009 35.65340 4.00009
4.00009 35.74343 4.00009
4.00009 35.83346 4.00009
4.00008 35.92350 4.00008
4.00008 36.01353 4.00008
4.00008 36.10357 4.00008
4.00008 36.19361 4.00008
4.00007 36.28365 4.00007
4.00007 36.37370 4.00007
4.00007 36.46374 4.00007
4.00007 36.55379 4.00007
4.00006 36.64384 4.00006
4.00006 36.73389 4.00006
4.00006 36.82395 4.00006
4.00006 36.91400 4.00006
4.00006 37.00406 4.00006
4.00005 37.09412 4.00005
4.00005 37.18418 4.00005
4.00005 37.27425 4.00005
4.00005 37.36431 4.00005
4.00005 37.45438 4.00005
4.00005 37.54445 4.00005
4.00005 37.63452 4.00005
4.00004 37.72459 4.00004
4.00004 37.81467 4.00004
4.00004 37.90475 4.00004
4.00004 37.99482 4.00004
4.00004 38.08491 4.00004
4.00004 38.17499 4.00004
4.00004 38.26507 4.00004
4.00004 38.35516 4.00004
4.00003 38.44524 4.00003
4.00003 38.53533 4.00003
4.00003 38.62542 4.00003
4.00003 38.71552 4.00003
4.00003 38.80561 4.00003
4.00003 38.89571 4.00003
4.00003 38.98581 4.00003
4.00003 39.07590 4.00003
4.00003 39.16601 4.00003
4.00003 39.25611 4.00003
4.00002 39.34621 4.00002
4.00002 39.43632 4.00002
4.00002 39.52643 4.00002
4.00002 39.61654 4.00002
4.00002 39.70665 4.00002
4.00002 39.79677 4.00002
4.00002 39.88688 4.00002
4.00002 39.97700 4.00002
4.00002 40.06712 4.00002
4.00002 40.15724 4.00002
4.00002 40.24735 4.00002
4.00002 40.33748 4.00002
4.00002 40.42760 4.00002
4.00002 40.51773 4.00002
4.00002 40.60786 4.00002
4.00002 40.69799 4.00002
4.00001 40.78812 4.00001
4.00001 40.87825 4.00001
4.00001 40.96839 4.00001
4.00001 41.05853 4.00001
4.00001 41.14866 4.00001
4.00001 41.23881 4.00001
4.00001 41.32895 4.00001

Angle 0.165524 5.137015

4.00000 7.03348 4.00000
4.00000 7.03349 4.00000
4.00000 7.03349 4.00000
4.00000 7.03349 4.00000
4.00000 7.03349 4.00000
4.00000 7.03349 4.00000
4.00000 7.03349 4.00000
4.00000 7.03349 4.00000
4.00000 7.03349 4.00000
4.00000 7.03349 4.00000
4.00000 7.03349 4.00000
4.00000 7.03348 4.00000
4.00000 7.03348 4.00000
4.00000 7.03348 4.00000
4.00000 7.03348 4.00000
4.00000 7.03348 4.00000
4.00000 7.03348 4.00000
4.00000 7.03348 4.00000
4.00000 7.03348 4.00000
4.00000 7.03348 4.00000
4.00000 7.03348 4.00000
4.00000 7.03348 4.00000
4.00000 7.03348 4.00000
4.00000 7.03348 4.00000
4.00000 7.03348 4.00000
4.00000 7.03348 4.00000
4.00000 7.03348 4.00000
4.00000 7.03348 4.00000
4.00000 7.03348 4.00000
4.00000 7.03348 4.00000
4.00000 7.03348 4.00000
4.00000 7.03348 4.00000
4.00000 7.03348 4.00000
4.00000 7.03348 4.00000
4.00000 7.03348 4.00000
4.00000 7.03348 4.00000
4.00000 7.03348 4.00000
4.00000 7.03348 4.00000
4.00000 7.03348 4.00000
4.00000 7.03348 4.00000
4.00000 7.03348 4.00000
4.00000 7.03348 4.00000
4.00000 7.03348 4.00000
4.00000 7.03348 4.00000
4.00000 7.03348 4.00000
4.00000 7.03348 4.00000
4.00000 7.03348 4.00000
4.00000 7.03348 4.00000
4.00000 7.03348 4.00000
4.00000 7.03348 4.00000
4.00000 7.03348 4.00000
4.00000 7.03348 4.00000
4.00000 7.03348 4.00000
4.00000 7.03348 4.00000
4.00000 7.03348 4.00000
4.00000 7.03348 4.00000
4.00000 7.03348 4.00000
4.00000 7.03348 4.00000
4.00000 7.03348 4.00000
4.00000 7.03349 4.00000
4.00000 7.03348 4.00000
4.00000 7.03352 4.00000
4.00000 7.03363 4.00000
4.00144 7.08291 4.00145
4.00368 7.16078 4.00368
4.00586 7.23883 4.00586
4.00801 7.31705 4.00801
4.01013 7.39541 4.01013
4.01223 7.47390 4.01223
4.01433 7.55248 4.01433
4.01642 7.63116 4.01642
4.01853 7.70989 4.01853
4.02067 7.78866 4.02066
4.02283 7.86744 4.02283
4.02504 7.94621 4.02504
4.02732 8.02494 4.02732
4.02967 8.10358 4.02967
4.03213 8.18211 4.03213
4.03470 8.26047 4.03470
4.03743 8.33860 4.03743
4.04034 8.41643 4.04034
4.04348 8.49387 4.04348
4.04691 8.57081 4.04691
4.05070 8.64710 4.05070
4.05491 8.72262 4.05491
4.05951 8.79744 4.05951
4.06451 8.87150 4.06451
4.06996 8.94476 4.06996
4.07586 9.01715 4.07586
4.08225 9.08864 4.08225
4.08913 9.15922 4.08913
4.09649 9.22889 4.09649
4.10431 9.29772 4.10431
4.11253 9.36580 4.11253
4.12107 9.43330 4.12107
4.12981 9.50046 4.12981
4.13857 9.56763 4.13857
4.14714 9.63525 4.14714
4.15522 9.70390 4.15522
4.16246 9.77428 4.16246
4.16844 9.84724 4.16844
4.17269 9.92372 4.17269
4.17475 10.00464 4.17475
4.17428 10.09065 4.17428
4.17233 10.17968 4.17233
4.16976 10.27000 4.16976
4.16662 10.36153 4.16662
4.16290 10.45425 4.16290
4.15861 10.54817 4.15861
4.15372 10.64333 4.15372
4.14819 10.73981 4.14819
4.14196 10.83776 4.14196
4.13492 10.93736 4.13492
4.12694 11.03889 4.12694
4.11782 11.14274 4.11782
4.10726 11.24954 4.10726
4.09477 11.36021 4.09477
4.07960 11.47631 4.07960
4.06065 11.59999 4.06065
4.03575 11.73563 4.03575
4.00000 13.19120 4.00000
4.00000 13.19120 4.00000
4.00000 13.19120 4.00000
4.00000 13.19120 4.00000
4.00000 13.19120 4.00000
4.00000 13.19120 4.00000
4.00000 13.19120 4.00000
4.00000 13.19120 4.00000
4.00000 13.19120 4.00000
4.00000 13.19120 4.00000
4.00000 13.19120 4.00000
4.00000 13.19120 4.00000
4.00000 13.19120 4.00000
4.00000 13.19120 4.00000
4.00000 13.19120 4.00000
4.00000 13.19120 4.00000
4.01027 13.25176 4.01027
4.01933 13.32016 4.01933
4.02646 13.39245 4.02646
4.03171 13.46851 4.03171
4.03518 13.54820 4.03518
4.03705 13.63109 4.03705
4.03857 13.71473 4.03857
4.04004 13.79849 4.04004
4.04148 13.88235 4.04148
4.04289 13.96630 4.04289
4.04428 14.05033 4.04428
4.04564 14.13444 4.04564
4.04698 14.21862 4.04698
4.04830 14.30287 4.04830
4.04960 14.38718 4.04960
4.05089 14.47154 4.05089
4.05217 14.55596 4.05217
4.05344 14.64043 4.05344
4.05469 14.72495 4.05469
4.05594 14.80951 4.05594
4.05718 14.89412 4.05718
4.05841 14.97877 4.05841
4.05964 15.06345 4.05964
4.06079 15.14830 4.06079
4.06175 15.23358 4.06175
4.06250 15.31929 4.06250
4.06307 15.40540 4.06307
4.06346 15.49188 4.06346
4.06369 15.57870 4.06369
4.06377 15.66586 4.06377
4.06371 15.75332 4.06371
4.06353 15.84105 4.06353
4.06323 15.92904 4.06323
4.06282 16.01727 4.06282
4.06231 16.10571 4.06231
4.06172 16.19435 4.06172
4.06105 16.28316 4.06105
4.06032 16.37214 4.06032
4.05952 16.46126 4.05952
4.05867 16.55051 4.05867
4.05777 16.63987 4.05777
4.05683 16.72933 4.05683
4.05586 16.81889 4.05586
4.05486 16.90852 4.05486
4.05383 16.99822 4.05384
4.05279 17.08797 4.05279
4.05174 17.17778 4.05174
4.05067 17.26762 4.05067
4.04960 17.35750 4.04960
4.04852 17.44741 4.04852
4.04744 17.53734 4.04744
4.04636 17.62729 4.04636
4.04529 17.71724 4.04529
4.04422 17.80721 4.04422
4.04316 17.89717 4.04316
4.04211 17.98714 4.04211
4.04108 18.07710 4.04108
4.04005 18.16705 4.04005
4.03904 18.25700 4.03904
4.03804 18.34694 4.03804
4.03706 18.43686 4.03706
4.03609 18.52676 4.03609
4.03514 18.61666 4.03514
4.03421 18.70653 4.03421
4.03329 18.79639 4.03329
4.03239 18.88622 4.03239
4.03151 18.97604 4.03151
4.03065 19.06584 4.03065
4.02981 19.15562 4.02981
4.02898 19.24538 4.02898
4.02818 19.33512 4.02818
4.02739 19.42483 4.02739
4.02662 19.51453 4.02662
4.02587 19.60420 4.02587
4.02513 19.69386 4.02513
4.02442 19.78349 4.02442
4.02372 19.87311 4.02372
4.02304 19.96270 4.02304
4.02237 20.05227 4.02237
4.02173 20.14183 4.02173
4.02110 20.23136 4.02110
4.02048 20.32088 4.02048
4.01989 20.41038 4.01989
4.01930 20.49986 4.01930
4.01874 20.58933 4.01874
4.01819 20.67878 4.01819
4.01765 20.76821 4.01765
4.01713 20.85763 4.01713
4.01662 20.94703 4.01662
4.01613 21.03642 4.01613
4.01565 21.12579 4.01565
4.01518 21.21515 4.01518
4.01473 21.30449 4.01473
4.01429 21.39383 4.01429
4.01386 21.48315 4.01386
4.01345 21.57246 4.01345
4.01304 21.66176 4.01304
4.01265 21.75105 4.01265
4.01227 21.84033 4.01227
4.01190 21.92959 4.01190
4.01154 22.01885 4.01154
4.01119 22.10810 4.01119
4.01085 22.19734 4.01085
4.01052 22.28658 4.01052
4.01020 22.37581 4.01020
4.00989 22.46503 4.00989
4.00959 22.55424 4.00959
4.00930 22.64344 4.00930
4.00902 22.73264 4.00902
4.00874 22.82184 4.00874
4.00848 22.91103 4.00848
4.00822 23.00021 4.00822
4.00796 23.08940 4.00797
4.00772 23.17857 4.00772
4.00749 23.26774 4.00749
4.00726 23.35691 4.00726
4.00703 23.44608 4.00703
4.00682 23.53524 4.00682
4.00661 23.62440 4.00661
4.00641 23.71356 4.00641
4.00621 23.80271 4.00621
4.00602 23.89187 4.00602
4.00583 23.98102 4.00583
4.00565 24.07017 4.00565
4.00548 24.15932 4.00548
4.00531 24.24847 4.00531
4.00515 24.33762 4.00515
4.00499 24.42677 4.00499
4.00483 24.51592 4.00483
4.00468 24.60507 4.00468
4.00454 24.69422 4.00454
4.00440 24.78336 4.00440
4.00426 24.87252 4.00426
4.00413 24.96167 4.00413
4.00400 25.05082 4.00400
4.00388 25.13997 4.00388
4.00376 25.22913 4.00376
4.00364 25.31828 4.00364
4.00353 25.40744 4.00353
4.00342 25.49660 4.00342
4.00331 25.58576 4.00331
4.00321 25.67492 4.00321
4.00311 25.76409 4.00311
4.00301 25.85326 4.00301
4.00292 25.94243 4.00292
4.00283 26.03160 4.00283
4.00274 26.12078 4.00274
4.00266 26.20996 4.00266
4.00257 26.29914 4.00257
4.00249 26.38832 4.00249
4.00242 26.47751 4.00242
4.00234 26.56670 4.00234
4.00227 26.65589 4.00227
4.00220 26.74509 4.00220
4.00213 26.83429 4.00213
4.00206 26.92350 4.00206
4.00200 27.01270 4.00200
4.00194 27.10191 4.00194
4.00188 27.19113 4.00188
4.00182 27.28035 4.00182
4.00176 27.36957 4.00176
4.00170 27.45880 4.00170
4.00165 27.54802 4.00165
4.00160 27.63726 4.00160
4.00155 27.72650 4.00155
4.00150 27.81574 4.00150
4.00146 27.90499 4.00145
4.00141 27.99424 4.00141
4.00137 28.08349 4.00137
4.00132 28.17275 4.00132
4.00128 28.26201 4.00128
4.00124 28.35128 4.00124
4.00120 28.44055 4.00120
4.00117 28.52983 4.00117
4.00113 28.61911 4.00113
4.00109 28.70839 4.00109
4.00106 28.79768 4.00106
4.00103 28.88697 4.00103
4.00099 28.97627 4.00099
4.00096 29.06557 4.00096
4.00093 29.15488 4.00093
4.00090 29.24419 4.00090
4.00087 29.33351 4.00087
4.00085 29.42283 4.00085
4.00082 29.51215 4.00082
4.00080 29.60148 4.00080
4.00077 29.69082 4.00077
4.00075 29.78015 4.00075
4.00072 29.86950 4.00072
4.00070 29.95884 4.00070
4.00068 30.04819 4.00068
4.00066 30.13755 4.00066
4.00064 30.22691 4.00064
4.00062 30.31627 4.00062
4.00060 30.40564 4.00060
4.00058 30.49502 4.00058
4.00056 30.58440 4.00056
4.00054 30.67378 4.00054
4.00053 30.76317 4.00052
4.00051 30.85256 4.00051
4.00049 30.94196 4.00049
4.00048 31.03136 4.00048
4.00046 31.12077 4.00046
4.00045 31.21018 4.00045
4.00044 31.29959 4.00044
4.00042 31.38901 4.00042
4.00041 31.47843 4.00041
4.00040 31.56786 4.00040
4.00038 31.65730 4.00038
4.00037 31.74673 4.00037
4.00036 31.83618 4.00036
4.00035 31.92562 4.00035
4.00034 32.01507 4.00034
4.00033 32.10453 4.00033
4.00032 32.19399 4.00032
4.00031 32.28345 4.00031
4.00030 32.37292 4.00030
4.00029 32.46239 4.00029
4.00028 32.55187 4.00028
4.00027 32.64135 4.00027
4.00026 32.73084 4.00026
4.00025 32.82033 4.00025
4.00024 32.90982 4.00024
4.00024 32.99932 4.00024
4.00023 33.08882 4.00023
4.00022 33.17833 4.00022
4.00022 33.26784 4.00022
4.00021 33.35736 4.00021
4.00020 33.44687 4.00020
4.00020 33.53640 4.00020
4.00019 33.62593 4.00019
4.00018 33.71546 4.00018
4.00018 33.80499 4.00018
4.00017 33.89453 4.00017
4.00017 33.98408 4.00017
4.00016 34.07363 4.00016
4.00016 34.16318 4.00016
4.00015 34.25273 4.00015
4.00015 34.34230 4.00015
4.00014 34.43186 4.00014
4.00014 34.52143 4.00014
4.00013 34.61100 4.00013
4.00013 34.70058 4.00013
4.00013 34.79016 4.00013
4.00012 34.87974 4.00012
4.00012 34.96933 4.00012
4.00011 35.05892 4.00011
4.00011 35.14852 4.00011
4.00011 35.23811 4.00011
4.00010 35.32772 4.00010
4.00010 35.41732 4.00010
4.00010 35.50694 4.00010
4.00009 35.59655 4.00009
4.00009 35.68617 4.00009
4.00009 35.77579 4.00009
4.00009 35.86542 4.00009
4.00008 35.95505 4.00008
4.00008 36.04468 4.00008
4.00008 36.13432 4.00008
4.00007 36.22396 4.00007
4.00007 36.31360 4.00007
4.00007 36.40325 4.00007
4.00007 36.49290 4.00007
4.00007 36.58255 4.00007

Angle 0.390247 1.867998

4.00000 7.03348 4.00000
4.00000 7.03348 4.00000
4.00000 7.03348 4.00000
4.00000 7.03348 4.00000
4.00000 7.03348 4.00000
4.00000 7.03348 4.00000
4.00000 7.03348 4.00000
4.00000 7.03348 4.00000
4.00000 7.03348 4.00000
4.00000 7.03348 4.00000
4.00000 7.03348 4.00000
4.00000 7.03348 4.00000
4.00000 7.03348 4.00000
4.00000 7.03348 4.00000
4.00000 7.03348 4.00000
4.00000 7.03348 4.00000
4.00000 7.03348 4.00000
4.00000 7.03348 4.00000
4.00000 7.03348 4.00000
4.00000 7.03348 4.00000
4.00000 7.03348 4.00000
4.00000 7.03348 4.00000
4.00000 7.03348 4.00000
4.00000 7.03348 4.00000
4.00000 7.03348 4.00000
4.00000 7.03348 4.00000
4.00000 7.03348 4.00000
4.00000 7.03348 4.00000
4.00000 7.03348 4.00000
4.00000 7.03348 4.00000
4.00000 7.03348 4.00000
4.00000 7.03348 4.00000
4.00000 7.03348 4.00000
4.00000 7.03348 4.00000
4.00000 7.03348 4.00000
4.00000 7.03348 4.00000
4.00000 7.03348 4.00000
4.00000 7.03348 4.00000
4.00000 7.03348 4.00000
4.00000 7.03348 4.00000
4.00000 7.03348 4.00000
4.00000 7.03348 4.00000
4.00000 7.03348 4.00000
4.00000 7.03348 4.00000
4.00000 7.03348 4.00000
4.00000 7.03348 4.00000
4.00000 7.03348 4.00000
4.00000 7.03348 4.00000
4.00000 7.03348 4.00000
4.00000 7.03348 4.00000
4.00000 7.03348 4.00000
4.00000 7.03348 4.00000
4.00000 7.03348 4.00000
4.00000 7.03348 4.00000
4.00000 7.03348 4.00000
4.00000 7.03348 4.00000
4.00000 7.03348 4.00000
4.00000 7.03348 4.00000
4.00000 7.03348 4.00000
4.00000 7.03348 4.00000
4.00000 7.03348 4.00000
4.00000 7.03348 4.00000
4.00000 7.03348 4.00000
4.00000 7.03348 4.00000
4.00000 7.03348 4.00000
4.00000 7.03348 4.00000
4.00000 7.03348 4.00000
4.00000 7.03348 4.00000
4.00000 7.03348 4.00000
4.00000 7.03348 4.00000
4.00000 7.03348 4.00000
4.00000 7.03348 4.00000
4.00000 7.03348 4.00000
4.00000 7.03348 4.00000
4.00000 7.03348 4.00000
4.00000 7.03348 4.00000
4.00000 7.03348 4.00000
4.00000 7.03348 4.00000
4.00000 7.03348 4.00000
4.00000 7.03348 4.00000
4.00000 7.03348 4.00000
4.00000 7.03348 4.00000
4.00000 7.03348 4.00000
4.00000 7.03348 4.00000
4.00000 7.03348 4.00000
4.00000 7.03348 4.00000
4.00000 7.03348 4.00000
4.00000 7.03348 4.00000
4.00000 7.03348 4.00000
4.00000 7.03348 4.00000
4.00000 7.03348 4.00000
4.00000 7.03348 4.00000
4.00000 7.03348 4.00000
4.00000 7.03348 4.00000
4.00000 7.03348 4.00000
4.00000 7.03348 4.00000
4.00000 7.03348 4.00000
4.00000 7.03348 4.00000
4.00000 7.03349 4.00000
4.00000 7.03348 4.00000
4.00000 7.03349 4.00000
4.00171 7.09193 4.00171
4.00399 7.17183 4.00399
4.00622 7.25189 4.00622
4.00841 7.33209 4.00841
4.01058 7.41242 4.01058
4.01274 7.49284 4.01274
4.01488 7.57334 4.01488
4.01703 7.65390 4.01703
4.01920 7.73450 4.01920
4.02139 7.81510 4.02139
4.02362 7.89568 4.02362
4.02590 7.97622 4.02590
4.02826 8.05668 4.02826
4.03070 8.13701 4.03070
4.03326 8.21718 4.03326
4.03596 8.29713 4.03596
4.03883 8.37678 4.03883
4.04191 8.45606 4.04191
4.04526 8.53486 4.04526
4.04895 8.61303 4.04896
4.05307 8.69042 4.05307
4.05759 8.76704 4.05759
4.06252 8.84288 4.06252
4.06790 8.91789 4.06790
4.07375 8.99200 4.07375
4.08009 9.06517 4.08009
4.08694 9.13738 4.08694
4.09430 9.20863 4.09430
4.10213 9.27897 4.10213
4.11040 9.34848 4.11040
4.11902 9.41732 4.11902
4.12788 9.48574 4.12788
4.13681 9.55406 4.13681
4.14559 9.62274 4.14559
4.15392 9.69234 4.15392
4.16145 9.76359 4.16145
4.16774 9.83736 4.16774
4.17230 9.91462 4.17230
4.17465 9.99636 4.17465
4.17441 10.08330 4.17441
4.17248 10.17368 4.17248
4.16991 10.26537 4.16991
4.16674 10.35831 4.16674
4.16298 10.45245 4.16298
4.15862 10.54781 4.15862
4.15366 10.64444 4.15366
4.14803 10.74243 4.14803
4.14168 10.84190 4.14168
4.13449 10.94308 4.13449
4.12633 11.04625 4.12633
4.11697 11.15184 4.11697
4.10609 11.26050 4.10609
4.09318 11.37326 4.09318
4.07739 11.49182 4.07739
4.05752 11.61856 4.05752
4.03101 11.75862 4.03101
4.00000 13.19120 4.00000
4.00000 13.19120 4.00000
4.00000 13.19120 4.00000
4.00000 13.19120 4.00000
4.00000 13.19120 4.00000
4.00000 13.19120 4.00000
4.00000 13.19120 4.00000
4.00000 13.19120 4.00000
4.00000 13.19120 4.00000
4.00000 13.19120 4.00000
4.00000 13.19120 4.00000
4.00000 13.19120 4.00000
4.00000 13.19120 4.00000
4.00000 13.19121 4.00000
4.00000 13.19121 4.00000
4.00349 13.21026 4.00349
4.01390 13.27696 4.01390
4.02231 13.34768 4.02231
4.02877 13.42233 4.02877
4.03335 13.50077 4.03335
4.03612 13.58284 4.03612
4.03771 13.66730 4.03771
4.03923 13.75194 4.03923
4.04070 13.83668 4.04070
4.04215 13.92151 4.04215
4.04356 14.00642 4.04356
4.04494 14.09141 4.04494
4.04631 14.17646 4.04631
4.04765 14.26158 4.04765
4.04898 14.34675 4.04898
4.05029 14.43198 4.05029
4.05159 14.51725 4.05159
4.05287 14.60258 4.05287
4.05414 14.68794 4.05414
4.05541 14.77334 4.05541
4.05666 14.85879 4.05666
4.05791 14.94427 4.05791
4.05915 15.02978 4.05915
4.06037 15.11535 4.06037
4.06141 15.20130 4.06141
4.06224 15.28768 4.06225
4.06289 15.37447 4.06289
4.06334 15.46164 4.06334
4.06363 15.54917 4.06363
4.06376 15.63704 4.06376
4.06375 15.72521 4.06375
4.06360 15.81367 4.06360
4.06333 15.90239 4.06333
4.06295 15.99135 4.06295
4.06246 16.08053 4.06247
4.06189 16.16991 4.06189
4.06124 16.25947 4.06124
4.06051 16.34919 4.06051
4.05972 16.43905 4.05972
4.05888 16.52904 4.05888
4.05798 16.61915 4.05798
4.05704 16.70936 4.05704
4.05607 16.79965 4.05607
4.05507 16.89002 4.05507
4.05404 16.98046 4.05404
4.05299 17.07095 4.05299
4.05193 17.16148 4.05193
4.05085 17.25206 4.05085
4.04977 17.34266 4.04977
4.04869 17.43329 4.04869
4.04760 17.52394 4.04760
4.04651 17.61459 4.04651
4.04543 17.70526 4.04543
4.04436 17.79592 4.04436
4.04329 17.88659 4.04329
4.04223 17.97725 4.04223
4.04118 18.06790 4.04118
4.04015 18.15854 4.04015
4.03912 18.24916 4.03913
4.03812 18.33977 4.03812
4.03713 18.43036 4.03713
4.03615 18.52094 4.03615
4.03519 18.61149 4.03519
4.03425 18.70202 4.03425
4.03333 18.79253 4.03333
4.03242 18.88301 4.03242
4.03154 18.97347 4.03154
4.03067 19.06391 4.03067
4.02982 19.15432 4.02982
4.02899 19.24470 4.02899
4.02818 19.33506 4.02818
4.02738 19.42540 4.02738
4.02661 19.51571 4.02661
4.02585 19.60599 4.02585
4.02511 19.69625 4.02511
4.02439 19.78648 4.02439
4.02369 19.87669 4.02369
4.02301 19.96688 4.02301
4.02234 20.05704 4.02234
4.02169 20.14718 4.02169
4.02106 20.23730 4.02106
4.02044 20.32739 4.02044
4.01984 20.41746 4.01984
4.01926 20.50751 4.01925
4.01869 20.59754 4.01869
4.01813 20.68755 4.01813
4.01760 20.77754 4.01760
4.01707 20.86751 4.01707
4.01656 20.95746 4.01656
4.01607 21.04739 4.01607
4.01559 21.13731 4.01559
4.01512 21.22720 4.01512
4.01467 21.31709 4.01467
4.01423 21.40695 4.01423
4.01380 21.49680 4.01380
4.01338 21.58663 4.01338
4.01298 21.67645 4.01298
4.01258 21.76626 4.01258
4.01220 21.85605 4.01220
4.01183 21.94583 4.01183
4.01147 22.03560 4.01147
4.01112 22.12536 4.01112
4.01079 22.21510 4.01079
4.01046 22.30483 4.01046
4.01014 22.39455 4.01014
4.00983 22.48427 4.00983
4.00953 22.57397 4.00953
4.00924 22.66366 4.00924
4.00895 22.75334 4.00895
4.00868 22.84302 4.00868
4.00841 22.93269 4.00841
4.00815 23.02235 4.00815
4.00790 23.11200 4.00790
4.00766 23.20165 4.00766
4.00742 23.29129 4.00742
4.00720 23.38092 4.00720
4.00697 23.47055 4.00697
4.00676 23.56017 4.00676
4.00655 23.64978 4.00655
4.00635 23.73940 4.00635
4.00615 23.82900 4.00615
4.00596 23.91860 4.00596
4.00578 24.00820 4.00578
4.00560 24.09780 4.00560
4.00542 24.18739 4.00542
4.00526 24.27698 4.00526
4.00509 24.36656 4.00509
4.00493 24.45614 4.00494
4.00478 24.54572 4.00478
4.00463 24.63530 4.00463
4.00449 24.72488 4.00449
4.00435 24.81445 4.00435
4.00421 24.90402 4.00422
4.00408 24.99359 4.00408
4.00396 25.08316 4.00396
4.00384 25.17272 4.00384
4.00371 25.26230 4.00371
4.00360 25.35186 4.00360
4.00349 25.44143 4.00349
4.00338 25.53100 4.00338
4.00327 25.62056 4.00327
4.00317 25.71013 4.00317
4.00307 25.79969 4.00307
4.00298 25.88926 4.00298
4.00288 25.97882 4.00288
4.00279 26.06839 4.00279
4.00271 26.15796 4.00271
4.00262 26.24753 4.00262
4.00254 26.33709 4.00254
4.00246 26.42666 4.00246
4.00238 26.51623 4.00238
4.00231 26.60581 4.00231
4.00224 26.69538 4.00224
4.00217 26.78495 4.00217
4.00210 26.87453 4.00210
4.00203 26.96411 4.00203
4.00197 27.05369 4.00197
4.00191 27.14327 4.00191
4.00185 27.23285 4.00185
4.00179 27.32244 4.00179
4.00173 27.41202 4.00173
4.00168 27.50161 4.00168
4.00163 27.59120 4.00163
4.00158 27.68079 4.00158
4.00153 27.77039 4.00153
4.00148 27.85999 4.00148
4.00143 27.94959 4.00143
4.00139 28.03919 4.00139
4.00134 28.12879 4.00134
4.00130 28.21840 4.00130
4.00126 28.30801 4.00126
4.00122 28.39762 4.00122
4.00118 28.48724 4.00118
4.00115 28.57685 4.00115
4.00111 28.66647 4.00111
4.00107 28.75610 4.00107
4.00104 28.84572 4.00104
4.00101 28.93535 4.00101
4.00098 29.02498 4.00098
4.00095 29.11462 4.00095
4.00092 29.20425 4.00092
4.00089 29.29389 4.00089
4.00086 29.38353 4.00086
4.00083 29.47318 4.00083
4.00081 29.56283 4.00081
4.00078 29.65248 4.00078
4.00076 29.74213 4.00076
4.00073 29.83179 4.00073
4.00071 29.92145 4.00071
4.00069 30.01112 4.00069
4.00067 30.10078 4.00067
4.00065 30.19045 4.00065
4.00063 30.28013 4.00062
4.00061 30.36980 4.00061
4.00059 30.45948 4.00059
4.00057 30.54916 4.00057
4.00055 30.63885 4.00055
4.00053 30.72854 4.00053
4.00052 30.81823 4.00052
4.00050 30.90792 4.00050
4.00048 30.99762 4.00048
4.00047 31.08732 4.00047
4.00045 31.17703 4.00045
4.00044 31.26673 4.00044
4.00043 31.35644 4.00043
4.00041 31.44616 4.00041
4.00040 31.53587 4.00040
4.00039 31.62559 4.00039
4.00037 31.71532 4.00037
4.00036 31.80504 4.00036
4.00035 31.89477 4.00035
4.00034 31.98450 4.00034
4.00033 32.07424 4.00033
4.00032 32.16398 4.00032
4.00031 32.25372 4.00031
4.00030 32.34346 4.00030
4.00029 32.43321 4.00029
4.00028 32.52296 4.00028
4.00027 32.61272 4.00027
4.00026 32.70247 4.00026
4.00026 32.79223 4.00026
4.00025 32.88200 4.00025
4.00024 32.97176 4.00024
4.00023 33.06153 4.00023
4.00022 33.15131 4.00022
4.00022 33.24108 4.00022
4.00021 33.33086 4.00021
4.00020 33.42064 4.00020

Angle 0.126558 3.056087

4.00000 7.03348 4.00000
4.00000 7.03348 4.00000
4.00000 7.03348 4.00000
4.00000 7.03348 4.00000
4.00000 7.03348 4.00000
4.00000 7.03348 4.00000
4.00000 7.03348 4.00000
4.00000 7.03348 4.00000
4.00000 7.03348 4.00000
4.00000 7.03348 4.00000
4.00000 7.03348 4.00000
4.00000 7.03348 4.00000
4.00000 7.03348 4.00000
4.00000 7.03348 4.00000
4.00000 7.03348 4.00000
4.00000 7.03348 4.00000
4.00000 7.03348 4.00000
4.00000 7.03348 4.00000
4.00000 7.03348 4.00000
4.00000 7.03348 4.00000
4.00000 7.03348 4.00000
4.00000 7.03348 4.00000
4.00000 7.03348 4.00000
4.00000 7.03348 4.00000
4.00000 7.03348 4.00000
4.00000 7.03348 4.00000
4.00000 7.03348 4.00000
4.00000 7.03348 4.00000
4.00000 7.03348 4.00000
4.00000 7.03348 4.00000
4.00000 7.03348 4.00000
4.00000 7.03348 4.00000
4.00000 7.03348 4.00000
4.00000 7.03348 4.00000
4.00000 7.03348 4.00000
4.00000 7.03348 4.00000
4.00000 7.03348 4.00000
4.00000 7.03348 4.00000
4.00000 7.03348 4.00000
4.00000 7.03348 4.00000
4.00000 7.03348 4.00000
4.00000 7.03348 4.00000
4.00000 7.03348 4.00000
4.00000 7.03348 4.00000
4.00000 7.03348 4.00000
4.00000 7.03348 4.00000
4.00000 7.03348 4.00000
4.00000 7.03348 4.00000
4.00000 7.03348 4.00000
4.00000 7.03348 4.00000
4.00000 7.03348 4.00000
4.00000 7.03348 4.00000
4.00000 7.03348 4.00000
4.00000 7.03348 4.00000
4.00000 7.03348 4.00000
4.00000 7.03348 4.00000
4.00000 7.03348 4.00000
4.00000 7.03348 4.00000
4.00000 7.03348 4.00000
4.00000 7.03348 4.00000
4.00000 7.03348 4.00000
4.00000 7.03348 4.00000
4.00000 7.03348 4.00000
4.00000 7.03348 4.00000
4.00000 7.03348 4.00000
4.00000 7.03348 4.00000
4.00000 7.03348 4.00000
4.00000 7.03348 4.00000
4.00000 7.03348 4.00000
4.00000 7.03348 4.00000
4.00000 7.03348 4.00000
4.00000 7.03348 4.00000
4.00000 7.03348 4.00000
4.00000 7.03348 4.00000
4.00000 7.03348 4.00000
4.00000 7.03348 4.00000
4.00000 7.03348 4.00000
4.00000 7.03348 4.00000
4.00000 7.03348 4.00000
4.00000 7.03348 4.00000
4.00000 7.03348 4.00000
4.00000 7.03348 4.00000
4.00000 7.03348 4.00000
4.00000 7.03348 4.00000
4.00000 7.03348 4.00000
4.00000 7.03348 4.00000
4.00000 7.03348 4.00000
4.00000 7.03348 4.00000
4.00000 7.03348 4.00000
4.00000 7.03348 4.00000
4.00000 7.03348 4.00000
4.00000 7.03348 4.00000
4.00000 7.03348 4.00000
4.00000 7.03348 4.00000
4.00000 7.03348 4.00000
4.00000 7.03348 4.00000
4.00000 7.03348 4.00000
4.00000 7.03348 4.00000
4.00000 7.03348 4.00000
4.00000 7.03348 4.00000
4.00000 7.03348 4.00000
4.00000 7.03348 4.00000
4.00000 7.03348 4.00000
4.00000 7.03348 4.00000
4.00000 7.03348 4.00000
4.00000 7.03348 4.00000
4.00000 7.03348 4.00000
4.00000 7.03348 4.00000
4.00000 7.03348 4.00000
4.00000 7.03348 4.00000
4.00000 7.03348 4.00000
4.00000 7.03348 4.00000
4.00000 7.03348 4.00000
4.00000 7.03348 4.00000
4.00000 7.03348 4.00000
4.00000 7.03348 4.00000
4.00000 7.03348 4.00000
4.00000 7.03348 4.00000
4.00000 7.03348 4.00000
4.00000 7.03348 4.00000
4.00000 7.03348 4.00000
4.00000 7.03348 4.00000
4.00000 7.03348 4.00000
4.00000 7.03348 4.00000
4.00000 7.03348 4.00000
4.00000 7.03348 4.00000
4.00000 7.03348 4.00000
4.00000 7.03348 4.00000
4.00000 7.03348 4.00000
4.00000 7.03348 4.00000
4.00000 7.03348 4.00000
4.00000 7.03348 4.00000
4.00000 7.03348 4.00000
4.00000 7.03348 4.00000
4.00000 7.03348 4.00000
4.00000 7.03348 4.00000
4.00000 7.03348 4.00000
4.00000 7.03348 4.00000
4.00000 7.03348 4.00000
4.00000 7.03348 4.00000
4.00000 7.03348 4.00000
4.00000 7.03348 4.00000
4.00000 7.03348 4.00000
4.00000 7.03348 4.00000
4.00000 7.03348 4.00000
4.00000 7.03348 4.00000
4.00000 7.03348 4.00000
4.00000 7.03348 4.00000
4.00000 7.03348 4.00000
4.00000 7.03348 4.00000
4.00000 7.03348 4.00000
4.00000 7.03348 4.00000
4.00000 7.03348 4.00000
4.00000 7.03348 4.00000
4.00000 7.03348 4.00000
4.00000 7.03348 4.00000
4.00000 7.03348 4.00000
4.00000 7.03348 4.00000
4.00000 7.03348 4.00000
4.00000 7.03348 4.00000
4.00000 7.03348 4.00000
4.00000 7.03348 4.00000
4.00000 7.03348 4.00000
4.00000 7.03348 4.00000
4.00000 7.03348 4.00000
4.00000 7.03348 4.00000
4.00000 7.03348 4.00000
4.00000 7.03348 4.00000
4.00000 7.03348 4.00000
4.00000 7.03348 4.00000
4.00000 7.03348 4.00000
4.00000 7.03348 4.00000
4.00000 7.03348 4.00000
4.00000 7.03348 4.00000
4.00000 7.03348 4.00000
4.00000 7.03348 4.00000
4.00000 7.03348 4.00000
4.00000 7.03348 4.00000
4.00000 7.03348 4.00000
4.00000 7.03348 4.00000
4.00000 7.03348 4.00000
4.00000 7.03348 4.00000
4.00000 7.03348 4.00000
4.00000 7.03348 4.00000
4.00000 7.03348 4.00000
4.00000 7.03348 4.00000
4.00000 7.03348 4.00000
4.00000 7.03348 4.00000
4.00000 7.03348 4.00000
4.00000 7.03348 4.00000
4.00000 7.03348 4.00000
4.00000 7.03348 4.00000
4.00000 7.03348 4.00000
4.00000 7.03348 4.00000
4.00000 7.03348 4.00000
4.00000 7.03348 4.00000
4.00000 7.03348 4.00000
4.00000 7.03348 4.00000
4.00000 7.03348 4.00000
4.00000 7.03348 4.00000
4.00000 7.03348 4.00000
4.00000 7.03348 4.00000
4.00000 7.03348 4.00000
4.00000 7.03348 4.00000
4.00000 7.03348 4.00000
4.00000 7.03348 4.00000
4.00000 7.03348 4.00000
4.00000 7.03348 4.00000
4.00000 7.03348 4.00000
4.00000 7.03348 4.00000
4.00000 7.03348 4.00000
4.00000 7.03348 4.00000
4.00000 7.03348 4.00000
4.00000 7.03348 4.00000
4.00000 7.03348 4.00000
4.00000 7.03348 4.00000
4.00000 7.03348 4.00000
4.00000 7.03348 4.00000
4.00000 7.03348 4.00000
4.00000 7.03348 4.00000
4.00000 7.03348 4.00000
4.00000 7.03348 4.00000
4.00000 7.03348 4.00000
4.00000 7.03348 4.00000
4.00000 7.03348 4.00000
4.00000 7.03348 4.00000
4.00000 7.03348 4.00000
4.00000 7.03348 4.00000
4.00000 7.03348 4.00000
4.00000 7.03348 4.00000
4.00000 7.03348 4.00000
4.00000 7.03348 4.00000
4.00000 7.03348 4.00000
4.00000 7.03348 4.00000
4.00000 7.03348 4.00000
4.00000 7.03348 4.00000
4.00000 7.03348 4.00000
4.00000 7.03348 4.00000
4.00000 7.03348 4.00000
4.00000 7.03348 4.00000
4.00000 7.03348 4.00000
4.00000 7.03348 4.00000
4.00000 7.03348 4.00000
4.00000 7.03348 4.00000
4.00000 7.03348 4.00000
4.00000 7.03348 4.00000
4.00000 7.03348 4.00000
4.00000 7.03348 4.00000
4.00000 7.03348 4.00000
4.00000 7.03348 4.00000
4.00000 7.03348 4.00000
4.00000 7.03348 4.00000
4.00000 7.03348 4.00000
4.00000 7.03348 4.00000
4.00000 7.03348 4.00000
4.00000 7.03348 4.00000
4.00000 7.03348 4.00000
4.00000 7.03348 4.00000
4.00000 7.03348 4.00000
4.00000 7.03348 4.00000
4.00000 7.03348 4.00000
4.00000 7.03348 4.00000
4.00000 7.03348 4.00000
4.00000 7.03348 4.00000
4.00000 7.03348 4.00000
4.00000 7.03348 4.00000
4.00000 7.03348 4.00000
4.00000 7.03348 4.00000
4.00000 7.03348 4.00000
4.00000 7.03348 4.00000
4.00000 7.03348 4.00000
4.00000 7.03348 4.00000
4.00000 7.03348 4.00000
4.00000 7.03349 4.00000
4.00000 7.03348 4.00000
4.00000 7.03348 4.00000
4.00000 7.03348 4.00000
4.00000 7.03348 4.00000
4.00000 7.03348 4.00000
4.00000 7.03349 4.00000
4.00000 7.03350 4.00000
4.00000 7.03353 4.00000
4.00000 7.03348 4.00000
4.00231 7.11297 4.00231
4.00462 7.19434 4.00462
4.00688 7.27585 4.00688
4.00910 7.35748 4.00910
4.01130 7.43921 4.01130
4.01349 7.52102 4.01349
4.01567 7.60289 4.01567
4.01786 7.68479 4.01786
4.02007 7.76670 4.02007
4.02231 7.84859 4.02231
4.02460 7.93044 4.02460
4.02695 8.01221 4.02695
4.02938 8.09386 4.02938
4.03191 8.17535 4.03191
4.03457 8.25663 4.03457
4.03739 8.33763 4.03739
4.04041 8.41828 4.04041
4.04368 8.49847 4.04368
4.04725 8.57808 4.04725
4.05123 8.65694 4.05123
4.05564 8.73496 4.05564
4.06047 8.81219 4.06047
4.06574 8.88858 4.06574
4.07148 8.96406 4.07148
4.07772 9.03857 4.07772
4.08448 9.11210 4.08448
4.09175 9.18462 4.09175
4.09953 9.25617 4.09953
4.10777 9.32683 4.10777
4.11640 9.39673 4.11640
4.12532 9.46611 4.12532
4.13436 9.53527 4.13436
4.14331 9.60465 4.14331
4.15189 9.67480 4.15189
4.15975 9.74643 4.15975
4.16645 9.82040 4.16645
4.17149 9.89771 4.17149
4.17438 9.97938 4.17438
4.17467 10.06626 4.17467
4.17288 10.15734 4.17288
4.17038 10.24985 4.17038
4.16727 10.34363 4.16727
4.16356 10.43863 4.16356
4.15925 10.53487 4.15925
4.15431 10.63238 4.15431
4.14871 10.73125 4.14871
4.14237 10.83162 4.14237
4.13519 10.93369 4.13519
4.12704 11.03775 4.12704
4.11768 11.14422 4.11768
4.10681 11.25377 4.10681
4.09390 11.36741 4.09390
4.07810 11.48686 4.07810
4.05821 11.61450 4.05821
4.03166 11.75550 4.03166
4.00000 13.19120 4.00000
4.00000 13.19120 4.00000
4.00000 13.19120 4.00000
4.00000 13.19120 4.00000
4.00000 13.19120 4.00000
4.00000 13.19120 4.00000
4.00000 13.19120 4.00000
4.00000 13.19120 4.00000
4.00000 13.19120 4.00000
4.00000 13.19120 4.00000
4.00000 13.19120 4.00000
4.00000 13.19120 4.00000
4.00000 13.19120 4.00000
4.00000 13.19120 4.00000
4.00000 13.19120 4.00000
4.00490 13.21839 4.00490
4.01513 13.28618 4.01513
4.02335 13.35804 4.02335
4.02958 13.43388 4.02958
4.03390 13.51355 4.03390
4.03642 13.59685 4.03642
4.03798 13.68208 4.03798
4.03950 13.76742 4.03950
4.04098 13.85285 4.04098
4.04243 13.93837 4.04243
4.04385 14.02396 4.04385
4.04524 14.10962 4.04524
4.04661 14.19534 4.04661
4.04796 14.28111 4.04796
4.04929 14.36694 4.04929
4.05061 14.45282 4.05061
4.05191 14.53874 4.05191
4.05320 14.62470 4.05320
4.05448 14.71070 4.05448
4.05575 14.79674 4.05575
4.05701 14.88280 4.05701
4.05827 14.96890 4.05827
4.05951 15.05503 4.05951
4.06071 15.14128 4.06071
4.06169 15.22796 4.06169
4.06247 15.31507 4.06247
4.06305 15.40258 4.06305
4.06346 15.49047 4.06346
4.06369 15.57870 4.06369
4.06377 15.66726 4.06377
4.06371 15.75612 4.06371
4.06352 15.84526 4.06352
4.06320 15.93465 4.06320
4.06278 16.02427 4.06278
4.06226 16.11410 4.06226
4.06165 16.20412 4.06165
4.06096 16.29431 4.06096
4.06021 16.38465 4.06021
4.05939 16.47513 4.05939
4.05852 16.56573 4.05852
4.05760 16.65643 4.05760
4.05664 16.74722 4.05664
4.05565 16.83810 4.05565
4.05463 16.92904 4.05463
4.05358 17.02004 4.05358
4.05252 17.11109 4.05252
4.05145 17.20217 4.05145

Angle 0.698856 0.292454

4.00000 7.03348 4.00000
4.00000 7.03348 4.00000
4.00000 7.03348 4.00000
4.00000 7.03348 4.00000
4.00000 7.03348 4.00000
4.00000 7.03348 4.00000
4.00000 7.03348 4.00000
4.00000 7.03348 4.00000
4.00000 7.03348 4.00000
4.00000 7.03348 4.00000
4.00000 7.03348 4.00000
4.00000 7.03348 4.00000
4.00000 7.03348 4.00000
4.00000 7.03348 4.00000
4.00000 7.03348 4.00000
4.00000 7.03348 4.00000
4.00000 7.03348 4.00000
4.00000 7.03348 4.00000
4.00000 7.03348 4.00000
4.00000 7.03348 4.00000
4.00000 7.03348 4.00000
4.00000 7.03348 4.00000
4.00000 7.03348 4.00000
4.00000 7.03348 4.00000
4.00000 7.03348 4.00000
4.00000 7.03348 4.00000
4.00000 7.03348 4.00000
4.00000 7.03348 4.00000
4.00000 7.03348 4.00000
4.00000 7.03348 4.00000
4.00000 7.03348 4.00000
4.00000 7.03348 4.00000
4.00000 7.03348 4.00000
4.00000 7.03348 4.00000
4.00000 7.03348 4.00000
4.00000 7.03348 4.00000
4.00000 7.03348 4.00000
4.00000 7.03348 4.00000
4.00000 7.03348 4.00000
4.00000 7.03348 4.00000
4.00000 7.03348 4.00000
4.00000 7.03348 4.00000
4.00000 7.03348 4.00000
4.00000 7.03348 4.00000
4.00000 7.03348 4.00000
4.00000 7.03348 4.00000
4.00000 7.03348 4.00000
4.00000 7.03348 4.00000
4.00000 7.03348 4.00000
4.00000 7.03348 4.00000
4.00000 7.03348 4.00000
4.00000 7.03348 4.00000
4.00000 7.03348 4.00000
4.00000 7.03348 4.00000
4.00000 7.03348 4.00000
4.00000 7.03348 4.00000
4.00000 7.03348 4.00000
4.00000 7.03348 4.00000
4.00000 7.03348 4.00000
4.00000 7.03348 4.00000
4.00000 7.03348 4.00000
4.00000 7.03348 4.00000
4.00000 7.03348 4.00000
4.00000 7.03348 4.00000
4.00000 7.03348 4.00000
4.00000 7.03348 4.00000
4.00000 7.03348 4.00000
4.00000 7.03348 4.00000
4.00000 7.03348 4.00000
4.00000 7.03348 4.00000
4.00000 7.03348 4.00000
4.00000 7.03348 4.00000
4.00000 7.03348 4.00000
4.00000 7.03348 4.00000
4.00000 7.03348 4.00000
4.00000 7.03348 4.00000
4.00000 7.03348 4.00000
4.00000 7.03348 4.00000
4.00000 7.03348 4.00000
4.00000 7.03348 4.00000
4.00000 7.03348 4.00000
4.00000 7.03348 4.00000
4.00000 7.03348 4.00000
4.00000 7.03348 4.00000
4.00000 7.03348 4.00000
4.00000 7.03348 4.00000
4.00000 7.03348 4.00000
4.00000 7.03348 4.00000
4.00000 7.03348 4.00000
4.00000 7.03348 4.00000
4.00000 7.03348 4.00000
4.00000 7.03348 4.00000
4.00000 7.03348 4.00000
4.00000 7.03348 4.00000
4.00000 7.03348 4.00000
4.00000 7.03348 4.00000
4.00000 7.03348 4.00000
4.00000 7.03348 4.00000
4.00000 7.03348 4.00000
4.00000 7.03348 4.00000
4.00000 7.03348 4.00000
4.00000 7.03348 4.00000
4.00000 7.03348 4.00000
4.00000 7.03348 4.00000
4.00000 7.03348 4.00000
4.00000 7.03348 4.00000
4.00000 7.03348 4.00000
4.00000 7.03348 4.00000
4.00000 7.03348 4.00000
4.00000 7.03348 4.00000
4.00000 7.03348 4.00000
4.00000 7.03348 4.00000
4.00000 7.03348 4.00000
4.00000 7.03348 4.00000
4.00000 7.03348 4.00000
4.00000 7.03348 4.00000
4.00000 7.03348 4.00000
4.00000 7.03348 4.00000
4.00000 7.03348 4.00000
4.00000 7.03348 4.00000
4.00000 7.03348 4.00000
4.00000 7.03348 4.00000
4.00000 7.03348 4.00000
4.00000 7.03348 4.00000
4.00000 7.03348 4.00000
4.00000 7.03348 4.00000
4.00000 7.03348 4.00000
4.00000 7.03348 4.00000
4.00000 7.03348 4.00000
4.00000 7.03348 4.00000
4.00000 7.03348 4.00000
4.00000 7.03348 4.00000
4.00000 7.03348 4.00000
4.00000 7.03348 4.00000
4.00000 7.03348 4.00000
4.00000 7.03348 4.00000
4.00000 7.03348 4.00000
4.00000 7.03348 4.00000
4.00000 7.03348 4.00000
4.00000 7.03348 4.00000
4.00000 7.03348 4.00000
4.00000 7.03348 4.00000
4.00000 7.03348 4.00000
4.00000 7.03349 4.00000
4.00000 7.03350 4.00000
4.00000 7.03348 4.00000
4.00000 7.03348 4.00000
4.00000 7.03351 4.00000
4.00000 7.03348 4.00000
4.00000 7.03348 4.00000
4.00000 7.03349 4.00000
4.00137 7.08046 4.00138
4.00362 7.15898 4.00363
4.00583 7.23768 4.00583
4.00799 7.31653 4.00799
4.01013 7.39553 4.01013
4.01225 7.47464 4.01225
4.01436 7.55384 4.01436
4.01648 7.63313 4.01648
4.01860 7.71246 4.01860
4.02075 7.79183 4.02075
4.02294 7.87121 4.02294
4.02517 7.95056 4.02517
4.02746 8.02985 4.02746
4.02984 8.10906 4.02984
4.03232 8.18814 4.03232
4.03492 8.26703 4.03492
4.03768 8.34568 4.03768
4.04063 8.42402 4.04063
4.04382 8.50194 4.04382
4.04731 8.57933 4.04731
4.05118 8.65604 4.05118
4.05547 8.73196 4.05547
4.06014 8.80717 4.06014
4.06523 8.88161 4.06523
4.07078 8.95521 4.07078
4.07679 9.02792 4.07679
4.08330 9.09972 4.08330
4.09029 9.17058 4.09029
4.09778 9.24053 4.09778
4.10572 9.30963 4.10572
4.11405 9.37799 4.11405
4.12269 9.44581 4.12269
4.13149 9.51333 4.13149
4.14029 9.58094 4.14029
4.14883 9.64910 4.14883
4.15681 9.71843 4.15681
4.16387 9.78967 4.16387
4.16954 9.86372 4.16954
4.17336 9.94153 4.17336
4.17487 10.02401 4.17487
4.17388 10.11154 4.17388
4.17177 10.20135 4.17177
4.16904 10.29244 4.16904
4.16573 10.38475 4.16573
4.16185 10.47824 4.16185
4.15739 10.57295 4.15739
4.15231 10.66892 4.15231
4.14657 10.76627 4.14657
4.14010 10.86512 4.14010
4.13278 10.96571 4.13278
4.12446 11.06835 4.12446
4.11491 11.17347 4.11491
4.10379 11.28179 4.10379
4.09054 11.39441 4.09054
4.07429 11.51308 4.07429
4.05374 11.64037 4.05374
4.02598 11.78212 4.02598
4.00000 13.19120 4.00000
4.00000 13.19120 4.00000
4.00000 13.19120 4.00000
4.00000 13.19120 4.00000
4.00000 13.19120 4.00000
4.00000 13.19120 4.00000
4.00000 13.19120 4.00000
4.00000 13.19120 4.00000
4.00000 13.19120 4.00000
4.00000 13.19120 4.00000
4.00000 13.19120 4.00000
4.00000 13.19120 4.00000
4.00000 13.19120 4.00000
4.00000 13.19122 4.00000
4.00000 13.19120 4.00000
4.00368 13.21138 4.00368
4.01398 13.27761 4.01398
4.02232 13.34779 4.02232
4.02874 13.42184 4.02874
4.03329 13.49965 4.03329
4.03608 13.58102 4.03608
4.03767 13.66482 4.03767
4.03917 13.74882 4.03917
4.04064 13.83292 4.04064
4.04207 13.91712 4.04207
4.04347 14.00141 4.04347
4.04485 14.08577 4.04485
4.04621 14.17021 4.04621
4.04754 14.25471 4.04754
4.04886 14.33927 4.04886
4.05017 14.42390 4.05016
4.05145 14.50857 4.05145
4.05273 14.59330 4.05273
4.05400 14.67807 4.05400
4.05525 14.76289 4.05525
4.05650 14.84775 4.05650
4.05774 14.93265 4.05774
4.05897 15.01759 4.05897
4.06019 15.10258 4.06019
4.06126 15.18789 4.06126
4.06212 15.27364 4.06212
4.06279 15.35981 4.06279
4.06328 15.44636 4.06328
4.06359 15.53328 4.06359
4.06375 15.62053 4.06375
4.06376 15.70810 4.06376
4.06364 15.79596 4.06364
4.06339 15.88408 4.06339
4.06304 15.97245 4.06304
4.06258 16.06105 4.06258
4.06203 16.14985 4.06203
4.06140 16.23883 4.06140
4.06069 16.32798 4.06069
4.05992 16.41729 4.05992
4.05909 16.50672 4.05909
4.05821 16.59628 4.05821
4.05729 16.68595 4.05729
4.05633 16.77571 4.05633
4.05534 16.86555 4.05534
4.05433 16.95546 4.05433
4.05329 17.04543 4.05329
4.05224 17.13545 4.05224
4.05117 17.22552 4.05117
4.05010 17.31562 4.05010
4.04902 17.40575 4.04902
4.04794 17.49591 4.04794
4.04685 17.58608 4.04686
4.04578 17.67626 4.04578
4.04470 17.76645 4.04470
4.04364 17.85664 4.04364
4.04258 17.94683 4.04258
4.04154 18.03702 4.04154
4.04050 18.12720 4.04050
4.03948 18.21737 4.03948
4.03847 18.30753 4.03848
4.03748 18.39768 4.03748
4.03651 18.48781 4.03651
4.03555 18.57792 4.03555
4.03460 18.66801 4.03460
4.03368 18.75809 4.03368
4.03277 18.84815 4.03277
4.03188 18.93818 4.03188
4.03101 19.02820 4.03101
4.03016 19.11819 4.03016
4.02932 19.20816 4.02932
4.02851 19.29811 4.02851
4.02771 19.38803 4.02771
4.02693 19.47794 4.02693
4.02617 19.56782 4.02617
4.02543 19.65768 4.02543
4.02470 19.74751 4.02470
4.02400 19.83733 4.02400
4.02331 19.92712 4.02331
4.02263 20.01690 4.02263
4.02198 20.10665 4.02198
4.02134 20.19638 4.02134
4.02072 20.28610 4.02072
4.02011 20.37579 4.02011
4.01953 20.46546 4.01953
4.01895 20.55512 4.01895
4.01839 20.64476 4.01839
4.01785 20.73438 4.01785
4.01732 20.82398 4.01732
4.01681 20.91357 4.01681
4.01631 21.00314 4.01631
4.01583 21.09269 4.01583
4.01535 21.18223 4.01535
4.01489 21.27176 4.01489
4.01445 21.36127 4.01445
4.01402 21.45077 4.01402
4.01359 21.54025 4.01359
4.01319 21.62973 4.01319
4.01279 21.71919 4.01279
4.01240 21.80864 4.01240
4.01203 21.89807 4.01203
4.01166 21.98750 4.01166
4.01131 22.07692 4.01131
4.01097 22.16633 4.01097
4.01064 22.25573 4.01064
4.01031 22.34512 4.01031
4.01000 22.43450 4.01000
4.00969 22.52388 4.00969
4.00940 22.61324 4.00940
4.00911 22.70260 4.00911
4.00883 22.79196 4.00883
4.00856 22.88130 4.00856
4.00830 22.97065 4.00830
4.00805 23.05998 4.00805
4.00780 23.14931 4.00780
4.00756 23.23864 4.00756
4.00733 23.32796 4.00733
4.00710 23.41728 4.00710
4.00689 23.50659 4.00689
4.00667 23.59590 4.00667
4.00647 23.68521 4.00647
4.00627 23.77451 4.00627
4.00608 23.86381 4.00608
4.00589 23.95311 4.00589
4.00571 24.04240 4.00571
4.00553 24.13170 4.00553
4.00536 24.22099 4.00536
4.00520 24.31028 4.00520
4.00503 24.39957 4.00503
4.00488 24.48886 4.00488
4.00473 24.57815 4.00473
4.00458 24.66744 4.00458
4.00444 24.75672 4.00444
4.00430 24.84601 4.00430
4.00417 24.93530 4.00417
4.00404 25.02458 4.00404
4.00391 25.11387 4.00391
4.00379 25.20316 4.00379
4.00367 25.29245 4.00368
4.00356 25.38174 4.00356
4.00345 25.47103 4.00345
4.00334 25.56032 4.00334
4.00324 25.64961 4.00324
4.00314 25.73891 4.00314
4.00304 25.82820 4.00304
4.00295 25.91750 4.00295
4.00285 26.00680 4.00285
4.00277 26.09610 4.00277
4.00268 26.18541 4.00268
4.00260 26.27471 4.00260
4.00251 26.36402 4.00251
4.00244 26.45333 4.00244
4.00236 26.54265 4.00236
4.00229 26.63196 4.00229
4.00222 26.72128 4.00222
4.00215 26.81060 4.00215
4.00208 26.89993 4.00208
4.00202 26.98925 4.00202
4.00195 27.07858 4.00195
4.00189 27.16792 4.00189
4.00183 27.25725 4.00183
4.00177 27.34659 4.00177
4.00172 27.43593 4.00172
4.00167 27.52528 4.00167
4.00161 27.61463 4.00161
4.00156 27.70398 4.00156
4.00151 27.79334 4.00151
4.00147 27.88270 4.00147
4.00142 27.97206 4.00142
4.00138 28.06143 4.00138
4.00133 28.15080 4.00133
4.00129 28.24017 4.00129
4.00125 28.32955 4.00125
4.00121 28.41893 4.00121
4.00117 28.50831 4.00117
4.00114 28.59770 4.00114
4.00110 28.68710 4.00110
4.00107 28.77649 4.00107

