Angle 0.316365 1.259187

4.00000 7.03348 4.00000
4.00000 7.03348 4.00000
4.00000 7.03348 4.00000
4.00000 7.03348 4.00000
4.00000 7.03348 4.00000
4.00000 7.03348 4.00000
4.00000 7.03348 4.00000
4.00000 7.03348 4.00000
4.00000 7.03348 4.00000
4.00000 7.03348 4.00000
4.00000 7.03348 4.00000
4.00000 7.03348 4.00000
4.00000 7.03348 4.00000
4.00000 7.03348 4.00000
4.00000 7.03348 4.00000
4.00000 7.03348 4.00000
4.00000 7.03348 4.00000
4.00000 7.03348 4.00000
4.00000 7.03348 4.00000
4.00000 7.03348 4.00000
4.00000 7.03348 4.00000
4.00000 7.03348 4.00000
4.00000 7.03348 4.00000
4.00000 7.03348 4.00000
4.00000 7.03348 4.00000
4.00000 7.03348 4.00000
4.00000 7.03348 4.00000
4.00000 7.03348 4.00000
4.00000 7.03348 4.00000
4.00000 7.03348 4.00000
4.00000 7.03348 4.00000
4.00000 7.03348 4.00000
4.00000 7.03348 4.00000
4.00000 7.03348 4.00000
4.00000 7.03348 4.00000
4.00000 7.03348 4.00000
4.00000 7.03348 4.00000
4.00000 7.03348 4.00000
4.00000 7.03348 4.00000
4.00000 7.03348 4.00000
4.00000 7.03348 4.00000
4.00000 7.03348 4.00000
4.00000 7.03348 4.00000
4.00000 7.03348 4.00000
4.00000 7.03348 4.00000
4.00000 7.03348 4.00000
4.00000 7.03348 4.00000
4.00000 7.03348 4.00000
4.00000 7.03348 4.00000
4.00000 7.03348 4.00000
4.00000 7.03348 4.00000
4.00000 7.03348 4.00000
4.00000 7.03348 4.00000
4.00000 7.03348 4.00000
4.00000 7.03348 4.00000
4.00000 7.03348 4.00000
4.00000 7.03348 4.00000
4.00000 7.03348 4.00000
4.00000 7.03348 4.00000
4.00000 7.03348 4.00000
4.00000 7.03348 4.00000
4.00000 7.03348 4.00000
4.00000 7.03348 4.00000
4.00000 7.03348 4.00000
4.00000 7.03348 4.00000
4.00000 7.03348 4.00000
4.00000 7.03348 4.00000
4.00000 7.03348 4.00000
4.00000 7.03348 4.00000
4.00000 7.03348 4.00000
4.00000 7.03348 4.00000
4.00000 7.03348 4.00000
4.00000 7.03348 4.00000
4.00000 7.03348 4.00000
4.00000 7.03348 4.00000
4.00000 7.03349 4.00000
4.00000 7.03349 4.00000
4.00000 7.03348 4.00000
4.00000 7.03350 4.00000
4.00000 7.03352 4.00000
4.00080 7.06078 4.00080
4.00231 7.11277 4.00231
4.00380 7.16513 4.00380
4.00528 7.21785 4.00528
4.00674 7.27092 4.00674
4.00820 7.32434 4.00820
4.00966 7.37809 4.00966
4.01111 7.43217 4.01111
4.01257 7.48657 4.01257
4.01403 7.54128 4.01403
4.01549 7.59628 4.01549
4.01697 7.65158 4.01697
4.01846 7.70715 4.01846
4.01997 7.76298 4.01997
4.02149 7.81908 4.02150
4.02305 7.87541 4.02305
4.02464 7.93198 4.02464
4.02626 7.98876 4.02626
4.02793 8.04573 4.02793
4.02965 8.10289 4.02965
4.03143 8.16021 4.03143
4.03328 8.21767 4.03328
4.03520 8.27524 4.03520
4.03722 8.33290 4.03722
4.03935 8.39060 4.03935
4.04160 8.44832 4.04160
4.04400 8.50601 4.04400
4.04657 8.56360 4.04657
4.04936 8.62103 4.04936
4.05239 8.67822 4.05239
4.05566 8.73519 4.05566
4.05916 8.79193 4.05916
4.06290 8.84843 4.06290
4.06691 8.90464 4.06691
4.07120 8.96054 4.07120
4.07577 9.01609 4.07578
4.08065 9.07128 4.08065
4.08583 9.12609 4.08583
4.09132 9.18050 4.09132
4.09711 9.23454 4.09712
4.10320 9.28821 4.10320
4.10955 9.34157 4.10956
4.11614 9.39467 4.11614
4.12292 9.44762 4.12292
4.12982 9.50053 4.12982
4.13675 9.55359 4.13675
4.14361 9.60700 4.14361
4.15026 9.66102 4.15027
4.15655 9.71599 4.15655
4.16227 9.77228 4.16227
4.16721 9.83033 4.16721
4.17112 9.89065 4.17112
4.17375 9.95373 4.17375
4.17486 10.02003 4.17486
4.17430 10.08987 4.17430
4.17277 10.16182 4.17277
4.17083 10.23478 4.17083
4.16850 10.30872 4.16850
4.16578 10.38361 4.16578
4.16267 10.45945 4.16267
4.15918 10.53624 4.15918
4.15528 10.61402 4.15528
4.15096 10.69283 4.15096
4.14617 10.77274 4.14617
4.14087 10.85383 4.14087
4.13500 10.93624 4.13500
4.12848 11.02011 4.12848
4.12120 11.10569 4.12120
4.11299 11.19327 4.11299
4.10363 11.28331 4.10363
4.09278 11.37648 4.09278
4.07995 11.47379 4.07995
4.06450 11.57649 4.06450
4.04526 11.68691 4.04526
4.01977 11.80999 4.01977
4.00000 13.19120 4.00000
4.00000 13.19120 4.00000
4.00000 13.19120 4.00000
4.00000 13.19120 4.00000
4.00000 13.19120 4.00000
4.00000 13.19120 4.00000
4.00000 13.19120 4.00000
4.00000 13.19120 4.00000
4.00000 13.19120 4.00000
4.00000 13.19120 4.00000
4.00000 13.19120 4.00000
4.00000 13.19120 4.00000
4.00000 13.19120 4.00000
4.00000 13.19120 4.00000
4.00000 13.19120 4.00000
4.00000 13.19121 4.00000
4.00000 13.19120 4.00000
4.00000 13.19120 4.00000
4.00717 13.23201 4.00717
4.01563 13.28993 4.01563
4.02263 13.35086 4.02263
4.02822 13.41477 4.02822
4.03241 13.48156 4.03241
4.03527 13.55116 4.03527
4.03691 13.62330 4.03691
4.03824 13.69619 4.03824
4.03953 13.76925 4.03953
4.04080 13.84247 4.04080
4.04205 13.91586 4.04205
4.04328 13.98939 4.04328
4.04448 14.06308 4.04449
4.04568 14.13690 4.04568
4.04685 14.21086 4.04685
4.04802 14.28495 4.04802
4.04917 14.35917 4.04917
4.05031 14.43352 4.05031
4.05145 14.50799 4.05145
4.05257 14.58257 4.05257
4.05369 14.65727 4.05369
4.05480 14.73209 4.05480
4.05590 14.80701 4.05590
4.05700 14.88205 4.05700
4.05810 14.95719 4.05810
4.05919 15.03243 4.05919
4.06027 15.10779 4.06027
4.06121 15.18351 4.06121
4.06200 15.25965 4.06200
4.06263 15.33619 4.06263
4.06311 15.41312 4.06311
4.06346 15.49041 4.06346
4.06367 15.56805 4.06367
4.06377 15.64602 4.06377
4.06375 15.72430 4.06375
4.06362 15.80288 4.06362
4.06340 15.88175 4.06340
4.06309 15.96088 4.06309
4.06269 16.04026 4.06269
4.06222 16.11987 4.06222
4.06168 16.19971 4.06168
4.06108 16.27975 4.06108
4.06042 16.35999 4.06042
4.05971 16.44041 4.05971
4.05895 16.52100 4.05895
4.05816 16.60175 4.05816
4.05732 16.68265 4.05733
4.05646 16.76369 4.05646
4.05557 16.84486 4.05557
4.05466 16.92615 4.05466
4.05373 17.00755 4.05373
4.05278 17.08906 4.05278
4.05182 17.17067 4.05182
4.05085 17.25237 4.05085
4.04988 17.33416 4.04988
4.04889 17.41603 4.04889
4.04791 17.49797 4.04791
4.04693 17.57998 4.04693
4.04595 17.66206 4.04595
4.04497 17.74420 4.04497
4.04400 17.82640 4.04400
4.04303 17.90866 4.04303
4.04207 17.99097 4.04207
4.04112 18.07332 4.04112
4.04018 18.15573 4.04018
4.03925 18.23817 4.03925
4.03833 18.32066 4.03833
4.03742 18.40319 4.03742
4.03653 18.48576 4.03653
4.03565 18.56836 4.03565
4.03478 18.65100 4.03478
4.03393 18.73367 4.03393
4.03309 18.81637 4.03309
4.03227 18.89911 4.03227
4.03146 18.98187 4.03146
4.03066 19.06467 4.03066
4.02988 19.14749 4.02988
4.02912 19.23034 4.02912
4.02837 19.31322 4.02837
4.02764 19.39613 4.02764
4.02692 19.47907 4.02692
4.02622 19.56202 4.02622
4.02553 19.64501 4.02553
4.02486 19.72802 4.02486
4.02420 19.81105 4.02420
4.02356 19.89412 4.02356
4.02293 19.97720 4.02293
4.02232 20.06031 4.02232
4.02172 20.14345 4.02172
4.02113 20.22661 4.02113
4.02056 20.30979 4.02056
4.02000 20.39300 4.02000
4.01946 20.47623 4.01946
4.01893 20.55949 4.01893
4.01841 20.64277 4.01841
4.01790 20.72607 4.01790
4.01741 20.80940 4.01741
4.01693 20.89276 4.01693
4.01646 20.97613 4.01646
4.01600 21.05954 4.01600
4.01556 21.14297 4.01556
4.01513 21.22642 4.01513
4.01470 21.30990 4.01470
4.01429 21.39340 4.01429
4.01389 21.47692 4.01389
4.01350 21.56048 4.01350
4.01312 21.64405 4.01312
4.01275 21.72766 4.01275
4.01239 21.81128 4.01239
4.01204 21.89493 4.01204
4.01170 21.97861 4.01170
4.01137 22.06231 4.01137
4.01105 22.14604 4.01105
4.01073 22.22980 4.01073
4.01043 22.31357 4.01043
4.01013 22.39738 4.01013
4.00984 22.48121 4.00984
4.00956 22.56507 4.00956
4.00928 22.64895 4.00928
4.00902 22.73286 4.00902
4.00876 22.81679 4.00876
4.00851 22.90075 4.00851
4.00826 22.98474 4.00826
4.00802 23.06875 4.00802
4.00779 23.15279 4.00779
4.00757 23.23685 4.00757
4.00735 23.32094 4.00735
4.00713 23.40506 4.00713
4.00693 23.48920 4.00693
4.00673 23.57337 4.00673
4.00653 23.65756 4.00653
4.00634 23.74178 4.00634
4.00616 23.82603 4.00616
4.00598 23.91030 4.00598
4.00580 23.99460 4.00580
4.00563 24.07893 4.00563
4.00547 24.16328 4.00547
4.00531 24.24766 4.00531
4.00516 24.33206 4.00516
4.00500 24.41649 4.00500
4.00486 24.50094 4.00486
4.00472 24.58542 4.00472
4.00458 24.66993 4.00458
4.00444 24.75447 4.00444
4.00431 24.83902 4.00431
4.00419 24.92361 4.00419
4.00406 25.00822 4.00406
4.00394 25.09285 4.00394
4.00383 25.17751 4.00383
4.00372 25.26220 4.00371
4.00360 25.34691 4.00361
4.00350 25.43165 4.00350
4.00339 25.51642 4.00339
4.00329 25.60120 4.00329
4.00320 25.68602 4.00320
4.00310 25.77086 4.00310
4.00301 25.85572 4.00301
4.00292 25.94061 4.00292
4.00284 26.02553 4.00284
4.00275 26.11047 4.00275
4.00267 26.19543 4.00267
4.00259 26.28042 4.00259
4.00251 26.36543 4.00251
4.00244 26.45047 4.00244
4.00237 26.53553 4.00237
4.00230 26.62062 4.00230
4.00223 26.70573 4.00223
4.00217 26.79086 4.00216
4.00210 26.87602 4.00210
4.00203 26.96121 4.00203
4.00197 27.04641 4.00198
4.00191 27.13164 4.00192
4.00186 27.21690 4.00186
4.00180 27.30218 4.00180
4.00175 27.38748 4.00175
4.00170 27.47280 4.00170
4.00165 27.55815 4.00165
4.00160 27.64352 4.00160
4.00155 27.72892 4.00155
4.00150 27.81434 4.00151
4.00146 27.89978 4.00146
4.00142 27.98523 4.00142
4.00137 28.07072 4.00138
4.00133 28.15624 4.00133
4.00129 28.24177 4.00129
4.00125 28.32732 4.00125
4.00121 28.41290 4.00122
4.00118 28.49850 4.00118
4.00114 28.58411 4.00114
4.00111 28.66975 4.00111
4.00108 28.75542 4.00108
4.00104 28.84111 4.00104
4.00101 28.92681 4.00101
4.00098 29.01254 4.00098
4.00095 29.09830 4.00095
4.00092 29.18407 4.00092
4.00090 29.26986 4.00090
4.00087 29.35567 4.00087
4.00084 29.44151 4.00084
4.00082 29.52736 4.00082
4.00079 29.61324 4.00079
4.00077 29.69914 4.00077
4.00074 29.78506 4.00075
4.00072 29.87100 4.00072
4.00070 29.95696 4.00070
4.00068 30.04294 4.00068
4.00066 30.12893 4.00066
4.00064 30.21495 4.00064
4.00062 30.30099 4.00062
4.00060 30.38705 4.00060
4.00058 30.47313 4.00058
4.00056 30.55923 4.00057
4.00055 30.64535 4.00055
4.00053 30.73149 4.00053
4.00052 30.81764 4.00052
4.00050 30.90382 4.00050
4.00049 30.99001 4.00049
4.00047 31.07623 4.00047
4.00046 31.16246 4.00046
4.00044 31.24871 4.00044
4.00043 31.33498 4.00043
4.00042 31.42127 4.00042
4.00040 31.50758 4.00040
4.00039 31.59390 4.00039
4.00038 31.68025 4.00038
4.00037 31.76661 4.00037
4.00036 31.85299 4.00036

Angle 0.716436 3.742964

4.00000 7.03348 4.00000
4.00000 7.03348 4.00000
4.00000 7.03348 4.00000
4.00000 7.03348 4.00000
4.00000 7.03348 4.00000
4.00000 7.03348 4.00000
4.00000 7.03348 4.00000
4.00000 7.03348 4.00000
4.00000 7.03348 4.00000
4.00000 7.03348 4.00000
4.00000 7.03348 4.00000
4.00000 7.03348 4.00000
4.00000 7.03348 4.00000
4.00000 7.03348 4.00000
4.00000 7.03348 4.00000
4.00000 7.03348 4.00000
4.00000 7.03348 4.00000
4.00000 7.03348 4.00000
4.00000 7.03348 4.00000
4.00000 7.03348 4.00000
4.00000 7.03348 4.00000
4.00000 7.03348 4.00000
4.00000 7.03348 4.00000
4.00000 7.03348 4.00000
4.00000 7.03348 4.00000
4.00000 7.03348 4.00000
4.00000 7.03348 4.00000
4.00000 7.03348 4.00000
4.00000 7.03348 4.00000
4.00000 7.03348 4.00000
4.00000 7.03348 4.00000
4.00000 7.03348 4.00000
4.00000 7.03348 4.00000
4.00000 7.03348 4.00000
4.00000 7.03348 4.00000
4.00000 7.03348 4.00000
4.00000 7.03348 4.00000
4.00000 7.03348 4.00000
4.00000 7.03348 4.00000
4.00000 7.03348 4.00000
4.00000 7.03348 4.00000
4.00000 7.03348 4.00000
4.00000 7.03348 4.00000
4.00000 7.03348 4.00000
4.00000 7.03348 4.00000
4.00000 7.03348 4.00000
4.00000 7.03348 4.00000
4.00000 7.03348 4.00000
4.00000 7.03348 4.00000
4.00000 7.03348 4.00000
4.00000 7.03348 4.00000
4.00000 7.03348 4.00000
4.00000 7.03348 4.00000
4.00000 7.03348 4.00000
4.00000 7.03348 4.00000
4.00000 7.03348 4.00000
4.00000 7.03348 4.00000
4.00000 7.03348 4.00000
4.00000 7.03348 4.00000
4.00000 7.03348 4.00000
4.00000 7.03348 4.00000
4.00000 7.03348 4.00000
4.00000 7.03348 4.00000
4.00000 7.03348 4.00000
4.00000 7.03348 4.00000
4.00000 7.03348 4.00000
4.00000 7.03348 4.00000
4.00000 7.03348 4.00000
4.00000 7.03348 4.00000
4.00000 7.03348 4.00000
4.00000 7.03348 4.00000
4.00000 7.03348 4.00000
4.00000 7.03348 4.00000
4.00000 7.03348 4.00000
4.00000 7.03348 4.00000
4.00000 7.03348 4.00000
4.00000 7.03348 4.00000
4.00000 7.03348 4.00000
4.00000 7.03348 4.00000
4.00000 7.03348 4.00000
4.00000 7.03348 4.00000
4.00000 7.03348 4.00000
4.00000 7.03348 4.00000
4.00000 7.03348 4.00000
4.00000 7.03348 4.00000
4.00000 7.03348 4.00000
4.00000 7.03348 4.00000
4.00000 7.03348 4.00000
4.00000 7.03348 4.00000
4.00000 7.03348 4.00000
4.00000 7.03348 4.00000
4.00000 7.03348 4.00000
4.00000 7.03348 4.00000
4.00000 7.03348 4.00000
4.00000 7.03348 4.00000
4.00000 7.03348 4.00000
4.00000 7.03348 4.00000
4.00000 7.03348 4.00000
4.00000 7.03348 4.00000
4.00000 7.03348 4.00000
4.00000 7.03348 4.00000
4.00000 7.03348 4.00000
4.00000 7.03348 4.00000
4.00000 7.03348 4.00000
4.00000 7.03348 4.00000
4.00000 7.03348 4.00000
4.00000 7.03348 4.00000
4.00000 7.03348 4.00000
4.00000 7.03348 4.00000
4.00000 7.03348 4.00000
4.00000 7.03348 4.00000
4.00000 7.03348 4.00000
4.00000 7.03348 4.00000
4.00000 7.03348 4.00000
4.00000 7.03348 4.00000
4.00000 7.03348 4.00000
4.00000 7.03348 4.00000
4.00000 7.03348 4.00000
4.00000 7.03348 4.00000
4.00000 7.03348 4.00000
4.00000 7.03348 4.00000
4.00000 7.03348 4.00000
4.00000 7.03348 4.00000
4.00000 7.03348 4.00000
4.00000 7.03348 4.00000
4.00000 7.03348 4.00000
4.00000 7.03348 4.00000
4.00000 7.03348 4.00000
4.00000 7.03348 4.00000
4.00000 7.03348 4.00000
4.00000 7.03348 4.00000
4.00000 7.03348 4.00000
4.00000 7.03348 4.00000
4.00000 7.03348 4.00000
4.00000 7.03348 4.00000
4.00000 7.03348 4.00000
4.00000 7.03348 4.00000
4.00000 7.03348 4.00000
4.00000 7.03348 4.00000
4.00000 7.03348 4.00000
4.00000 7.03348 4.00000
4.00000 7.03348 4.00000
4.00000 7.03348 4.00000
4.00000 7.03348 4.00000
4.00000 7.03348 4.00000
4.00000 7.03348 4.00000
4.00000 7.03348 4.00000
4.00000 7.03348 4.00000
4.00000 7.03348 4.00000
4.00000 7.03348 4.00000
4.00000 7.03348 4.00000
4.00000 7.03348 4.00000
4.00000 7.03348 4.00000
4.00000 7.03348 4.00000
4.00000 7.03348 4.00000
4.00000 7.03348 4.00000
4.00000 7.03348 4.00000
4.00000 7.03348 4.00000
4.00000 7.03348 4.00000
4.00000 7.03348 4.00000
4.00000 7.03348 4.00000
4.00000 7.03348 4.00000
4.00000 7.03348 4.00000
4.00000 7.03348 4.00000
4.00000 7.03348 4.00000
4.00000 7.03348 4.00000
4.00000 7.03348 4.00000
4.00000 7.03348 4.00000
4.00000 7.03348 4.00000
4.00000 7.03348 4.00000
4.00000 7.03349 4.00000
4.00000 7.03348 4.00000
4.00000 7.03349 4.00000
4.00000 7.03348 4.00000
4.00000 7.03348 4.00000
4.00017 7.03927 4.00017
4.00250 7.11955 4.00250
4.00478 7.20000 4.00478
4.00701 7.28061 4.00701
4.00921 7.36135 4.00921
4.01138 7.44220 4.01138
4.01354 7.52313 4.01354
4.01570 7.60413 4.01570
4.01787 7.68517 4.01787
4.02006 7.76624 4.02005
4.02227 7.84729 4.02227
4.02454 7.92831 4.02454
4.02686 8.00926 4.02686
4.02926 8.09011 4.02926
4.03177 8.17082 4.03177
4.03439 8.25133 4.03439
4.03717 8.33158 4.03717
4.04015 8.41149 4.04015
4.04336 8.49098 4.04336
4.04687 8.56992 4.04687
4.05076 8.64815 4.05076
4.05509 8.72556 4.05509
4.05982 8.80220 4.05982
4.06498 8.87803 4.06498
4.07060 8.95298 4.07060
4.07671 9.02700 4.07671
4.08333 9.10006 4.08333
4.09045 9.17214 4.09045
4.09808 9.24326 4.09808
4.10617 9.31349 4.10617
4.11467 9.38295 4.11467
4.12347 9.45185 4.12347
4.13243 9.52047 4.13243
4.14135 9.58921 4.14135
4.14997 9.65858 4.14997
4.15797 9.72924 4.15797
4.16494 9.80200 4.16494
4.17040 9.87780 4.17040
4.17386 9.95766 4.17386
4.17486 10.04246 4.17486
4.17345 10.13213 4.17345
4.17115 10.22360 4.17115
4.16824 10.31634 4.16824
4.16472 10.41031 4.16473
4.16062 10.50550 4.16062
4.15591 10.60193 4.15591
4.15056 10.69968 4.15056
4.14451 10.79886 4.14451
4.13767 10.89966 4.13767
4.12992 11.00231 4.12992
4.12106 11.10720 4.12106
4.11083 11.21487 4.11083
4.09880 11.32617 4.09880
4.08425 11.44253 4.08425
4.06618 11.56597 4.06618
4.04274 11.70018 4.04274
4.00923 11.85455 4.00923
4.00000 13.19120 4.00000
4.00000 13.19120 4.00000
4.00000 13.19120 4.00000
4.00000 13.19120 4.00000
4.00000 13.19120 4.00000
4.00000 13.19120 4.00000
4.00000 13.19120 4.00000
4.00000 13.19120 4.00000
4.00000 13.19120 4.00000
4.00000 13.19120 4.00000
4.00000 13.19120 4.00000
4.00000 13.19120 4.00000
4.00000 13.19120 4.00000
4.00000 13.19121 4.00000
4.00000 13.19120 4.00000
4.01051 13.25334 4.01051
4.01964 13.32288 4.01964
4.02678 13.39640 4.02678
4.03200 13.47380 4.03200
4.03538 13.55490 4.03538
4.03720 13.63915 4.03720
4.03873 13.72399 4.03873
4.04023 13.80894 4.04022
4.04168 13.89398 4.04168
4.04311 13.97910 4.04311
4.04450 14.06430 4.04450
4.04588 14.14956 4.04588
4.04723 14.23489 4.04723
4.04857 14.32027 4.04857
4.04989 14.40570 4.04989
4.05119 14.49119 4.05119
4.05248 14.57672 4.05248
4.05376 14.66229 4.05376
4.05503 14.74790 4.05503
4.05629 14.83355 4.05629
4.05754 14.91923 4.05754
4.05879 15.00495 4.05879
4.06003 15.09070 4.06003
4.06114 15.17672 4.06114
4.06203 15.26319 4.06203
4.06273 15.35008 4.06273
4.06323 15.43736 4.06323
4.06357 15.52500 4.06357
4.06374 15.61298 4.06374
4.06376 15.70128 4.06376
4.06365 15.78987 4.06365
4.06341 15.87873 4.06341
4.06306 15.96783 4.06306
4.06260 16.05716 4.06260
4.06205 16.14669 4.06205
4.06141 16.23640 4.06141
4.06070 16.32628 4.06070
4.05993 16.41631 4.05993
4.05909 16.50646 4.05909
4.05821 16.59674 4.05821
4.05728 16.68711 4.05728
4.05631 16.77758 4.05631
4.05531 16.86813 4.05531
4.05429 16.95874 4.05429
4.05324 17.04940 4.05324
4.05218 17.14012 4.05218
4.05111 17.23087 4.05111
4.05003 17.32165 4.05002
4.04894 17.41246 4.04894
4.04785 17.50328 4.04785
4.04676 17.59412 4.04676
4.04567 17.68496 4.04567
4.04459 17.77581 4.04459
4.04352 17.86665 4.04352
4.04246 17.95749 4.04246
4.04141 18.04831 4.04141
4.04037 18.13913 4.04037
4.03934 18.22993 4.03934
4.03833 18.32072 4.03833
4.03733 18.41148 4.03733
4.03635 18.50223 4.03635
4.03539 18.59295 4.03539
4.03444 18.68365 4.03444
4.03351 18.77433 4.03351
4.03260 18.86498 4.03260
4.03171 18.95561 4.03171
4.03084 19.04621 4.03084
4.02998 19.13679 4.02998
4.02915 19.22734 4.02915
4.02833 19.31786 4.02833
4.02753 19.40836 4.02753
4.02675 19.49883 4.02675
4.02599 19.58927 4.02599
4.02525 19.67969 4.02525
4.02452 19.77008 4.02452
4.02382 19.86044 4.02382
4.02313 19.95079 4.02313
4.02246 20.04110 4.02246
4.02180 20.13139 4.02180
4.02117 20.22166 4.02116
4.02054 20.31190 4.02054
4.01994 20.40213 4.01994
4.01935 20.49232 4.01935
4.01878 20.58250 4.01878
4.01822 20.67265 4.01822
4.01768 20.76279 4.01768
4.01716 20.85290 4.01716
4.01664 20.94300 4.01664
4.01615 21.03307 4.01615
4.01566 21.12313 4.01566
4.01519 21.21316 4.01519
4.01474 21.30318 4.01474
4.01429 21.39319 4.01429
4.01386 21.48317 4.01386
4.01344 21.57314 4.01344
4.01304 21.66310 4.01304
4.01264 21.75304 4.01264
4.01226 21.84296 4.01226
4.01189 21.93288 4.01189
4.01152 22.02277 4.01152
4.01117 22.11266 4.01117
4.01083 22.20253 4.01083
4.01050 22.29239 4.01050
4.01018 22.38224 4.01018
4.00987 22.47208 4.00987
4.00957 22.56191 4.00957
4.00927 22.65173 4.00927
4.00899 22.74154 4.00899
4.00871 22.83134 4.00871
4.00845 22.92113 4.00845
4.00819 23.01091 4.00819
4.00793 23.10068 4.00793
4.00769 23.19045 4.00769
4.00745 23.28021 4.00745
4.00722 23.36996 4.00722
4.00700 23.45970 4.00700
4.00678 23.54944 4.00678
4.00657 23.63918 4.00657
4.00637 23.72890 4.00637
4.00617 23.81863 4.00617
4.00598 23.90834 4.00598
4.00580 23.99806 4.00580
4.00562 24.08776 4.00562
4.00544 24.17747 4.00544
4.00527 24.26717 4.00527
4.00511 24.35686 4.00511
4.00495 24.44656 4.00495
4.00480 24.53624 4.00480
4.00465 24.62593 4.00465
4.00450 24.71561 4.00450
4.00436 24.80530 4.00436
4.00423 24.89498 4.00423
4.00410 24.98465 4.00410
4.00397 25.07433 4.00397
4.00385 25.16400 4.00385
4.00373 25.25367 4.00373
4.00361 25.34335 4.00361
4.00350 25.43301 4.00350
4.00339 25.52268 4.00339
4.00328 25.61235 4.00328
4.00318 25.70202 4.00318
4.00308 25.79169 4.00308
4.00298 25.88135 4.00298
4.00289 25.97102 4.00289
4.00280 26.06068 4.00280
4.00271 26.15035 4.00271
4.00263 26.24002 4.00263
4.00255 26.32968 4.00255
4.00247 26.41935 4.00247
4.00239 26.50902 4.00239
4.00231 26.59869 4.00231
4.00224 26.68836 4.00224
4.00217 26.77803 4.00217

Angle 0.697642 4.807976

4.00000 7.03348 4.00000
4.00000 7.03348 4.00000
4.00000 7.03348 4.00000
4.00000 7.03348 4.00000
4.00000 7.03348 4.00000
4.00000 7.03348 4.00000
4.00000 7.03348 4.00000
4.00000 7.03348 4.00000
4.00000 7.03348 4.00000
4.00000 7.03348 4.00000
4.00000 7.03349 4.00000
4.00000 7.03348 4.00000
4.00000 7.03348 4.00000
4.00000 7.03348 4.00000
4.00000 7.03348 4.00000
4.00000 7.03348 4.00000
4.00000 7.03348 4.00000
4.00000 7.03348 4.00000
4.00000 7.03348 4.00000
4.00000 7.03348 4.00000
4.00000 7.03348 4.00000
4.00000 7.03348 4.00000
4.00000 7.03348 4.00000
4.00000 7.03348 4.00000
4.00000 7.03348 4.00000
4.00000 7.03348 4.00000
4.00000 7.03348 4.00000
4.00000 7.03348 4.00000
4.00000 7.03348 4.00000
4.00000 7.03348 4.00000
4.00000 7.03348 4.00000
4.00000 7.03348 4.00000
4.00000 7.03348 4.00000
4.00000 7.03348 4.00000
4.00000 7.03348 4.00000
4.00000 7.03348 4.00000
4.00000 7.03348 4.00000
4.00000 7.03348 4.00000
4.00000 7.03348 4.00000
4.00000 7.03348 4.00000
4.00000 7.03348 4.00000
4.00000 7.03348 4.00000
4.00000 7.03348 4.00000
4.00000 7.03348 4.00000
4.00000 7.03348 4.00000
4.00000 7.03348 4.00000
4.00000 7.03348 4.00000
4.00000 7.03348 4.00000
4.00000 7.03348 4.00000
4.00000 7.03348 4.00000
4.00000 7.03348 4.00000
4.00000 7.03348 4.00000
4.00000 7.03348 4.00000
4.00000 7.03348 4.00000
4.00000 7.03348 4.00000
4.00000 7.03348 4.00000
4.00000 7.03348 4.00000
4.00000 7.03348 4.00000
4.00000 7.03348 4.00000
4.00000 7.03348 4.00000
4.00000 7.03348 4.00000
4.00000 7.03348 4.00000
4.00000 7.03348 4.00000
4.00000 7.03348 4.00000
4.00000 7.03348 4.00000
4.00000 7.03348 4.00000
4.00000 7.03348 4.00000
4.00000 7.03348 4.00000
4.00000 7.03348 4.00000
4.00000 7.03348 4.00000
4.00000 7.03348 4.00000
4.00000 7.03348 4.00000
4.00000 7.03348 4.00000
4.00000 7.03348 4.00000
4.00000 7.03348 4.00000
4.00000 7.03348 4.00000
4.00000 7.03348 4.00000
4.00000 7.03348 4.00000
4.00000 7.03348 4.00000
4.00000 7.03348 4.00000
4.00000 7.03348 4.00000
4.00000 7.03348 4.00000
4.00000 7.03348 4.00000
4.00000 7.03348 4.00000
4.00000 7.03348 4.00000
4.00000 7.03348 4.00000
4.00000 7.03348 4.00000
4.00000 7.03348 4.00000
4.00000 7.03348 4.00000
4.00000 7.03348 4.00000
4.00000 7.03348 4.00000
4.00000 7.03348 4.00000
4.00000 7.03348 4.00000
4.00000 7.03348 4.00000
4.00000 7.03348 4.00000
4.00000 7.03348 4.00000
4.00000 7.03348 4.00000
4.00000 7.03348 4.00000
4.00000 7.03348 4.00000
4.00000 7.03348 4.00000
4.00000 7.03347 4.00000
4.00000 7.03348 4.00000
4.00000 7.03348 4.00000
4.00000 7.03348 4.00000
4.00000 7.03348 4.00000
4.00000 7.03348 4.00000
4.00000 7.03348 4.00000
4.00000 7.03350 4.00000
4.00000 7.03347 4.00000
4.00000 7.03348 4.00000
4.00000 7.03348 4.00000
4.00000 7.03348 4.00000
4.00000 7.03348 4.00000
4.00000 7.03348 4.00000
4.00000 7.03349 4.00000
4.00000 7.03348 4.00000
4.00000 7.03348 4.00000
4.00000 7.03348 4.00000
4.00000 7.03348 4.00000
4.00000 7.03348 4.00000
4.00000 7.03348 4.00000
4.00000 7.03348 4.00000
4.00000 7.03348 4.00000
4.00000 7.03348 4.00000
4.00000 7.03348 4.00000
4.00000 7.03348 4.00000
4.00000 7.03348 4.00000
4.00000 7.03348 4.00000
4.00000 7.03348 4.00000
4.00000 7.03348 4.00000
4.00000 7.03348 4.00000
4.00000 7.03348 4.00000
4.00000 7.03348 4.00000
4.00000 7.03348 4.00000
4.00000 7.03348 4.00000
4.00000 7.03348 4.00000
4.00000 7.03348 4.00000
4.00000 7.03348 4.00000
4.00000 7.03348 4.00000
4.00000 7.03348 4.00000
4.00000 7.03348 4.00000
4.00000 7.03348 4.00000
4.00000 7.03348 4.00000
4.00000 7.03348 4.00000
4.00000 7.03348 4.00000
4.00000 7.03348 4.00000
4.00000 7.03348 4.00000
4.00000 7.03348 4.00000
4.00000 7.03348 4.00000
4.00000 7.03348 4.00000
4.00000 7.03348 4.00000
4.00000 7.03348 4.00000
4.00000 7.03348 4.00000
4.00000 7.03348 4.00000
4.00000 7.03348 4.00000
4.00000 7.03348 4.00000
4.00000 7.03348 4.00000
4.00000 7.03348 4.00000
4.00000 7.03348 4.00000
4.00000 7.03348 4.00000
4.00000 7.03348 4.00000
4.00000 7.03348 4.00000
4.00000 7.03348 4.00000
4.00000 7.03348 4.00000
4.00000 7.03348 4.00000
4.00000 7.03348 4.00000
4.00000 7.03348 4.00000
4.00000 7.03348 4.00000
4.00000 7.03349 4.00000
4.00074 7.05865 4.00074
4.00305 7.13851 4.00304
4.00530 7.21855 4.00530
4.00751 7.29873 4.00751
4.00969 7.37905 4.00969
4.01184 7.45947 4.01184
4.01399 7.53998 4.01399
4.01614 7.62056 4.01614
4.01830 7.70118 4.01830
4.02048 7.78182 4.02048
4.02269 7.86245 4.02269
4.02495 7.94304 4.02495
4.02728 8.02357 4.02728
4.02969 8.10400 4.02969
4.03219 8.18428 4.03219
4.03483 8.26435 4.03483
4.03763 8.34417 4.03763
4.04062 8.42365 4.04062
4.04386 8.50269 4.04386
4.04740 8.58117 4.04740
4.05133 8.65893 4.05133
4.05570 8.73588 4.05570
4.06046 8.81207 4.06046
4.06566 8.88746 4.06566
4.07131 8.96197 4.07131
4.07746 9.03556 4.07746
4.08410 9.10819 4.08410
4.09125 9.17985 4.09125
4.09890 9.25057 4.09890
4.10700 9.32043 4.10700
4.11550 9.38954 4.11550
4.12428 9.45812 4.12428
4.13321 9.52646 4.13321
4.14208 9.59496 4.14208
4.15063 9.66413 4.15063
4.15854 9.73465 4.15854
4.16538 9.80731 4.16538
4.17071 9.88308 4.17071
4.17400 9.96293 4.17400
4.17483 10.04775 4.17483
4.17334 10.13727 4.17334
4.17101 10.22847 4.17101
4.16808 10.32094 4.16808
4.16455 10.41463 4.16455
4.16044 10.50954 4.16044
4.15572 10.60568 4.15572
4.15036 10.70314 4.15036
4.14431 10.80203 4.14431
4.13747 10.90253 4.13747
4.12971 11.00489 4.12971
4.12086 11.10948 4.12086
4.11063 11.21685 4.11063
4.09860 11.32786 4.09860
4.08407 11.44392 4.08407
4.06601 11.56705 4.06601
4.04260 11.70092 4.04260
4.00915 11.85490 4.00915
4.00000 13.19120 4.00000
4.00000 13.19119 4.00000
4.00000 13.19119 4.00000
4.00000 13.19119 4.00000
4.00000 13.19120 4.00000
4.00000 13.19120 4.00000
4.00000 13.19120 4.00000
4.00000 13.19119 4.00000
4.00000 13.19120 4.00000
4.00000 13.19120 4.00000
4.00000 13.19120 4.00000
4.00000 13.19120 4.00000
4.00000 13.19120 4.00000
4.00001 13.19124 4.00001
4.00000 13.19119 4.00000
4.01005 13.25032 4.01005
4.01925 13.31948 4.01925
4.02647 13.39262 4.02647
4.03177 13.46962 4.03177
4.03524 13.55031 4.03524
4.03711 13.63423 4.03711
4.03864 13.71884 4.03864
4.04013 13.80356 4.04013
4.04159 13.88838 4.04159
4.04301 13.97328 4.04301
4.04441 14.05826 4.04441
4.04578 14.14330 4.04578
4.04713 14.22842 4.04713
4.04846 14.31358 4.04846
4.04978 14.39881 4.04978
4.05108 14.48408 4.05108
4.05237 14.56940 4.05237
4.05365 14.65477 4.05365
4.05492 14.74018 4.05492
4.05618 14.82562 4.05618
4.05743 14.91110 4.05743
4.05867 14.99662 4.05867
4.05991 15.08217 4.05991
4.06103 15.16796 4.06103
4.06195 15.25419 4.06195
4.06266 15.34084 4.06266
4.06319 15.42789 4.06319
4.06354 15.51530 4.06354
4.06373 15.60306 4.06373
4.06377 15.69113 4.06377
4.06367 15.77950 4.06367
4.06345 15.86814 4.06345
4.06311 15.95702 4.06311
4.06266 16.04614 4.06266
4.06212 16.13546 4.06212
4.06150 16.22496 4.06150
4.06080 16.31464 4.06080
4.06003 16.40446 4.06003
4.05921 16.49442 4.05921
4.05833 16.58450 4.05833
4.05741 16.67469 4.05741
4.05645 16.76497 4.05645
4.05546 16.85532 4.05546
4.05444 16.94575 4.05444
4.05340 17.03624 4.05340
4.05234 17.12677 4.05234
4.05127 17.21735 4.05127
4.05019 17.30795 4.05019
4.04910 17.39859 4.04910
4.04802 17.48924 4.04802
4.04693 17.57991 4.04693
4.04585 17.67059 4.04585
4.04477 17.76127 4.04477
4.04369 17.85195 4.04369
4.04263 17.94262 4.04263
4.04158 18.03329 4.04158
4.04054 18.12395 4.04054
4.03951 18.21459 4.03951
4.03850 18.30522 4.03850
4.03750 18.39584 4.03750
4.03652 18.48643 4.03652
4.03556 18.57700 4.03556
4.03461 18.66756 4.03461
4.03368 18.75809 4.03368
4.03277 18.84859 4.03277
4.03187 18.93907 4.03187
4.03100 19.02953 4.03100
4.03014 19.11996 4.03014
4.02930 19.21037 4.02930
4.02848 19.30075 4.02848
4.02768 19.39111 4.02768
4.02690 19.48144 4.02690
4.02614 19.57175 4.02614
4.02539 19.66203 4.02539
4.02466 19.75229 4.02466
4.02396 19.84252 4.02395
4.02326 19.93273 4.02326
4.02259 20.02291 4.02259
4.02193 20.11306 4.02193
4.02129 20.20320 4.02129
4.02067 20.29332 4.02067
4.02006 20.38341 4.02006
4.01947 20.47348 4.01947
4.01890 20.56353 4.01890
4.01834 20.65355 4.01834
4.01780 20.74356 4.01780
4.01727 20.83355 4.01727
4.01675 20.92352 4.01675
4.01625 21.01347 4.01625
4.01577 21.10340 4.01577
4.01530 21.19332 4.01530
4.01484 21.28321 4.01484
4.01439 21.37310 4.01439
4.01396 21.46296 4.01396
4.01354 21.55282 4.01354
4.01313 21.64265 4.01313
4.01273 21.73247 4.01273
4.01234 21.82228 4.01234
4.01197 21.91207 4.01197
4.01161 22.00186 4.01161
4.01126 22.09162 4.01125
4.01091 22.18138 4.01091
4.01058 22.27113 4.01058
4.01026 22.36087 4.01026
4.00994 22.45059 4.00994
4.00964 22.54031 4.00964
4.00934 22.63001 4.00934
4.00906 22.71971 4.00906
4.00878 22.80940 4.00878
4.00851 22.89908 4.00851
4.00825 22.98875 4.00825
4.00800 23.07842 4.00800
4.00775 23.16808 4.00775
4.00751 23.25773 4.00751
4.00728 23.34737 4.00728
4.00706 23.43701 4.00706
4.00684 23.52664 4.00684
4.00663 23.61627 4.00663
4.00642 23.70589 4.00642
4.00622 23.79551 4.00622
4.00603 23.88512 4.00603
4.00584 23.97473 4.00584
4.00566 24.06434 4.00566
4.00549 24.15394 4.00549
4.00532 24.24354 4.00532
4.00515 24.33313 4.00515
4.00499 24.42273 4.00499
4.00484 24.51232 4.00484
4.00469 24.60190 4.00469
4.00454 24.69149 4.00454
4.00440 24.78107 4.00440
4.00427 24.87065 4.00426
4.00413 24.96023 4.00413
4.00400 25.04981 4.00400
4.00388 25.13939 4.00388
4.00376 25.22896 4.00376
4.00364 25.31854 4.00364
4.00353 25.40811 4.00353
4.00342 25.49768 4.00342
4.00331 25.58726 4.00331
4.00321 25.67683 4.00321
4.00311 25.76641 4.00311
4.00301 25.85598 4.00301
4.00292 25.94555 4.00292
4.00283 26.03513 4.00283
4.00274 26.12470 4.00274
4.00265 26.21428 4.00265
4.00257 26.30385 4.00257
4.00249 26.39343 4.00249
4.00241 26.48301 4.00241
4.00234 26.57259 4.00234
4.00226 26.66217 4.00226
4.00219 26.75175 4.00219
4.00212 26.84133 4.00212
4.00206 26.93092 4.00206
4.00199 27.02050 4.00199
4.00193 27.11009 4.00193
4.00187 27.19968 4.00187
4.00181 27.28927 4.00181

Angle 0.235936 0.699298

4.00000 7.03348 4.00000
4.00000 7.03348 4.00000
4.00000 7.03348 4.00000
4.00000 7.03348 4.00000
4.00000 7.03348 4.00000
4.00000 7.03348 4.00000
4.00000 7.03348 4.00000
4.00000 7.03348 4.00000
4.00000 7.03348 4.00000
4.00000 7.03348 4.00000
4.00000 7.03348 4.00000
4.00000 7.03348 4.00000
4.00000 7.03348 4.00000
4.00000 7.03348 4.00000
4.00000 7.03348 4.00000
4.00000 7.03348 4.00000
4.00000 7.03348 4.00000
4.00000 7.03348 4.00000
4.00000 7.03348 4.00000
4.00000 7.03348 4.00000
4.00000 7.03348 4.00000
4.00000 7.03348 4.00000
4.00000 7.03348 4.00000
4.00000 7.03348 4.00000
4.00000 7.03348 4.00000
4.00000 7.03348 4.00000
4.00000 7.03348 4.00000
4.00000 7.03348 4.00000
4.00000 7.03348 4.00000
4.00000 7.03348 4.00000
4.00000 7.03348 4.00000
4.00000 7.03348 4.00000
4.00000 7.03348 4.00000
4.00000 7.03348 4.00000
4.00000 7.03348 4.00000
4.00000 7.03348 4.00000
4.00000 7.03348 4.00000
4.00000 7.03348 4.00000
4.00000 7.03348 4.00000
4.00000 7.03348 4.00000
4.00000 7.03348 4.00000
4.00000 7.03348 4.00000
4.00000 7.03348 4.00000
4.00000 7.03348 4.00000
4.00000 7.03348 4.00000
4.00000 7.03348 4.00000
4.00000 7.03348 4.00000
4.00000 7.03348 4.00000
4.00000 7.03348 4.00000
4.00000 7.03348 4.00000
4.00000 7.03348 4.00000
4.00000 7.03348 4.00000
4.00000 7.03348 4.00000
4.00000 7.03348 4.00000
4.00000 7.03348 4.00000
4.00000 7.03348 4.00000
4.00000 7.03348 4.00000
4.00000 7.03348 4.00000
4.00000 7.03348 4.00000
4.00000 7.03348 4.00000
4.00000 7.03348 4.00000
4.00000 7.03348 4.00000
4.00000 7.03348 4.00000
4.00000 7.03348 4.00000
4.00000 7.03348 4.00000
4.00000 7.03348 4.00000
4.00000 7.03348 4.00000
4.00000 7.03348 4.00000
4.00000 7.03348 4.00000
4.00000 7.03348 4.00000
4.00000 7.03348 4.00000
4.00000 7.03348 4.00000
4.00000 7.03348 4.00000
4.00000 7.03348 4.00000
4.00000 7.03348 4.00000
4.00000 7.03348 4.00000
4.00000 7.03348 4.00000
4.00000 7.03348 4.00000
4.00000 7.03348 4.00000
4.00000 7.03348 4.00000
4.00000 7.03348 4.00000
4.00000 7.03348 4.00000
4.00000 7.03348 4.00000
4.00000 7.03348 4.00000
4.00000 7.03348 4.00000
4.00000 7.03348 4.00000
4.00000 7.03348 4.00000
4.00000 7.03348 4.00000
4.00000 7.03348 4.00000
4.00000 7.03348 4.00000
4.00000 7.03348 4.00000
4.00000 7.03348 4.00000
4.00000 7.03348 4.00000
4.00000 7.03348 4.00000
4.00000 7.03348 4.00000
4.00000 7.03348 4.00000
4.00000 7.03348 4.00000
4.00000 7.03348 4.00000
4.00000 7.03348 4.00000
4.00000 7.03348 4.00000
4.00000 7.03348 4.00000
4.00000 7.03348 4.00000
4.00000 7.03348 4.00000
4.00000 7.03348 4.00000
4.00000 7.03348 4.00000
4.00000 7.03348 4.00000
4.00000 7.03348 4.00000
4.00000 7.03348 4.00000
4.00000 7.03348 4.00000
4.00000 7.03348 4.00000
4.00000 7.03348 4.00000
4.00000 7.03348 4.00000
4.00000 7.03348 4.00000
4.00000 7.03348 4.00000
4.00000 7.03348 4.00000
4.00000 7.03348 4.00000
4.00000 7.03348 4.00000
4.00000 7.03349 4.00000
4.00000 7.03348 4.00000
4.00000 7.03348 4.00000
4.00000 7.03348 4.00000
4.00000 7.03348 4.00000
4.00104 7.06897 4.00105
4.00337 7.15004 4.00337
4.00565 7.23128 4.00565
4.00789 7.31265 4.00789
4.01009 7.39413 4.01009
4.01228 7.47571 4.01228
4.01446 7.55736 4.01446
4.01664 7.63905 4.01664
4.01883 7.72078 4.01883
4.02104 7.80250 4.02104
4.02330 7.88419 4.02330
4.02560 7.96583 4.02560
4.02798 8.04737 4.02798
4.03045 8.12879 4.03045
4.03303 8.21002 4.03303
4.03574 8.29102 4.03574
4.03864 8.37172 4.03864
4.04175 8.45202 4.04175
4.04513 8.53182 4.04513
4.04885 8.61099 4.04885
4.05301 8.68933 4.05301
4.05758 8.76688 4.05758
4.06257 8.84362 4.06257
4.06802 8.91950 4.06802
4.07395 8.99445 4.07395
4.08039 9.06843 4.08039
4.08734 9.14141 4.08734
4.09481 9.21340 4.09481
4.10276 9.28446 4.10276
4.11116 9.35467 4.11116
4.11990 9.42421 4.11990
4.12888 9.49334 4.12888
4.13789 9.56241 4.13789
4.14672 9.63189 4.14672
4.15505 9.70240 4.15505
4.16250 9.77471 4.16250
4.16861 9.84972 4.16861
4.17288 9.92846 4.17288
4.17481 10.01191 4.17481
4.17409 10.10068 4.17409
4.17201 10.19221 4.17201
4.16928 10.28506 4.16928
4.16595 10.37915 4.16595
4.16202 10.47447 4.16202
4.15748 10.57103 4.15748
4.15231 10.66888 4.15231
4.14646 10.76814 4.14646
4.13983 10.86895 4.13983
4.13233 10.97156 4.13233
4.12378 11.07629 4.12378
4.11393 11.18364 4.11393
4.10241 11.29436 4.10241
4.08859 11.40971 4.08859
4.07152 11.53158 4.07152
4.04969 11.66299 4.04969
4.01952 11.81112 4.01952
4.00000 13.19120 4.00000
4.00000 13.19120 4.00000
4.00000 13.19120 4.00000
4.00000 13.19120 4.00000
4.00000 13.19120 4.00000
4.00000 13.19120 4.00000
4.00000 13.19120 4.00000
4.00000 13.19120 4.00000
4.00000 13.19120 4.00000
4.00000 13.19120 4.00000
4.00000 13.19120 4.00000
4.00000 13.19120 4.00000
4.00000 13.19118 4.00000
4.00000 13.19120 4.00000
4.00000 13.19120 4.00000
4.00856 13.24071 4.00857
4.01811 13.30979 4.01811
4.02564 13.38290 4.02564
4.03122 13.45995 4.03122
4.03493 13.54075 4.03493
4.03694 13.62498 4.03694
4.03849 13.71015 4.03849
4.03999 13.79542 4.03999
4.04146 13.88078 4.04146
4.04289 13.96623 4.04289
4.04430 14.05175 4.04430
4.04568 14.13734 4.04568
4.04704 14.22299 4.04704
4.04839 14.30869 4.04839
4.04971 14.39444 4.04971
4.05103 14.48024 4.05102
4.05232 14.56609 4.05232
4.05361 14.65197 4.05361
4.05488 14.73789 4.05488
4.05615 14.82385 4.05615
4.05741 14.90984 4.05741
4.05866 14.99586 4.05866
4.05990 15.08191 4.05990
4.06104 15.16820 4.06104
4.06195 15.25493 4.06195
4.06267 15.34208 4.06267
4.06320 15.42962 4.06320
4.06355 15.51754 4.06355
4.06373 15.60579 4.06373
4.06377 15.69436 4.06377
4.06366 15.78323 4.06366
4.06343 15.87236 4.06343
4.06309 15.96174 4.06309
4.06263 16.05135 4.06263
4.06209 16.14115 4.06209
4.06145 16.23114 4.06145
4.06075 16.32130 4.06075
4.05997 16.41161 4.05997
4.05914 16.50204 4.05914
4.05825 16.59259 4.05825
4.05732 16.68324 4.05732
4.05635 16.77399 4.05635
4.05535 16.86480 4.05535
4.05432 16.95569 4.05432
4.05328 17.04663 4.05328
4.05221 17.13761 4.05221
4.05113 17.22863 4.05113
4.05005 17.31968 4.05005
4.04896 17.41075 4.04896
4.04787 17.50184 4.04786
4.04677 17.59294 4.04677
4.04568 17.68404 4.04568
4.04460 17.77514 4.04460
4.04353 17.86624 4.04353
4.04246 17.95733 4.04246
4.04141 18.04841 4.04141
4.04036 18.13948 4.04036
4.03933 18.23053 4.03933
4.03832 18.32156 4.03832
4.03732 18.41257 4.03732
4.03634 18.50356 4.03634
4.03537 18.59452 4.03537
4.03442 18.68547 4.03442
4.03349 18.77638 4.03349
4.03258 18.86727 4.03258
4.03169 18.95813 4.03169
4.03081 19.04897 4.03081
4.02996 19.13977 4.02996
4.02912 19.23055 4.02912
4.02830 19.32130 4.02830
4.02750 19.41202 4.02750
4.02672 19.50272 4.02672
4.02596 19.59338 4.02596
4.02521 19.68402 4.02521
4.02449 19.77463 4.02449
4.02378 19.86522 4.02378
4.02309 19.95577 4.02309
4.02242 20.04630 4.02242
4.02176 20.13681 4.02176
4.02113 20.22729 4.02113
4.02050 20.31774 4.02050
4.01990 20.40817 4.01990
4.01931 20.49858 4.01931
4.01874 20.58896 4.01874
4.01818 20.67932 4.01818
4.01764 20.76965 4.01764
4.01712 20.85997 4.01712
4.01660 20.95026 4.01660
4.01611 21.04054 4.01611
4.01562 21.13079 4.01562
4.01515 21.22102 4.01515
4.01470 21.31124 4.01470
4.01425 21.40144 4.01425
4.01382 21.49162 4.01382
4.01340 21.58178 4.01340
4.01300 21.67192 4.01300
4.01260 21.76205 4.01260
4.01222 21.85216 4.01222
4.01185 21.94226 4.01185
4.01149 22.03235 4.01149
4.01114 22.12242 4.01114
4.01080 22.21247 4.01080
4.01046 22.30252 4.01047
4.01015 22.39255 4.01015
4.00983 22.48257 4.00984
4.00953 22.57257 4.00953
4.00924 22.66257 4.00924
4.00895 22.75255 4.00896
4.00868 22.84253 4.00868
4.00841 22.93249 4.00841
4.00815 23.02245 4.00816
4.00790 23.11240 4.00790
4.00766 23.20233 4.00766
4.00742 23.29226 4.00742
4.00719 23.38218 4.00719
4.00697 23.47210 4.00697
4.00675 23.56201 4.00676
4.00654 23.65191 4.00655
4.00634 23.74180 4.00634
4.00614 23.83169 4.00615
4.00596 23.92157 4.00596
4.00577 24.01144 4.00577
4.00559 24.10131 4.00559
4.00542 24.19118 4.00542
4.00525 24.28104 4.00525
4.00508 24.37089 4.00509
4.00493 24.46075 4.00493
4.00477 24.55059 4.00477
4.00463 24.64043 4.00463
4.00448 24.73028 4.00448
4.00434 24.82011 4.00434
4.00421 24.90994 4.00421
4.00407 24.99978 4.00408
4.00395 25.08960 4.00395
4.00382 25.17943 4.00382
4.00371 25.26925 4.00371
4.00359 25.35907 4.00359
4.00348 25.44889 4.00348
4.00337 25.53871 4.00337
4.00326 25.62853 4.00326
4.00316 25.71834 4.00316
4.00306 25.80815 4.00306
4.00297 25.89796 4.00297
4.00287 25.98777 4.00287
4.00278 26.07759 4.00278
4.00270 26.16739 4.00270
4.00261 26.25720 4.00261
4.00253 26.34701 4.00253
4.00245 26.43682 4.00245
4.00237 26.52663 4.00237
4.00230 26.61644 4.00230
4.00223 26.70624 4.00223
4.00216 26.79605 4.00216
4.00209 26.88586 4.00209
4.00202 26.97567 4.00202
4.00196 27.06548 4.00196
4.00190 27.15529 4.00190
4.00184 27.24510 4.00184
4.00178 27.33491 4.00178
4.00173 27.42472 4.00173
4.00167 27.51454 4.00167
4.00162 27.60435 4.00162
4.00157 27.69417 4.00157
4.00152 27.78398 4.00152
4.00147 27.87380 4.00147
4.00143 27.96362 4.00143
4.00138 28.05344 4.00138
4.00134 28.14326 4.00134
4.00129 28.23308 4.00129
4.00125 28.32290 4.00125
4.00121 28.41273 4.00121
4.00118 28.50256 4.00118
4.00114 28.59238 4.00114
4.00110 28.68221 4.00110
4.00107 28.77205 4.00107
4.00104 28.86188 4.00104
4.00100 28.95171 4.00100
4.00097 29.04155 4.00097
4.00094 29.13139 4.00094
4.00091 29.22123 4.00091
4.00088 29.31107 4.00088
4.00085 29.40092 4.00085
4.00083 29.49077 4.00083
4.00080 29.58061 4.00080
4.00078 29.67046 4.00078
4.00075 29.76032 4.00075
4.00073 29.85017 4.00073
4.00071 29.94003 4.00070
4.00068 30.02989 4.00068
4.00066 30.11975 4.00066
4.00064 30.20961 4.00064
4.00062 30.29948 4.00062
4.00060 30.38935 4.00060
4.00058 30.47922 4.00058
4.00056 30.56909 4.00056
4.00055 30.65896 4.00055
4.00053 30.74884 4.00053
4.00051 30.83872 4.00051
4.00050 30.92860 4.00050
4.00048 31.01848 4.00048
4.00047 31.10837 4.00046
4.00045 31.19826 4.00045
4.00044 31.28815 4.00044
4.00042 31.37804 4.00042
4.00041 31.46793 4.00041
4.00040 31.55783 4.00040
4.00038 31.64773 4.00038

Angle 0.012656 4.392659

4.00000 7.03348 4.00000
4.00000 7.03348 4.00000
4.00000 7.03348 4.00000
4.00000 7.03348 4.00000
4.00000 7.03348 4.00000
4.00000 7.03348 4.00000
4.00000 7.03348 4.00000
4.00000 7.03348 4.00000
4.00000 7.03348 4.00000
4.00000 7.03348 4.00000
4.00000 7.03348 4.00000
4.00000 7.03348 4.00000
4.00000 7.03348 4.00000
4.00000 7.03348 4.00000
4.00000 7.03348 4.00000
4.00000 7.03348 4.00000
4.00000 7.03348 4.00000
4.00000 7.03348 4.00000
4.00000 7.03348 4.00000
4.00000 7.03348 4.00000
4.00000 7.03348 4.00000
4.00000 7.03348 4.00000
4.00000 7.03348 4.00000
4.00000 7.03348 4.00000
4.00000 7.03348 4.00000
4.00000 7.03348 4.00000
4.00000 7.03348 4.00000
4.00000 7.03348 4.00000
4.00000 7.03348 4.00000
4.00000 7.03348 4.00000
4.00000 7.03348 4.00000
4.00000 7.03348 4.00000
4.00000 7.03348 4.00000
4.00000 7.03348 4.00000
4.00000 7.03348 4.00000
4.00000 7.03348 4.00000
4.00000 7.03348 4.00000
4.00000 7.03348 4.00000
4.00000 7.03348 4.00000
4.00000 7.03348 4.00000
4.00000 7.03348 4.00000
4.00000 7.03348 4.00000
4.00000 7.03348 4.00000
4.00000 7.03348 4.00000
4.00000 7.03348 4.00000
4.00000 7.03348 4.00000
4.00000 7.03348 4.00000
4.00000 7.03348 4.00000
4.00000 7.03348 4.00000
4.00000 7.03348 4.00000
4.00000 7.03348 4.00000
4.00000 7.03348 4.00000
4.00000 7.03348 4.00000
4.00000 7.03348 4.00000
4.00000 7.03348 4.00000
4.00000 7.03348 4.00000
4.00000 7.03348 4.00000
4.00000 7.03348 4.00000
4.00000 7.03348 4.00000
4.00000 7.03348 4.00000
4.00000 7.03348 4.00000
4.00000 7.03348 4.00000
4.00000 7.03348 4.00000
4.00000 7.03348 4.00000
4.00000 7.03348 4.00000
4.00000 7.03348 4.00000
4.00000 7.03348 4.00000
4.00000 7.03348 4.00000
4.00000 7.03348 4.00000
4.00000 7.03348 4.00000
4.00000 7.03348 4.00000
4.00000 7.03348 4.00000
4.00000 7.03348 4.00000
4.00000 7.03348 4.00000
4.00000 7.03348 4.00000
4.00000 7.03348 4.00000
4.00000 7.03348 4.00000
4.00000 7.03348 4.00000
4.00000 7.03348 4.00000
4.00000 7.03348 4.00000
4.00000 7.03348 4.00000
4.00000 7.03348 4.00000
4.00000 7.03348 4.00000
4.00000 7.03348 4.00000
4.00000 7.03348 4.00000
4.00000 7.03348 4.00000
4.00000 7.03348 4.00000
4.00000 7.03348 4.00000
4.00000 7.03348 4.00000
4.00000 7.03348 4.00000
4.00000 7.03348 4.00000
4.00000 7.03348 4.00000
4.00000 7.03348 4.00000
4.00000 7.03348 4.00000
4.00000 7.03348 4.00000
4.00000 7.03348 4.00000
4.00000 7.03348 4.00000
4.00000 7.03348 4.00000
4.00000 7.03348 4.00000
4.00000 7.03348 4.00000
4.00000 7.03348 4.00000
4.00000 7.03348 4.00000
4.00000 7.03348 4.00000
4.00000 7.03348 4.00000
4.00000 7.03348 4.00000
4.00000 7.03348 4.00000
4.00000 7.03348 4.00000
4.00000 7.03348 4.00000
4.00000 7.03348 4.00000
4.00000 7.03348 4.00000
4.00000 7.03348 4.00000
4.00000 7.03348 4.00000
4.00000 7.03348 4.00000
4.00000 7.03348 4.00000
4.00000 7.03348 4.00000
4.00000 7.03348 4.00000
4.00000 7.03348 4.00000
4.00000 7.03348 4.00000
4.00000 7.03348 4.00000
4.00000 7.03348 4.00000
4.00000 7.03348 4.00000
4.00000 7.03348 4.00000
4.00000 7.03348 4.00000
4.00000 7.03348 4.00000
4.00000 7.03348 4.00000
4.00000 7.03348 4.00000
4.00000 7.03348 4.00000
4.00000 7.03349 4.00000
4.00000 7.03348 4.00000
4.00000 7.03348 4.00000
4.00000 7.03348 4.00000
4.00000 7.03348 4.00000
4.00000 7.03348 4.00000
4.00000 7.03348 4.00000
4.00000 7.03348 4.00000
4.00000 7.03348 4.00000
4.00000 7.03348 4.00000
4.00000 7.03348 4.00000
4.00000 7.03348 4.00000
4.00000 7.03348 4.00000
4.00000 7.03348 4.00000
4.00000 7.03348 4.00000
4.00000 7.03348 4.00000
4.00000 7.03348 4.00000
4.00000 7.03348 4.00000
4.00000 7.03348 4.00000
4.00000 7.03348 4.00000
4.00000 7.03348 4.00000
4.00000 7.03348 4.00000
4.00000 7.03348 4.00000
4.00000 7.03348 4.00000
4.00000 7.03348 4.00000
4.00000 7.03348 4.00000
4.00000 7.03348 4.00000
4.00000 7.03348 4.00000
4.00000 7.03348 4.00000
4.00000 7.03348 4.00000
4.00000 7.03348 4.00000
4.00000 7.03349 4.00000
4.00000 7.03348 4.00000
4.00000 7.03348 4.00000
4.00000 7.03348 4.00000
4.00000 7.03348 4.00000
4.00000 7.03350 4.00000
4.00000 7.03348 4.00000
4.00000 7.03348 4.00000
4.00000 7.03348 4.00000
4.00122 7.07509 4.00122
4.00330 7.14759 4.00330
4.00534 7.22032 4.00535
4.00736 7.29327 4.00736
4.00935 7.36641 4.00934
4.01132 7.43973 4.01132
4.01328 7.51321 4.01328
4.01524 7.58684 4.01524
4.01721 7.66059 4.01721
4.01920 7.73444 4.01920
4.02121 7.80839 4.02120
4.02325 7.88240 4.02325
4.02534 7.95644 4.02534
4.02748 8.03051 4.02748
4.02970 8.10455 4.02970
4.03201 8.17854 4.03201
4.03443 8.25244 4.03443
4.03698 8.32619 4.03698
4.03969 8.39974 4.03969
4.04261 8.47300 4.04261
4.04576 8.54590 4.04576
4.04922 8.61831 4.04922
4.05305 8.69009 4.05305
4.05723 8.76128 4.05723
4.06178 8.83185 4.06178
4.06670 8.90177 4.06670
4.07203 8.97098 4.07203
4.07780 9.03944 4.07780
4.08400 9.10713 4.08400
4.09065 9.17402 4.09065
4.09774 9.24014 4.09773
4.10523 9.30554 4.10523
4.11309 9.37031 4.11309
4.12124 9.43461 4.12124
4.12957 9.49863 4.12957
4.13793 9.56269 4.13793
4.14614 9.62715 4.14614
4.15394 9.69251 4.15394
4.16104 9.75938 4.16104
4.16707 9.82845 4.16707
4.17164 9.90055 4.17164
4.17432 9.97652 4.17432
4.17477 10.05703 4.17477
4.17324 10.14158 4.17324
4.17104 10.22756 4.17104
4.16829 10.31471 4.16829
4.16502 10.40300 4.16502
4.16122 10.49243 4.16122
4.15688 10.58300 4.15688
4.15198 10.67478 4.15198
4.14647 10.76786 4.14647
4.14029 10.86237 4.14029
4.13333 10.95850 4.13333
4.12547 11.05651 4.12547
4.11650 11.15680 4.11650
4.10616 11.25993 4.10616
4.09397 11.36680 4.09397
4.07924 11.47884 4.07924
4.06098 11.59801 4.06098
4.03725 11.72819 4.03725
4.00295 11.87955 4.00296
4.00000 13.19120 4.00000
4.00000 13.19120 4.00000
4.00000 13.19120 4.00000
4.00000 13.19120 4.00000
4.00000 13.19120 4.00000
4.00000 13.19121 4.00000
4.00000 13.19120 4.00000
4.00000 13.19120 4.00000
4.00000 13.19120 4.00000
4.00000 13.19120 4.00000
4.00000 13.19120 4.00000
4.00000 13.19120 4.00000
4.00000 13.19120 4.00000
4.00000 13.19121 4.00000
4.00000 13.19120 4.00000
4.00367 13.21132 4.00367
4.01365 13.27518 4.01365
4.02180 13.34276 4.02180
4.02816 13.41398 4.02816
4.03278 13.48874 4.03278
4.03573 13.56688 4.03573
4.03736 13.64771 4.03736
4.03882 13.72893 4.03882
4.04025 13.81027 4.04025
4.04164 13.89173 4.04164
4.04301 13.97330 4.04301
4.04435 14.05496 4.04435
4.04567 14.13672 4.04567
4.04697 14.21856 4.04697
4.04826 14.30048 4.04826
4.04953 14.38248 4.04953
4.05079 14.46456 4.05079
4.05203 14.54670 4.05203
4.05326 14.62891 4.05326
4.05449 14.71119 4.05449
4.05570 14.79352 4.05570
4.05691 14.87592 4.05691
4.05811 14.95837 4.05811
4.05931 15.04088 4.05931
4.06048 15.12349 4.06048
4.06147 15.20649 4.06147
4.06226 15.28992 4.06226
4.06288 15.37376 4.06288
4.06333 15.45798 4.06333
4.06362 15.54255 4.06362
4.06375 15.62746 4.06375
4.06376 15.71268 4.06376
4.06363 15.79820 4.06363
4.06339 15.88399 4.06339
4.06305 15.97002 4.06305
4.06261 16.05629 4.06261
4.06208 16.14277 4.06208
4.06147 16.22945 4.06147
4.06079 16.31630 4.06079
4.06004 16.40332 4.06004
4.05924 16.49048 4.05924
4.05840 16.57778 4.05840
4.05751 16.66520 4.05751
4.05658 16.75273 4.05658
4.05562 16.84035 4.05562
4.05464 16.92806 4.05464
4.05363 17.01584 4.05363
4.05261 17.10370 4.05261
4.05157 17.19161 4.05157
4.05053 17.27958 4.05053
4.04948 17.36759 4.04948
4.04842 17.45564 4.04842
4.04736 17.54373 4.04736
4.04631 17.63184 4.04631
4.04526 17.71998 4.04526
4.04421 17.80813 4.04421
4.04317 17.89630 4.04317
4.04215 17.98449 4.04214
4.04113 18.07268 4.04113
4.04012 18.16088 4.04012
4.03913 18.24908 4.03913
4.03815 18.33728 4.03815
4.03718 18.42549 4.03718
4.03623 18.51369 4.03623
4.03529 18.60189 4.03529
4.03438 18.69008 4.03438
4.03347 18.77827 4.03347
4.03259 18.86645 4.03259
4.03172 18.95463 4.03172
4.03087 19.04280 4.03087
4.03004 19.13095 4.03004
4.02922 19.21910 4.02922
4.02843 19.30725 4.02843
4.02765 19.39538 4.02765
4.02688 19.48350 4.02688
4.02614 19.57161 4.02614
4.02541 19.65971 4.02541
4.02470 19.74781 4.02470
4.02401 19.83589 4.02401
4.02333 19.92397 4.02333
4.02267 20.01203 4.02267
4.02203 20.10009 4.02203
4.02140 20.18814 4.02140
4.02079 20.27618 4.02079
4.02019 20.36421 4.02019
4.01961 20.45224 4.01961
4.01905 20.54026 4.01905
4.01850 20.62827 4.01850
4.01796 20.71627 4.01796
4.01744 20.80427 4.01744
4.01693 20.89226 4.01693
4.01644 20.98025 4.01644
4.01596 21.06823 4.01596
4.01549 21.15621 4.01549
4.01503 21.24418 4.01503
4.01459 21.33215 4.01459
4.01416 21.42011 4.01416
4.01374 21.50808 4.01374
4.01334 21.59604 4.01334
4.01294 21.68399 4.01294
4.01256 21.77195 4.01256
4.01219 21.85990 4.01219
4.01182 21.94786 4.01182
4.01147 22.03581 4.01147
4.01113 22.12376 4.01113
4.01080 22.21171 4.01080
4.01048 22.29966 4.01048
4.01016 22.38761 4.01016
4.00986 22.47556 4.00986
4.00956 22.56352 4.00956
4.00927 22.65147 4.00927
4.00900 22.73943 4.00900
4.00873 22.82739 4.00873
4.00846 22.91535 4.00846
4.00821 23.00331 4.00821
4.00796 23.09128 4.00796
4.00772 23.17925 4.00772
4.00749 23.26722 4.00749
4.00726 23.35520 4.00726
4.00704 23.44318 4.00704
4.00683 23.53116 4.00683
4.00662 23.61915 4.00662
4.00642 23.70715 4.00642
4.00622 23.79514 4.00622
4.00604 23.88315 4.00604
4.00585 23.97115 4.00585
4.00567 24.05917 4.00567
4.00550 24.14719 4.00550
4.00533 24.23521 4.00533
4.00517 24.32324 4.00517
4.00501 24.41128 4.00501
4.00486 24.49932 4.00486
4.00471 24.58737 4.00471
4.00457 24.67542 4.00457
4.00443 24.76349 4.00443
4.00429 24.85155 4.00429
4.00416 24.93963 4.00416
4.00404 25.02771 4.00403
4.00391 25.11580 4.00391
4.00379 25.20390 4.00379
4.00368 25.29200 4.00368
4.00356 25.38011 4.00356
4.00345 25.46823 4.00345
4.00335 25.55636 4.00335
4.00324 25.64449 4.00324
4.00315 25.73263 4.00314
4.00305 25.82078 4.00305
4.00295 25.90894 4.00295
4.00286 25.99710 4.00286
4.00278 26.08528 4.00278
4.00269 26.17346 4.00269
4.00261 26.26164 4.00261
4.00253 26.34984 4.00253
4.00245 26.43805 4.00245
4.00237 26.52626 4.00237
4.00230 26.61448 4.00230
4.00223 26.70271 4.00223

Angle 0.670077 6.259496

4.00000 7.03348 4.00000
4.00000 7.03348 4.00000
4.00000 7.03348 4.00000
4.00000 7.03348 4.00000
4.00000 7.03348 4.00000
4.00000 7.03348 4.00000
4.00000 7.03348 4.00000
4.00000 7.03348 4.00000
4.00000 7.03348 4.00000
4.00000 7.03348 4.00000
4.00000 7.03348 4.00000
4.00000 7.03348 4.00000
4.00000 7.03348 4.00000
4.00000 7.03348 4.00000
4.00000 7.03348 4.00000
4.00000 7.03348 4.00000
4.00000 7.03348 4.00000
4.00000 7.03348 4.00000
4.00000 7.03348 4.00000
4.00000 7.03348 4.00000
4.00000 7.03348 4.00000
4.00000 7.03348 4.00000
4.00000 7.03348 4.00000
4.00000 7.03348 4.00000
4.00000 7.03348 4.00000
4.00000 7.03348 4.00000
4.00000 7.03348 4.00000
4.00000 7.03348 4.00000
4.00000 7.03348 4.00000
4.00000 7.03348 4.00000
4.00000 7.03348 4.00000
4.00000 7.03348 4.00000
4.00000 7.03348 4.00000
4.00000 7.03348 4.00000
4.00000 7.03348 4.00000
4.00000 7.03348 4.00000
4.00000 7.03348 4.00000
4.00000 7.03348 4.00000
4.00000 7.03348 4.00000
4.00000 7.03348 4.00000
4.00000 7.03348 4.00000
4.00000 7.03348 4.00000
4.00000 7.03348 4.00000
4.00000 7.03348 4.00000
4.00000 7.03348 4.00000
4.00000 7.03348 4.00000
4.00000 7.03348 4.00000
4.00000 7.03348 4.00000
4.00000 7.03348 4.00000
4.00000 7.03348 4.00000
4.00000 7.03348 4.00000
4.00000 7.03348 4.00000
4.00000 7.03348 4.00000
4.00000 7.03348 4.00000
4.00000 7.03348 4.00000
4.00000 7.03348 4.00000
4.00086 7.06302 4.00087
4.00320 7.14394 4.00320
4.00548 7.22502 4.00547
4.00771 7.30625 4.00771
4.00992 7.38759 4.00992
4.01210 7.46903 4.01210
4.01427 7.55054 4.01427
4.01645 7.63211 4.01645
4.01864 7.71370 4.01864
4.02085 7.79530 4.02085
4.02309 7.87687 4.02309
4.02539 7.95839 4.02539
4.02776 8.03983 4.02776
4.03021 8.12113 4.03021
4.03277 8.20227 4.03277
4.03547 8.28318 4.03547
4.03834 8.36379 4.03834
4.04143 8.44403 4.04143
4.04477 8.52378 4.04477
4.04845 8.60290 4.04845
4.05256 8.68123 4.05256
4.05708 8.75876 4.05708
4.06202 8.83549 4.06202
4.06741 8.91136 4.06741
4.07328 8.98631 4.07328
4.07965 9.06031 4.07965
4.08654 9.13331 4.08654
4.09394 9.20532 4.09394
4.10183 9.27639 4.10183
4.11017 9.34660 4.11017
4.11887 9.41613 4.11887
4.12781 9.48520 4.12781
4.13683 9.55418 4.13683
4.14568 9.62350 4.14568
4.15408 9.69377 4.15408
4.16165 9.76573 4.16165
4.16795 9.84027 4.16795
4.17247 9.91840 4.17247
4.17471 10.00112 4.17471
4.17431 10.08915 4.17431
4.17231 10.18041 4.17231
4.16967 10.27300 4.16967
4.16642 10.36683 4.16642
4.16257 10.46189 4.16257
4.15812 10.55818 4.15812
4.15304 10.65575 4.15304
4.14729 10.75471 4.14729
4.14078 10.85520 4.14078
4.13341 10.95745 4.13341
4.12502 11.06176 4.12502
4.11538 11.16860 4.11538
4.10413 11.27869 4.10413
4.09070 11.39317 4.09070
4.07417 11.51387 4.07417
4.05318 11.64352 4.05318
4.02462 11.78834 4.02462
4.00000 13.19120 4.00000
4.00000 13.19120 4.00000
4.00000 13.19120 4.00000
4.00000 13.19120 4.00000
4.00000 13.19120 4.00000
4.00000 13.19120 4.00000
4.00000 13.19120 4.00000
4.00000 13.19120 4.00000
4.00000 13.19120 4.00000
4.00000 13.19120 4.00000
4.00000 13.19120 4.00000
4.00000 13.19120 4.00000
4.00000 13.19120 4.00000
4.00000 13.19120 4.00000
4.00000 13.19120 4.00000
4.00688 13.23022 4.00688
4.01673 13.29861 4.01673
4.02458 13.37103 4.02458
4.03046 13.44740 4.03046
4.03446 13.52755 4.03446
4.03669 13.61126 4.03669
4.03824 13.69635 4.03824
4.03975 13.78154 4.03975
4.04122 13.86683 4.04122
4.04266 13.95220 4.04266
4.04407 14.03764 4.04407
4.04546 14.12315 4.04546
4.04682 14.20873 4.04682
4.04816 14.29436 4.04816
4.04949 14.38004 4.04949
4.05080 14.46578 4.05080
4.05210 14.55155 4.05210
4.05339 14.63737 4.05339
4.05467 14.72323 4.05467
4.05593 14.80912 4.05593
4.05719 14.89504 4.05719
4.05844 14.98100 4.05844
4.05969 15.06698 4.05969
4.06085 15.15314 4.06085
4.06181 15.23974 4.06181
4.06256 15.32676 4.06256
4.06312 15.41418 4.06312
4.06350 15.50197 4.06350
4.06371 15.59011 4.06371
4.06377 15.67857 4.06377
4.06369 15.76733 4.06369
4.06348 15.85636 4.06348
4.06316 15.94564 4.06316
4.06272 16.03515 4.06272
4.06219 16.12487 4.06219
4.06157 16.21477 4.06157
4.06088 16.30484 4.06088
4.06012 16.39507 4.06012
4.05929 16.48543 4.05929
4.05842 16.57590 4.05842
4.05749 16.66649 4.05749
4.05653 16.75716 4.05653
4.05554 16.84791 4.05554
4.05452 16.93873 4.05452
4.05347 17.02961 4.05347
4.05241 17.12053 4.05241
4.05134 17.21149 4.05134
4.05025 17.30249 4.05025
4.04916 17.39351 4.04916
4.04807 17.48454 4.04807
4.04698 17.57559 4.04698
4.04589 17.66664 4.04589
4.04481 17.75769 4.04481
4.04373 17.84874 4.04373
4.04266 17.93979 4.04266
4.04161 18.03082 4.04161
4.04056 18.12184 4.04056
4.03953 18.21285 4.03953
4.03852 18.30384 4.03852
4.03751 18.39481 4.03751
4.03653 18.48575 4.03653
4.03556 18.57668 4.03556
4.03461 18.66758 4.03461
4.03368 18.75845 4.03368
4.03276 18.84930 4.03276
4.03186 18.94012 4.03186
4.03098 19.03092 4.03098
4.03013 19.12168 4.03013
4.02928 19.21242 4.02928
4.02846 19.30314 4.02846
4.02766 19.39382 4.02766
4.02687 19.48448 4.02687
4.02611 19.57511 4.02611
4.02536 19.66571 4.02536
4.02463 19.75628 4.02463
4.02392 19.84683 4.02392
4.02323 19.93735 4.02323
4.02255 20.02785 4.02255
4.02190 20.11831 4.02190
4.02125 20.20876 4.02125
4.02063 20.29918 4.02063
4.02002 20.38957 4.02002
4.01943 20.47994 4.01943
4.01886 20.57029 4.01886
4.01830 20.66061 4.01830
4.01775 20.75092 4.01775
4.01722 20.84120 4.01722
4.01671 20.93146 4.01671
4.01621 21.02170 4.01621
4.01572 21.11192 4.01572
4.01525 21.20212 4.01525
4.01479 21.29230 4.01479
4.01435 21.38246 4.01434
4.01391 21.47261 4.01391
4.01349 21.56274 4.01349
4.01308 21.65285 4.01308
4.01269 21.74295 4.01268
4.01230 21.83303 4.01230
4.01193 21.92309 4.01192
4.01156 22.01314 4.01156
4.01121 22.10318 4.01121
4.01087 22.19320 4.01087
4.01054 22.28322 4.01053
4.01021 22.37321 4.01021
4.00990 22.46320 4.00990
4.00960 22.55318 4.00959
4.00930 22.64314 4.00930
4.00902 22.73309 4.00901
4.00874 22.82304 4.00874
4.00847 22.91297 4.00847
4.00821 23.00289 4.00821
4.00796 23.09281 4.00796
4.00771 23.18272 4.00771
4.00747 23.27261 4.00747
4.00724 23.36251 4.00724
4.00702 23.45239 4.00702
4.00680 23.54227 4.00680
4.00659 23.63213 4.00659
4.00639 23.72200 4.00639
4.00619 23.81185 4.00619
4.00600 23.90171 4.00600
4.00581 23.99155 4.00581
4.00563 24.08139 4.00563
4.00545 24.17123 4.00545
4.00528 24.26106 4.00528
4.00512 24.35088 4.00512
4.00496 24.44070 4.00496
4.00481 24.53052 4.00481
4.00466 24.62034 4.00466
4.00451 24.71015 4.00451
4.00437 24.79995 4.00437
4.00424 24.88976 4.00424
4.00410 24.97956 4.00410
4.00398 25.06936 4.00398
4.00385 25.15916 4.00385
4.00373 25.24895 4.00373
4.00362 25.33874 4.00361
4.00350 25.42853 4.00350
4.00339 25.51832 4.00339
4.00329 25.60811 4.00329
4.00318 25.69790 4.00318
4.00308 25.78768 4.00308
4.00299 25.87747 4.00299
4.00289 25.96725 4.00289
4.00280 26.05703 4.00280
4.00272 26.14682 4.00272
4.00263 26.23660 4.00263
4.00255 26.32638 4.00255
4.00247 26.41616 4.00247
4.00239 26.50594 4.00239
4.00232 26.59572 4.00232
4.00224 26.68550 4.00224
4.00217 26.77529 4.00217
4.00211 26.86507 4.00211
4.00204 26.95485 4.00204
4.00198 27.04464 4.00198
4.00191 27.13442 4.00191
4.00185 27.22420 4.00185
4.00180 27.31399 4.00180
4.00174 27.40378 4.00174
4.00168 27.49356 4.00168
4.00163 27.58335 4.00163
4.00158 27.67314 4.00158
4.00153 27.76293 4.00153
4.00148 27.85272 4.00148
4.00144 27.94252 4.00144
4.00139 28.03231 4.00139
4.00135 28.12211 4.00135
4.00130 28.21191 4.00130
4.00126 28.30171 4.00126
4.00122 28.39151 4.00122
4.00119 28.48131 4.00119
4.00115 28.57111 4.00115
4.00111 28.66092 4.00111
4.00108 28.75073 4.00108
4.00104 28.84054 4.00104
4.00101 28.93035 4.00101
4.00098 29.02016 4.00098
4.00095 29.10998 4.00095
4.00092 29.19980 4.00092
4.00089 29.28961 4.00089
4.00086 29.37944 4.00086
4.00083 29.46926 4.00083
4.00081 29.55909 4.00081
4.00078 29.64891 4.00078
4.00076 29.73874 4.00076
4.00073 29.82858 4.00073
4.00071 29.91841 4.00071
4.00069 30.00825 4.00069
4.00067 30.09809 4.00067
4.00065 30.18792 4.00065
4.00063 30.27777 4.00063
4.00061 30.36761 4.00061
4.00059 30.45746 4.00059
4.00057 30.54731 4.00057
4.00055 30.63717 4.00055
4.00053 30.72702 4.00053
4.00052 30.81688 4.00052
4.00050 30.90674 4.00050
4.00048 30.99660 4.00048
4.00047 31.08646 4.00047
4.00045 31.17633 4.00045
4.00044 31.26620 4.00044
4.00043 31.35607 4.00043
4.00041 31.44594 4.00041
4.00040 31.53582 4.00040
4.00039 31.62570 4.00039
4.00037 31.71558 4.00037
4.00036 31.80546 4.00036
4.00035 31.89535 4.00035
4.00034 31.98524 4.00034
4.00033 32.07513 4.00033
4.00032 32.16502 4.00032
4.00031 32.25492 4.00031
4.00030 32.34482 4.00030
4.00029 32.43472 4.00029
4.00028 32.52462 4.00028
4.00027 32.61453 4.00027
4.00026 32.70444 4.00026
4.00026 32.79434 4.00026
4.00025 32.88426 4.00025
4.00024 32.97417 4.00024
4.00023 33.06409 4.00023
4.00022 33.15401 4.00022
4.00022 33.24393 4.00022
4.00021 33.33386 4.00021
4.00020 33.42379 4.00020
4.00020 33.51372 4.00020
4.00019 33.60365 4.00019
4.00018 33.69358 4.00018
4.00018 33.78352 4.00018
4.00017 33.87346 4.00017
4.00017 33.96340 4.00017
4.00016 34.05334 4.00016
4.00016 34.14329 4.00016
4.00015 34.23324 4.00015
4.00015 34.32319 4.00015
4.00014 34.41314 4.00014
4.00014 34.50310 4.00014
4.00013 34.59306 4.00013
4.00013 34.68302 4.00013
4.00013 34.77298 4.00013
4.00012 34.86294 4.00012
4.00012 34.95291 4.00012
4.00011 35.04288 4.00011
4.00011 35.13285 4.00011
4.00011 35.22283 4.00011
4.00010 35.31280 4.00010
4.00010 35.40278 4.00010
4.00010 35.49276 4.00010
4.00009 35.58275 4.00009
4.00009 35.67273 4.00009
4.00009 35.76272 4.00009
4.00009 35.85271 4.00009
4.00008 35.94270 4.00008
4.00008 36.03269 4.00008
4.00008 36.12269 4.00008
4.00008 36.21269 4.00008
4.00007 36.30269 4.00007
4.00007 36.39269 4.00007
4.00007 36.48270 4.00007
4.00007 36.57270 4.00007
4.00006 36.66271 4.00006
4.00006 36.75272 4.00006
4.00006 36.84274 4.00006
4.00006 36.93275 4.00006
4.00006 37.02277 4.00006
4.00005 37.11279 4.00005
4.00005 37.20281 4.00005
4.00005 37.29284 4.00005
4.00005 37.38286 4.00005
4.00005 37.47289 4.00005
4.00005 37.56292 4.00005

Angle 0.494184 2.807138

4.00000 7.03348 4.00000
4.00000 7.03348 4.00000
4.00000 7.03348 4.00000
4.00000 7.03348 4.00000
4.00000 7.03348 4.00000
4.00000 7.03348 4.00000
4.00000 7.03348 4.00000
4.00000 7.03348 4.00000
4.00000 7.03348 4.00000
4.00000 7.03348 4.00000
4.00000 7.03348 4.00000
4.00000 7.03348 4.00000
4.00000 7.03348 4.00000
4.00000 7.03348 4.00000
4.00000 7.03348 4.00000
4.00000 7.03348 4.00000
4.00000 7.03348 4.00000
4.00000 7.03348 4.00000
4.00000 7.03348 4.00000
4.00000 7.03348 4.00000
4.00000 7.03348 4.00000
4.00000 7.03348 4.00000
4.00000 7.03348 4.00000
4.00000 7.03348 4.00000
4.00000 7.03348 4.00000
4.00000 7.03348 4.00000
4.00000 7.03348 4.00000
4.00000 7.03348 4.00000
4.00000 7.03348 4.00000
4.00000 7.03348 4.00000
4.00000 7.03348 4.00000
4.00000 7.03348 4.00000
4.00000 7.03348 4.00000
4.00000 7.03348 4.00000
4.00000 7.03348 4.00000
4.00000 7.03348 4.00000
4.00000 7.03348 4.00000
4.00000 7.03348 4.00000
4.00000 7.03348 4.00000
4.00000 7.03348 4.00000
4.00000 7.03348 4.00000
4.00000 7.03348 4.00000
4.00000 7.03348 4.00000
4.00000 7.03348 4.00000
4.00000 7.03348 4.00000
4.00000 7.03348 4.00000
4.00000 7.03348 4.00000
4.00000 7.03348 4.00000
4.00000 7.03348 4.00000
4.00000 7.03348 4.00000
4.00000 7.03348 4.00000
4.00000 7.03348 4.00000
4.00000 7.03348 4.00000
4.00000 7.03348 4.00000
4.00000 7.03348 4.00000
4.00000 7.03348 4.00000
4.00000 7.03348 4.00000
4.00000 7.03348 4.00000
4.00000 7.03348 4.00000
4.00000 7.03348 4.00000
4.00000 7.03348 4.00000
4.00000 7.03348 4.00000
4.00000 7.03348 4.00000
4.00000 7.03348 4.00000
4.00000 7.03348 4.00000
4.00000 7.03348 4.00000
4.00000 7.03348 4.00000
4.00000 7.03348 4.00000
4.00000 7.03348 4.00000
4.00000 7.03348 4.00000
4.00000 7.03348 4.00000
4.00000 7.03348 4.00000
4.00000 7.03348 4.00000
4.00000 7.03348 4.00000
4.00000 7.03348 4.00000
4.00000 7.03348 4.00000
4.00000 7.03348 4.00000
4.00000 7.03348 4.00000
4.00000 7.03348 4.00000
4.00000 7.03348 4.00000
4.00000 7.03348 4.00000
4.00000 7.03348 4.00000
4.00000 7.03348 4.00000
4.00000 7.03348 4.00000
4.00000 7.03348 4.00000
4.00000 7.03348 4.00000
4.00000 7.03348 4.00000
4.00000 7.03348 4.00000
4.00000 7.03348 4.00000
4.00000 7.03348 4.00000
4.00000 7.03348 4.00000
4.00000 7.03348 4.00000
4.00000 7.03348 4.00000
4.00000 7.03348 4.00000
4.00000 7.03348 4.00000
4.00000 7.03348 4.00000
4.00000 7.03348 4.00000
4.00000 7.03348 4.00000
4.00000 7.03348 4.00000
4.00000 7.03348 4.00000
4.00000 7.03348 4.00000
4.00000 7.03348 4.00000
4.00000 7.03348 4.00000
4.00000 7.03348 4.00000
4.00000 7.03348 4.00000
4.00000 7.03348 4.00000
4.00000 7.03348 4.00000
4.00000 7.03348 4.00000
4.00000 7.03348 4.00000
4.00000 7.03348 4.00000
4.00000 7.03348 4.00000
4.00000 7.03348 4.00000
4.00000 7.03348 4.00000
4.00000 7.03348 4.00000
4.00000 7.03348 4.00000
4.00000 7.03348 4.00000
4.00000 7.03348 4.00000
4.00000 7.03348 4.00000
4.00000 7.03348 4.00000
4.00000 7.03348 4.00000
4.00000 7.03348 4.00000
4.00000 7.03348 4.00000
4.00000 7.03348 4.00000
4.00000 7.03348 4.00000
4.00000 7.03348 4.00000
4.00000 7.03348 4.00000
4.00000 7.03348 4.00000
4.00000 7.03348 4.00000
4.00000 7.03348 4.00000
4.00000 7.03348 4.00000
4.00000 7.03348 4.00000
4.00000 7.03348 4.00000
4.00000 7.03348 4.00000
4.00000 7.03348 4.00000
4.00000 7.03348 4.00000
4.00000 7.03348 4.00000
4.00000 7.03348 4.00000
4.00000 7.03348 4.00000
4.00000 7.03348 4.00000
4.00000 7.03348 4.00000
4.00000 7.03348 4.00000
4.00000 7.03348 4.00000
4.00000 7.03348 4.00000
4.00000 7.03348 4.00000
4.00000 7.03348 4.00000
4.00000 7.03348 4.00000
4.00000 7.03348 4.00000
4.00000 7.03348 4.00000
4.00000 7.03348 4.00000
4.00000 7.03348 4.00000
4.00000 7.03348 4.00000
4.00000 7.03348 4.00000
4.00000 7.03348 4.00000
4.00000 7.03348 4.00000
4.00000 7.03348 4.00000
4.00000 7.03348 4.00000
4.00000 7.03348 4.00000
4.00000 7.03348 4.00000
4.00000 7.03348 4.00000
4.00000 7.03348 4.00000
4.00000 7.03348 4.00000
4.00000 7.03348 4.00000
4.00000 7.03348 4.00000
4.00000 7.03348 4.00000
4.00000 7.03348 4.00000
4.00000 7.03348 4.00000
4.00000 7.03348 4.00000
4.00000 7.03348 4.00000
4.00000 7.03348 4.00000
4.00000 7.03348 4.00000
4.00000 7.03348 4.00000
4.00000 7.03348 4.00000
4.00000 7.03348 4.00000
4.00000 7.03348 4.00000
4.00000 7.03348 4.00000
4.00000 7.03348 4.00000
4.00000 7.03348 4.00000
4.00000 7.03348 4.00000
4.00000 7.03348 4.00000
4.00000 7.03348 4.00000
4.00000 7.03348 4.00000
4.00000 7.03348 4.00000
4.00000 7.03348 4.00000
4.00000 7.03348 4.00000
4.00000 7.03348 4.00000
4.00000 7.03348 4.00000
4.00000 7.03348 4.00000
4.00000 7.03348 4.00000
4.00000 7.03348 4.00000
4.00000 7.03348 4.00000
4.00000 7.03348 4.00000
4.00000 7.03348 4.00000
4.00000 7.03348 4.00000
4.00000 7.03348 4.00000
4.00000 7.03348 4.00000
4.00000 7.03348 4.00000
4.00000 7.03348 4.00000
4.00000 7.03348 4.00000
4.00000 7.03348 4.00000
4.00000 7.03348 4.00000
4.00000 7.03348 4.00000
4.00000 7.03348 4.00000
4.00000 7.03348 4.00000
4.00000 7.03349 4.00000
4.00000 7.03349 4.00000
4.00000 7.03348 4.00000
4.00000 7.03348 4.00000
4.00000 7.03348 4.00000
4.00000 7.03348 4.00000
4.00000 7.03348 4.00000
4.00000 7.03348 4.00000
4.00009 7.03647 4.00009
4.00226 7.11105 4.00226
4.00439 7.18609 4.00439
4.00648 7.26134 4.00648
4.00854 7.33678 4.00854
4.01058 7.41237 4.01058
4.01261 7.48812 4.01261
4.01463 7.56399 4.01463
4.01666 7.63997 4.01666
4.01870 7.71603 4.01870
4.02076 7.79217 4.02076
4.02286 7.86834 4.02286
4.02500 7.94454 4.02500
4.02720 8.02072 4.02720
4.02947 8.09687 4.02947
4.03183 8.17293 4.03183
4.03431 8.24888 4.03431
4.03693 8.32464 4.03693
4.03971 8.40017 4.03971
4.04270 8.47538 4.04270
4.04596 8.55017 4.04596
4.04953 8.62441 4.04953
4.05349 8.69796 4.05349
4.05783 8.77087 4.05783
4.06254 8.84311 4.06254
4.06766 8.91463 4.06766
4.07320 8.98537 4.07320
4.07920 9.05531 4.07920
4.08567 9.12440 4.08567
4.09259 9.19264 4.09259
4.09997 9.26008 4.09997
4.10776 9.32676 4.10776
4.11591 9.39281 4.11591
4.12432 9.45842 4.12432
4.13287 9.52384 4.13287
4.14137 9.58941 4.14137
4.14961 9.65559 4.14961
4.15730 9.72296 4.15730
4.16409 9.79220 4.16409
4.16957 9.86413 4.16957
4.17330 9.93963 4.17330
4.17485 10.01955 4.17485
4.17402 10.10431 4.17402
4.17203 10.19148 4.17203
4.16945 10.27987 4.16945
4.16632 10.36944 4.16632
4.16264 10.46017 4.16264
4.15842 10.55207 4.15842
4.15362 10.64517 4.15362
4.14821 10.73957 4.14821
4.14212 10.83539 4.14212
4.13526 10.93280 4.13526
4.12751 11.03207 4.12751
4.11867 11.13356 4.11867
4.10848 11.23783 4.10848
4.09651 11.34571 4.09651
4.08206 11.45861 4.08206
4.06419 11.57842 4.06419
4.04109 11.70874 4.04109
4.00823 11.85863 4.00823
4.00000 13.19120 4.00000
4.00000 13.19120 4.00000
4.00000 13.19120 4.00000
4.00000 13.19120 4.00000
4.00000 13.19120 4.00000
4.00000 13.19120 4.00000
4.00000 13.19120 4.00000
4.00000 13.19120 4.00000
4.00000 13.19120 4.00000
4.00000 13.19120 4.00000
4.00000 13.19120 4.00000
4.00000 13.19120 4.00000
4.00000 13.19120 4.00000
4.00000 13.19120 4.00000
4.00000 13.19122 4.00000
4.00501 13.21901 4.00501
4.01488 13.28429 4.01488
4.02288 13.35336 4.02288
4.02905 13.42617 4.02905
4.03343 13.50257 4.03343
4.03611 13.58242 4.03611
4.03767 13.66457 4.03767
4.03914 13.74692 4.03914
4.04058 13.82939 4.04058
4.04198 13.91196 4.04198
4.04336 13.99463 4.04336
4.04472 14.07738 4.04472
4.04605 14.16023 4.04605
4.04736 14.24315 4.04736
4.04866 14.32614 4.04866
4.04994 14.40920 4.04994
4.05121 14.49233 4.05121
4.05246 14.57552 4.05246
4.05371 14.65876 4.05371
4.05495 14.74207 4.05494
4.05617 14.82543 4.05617
4.05739 14.90884 4.05739
4.05861 14.99229 4.05861
4.05981 15.07580 4.05981
4.06093 15.15952 4.06093
4.06185 15.24368 4.06185
4.06257 15.32826 4.06257
4.06311 15.41323 4.06311
4.06348 15.49858 4.06349
4.06370 15.58427 4.06370
4.06377 15.67029 4.06377
4.06371 15.75661 4.06371
4.06352 15.84321 4.06352
4.06322 15.93006 4.06322
4.06282 16.01716 4.06282
4.06232 16.10447 4.06232
4.06174 16.19198 4.06174
4.06108 16.27968 4.06108
4.06036 16.36754 4.06036
4.05957 16.45555 4.05957
4.05873 16.54369 4.05873
4.05785 16.63196 4.05785
4.05693 16.72033 4.05693
4.05597 16.80880 4.05597
4.05499 16.89736 4.05499
4.05398 16.98599 4.05398
4.05295 17.07468 4.05295
4.05191 17.16344 4.05191
4.05085 17.25224 4.05085
4.04979 17.34108 4.04979
4.04873 17.42996 4.04873
4.04766 17.51887 4.04766
4.04660 17.60780 4.04660
4.04553 17.69675 4.04553
4.04448 17.78572 4.04448
4.04343 17.87470 4.04343
4.04239 17.96368 4.04239
4.04136 18.05267 4.04136
4.04034 18.14166 4.04034
4.03933 18.23065 4.03933
4.03834 18.31963 4.03834
4.03736 18.40861 4.03736
4.03640 18.49758 4.03640
4.03546 18.58655 4.03546
4.03453 18.67550 4.03453
4.03361 18.76444 4.03361
4.03272 18.85337 4.03272
4.03184 18.94229 4.03184
4.03098 19.03120 4.03098
4.03014 19.12009 4.03014
4.02932 19.20897 4.02932
4.02851 19.29783 4.02851
4.02772 19.38668 4.02772
4.02695 19.47552 4.02695
4.02620 19.56434 4.02620
4.02546 19.65314 4.02546
4.02475 19.74193 4.02475
4.02405 19.83071 4.02405
4.02336 19.91947 4.02336
4.02270 20.00822 4.02270
4.02205 20.09696 4.02205
4.02142 20.18568 4.02142
4.02080 20.27439 4.02080
4.02020 20.36309 4.02020
4.01962 20.45177 4.01962
4.01905 20.54044 4.01905
4.01849 20.62910 4.01849
4.01795 20.71776 4.01795
4.01743 20.80640 4.01743
4.01691 20.89503 4.01692
4.01642 20.98365 4.01642
4.01593 21.07226 4.01593
4.01546 21.16086 4.01547
4.01501 21.24945 4.01501
4.01457 21.33804 4.01456
4.01413 21.42662 4.01413
4.01371 21.51519 4.01371
4.01330 21.60376 4.01330
4.01291 21.69231 4.01291
4.01252 21.78087 4.01252
4.01215 21.86942 4.01215
4.01178 21.95796 4.01178
4.01143 22.04649 4.01143
4.01109 22.13503 4.01109
4.01076 22.22356 4.01075
4.01043 22.31209 4.01043
4.01012 22.40061 4.01012
4.00981 22.48913 4.00981
4.00952 22.57765 4.00951
4.00923 22.66617 4.00923
4.00895 22.75468 4.00895
4.00868 22.84319 4.00868
4.00842 22.93171 4.00841
4.00816 23.02022 4.00816

Angle 0.414467 2.068335

4.00000 7.03348 4.00000
4.00000 7.03348 4.00000
4.00000 7.03348 4.00000
4.00000 7.03348 4.00000
4.00000 7.03348 4.00000
4.00000 7.03348 4.00000
4.00000 7.03348 4.00000
4.00000 7.03348 4.00000
4.00000 7.03348 4.00000
4.00000 7.03348 4.00000
4.00000 7.03348 4.00000
4.00000 7.03348 4.00000
4.00000 7.03348 4.00000
4.00000 7.03348 4.00000
4.00000 7.03348 4.00000
4.00000 7.03348 4.00000
4.00000 7.03348 4.00000
4.00000 7.03348 4.00000
4.00000 7.03348 4.00000
4.00000 7.03348 4.00000
4.00000 7.03348 4.00000
4.00000 7.03348 4.00000
4.00000 7.03348 4.00000
4.00000 7.03348 4.00000
4.00000 7.03348 4.00000
4.00000 7.03348 4.00000
4.00000 7.03348 4.00000
4.00000 7.03348 4.00000
4.00000 7.03348 4.00000
4.00000 7.03348 4.00000
4.00000 7.03348 4.00000
4.00000 7.03348 4.00000
4.00000 7.03348 4.00000
4.00000 7.03348 4.00000
4.00000 7.03348 4.00000
4.00000 7.03348 4.00000
4.00000 7.03348 4.00000
4.00000 7.03348 4.00000
4.00000 7.03348 4.00000
4.00000 7.03348 4.00000
4.00000 7.03348 4.00000
4.00000 7.03348 4.00000
4.00000 7.03348 4.00000
4.00000 7.03348 4.00000
4.00000 7.03348 4.00000
4.00000 7.03348 4.00000
4.00000 7.03348 4.00000
4.00000 7.03348 4.00000
4.00000 7.03348 4.00000
4.00000 7.03348 4.00000
4.00000 7.03348 4.00000
4.00000 7.03348 4.00000
4.00000 7.03348 4.00000
4.00000 7.03348 4.00000
4.00000 7.03348 4.00000
4.00000 7.03348 4.00000
4.00000 7.03348 4.00000
4.00000 7.03348 4.00000
4.00000 7.03348 4.00000
4.00000 7.03348 4.00000
4.00000 7.03348 4.00000
4.00000 7.03348 4.00000
4.00000 7.03348 4.00000
4.00000 7.03348 4.00000
4.00000 7.03348 4.00000
4.00000 7.03348 4.00000
4.00000 7.03348 4.00000
4.00000 7.03348 4.00000
4.00000 7.03348 4.00000
4.00000 7.03348 4.00000
4.00000 7.03348 4.00000
4.00000 7.03348 4.00000
4.00000 7.03348 4.00000
4.00000 7.03348 4.00000
4.00000 7.03348 4.00000
4.00000 7.03348 4.00000
4.00000 7.03348 4.00000
4.00000 7.03348 4.00000
4.00000 7.03348 4.00000
4.00000 7.03348 4.00000
4.00000 7.03348 4.00000
4.00000 7.03348 4.00000
4.00000 7.03348 4.00000
4.00000 7.03348 4.00000
4.00000 7.03348 4.00000
4.00000 7.03348 4.00000
4.00000 7.03348 4.00000
4.00000 7.03348 4.00000
4.00000 7.03348 4.00000
4.00000 7.03348 4.00000
4.00000 7.03348 4.00000
4.00000 7.03348 4.00000
4.00000 7.03348 4.00000
4.00000 7.03348 4.00000
4.00000 7.03348 4.00000
4.00000 7.03348 4.00000
4.00000 7.03348 4.00000
4.00000 7.03348 4.00000
4.00000 7.03348 4.00000
4.00000 7.03348 4.00000
4.00000 7.03348 4.00000
4.00000 7.03348 4.00000
4.00000 7.03348 4.00000
4.00000 7.03348 4.00000
4.00000 7.03348 4.00000
4.00000 7.03348 4.00000
4.00000 7.03348 4.00000
4.00000 7.03348 4.00000
4.00000 7.03348 4.00000
4.00000 7.03348 4.00000
4.00000 7.03348 4.00000
4.00000 7.03348 4.00000
4.00000 7.03348 4.00000
4.00000 7.03348 4.00000
4.00000 7.03348 4.00000
4.00000 7.03348 4.00000
4.00000 7.03348 4.00000
4.00000 7.03348 4.00000
4.00000 7.03348 4.00000
4.00000 7.03348 4.00000
4.00000 7.03348 4.00000
4.00000 7.03348 4.00000
4.00000 7.03348 4.00000
4.00000 7.03348 4.00000
4.00000 7.03348 4.00000
4.00000 7.03348 4.00000
4.00000 7.03348 4.00000
4.00000 7.03348 4.00000
4.00000 7.03348 4.00000
4.00000 7.03348 4.00000
4.00000 7.03348 4.00000
4.00000 7.03348 4.00000
4.00000 7.03348 4.00000
4.00000 7.03348 4.00000
4.00000 7.03348 4.00000
4.00000 7.03348 4.00000
4.00000 7.03348 4.00000
4.00000 7.03348 4.00000
4.00000 7.03348 4.00000
4.00000 7.03348 4.00000
4.00000 7.03348 4.00000
4.00000 7.03348 4.00000
4.00000 7.03348 4.00000
4.00000 7.03348 4.00000
4.00000 7.03348 4.00000
4.00000 7.03348 4.00000
4.00000 7.03348 4.00000
4.00000 7.03348 4.00000
4.00000 7.03348 4.00000
4.00000 7.03348 4.00000
4.00000 7.03348 4.00000
4.00000 7.03348 4.00000
4.00000 7.03348 4.00000
4.00000 7.03348 4.00000
4.00000 7.03348 4.00000
4.00000 7.03348 4.00000
4.00000 7.03348 4.00000
4.00000 7.03348 4.00000
4.00000 7.03348 4.00000
4.00000 7.03348 4.00000
4.00000 7.03348 4.00000
4.00000 7.03348 4.00000
4.00000 7.03348 4.00000
4.00000 7.03348 4.00000
4.00000 7.03348 4.00000
4.00000 7.03348 4.00000
4.00000 7.03348 4.00000
4.00000 7.03348 4.00000
4.00000 7.03348 4.00000
4.00000 7.03348 4.00000
4.00000 7.03348 4.00000
4.00000 7.03348 4.00000
4.00000 7.03348 4.00000
4.00000 7.03348 4.00000
4.00000 7.03348 4.00000
4.00000 7.03348 4.00000
4.00000 7.03348 4.00000
4.00000 7.03348 4.00000
4.00000 7.03348 4.00000
4.00000 7.03348 4.00000
4.00000 7.03349 4.00000
4.00000 7.03349 4.00000
4.00000 7.03350 4.00000
4.00000 7.03348 4.00000
4.00000 7.03348 4.00000
4.00000 7.03348 4.00000
4.00000 7.03348 4.00000
4.00000 7.03348 4.00000
4.00000 7.03348 4.00000
4.00000 7.03348 4.00000
4.00000 7.03348 4.00000
4.00000 7.03348 4.00000
4.00000 7.03348 4.00000
4.00000 7.03348 4.00000
4.00000 7.03348 4.00000
4.00000 7.03348 4.00000
4.00000 7.03348 4.00000
4.00000 7.03348 4.00000
4.00000 7.03348 4.00000
4.00000 7.03348 4.00000
4.00000 7.03348 4.00000
4.00000 7.03348 4.00000
4.00000 7.03348 4.00000
4.00000 7.03348 4.00000
4.00000 7.03348 4.00000
4.00000 7.03348 4.00000
4.00000 7.03348 4.00000
4.00000 7.03350 4.00000
4.00000 7.03348 4.00000
4.00000 7.03350 4.00000
4.00000 7.03348 4.00000
4.00193 7.09976 4.00193
4.00423 7.18047 4.00423
4.00648 7.26134 4.00648
4.00869 7.34234 4.00869
4.01088 7.42345 4.01088
4.01305 7.50465 4.01305
4.01522 7.58592 4.01522
4.01739 7.66723 4.01739
4.01958 7.74857 4.01958
4.02179 7.82990 4.02179
4.02405 7.91119 4.02405
4.02637 7.99243 4.02637
4.02876 8.07356 4.02876
4.03125 8.15456 4.03125
4.03386 8.23536 4.03386
4.03662 8.31592 4.03662
4.03956 8.39616 4.03956
4.04273 8.47598 4.04273
4.04619 8.55527 4.04619
4.05001 8.63388 4.05001
4.05428 8.71165 4.05428
4.05895 8.78866 4.05895
4.06405 8.86486 4.06405
4.06960 8.94018 4.06960
4.07564 9.01457 4.07564
4.08219 9.08799 4.08219
4.08926 9.16043 4.08926
4.09682 9.23189 4.09682
4.10487 9.30245 4.10487
4.11333 9.37221 4.11333
4.12211 9.44136 4.12211
4.13108 9.51018 4.13108
4.14004 9.57905 4.14004
4.14875 9.64847 4.14875
4.15688 9.71907 4.15688
4.16404 9.79166 4.16404
4.16976 9.86717 4.16976
4.17353 9.94661 4.17353
4.17488 10.03091 4.17488
4.17370 10.12032 4.17370
4.17148 10.21183 4.17148
4.16864 10.30464 4.16864
4.16519 10.39868 4.16519
4.16115 10.49393 4.16115
4.15650 10.59043 4.15650
4.15122 10.68824 4.15122
4.14524 10.78747 4.14524
4.13848 10.88829 4.13848
4.13082 10.99095 4.13082
4.12207 11.09580 4.12207
4.11198 11.20337 4.11198
4.10014 11.31447 4.10014
4.08587 11.43047 4.08587
4.06817 11.55335 4.06817
4.04534 11.68651 4.04534
4.01313 11.83845 4.01313
4.00000 13.19120 4.00000
4.00000 13.19120 4.00000
4.00000 13.19120 4.00000
4.00000 13.19119 4.00000
4.00000 13.19119 4.00000
4.00000 13.19119 4.00000
4.00000 13.19120 4.00000
4.00000 13.19120 4.00000
4.00000 13.19120 4.00000
4.00000 13.19120 4.00000
4.00000 13.19120 4.00000
4.00000 13.19120 4.00000
4.00000 13.19120 4.00000
4.00000 13.19120 4.00000
4.00000 13.19120 4.00000
4.00985 13.24898 4.00985
4.01912 13.31838 4.01912
4.02640 13.39179 4.02640
4.03175 13.46909 4.03175
4.03524 13.55012 4.03524
4.03711 13.63440 4.03711
4.03865 13.71938 4.03865
4.04015 13.80446 4.04015
4.04161 13.88963 4.04161
4.04304 13.97489 4.04304
4.04444 14.06022 4.04444
4.04582 14.14562 4.04582
4.04717 14.23108 4.04717
4.04851 14.31659 4.04851
4.04983 14.40216 4.04983
4.05114 14.48777 4.05114
4.05243 14.57343 4.05243
4.05371 14.65914 4.05372
4.05499 14.74488 4.05499
4.05625 14.83065 4.05625
4.05750 14.91646 4.05750
4.05875 15.00230 4.05875
4.05999 15.08817 4.05999
4.06111 15.17431 4.06111
4.06201 15.26090 4.06201
4.06271 15.34790 4.06271
4.06322 15.43529 4.06322
4.06356 15.52305 4.06356
4.06374 15.61115 4.06374
4.06377 15.69957 4.06377
4.06365 15.78827 4.06365
4.06342 15.87725 4.06342
4.06306 15.96647 4.06306
4.06261 16.05591 4.06261
4.06206 16.14556 4.06206
4.06142 16.23539 4.06142
4.06071 16.32538 4.06071
4.05993 16.41552 4.05993
4.05910 16.50580 4.05910
4.05821 16.59619 4.05821
4.05728 16.68668 4.05728
4.05631 16.77726 4.05631
4.05532 16.86792 4.05532
4.05429 16.95864 4.05429
4.05324 17.04942 4.05324
4.05218 17.14025 4.05218
4.05110 17.23111 4.05110
4.05002 17.32200 4.05002
4.04893 17.41292 4.04893
4.04784 17.50385 4.04784
4.04675 17.59480 4.04675
4.04566 17.68575 4.04566
4.04458 17.77670 4.04458
4.04351 17.86764 4.04351
4.04245 17.95859 4.04245
4.04139 18.04952 4.04139
4.04035 18.14044 4.04035
4.03932 18.23134 4.03932
4.03831 18.32223 4.03831
4.03731 18.41309 4.03731
4.03633 18.50394 4.03633
4.03537 18.59476 4.03537
4.03442 18.68556 4.03442
4.03349 18.77633 4.03349
4.03258 18.86708 4.03258
4.03169 18.95781 4.03169
4.03082 19.04851 4.03082
4.02996 19.13918 4.02996
4.02912 19.22982 4.02913
4.02831 19.32044 4.02831
4.02751 19.41102 4.02751
4.02673 19.50159 4.02673
4.02597 19.59212 4.02597
4.02522 19.68263 4.02522
4.02450 19.77311 4.02450
4.02379 19.86357 4.02379
4.02310 19.95400 4.02310
4.02243 20.04440 4.02243
4.02178 20.13478 4.02178
4.02114 20.22513 4.02114
4.02052 20.31546 4.02052
4.01992 20.40577 4.01992
4.01933 20.49605 4.01933
4.01876 20.58631 4.01876
4.01820 20.67655 4.01820
4.01766 20.76677 4.01766
4.01713 20.85697 4.01713
4.01662 20.94714 4.01662
4.01613 21.03730 4.01612
4.01564 21.12744 4.01564
4.01517 21.21755 4.01517
4.01471 21.30766 4.01471
4.01427 21.39774 4.01427
4.01384 21.48780 4.01384
4.01342 21.57785 4.01342
4.01301 21.66789 4.01301
4.01262 21.75790 4.01262
4.01224 21.84791 4.01224
4.01186 21.93789 4.01186
4.01150 22.02787 4.01150
4.01115 22.11783 4.01115
4.01081 22.20778 4.01081
4.01048 22.29771 4.01048
4.01016 22.38764 4.01016
4.00985 22.47755 4.00985
4.00955 22.56745 4.00955
4.00926 22.65734 4.00926
4.00897 22.74722 4.00897
4.00870 22.83710 4.00870
4.00843 22.92696 4.00843
4.00817 23.01681 4.00817
4.00792 23.10666 4.00792
4.00767 23.19649 4.00767
4.00744 23.28632 4.00744
4.00721 23.37614 4.00721
4.00698 23.46596 4.00699
4.00677 23.55577 4.00677
4.00656 23.64557 4.00656

