Angle 0.474938 0.093002

4.00000 7.03348 4.00000
4.00000 7.03348 4.00000
4.00000 7.03348 4.00000
4.00000 7.03348 4.00000
4.00000 7.03348 4.00000
4.00000 7.03348 4.00000
4.00000 7.03348 4.00000
4.00000 7.03348 4.00000
4.00000 7.03348 4.00000
4.00000 7.03348 4.00000
4.00000 7.03348 4.00000
4.00000 7.03348 4.00000
4.00000 7.03348 4.00000
4.00000 7.03348 4.00000
4.00000 7.03348 4.00000
4.00000 7.03348 4.00000
4.00000 7.03348 4.00000
4.00000 7.03348 4.00000
4.00000 7.03348 4.00000
4.00000 7.03348 4.00000
4.00000 7.03348 4.00000
4.00000 7.03349 4.00000
4.00000 7.03348 4.00000
4.00000 7.03348 4.00000
4.00000 7.03348 4.00000
4.00000 7.03348 4.00000
4.00000 7.03348 4.00000
4.00000 7.03348 4.00000
4.00000 7.03348 4.00000
4.00000 7.03348 4.00000
4.00000 7.03348 4.00000
4.00000 7.03347 4.00000
4.00000 7.03348 4.00000
4.00000 7.03348 4.00000
4.00000 7.03348 4.00000
4.00000 7.03348 4.00000
4.00000 7.03348 4.00000
4.00000 7.03348 4.00000
4.00000 7.03348 4.00000
4.00000 7.03348 4.00000
4.00000 7.03348 4.00000
4.00000 7.03348 4.00000
4.00000 7.03349 4.00000
4.00000 7.03349 4.00000
4.00000 7.03349 4.00000
4.00000 7.03349 4.00000
4.00000 7.03349 4.00000
4.00000 7.03348 4.00000
4.00000 7.03348 4.00000
4.00000 7.03348 4.00000
4.00000 7.03348 4.00000
4.00000 7.03348 4.00000
4.00000 7.03348 4.00000
4.00000 7.03348 4.00000
4.00000 7.03348 4.00000
4.00000 7.03348 4.00000
4.00000 7.03348 4.00000
4.00000 7.03348 4.00000
4.00000 7.03348 4.00000
4.00000 7.03348 4.00000
4.00000 7.03348 4.00000
4.00000 7.03348 4.00000
4.00000 7.03348 4.00000
4.00000 7.03348 4.00000
4.00000 7.03348 4.00000
4.00000 7.03348 4.00000
4.00000 7.03348 4.00000
4.00000 7.03348 4.00000
4.00000 7.03348 4.00000
4.00000 7.03348 4.00000
4.00000 7.03348 4.00000
4.00000 7.03348 4.00000
4.00000 7.03348 4.00000
4.00000 7.03348 4.00000
4.00000 7.03348 4.00000
4.00000 7.03348 4.00000
4.00000 7.03348 4.00000
4.00000 7.03348 4.00000
4.00000 7.03348 4.00000
4.00000 7.03348 4.00000
4.00000 7.03348 4.00000
4.00000 7.03348 4.00000
4.00000 7.03348 4.00000
4.00000 7.03348 4.00000
4.00000 7.03348 4.00000
4.00000 7.03348 4.00000
4.00000 7.03348 4.00000
4.00000 7.03348 4.00000
4.00000 7.03348 4.00000
4.00000 7.03348 4.00000
4.00000 7.03349 4.00000
4.00000 7.03348 4.00000
4.00001 7.03383 4.00001
4.00236 7.11451 4.00236
4.00465 7.19550 4.00465
4.00690 7.27664 4.00690
4.00911 7.35790 4.00911
4.01130 7.43926 4.01130
4.01348 7.52071 4.01348
4.01565 7.60222 4.01565
4.01783 7.68377 4.01783
4.02003 7.76533 4.02003
4.02226 7.84687 4.02226
4.02454 7.92838 4.02454
4.02688 8.00981 4.02688
4.02929 8.09113 4.02929
4.03181 8.17230 4.03181
4.03446 8.25327 4.03446
4.03726 8.33396 4.03726
4.04026 8.41431 4.04026
4.04350 8.49422 4.04350
4.04704 8.57357 4.04704
4.05097 8.65218 4.05097
4.05535 8.72996 4.05535
4.06013 8.80696 4.06013
4.06534 8.88313 4.06534
4.07103 8.95840 4.07103
4.07721 9.03273 4.07721
4.08390 9.10607 4.08390
4.09111 9.17843 4.09111
4.09881 9.24981 4.09881
4.10699 9.32031 4.10699
4.11556 9.39004 4.11556
4.12443 9.45923 4.12443
4.13343 9.52817 4.13343
4.14237 9.59727 4.14238
4.15098 9.66708 4.15098
4.15891 9.73827 4.15891
4.16575 9.81170 4.16575
4.17100 9.88832 4.17100
4.17416 9.96917 4.17416
4.17478 10.05511 4.17478
4.17315 10.14560 4.17315
4.17075 10.23766 4.17075
4.16772 10.33099 4.16772
4.16410 10.42555 4.16410
4.15989 10.52134 4.15989
4.15505 10.61838 4.15505
4.14957 10.71677 4.14957
4.14336 10.81662 4.14336
4.13634 10.91813 4.13634
4.12837 11.02158 4.12836
4.11924 11.12735 4.11924
4.10866 11.23606 4.10866
4.09616 11.34864 4.09616
4.08094 11.46668 4.08094
4.06191 11.59239 4.06191
4.03685 11.73016 4.03685
4.00000 13.19120 4.00000
4.00000 13.19120 4.00000
4.00000 13.19119 4.00000
4.00000 13.19119 4.00000
4.00000 13.19119 4.00000
4.00000 13.19120 4.00000
4.00000 13.19120 4.00000
4.00000 13.19120 4.00000
4.00000 13.19120 4.00000
4.00000 13.19120 4.00000
4.00000 13.19120 4.00000
4.00000 13.19120 4.00000
4.00000 13.19120 4.00000
4.00000 13.19121 4.00000
4.00000 13.19120 4.00000
4.00250 13.20474 4.00250
4.01314 13.27152 4.01314
4.02176 13.34236 4.02176
4.02840 13.41719 4.02840
4.03312 13.49587 4.03312
4.03601 13.57822 4.03601
4.03764 13.66313 4.03764
4.03916 13.74826 4.03916
4.04065 13.83349 4.04065
4.04210 13.91881 4.04210
4.04352 14.00421 4.04352
4.04492 14.08968 4.04492
4.04629 14.17521 4.04629
4.04764 14.26080 4.04764
4.04897 14.34644 4.04897
4.05029 14.43214 4.05029
4.05159 14.51788 4.05159
4.05289 14.60366 4.05289
4.05417 14.68948 4.05417
4.05544 14.77534 4.05544
4.05670 14.86124 4.05670
4.05795 14.94716 4.05795
4.05920 15.03312 4.05920
4.06042 15.11914 4.06042
4.06146 15.20555 4.06146
4.06229 15.29239 4.06229
4.06292 15.37963 4.06292
4.06337 15.46727 4.06337
4.06365 15.55525 4.06365
4.06377 15.64357 4.06377
4.06374 15.73220 4.06374
4.06358 15.82111 4.06358
4.06330 15.91027 4.06330
4.06291 15.99968 4.06291
4.06241 16.08930 4.06241
4.06183 16.17911 4.06183
4.06116 16.26910 4.06116
4.06043 16.35925 4.06043
4.05963 16.44954 4.05963
4.05877 16.53996 4.05877
4.05787 16.63048 4.05787
4.05692 16.72111 4.05692
4.05594 16.81181 4.05594
4.05493 16.90259 4.05493
4.05389 16.99343 4.05389
4.05284 17.08432 4.05284
4.05177 17.17525 4.05177
4.05069 17.26622 4.05069
4.04960 17.35721 4.04960
4.04851 17.44822 4.04851
4.04742 17.53925 4.04742
4.04633 17.63029 4.04633
4.04524 17.72133 4.04524
4.04416 17.81236 4.04416
4.04309 17.90339 4.04309
4.04203 17.99442 4.04203
4.04098 18.08543 4.04098
4.03994 18.17643 4.03994
4.03892 18.26741 4.03892
4.03791 18.35837 4.03791
4.03692 18.44931 4.03692
4.03595 18.54023 4.03595
4.03499 18.63113 4.03499
4.03405 18.72200 4.03405
4.03313 18.81284 4.03313
4.03222 18.90366 4.03222
4.03134 18.99445 4.03134
4.03047 19.08522 4.03047
4.02962 19.17596 4.02962
4.02879 19.26667 4.02879
4.02798 19.35735 4.02798
4.02719 19.44800 4.02719
4.02641 19.53863 4.02641
4.02566 19.62923 4.02566
4.02492 19.71980 4.02492
4.02421 19.81035 4.02421
4.02351 19.90087 4.02351
4.02282 19.99136 4.02282
4.02216 20.08182 4.02216
4.02151 20.17227 4.02151
4.02088 20.26268 4.02088
4.02027 20.35307 4.02027
4.01967 20.44344 4.01967
4.01909 20.53379 4.01909
4.01852 20.62411 4.01852
4.01797 20.71441 4.01797
4.01744 20.80468 4.01744
4.01692 20.89494 4.01692
4.01641 20.98518 4.01641
4.01592 21.07539 4.01592
4.01544 21.16559 4.01544
4.01498 21.25577 4.01498
4.01452 21.34592 4.01452
4.01409 21.43607 4.01409
4.01366 21.52619 4.01366
4.01325 21.61630 4.01325
4.01284 21.70639 4.01285
4.01246 21.79646 4.01245
4.01208 21.88653 4.01208
4.01171 21.97657 4.01171
4.01135 22.06660 4.01135
4.01101 22.15662 4.01101
4.01067 22.24663 4.01067
4.01034 22.33662 4.01034
4.01003 22.42660 4.01003
4.00972 22.51657 4.00972
4.00942 22.60653 4.00942
4.00913 22.69648 4.00913
4.00885 22.78641 4.00885
4.00858 22.87634 4.00858
4.00831 22.96626 4.00831
4.00806 23.05617 4.00806
4.00781 23.14607 4.00781
4.00757 23.23596 4.00757
4.00733 23.32584 4.00734
4.00711 23.41572 4.00711
4.00689 23.50559 4.00689
4.00668 23.59545 4.00668
4.00647 23.68530 4.00647
4.00627 23.77515 4.00627
4.00607 23.86500 4.00607
4.00589 23.95484 4.00589
4.00570 24.04467 4.00570
4.00553 24.13450 4.00553
4.00535 24.22432 4.00535
4.00519 24.31414 4.00519
4.00503 24.40395 4.00503
4.00487 24.49376 4.00487
4.00472 24.58357 4.00472
4.00457 24.67337 4.00457
4.00443 24.76317 4.00443
4.00429 24.85297 4.00429
4.00416 24.94276 4.00416
4.00403 25.03255 4.00403
4.00390 25.12234 4.00390
4.00378 25.21213 4.00378
4.00366 25.30191 4.00366
4.00355 25.39169 4.00355
4.00344 25.48148 4.00344
4.00333 25.57126 4.00333
4.00323 25.66103 4.00323
4.00312 25.75081 4.00313
4.00303 25.84059 4.00303
4.00293 25.93036 4.00293
4.00284 26.02014 4.00284
4.00275 26.10991 4.00275
4.00267 26.19968 4.00267
4.00258 26.28946 4.00258
4.00250 26.37923 4.00250
4.00242 26.46900 4.00242
4.00235 26.55878 4.00235
4.00227 26.64855 4.00227
4.00220 26.73832 4.00220
4.00213 26.82810 4.00213
4.00207 26.91787 4.00207
4.00200 27.00765 4.00200
4.00194 27.09742 4.00194
4.00188 27.18720 4.00188
4.00182 27.27698 4.00182
4.00176 27.36676 4.00176
4.00171 27.45653 4.00171
4.00165 27.54631 4.00165
4.00160 27.63610 4.00160
4.00155 27.72588 4.00155
4.00150 27.81566 4.00150
4.00145 27.90545 4.00146
4.00141 27.99523 4.00141
4.00136 28.08502 4.00137
4.00132 28.17481 4.00132
4.00128 28.26460 4.00128
4.00124 28.35440 4.00124
4.00120 28.44419 4.00120
4.00116 28.53399 4.00116
4.00113 28.62378 4.00113
4.00109 28.71358 4.00109
4.00106 28.80339 4.00106
4.00102 28.89319 4.00102
4.00099 28.98300 4.00099
4.00096 29.07280 4.00096
4.00093 29.16261 4.00093
4.00090 29.25242 4.00090
4.00087 29.34224 4.00087
4.00085 29.43205 4.00085
4.00082 29.52187 4.00082
4.00079 29.61169 4.00079
4.00077 29.70151 4.00077
4.00074 29.79134 4.00074
4.00072 29.88116 4.00072
4.00070 29.97099 4.00070
4.00068 30.06082 4.00068
4.00065 30.15066 4.00065
4.00063 30.24049 4.00063
4.00061 30.33033 4.00061
4.00059 30.42017 4.00059
4.00058 30.51001 4.00058
4.00056 30.59986 4.00056
4.00054 30.68971 4.00054
4.00052 30.77956 4.00052
4.00051 30.86941 4.00051
4.00049 30.95926 4.00049
4.00047 31.04912 4.00047
4.00046 31.13898 4.00046
4.00045 31.22884 4.00045
4.00043 31.31871 4.00043
4.00042 31.40857 4.00042
4.00040 31.49844 4.00040
4.00039 31.58831 4.00039
4.00038 31.67819 4.00038
4.00037 31.76806 4.00037
4.00036 31.85794 4.00036
4.00034 31.94782 4.00034
4.00033 32.03771 4.00033
4.00032 32.12759 4.00032
4.00031 32.21748 4.00031
4.00030 32.30737 4.00030
4.00029 32.39727 4.00029
4.00028 32.48716 4.00028
4.00028 32.57706 4.00028
4.00027 32.66696 4.00027
4.00026 32.75687 4.00026
4.00025 32.84677 4.00025
4.00024 32.93668 4.00024
4.00023 33.02659 4.00023
4.00023 33.11650 4.00023
4.00022 33.20642 4.00022
4.00021 33.29634 4.00021
4.00021 33.38626 4.00021
4.00020 33.47618 4.00020
4.00019 33.56611 4.00019
4.00019 33.65604 4.00019
4.00018 33.74597 4.00018
4.00018 33.83590 4.00018
4.00017 33.92583 4.00017
4.00016 34.01577 4.00016
4.00016 34.10571 4.00016
4.00015 34.19565 4.00015
4.00015 34.28560 4.00015

Angle 0.355821 2.942403

4.00000 7.03348 4.00000
4.00000 7.03348 4.00000
4.00000 7.03348 4.00000
4.00000 7.03348 4.00000
4.00000 7.03348 4.00000
4.00000 7.03348 4.00000
4.00000 7.03348 4.00000
4.00000 7.03348 4.00000
4.00000 7.03348 4.00000
4.00000 7.03348 4.00000
4.00000 7.03348 4.00000
4.00000 7.03348 4.00000
4.00000 7.03348 4.00000
4.00000 7.03348 4.00000
4.00000 7.03348 4.00000
4.00000 7.03348 4.00000
4.00000 7.03348 4.00000
4.00000 7.03348 4.00000
4.00000 7.03348 4.00000
4.00000 7.03348 4.00000
4.00000 7.03348 4.00000
4.00000 7.03348 4.00000
4.00000 7.03348 4.00000
4.00000 7.03348 4.00000
4.00000 7.03348 4.00000
4.00000 7.03348 4.00000
4.00000 7.03348 4.00000
4.00000 7.03348 4.00000
4.00000 7.03348 4.00000
4.00000 7.03348 4.00000
4.00000 7.03348 4.00000
4.00000 7.03348 4.00000
4.00000 7.03348 4.00000
4.00000 7.03348 4.00000
4.00000 7.03348 4.00000
4.00000 7.03348 4.00000
4.00000 7.03348 4.00000
4.00000 7.03348 4.00000
4.00000 7.03348 4.00000
4.00000 7.03348 4.00000
4.00000 7.03348 4.00000
4.00000 7.03348 4.00000
4.00000 7.03348 4.00000
4.00000 7.03348 4.00000
4.00000 7.03348 4.00000
4.00000 7.03348 4.00000
4.00000 7.03348 4.00000
4.00000 7.03348 4.00000
4.00000 7.03348 4.00000
4.00000 7.03348 4.00000
4.00000 7.03348 4.00000
4.00000 7.03348 4.00000
4.00000 7.03348 4.00000
4.00000 7.03348 4.00000
4.00000 7.03348 4.00000
4.00000 7.03348 4.00000
4.00000 7.03348 4.00000
4.00000 7.03348 4.00000
4.00000 7.03348 4.00000
4.00000 7.03348 4.00000
4.00000 7.03348 4.00000
4.00000 7.03348 4.00000
4.00000 7.03348 4.00000
4.00000 7.03348 4.00000
4.00000 7.03348 4.00000
4.00000 7.03348 4.00000
4.00000 7.03348 4.00000
4.00000 7.03348 4.00000
4.00000 7.03348 4.00000
4.00000 7.03348 4.00000
4.00000 7.03348 4.00000
4.00000 7.03348 4.00000
4.00000 7.03348 4.00000
4.00000 7.03348 4.00000
4.00000 7.03348 4.00000
4.00000 7.03348 4.00000
4.00000 7.03348 4.00000
4.00000 7.03348 4.00000
4.00000 7.03348 4.00000
4.00000 7.03348 4.00000
4.00000 7.03348 4.00000
4.00000 7.03348 4.00000
4.00000 7.03348 4.00000
4.00000 7.03348 4.00000
4.00000 7.03348 4.00000
4.00000 7.03348 4.00000
4.00000 7.03348 4.00000
4.00000 7.03348 4.00000
4.00000 7.03348 4.00000
4.00000 7.03348 4.00000
4.00000 7.03348 4.00000
4.00000 7.03348 4.00000
4.00000 7.03348 4.00000
4.00000 7.03348 4.00000
4.00000 7.03348 4.00000
4.00000 7.03348 4.00000
4.00000 7.03348 4.00000
4.00000 7.03348 4.00000
4.00000 7.03348 4.00000
4.00000 7.03348 4.00000
4.00000 7.03348 4.00000
4.00000 7.03348 4.00000
4.00000 7.03348 4.00000
4.00000 7.03348 4.00000
4.00000 7.03348 4.00000
4.00000 7.03348 4.00000
4.00000 7.03348 4.00000
4.00000 7.03348 4.00000
4.00000 7.03348 4.00000
4.00000 7.03348 4.00000
4.00000 7.03348 4.00000
4.00000 7.03348 4.00000
4.00000 7.03348 4.00000
4.00000 7.03348 4.00000
4.00000 7.03348 4.00000
4.00000 7.03348 4.00000
4.00000 7.03348 4.00000
4.00000 7.03348 4.00000
4.00000 7.03348 4.00000
4.00000 7.03348 4.00000
4.00000 7.03348 4.00000
4.00000 7.03348 4.00000
4.00000 7.03348 4.00000
4.00000 7.03348 4.00000
4.00000 7.03348 4.00000
4.00000 7.03348 4.00000
4.00000 7.03348 4.00000
4.00000 7.03348 4.00000
4.00000 7.03348 4.00000
4.00000 7.03348 4.00000
4.00000 7.03348 4.00000
4.00000 7.03348 4.00000
4.00000 7.03348 4.00000
4.00000 7.03348 4.00000
4.00000 7.03348 4.00000
4.00000 7.03348 4.00000
4.00000 7.03348 4.00000
4.00000 7.03348 4.00000
4.00000 7.03348 4.00000
4.00000 7.03348 4.00000
4.00000 7.03348 4.00000
4.00000 7.03348 4.00000
4.00000 7.03348 4.00000
4.00000 7.03348 4.00000
4.00000 7.03348 4.00000
4.00000 7.03348 4.00000
4.00000 7.03348 4.00000
4.00000 7.03348 4.00000
4.00000 7.03348 4.00000
4.00000 7.03348 4.00000
4.00000 7.03348 4.00000
4.00000 7.03348 4.00000
4.00000 7.03348 4.00000
4.00000 7.03348 4.00000
4.00000 7.03348 4.00000
4.00000 7.03348 4.00000
4.00000 7.03348 4.00000
4.00000 7.03348 4.00000
4.00000 7.03348 4.00000
4.00000 7.03348 4.00000
4.00000 7.03348 4.00000
4.00000 7.03348 4.00000
4.00000 7.03348 4.00000
4.00000 7.03348 4.00000
4.00000 7.03348 4.00000
4.00000 7.03348 4.00000
4.00000 7.03348 4.00000
4.00000 7.03348 4.00000
4.00000 7.03348 4.00000
4.00000 7.03348 4.00000
4.00000 7.03348 4.00000
4.00000 7.03348 4.00000
4.00000 7.03348 4.00000
4.00000 7.03348 4.00000
4.00000 7.03348 4.00000
4.00000 7.03349 4.00000
4.00000 7.03348 4.00000
4.00000 7.03348 4.00000
4.00000 7.03349 4.00000
4.00000 7.03348 4.00000
4.00000 7.03349 4.00000
4.00000 7.03348 4.00000
4.00000 7.03357 4.00000
4.00137 7.08026 4.00137
4.00356 7.15676 4.00356
4.00571 7.23346 4.00571
4.00782 7.31033 4.00782
4.00991 7.38736 4.00991
4.01198 7.46453 4.01198
4.01404 7.54182 4.01404
4.01611 7.61921 4.01611
4.01818 7.69667 4.01818
4.02027 7.77420 4.02027
4.02240 7.85175 4.02240
4.02456 7.92932 4.02456
4.02679 8.00686 4.02679
4.02909 8.08434 4.02909
4.03148 8.16174 4.03148
4.03398 8.23900 4.03398
4.03662 8.31607 4.03662
4.03943 8.39288 4.03943
4.04246 8.46936 4.04246
4.04574 8.54539 4.04574
4.04935 8.62086 4.04935
4.05336 8.69561 4.05336
4.05775 8.76967 4.05775
4.06253 8.84304 4.06253
4.06773 8.91565 4.06773
4.07337 8.98744 4.07337
4.07948 9.05839 4.07948
4.08606 9.12846 4.08606
4.09312 9.19764 4.09312
4.10064 9.26598 4.10064
4.10858 9.33355 4.10858
4.11688 9.40048 4.11688
4.12543 9.46696 4.12543
4.13410 9.53328 4.13410
4.14270 9.59980 4.14270
4.15098 9.66703 4.15098
4.15863 9.73558 4.15863
4.16529 9.80618 4.16529
4.17051 9.87972 4.17051
4.17385 9.95710 4.17385
4.17487 10.03916 4.17487
4.17358 10.12591 4.17358
4.17141 10.21448 4.17141
4.16865 10.30429 4.16865
4.16532 10.39529 4.16532
4.16144 10.48746 4.16144
4.15699 10.58082 4.15699
4.15195 10.67543 4.15195
4.14625 10.77139 4.14625
4.13984 10.86884 4.13984
4.13260 10.96800 4.13260
4.12439 11.06916 4.12439
4.11498 11.17276 4.11498
4.10405 11.27947 4.10405
4.09106 11.39035 4.09106
4.07518 11.50705 4.07518
4.05521 11.63198 4.05521
4.02851 11.77042 4.02851
4.00000 13.19120 4.00000
4.00000 13.19120 4.00000
4.00000 13.19120 4.00000
4.00000 13.19120 4.00000
4.00000 13.19120 4.00000
4.00000 13.19120 4.00000
4.00000 13.19120 4.00000
4.00000 13.19120 4.00000
4.00000 13.19120 4.00000
4.00000 13.19120 4.00000
4.00000 13.19120 4.00000
4.00000 13.19120 4.00000
4.00000 13.19120 4.00000
4.00000 13.19121 4.00000
4.00000 13.19120 4.00000
4.00043 13.19347 4.00043
4.01117 13.25778 4.01117
4.01999 13.32597 4.01998
4.02691 13.39799 4.02691
4.03200 13.47372 4.03200
4.03533 13.55301 4.03533
4.03713 13.63538 4.03713
4.03863 13.71840 4.03863
4.04010 13.80153 4.04010
4.04152 13.88477 4.04153
4.04292 13.96810 4.04292
4.04430 14.05152 4.04430
4.04565 14.13502 4.04565
4.04698 14.21859 4.04698
4.04829 14.30224 4.04829
4.04958 14.38595 4.04958
4.05086 14.46972 4.05086
4.05213 14.55355 4.05213
4.05339 14.63744 4.05339
4.05464 14.72137 4.05464
4.05588 14.80536 4.05588
4.05711 14.88939 4.05711
4.05833 14.97347 4.05833
4.05955 15.05760 4.05955
4.06071 15.14186 4.06071
4.06168 15.22655 4.06168
4.06244 15.31167 4.06244
4.06302 15.39719 4.06302
4.06343 15.48308 4.06343
4.06367 15.56933 4.06368
4.06377 15.65590 4.06377
4.06373 15.74278 4.06373
4.06356 15.82994 4.06356
4.06327 15.91736 4.06327
4.06288 16.00502 4.06288
4.06239 16.09290 4.06239
4.06182 16.18098 4.06182
4.06116 16.26924 4.06116
4.06044 16.35767 4.06044
4.05966 16.44625 4.05966
4.05882 16.53496 4.05882
4.05793 16.62378 4.05793
4.05701 16.71272 4.05701
4.05605 16.80175 4.05605
4.05506 16.89086 4.05506
4.05404 16.98005 4.05404
4.05301 17.06929 4.05301
4.05196 17.15860 4.05196
4.05090 17.24794 4.05090
4.04984 17.33733 4.04984
4.04877 17.42675 4.04877
4.04769 17.51619 4.04769
4.04662 17.60566 4.04662
4.04555 17.69514 4.04555
4.04449 17.78463 4.04449
4.04343 17.87413 4.04343
4.04239 17.96363 4.04239
4.04135 18.05313 4.04135
4.04033 18.14263 4.04033
4.03932 18.23213 4.03932
4.03832 18.32161 4.03832
4.03734 18.41109 4.03734
4.03637 18.50056 4.03637
4.03542 18.59001 4.03542
4.03449 18.67946 4.03449
4.03357 18.76888 4.03357
4.03267 18.85830 4.03267
4.03179 18.94769 4.03179
4.03093 19.03707 4.03093
4.03008 19.12643 4.03008
4.02925 19.21578 4.02925
4.02844 19.30511 4.02844
4.02765 19.39442 4.02765
4.02688 19.48371 4.02688
4.02613 19.57298 4.02613
4.02539 19.66224 4.02539
4.02467 19.75148 4.02467
4.02397 19.84070 4.02397
4.02329 19.92990 4.02329
4.02262 20.01909 4.02262
4.02197 20.10826 4.02197
4.02133 20.19741 4.02133
4.02072 20.28655 4.02072
4.02012 20.37567 4.02012
4.01953 20.46478 4.01953
4.01896 20.55388 4.01896
4.01841 20.64295 4.01841
4.01787 20.73202 4.01787
4.01734 20.82107 4.01734
4.01683 20.91011 4.01683
4.01633 20.99914 4.01633
4.01585 21.08815 4.01585
4.01538 21.17716 4.01538
4.01492 21.26615 4.01492
4.01448 21.35513 4.01448
4.01405 21.44411 4.01405
4.01363 21.53307 4.01363
4.01322 21.62202 4.01322
4.01282 21.71097 4.01282
4.01244 21.79990 4.01244
4.01207 21.88883 4.01207
4.01170 21.97776 4.01170
4.01135 22.06667 4.01135
4.01101 22.15558 4.01101
4.01068 22.24448 4.01068
4.01035 22.33338 4.01035
4.01004 22.42227 4.01004
4.00974 22.51116 4.00974
4.00944 22.60004 4.00944
4.00916 22.68892 4.00916
4.00888 22.77779 4.00888
4.00861 22.86667 4.00861
4.00835 22.95553 4.00835
4.00809 23.04440 4.00809
4.00784 23.13326 4.00784
4.00761 23.22212 4.00761
4.00737 23.31098 4.00737
4.00715 23.39984 4.00715
4.00693 23.48870 4.00693
4.00672 23.57755 4.00672
4.00651 23.66641 4.00651
4.00631 23.75526 4.00631
4.00612 23.84412 4.00612
4.00593 23.93297 4.00593
4.00575 24.02182 4.00575
4.00557 24.11068 4.00557
4.00540 24.19954 4.00540
4.00523 24.28840 4.00523
4.00508 24.37725 4.00507
4.00492 24.46611 4.00492
4.00477 24.55497 4.00477
4.00462 24.64384 4.00462
4.00448 24.73270 4.00448
4.00434 24.82157 4.00434
4.00421 24.91044 4.00421
4.00408 24.99931 4.00408
4.00395 25.08819 4.00395
4.00383 25.17706 4.00383
4.00371 25.26594 4.00371
4.00359 25.35483 4.00360
4.00348 25.44371 4.00348
4.00337 25.53261 4.00338
4.00327 25.62150 4.00327
4.00317 25.71040 4.00317

Angle 0.561912 0.188028

4.00000 7.03348 4.00000
4.00000 7.03348 4.00000
4.00000 7.03348 4.00000
4.00000 7.03348 4.00000
4.00000 7.03348 4.00000
4.00000 7.03348 4.00000
4.00000 7.03348 4.00000
4.00000 7.03348 4.00000
4.00000 7.03348 4.00000
4.00000 7.03348 4.00000
4.00000 7.03348 4.00000
4.00000 7.03348 4.00000
4.00000 7.03348 4.00000
4.00000 7.03348 4.00000
4.00000 7.03348 4.00000
4.00000 7.03348 4.00000
4.00000 7.03348 4.00000
4.00000 7.03348 4.00000
4.00000 7.03348 4.00000
4.00000 7.03348 4.00000
4.00000 7.03348 4.00000
4.00000 7.03348 4.00000
4.00000 7.03348 4.00000
4.00000 7.03348 4.00000
4.00000 7.03348 4.00000
4.00000 7.03348 4.00000
4.00000 7.03348 4.00000
4.00000 7.03348 4.00000
4.00000 7.03348 4.00000
4.00000 7.03348 4.00000
4.00000 7.03348 4.00000
4.00000 7.03348 4.00000
4.00000 7.03348 4.00000
4.00000 7.03348 4.00000
4.00000 7.03348 4.00000
4.00000 7.03348 4.00000
4.00000 7.03348 4.00000
4.00000 7.03348 4.00000
4.00000 7.03348 4.00000
4.00000 7.03348 4.00000
4.00000 7.03348 4.00000
4.00000 7.03348 4.00000
4.00000 7.03348 4.00000
4.00000 7.03348 4.00000
4.00000 7.03348 4.00000
4.00000 7.03348 4.00000
4.00000 7.03348 4.00000
4.00000 7.03348 4.00000
4.00000 7.03348 4.00000
4.00000 7.03348 4.00000
4.00000 7.03348 4.00000
4.00000 7.03348 4.00000
4.00000 7.03348 4.00000
4.00000 7.03348 4.00000
4.00000 7.03348 4.00000
4.00000 7.03348 4.00000
4.00000 7.03348 4.00000
4.00000 7.03347 4.00000
4.00000 7.03348 4.00000
4.00000 7.03347 4.00000
4.00000 7.03348 4.00000
4.00000 7.03348 4.00000
4.00000 7.03348 4.00000
4.00000 7.03348 4.00000
4.00000 7.03348 4.00000
4.00000 7.03348 4.00000
4.00000 7.03348 4.00000
4.00000 7.03347 4.00000
4.00000 7.03348 4.00000
4.00000 7.03348 4.00000
4.00000 7.03350 4.00000
4.00000 7.03349 4.00000
4.00000 7.03348 4.00000
4.00164 7.08965 4.00164
4.00346 7.15333 4.00346
4.00526 7.21730 4.00526
4.00704 7.28155 4.00704
4.00879 7.34607 4.00879
4.01054 7.41084 4.01054
4.01228 7.47586 4.01228
4.01402 7.54110 4.01402
4.01577 7.60655 4.01577
4.01752 7.67221 4.01752
4.01929 7.73805 4.01929
4.02109 7.80405 4.02109
4.02291 7.87021 4.02291
4.02477 7.93651 4.02477
4.02668 8.00291 4.02668
4.02864 8.06941 4.02864
4.03067 8.13596 4.03067
4.03278 8.20256 4.03278
4.03499 8.26915 4.03499
4.03732 8.33570 4.03732
4.03979 8.40217 4.03979
4.04242 8.46849 4.04242
4.04525 8.53459 4.04525
4.04833 8.60038 4.04833
4.05171 8.66577 4.05170
4.05539 8.73071 4.05539
4.05937 8.79524 4.05937
4.06366 8.85932 4.06366
4.06828 8.92290 4.06828
4.07325 8.98596 4.07325
4.07859 9.04845 4.07859
4.08431 9.11034 4.08431
4.09040 9.17165 4.09040
4.09687 9.23236 4.09687
4.10370 9.29252 4.10370
4.11085 9.35219 4.11085
4.11828 9.41147 4.11827
4.12589 9.47051 4.12589
4.13361 9.52951 4.13361
4.14129 9.58873 4.14129
4.14876 9.64851 4.14876
4.15581 9.70927 4.15581
4.16220 9.77151 4.16220
4.16762 9.83582 4.16762
4.17175 9.90286 4.17175
4.17425 9.97329 4.17425
4.17484 10.04769 4.17484
4.17358 10.12590 4.17358
4.17165 10.20560 4.17165
4.16924 10.28639 4.16924
4.16636 10.36824 4.16636
4.16303 10.45114 4.16303
4.15924 10.53508 4.15924
4.15496 10.62011 4.15496
4.15018 10.70628 4.15018
4.14484 10.79367 4.14484
4.13889 10.88242 4.13889
4.13224 10.97269 4.13224
4.12477 11.06472 4.12477
4.11631 11.15883 4.11631
4.10662 11.25553 4.10662
4.09534 11.35553 4.09534
4.08187 11.46000 4.08187
4.06546 11.57047 4.06546
4.04474 11.68967 4.04474
4.01657 11.82389 4.01657
4.00000 13.19120 4.00000
4.00000 13.19120 4.00000
4.00000 13.19120 4.00000
4.00000 13.19120 4.00000
4.00000 13.19120 4.00000
4.00000 13.19120 4.00000
4.00000 13.19120 4.00000
4.00000 13.19120 4.00000
4.00000 13.19120 4.00000
4.00000 13.19120 4.00000
4.00000 13.19120 4.00000
4.00000 13.19120 4.00000
4.00000 13.19120 4.00000
4.00000 13.19120 4.00000
4.00000 13.19120 4.00000
4.00000 13.19120 4.00000
4.00069 13.19488 4.00069
4.01068 13.25452 4.01068
4.01902 13.31755 4.01903
4.02573 13.38394 4.02573
4.03084 13.45359 4.03084
4.03442 13.52641 4.03442
4.03652 13.60225 4.03652
4.03794 13.67955 4.03794
4.03932 13.75700 4.03932
4.04067 13.83460 4.04067
4.04199 13.91233 4.04199
4.04329 13.99018 4.04329
4.04457 14.06816 4.04457
4.04583 14.14625 4.04582
4.04707 14.22445 4.04707
4.04830 14.30275 4.04829
4.04951 14.38116 4.04951
4.05071 14.45966 4.05071
4.05190 14.53826 4.05190
4.05309 14.61695 4.05308
4.05426 14.69573 4.05426
4.05543 14.77459 4.05542
4.05658 14.85354 4.05658
4.05774 14.93256 4.05774
4.05889 15.01167 4.05889
4.06003 15.09086 4.06003
4.06106 15.17033 4.06106
4.06191 15.25024 4.06191
4.06259 15.33056 4.06258
4.06310 15.41126 4.06310
4.06346 15.49234 4.06346
4.06368 15.57376 4.06368
4.06377 15.65552 4.06377
4.06373 15.73758 4.06373
4.06358 15.81993 4.06358
4.06333 15.90255 4.06333
4.06298 15.98543 4.06297
4.06253 16.06855 4.06253
4.06201 16.15188 4.06201
4.06142 16.23542 4.06142
4.06076 16.31914 4.06076
4.06005 16.40304 4.06005
4.05928 16.48710 4.05928
4.05846 16.57131 4.05846
4.05761 16.65566 4.05761
4.05672 16.74013 4.05672
4.05580 16.82472 4.05580
4.05485 16.90941 4.05485
4.05388 16.99420 4.05388
4.05290 17.07907 4.05290
4.05190 17.16403 4.05190
4.05089 17.24905 4.05089
4.04988 17.33415 4.04988
4.04886 17.41930 4.04886
4.04783 17.50451 4.04783
4.04681 17.58977 4.04681
4.04579 17.67507 4.04579
4.04478 17.76041 4.04478
4.04377 17.84579 4.04377
4.04277 17.93121 4.04276
4.04177 18.01665 4.04177
4.04079 18.10212 4.04079
4.03982 18.18762 4.03982
4.03886 18.27313 4.03886
4.03791 18.35867 4.03791
4.03698 18.44423 4.03698
4.03606 18.52980 4.03606
4.03515 18.61538 4.03515
4.03426 18.70099 4.03426
4.03339 18.78660 4.03339
4.03253 18.87223 4.03253
4.03169 18.95786 4.03169
4.03086 19.04351 4.03086
4.03006 19.12916 4.03005
4.02926 19.21483 4.02926
4.02849 19.30050 4.02849
4.02773 19.38618 4.02773
4.02698 19.47187 4.02698
4.02626 19.55757 4.02626
4.02554 19.64327 4.02554
4.02485 19.72898 4.02485
4.02417 19.81470 4.02417
4.02351 19.90042 4.02351
4.02286 19.98616 4.02286
4.02223 20.07190 4.02223
4.02161 20.15764 4.02161
4.02101 20.24340 4.02101
4.02043 20.32916 4.02043
4.01986 20.41492 4.01986
4.01930 20.50070 4.01930
4.01876 20.58648 4.01876
4.01823 20.67228 4.01823
4.01771 20.75808 4.01771
4.01721 20.84389 4.01721
4.01672 20.92970 4.01672
4.01624 21.01553 4.01624
4.01578 21.10137 4.01578
4.01533 21.18721 4.01533
4.01489 21.27306 4.01489
4.01446 21.35893 4.01446
4.01404 21.44480 4.01404
4.01364 21.53069 4.01364
4.01325 21.61658 4.01325
4.01286 21.70249 4.01286
4.01249 21.78841 4.01249
4.01213 21.87433 4.01213
4.01177 21.96027 4.01177
4.01143 22.04623 4.01143
4.01110 22.13219 4.01110
4.01077 22.21816 4.01077
4.01046 22.30415 4.01046
4.01015 22.39015 4.01015
4.00986 22.47616 4.00986
4.00957 22.56219 4.00957
4.00929 22.64823 4.00929
4.00901 22.73428 4.00901
4.00875 22.82035 4.00875
4.00849 22.90642 4.00849
4.00824 22.99252 4.00824
4.00800 23.07862 4.00800
4.00776 23.16474 4.00776
4.00753 23.25088 4.00753
4.00731 23.33703 4.00731
4.00709 23.42319 4.00709
4.00688 23.50937 4.00688
4.00668 23.59556 4.00668
4.00648 23.68177 4.00648
4.00628 23.76799 4.00628
4.00610 23.85423 4.00610
4.00592 23.94048 4.00592
4.00574 24.02675 4.00574
4.00557 24.11303 4.00557
4.00540 24.19933 4.00540
4.00524 24.28564 4.00524
4.00508 24.37197 4.00508
4.00493 24.45831 4.00493
4.00478 24.54467 4.00478
4.00464 24.63105 4.00464
4.00450 24.71744 4.00450
4.00437 24.80385 4.00437
4.00424 24.89027 4.00424
4.00411 24.97671 4.00411
4.00398 25.06316 4.00398
4.00386 25.14963 4.00386
4.00375 25.23612 4.00375
4.00364 25.32262 4.00364
4.00353 25.40914 4.00353
4.00342 25.49568 4.00342
4.00332 25.58223 4.00332
4.00322 25.66879 4.00322
4.00312 25.75538 4.00312
4.00303 25.84198 4.00303
4.00293 25.92859 4.00293
4.00285 26.01522 4.00285
4.00276 26.10187 4.00276
4.00268 26.18853 4.00268
4.00260 26.27521 4.00260
4.00252 26.36191 4.00252
4.00244 26.44862 4.00244
4.00237 26.53534 4.00237
4.00230 26.62209 4.00230
4.00223 26.70885 4.00223
4.00216 26.79562 4.00216
4.00209 26.88241 4.00209
4.00203 26.96922 4.00203
4.00197 27.05604 4.00197
4.00191 27.14288 4.00191
4.00185 27.22973 4.00185
4.00179 27.31660 4.00179
4.00174 27.40349 4.00174
4.00169 27.49039 4.00169
4.00163 27.57730 4.00164
4.00159 27.66424 4.00158
4.00154 27.75118 4.00154
4.00149 27.83815 4.00149
4.00144 27.92512 4.00144
4.00140 28.01212 4.00140
4.00136 28.09913 4.00136
4.00132 28.18615 4.00132
4.00128 28.27319 4.00128
4.00124 28.36025 4.00124
4.00120 28.44732 4.00120
4.00116 28.53440 4.00116
4.00113 28.62150 4.00113
4.00109 28.70862 4.00109
4.00106 28.79575 4.00106
4.00103 28.88289 4.00103
4.00100 28.97005 4.00100
4.00097 29.05722 4.00096
4.00094 29.14441 4.00094
4.00091 29.23162 4.00091
4.00088 29.31883 4.00088
4.00085 29.40607 4.00085
4.00083 29.49331 4.00083
4.00080 29.58057 4.00080
4.00078 29.66785 4.00078
4.00075 29.75514 4.00075
4.00073 29.84244 4.00073
4.00071 29.92976 4.00071
4.00069 30.01709 4.00069
4.00066 30.10444 4.00067
4.00064 30.19180 4.00064
4.00063 30.27917 4.00063
4.00061 30.36656 4.00061
4.00059 30.45396 4.00059
4.00057 30.54137 4.00057
4.00055 30.62880 4.00055
4.00053 30.71624 4.00053
4.00052 30.80370 4.00052
4.00050 30.89116 4.00050
4.00049 30.97865 4.00049
4.00047 31.06614 4.00047
4.00046 31.15365 4.00046
4.00044 31.24117 4.00044
4.00043 31.32870 4.00043
4.00042 31.41625 4.00042
4.00040 31.50381 4.00040
4.00039 31.59138 4.00039
4.00038 31.67897 4.00038
4.00037 31.76657 4.00037
4.00036 31.85418 4.00036
4.00035 31.94180 4.00035
4.00033 32.02944 4.00033
4.00032 32.11709 4.00032
4.00031 32.20475 4.00031
4.00030 32.29242 4.00030
4.00030 32.38011 4.00030
4.00029 32.46780 4.00029
4.00028 32.55551 4.00028
4.00027 32.64324 4.00027
4.00026 32.73097 4.00026
4.00025 32.81871 4.00025
4.00024 32.90647 4.00024
4.00024 32.99424 4.00024
4.00023 33.08202 4.00023
4.00022 33.16982 4.00022
4.00022 33.25762 4.00022
4.00021 33.34544 4.00021
4.00020 33.43326 4.00020
4.00020 33.52110 4.00020
4.00019 33.60895 4.00019
4.00018 33.69681 4.00018
4.00018 33.78469 4.00018
4.00017 33.87257 4.00017
4.00017 33.96046 4.00017

Angle 0.704405 0.601298

4.00000 7.03346 4.00000
4.00000 7.03348 4.00000
4.00000 7.03348 4.00000
4.00000 7.03348 4.00000
4.00000 7.03348 4.00000
4.00000 7.03348 4.00000
4.00000 7.03348 4.00000
4.00000 7.03348 4.00000
4.00000 7.03348 4.00000
4.00000 7.03348 4.00000
4.00000 7.03348 4.00000
4.00000 7.03348 4.00000
4.00000 7.03348 4.00000
4.00000 7.03348 4.00000
4.00000 7.03348 4.00000
4.00000 7.03348 4.00000
4.00000 7.03348 4.00000
4.00000 7.03348 4.00000
4.00000 7.03348 4.00000
4.00000 7.03348 4.00000
4.00000 7.03348 4.00000
4.00000 7.03348 4.00000
4.00000 7.03348 4.00000
4.00000 7.03348 4.00000
4.00000 7.03348 4.00000
4.00000 7.03348 4.00000
4.00000 7.03348 4.00000
4.00000 7.03348 4.00000
4.00000 7.03348 4.00000
4.00000 7.03348 4.00000
4.00000 7.03348 4.00000
4.00000 7.03348 4.00000
4.00000 7.03348 4.00000
4.00000 7.03348 4.00000
4.00000 7.03348 4.00000
4.00000 7.03348 4.00000
4.00000 7.03348 4.00000
4.00000 7.03348 4.00000
4.00000 7.03348 4.00000
4.00000 7.03348 4.00000
4.00000 7.03348 4.00000
4.00000 7.03348 4.00000
4.00000 7.03348 4.00000
4.00000 7.03348 4.00000
4.00000 7.03348 4.00000
4.00000 7.03348 4.00000
4.00000 7.03348 4.00000
4.00000 7.03348 4.00000
4.00000 7.03348 4.00000
4.00000 7.03348 4.00000
4.00000 7.03348 4.00000
4.00000 7.03348 4.00000
4.00000 7.03348 4.00000
4.00000 7.03348 4.00000
4.00000 7.03348 4.00000
4.00000 7.03348 4.00000
4.00000 7.03348 4.00000
4.00000 7.03348 4.00000
4.00000 7.03348 4.00000
4.00000 7.03348 4.00000
4.00000 7.03348 4.00000
4.00000 7.03348 4.00000
4.00000 7.03348 4.00000
4.00000 7.03348 4.00000
4.00000 7.03348 4.00000
4.00000 7.03348 4.00000
4.00000 7.03348 4.00000
4.00000 7.03348 4.00000
4.00000 7.03348 4.00000
4.00000 7.03348 4.00000
4.00000 7.03348 4.00000
4.00000 7.03348 4.00000
4.00000 7.03348 4.00000
4.00000 7.03348 4.00000
4.00000 7.03348 4.00000
4.00000 7.03348 4.00000
4.00000 7.03348 4.00000
4.00000 7.03348 4.00000
4.00000 7.03348 4.00000
4.00000 7.03348 4.00000
4.00000 7.03348 4.00000
4.00000 7.03348 4.00000
4.00000 7.03348 4.00000
4.00000 7.03348 4.00000
4.00000 7.03348 4.00000
4.00000 7.03348 4.00000
4.00000 7.03348 4.00000
4.00000 7.03348 4.00000
4.00000 7.03348 4.00000
4.00000 7.03348 4.00000
4.00000 7.03348 4.00000
4.00000 7.03348 4.00000
4.00000 7.03348 4.00000
4.00000 7.03348 4.00000
4.00000 7.03348 4.00000
4.00000 7.03348 4.00000
4.00000 7.03348 4.00000
4.00000 7.03348 4.00000
4.00000 7.03348 4.00000
4.00000 7.03348 4.00000
4.00000 7.03348 4.00000
4.00000 7.03348 4.00000
4.00000 7.03348 4.00000
4.00000 7.03348 4.00000
4.00000 7.03348 4.00000
4.00000 7.03348 4.00000
4.00000 7.03348 4.00000
4.00000 7.03348 4.00000
4.00000 7.03348 4.00000
4.00000 7.03348 4.00000
4.00000 7.03348 4.00000
4.00000 7.03348 4.00000
4.00000 7.03348 4.00000
4.00000 7.03348 4.00000
4.00000 7.03348 4.00000
4.00000 7.03348 4.00000
4.00000 7.03348 4.00000
4.00000 7.03348 4.00000
4.00000 7.03348 4.00000
4.00000 7.03348 4.00000
4.00000 7.03348 4.00000
4.00000 7.03348 4.00000
4.00000 7.03349 4.00000
4.00000 7.03348 4.00000
4.00000 7.03348 4.00000
4.00000 7.03348 4.00000
4.00035 7.04517 4.00035
4.00241 7.11644 4.00241
4.00444 7.18796 4.00444
4.00644 7.25971 4.00644
4.00840 7.33167 4.00840
4.01035 7.40383 4.01035
4.01229 7.47617 4.01229
4.01422 7.54866 4.01422
4.01616 7.62131 4.01616
4.01811 7.69408 4.01811
4.02008 7.76696 4.02008
4.02207 7.83993 4.02207
4.02410 7.91296 4.02410
4.02619 7.98604 4.02619
4.02833 8.05913 4.02833
4.03055 8.13220 4.03055
4.03287 8.20522 4.03287
4.03530 8.27814 4.03530
4.03787 8.35092 4.03787
4.04061 8.42348 4.04061
4.04356 8.49575 4.04356
4.04676 8.56765 4.04676
4.05028 8.63903 4.05028
4.05417 8.70980 4.05417
4.05840 8.78000 4.05840
4.06298 8.84961 4.06298
4.06795 8.91858 4.06795
4.07333 8.98684 4.07333
4.07912 9.05438 4.07912
4.08535 9.12116 4.08535
4.09202 9.18718 4.09202
4.09911 9.25245 4.09911
4.10660 9.31705 4.10660
4.11443 9.38105 4.11443
4.12253 9.44463 4.12253
4.13079 9.50799 4.13079
4.13906 9.57144 4.13906
4.14715 9.63535 4.14715
4.15481 9.70021 4.15481
4.16174 9.76663 4.16174
4.16759 9.83532 4.16759
4.17195 9.90706 4.17195
4.17444 9.98266 4.17444
4.17471 10.06277 4.17471
4.17312 10.14670 4.17312
4.17091 10.23196 4.17091
4.16817 10.31839 4.16817
4.16490 10.40594 4.16490
4.16112 10.49461 4.16112
4.15681 10.58442 4.15681
4.15195 10.67543 4.15195
4.14648 10.76772 4.14648
4.14035 10.86142 4.14035
4.13347 10.95672 4.13347
4.12569 11.05388 4.12569
4.11684 11.15327 4.11684
4.10663 11.25545 4.10663
4.09465 11.36126 4.09465
4.08019 11.47210 4.08019
4.06234 11.58979 4.06234
4.03928 11.71798 4.03928
4.00645 11.86578 4.00645
4.00000 13.19120 4.00000
4.00000 13.19120 4.00000
4.00000 13.19120 4.00000
4.00000 13.19120 4.00000
4.00000 13.19120 4.00000
4.00000 13.19120 4.00000
4.00000 13.19120 4.00000
4.00000 13.19120 4.00000
4.00000 13.19120 4.00000
4.00000 13.19120 4.00000
4.00000 13.19120 4.00000
4.00000 13.19120 4.00000
4.00000 13.19120 4.00000
4.00000 13.19120 4.00000
4.00000 13.19120 4.00000
4.00151 13.19927 4.00151
4.01178 13.26199 4.01178
4.02026 13.32838 4.02025
4.02694 13.39839 4.02694
4.03190 13.47191 4.03190
4.03520 13.54882 4.03520
4.03701 13.62875 4.03701
4.03847 13.70944 4.03847
4.03990 13.79026 4.03990
4.04129 13.87119 4.04129
4.04266 13.95224 4.04266
4.04400 14.03339 4.04400
4.04532 14.11464 4.04532
4.04662 14.19598 4.04662
4.04790 14.27740 4.04790
4.04917 14.35891 4.04917
4.05042 14.44049 4.05042
4.05166 14.52215 4.05166
4.05289 14.60388 4.05289
4.05411 14.68568 4.05411
4.05532 14.76754 4.05532
4.05652 14.84947 4.05652
4.05772 14.93145 4.05772
4.05891 15.01350 4.05891
4.06010 15.09561 4.06010
4.06115 15.17802 4.06115
4.06201 15.26087 4.06201
4.06268 15.34413 4.06268
4.06319 15.42778 4.06319
4.06353 15.51179 4.06353
4.06372 15.59615 4.06372
4.06377 15.68083 4.06377
4.06369 15.76581 4.06369
4.06350 15.85107 4.06350
4.06319 15.93659 4.06319
4.06279 16.02235 4.06279
4.06230 16.10833 4.06230
4.06172 16.19452 4.06172
4.06107 16.28089 4.06107
4.06036 16.36743 4.06036
4.05958 16.45412 4.05958
4.05876 16.54096 4.05876
4.05789 16.62792 4.05789
4.05698 16.71500 4.05698
4.05604 16.80219 4.05604
4.05507 16.88946 4.05507
4.05408 16.97682 4.05408
4.05307 17.06426 4.05307
4.05204 17.15176 4.05204
4.05101 17.23932 4.05101
4.04996 17.32693 4.04996
4.04891 17.41458 4.04891
4.04786 17.50227 4.04786
4.04681 17.59000 4.04681
4.04576 17.67775 4.04576
4.04472 17.76553 4.04472
4.04368 17.85332 4.04368
4.04265 17.94114 4.04265
4.04163 18.02896 4.04163
4.04062 18.11680 4.04062
4.03963 18.20464 4.03963
4.03864 18.29249 4.03864
4.03767 18.38035 4.03767
4.03672 18.46820 4.03672
4.03578 18.55605 4.03578
4.03486 18.64391 4.03485
4.03395 18.73176 4.03395
4.03306 18.81961 4.03306
4.03218 18.90745 4.03218
4.03133 18.99529 4.03133
4.03049 19.08312 4.03049
4.02967 19.17094 4.02967
4.02886 19.25876 4.02886
4.02808 19.34657 4.02808
4.02731 19.43438 4.02731
4.02655 19.52217 4.02655
4.02582 19.60996 4.02582
4.02510 19.69775 4.02510
4.02440 19.78552 4.02440
4.02372 19.87329 4.02372
4.02305 19.96105 4.02305
4.02240 20.04881 4.02240
4.02176 20.13656 4.02177
4.02115 20.22430 4.02115
4.02054 20.31203 4.02054
4.01996 20.39976 4.01996
4.01938 20.48749 4.01938
4.01883 20.57521 4.01883
4.01828 20.66292 4.01828
4.01775 20.75063 4.01775
4.01724 20.83834 4.01724
4.01674 20.92604 4.01674
4.01625 21.01374 4.01625
4.01578 21.10144 4.01578
4.01532 21.18913 4.01532
4.01487 21.27682 4.01487
4.01443 21.36451 4.01443
4.01401 21.45220 4.01401
4.01360 21.53989 4.01360
4.01319 21.62757 4.01320
4.01281 21.71526 4.01281
4.01243 21.80294 4.01243
4.01206 21.89063 4.01206
4.01170 21.97831 4.01170
4.01135 22.06600 4.01135
4.01102 22.15369 4.01101
4.01069 22.24138 4.01069
4.01037 22.32907 4.01037
4.01006 22.41676 4.01006
4.00976 22.50446 4.00976
4.00947 22.59216 4.00947
4.00918 22.67986 4.00918
4.00891 22.76757 4.00891
4.00864 22.85527 4.00864
4.00838 22.94299 4.00838
4.00813 23.03071 4.00813
4.00789 23.11843 4.00788
4.00765 23.20615 4.00765
4.00742 23.29388 4.00742
4.00719 23.38162 4.00719
4.00698 23.46936 4.00698
4.00677 23.55711 4.00677
4.00656 23.64487 4.00656
4.00636 23.73262 4.00636
4.00617 23.82039 4.00617
4.00598 23.90816 4.00598
4.00580 23.99594 4.00580
4.00563 24.08372 4.00563
4.00545 24.17151 4.00545
4.00529 24.25931 4.00529
4.00513 24.34712 4.00513
4.00497 24.43493 4.00497
4.00482 24.52275 4.00482
4.00468 24.61058 4.00467
4.00453 24.69841 4.00453
4.00439 24.78626 4.00439
4.00426 24.87411 4.00426
4.00413 24.96197 4.00413
4.00400 25.04983 4.00400
4.00388 25.13771 4.00388
4.00376 25.22559 4.00376
4.00365 25.31349 4.00365
4.00354 25.40139 4.00354
4.00343 25.48930 4.00343
4.00332 25.57722 4.00332
4.00322 25.66514 4.00322
4.00312 25.75308 4.00312
4.00303 25.84102 4.00303
4.00293 25.92898 4.00293
4.00284 26.01694 4.00284
4.00276 26.10491 4.00276
4.00267 26.19289 4.00267
4.00259 26.28088 4.00259
4.00251 26.36888 4.00251
4.00243 26.45689 4.00243
4.00236 26.54491 4.00236
4.00229 26.63294 4.00229
4.00222 26.72097 4.00222
4.00215 26.80902 4.00215
4.00208 26.89707 4.00208
4.00202 26.98514 4.00202
4.00196 27.07321 4.00196
4.00190 27.16130 4.00190
4.00184 27.24939 4.00184
4.00178 27.33749 4.00178
4.00173 27.42561 4.00173
4.00167 27.51373 4.00167
4.00162 27.60186 4.00162
4.00157 27.69000 4.00157
4.00152 27.77815 4.00152
4.00148 27.86631 4.00147
4.00143 27.95448 4.00143
4.00139 28.04266 4.00139
4.00134 28.13085 4.00134
4.00130 28.21904 4.00130
4.00126 28.30725 4.00126
4.00122 28.39547 4.00122
4.00118 28.48369 4.00119
4.00115 28.57193 4.00115
4.00111 28.66018 4.00111
4.00108 28.74843 4.00108
4.00105 28.83669 4.00104
4.00101 28.92497 4.00101
4.00098 29.01325 4.00098
4.00095 29.10154 4.00095
4.00092 29.18984 4.00092
4.00089 29.27815 4.00089
4.00087 29.36648 4.00086
4.00084 29.45481 4.00084
4.00081 29.54315 4.00081
4.00079 29.63149 4.00079
4.00076 29.71985 4.00076
4.00074 29.80822 4.00074
4.00072 29.89659 4.00072
4.00069 29.98498 4.00069
4.00067 30.07337 4.00067
4.00065 30.16177 4.00065

Angle 0.677784 1.493121

4.00000 7.03348 4.00000
4.00000 7.03348 4.00000
4.00000 7.03348 4.00000
4.00000 7.03348 4.00000
4.00000 7.03348 4.00000
4.00000 7.03348 4.00000
4.00000 7.03348 4.00000
4.00000 7.03348 4.00000
4.00000 7.03348 4.00000
4.00000 7.03348 4.00000
4.00000 7.03348 4.00000
4.00000 7.03348 4.00000
4.00000 7.03348 4.00000
4.00000 7.03348 4.00000
4.00000 7.03348 4.00000
4.00000 7.03348 4.00000
4.00000 7.03348 4.00000
4.00000 7.03348 4.00000
4.00000 7.03348 4.00000
4.00000 7.03348 4.00000
4.00000 7.03348 4.00000
4.00000 7.03348 4.00000
4.00000 7.03348 4.00000
4.00000 7.03348 4.00000
4.00000 7.03348 4.00000
4.00000 7.03348 4.00000
4.00000 7.03348 4.00000
4.00000 7.03348 4.00000
4.00000 7.03346 4.00000
4.00000 7.03346 4.00000
4.00000 7.03347 4.00000
4.00000 7.03347 4.00000
4.00000 7.03347 4.00000
4.00000 7.03347 4.00000
4.00000 7.03347 4.00000
4.00000 7.03347 4.00000
4.00000 7.03347 4.00000
4.00000 7.03347 4.00000
4.00000 7.03347 4.00000
4.00000 7.03347 4.00000
4.00000 7.03347 4.00000
4.00000 7.03347 4.00000
4.00000 7.03347 4.00000
4.00000 7.03346 4.00000
4.00000 7.03346 4.00000
4.00000 7.03346 4.00000
4.00000 7.03346 4.00000
4.00000 7.03346 4.00000
4.00000 7.03346 4.00000
4.00000 7.03346 4.00000
4.00000 7.03346 4.00000
4.00000 7.03346 4.00000
4.00000 7.03346 4.00000
4.00000 7.03346 4.00000
4.00000 7.03346 4.00000
4.00000 7.03346 4.00000
4.00000 7.03346 4.00000
4.00000 7.03346 4.00000
4.00000 7.03346 4.00000
4.00000 7.03346 4.00000
4.00000 7.03346 4.00000
4.00000 7.03346 4.00000
4.00000 7.03346 4.00000
4.00000 7.03346 4.00000
4.00000 7.03346 4.00000
4.00000 7.03346 4.00000
4.00000 7.03347 4.00000
4.00000 7.03347 4.00000
4.00000 7.03347 4.00000
4.00000 7.03348 4.00000
4.00000 7.03348 4.00000
4.00000 7.03348 4.00000
4.00000 7.03348 4.00000
4.00000 7.03348 4.00000
4.00000 7.03348 4.00000
4.00000 7.03347 4.00000
4.00000 7.03347 4.00000
4.00000 7.03347 4.00000
4.00000 7.03347 4.00000
4.00000 7.03347 4.00000
4.00000 7.03348 4.00000
4.00000 7.03348 4.00000
4.00000 7.03348 4.00000
4.00000 7.03348 4.00000
4.00000 7.03348 4.00000
4.00000 7.03348 4.00000
4.00000 7.03348 4.00000
4.00000 7.03348 4.00000
4.00000 7.03348 4.00000
4.00000 7.03348 4.00000
4.00000 7.03348 4.00000
4.00000 7.03348 4.00000
4.00000 7.03348 4.00000
4.00000 7.03348 4.00000
4.00000 7.03348 4.00000
4.00000 7.03348 4.00000
4.00000 7.03348 4.00000
4.00000 7.03348 4.00000
4.00000 7.03348 4.00000
4.00000 7.03348 4.00000
4.00000 7.03348 4.00000
4.00000 7.03348 4.00000
4.00000 7.03348 4.00000
4.00000 7.03348 4.00000
4.00000 7.03348 4.00000
4.00000 7.03348 4.00000
4.00000 7.03348 4.00000
4.00000 7.03348 4.00000
4.00000 7.03348 4.00000
4.00000 7.03348 4.00000
4.00000 7.03348 4.00000
4.00000 7.03348 4.00000
4.00000 7.03348 4.00000
4.00000 7.03348 4.00000
4.00000 7.03348 4.00000
4.00000 7.03348 4.00000
4.00000 7.03348 4.00000
4.00000 7.03348 4.00000
4.00000 7.03348 4.00000
4.00000 7.03348 4.00000
4.00000 7.03348 4.00000
4.00000 7.03348 4.00000
4.00000 7.03348 4.00000
4.00000 7.03348 4.00000
4.00000 7.03348 4.00000
4.00000 7.03348 4.00000
4.00000 7.03348 4.00000
4.00000 7.03348 4.00000
4.00000 7.03348 4.00000
4.00000 7.03348 4.00000
4.00000 7.03348 4.00000
4.00000 7.03348 4.00000
4.00000 7.03348 4.00000
4.00000 7.03348 4.00000
4.00000 7.03348 4.00000
4.00000 7.03348 4.00000
4.00000 7.03348 4.00000
4.00000 7.03348 4.00000
4.00000 7.03348 4.00000
4.00000 7.03348 4.00000
4.00000 7.03348 4.00000
4.00000 7.03348 4.00000
4.00000 7.03348 4.00000
4.00000 7.03348 4.00000
4.00000 7.03348 4.00000
4.00000 7.03348 4.00000
4.00000 7.03348 4.00000
4.00000 7.03348 4.00000
4.00000 7.03348 4.00000
4.00000 7.03348 4.00000
4.00000 7.03348 4.00000
4.00000 7.03348 4.00000
4.00000 7.03348 4.00000
4.00000 7.03348 4.00000
4.00000 7.03348 4.00000
4.00000 7.03348 4.00000
4.00000 7.03348 4.00000
4.00000 7.03348 4.00000
4.00000 7.03348 4.00000
4.00000 7.03348 4.00000
4.00000 7.03348 4.00000
4.00000 7.03348 4.00000
4.00000 7.03348 4.00000
4.00000 7.03348 4.00000
4.00000 7.03348 4.00000
4.00000 7.03348 4.00000
4.00000 7.03349 4.00000
4.00000 7.03348 4.00000
4.00000 7.03348 4.00000
4.00000 7.03350 4.00000
4.00000 7.03348 4.00000
4.00000 7.03353 4.00000
4.00076 7.05941 4.00076
4.00286 7.13205 4.00286
4.00492 7.20492 4.00492
4.00694 7.27801 4.00694
4.00894 7.35129 4.00894
4.01092 7.42476 4.01092
4.01288 7.49839 4.01288
4.01485 7.57216 4.01485
4.01682 7.64607 4.01682
4.01881 7.72008 4.01881
4.02082 7.79417 4.02082
4.02286 7.86834 4.02286
4.02494 7.94255 4.02494
4.02708 8.01677 4.02708
4.02929 8.09098 4.02929
4.03159 8.16514 4.03159
4.03399 8.23922 4.03399
4.03652 8.31315 4.03652
4.03921 8.38689 4.03921
4.04209 8.46037 4.04209
4.04520 8.53349 4.04520
4.04861 8.60613 4.04861
4.05239 8.67816 4.05239
4.05652 8.74958 4.05652
4.06101 8.82040 4.06101
4.06588 8.89056 4.06588
4.07116 8.96002 4.07116
4.07686 9.02873 4.07686
4.08301 9.09666 4.08301
4.08960 9.16379 4.08960
4.09663 9.23015 4.09663
4.10408 9.29576 4.10408
4.11191 9.36074 4.11191
4.12003 9.42520 4.12003
4.12836 9.48936 4.12836
4.13674 9.55350 4.13674
4.14499 9.61799 4.14499
4.15288 9.68329 4.15288
4.16011 9.75001 4.16011
4.16632 9.81885 4.16632
4.17112 9.89061 4.17112
4.17408 9.96612 4.17408
4.17484 10.04613 4.17484
4.17348 10.13046 4.17348
4.17135 10.21641 4.17135
4.16867 10.30355 4.16867
4.16546 10.39183 4.16546
4.16172 10.48124 4.16172
4.15744 10.57181 4.15744
4.15261 10.66357 4.15261
4.14717 10.75662 4.14717
4.14106 10.85108 4.14106
4.13419 10.94714 4.13419
4.12643 11.04505 4.12643
4.11759 11.14519 4.11759
4.10741 11.24810 4.10741
4.09545 11.35463 4.09545
4.08102 11.46616 4.08102
4.06319 11.58457 4.06319
4.04017 11.71342 4.04017
4.00746 11.86173 4.00746
4.00000 13.19120 4.00000
4.00000 13.19120 4.00000
4.00000 13.19120 4.00000
4.00000 13.19120 4.00000
4.00000 13.19120 4.00000
4.00000 13.19120 4.00000
4.00000 13.19120 4.00000
4.00000 13.19120 4.00000
4.00000 13.19120 4.00000
4.00000 13.19120 4.00000
4.00000 13.19120 4.00000
4.00000 13.19120 4.00000
4.00000 13.19120 4.00000
4.00000 13.19120 4.00000
4.00000 13.19120 4.00000
4.00271 13.20591 4.00271
4.01286 13.26952 4.01286
4.02118 13.33685 4.02118
4.02769 13.40785 4.02769
4.03246 13.48240 4.03245
4.03554 13.56035 4.03554
4.03724 13.64114 4.03724
4.03871 13.72243 4.03870
4.04014 13.80385 4.04014
4.04154 13.88538 4.04154
4.04291 13.96702 4.04291
4.04425 14.04876 4.04425
4.04557 14.13059 4.04557
4.04688 14.21250 4.04688
4.04817 14.29450 4.04817
4.04944 14.37658 4.04944
4.05070 14.45872 4.05070
4.05194 14.54094 4.05194
4.05318 14.62323 4.05318
4.05440 14.70557 4.05441
4.05562 14.78798 4.05562
4.05683 14.87045 4.05683
4.05804 14.95298 4.05804
4.05923 15.03556 4.05923
4.06041 15.11822 4.06041
4.06141 15.20127 4.06141
4.06222 15.28475 4.06222
4.06285 15.36864 4.06285
4.06331 15.45290 4.06331
4.06360 15.53753 4.06360
4.06375 15.62249 4.06375
4.06376 15.70777 4.06376
4.06364 15.79334 4.06364
4.06341 15.87919 4.06341
4.06307 15.96528 4.06307
4.06263 16.05161 4.06263
4.06211 16.13815 4.06211
4.06150 16.22488 4.06150
4.06082 16.31180 4.06082
4.06008 16.39888 4.06008
4.05929 16.48610 4.05929
4.05844 16.57346 4.05844
4.05755 16.66094 4.05755
4.05663 16.74853 4.05663
4.05567 16.83622 4.05567
4.05468 16.92399 4.05468
4.05368 17.01184 4.05368
4.05266 17.09976 4.05265
4.05162 17.18773 4.05162
4.05057 17.27576 4.05057
4.04952 17.36384 4.04952
4.04846 17.45195 4.04846
4.04741 17.54010 4.04741
4.04635 17.62827 4.04635
4.04530 17.71647 4.04530
4.04425 17.80469 4.04425
4.04321 17.89292 4.04321
4.04218 17.98116 4.04218
4.04116 18.06942 4.04116
4.04016 18.15767 4.04016
4.03916 18.24594 4.03916
4.03818 18.33420 4.03818
4.03721 18.42246 4.03721
4.03626 18.51072 4.03626
4.03533 18.59898 4.03532
4.03441 18.68723 4.03440
4.03350 18.77548 4.03350
4.03262 18.86372 4.03262
4.03175 18.95195 4.03175
4.03090 19.04017 4.03090
4.03006 19.12839 4.03006
4.02925 19.21660 4.02925
4.02845 19.30479 4.02845
4.02767 19.39298 4.02767
4.02690 19.48115 4.02690
4.02616 19.56932 4.02616
4.02543 19.65748 4.02543
4.02472 19.74563 4.02472
4.02402 19.83376 4.02402
4.02335 19.92189 4.02335
4.02268 20.01001 4.02268
4.02204 20.09812 4.02204
4.02141 20.18622 4.02141
4.02080 20.27431 4.02080
4.02021 20.36239 4.02020
4.01962 20.45047 4.01962
4.01906 20.53854 4.01906
4.01851 20.62660 4.01851
4.01797 20.71465 4.01797
4.01745 20.80270 4.01745
4.01694 20.89074 4.01694
4.01645 20.97877 4.01644
4.01597 21.06680 4.01596
4.01550 21.15483 4.01550
4.01504 21.24285 4.01504
4.01460 21.33086 4.01460
4.01417 21.41888 4.01417
4.01375 21.50689 4.01375
4.01334 21.59489 4.01334
4.01295 21.68289 4.01295
4.01256 21.77089 4.01256
4.01219 21.85889 4.01219
4.01183 21.94689 4.01183
4.01148 22.03489 4.01148
4.01113 22.12288 4.01113
4.01080 22.21088 4.01080
4.01048 22.29887 4.01048
4.01016 22.38687 4.01016
4.00986 22.47486 4.00986
4.00956 22.56286 4.00956
4.00928 22.65086 4.00928
4.00900 22.73886 4.00900
4.00873 22.82686 4.00873
4.00846 22.91486 4.00847
4.00821 23.00287 4.00821
4.00796 23.09088 4.00796
4.00772 23.17889 4.00772
4.00749 23.26690 4.00749
4.00726 23.35492 4.00726
4.00704 23.44294 4.00704
4.00683 23.53096 4.00683
4.00662 23.61899 4.00662
4.00642 23.70702 4.00642
4.00622 23.79506 4.00622
4.00604 23.88311 4.00604
4.00585 23.97115 4.00585
4.00567 24.05921 4.00567
4.00550 24.14726 4.00550
4.00533 24.23533 4.00533
4.00517 24.32339 4.00517
4.00501 24.41147 4.00501
4.00486 24.49955 4.00486
4.00471 24.58764 4.00471
4.00457 24.67573 4.00457
4.00443 24.76383 4.00443
4.00429 24.85193 4.00429
4.00416 24.94004 4.00416
4.00403 25.02816 4.00403
4.00391 25.11629 4.00391
4.00379 25.20442 4.00379
4.00367 25.29256 4.00367
4.00356 25.38071 4.00356
4.00345 25.46886 4.00345
4.00335 25.55703 4.00334
4.00324 25.64519 4.00324
4.00315 25.73337 4.00314
4.00305 25.82155 4.00305
4.00295 25.90975 4.00295
4.00286 25.99794 4.00286
4.00278 26.08615 4.00277
4.00269 26.17437 4.00269
4.00261 26.26259 4.00261

Angle 0.468812 4.922778

4.00000 7.03348 4.00000
4.00000 7.03349 4.00000
4.00000 7.03348 4.00000
4.00000 7.03348 4.00000
4.00000 7.03348 4.00000
4.00000 7.03348 4.00000
4.00000 7.03348 4.00000
4.00000 7.03348 4.00000
4.00000 7.03348 4.00000
4.00000 7.03348 4.00000
4.00000 7.03348 4.00000
4.00000 7.03348 4.00000
4.00000 7.03348 4.00000
4.00000 7.03348 4.00000
4.00000 7.03348 4.00000
4.00000 7.03348 4.00000
4.00000 7.03348 4.00000
4.00000 7.03348 4.00000
4.00000 7.03348 4.00000
4.00000 7.03348 4.00000
4.00000 7.03348 4.00000
4.00000 7.03348 4.00000
4.00000 7.03348 4.00000
4.00000 7.03348 4.00000
4.00000 7.03348 4.00000
4.00000 7.03348 4.00000
4.00000 7.03348 4.00000
4.00000 7.03348 4.00000
4.00000 7.03348 4.00000
4.00000 7.03348 4.00000
4.00000 7.03348 4.00000
4.00000 7.03348 4.00000
4.00000 7.03348 4.00000
4.00000 7.03348 4.00000
4.00000 7.03348 4.00000
4.00000 7.03348 4.00000
4.00000 7.03348 4.00000
4.00000 7.03348 4.00000
4.00000 7.03348 4.00000
4.00000 7.03348 4.00000
4.00000 7.03348 4.00000
4.00000 7.03348 4.00000
4.00000 7.03348 4.00000
4.00000 7.03348 4.00000
4.00000 7.03348 4.00000
4.00000 7.03348 4.00000
4.00000 7.03348 4.00000
4.00000 7.03348 4.00000
4.00000 7.03348 4.00000
4.00000 7.03348 4.00000
4.00000 7.03348 4.00000
4.00000 7.03348 4.00000
4.00000 7.03348 4.00000
4.00000 7.03348 4.00000
4.00000 7.03348 4.00000
4.00000 7.03348 4.00000
4.00000 7.03348 4.00000
4.00000 7.03348 4.00000
4.00000 7.03348 4.00000
4.00000 7.03348 4.00000
4.00000 7.03348 4.00000
4.00000 7.03348 4.00000
4.00000 7.03348 4.00000
4.00000 7.03348 4.00000
4.00000 7.03348 4.00000
4.00000 7.03348 4.00000
4.00000 7.03348 4.00000
4.00000 7.03349 4.00000
4.00000 7.03349 4.00000
4.00000 7.03349 4.00000
4.00000 7.03348 4.00000
4.00000 7.03347 4.00000
4.00000 7.03348 4.00000
4.00000 7.03348 4.00000
4.00000 7.03348 4.00000
4.00000 7.03348 4.00000
4.00000 7.03348 4.00000
4.00000 7.03348 4.00000
4.00000 7.03348 4.00000
4.00000 7.03348 4.00000
4.00000 7.03348 4.00000
4.00000 7.03348 4.00000
4.00000 7.03348 4.00000
4.00000 7.03348 4.00000
4.00000 7.03348 4.00000
4.00000 7.03348 4.00000
4.00000 7.03354 4.00000
4.00000 7.03350 4.00000
4.00000 7.03348 4.00000
4.00077 7.05976 4.00077
4.00272 7.12705 4.00272
4.00463 7.19461 4.00463
4.00651 7.26242 4.00651
4.00837 7.33049 4.00837
4.01022 7.39877 4.01022
4.01205 7.46728 4.01205
4.01389 7.53598 4.01389
4.01572 7.60487 4.01572
4.01757 7.67392 4.01757
4.01943 7.74313 4.01943
4.02132 7.81247 4.02132
4.02323 7.88192 4.02323
4.02519 7.95147 4.02519
4.02721 8.02108 4.02721
4.02928 8.09075 4.02928
4.03144 8.16042 4.03144
4.03368 8.23008 4.03368
4.03605 8.29967 4.03605
4.03854 8.36916 4.03854
4.04120 8.43847 4.04120
4.04407 8.50755 4.04407
4.04717 8.57629 4.04717
4.05057 8.64460 4.05057
4.05432 8.71237 4.05432
4.05838 8.77966 4.05838
4.06277 8.84644 4.06277
4.06751 8.91266 4.06751
4.07263 8.97828 4.07263
4.07813 9.04326 4.07813
4.08404 9.10757 4.08404
4.09036 9.17121 4.09036
4.09708 9.23418 4.09708
4.10417 9.29653 4.10417
4.11161 9.35833 4.11161
4.11933 9.41971 4.11933
4.12724 9.48082 4.12724
4.13523 9.54191 4.13523
4.14314 9.60328 4.14314
4.15077 9.66532 4.15078
4.15789 9.72853 4.15789
4.16420 9.79347 4.16420
4.16936 9.86084 4.16936
4.17299 9.93137 4.17299
4.17476 10.00576 4.17476
4.17439 10.08452 4.17439
4.17267 10.16612 4.17267
4.17041 10.24889 4.17041
4.16766 10.33276 4.16766
4.16442 10.41772 4.16442
4.16070 10.50375 4.16070
4.15648 10.59089 4.15648
4.15173 10.67919 4.15173
4.14642 10.76872 4.14642
4.14048 10.85962 4.14048
4.13382 10.95204 4.13382
4.12633 11.04623 4.12633
4.11784 11.14253 4.11784
4.10811 11.24140 4.10811
4.09676 11.34361 4.09676
4.08319 11.45034 4.08319
4.06662 11.56318 4.06662
4.04563 11.68495 4.04563
4.01697 11.82215 4.01697
4.00000 13.19120 4.00000
4.00000 13.19120 4.00000
4.00000 13.19120 4.00000
4.00000 13.19120 4.00000
4.00000 13.19120 4.00000
4.00000 13.19120 4.00000
4.00000 13.19120 4.00000
4.00000 13.19120 4.00000
4.00000 13.19120 4.00000
4.00000 13.19120 4.00000
4.00000 13.19120 4.00000
4.00000 13.19120 4.00000
4.00000 13.19120 4.00000
4.00000 13.19120 4.00000
4.00000 13.19121 4.00000
4.00000 13.19121 4.00000
4.00478 13.21769 4.00478
4.01431 13.28000 4.01431
4.02212 13.34583 4.02212
4.02824 13.41510 4.02824
4.03273 13.48772 4.03273
4.03563 13.56357 4.03564
4.03725 13.64206 4.03726
4.03868 13.72101 4.03868
4.04007 13.80010 4.04007
4.04143 13.87932 4.04143
4.04277 13.95866 4.04277
4.04408 14.03811 4.04408
4.04537 14.11767 4.04537
4.04664 14.19733 4.04664
4.04790 14.27709 4.04790
4.04914 14.35694 4.04914
4.05036 14.43688 4.05037
4.05158 14.51691 4.05158
4.05279 14.59702 4.05279
4.05398 14.67721 4.05398
4.05517 14.75747 4.05517
4.05635 14.83781 4.05635
4.05753 14.91822 4.05753
4.05870 14.99870 4.05870
4.05986 15.07925 4.05986
4.06094 15.16004 4.06094
4.06182 15.24126 4.06182
4.06253 15.32290 4.06253
4.06307 15.40493 4.06307
4.06345 15.48733 4.06345
4.06368 15.57008 4.06368
4.06377 15.65316 4.06377
4.06374 15.73654 4.06374
4.06358 15.82022 4.06358
4.06332 15.90417 4.06332
4.06296 15.98836 4.06296
4.06251 16.07279 4.06251
4.06198 16.15743 4.06198
4.06137 16.24227 4.06137
4.06070 16.32730 4.06070
4.05996 16.41249 4.05996
4.05918 16.49784 4.05918
4.05834 16.58333 4.05834
4.05747 16.66894 4.05747
4.05656 16.75468 4.05656
4.05562 16.84052 4.05562
4.05466 16.92645 4.05466
4.05367 17.01248 4.05367
4.05267 17.09858 4.05267
4.05165 17.18475 4.05165
4.05063 17.27099 4.05063
4.04960 17.35728 4.04960
4.04856 17.44363 4.04856
4.04753 17.53002 4.04753
4.04649 17.61645 4.04649
4.04546 17.70291 4.04546
4.04443 17.78941 4.04443
4.04341 17.87594 4.04341
4.04240 17.96249 4.04240
4.04140 18.04906 4.04140
4.04041 18.13565 4.04041
4.03943 18.22225 4.03943
4.03846 18.30887 4.03846
4.03751 18.39550 4.03751
4.03657 18.48214 4.03657
4.03564 18.56879 4.03564
4.03473 18.65545 4.03473
4.03384 18.74211 4.03384
4.03297 18.82878 4.03297
4.03210 18.91545 4.03210
4.03126 19.00212 4.03126
4.03043 19.08880 4.03043
4.02962 19.17547 4.02962
4.02883 19.26215 4.02883
4.02806 19.34884 4.02806
4.02730 19.43552 4.02730
4.02655 19.52220 4.02655
4.02583 19.60888 4.02583
4.02512 19.69556 4.02512
4.02443 19.78225 4.02443
4.02375 19.86893 4.02375
4.02309 19.95562 4.02309
4.02245 20.04230 4.02245
4.02182 20.12899 4.02182
4.02121 20.21568 4.02121
4.02061 20.30236 4.02061
4.02003 20.38905 4.02003
4.01946 20.47574 4.01946
4.01891 20.56244 4.01891
4.01837 20.64913 4.01837
4.01784 20.73583 4.01784
4.01733 20.82253 4.01733
4.01683 20.90923 4.01683
4.01635 20.99594 4.01635
4.01588 21.08264 4.01588
4.01542 21.16936 4.01542
4.01497 21.25607 4.01497
4.01454 21.34279 4.01454
4.01412 21.42952 4.01412
4.01371 21.51625 4.01371
4.01331 21.60298 4.01331
4.01292 21.68972 4.01292
4.01254 21.77647 4.01254
4.01217 21.86322 4.01217
4.01182 21.94998 4.01182
4.01147 22.03675 4.01147
4.01113 22.12352 4.01113
4.01080 22.21030 4.01080
4.01048 22.29708 4.01048
4.01018 22.38388 4.01018
4.00987 22.47068 4.00987
4.00958 22.55749 4.00958
4.00930 22.64431 4.00930
4.00902 22.73114 4.00902
4.00875 22.81797 4.00875
4.00849 22.90482 4.00849
4.00824 22.99167 4.00824
4.00800 23.07853 4.00800
4.00776 23.16541 4.00776
4.00753 23.25229 4.00753
4.00730 23.33918 4.00730
4.00708 23.42609 4.00708
4.00687 23.51300 4.00687
4.00666 23.59992 4.00666
4.00647 23.68686 4.00647
4.00627 23.77380 4.00627
4.00608 23.86076 4.00608
4.00590 23.94772 4.00590
4.00572 24.03470 4.00572
4.00555 24.12169 4.00555
4.00538 24.20869 4.00538
4.00522 24.29570 4.00522
4.00506 24.38273 4.00506
4.00491 24.46977 4.00491
4.00476 24.55681 4.00476
4.00462 24.64387 4.00462
4.00448 24.73094 4.00448
4.00435 24.81802 4.00434
4.00421 24.90512 4.00422
4.00409 24.99223 4.00409
4.00396 25.07935 4.00396
4.00384 25.16648 4.00384
4.00373 25.25363 4.00373
4.00361 25.34079 4.00361
4.00350 25.42796 4.00350
4.00340 25.51514 4.00340
4.00329 25.60233 4.00329
4.00319 25.68954 4.00319
4.00310 25.77677 4.00309
4.00300 25.86400 4.00300
4.00291 25.95124 4.00291
4.00282 26.03850 4.00282
4.00274 26.12577 4.00274
4.00265 26.21306 4.00265
4.00257 26.30035 4.00257
4.00249 26.38766 4.00249
4.00242 26.47499 4.00242
4.00234 26.56232 4.00234
4.00227 26.64967 4.00227
4.00220 26.73703 4.00220
4.00214 26.82441 4.00214
4.00207 26.91179 4.00207
4.00201 26.99919 4.00201
4.00195 27.08661 4.00195
4.00189 27.17403 4.00189
4.00183 27.26147 4.00183
4.00177 27.34892 4.00177
4.00172 27.43638 4.00172
4.00167 27.52386 4.00167
4.00162 27.61135 4.00162
4.00157 27.69885 4.00157
4.00152 27.78637 4.00152
4.00147 27.87390 4.00147
4.00143 27.96144 4.00143
4.00138 28.04899 4.00138
4.00134 28.13655 4.00134
4.00130 28.22413 4.00130
4.00126 28.31172 4.00126
4.00122 28.39933 4.00122
4.00118 28.48694 4.00118
4.00115 28.57457 4.00115
4.00111 28.66221 4.00111
4.00108 28.74986 4.00108
4.00104 28.83753 4.00104
4.00101 28.92521 4.00101
4.00098 29.01290 4.00098
4.00095 29.10060 4.00095
4.00092 29.18831 4.00092
4.00089 29.27604 4.00090
4.00087 29.36378 4.00086
4.00084 29.45153 4.00084
4.00081 29.53929 4.00081
4.00079 29.62707 4.00079
4.00077 29.71484 4.00076
4.00074 29.80265 4.00074
4.00072 29.89046 4.00072
4.00069 29.97828 4.00070
4.00067 30.06611 4.00068
4.00065 30.15395 4.00065
4.00063 30.24181 4.00064
4.00062 30.32968 4.00061
4.00059 30.41756 4.00059
4.00057 30.50545 4.00058
4.00055 30.59335 4.00056
4.00054 30.68127 4.00054
4.00053 30.76918 4.00053
4.00051 30.85713 4.00050
4.00049 30.94507 4.00049
4.00048 31.03303 4.00048
4.00046 31.12100 4.00046
4.00045 31.20898 4.00045
4.00044 31.29697 4.00043
4.00042 31.38498 4.00042
4.00041 31.47298 4.00041
4.00040 31.56101 4.00040
4.00039 31.64904 4.00039
4.00037 31.73709 4.00037
4.00036 31.82515 4.00036
4.00035 31.91321 4.00035
4.00034 32.00129 4.00034
4.00033 32.08938 4.00033
4.00032 32.17748 4.00032
4.00031 32.26559 4.00031
4.00030 32.35370 4.00030
4.00029 32.44183 4.00029
4.00028 32.52997 4.00028
4.00027 32.61813 4.00027
4.00026 32.70628 4.00026
4.00025 32.79445 4.00025
4.00025 32.88263 4.00025
4.00024 32.97082 4.00024

Angle 0.308130 0.516570

4.00000 7.03348 4.00000
4.00000 7.03348 4.00000
4.00000 7.03348 4.00000
4.00000 7.03348 4.00000
4.00000 7.03348 4.00000
4.00000 7.03348 4.00000
4.00000 7.03348 4.00000
4.00000 7.03348 4.00000
4.00000 7.03348 4.00000
4.00000 7.03348 4.00000
4.00000 7.03348 4.00000
4.00000 7.03348 4.00000
4.00000 7.03348 4.00000
4.00000 7.03348 4.00000
4.00000 7.03348 4.00000
4.00000 7.03348 4.00000
4.00000 7.03348 4.00000
4.00000 7.03348 4.00000
4.00000 7.03348 4.00000
4.00000 7.03349 4.00000
4.00000 7.03348 4.00000
4.00000 7.03350 4.00000
4.00000 7.03362 4.00001
4.00089 7.06381 4.00089
4.00321 7.14442 4.00321
4.00548 7.22520 4.00548
4.00771 7.30613 4.00771
4.00991 7.38717 4.00991
4.01208 7.46831 4.01208
4.01425 7.54953 4.01425
4.01641 7.63081 4.01642
4.01859 7.71212 4.01859
4.02080 7.79343 4.02079
4.02303 7.87473 4.02303
4.02532 7.95598 4.02532
4.02768 8.03714 4.02768
4.03012 8.11819 4.03012
4.03267 8.19907 4.03267
4.03536 8.27973 4.03536
4.03821 8.36010 4.03821
4.04127 8.44010 4.04127
4.04459 8.51963 4.04459
4.04824 8.59855 4.04824
4.05230 8.67669 4.05230
4.05679 8.75403 4.05679
4.06169 8.83058 4.06169
4.06703 8.90629 4.06703
4.07285 8.98109 4.07285
4.07917 9.05494 4.07917
4.08600 9.12781 4.08600
4.09334 9.19969 4.09334
4.10117 9.27064 4.10117
4.10945 9.34072 4.10945
4.11810 9.41011 4.11810
4.12701 9.47903 4.12701
4.13600 9.54781 4.13600
4.14485 9.61689 4.14485
4.15329 9.68686 4.15329
4.16094 9.75843 4.16094
4.16737 9.83247 4.16738
4.17209 9.90998 4.17209
4.17459 9.99197 4.17459
4.17448 10.07919 4.17448
4.17257 10.17007 4.17257
4.17000 10.26228 4.17000
4.16683 10.35575 4.16683
4.16306 10.45044 4.16306
4.15870 10.54635 4.15870
4.15371 10.64353 4.15371
4.14805 10.74208 4.14805
4.14166 10.84214 4.14166
4.13443 10.94391 4.13443
4.12621 11.04769 4.12621
4.11678 11.15392 4.11678
4.10580 11.26327 4.10580
4.09275 11.37680 4.09275
4.07675 11.49624 4.07675
4.05658 11.62406 4.05658
4.02951 11.76570 4.02951
4.00000 13.19120 4.00000
4.00000 13.19120 4.00000
4.00000 13.19120 4.00000
4.00000 13.19120 4.00000
4.00000 13.19120 4.00000
4.00000 13.19120 4.00000
4.00000 13.19120 4.00000
4.00000 13.19120 4.00000
4.00000 13.19120 4.00000
4.00000 13.19120 4.00000
4.00000 13.19121 4.00000
4.00000 13.19120 4.00000
4.00000 13.19120 4.00000
4.00000 13.19121 4.00000
4.00000 13.19121 4.00000
4.00491 13.21849 4.00491
4.01511 13.28602 4.01511
4.02330 13.35759 4.02330
4.02953 13.43310 4.02953
4.03386 13.51244 4.03386
4.03639 13.59538 4.03639
4.03795 13.68029 4.03795
4.03946 13.76532 4.03946
4.04094 13.85044 4.04094
4.04238 13.93565 4.04238
4.04380 14.02094 4.04380
4.04518 14.10630 4.04518
4.04655 14.19172 4.04655
4.04790 14.27720 4.04790
4.04923 14.36273 4.04923
4.05054 14.44832 4.05054
4.05184 14.53395 4.05184
4.05312 14.61962 4.05313
4.05440 14.70534 4.05440
4.05567 14.79109 4.05567
4.05693 14.87687 4.05693
4.05818 14.96269 4.05818
4.05942 15.04854 4.05942
4.06062 15.13449 4.06062
4.06162 15.22087 4.06162
4.06241 15.30767 4.06241
4.06301 15.39487 4.06301
4.06343 15.48246 4.06343
4.06368 15.57040 4.06368
4.06377 15.65866 4.06377
4.06372 15.74722 4.06372
4.06354 15.83607 4.06354
4.06324 15.92517 4.06324
4.06283 16.01450 4.06283
4.06232 16.10405 4.06232
4.06173 16.19379 4.06173
4.06105 16.28370 4.06105
4.06030 16.37377 4.06030
4.05949 16.46398 4.05949
4.05863 16.55431 4.05863
4.05772 16.64474 4.05772
4.05677 16.73528 4.05677
4.05578 16.82589 4.05578
4.05477 16.91658 4.05477
4.05373 17.00733 4.05373
4.05267 17.09812 4.05267
4.05160 17.18896 4.05160
4.05052 17.27983 4.05052
4.04944 17.37073 4.04944
4.04835 17.46165 4.04835
4.04726 17.55258 4.04726
4.04617 17.64352 4.04617
4.04508 17.73447 4.04508
4.04401 17.82541 4.04401
4.04294 17.91635 4.04294
4.04188 18.00728 4.04188
4.04083 18.09819 4.04083
4.03980 18.18910 4.03980
4.03878 18.27998 4.03878
4.03778 18.37085 4.03778
4.03679 18.46170 4.03679
4.03582 18.55253 4.03582
4.03486 18.64333 4.03486
4.03392 18.73411 4.03392
4.03300 18.82487 4.03300
4.03210 18.91559 4.03210
4.03122 19.00630 4.03122
4.03036 19.09697 4.03036
4.02951 19.18762 4.02951
4.02869 19.27824 4.02869
4.02788 19.36884 4.02788
4.02709 19.45941 4.02709
4.02632 19.54995 4.02632
4.02557 19.64046 4.02557
4.02483 19.73095 4.02483
4.02412 19.82141 4.02412
4.02342 19.91185 4.02342
4.02274 20.00226 4.02274
4.02208 20.09264 4.02208
4.02144 20.18300 4.02144
4.02081 20.27333 4.02081
4.02020 20.36365 4.02020
4.01960 20.45393 4.01960
4.01902 20.54420 4.01902
4.01846 20.63444 4.01846
4.01791 20.72466 4.01791
4.01738 20.81486 4.01738
4.01686 20.90504 4.01686
4.01635 20.99520 4.01636
4.01586 21.08534 4.01587
4.01539 21.17546 4.01539
4.01493 21.26557 4.01493
4.01448 21.35565 4.01448
4.01404 21.44572 4.01404
4.01362 21.53577 4.01362
4.01320 21.62580 4.01320
4.01280 21.71582 4.01280
4.01242 21.80583 4.01242
4.01204 21.89582 4.01204
4.01167 21.98579 4.01167
4.01132 22.07576 4.01132
4.01097 22.16570 4.01097
4.01064 22.25564 4.01064
4.01031 22.34557 4.01031
4.01000 22.43548 4.01000
4.00969 22.52538 4.00969
4.00939 22.61527 4.00939
4.00910 22.70515 4.00910
4.00882 22.79502 4.00882
4.00855 22.88488 4.00855
4.00829 22.97474 4.00829
4.00803 23.06458 4.00803
4.00779 23.15442 4.00779
4.00755 23.24424 4.00755
4.00731 23.33406 4.00731
4.00709 23.42388 4.00709
4.00687 23.51368 4.00687
4.00666 23.60348 4.00666
4.00645 23.69328 4.00645
4.00625 23.78306 4.00625
4.00606 23.87285 4.00606
4.00587 23.96262 4.00587
4.00569 24.05239 4.00569
4.00551 24.14216 4.00551
4.00534 24.23193 4.00534
4.00517 24.32168 4.00517
4.00501 24.41144 4.00501
4.00486 24.50119 4.00486
4.00471 24.59094 4.00471
4.00456 24.68068 4.00456
4.00442 24.77043 4.00442
4.00428 24.86016 4.00428
4.00415 24.94990 4.00415
4.00402 25.03964 4.00402
4.00389 25.12937 4.00389
4.00377 25.21910 4.00377
4.00365 25.30883 4.00365
4.00354 25.39856 4.00354
4.00343 25.48828 4.00343
4.00332 25.57801 4.00332
4.00322 25.66773 4.00322
4.00312 25.75745 4.00312
4.00302 25.84718 4.00302
4.00293 25.93690 4.00293
4.00283 26.02662 4.00283
4.00275 26.11634 4.00275
4.00266 26.20606 4.00266
4.00258 26.29578 4.00258
4.00250 26.38550 4.00250
4.00242 26.47523 4.00242
4.00234 26.56495 4.00234
4.00227 26.65467 4.00227
4.00220 26.74439 4.00220
4.00213 26.83412 4.00213
4.00206 26.92384 4.00206
4.00200 27.01357 4.00200
4.00193 27.10329 4.00193
4.00187 27.19302 4.00187
4.00182 27.28275 4.00182
4.00176 27.37247 4.00176
4.00170 27.46220 4.00170
4.00165 27.55194 4.00165
4.00160 27.64167 4.00160
4.00155 27.73140 4.00155
4.00150 27.82114 4.00150
4.00145 27.91088 4.00145
4.00141 28.00062 4.00141
4.00136 28.09036 4.00136
4.00132 28.18010 4.00132
4.00128 28.26985 4.00128
4.00124 28.35959 4.00124
4.00120 28.44934 4.00120
4.00116 28.53909 4.00116
4.00112 28.62884 4.00112
4.00109 28.71860 4.00109
4.00106 28.80835 4.00106
4.00102 28.89811 4.00102
4.00099 28.98787 4.00099
4.00096 29.07764 4.00096
4.00093 29.16740 4.00093
4.00090 29.25717 4.00090
4.00087 29.34694 4.00087
4.00084 29.43671 4.00084
4.00082 29.52649 4.00082
4.00079 29.61626 4.00079
4.00077 29.70604 4.00077
4.00074 29.79582 4.00074
4.00072 29.88561 4.00072
4.00070 29.97539 4.00070
4.00067 30.06518 4.00067
4.00065 30.15497 4.00065
4.00063 30.24477 4.00063
4.00061 30.33457 4.00061
4.00059 30.42436 4.00059
4.00057 30.51417 4.00057
4.00056 30.60397 4.00056
4.00054 30.69377 4.00054
4.00052 30.78358 4.00052
4.00051 30.87340 4.00051
4.00049 30.96321 4.00049
4.00047 31.05303 4.00047
4.00046 31.14285 4.00046
4.00044 31.23267 4.00045
4.00043 31.32249 4.00043
4.00042 31.41232 4.00042
4.00040 31.50215 4.00040
4.00039 31.59198 4.00039
4.00038 31.68182 4.00038
4.00037 31.77166 4.00037
4.00036 31.86150 4.00036
4.00034 31.95134 4.00034
4.00033 32.04119 4.00033
4.00032 32.13103 4.00032
4.00031 32.22089 4.00031
4.00030 32.31074 4.00030
4.00029 32.40060 4.00029
4.00028 32.49045 4.00028
4.00028 32.58032 4.00028
4.00027 32.67018 4.00027
4.00026 32.76005 4.00026
4.00025 32.84992 4.00025
4.00024 32.93979 4.00024
4.00023 33.02966 4.00023
4.00023 33.11954 4.00023
4.00022 33.20942 4.00022
4.00021 33.29930 4.00021
4.00021 33.38919 4.00021
4.00020 33.47907 4.00020
4.00019 33.56896 4.00019
4.00019 33.65886 4.00019
4.00018 33.74875 4.00018
4.00018 33.83865 4.00018
4.00017 33.92855 4.00017
4.00016 34.01845 4.00016
4.00016 34.10836 4.00016
4.00015 34.19827 4.00015
4.00015 34.28818 4.00015
4.00014 34.37809 4.00014
4.00014 34.46801 4.00014
4.00014 34.55792 4.00014
4.00013 34.64784 4.00013
4.00013 34.73777 4.00013
4.00012 34.82769 4.00012
4.00012 34.91762 4.00012
4.00012 35.00755 4.00012
4.00011 35.09748 4.00011
4.00011 35.18742 4.00011
4.00011 35.27736 4.00011
4.00010 35.36730 4.00010
4.00010 35.45724 4.00010
4.00010 35.54718 4.00010
4.00009 35.63713 4.00009
4.00009 35.72708 4.00009
4.00009 35.81703 4.00009
4.00008 35.90699 4.00008
4.00008 35.99694 4.00008
4.00008 36.08690 4.00008
4.00008 36.17686 4.00008
4.00007 36.26683 4.00007
4.00007 36.35679 4.00007
4.00007 36.44676 4.00007
4.00007 36.53673 4.00007
4.00006 36.62670 4.00006
4.00006 36.71668 4.00006
4.00006 36.80666 4.00006
4.00006 36.89664 4.00006
4.00006 36.98662 4.00006
4.00006 37.07660 4.00006
4.00005 37.16659 4.00005
4.00005 37.25658 4.00005
4.00005 37.34656 4.00005
4.00005 37.43656 4.00005
4.00005 37.52655 4.00005
4.00005 37.61655 4.00005
4.00004 37.70655 4.00004
4.00004 37.79655 4.00004
4.00004 37.88655 4.00004
4.00004 37.97656 4.00004
4.00004 38.06657 4.00004
4.00004 38.15658 4.00004
4.00004 38.24659 4.00004
4.00004 38.33660 4.00004
4.00003 38.42662 4.00003
4.00003 38.51664 4.00003
4.00003 38.60666 4.00003
4.00003 38.69668 4.00003
4.00003 38.78670 4.00003
4.00003 38.87673 4.00003
4.00003 38.96676 4.00003
4.00003 39.05679 4.00003
4.00003 39.14682 4.00003
4.00003 39.23685 4.00003
4.00002 39.32689 4.00002
4.00002 39.41693 4.00002
4.00002 39.50697 4.00002
4.00002 39.59701 4.00002
4.00002 39.68706 4.00002
4.00002 39.77711 4.00002
4.00002 39.86715 4.00002
4.00002 39.95720 4.00002
4.00002 40.04725 4.00002
4.00002 40.13730 4.00002
4.00002 40.22736 4.00002
4.00002 40.31742 4.00002
4.00002 40.40748 4.00002
4.00002 40.49754 4.00002

Angle 0.065196 3.570796

4.00000 7.03348 4.00000
4.00000 7.03348 4.00000
4.00000 7.03348 4.00000
4.00000 7.03348 4.00000
4.00000 7.03348 4.00000
4.00000 7.03348 4.00000
4.00000 7.03348 4.00000
4.00000 7.03348 4.00000
4.00000 7.03348 4.00000
4.00000 7.03348 4.00000
4.00000 7.03348 4.00000
4.00000 7.03348 4.00000
4.00000 7.03348 4.00000
4.00000 7.03348 4.00000
4.00000 7.03348 4.00000
4.00000 7.03348 4.00000
4.00000 7.03348 4.00000
4.00000 7.03348 4.00000
4.00000 7.03348 4.00000
4.00000 7.03348 4.00000
4.00000 7.03348 4.00000
4.00000 7.03348 4.00000
4.00000 7.03348 4.00000
4.00000 7.03348 4.00000
4.00000 7.03348 4.00000
4.00000 7.03348 4.00000
4.00000 7.03348 4.00000
4.00000 7.03348 4.00000
4.00000 7.03348 4.00000
4.00000 7.03348 4.00000
4.00000 7.03348 4.00000
4.00000 7.03348 4.00000
4.00000 7.03348 4.00000
4.00000 7.03348 4.00000
4.00000 7.03348 4.00000
4.00000 7.03348 4.00000
4.00000 7.03348 4.00000
4.00000 7.03348 4.00000
4.00000 7.03348 4.00000
4.00000 7.03348 4.00000
4.00000 7.03348 4.00000
4.00000 7.03348 4.00000
4.00000 7.03348 4.00000
4.00000 7.03348 4.00000
4.00000 7.03348 4.00000
4.00000 7.03348 4.00000
4.00000 7.03348 4.00000
4.00000 7.03348 4.00000
4.00000 7.03348 4.00000
4.00000 7.03348 4.00000
4.00000 7.03348 4.00000
4.00000 7.03348 4.00000
4.00000 7.03348 4.00000
4.00000 7.03348 4.00000
4.00000 7.03348 4.00000
4.00000 7.03348 4.00000
4.00000 7.03348 4.00000
4.00000 7.03348 4.00000
4.00000 7.03348 4.00000
4.00000 7.03348 4.00000
4.00000 7.03348 4.00000
4.00000 7.03348 4.00000
4.00000 7.03348 4.00000
4.00000 7.03348 4.00000
4.00000 7.03348 4.00000
4.00000 7.03348 4.00000
4.00000 7.03348 4.00000
4.00000 7.03348 4.00000
4.00000 7.03348 4.00000
4.00000 7.03348 4.00000
4.00000 7.03348 4.00000
4.00000 7.03348 4.00000
4.00000 7.03348 4.00000
4.00000 7.03348 4.00000
4.00000 7.03348 4.00000
4.00000 7.03348 4.00000
4.00000 7.03348 4.00000
4.00000 7.03348 4.00000
4.00000 7.03348 4.00000
4.00000 7.03348 4.00000
4.00000 7.03348 4.00000
4.00000 7.03348 4.00000
4.00000 7.03348 4.00000
4.00000 7.03348 4.00000
4.00000 7.03348 4.00000
4.00000 7.03348 4.00000
4.00000 7.03348 4.00000
4.00000 7.03348 4.00000
4.00000 7.03348 4.00000
4.00000 7.03348 4.00000
4.00000 7.03348 4.00000
4.00000 7.03348 4.00000
4.00000 7.03348 4.00000
4.00000 7.03348 4.00000
4.00000 7.03348 4.00000
4.00000 7.03348 4.00000
4.00000 7.03348 4.00000
4.00000 7.03348 4.00000
4.00000 7.03348 4.00000
4.00000 7.03348 4.00000
4.00000 7.03348 4.00000
4.00000 7.03348 4.00000
4.00000 7.03348 4.00000
4.00000 7.03348 4.00000
4.00000 7.03348 4.00000
4.00000 7.03348 4.00000
4.00000 7.03348 4.00000
4.00000 7.03348 4.00000
4.00000 7.03348 4.00000
4.00000 7.03348 4.00000
4.00000 7.03348 4.00000
4.00000 7.03348 4.00000
4.00000 7.03348 4.00000
4.00000 7.03348 4.00000
4.00000 7.03348 4.00000
4.00000 7.03348 4.00000
4.00000 7.03348 4.00000
4.00000 7.03348 4.00000
4.00000 7.03348 4.00000
4.00000 7.03348 4.00000
4.00000 7.03348 4.00000
4.00000 7.03348 4.00000
4.00000 7.03348 4.00000
4.00000 7.03348 4.00000
4.00000 7.03348 4.00000
4.00000 7.03348 4.00000
4.00000 7.03348 4.00000
4.00000 7.03348 4.00000
4.00000 7.03348 4.00000
4.00000 7.03348 4.00000
4.00000 7.03348 4.00000
4.00000 7.03348 4.00000
4.00000 7.03348 4.00000
4.00000 7.03348 4.00000
4.00000 7.03348 4.00000
4.00000 7.03348 4.00000
4.00000 7.03348 4.00000
4.00000 7.03348 4.00000
4.00000 7.03348 4.00000
4.00000 7.03348 4.00000
4.00000 7.03348 4.00000
4.00000 7.03348 4.00000
4.00000 7.03348 4.00000
4.00000 7.03348 4.00000
4.00000 7.03348 4.00000
4.00000 7.03348 4.00000
4.00000 7.03348 4.00000
4.00000 7.03348 4.00000
4.00000 7.03348 4.00000
4.00000 7.03348 4.00000
4.00000 7.03348 4.00000
4.00000 7.03348 4.00000
4.00000 7.03348 4.00000
4.00000 7.03348 4.00000
4.00000 7.03348 4.00000
4.00000 7.03348 4.00000
4.00000 7.03348 4.00000
4.00000 7.03348 4.00000
4.00000 7.03348 4.00000
4.00000 7.03348 4.00000
4.00000 7.03348 4.00000
4.00000 7.03348 4.00000
4.00000 7.03348 4.00000
4.00000 7.03348 4.00000
4.00000 7.03348 4.00000
4.00000 7.03348 4.00000
4.00000 7.03348 4.00000
4.00000 7.03348 4.00000
4.00000 7.03348 4.00000
4.00000 7.03348 4.00000
4.00000 7.03348 4.00000
4.00000 7.03348 4.00000
4.00000 7.03348 4.00000
4.00000 7.03348 4.00000
4.00000 7.03348 4.00000
4.00000 7.03348 4.00000
4.00000 7.03348 4.00000
4.00000 7.03348 4.00000
4.00000 7.03348 4.00000
4.00000 7.03348 4.00000
4.00000 7.03348 4.00000
4.00000 7.03348 4.00000
4.00000 7.03348 4.00000
4.00000 7.03348 4.00000
4.00000 7.03348 4.00000
4.00000 7.03348 4.00000
4.00000 7.03348 4.00000
4.00000 7.03348 4.00000
4.00000 7.03348 4.00000
4.00000 7.03348 4.00000
4.00000 7.03348 4.00000
4.00000 7.03348 4.00000
4.00000 7.03348 4.00000
4.00000 7.03348 4.00000
4.00000 7.03348 4.00000
4.00000 7.03348 4.00000
4.00000 7.03348 4.00000
4.00000 7.03348 4.00000
4.00000 7.03348 4.00000
4.00000 7.03348 4.00000
4.00000 7.03348 4.00000
4.00000 7.03348 4.00000
4.00000 7.03350 4.00000
4.00000 7.03348 4.00000
4.00000 7.03348 4.00000
4.00000 7.03348 4.00000
4.00000 7.03350 4.00000
4.00000 7.03349 4.00000
4.00082 7.06138 4.00082
4.00305 7.13894 4.00306
4.00524 7.21669 4.00524
4.00739 7.29461 4.00739
4.00951 7.37268 4.00951
4.01162 7.45089 4.01162
4.01371 7.52921 4.01371
4.01580 7.60762 4.01580
4.01789 7.68610 4.01789
4.02001 7.76462 4.02001
4.02216 7.84317 4.02216
4.02435 7.92172 4.02435
4.02660 8.00024 4.02660
4.02892 8.07870 4.02892
4.03133 8.15705 4.03133
4.03386 8.23525 4.03386
4.03652 8.31325 4.03652
4.03936 8.39098 4.03936
4.04241 8.46835 4.04241
4.04573 8.54527 4.04573
4.04939 8.62160 4.04939
4.05345 8.69717 4.05345
4.05790 8.77204 4.05790
4.06275 8.84619 4.06275
4.06803 8.91954 4.06803
4.07376 8.99206 4.07376
4.07996 9.06370 4.07996
4.08665 9.13443 4.08665
4.09383 9.20425 4.09383
4.10147 9.27321 4.10147
4.10953 9.34138 4.10953
4.11795 9.40891 4.11795
4.12661 9.47601 4.12661
4.13537 9.54299 4.13537
4.14402 9.61023 4.14402
4.15230 9.67828 4.15230
4.15988 9.74777 4.15988
4.16638 9.81950 4.16638
4.17132 9.89438 4.17132
4.17425 9.97335 4.17425
4.17476 10.05721 4.17476
4.17315 10.14537 4.17315
4.17082 10.23502 4.17082
4.16790 10.32591 4.16790
4.16441 10.41798 4.16441
4.16036 10.51124 4.16036
4.15572 10.60572 4.15572
4.15046 10.70149 4.15046
4.14453 10.79865 4.14453
4.13784 10.89737 4.13784
4.13027 10.99790 4.13027
4.12165 11.10057 4.12165
4.11173 11.20589 4.11173
4.10012 11.31464 4.10012
4.08618 11.42810 4.08618
4.06898 11.54812 4.06898
4.04696 11.67782 4.04696
4.01638 11.82469 4.01638
4.00000 13.19120 4.00000
4.00000 13.19120 4.00000
4.00000 13.19120 4.00000
4.00000 13.19120 4.00000
4.00000 13.19120 4.00000
4.00000 13.19120 4.00000
4.00000 13.19120 4.00000
4.00000 13.19120 4.00000
4.00000 13.19120 4.00000
4.00000 13.19120 4.00000
4.00000 13.19120 4.00000
4.00000 13.19120 4.00000
4.00000 13.19120 4.00000
4.00000 13.19120 4.00000
4.00000 13.19120 4.00000
4.00567 13.22293 4.00567
4.01557 13.28950 4.01557
4.02353 13.35997 4.02353
4.02960 13.43427 4.02960
4.03385 13.51225 4.03385
4.03636 13.59374 4.03636
4.03789 13.67720 4.03789
4.03938 13.76079 4.03938
4.04084 13.84449 4.04084
4.04226 13.92828 4.04226
4.04365 14.01216 4.04365
4.04502 14.09612 4.04502
4.04637 14.18015 4.04637
4.04769 14.26426 4.04769
4.04900 14.34842 4.04900
4.05030 14.43265 4.05030
4.05158 14.51694 4.05158
4.05285 14.60127 4.05285
4.05411 14.68566 4.05411
4.05536 14.77009 4.05536
4.05660 14.85457 4.05660
4.05783 14.93909 4.05783
4.05906 15.02366 4.05906
4.06027 15.10828 4.06027
4.06132 15.19325 4.06132
4.06217 15.27865 4.06217
4.06282 15.36447 4.06282
4.06330 15.45067 4.06330
4.06360 15.53723 4.06360
4.06375 15.62413 4.06375
4.06376 15.71134 4.06376
4.06363 15.79884 4.06363
4.06338 15.88661 4.06338
4.06303 15.97463 4.06303
4.06257 16.06287 4.06257
4.06202 16.15131 4.06202
4.06139 16.23995 4.06139
4.06068 16.32875 4.06068
4.05992 16.41770 4.05992
4.05909 16.50679 4.05909
4.05821 16.59600 4.05821
4.05730 16.68532 4.05730
4.05634 16.77473 4.05634
4.05536 16.86423 4.05536
4.05435 16.95380 4.05435
4.05331 17.04344 4.05331
4.05226 17.13313 4.05226
4.05120 17.22286 4.05120
4.05013 17.31263 4.05013
4.04906 17.40244 4.04906
4.04798 17.49227 4.04798
4.04690 17.58211 4.04690
4.04583 17.67198 4.04583
4.04476 17.76185 4.04476
4.04370 17.85172 4.04370
4.04264 17.94160 4.04264
4.04160 18.03148 4.04160
4.04057 18.12135 4.04057
4.03955 18.21122 4.03955
4.03855 18.30107 4.03855
4.03756 18.39092 4.03756
4.03658 18.48075 4.03658
4.03562 18.57057 4.03562
4.03468 18.66037 4.03468
4.03376 18.75015 4.03376
4.03285 18.83992 4.03285
4.03197 18.92967 4.03197
4.03110 19.01939 4.03110
4.03024 19.10910 4.03024
4.02941 19.19879 4.02941
4.02859 19.28846 4.02859
4.02780 19.37811 4.02780
4.02702 19.46774 4.02702
4.02626 19.55735 4.02626
4.02551 19.64694 4.02551
4.02479 19.73651 4.02479
4.02408 19.82605 4.02408
4.02339 19.91558 4.02339
4.02272 20.00509 4.02272
4.02207 20.09458 4.02207
4.02143 20.18406 4.02143
4.02081 20.27351 4.02081
4.02020 20.36295 4.02020
4.01961 20.45237 4.01961
4.01904 20.54177 4.01904
4.01848 20.63116 4.01848
4.01793 20.72053 4.01793
4.01741 20.80988 4.01741
4.01689 20.89922 4.01689
4.01639 20.98855 4.01639
4.01590 21.07786 4.01591
4.01543 21.16716 4.01543
4.01497 21.25645 4.01497
4.01453 21.34572 4.01453
4.01409 21.43498 4.01409
4.01367 21.52423 4.01367
4.01326 21.61347 4.01326
4.01286 21.70270 4.01286
4.01247 21.79192 4.01247
4.01210 21.88113 4.01210
4.01173 21.97033 4.01173
4.01138 22.05952 4.01138
4.01104 22.14870 4.01104
4.01070 22.23788 4.01070
4.01038 22.32704 4.01038
4.01006 22.41620 4.01006
4.00976 22.50536 4.00976
4.00946 22.59451 4.00946
4.00917 22.68365 4.00917
4.00889 22.77279 4.00889
4.00862 22.86192 4.00862
4.00836 22.95104 4.00836
4.00810 23.04017 4.00810
4.00786 23.12929 4.00786
4.00762 23.21840 4.00762
4.00738 23.30751 4.00738
4.00716 23.39662 4.00715
4.00694 23.48573 4.00694
4.00672 23.57483 4.00672

