Angle 0.382585 4.799779

4.00000 7.03348 4.00000
4.00000 7.03348 4.00000
4.00000 7.03348 4.00000
4.00000 7.03348 4.00000
4.00000 7.03348 4.00000
4.00000 7.03348 4.00000
4.00000 7.03348 4.00000
4.00000 7.03348 4.00000
4.00000 7.03348 4.00000
4.00000 7.03348 4.00000
4.00000 7.03348 4.00000
4.00000 7.03348 4.00000
4.00000 7.03348 4.00000
4.00000 7.03348 4.00000
4.00000 7.03348 4.00000
4.00000 7.03348 4.00000
4.00000 7.03348 4.00000
4.00000 7.03348 4.00000
4.00000 7.03348 4.00000
4.00000 7.03348 4.00000
4.00000 7.03348 4.00000
4.00000 7.03348 4.00000
4.00000 7.03348 4.00000
4.00000 7.03348 4.00000
4.00000 7.03348 4.00000
4.00000 7.03348 4.00000
4.00000 7.03348 4.00000
4.00000 7.03348 4.00000
4.00000 7.03348 4.00000
4.00000 7.03348 4.00000
4.00000 7.03348 4.00000
4.00000 7.03348 4.00000
4.00000 7.03348 4.00000
4.00000 7.03348 4.00000
4.00000 7.03348 4.00000
4.00000 7.03348 4.00000
4.00000 7.03348 4.00000
4.00000 7.03348 4.00000
4.00000 7.03348 4.00000
4.00000 7.03348 4.00000
4.00000 7.03348 4.00000
4.00000 7.03348 4.00000
4.00000 7.03348 4.00000
4.00000 7.03348 4.00000
4.00000 7.03348 4.00000
4.00000 7.03348 4.00000
4.00000 7.03348 4.00000
4.00000 7.03348 4.00000
4.00000 7.03348 4.00000
4.00000 7.03348 4.00000
4.00000 7.03348 4.00000
4.00000 7.03348 4.00000
4.00000 7.03348 4.00000
4.00000 7.03348 4.00000
4.00000 7.03348 4.00000
4.00000 7.03348 4.00000
4.00000 7.03348 4.00000
4.00000 7.03348 4.00000
4.00000 7.03348 4.00000
4.00000 7.03348 4.00000
4.00000 7.03348 4.00000
4.00000 7.03348 4.00000
4.00000 7.03348 4.00000
4.00000 7.03348 4.00000
4.00000 7.03348 4.00000
4.00000 7.03348 4.00000
4.00000 7.03348 4.00000
4.00000 7.03348 4.00000
4.00000 7.03348 4.00000
4.00000 7.03348 4.00000
4.00000 7.03348 4.00000
4.00000 7.03348 4.00000
4.00000 7.03348 4.00000
4.00000 7.03348 4.00000
4.00000 7.03348 4.00000
4.00000 7.03348 4.00000
4.00000 7.03348 4.00000
4.00000 7.03348 4.00000
4.00000 7.03348 4.00000
4.00000 7.03348 4.00000
4.00000 7.03348 4.00000
4.00000 7.03348 4.00000
4.00000 7.03348 4.00000
4.00000 7.03348 4.00000
4.00000 7.03348 4.00000
4.00000 7.03348 4.00000
4.00000 7.03348 4.00000
4.00000 7.03348 4.00000
4.00000 7.03348 4.00000
4.00000 7.03348 4.00000
4.00000 7.03348 4.00000
4.00000 7.03348 4.00000
4.00000 7.03348 4.00000
4.00000 7.03348 4.00000
4.00000 7.03348 4.00000
4.00000 7.03348 4.00000
4.00000 7.03348 4.00000
4.00000 7.03348 4.00000
4.00000 7.03348 4.00000
4.00000 7.03348 4.00000
4.00000 7.03348 4.00000
4.00000 7.03348 4.00000
4.00000 7.03348 4.00000
4.00000 7.03348 4.00000
4.00000 7.03348 4.00000
4.00000 7.03348 4.00000
4.00000 7.03348 4.00000
4.00000 7.03348 4.00000
4.00000 7.03348 4.00000
4.00000 7.03348 4.00000
4.00000 7.03348 4.00000
4.00000 7.03348 4.00000
4.00000 7.03348 4.00000
4.00000 7.03348 4.00000
4.00000 7.03348 4.00000
4.00000 7.03348 4.00000
4.00000 7.03348 4.00000
4.00000 7.03348 4.00000
4.00000 7.03348 4.00000
4.00000 7.03348 4.00000
4.00000 7.03348 4.00000
4.00000 7.03348 4.00000
4.00000 7.03348 4.00000
4.00000 7.03348 4.00000
4.00000 7.03348 4.00000
4.00000 7.03348 4.00000
4.00000 7.03348 4.00000
4.00000 7.03348 4.00000
4.00000 7.03348 4.00000
4.00000 7.03348 4.00000
4.00000 7.03348 4.00000
4.00000 7.03348 4.00000
4.00000 7.03348 4.00000
4.00000 7.03348 4.00000
4.00000 7.03348 4.00000
4.00000 7.03348 4.00000
4.00000 7.03348 4.00000
4.00000 7.03348 4.00000
4.00000 7.03348 4.00000
4.00000 7.03348 4.00000
4.00000 7.03348 4.00000
4.00000 7.03348 4.00000
4.00000 7.03348 4.00000
4.00000 7.03348 4.00000
4.00000 7.03348 4.00000
4.00000 7.03348 4.00000
4.00000 7.03348 4.00000
4.00000 7.03348 4.00000
4.00000 7.03348 4.00000
4.00000 7.03348 4.00000
4.00000 7.03348 4.00000
4.00000 7.03348 4.00000
4.00000 7.03348 4.00000
4.00000 7.03348 4.00000
4.00000 7.03348 4.00000
4.00000 7.03348 4.00000
4.00000 7.03348 4.00000
4.00000 7.03348 4.00000
4.00000 7.03348 4.00000
4.00000 7.03348 4.00000
4.00000 7.03348 4.00000
4.00000 7.03348 4.00000
4.00000 7.03348 4.00000
4.00000 7.03348 4.00000
4.00000 7.03348 4.00000
4.00000 7.03348 4.00000
4.00000 7.03348 4.00000
4.00000 7.03348 4.00000
4.00000 7.03348 4.00000
4.00000 7.03348 4.00000
4.00000 7.03348 4.00000
4.00000 7.03348 4.00000
4.00000 7.03348 4.00000
4.00000 7.03348 4.00000
4.00000 7.03348 4.00000
4.00000 7.03348 4.00000
4.00000 7.03348 4.00000
4.00000 7.03348 4.00000
4.00000 7.03348 4.00000
4.00000 7.03348 4.00000
4.00000 7.03348 4.00000
4.00000 7.03348 4.00000
4.00000 7.03348 4.00000
4.00000 7.03348 4.00000
4.00000 7.03348 4.00000
4.00000 7.03348 4.00000
4.00000 7.03348 4.00000
4.00000 7.03348 4.00000
4.00000 7.03348 4.00000
4.00000 7.03348 4.00000
4.00000 7.03348 4.00000
4.00000 7.03348 4.00000
4.00000 7.03348 4.00000
4.00000 7.03348 4.00000
4.00000 7.03349 4.00000
4.00000 7.03348 4.00000
4.00000 7.03348 4.00000
4.00000 7.03348 4.00000
4.00000 7.03348 4.00000
4.00000 7.03348 4.00000
4.00000 7.03350 4.00000
4.00000 7.03348 4.00000
4.00146 7.08340 4.00146
4.00334 7.14898 4.00334
4.00519 7.21483 4.00519
4.00702 7.28095 4.00702
4.00883 7.34733 4.00883
4.01062 7.41394 4.01063
4.01241 7.48078 4.01241
4.01420 7.54783 4.01420
4.01600 7.61508 4.01600
4.01780 7.68251 4.01780
4.01962 7.75011 4.01962
4.02146 7.81785 4.02146
4.02334 7.88572 4.02334
4.02526 7.95370 4.02526
4.02723 8.02177 4.02723
4.02926 8.08991 4.02926
4.03136 8.15807 4.03136
4.03356 8.22624 4.03356
4.03586 8.29438 4.03586
4.03829 8.36243 4.03829
4.04088 8.43034 4.04088
4.04366 8.49806 4.04366
4.04666 8.56548 4.04666
4.04994 8.63252 4.04994
4.05356 8.69906 4.05356
4.05747 8.76516 4.05747
4.06170 8.83079 4.06170
4.06627 8.89591 4.06627
4.07119 8.96047 4.07119
4.07649 9.02444 4.07649
4.08217 9.08779 4.08217
4.08825 9.15051 4.08825
4.09472 9.21259 4.09472
4.10157 9.27406 4.10157
4.10876 9.33499 4.10876
4.11624 9.39547 4.11624
4.12396 9.45563 4.12396
4.13180 9.51569 4.13180
4.13964 9.57589 4.13964
4.14730 9.63657 4.14730
4.15458 9.69816 4.15458
4.16121 9.76117 4.16121
4.16690 9.82620 4.16690
4.17130 9.89394 4.17130
4.17406 9.96509 4.17406
4.17487 10.04026 4.17487
4.17372 10.11948 4.17372
4.17179 10.20037 4.17179
4.16937 10.28237 4.16937
4.16647 10.36546 4.16647
4.16310 10.44961 4.16310
4.15925 10.53482 4.15925
4.15491 10.62114 4.15491
4.15004 10.70861 4.15004
4.14461 10.79734 4.14461
4.13854 10.88746 4.13854
4.13174 10.97913 4.13174
4.12409 11.07263 4.12409
4.11541 11.16829 4.11541
4.10544 11.26664 4.10544
4.09377 11.36850 4.09377
4.07976 11.47511 4.07976
4.06260 11.58815 4.06260
4.04068 11.71082 4.04068
4.01015 11.85079 4.01015
4.00000 13.19120 4.00000
4.00000 13.19120 4.00000
4.00000 13.19120 4.00000
4.00000 13.19120 4.00000
4.00000 13.19120 4.00000
4.00000 13.19120 4.00000
4.00000 13.19120 4.00000
4.00000 13.19120 4.00000
4.00000 13.19120 4.00000
4.00000 13.19120 4.00000
4.00000 13.19120 4.00000
4.00000 13.19120 4.00000
4.00000 13.19120 4.00000
4.00000 13.19120 4.00000
4.00000 13.19120 4.00000
4.00000 13.19120 4.00000
4.00474 13.21747 4.00474
4.01419 13.27910 4.01419
4.02195 13.34419 4.02195
4.02806 13.41267 4.02806
4.03256 13.48444 4.03256
4.03552 13.55938 4.03551
4.03716 13.63701 4.03716
4.03858 13.71518 4.03858
4.03996 13.79349 4.03996
4.04131 13.87195 4.04131
4.04263 13.95052 4.04263
4.04393 14.02922 4.04393
4.04521 14.10802 4.04521
4.04647 14.18694 4.04647
4.04772 14.26595 4.04772
4.04895 14.34507 4.04895
4.05017 14.42428 4.05017
4.05138 14.50358 4.05138
4.05258 14.58296 4.05258
4.05376 14.66244 4.05376
4.05494 14.74199 4.05494
4.05612 14.82162 4.05612
4.05728 14.90134 4.05728
4.05844 14.98112 4.05844
4.05960 15.06098 4.05960
4.06070 15.14101 4.06070
4.06162 15.22146 4.06162
4.06237 15.30233 4.06237
4.06294 15.38359 4.06294
4.06336 15.46523 4.06336
4.06363 15.54723 4.06363
4.06376 15.62957 4.06376
4.06376 15.71222 4.06376
4.06364 15.79516 4.06364
4.06341 15.87838 4.06341
4.06309 15.96185 4.06309
4.06267 16.04557 4.06267
4.06216 16.12951 4.06216
4.06158 16.21365 4.06158
4.06094 16.29799 4.06094
4.06023 16.38250 4.06023
4.05946 16.46717 4.05946
4.05865 16.55199 4.05865
4.05780 16.63695 4.05780
4.05691 16.72203 4.05691
4.05599 16.80722 4.05599
4.05504 16.89252 4.05504
4.05407 16.97791 4.05407
4.05308 17.06339 4.05308
4.05208 17.14894 4.05208
4.05106 17.23457 4.05106
4.05004 17.32026 4.05004
4.04902 17.40600 4.04901
4.04798 17.49180 4.04799
4.04696 17.57765 4.04696
4.04593 17.66353 4.04593
4.04491 17.74945 4.04491
4.04389 17.83541 4.04389
4.04288 17.92140 4.04288
4.04188 18.00741 4.04188
4.04089 18.09344 4.04089
4.03991 18.17950 4.03991
4.03894 18.26557 4.03894
4.03799 18.35166 4.03799
4.03705 18.43777 4.03705
4.03612 18.52389 4.03612
4.03521 18.61002 4.03521
4.03431 18.69616 4.03431
4.03343 18.78231 4.03343
4.03257 18.86846 4.03257
4.03172 18.95463 4.03172
4.03089 19.04080 4.03089
4.03008 19.12698 4.03008
4.02928 19.21316 4.02928
4.02850 19.29934 4.02850
4.02773 19.38553 4.02773
4.02698 19.47173 4.02698
4.02625 19.55793 4.02625
4.02554 19.64413 4.02554
4.02484 19.73034 4.02484
4.02416 19.81655 4.02416
4.02349 19.90276 4.02349
4.02284 19.98898 4.02284
4.02221 20.07520 4.02221
4.02159 20.16143 4.02159
4.02098 20.24766 4.02098
4.02040 20.33389 4.02040
4.01982 20.42013 4.01982
4.01926 20.50637 4.01926
4.01872 20.59262 4.01872
4.01819 20.67887 4.01819
4.01767 20.76513 4.01767
4.01717 20.85140 4.01716
4.01667 20.93766 4.01667
4.01620 21.02394 4.01620
4.01573 21.11022 4.01573
4.01528 21.19651 4.01528
4.01484 21.28280 4.01484
4.01441 21.36910 4.01441
4.01399 21.45541 4.01399
4.01359 21.54173 4.01359
4.01319 21.62806 4.01319
4.01281 21.71439 4.01281
4.01244 21.80073 4.01244
4.01207 21.88708 4.01207
4.01172 21.97344 4.01172
4.01138 22.05981 4.01138
4.01104 22.14618 4.01104
4.01072 22.23257 4.01072
4.01041 22.31897 4.01041
4.01010 22.40537 4.01010
4.00980 22.49179 4.00980
4.00951 22.57822 4.00951
4.00923 22.66466 4.00923
4.00896 22.75111 4.00896
4.00869 22.83757 4.00869
4.00844 22.92404 4.00844

Angle 0.227028 3.185590

4.00000 7.03348 4.00000
4.00000 7.03348 4.00000
4.00000 7.03348 4.00000
4.00000 7.03348 4.00000
4.00000 7.03348 4.00000
4.00000 7.03348 4.00000
4.00000 7.03348 4.00000
4.00000 7.03348 4.00000
4.00000 7.03348 4.00000
4.00000 7.03348 4.00000
4.00000 7.03348 4.00000
4.00000 7.03348 4.00000
4.00000 7.03348 4.00000
4.00000 7.03348 4.00000
4.00000 7.03348 4.00000
4.00000 7.03348 4.00000
4.00000 7.03348 4.00000
4.00000 7.03348 4.00000
4.00000 7.03348 4.00000
4.00000 7.03347 4.00000
4.00000 7.03348 4.00000
4.00000 7.03348 4.00000
4.00000 7.03348 4.00000
4.00000 7.03348 4.00000
4.00000 7.03348 4.00000
4.00000 7.03348 4.00000
4.00000 7.03348 4.00000
4.00000 7.03348 4.00000
4.00000 7.03348 4.00000
4.00000 7.03348 4.00000
4.00000 7.03348 4.00000
4.00000 7.03348 4.00000
4.00000 7.03348 4.00000
4.00000 7.03348 4.00000
4.00000 7.03348 4.00000
4.00000 7.03347 4.00000
4.00000 7.03348 4.00000
4.00000 7.03348 4.00000
4.00000 7.03348 4.00000
4.00000 7.03348 4.00000
4.00000 7.03348 4.00000
4.00000 7.03348 4.00000
4.00000 7.03348 4.00000
4.00000 7.03348 4.00000
4.00000 7.03348 4.00000
4.00000 7.03348 4.00000
4.00000 7.03348 4.00000
4.00000 7.03348 4.00000
4.00000 7.03348 4.00000
4.00000 7.03348 4.00000
4.00000 7.03348 4.00000
4.00000 7.03348 4.00000
4.00000 7.03348 4.00000
4.00000 7.03348 4.00000
4.00000 7.03348 4.00000
4.00000 7.03348 4.00000
4.00000 7.03348 4.00000
4.00000 7.03348 4.00000
4.00000 7.03348 4.00000
4.00000 7.03348 4.00000
4.00000 7.03348 4.00000
4.00000 7.03348 4.00000
4.00000 7.03348 4.00000
4.00000 7.03348 4.00000
4.00000 7.03348 4.00000
4.00000 7.03348 4.00000
4.00000 7.03348 4.00000
4.00000 7.03348 4.00000
4.00000 7.03348 4.00000
4.00000 7.03348 4.00000
4.00000 7.03348 4.00000
4.00000 7.03348 4.00000
4.00000 7.03348 4.00000
4.00000 7.03348 4.00000
4.00000 7.03348 4.00000
4.00000 7.03348 4.00000
4.00000 7.03348 4.00000
4.00000 7.03348 4.00000
4.00000 7.03348 4.00000
4.00000 7.03348 4.00000
4.00000 7.03348 4.00000
4.00000 7.03348 4.00000
4.00000 7.03348 4.00000
4.00000 7.03348 4.00000
4.00000 7.03348 4.00000
4.00000 7.03348 4.00000
4.00000 7.03348 4.00000
4.00000 7.03348 4.00000
4.00000 7.03348 4.00000
4.00000 7.03348 4.00000
4.00000 7.03348 4.00000
4.00000 7.03348 4.00000
4.00000 7.03348 4.00000
4.00000 7.03348 4.00000
4.00000 7.03348 4.00000
4.00000 7.03348 4.00000
4.00000 7.03348 4.00000
4.00000 7.03348 4.00000
4.00000 7.03348 4.00000
4.00000 7.03348 4.00000
4.00000 7.03348 4.00000
4.00000 7.03348 4.00000
4.00000 7.03348 4.00000
4.00000 7.03348 4.00000
4.00000 7.03348 4.00000
4.00000 7.03348 4.00000
4.00000 7.03348 4.00000
4.00000 7.03348 4.00000
4.00000 7.03348 4.00000
4.00000 7.03348 4.00000
4.00000 7.03348 4.00000
4.00000 7.03348 4.00000
4.00000 7.03348 4.00000
4.00000 7.03348 4.00000
4.00000 7.03348 4.00000
4.00000 7.03348 4.00000
4.00000 7.03348 4.00000
4.00000 7.03348 4.00000
4.00000 7.03348 4.00000
4.00000 7.03348 4.00000
4.00000 7.03348 4.00000
4.00000 7.03348 4.00000
4.00000 7.03348 4.00000
4.00000 7.03348 4.00000
4.00000 7.03348 4.00000
4.00000 7.03348 4.00000
4.00000 7.03348 4.00000
4.00000 7.03348 4.00000
4.00000 7.03348 4.00000
4.00000 7.03348 4.00000
4.00000 7.03348 4.00000
4.00000 7.03348 4.00000
4.00000 7.03348 4.00000
4.00000 7.03348 4.00000
4.00000 7.03348 4.00000
4.00000 7.03348 4.00000
4.00000 7.03348 4.00000
4.00000 7.03348 4.00000
4.00000 7.03348 4.00000
4.00000 7.03348 4.00000
4.00000 7.03348 4.00000
4.00000 7.03348 4.00000
4.00000 7.03348 4.00000
4.00000 7.03348 4.00000
4.00000 7.03348 4.00000
4.00000 7.03348 4.00000
4.00000 7.03348 4.00000
4.00000 7.03348 4.00000
4.00000 7.03348 4.00000
4.00000 7.03348 4.00000
4.00000 7.03348 4.00000
4.00000 7.03348 4.00000
4.00000 7.03348 4.00000
4.00000 7.03348 4.00000
4.00000 7.03348 4.00000
4.00000 7.03348 4.00000
4.00000 7.03348 4.00000
4.00000 7.03348 4.00000
4.00000 7.03348 4.00000
4.00000 7.03348 4.00000
4.00000 7.03348 4.00000
4.00000 7.03348 4.00000
4.00000 7.03348 4.00000
4.00000 7.03348 4.00000
4.00000 7.03348 4.00000
4.00000 7.03348 4.00000
4.00000 7.03348 4.00000
4.00000 7.03348 4.00000
4.00000 7.03348 4.00000
4.00000 7.03348 4.00000
4.00000 7.03348 4.00000
4.00000 7.03348 4.00000
4.00000 7.03348 4.00000
4.00000 7.03348 4.00000
4.00000 7.03348 4.00000
4.00000 7.03348 4.00000
4.00000 7.03348 4.00000
4.00000 7.03348 4.00000
4.00000 7.03348 4.00000
4.00000 7.03348 4.00000
4.00000 7.03348 4.00000
4.00000 7.03348 4.00000
4.00000 7.03348 4.00000
4.00000 7.03348 4.00000
4.00000 7.03348 4.00000
4.00000 7.03348 4.00000
4.00000 7.03348 4.00000
4.00000 7.03348 4.00000
4.00000 7.03348 4.00000
4.00000 7.03348 4.00000
4.00000 7.03348 4.00000
4.00000 7.03348 4.00000
4.00000 7.03348 4.00000
4.00000 7.03348 4.00000
4.00000 7.03348 4.00000
4.00000 7.03348 4.00000
4.00000 7.03348 4.00000
4.00000 7.03348 4.00000
4.00000 7.03348 4.00000
4.00000 7.03348 4.00000
4.00000 7.03348 4.00000
4.00000 7.03348 4.00000
4.00000 7.03348 4.00000
4.00000 7.03348 4.00000
4.00000 7.03348 4.00000
4.00000 7.03348 4.00000
4.00000 7.03348 4.00000
4.00000 7.03348 4.00000
4.00000 7.03349 4.00000
4.00000 7.03348 4.00000
4.00000 7.03348 4.00000
4.00000 7.03349 4.00000
4.00156 7.08695 4.00156
4.00383 7.16611 4.00383
4.00604 7.24544 4.00604
4.00822 7.32491 4.00822
4.01037 7.40452 4.01037
4.01251 7.48424 4.01251
4.01463 7.56405 4.01463
4.01677 7.64392 4.01676
4.01891 7.72384 4.01891
4.02108 7.80377 4.02108
4.02328 7.88370 4.02328
4.02554 7.96360 4.02554
4.02786 8.04343 4.02786
4.03027 8.12316 4.03027
4.03279 8.20273 4.03279
4.03544 8.28211 4.03544
4.03825 8.36122 4.03825
4.04126 8.43999 4.04126
4.04453 8.51831 4.04453
4.04812 8.59606 4.04812
4.05210 8.67306 4.05210
4.05650 8.74930 4.05650
4.06130 8.82479 4.06130
4.06653 8.89948 4.06653
4.07222 8.97331 4.07222
4.07839 9.04622 4.07839
4.08506 9.11820 4.08506
4.09223 9.18922 4.09223
4.09989 9.25934 4.09989
4.10799 9.32861 4.10799
4.11646 9.39718 4.11646
4.12521 9.46525 4.12521
4.13408 9.53313 4.13408
4.14288 9.60121 4.14288
4.15133 9.67002 4.15133
4.15911 9.74021 4.15911
4.16582 9.81261 4.16582
4.17099 9.88813 4.17099
4.17412 9.96777 4.17412
4.17480 10.05235 4.17480
4.17324 10.14146 4.17324
4.17091 10.23217 4.17091
4.16797 10.32413 4.16797
4.16444 10.41730 4.16444
4.16034 10.51167 4.16034
4.15564 10.60727 4.15564
4.15030 10.70418 4.15030
4.14428 10.80252 4.14428
4.13747 10.90245 4.13747
4.12976 11.00423 4.12976
4.12097 11.10821 4.12097
4.11082 11.21494 4.11082
4.09891 11.32526 4.09890
4.08452 11.44053 4.08452
4.06669 11.56274 4.06669
4.04366 11.69540 4.04366
4.01099 11.84735 4.01099
4.00000 13.19120 4.00000
4.00000 13.19120 4.00000
4.00000 13.19120 4.00000
4.00000 13.19120 4.00000
4.00000 13.19120 4.00000
4.00000 13.19120 4.00000
4.00000 13.19120 4.00000
4.00000 13.19119 4.00000
4.00000 13.19120 4.00000
4.00000 13.19120 4.00000
4.00000 13.19120 4.00000
4.00000 13.19120 4.00000
4.00000 13.19120 4.00000
4.00000 13.19120 4.00000
4.00000 13.19121 4.00000
4.00879 13.24213 4.00879
4.01819 13.31049 4.01819
4.02563 13.38279 4.02563
4.03116 13.45894 4.03116
4.03486 13.53878 4.03486
4.03689 13.62201 4.03689
4.03842 13.70624 4.03842
4.03991 13.79058 4.03991
4.04136 13.87503 4.04136
4.04278 13.95956 4.04278
4.04418 14.04417 4.04418
4.04555 14.12885 4.04555
4.04690 14.21360 4.04690
4.04823 14.29841 4.04823
4.04954 14.38329 4.04954
4.05084 14.46821 4.05084
4.05213 14.55318 4.05213
4.05340 14.63821 4.05340
4.05467 14.72327 4.05467
4.05592 14.80838 4.05592
4.05717 14.89352 4.05717
4.05841 14.97871 4.05841
4.05964 15.06393 4.05964
4.06081 15.14930 4.06081
4.06176 15.23512 4.06176
4.06252 15.32136 4.06252
4.06308 15.40800 4.06308
4.06347 15.49502 4.06347
4.06370 15.58238 4.06370
4.06377 15.67006 4.06377
4.06371 15.75805 4.06371
4.06351 15.84631 4.06351
4.06320 15.93483 4.06320
4.06278 16.02358 4.06278
4.06227 16.11254 4.06227
4.06167 16.20170 4.06167
4.06099 16.29103 4.06099
4.06024 16.38051 4.06024
4.05944 16.47014 4.05944
4.05857 16.55989 4.05857
4.05767 16.64975 4.05767
4.05672 16.73971 4.05672
4.05574 16.82975 4.05574
4.05473 16.91987 4.05473
4.05370 17.01005 4.05370
4.05265 17.10028 4.05265
4.05159 17.19056 4.05159
4.05051 17.28088 4.05051
4.04943 17.37123 4.04943
4.04835 17.46160 4.04835
4.04726 17.55198 4.04726
4.04618 17.64238 4.04618
4.04510 17.73279 4.04510
4.04403 17.82320 4.04403
4.04297 17.91361 4.04297
4.04192 18.00401 4.04192
4.04088 18.09441 4.04088
4.03985 18.18479 4.03985
4.03883 18.27517 4.03883
4.03783 18.36552 4.03783
4.03685 18.45587 4.03685
4.03588 18.54619 4.03588
4.03493 18.63650 4.03493
4.03400 18.72678 4.03400
4.03308 18.81705 4.03308
4.03219 18.90729 4.03219
4.03131 18.99751 4.03130
4.03044 19.08770 4.03044
4.02960 19.17788 4.02960
4.02878 19.26803 4.02878
4.02797 19.35815 4.02797
4.02719 19.44825 4.02719
4.02642 19.53833 4.02642
4.02567 19.62839 4.02567
4.02494 19.71842 4.02494
4.02422 19.80843 4.02422
4.02352 19.89841 4.02352
4.02285 19.98838 4.02285
4.02218 20.07832 4.02218
4.02154 20.16824 4.02154
4.02091 20.25814 4.02091
4.02030 20.34801 4.02030
4.01971 20.43787 4.01971
4.01913 20.52771 4.01913
4.01856 20.61753 4.01856
4.01801 20.70733 4.01801
4.01748 20.79711 4.01748
4.01696 20.88687 4.01696
4.01646 20.97662 4.01646
4.01597 21.06635 4.01597
4.01549 21.15606 4.01549
4.01503 21.24575 4.01503
4.01458 21.33544 4.01458
4.01414 21.42510 4.01414
4.01371 21.51475 4.01371
4.01330 21.60439 4.01330
4.01290 21.69402 4.01290
4.01251 21.78363 4.01251
4.01213 21.87323 4.01213
4.01176 21.96283 4.01176
4.01141 22.05240 4.01141
4.01106 22.14197 4.01106
4.01072 22.23153 4.01072
4.01040 22.32108 4.01040
4.01008 22.41061 4.01008
4.00978 22.50014 4.00977
4.00948 22.58967 4.00948
4.00919 22.67918 4.00919
4.00891 22.76868 4.00891
4.00863 22.85818 4.00863
4.00837 22.94767 4.00837
4.00811 23.03716 4.00811
4.00786 23.12663 4.00786
4.00762 23.21611 4.00762
4.00739 23.30557 4.00739
4.00716 23.39504 4.00716

Angle 0.536323 4.640725

4.00000 7.03348 4.00000
4.00000 7.03348 4.00000
4.00000 7.03348 4.00000
4.00000 7.03348 4.00000
4.00000 7.03348 4.00000
4.00000 7.03348 4.00000
4.00000 7.03348 4.00000
4.00000 7.03348 4.00000
4.00000 7.03348 4.00000
4.00000 7.03348 4.00000
4.00000 7.03348 4.00000
4.00000 7.03348 4.00000
4.00000 7.03348 4.00000
4.00000 7.03348 4.00000
4.00000 7.03348 4.00000
4.00000 7.03348 4.00000
4.00000 7.03348 4.00000
4.00000 7.03348 4.00000
4.00000 7.03348 4.00000
4.00000 7.03348 4.00000
4.00000 7.03348 4.00000
4.00000 7.03348 4.00000
4.00000 7.03348 4.00000
4.00000 7.03348 4.00000
4.00000 7.03348 4.00000
4.00000 7.03348 4.00000
4.00000 7.03348 4.00000
4.00000 7.03348 4.00000
4.00000 7.03348 4.00000
4.00000 7.03348 4.00000
4.00000 7.03348 4.00000
4.00000 7.03348 4.00000
4.00000 7.03348 4.00000
4.00000 7.03348 4.00000
4.00000 7.03348 4.00000
4.00000 7.03348 4.00000
4.00000 7.03348 4.00000
4.00000 7.03348 4.00000
4.00000 7.03348 4.00000
4.00000 7.03348 4.00000
4.00000 7.03348 4.00000
4.00000 7.03348 4.00000
4.00000 7.03348 4.00000
4.00000 7.03348 4.00000
4.00000 7.03348 4.00000
4.00000 7.03348 4.00000
4.00000 7.03348 4.00000
4.00000 7.03346 4.00000
4.00000 7.03348 4.00000
4.00000 7.03348 4.00000
4.00000 7.03348 4.00000
4.00000 7.03348 4.00000
4.00000 7.03348 4.00000
4.00000 7.03348 4.00000
4.00000 7.03348 4.00000
4.00000 7.03348 4.00000
4.00000 7.03348 4.00000
4.00000 7.03348 4.00000
4.00000 7.03348 4.00000
4.00000 7.03348 4.00000
4.00000 7.03348 4.00000
4.00000 7.03348 4.00000
4.00000 7.03348 4.00000
4.00000 7.03348 4.00000
4.00000 7.03348 4.00000
4.00000 7.03348 4.00000
4.00000 7.03348 4.00000
4.00000 7.03348 4.00000
4.00000 7.03348 4.00000
4.00000 7.03348 4.00000
4.00000 7.03348 4.00000
4.00000 7.03348 4.00000
4.00000 7.03348 4.00000
4.00000 7.03348 4.00000
4.00000 7.03348 4.00000
4.00000 7.03348 4.00000
4.00000 7.03348 4.00000
4.00000 7.03348 4.00000
4.00000 7.03348 4.00000
4.00000 7.03348 4.00000
4.00000 7.03348 4.00000
4.00000 7.03348 4.00000
4.00000 7.03348 4.00000
4.00000 7.03348 4.00000
4.00000 7.03348 4.00000
4.00000 7.03348 4.00000
4.00000 7.03348 4.00000
4.00000 7.03348 4.00000
4.00000 7.03348 4.00000
4.00000 7.03348 4.00000
4.00000 7.03348 4.00000
4.00000 7.03348 4.00000
4.00000 7.03348 4.00000
4.00000 7.03348 4.00000
4.00000 7.03348 4.00000
4.00000 7.03348 4.00000
4.00000 7.03348 4.00000
4.00000 7.03348 4.00000
4.00000 7.03348 4.00000
4.00000 7.03348 4.00000
4.00000 7.03348 4.00000
4.00000 7.03348 4.00000
4.00000 7.03348 4.00000
4.00000 7.03348 4.00000
4.00000 7.03348 4.00000
4.00000 7.03348 4.00000
4.00000 7.03348 4.00000
4.00000 7.03348 4.00000
4.00000 7.03348 4.00000
4.00000 7.03348 4.00000
4.00000 7.03348 4.00000
4.00000 7.03348 4.00000
4.00000 7.03348 4.00000
4.00000 7.03348 4.00000
4.00000 7.03348 4.00000
4.00000 7.03348 4.00000
4.00000 7.03348 4.00000
4.00000 7.03348 4.00000
4.00000 7.03348 4.00000
4.00000 7.03348 4.00000
4.00000 7.03348 4.00000
4.00000 7.03348 4.00000
4.00000 7.03348 4.00000
4.00000 7.03348 4.00000
4.00000 7.03348 4.00000
4.00000 7.03348 4.00000
4.00000 7.03348 4.00000
4.00000 7.03348 4.00000
4.00000 7.03348 4.00000
4.00000 7.03348 4.00000
4.00000 7.03348 4.00000
4.00000 7.03348 4.00000
4.00000 7.03348 4.00000
4.00000 7.03348 4.00000
4.00000 7.03348 4.00000
4.00000 7.03348 4.00000
4.00000 7.03348 4.00000
4.00000 7.03348 4.00000
4.00000 7.03348 4.00000
4.00000 7.03348 4.00000
4.00000 7.03348 4.00000
4.00000 7.03348 4.00000
4.00000 7.03348 4.00000
4.00000 7.03348 4.00000
4.00000 7.03348 4.00000
4.00000 7.03348 4.00000
4.00000 7.03348 4.00000
4.00000 7.03348 4.00000
4.00000 7.03348 4.00000
4.00000 7.03348 4.00000
4.00000 7.03348 4.00000
4.00000 7.03348 4.00000
4.00000 7.03348 4.00000
4.00000 7.03348 4.00000
4.00000 7.03348 4.00000
4.00000 7.03348 4.00000
4.00000 7.03348 4.00000
4.00000 7.03348 4.00000
4.00000 7.03348 4.00000
4.00000 7.03348 4.00000
4.00000 7.03348 4.00000
4.00000 7.03348 4.00000
4.00000 7.03348 4.00000
4.00000 7.03348 4.00000
4.00000 7.03348 4.00000
4.00000 7.03348 4.00000
4.00000 7.03348 4.00000
4.00000 7.03348 4.00000
4.00000 7.03348 4.00000
4.00000 7.03348 4.00000
4.00000 7.03348 4.00000
4.00000 7.03348 4.00000
4.00000 7.03348 4.00000
4.00000 7.03348 4.00000
4.00000 7.03348 4.00000
4.00000 7.03348 4.00000
4.00000 7.03348 4.00000
4.00000 7.03348 4.00000
4.00000 7.03348 4.00000
4.00000 7.03349 4.00000
4.00000 7.03349 4.00000
4.00000 7.03348 4.00000
4.00000 7.03348 4.00000
4.00000 7.03349 4.00000
4.00000 7.03348 4.00000
4.00002 7.03413 4.00002
4.00236 7.11456 4.00236
4.00466 7.19567 4.00466
4.00691 7.27692 4.00691
4.00913 7.35830 4.00913
4.01132 7.43978 4.01132
4.01350 7.52134 4.01350
4.01567 7.60296 4.01567
4.01785 7.68461 4.01785
4.02006 7.76628 4.02006
4.02229 7.84793 4.02229
4.02457 7.92955 4.02457
4.02691 8.01108 4.02691
4.02934 8.09250 4.02934
4.03186 8.17377 4.03186
4.03451 8.25483 4.03451
4.03732 8.33562 4.03732
4.04032 8.41606 4.04032
4.04357 8.49605 4.04357
4.04713 8.57548 4.04713
4.05108 8.65416 4.05108
4.05547 8.73200 4.05547
4.06026 8.80907 4.06026
4.06550 8.88530 4.06550
4.07121 8.96063 4.07121
4.07741 9.03501 4.07741
4.08412 9.10841 4.08412
4.09135 9.18081 4.09135
4.09909 9.25224 4.09909
4.10728 9.32278 4.10728
4.11588 9.39256 4.11588
4.12476 9.46180 4.12476
4.13378 9.53081 4.13378
4.14272 9.60000 4.14272
4.15132 9.66992 4.15132
4.15922 9.74126 4.15922
4.16600 9.81487 4.16600
4.17118 9.89173 4.17118
4.17424 9.97286 4.17424
4.17475 10.05912 4.17475
4.17305 10.14982 4.17305
4.17062 10.24202 4.17062
4.16756 10.33550 4.16756
4.16391 10.43021 4.16391
4.15966 10.52614 4.15966
4.15479 10.62334 4.15479
4.14926 10.72188 4.14926
4.14301 10.82190 4.14301
4.13594 10.92360 4.13594
4.12790 11.02724 4.12790
4.11870 11.13325 4.11870
4.10802 11.24223 4.10802
4.09538 11.35517 4.09538
4.07997 11.47368 4.07997
4.06064 11.60003 4.06064
4.03509 11.73887 4.03509
4.00000 13.19120 4.00000
4.00000 13.19120 4.00000
4.00000 13.19120 4.00000
4.00000 13.19120 4.00000
4.00000 13.19120 4.00000
4.00000 13.19120 4.00000
4.00000 13.19120 4.00000
4.00000 13.19120 4.00000
4.00000 13.19120 4.00000
4.00000 13.19120 4.00000
4.00000 13.19120 4.00000
4.00000 13.19120 4.00000
4.00000 13.19120 4.00000
4.00000 13.19120 4.00000
4.00000 13.19121 4.00000
4.00333 13.20936 4.00333
4.01383 13.27648 4.01383
4.02231 13.34766 4.02231
4.02881 13.42283 4.02881
4.03339 13.50184 4.03339
4.03616 13.58451 4.03616
4.03776 13.66954 4.03776
4.03928 13.75473 4.03928
4.04076 13.84002 4.04076
4.04221 13.92540 4.04221
4.04363 14.01086 4.04363
4.04502 14.09639 4.04502
4.04640 14.18198 4.04640
4.04775 14.26763 4.04775
4.04908 14.35333 4.04908
4.05040 14.43908 4.05040
4.05170 14.52488 4.05170
4.05299 14.61072 4.05299
4.05427 14.69659 4.05427
4.05554 14.78251 4.05554
4.05680 14.86845 4.05680
4.05806 14.95443 4.05806
4.05930 15.04044 4.05930
4.06052 15.12653 4.06052
4.06154 15.21303 4.06154
4.06235 15.29995 4.06235
4.06296 15.38729 4.06296
4.06340 15.47500 4.06340
4.06366 15.56306 4.06366
4.06377 15.65146 4.06377
4.06373 15.74016 4.06373
4.06356 15.82914 4.06356
4.06327 15.91838 4.06327
4.06286 16.00785 4.06287
4.06236 16.09754 4.06236
4.06177 16.18742 4.06177
4.06110 16.27747 4.06110
4.06035 16.36768 4.06035
4.05955 16.45803 4.05955
4.05869 16.54850 4.05869
4.05778 16.63908 4.05778
4.05683 16.72976 4.05683
4.05584 16.82052 4.05584
4.05483 16.91135 4.05483
4.05379 17.00224 4.05379
4.05273 17.09317 4.05273
4.05166 17.18416 4.05166
4.05058 17.27517 4.05058
4.04949 17.36621 4.04949
4.04840 17.45727 4.04840
4.04731 17.54834 4.04731
4.04622 17.63942 4.04622
4.04513 17.73050 4.04513
4.04405 17.82158 4.04405
4.04298 17.91265 4.04298
4.04192 18.00371 4.04192
4.04087 18.09476 4.04087
4.03984 18.18580 4.03984
4.03882 18.27682 4.03882
4.03781 18.36782 4.03781
4.03682 18.45880 4.03682
4.03585 18.54975 4.03585
4.03489 18.64069 4.03489
4.03395 18.73159 4.03395
4.03303 18.82248 4.03303
4.03213 18.91333 4.03213
4.03124 19.00416 4.03124
4.03038 19.09496 4.03038
4.02953 19.18573 4.02953
4.02870 19.27648 4.02870
4.02789 19.36719 4.02789
4.02710 19.45788 4.02710
4.02633 19.54854 4.02633
4.02558 19.63917 4.02558
4.02484 19.72978 4.02484
4.02413 19.82036 4.02413
4.02343 19.91091 4.02343
4.02275 20.00143 4.02275
4.02208 20.09193 4.02209
4.02144 20.18241 4.02144
4.02081 20.27285 4.02081
4.02020 20.36328 4.02020
4.01960 20.45368 4.01960
4.01902 20.54405 4.01902
4.01846 20.63440 4.01846
4.01791 20.72473 4.01791
4.01738 20.81504 4.01738
4.01686 20.90533 4.01686
4.01635 20.99560 4.01635
4.01586 21.08584 4.01586
4.01539 21.17607 4.01539
4.01492 21.26628 4.01492
4.01447 21.35646 4.01447
4.01404 21.44664 4.01404
4.01361 21.53679 4.01361
4.01320 21.62693 4.01320
4.01280 21.71705 4.01280
4.01241 21.80715 4.01241
4.01203 21.89724 4.01203
4.01166 21.98732 4.01167
4.01131 22.07738 4.01131
4.01096 22.16743 4.01096
4.01063 22.25746 4.01063
4.01030 22.34748 4.01030
4.00999 22.43749 4.00999
4.00968 22.52749 4.00968
4.00939 22.61747 4.00939
4.00910 22.70745 4.00910
4.00882 22.79741 4.00882
4.00855 22.88737 4.00855
4.00828 22.97731 4.00828
4.00803 23.06725 4.00803
4.00778 23.15718 4.00778
4.00754 23.24710 4.00754
4.00731 23.33701 4.00731
4.00708 23.42691 4.00708
4.00686 23.51681 4.00686
4.00665 23.60669 4.00665
4.00644 23.69658 4.00644
4.00624 23.78645 4.00624
4.00605 23.87632 4.00605
4.00586 23.96619 4.00586
4.00568 24.05604 4.00568
4.00550 24.14590 4.00550
4.00533 24.23575 4.00533
4.00517 24.32559 4.00517
4.00501 24.41543 4.00501
4.00485 24.50527 4.00485
4.00470 24.59510 4.00470
4.00455 24.68492 4.00455
4.00441 24.77475 4.00441
4.00427 24.86457 4.00427
4.00414 24.95439 4.00414
4.00401 25.04421 4.00401
4.00389 25.13402 4.00389
4.00377 25.22383 4.00376
4.00365 25.31364 4.00365
4.00353 25.40345 4.00353
4.00342 25.49325 4.00342
4.00332 25.58306 4.00332
4.00321 25.67286 4.00321
4.00311 25.76266 4.00311
4.00301 25.85246 4.00301
4.00292 25.94226 4.00292

Angle 0.395003 5.018250

4.00000 7.03348 4.00000
4.00000 7.03348 4.00000
4.00000 7.03348 4.00000
4.00000 7.03348 4.00000
4.00000 7.03348 4.00000
4.00000 7.03348 4.00000
4.00000 7.03348 4.00000
4.00000 7.03348 4.00000
4.00000 7.03348 4.00000
4.00000 7.03348 4.00000
4.00000 7.03348 4.00000
4.00000 7.03348 4.00000
4.00000 7.03348 4.00000
4.00000 7.03348 4.00000
4.00000 7.03348 4.00000
4.00000 7.03348 4.00000
4.00000 7.03348 4.00000
4.00000 7.03348 4.00000
4.00000 7.03348 4.00000
4.00000 7.03348 4.00000
4.00000 7.03348 4.00000
4.00000 7.03348 4.00000
4.00000 7.03348 4.00000
4.00000 7.03348 4.00000
4.00000 7.03348 4.00000
4.00000 7.03348 4.00000
4.00000 7.03348 4.00000
4.00000 7.03348 4.00000
4.00000 7.03348 4.00000
4.00000 7.03348 4.00000
4.00000 7.03348 4.00000
4.00000 7.03348 4.00000
4.00000 7.03348 4.00000
4.00000 7.03348 4.00000
4.00000 7.03348 4.00000
4.00000 7.03348 4.00000
4.00000 7.03348 4.00000
4.00000 7.03348 4.00000
4.00000 7.03348 4.00000
4.00000 7.03348 4.00000
4.00000 7.03348 4.00000
4.00000 7.03348 4.00000
4.00000 7.03348 4.00000
4.00000 7.03348 4.00000
4.00000 7.03348 4.00000
4.00000 7.03348 4.00000
4.00000 7.03348 4.00000
4.00000 7.03348 4.00000
4.00000 7.03348 4.00000
4.00000 7.03348 4.00000
4.00000 7.03348 4.00000
4.00000 7.03348 4.00000
4.00000 7.03348 4.00000
4.00000 7.03348 4.00000
4.00000 7.03348 4.00000
4.00000 7.03348 4.00000
4.00000 7.03348 4.00000
4.00000 7.03348 4.00000
4.00000 7.03348 4.00000
4.00000 7.03348 4.00000
4.00000 7.03348 4.00000
4.00000 7.03348 4.00000
4.00000 7.03348 4.00000
4.00000 7.03348 4.00000
4.00000 7.03348 4.00000
4.00000 7.03348 4.00000
4.00000 7.03348 4.00000
4.00000 7.03349 4.00000
4.00000 7.03348 4.00000
4.00096 7.06637 4.00097
4.00329 7.14701 4.00328
4.00555 7.22782 4.00555
4.00778 7.30877 4.00778
4.00998 7.38984 4.00998
4.01215 7.47100 4.01215
4.01432 7.55225 4.01432
4.01649 7.63355 4.01649
4.01867 7.71488 4.01867
4.02087 7.79622 4.02087
4.02311 7.87753 4.02311
4.02540 7.95880 4.02540
4.02776 8.03998 4.02776
4.03021 8.12104 4.03021
4.03276 8.20194 4.03276
4.03546 8.28260 4.03545
4.03832 8.36298 4.03831
4.04138 8.44299 4.04139
4.04472 8.52252 4.04472
4.04838 8.60143 4.04838
4.05246 8.67956 4.05246
4.05696 8.75689 4.05696
4.06188 8.83343 4.06188
4.06724 8.90912 4.06725
4.07308 8.98390 4.07308
4.07942 9.05773 4.07942
4.08627 9.13058 4.08627
4.09363 9.20244 4.09363
4.10148 9.27336 4.10148
4.10978 9.34343 4.10978
4.11845 9.41281 4.11845
4.12736 9.48173 4.12736
4.13635 9.55053 4.13635
4.14520 9.61965 4.14520
4.15361 9.68968 4.15361
4.16123 9.76134 4.16123
4.16760 9.83552 4.16760
4.17224 9.91321 4.17224
4.17464 9.99541 4.17464
4.17442 10.08288 4.17442
4.17248 10.17383 4.17248
4.16989 10.26611 4.16989
4.16669 10.35965 4.16669
4.16289 10.45440 4.16289
4.15850 10.55038 4.15850
4.15349 10.64764 4.15349
4.14780 10.74627 4.14780
4.14138 10.84641 4.14138
4.13410 10.94827 4.13410
4.12583 11.05217 4.12583
4.11634 11.15853 4.11634
4.10529 11.26805 4.10529
4.09212 11.38181 4.09212
4.07598 11.50157 4.07598
4.05557 11.62987 4.05557
4.02809 11.77236 4.02809
4.00000 13.19120 4.00000
4.00000 13.19120 4.00000
4.00000 13.19120 4.00000
4.00000 13.19120 4.00000
4.00000 13.19120 4.00000
4.00000 13.19120 4.00000
4.00000 13.19120 4.00000
4.00000 13.19120 4.00000
4.00000 13.19120 4.00000
4.00000 13.19120 4.00000
4.00000 13.19120 4.00000
4.00000 13.19120 4.00000
4.00000 13.19120 4.00000
4.00000 13.19120 4.00000
4.00000 13.19120 4.00000
4.00543 13.22150 4.00543
4.01553 13.28923 4.01553
4.02363 13.36099 4.02363
4.02977 13.43671 4.02977
4.03401 13.51622 4.03401
4.03647 13.59934 4.03647
4.03802 13.68427 4.03802
4.03953 13.76931 4.03953
4.04101 13.85445 4.04101
4.04245 13.93968 4.04245
4.04386 14.02498 4.04386
4.04525 14.11035 4.04525
4.04661 14.19579 4.04661
4.04796 14.28128 4.04796
4.04929 14.36683 4.04929
4.05060 14.45242 4.05060
4.05190 14.53807 4.05190
4.05319 14.62375 4.05319
4.05446 14.70948 4.05446
4.05573 14.79524 4.05573
4.05699 14.88104 4.05699
4.05824 14.96687 4.05824
4.05948 15.05273 4.05948
4.06067 15.13870 4.06067
4.06166 15.22511 4.06166
4.06244 15.31194 4.06244
4.06303 15.39918 4.06303
4.06344 15.48679 4.06344
4.06369 15.57475 4.06369
4.06377 15.66304 4.06377
4.06372 15.75163 4.06372
4.06353 15.84050 4.06353
4.06322 15.92962 4.06322
4.06281 16.01897 4.06281
4.06229 16.10854 4.06229
4.06169 16.19830 4.06169
4.06101 16.28823 4.06101
4.06026 16.37831 4.06026
4.05945 16.46853 4.05945
4.05858 16.55888 4.05858
4.05767 16.64933 4.05767
4.05672 16.73988 4.05672
4.05573 16.83051 4.05573
4.05472 16.92120 4.05472
4.05368 17.01196 4.05368
4.05262 17.10277 4.05262
4.05155 17.19362 4.05155
4.05047 17.28450 4.05047
4.04938 17.37541 4.04938
4.04829 17.46634 4.04829
4.04720 17.55728 4.04720
4.04611 17.64823 4.04611
4.04503 17.73918 4.04503
4.04395 17.83013 4.04395
4.04288 17.92108 4.04288
4.04183 18.01201 4.04183
4.04078 18.10294 4.04078
4.03975 18.19385 4.03975
4.03873 18.28474 4.03873
4.03772 18.37562 4.03772
4.03674 18.46647 4.03674
4.03576 18.55731 4.03577
4.03481 18.64812 4.03481
4.03388 18.73890 4.03387
4.03296 18.82966 4.03296
4.03206 18.92040 4.03206
4.03117 19.01111 4.03117
4.03031 19.10179 4.03031
4.02947 19.19245 4.02947
4.02864 19.28307 4.02864
4.02784 19.37368 4.02784
4.02705 19.46425 4.02705
4.02628 19.55480 4.02628
4.02553 19.64532 4.02553
4.02480 19.73581 4.02480
4.02408 19.82628 4.02408
4.02339 19.91672 4.02338
4.02271 20.00713 4.02271
4.02205 20.09752 4.02204
4.02140 20.18789 4.02140
4.02077 20.27823 4.02077
4.02016 20.36854 4.02016
4.01957 20.45884 4.01957
4.01899 20.54911 4.01899
4.01843 20.63936 4.01843
4.01788 20.72958 4.01788
4.01735 20.81979 4.01735
4.01683 20.90997 4.01683
4.01633 21.00014 4.01633
4.01584 21.09029 4.01584
4.01536 21.18041 4.01536
4.01490 21.27052 4.01490
4.01445 21.36061 4.01445
4.01402 21.45068 4.01402
4.01359 21.54074 4.01359
4.01318 21.63078 4.01318
4.01278 21.72080 4.01278
4.01239 21.81081 4.01239
4.01202 21.90081 4.01202
4.01165 21.99079 4.01165
4.01130 22.08076 4.01130
4.01095 22.17071 4.01095
4.01062 22.26065 4.01062
4.01029 22.35058 4.01029
4.00998 22.44050 4.00998
4.00967 22.53041 4.00967
4.00938 22.62030 4.00938
4.00909 22.71019 4.00909
4.00881 22.80006 4.00881
4.00854 22.88993 4.00854
4.00828 22.97979 4.00827
4.00802 23.06964 4.00802
4.00777 23.15948 4.00777
4.00753 23.24931 4.00753
4.00730 23.33914 4.00730
4.00708 23.42895 4.00708
4.00686 23.51877 4.00686
4.00664 23.60857 4.00664
4.00644 23.69837 4.00644
4.00624 23.78816 4.00624
4.00605 23.87795 4.00605
4.00586 23.96773 4.00586
4.00568 24.05751 4.00568
4.00550 24.14728 4.00550
4.00533 24.23705 4.00533
4.00517 24.32681 4.00516
4.00500 24.41657 4.00500
4.00485 24.50633 4.00485
4.00470 24.59608 4.00470
4.00455 24.68583 4.00455
4.00441 24.77558 4.00441
4.00427 24.86532 4.00427
4.00414 24.95506 4.00414
4.00401 25.04480 4.00401
4.00389 25.13454 4.00389
4.00376 25.22428 4.00376
4.00365 25.31401 4.00365
4.00353 25.40374 4.00353
4.00342 25.49347 4.00342
4.00332 25.58320 4.00332
4.00321 25.67293 4.00321
4.00311 25.76266 4.00311
4.00301 25.85239 4.00301
4.00292 25.94211 4.00292
4.00283 26.03184 4.00283
4.00274 26.12157 4.00274
4.00265 26.21129 4.00265
4.00257 26.30102 4.00257
4.00249 26.39074 4.00249
4.00241 26.48047 4.00241
4.00234 26.57019 4.00234
4.00226 26.65992 4.00226
4.00219 26.74965 4.00219
4.00212 26.83938 4.00212
4.00206 26.92910 4.00206
4.00199 27.01883 4.00199
4.00193 27.10856 4.00193
4.00187 27.19830 4.00187
4.00181 27.28803 4.00181
4.00176 27.37776 4.00176
4.00170 27.46750 4.00170
4.00165 27.55723 4.00165
4.00159 27.64697 4.00159
4.00155 27.73671 4.00154
4.00150 27.82645 4.00150
4.00145 27.91619 4.00145
4.00140 28.00594 4.00140
4.00136 28.09568 4.00136
4.00132 28.18543 4.00132
4.00128 28.27518 4.00128
4.00124 28.36493 4.00124
4.00120 28.45468 4.00120
4.00116 28.54443 4.00116
4.00112 28.63419 4.00112
4.00109 28.72395 4.00109
4.00105 28.81371 4.00105
4.00102 28.90347 4.00102
4.00099 28.99324 4.00099
4.00096 29.08300 4.00096
4.00093 29.17277 4.00093
4.00090 29.26254 4.00090
4.00087 29.35232 4.00087
4.00084 29.44210 4.00084
4.00081 29.53187 4.00082
4.00079 29.62165 4.00079
4.00076 29.71144 4.00077
4.00074 29.80122 4.00074
4.00072 29.89101 4.00072
4.00070 29.98080 4.00069
4.00067 30.07059 4.00067
4.00065 30.16039 4.00065
4.00063 30.25018 4.00063
4.00061 30.33999 4.00061
4.00059 30.42979 4.00059
4.00057 30.51959 4.00057
4.00056 30.60940 4.00056
4.00054 30.69921 4.00054
4.00052 30.78902 4.00052
4.00051 30.87884 4.00050
4.00049 30.96866 4.00049
4.00047 31.05848 4.00047
4.00046 31.14830 4.00046
4.00044 31.23813 4.00044
4.00043 31.32796 4.00043
4.00042 31.41779 4.00042
4.00040 31.50762 4.00040
4.00039 31.59746 4.00039
4.00038 31.68730 4.00038
4.00037 31.77714 4.00037
4.00036 31.86698 4.00035
4.00034 31.95683 4.00034
4.00033 32.04668 4.00033
4.00032 32.13653 4.00032
4.00031 32.22638 4.00031
4.00030 32.31624 4.00030
4.00029 32.40610 4.00029
4.00028 32.49596 4.00028
4.00027 32.58583 4.00027
4.00027 32.67569 4.00027
4.00026 32.76556 4.00026
4.00025 32.85544 4.00025
4.00024 32.94531 4.00024
4.00023 33.03519 4.00023
4.00023 33.12507 4.00023
4.00022 33.21495 4.00022
4.00021 33.30484 4.00021
4.00021 33.39473 4.00021
4.00020 33.48462 4.00020
4.00019 33.57451 4.00019
4.00019 33.66441 4.00019
4.00018 33.75431 4.00018
4.00017 33.84421 4.00018
4.00017 33.93411 4.00017
4.00017 34.02402 4.00016
4.00016 34.11393 4.00016
4.00015 34.20384 4.00015
4.00015 34.29375 4.00015
4.00014 34.38367 4.00014
4.00014 34.47359 4.00014
4.00014 34.56351 4.00014
4.00013 34.65343 4.00013
4.00013 34.74336 4.00013
4.00012 34.83328 4.00012
4.00012 34.92322 4.00012
4.00012 35.01315 4.00012
4.00011 35.10308 4.00011
4.00011 35.19302 4.00011
4.00010 35.28296 4.00010
4.00010 35.37291 4.00010
4.00010 35.46285 4.00010
4.00010 35.55280 4.00010
4.00009 35.64275 4.00009
4.00009 35.73270 4.00009
4.00009 35.82266 4.00009
4.00008 35.91261 4.00008
4.00008 36.00257 4.00008
4.00008 36.09254 4.00008
4.00008 36.18250 4.00008
4.00007 36.27247 4.00007
4.00007 36.36243 4.00007

Angle 0.182184 4.239415

4.00000 7.03348 4.00000
4.00000 7.03348 4.00000
4.00000 7.03348 4.00000
4.00000 7.03348 4.00000
4.00000 7.03348 4.00000
4.00000 7.03348 4.00000
4.00000 7.03348 4.00000
4.00000 7.03348 4.00000
4.00000 7.03348 4.00000
4.00000 7.03348 4.00000
4.00000 7.03348 4.00000
4.00000 7.03348 4.00000
4.00000 7.03348 4.00000
4.00000 7.03348 4.00000
4.00000 7.03348 4.00000
4.00000 7.03348 4.00000
4.00000 7.03348 4.00000
4.00000 7.03348 4.00000
4.00000 7.03348 4.00000
4.00000 7.03348 4.00000
4.00000 7.03348 4.00000
4.00000 7.03348 4.00000
4.00000 7.03348 4.00000
4.00000 7.03348 4.00000
4.00000 7.03348 4.00000
4.00000 7.03348 4.00000
4.00000 7.03348 4.00000
4.00000 7.03348 4.00000
4.00000 7.03348 4.00000
4.00000 7.03348 4.00000
4.00000 7.03348 4.00000
4.00000 7.03348 4.00000
4.00000 7.03348 4.00000
4.00000 7.03348 4.00000
4.00000 7.03348 4.00000
4.00000 7.03348 4.00000
4.00000 7.03348 4.00000
4.00000 7.03348 4.00000
4.00000 7.03348 4.00000
4.00000 7.03348 4.00000
4.00000 7.03348 4.00000
4.00000 7.03348 4.00000
4.00000 7.03348 4.00000
4.00000 7.03348 4.00000
4.00000 7.03348 4.00000
4.00000 7.03348 4.00000
4.00000 7.03348 4.00000
4.00000 7.03348 4.00000
4.00000 7.03348 4.00000
4.00000 7.03348 4.00000
4.00000 7.03348 4.00000
4.00000 7.03348 4.00000
4.00000 7.03348 4.00000
4.00000 7.03348 4.00000
4.00000 7.03348 4.00000
4.00000 7.03348 4.00000
4.00000 7.03348 4.00000
4.00000 7.03348 4.00000
4.00000 7.03348 4.00000
4.00000 7.03348 4.00000
4.00000 7.03348 4.00000
4.00000 7.03348 4.00000
4.00000 7.03348 4.00000
4.00000 7.03348 4.00000
4.00000 7.03348 4.00000
4.00000 7.03348 4.00000
4.00000 7.03348 4.00000
4.00000 7.03348 4.00000
4.00000 7.03348 4.00000
4.00000 7.03348 4.00000
4.00000 7.03348 4.00000
4.00000 7.03348 4.00000
4.00000 7.03348 4.00000
4.00000 7.03348 4.00000
4.00000 7.03348 4.00000
4.00000 7.03348 4.00000
4.00000 7.03348 4.00000
4.00000 7.03348 4.00000
4.00000 7.03348 4.00000
4.00000 7.03348 4.00000
4.00000 7.03348 4.00000
4.00000 7.03348 4.00000
4.00000 7.03348 4.00000
4.00000 7.03348 4.00000
4.00000 7.03348 4.00000
4.00000 7.03348 4.00000
4.00000 7.03348 4.00000
4.00000 7.03348 4.00000
4.00000 7.03348 4.00000
4.00000 7.03348 4.00000
4.00000 7.03348 4.00000
4.00000 7.03348 4.00000
4.00000 7.03348 4.00000
4.00000 7.03348 4.00000
4.00000 7.03348 4.00000
4.00000 7.03348 4.00000
4.00000 7.03348 4.00000
4.00000 7.03348 4.00000
4.00000 7.03348 4.00000
4.00000 7.03348 4.00000
4.00000 7.03348 4.00000
4.00000 7.03348 4.00000
4.00000 7.03348 4.00000
4.00000 7.03348 4.00000
4.00000 7.03348 4.00000
4.00000 7.03348 4.00000
4.00000 7.03348 4.00000
4.00000 7.03348 4.00000
4.00000 7.03348 4.00000
4.00000 7.03348 4.00000
4.00000 7.03348 4.00000
4.00000 7.03348 4.00000
4.00000 7.03348 4.00000
4.00000 7.03348 4.00000
4.00000 7.03348 4.00000
4.00000 7.03348 4.00000
4.00000 7.03348 4.00000
4.00000 7.03348 4.00000
4.00000 7.03348 4.00000
4.00000 7.03348 4.00000
4.00000 7.03348 4.00000
4.00000 7.03348 4.00000
4.00000 7.03348 4.00000
4.00000 7.03348 4.00000
4.00000 7.03348 4.00000
4.00000 7.03348 4.00000
4.00000 7.03348 4.00000
4.00000 7.03348 4.00000
4.00000 7.03348 4.00000
4.00000 7.03348 4.00000
4.00000 7.03348 4.00000
4.00000 7.03348 4.00000
4.00000 7.03349 4.00000
4.00000 7.03349 4.00000
4.00000 7.03348 4.00000
4.00000 7.03348 4.00000
4.00000 7.03348 4.00000
4.00000 7.03348 4.00000
4.00000 7.03348 4.00000
4.00000 7.03348 4.00000
4.00000 7.03348 4.00000
4.00000 7.03348 4.00000
4.00000 7.03348 4.00000
4.00000 7.03348 4.00000
4.00000 7.03348 4.00000
4.00000 7.03348 4.00000
4.00000 7.03348 4.00000
4.00000 7.03348 4.00000
4.00000 7.03348 4.00000
4.00000 7.03348 4.00000
4.00000 7.03348 4.00000
4.00000 7.03348 4.00000
4.00000 7.03348 4.00000
4.00000 7.03348 4.00000
4.00000 7.03348 4.00000
4.00000 7.03348 4.00000
4.00000 7.03348 4.00000
4.00000 7.03348 4.00000
4.00000 7.03348 4.00000
4.00000 7.03348 4.00000
4.00000 7.03348 4.00000
4.00000 7.03348 4.00000
4.00000 7.03348 4.00000
4.00000 7.03348 4.00000
4.00000 7.03348 4.00000
4.00000 7.03348 4.00000
4.00000 7.03348 4.00000
4.00000 7.03348 4.00000
4.00000 7.03348 4.00000
4.00000 7.03348 4.00000
4.00000 7.03348 4.00000
4.00000 7.03348 4.00000
4.00000 7.03348 4.00000
4.00000 7.03348 4.00000
4.00000 7.03348 4.00000
4.00000 7.03348 4.00000
4.00000 7.03348 4.00000
4.00000 7.03348 4.00000
4.00000 7.03348 4.00000
4.00000 7.03348 4.00000
4.00000 7.03348 4.00000
4.00000 7.03348 4.00000
4.00000 7.03348 4.00000
4.00000 7.03348 4.00000
4.00000 7.03348 4.00000
4.00000 7.03348 4.00000
4.00000 7.03348 4.00000
4.00000 7.03348 4.00000
4.00000 7.03348 4.00000
4.00000 7.03348 4.00000
4.00000 7.03348 4.00000
4.00000 7.03348 4.00000
4.00000 7.03348 4.00000
4.00000 7.03348 4.00000
4.00000 7.03348 4.00000
4.00000 7.03348 4.00000
4.00000 7.03348 4.00000
4.00000 7.03348 4.00000
4.00000 7.03348 4.00000
4.00000 7.03348 4.00000
4.00000 7.03348 4.00000
4.00000 7.03348 4.00000
4.00000 7.03348 4.00000
4.00000 7.03348 4.00000
4.00000 7.03348 4.00000
4.00000 7.03348 4.00000
4.00000 7.03348 4.00000
4.00000 7.03348 4.00000
4.00000 7.03348 4.00000
4.00000 7.03348 4.00000
4.00000 7.03348 4.00000
4.00000 7.03348 4.00000
4.00000 7.03348 4.00000
4.00000 7.03348 4.00000
4.00000 7.03348 4.00000
4.00000 7.03348 4.00000
4.00000 7.03348 4.00000
4.00000 7.03348 4.00000
4.00000 7.03348 4.00000
4.00000 7.03348 4.00000
4.00000 7.03348 4.00000
4.00000 7.03348 4.00000
4.00000 7.03349 4.00000
4.00000 7.03355 4.00000
4.00000 7.03348 4.00000
4.00000 7.03348 4.00000
4.00000 7.03348 4.00000
4.00000 7.03348 4.00000
4.00000 7.03348 4.00000
4.00000 7.03348 4.00000
4.00045 7.04843 4.00044
4.00272 7.12731 4.00272
4.00496 7.20637 4.00496
4.00715 7.28559 4.00715
4.00931 7.36496 4.00930
4.01144 7.44444 4.01144
4.01357 7.52402 4.01357
4.01569 7.60369 4.01569
4.01782 7.68341 4.01782
4.01997 7.76317 4.01997
4.02215 7.84294 4.02215
4.02438 7.92269 4.02438
4.02666 8.00239 4.02666
4.02902 8.08201 4.02902
4.03147 8.16151 4.03147
4.03404 8.24084 4.03404
4.03676 8.31994 4.03676
4.03966 8.39874 4.03966
4.04278 8.47716 4.04278
4.04618 8.55508 4.04618
4.04994 8.63235 4.04994
4.05412 8.70884 4.05412
4.05869 8.78460 4.05869
4.06368 8.85959 4.06368
4.06911 8.93375 4.06911
4.07501 9.00703 4.07501
4.08139 9.07938 4.08139
4.08828 9.15080 4.08828
4.09566 9.22128 4.09566
4.10351 9.29088 4.10351
4.11178 9.35969 4.11178
4.12038 9.42789 4.12038
4.12919 9.49572 4.12919
4.13804 9.56352 4.13804
4.14670 9.63174 4.14670
4.15489 9.70097 4.15489
4.16224 9.77192 4.16224
4.16832 9.84546 4.16832
4.17264 9.92256 4.17264
4.17474 10.00415 4.17474
4.17428 10.09092 4.17428
4.17230 10.18074 4.17230
4.16971 10.27186 4.16971
4.16652 10.36421 4.16652
4.16275 10.45776 4.16275
4.15840 10.55252 4.15840
4.15344 10.64853 4.15344
4.14782 10.74590 4.14782
4.14149 10.84475 4.14149
4.13433 10.94528 4.13433
4.12620 11.04780 4.12620
4.11689 11.15272 4.11689
4.10607 11.26069 4.10607
4.09325 11.37271 4.09325
4.07758 11.49045 4.07758
4.05792 11.61624 4.05792
4.03176 11.75505 4.03176
4.00000 13.19120 4.00000
4.00000 13.19120 4.00000
4.00000 13.19120 4.00000
4.00000 13.19120 4.00000
4.00000 13.19120 4.00000
4.00000 13.19120 4.00000
4.00000 13.19120 4.00000
4.00000 13.19120 4.00000
4.00000 13.19120 4.00000
4.00000 13.19120 4.00000
4.00000 13.19120 4.00000
4.00000 13.19121 4.00000
4.00000 13.19120 4.00000
4.00000 13.19120 4.00000
4.00001 13.19124 4.00001
4.00213 13.20271 4.00213
4.01273 13.26856 4.01273
4.02134 13.33840 4.02134
4.02802 13.41215 4.02802
4.03282 13.48968 4.03282
4.03583 13.57082 4.03583
4.03749 13.65470 4.03749
4.03900 13.73889 4.03900
4.04047 13.82318 4.04047
4.04191 13.90757 4.04191
4.04332 13.99204 4.04332
4.04470 14.07660 4.04470
4.04606 14.16122 4.04607
4.04741 14.24591 4.04741
4.04873 14.33066 4.04873
4.05004 14.41547 4.05004
4.05133 14.50033 4.05133
4.05261 14.58524 4.05261
4.05388 14.67020 4.05388
4.05514 14.75520 4.05514
4.05639 14.84024 4.05639
4.05763 14.92532 4.05763
4.05887 15.01044 4.05887
4.06010 15.09560 4.06010
4.06118 15.18106 4.06119
4.06206 15.26696 4.06206
4.06275 15.35327 4.06275
4.06325 15.43997 4.06325
4.06357 15.52704 4.06357
4.06374 15.61445 4.06374
4.06376 15.70217 4.06376
4.06365 15.79018 4.06365
4.06341 15.87846 4.06341
4.06306 15.96699 4.06306
4.06261 16.05575 4.06261
4.06206 16.14471 4.06206
4.06143 16.23385 4.06143
4.06073 16.32317 4.06073
4.05996 16.41263 4.05996
4.05913 16.50223 4.05913
4.05826 16.59195 4.05826
4.05733 16.68177 4.05733
4.05637 16.77169 4.05638
4.05538 16.86169 4.05538
4.05437 16.95176 4.05437
4.05333 17.04189 4.05333
4.05228 17.13208 4.05228
4.05121 17.22230 4.05121
4.05013 17.31256 4.05013
4.04905 17.40285 4.04905
4.04797 17.49316 4.04797
4.04689 17.58348 4.04689
4.04581 17.67382 4.04581
4.04473 17.76416 4.04473
4.04366 17.85450 4.04366
4.04261 17.94484 4.04261
4.04156 18.03518 4.04156
4.04052 18.12551 4.04052
4.03950 18.21583 4.03950
4.03849 18.30613 4.03849
4.03750 18.39642 4.03750
4.03652 18.48670 4.03652
4.03556 18.57695 4.03556
4.03461 18.66719 4.03461
4.03369 18.75741 4.03369
4.03278 18.84760 4.03278
4.03189 18.93778 4.03189
4.03101 19.02793 4.03101
4.03016 19.11806 4.03016
4.02932 19.20816 4.02932
4.02851 19.29825 4.02851
4.02771 19.38831 4.02771
4.02693 19.47834 4.02693
4.02617 19.56836 4.02617
4.02542 19.65835 4.02542
4.02470 19.74831 4.02470
4.02399 19.83826 4.02399
4.02330 19.92818 4.02330
4.02263 20.01808 4.02263
4.02197 20.10796 4.02197
4.02133 20.19782 4.02133
4.02071 20.28766 4.02071
4.02010 20.37747 4.02010
4.01951 20.46727 4.01952
4.01894 20.55705 4.01894
4.01838 20.64681 4.01838
4.01784 20.73655 4.01784
4.01731 20.82627 4.01731
4.01680 20.91597 4.01680
4.01630 21.00566 4.01630
4.01581 21.09534 4.01581
4.01534 21.18499 4.01534
4.01488 21.27463 4.01488
4.01443 21.36426 4.01443
4.01400 21.45387 4.01400
4.01358 21.54347 4.01358
4.01317 21.63306 4.01317
4.01277 21.72263 4.01278

Angle 0.489365 3.550840

4.00000 7.03348 4.00000
4.00000 7.03348 4.00000
4.00000 7.03348 4.00000
4.00000 7.03348 4.00000
4.00000 7.03348 4.00000
4.00000 7.03348 4.00000
4.00000 7.03348 4.00000
4.00000 7.03348 4.00000
4.00000 7.03348 4.00000
4.00000 7.03348 4.00000
4.00000 7.03348 4.00000
4.00000 7.03348 4.00000
4.00000 7.03348 4.00000
4.00000 7.03348 4.00000
4.00000 7.03348 4.00000
4.00000 7.03348 4.00000
4.00000 7.03348 4.00000
4.00000 7.03348 4.00000
4.00000 7.03348 4.00000
4.00000 7.03348 4.00000
4.00000 7.03348 4.00000
4.00000 7.03348 4.00000
4.00000 7.03348 4.00000
4.00000 7.03348 4.00000
4.00000 7.03348 4.00000
4.00000 7.03348 4.00000
4.00000 7.03348 4.00000
4.00000 7.03348 4.00000
4.00000 7.03348 4.00000
4.00000 7.03348 4.00000
4.00000 7.03348 4.00000
4.00000 7.03348 4.00000
4.00000 7.03348 4.00000
4.00000 7.03348 4.00000
4.00000 7.03348 4.00000
4.00000 7.03348 4.00000
4.00000 7.03348 4.00000
4.00000 7.03348 4.00000
4.00000 7.03348 4.00000
4.00000 7.03348 4.00000
4.00000 7.03348 4.00000
4.00000 7.03348 4.00000
4.00000 7.03348 4.00000
4.00000 7.03348 4.00000
4.00000 7.03348 4.00000
4.00000 7.03348 4.00000
4.00000 7.03348 4.00000
4.00000 7.03348 4.00000
4.00000 7.03348 4.00000
4.00000 7.03348 4.00000
4.00000 7.03348 4.00000
4.00000 7.03348 4.00000
4.00000 7.03348 4.00000
4.00000 7.03348 4.00000
4.00000 7.03348 4.00000
4.00000 7.03348 4.00000
4.00000 7.03348 4.00000
4.00000 7.03348 4.00000
4.00000 7.03348 4.00000
4.00000 7.03348 4.00000
4.00000 7.03348 4.00000
4.00000 7.03348 4.00000
4.00000 7.03348 4.00000
4.00000 7.03348 4.00000
4.00000 7.03348 4.00000
4.00000 7.03348 4.00000
4.00000 7.03348 4.00000
4.00000 7.03348 4.00000
4.00000 7.03348 4.00000
4.00000 7.03348 4.00000
4.00000 7.03348 4.00000
4.00000 7.03348 4.00000
4.00000 7.03348 4.00000
4.00000 7.03348 4.00000
4.00000 7.03348 4.00000
4.00000 7.03348 4.00000
4.00000 7.03348 4.00000
4.00000 7.03348 4.00000
4.00000 7.03348 4.00000
4.00000 7.03348 4.00000
4.00000 7.03348 4.00000
4.00000 7.03348 4.00000
4.00000 7.03348 4.00000
4.00000 7.03348 4.00000
4.00000 7.03348 4.00000
4.00000 7.03348 4.00000
4.00000 7.03348 4.00000
4.00000 7.03348 4.00000
4.00000 7.03348 4.00000
4.00000 7.03348 4.00000
4.00000 7.03348 4.00000
4.00000 7.03348 4.00000
4.00000 7.03348 4.00000
4.00000 7.03348 4.00000
4.00000 7.03348 4.00000
4.00000 7.03348 4.00000
4.00000 7.03348 4.00000
4.00000 7.03348 4.00000
4.00000 7.03348 4.00000
4.00000 7.03348 4.00000
4.00000 7.03348 4.00000
4.00000 7.03348 4.00000
4.00000 7.03348 4.00000
4.00000 7.03348 4.00000
4.00000 7.03348 4.00000
4.00000 7.03348 4.00000
4.00000 7.03348 4.00000
4.00000 7.03348 4.00000
4.00000 7.03348 4.00000
4.00000 7.03348 4.00000
4.00000 7.03348 4.00000
4.00000 7.03348 4.00000
4.00000 7.03348 4.00000
4.00000 7.03348 4.00000
4.00000 7.03348 4.00000
4.00000 7.03348 4.00000
4.00000 7.03348 4.00000
4.00000 7.03348 4.00000
4.00000 7.03348 4.00000
4.00000 7.03348 4.00000
4.00000 7.03348 4.00000
4.00000 7.03348 4.00000
4.00000 7.03348 4.00000
4.00000 7.03348 4.00000
4.00000 7.03348 4.00000
4.00000 7.03348 4.00000
4.00000 7.03348 4.00000
4.00000 7.03348 4.00000
4.00000 7.03348 4.00000
4.00000 7.03348 4.00000
4.00000 7.03348 4.00000
4.00000 7.03348 4.00000
4.00000 7.03348 4.00000
4.00000 7.03348 4.00000
4.00000 7.03348 4.00000
4.00000 7.03348 4.00000
4.00000 7.03348 4.00000
4.00000 7.03348 4.00000
4.00000 7.03348 4.00000
4.00000 7.03348 4.00000
4.00000 7.03348 4.00000
4.00000 7.03348 4.00000
4.00000 7.03348 4.00000
4.00000 7.03348 4.00000
4.00000 7.03348 4.00000
4.00000 7.03348 4.00000
4.00000 7.03348 4.00000
4.00000 7.03348 4.00000
4.00000 7.03348 4.00000
4.00000 7.03348 4.00000
4.00000 7.03348 4.00000
4.00000 7.03348 4.00000
4.00000 7.03348 4.00000
4.00000 7.03348 4.00000
4.00000 7.03348 4.00000
4.00000 7.03348 4.00000
4.00000 7.03348 4.00000
4.00000 7.03348 4.00000
4.00000 7.03348 4.00000
4.00000 7.03348 4.00000
4.00000 7.03348 4.00000
4.00000 7.03348 4.00000
4.00000 7.03348 4.00000
4.00000 7.03348 4.00000
4.00000 7.03348 4.00000
4.00000 7.03348 4.00000
4.00000 7.03348 4.00000
4.00000 7.03348 4.00000
4.00000 7.03348 4.00000
4.00000 7.03348 4.00000
4.00000 7.03348 4.00000
4.00000 7.03348 4.00000
4.00000 7.03348 4.00000
4.00000 7.03348 4.00000
4.00000 7.03348 4.00000
4.00000 7.03348 4.00000
4.00000 7.03348 4.00000
4.00000 7.03348 4.00000
4.00000 7.03348 4.00000
4.00000 7.03348 4.00000
4.00000 7.03348 4.00000
4.00000 7.03348 4.00000
4.00000 7.03348 4.00000
4.00000 7.03348 4.00000
4.00000 7.03348 4.00000
4.00000 7.03348 4.00000
4.00000 7.03348 4.00000
4.00000 7.03348 4.00000
4.00000 7.03348 4.00000
4.00000 7.03348 4.00000
4.00000 7.03348 4.00000
4.00000 7.03348 4.00000
4.00000 7.03348 4.00000
4.00000 7.03348 4.00000
4.00000 7.03348 4.00000
4.00000 7.03348 4.00000
4.00000 7.03348 4.00000
4.00000 7.03348 4.00000
4.00000 7.03348 4.00000
4.00000 7.03348 4.00000
4.00000 7.03348 4.00000
4.00000 7.03348 4.00000
4.00000 7.03348 4.00000
4.00000 7.03348 4.00000
4.00000 7.03348 4.00000
4.00000 7.03348 4.00000
4.00000 7.03348 4.00000
4.00000 7.03348 4.00000
4.00000 7.03348 4.00000
4.00000 7.03348 4.00000
4.00000 7.03348 4.00000
4.00000 7.03348 4.00000
4.00000 7.03348 4.00000
4.00000 7.03348 4.00000
4.00000 7.03348 4.00000
4.00000 7.03348 4.00000
4.00000 7.03348 4.00000
4.00000 7.03348 4.00000
4.00000 7.03348 4.00000
4.00000 7.03348 4.00000
4.00000 7.03348 4.00000
4.00000 7.03348 4.00000
4.00000 7.03348 4.00000
4.00000 7.03348 4.00000
4.00000 7.03348 4.00000
4.00000 7.03348 4.00000
4.00000 7.03348 4.00000
4.00000 7.03348 4.00000
4.00000 7.03348 4.00000
4.00000 7.03348 4.00000
4.00000 7.03348 4.00000
4.00000 7.03348 4.00000
4.00000 7.03348 4.00000
4.00000 7.03348 4.00000
4.00000 7.03348 4.00000
4.00000 7.03348 4.00000
4.00000 7.03348 4.00000
4.00000 7.03348 4.00000
4.00000 7.03348 4.00000
4.00000 7.03348 4.00000
4.00000 7.03348 4.00000
4.00000 7.03348 4.00000
4.00000 7.03348 4.00000
4.00000 7.03348 4.00000
4.00000 7.03348 4.00000
4.00000 7.03348 4.00000
4.00000 7.03348 4.00000
4.00000 7.03348 4.00000
4.00000 7.03348 4.00000
4.00000 7.03348 4.00000
4.00000 7.03348 4.00000
4.00000 7.03348 4.00000
4.00000 7.03348 4.00000
4.00000 7.03348 4.00000
4.00000 7.03348 4.00000
4.00000 7.03349 4.00000
4.00000 7.03348 4.00000
4.00000 7.03348 4.00000
4.00000 7.03348 4.00000
4.00000 7.03348 4.00000
4.00000 7.03348 4.00000
4.00000 7.03348 4.00000
4.00000 7.03348 4.00000
4.00000 7.03349 4.00000
4.00087 7.06305 4.00087
4.00312 7.14117 4.00312
4.00532 7.21948 4.00532
4.00748 7.29795 4.00748
4.00962 7.37658 4.00962
4.01173 7.45532 4.01173
4.01384 7.53417 4.01384
4.01594 7.61311 4.01594
4.01806 7.69211 4.01806
4.02019 7.77115 4.02019
4.02235 7.85020 4.02235
4.02456 7.92925 4.02456
4.02683 8.00825 4.02683
4.02917 8.08718 4.02917
4.03161 8.16600 4.03161
4.03417 8.24465 4.03417
4.03687 8.32308 4.03687
4.03975 8.40123 4.03975
4.04286 8.47899 4.04285
4.04624 8.55628 4.04624
4.04997 8.63293 4.04997
4.05411 8.70882 4.05411
4.05865 8.78399 4.05865
4.06359 8.85842 4.06359
4.06897 8.93203 4.06897
4.07482 9.00479 4.07482
4.08114 9.07664 4.08114
4.08796 9.14757 4.08796
4.09526 9.21759 4.09526
4.10303 9.28674 4.10303
4.11121 9.35511 4.11121
4.11973 9.42287 4.11973
4.12847 9.49025 4.12847
4.13727 9.55757 4.13727
4.14590 9.62527 4.14590
4.15410 9.69390 4.15410
4.16150 9.76417 4.16150
4.16770 9.83689 4.16770
4.17223 9.91302 4.17223
4.17461 9.99349 4.17461
4.17449 10.07902 4.17449
4.17262 10.16809 4.17262
4.17012 10.25847 4.17012
4.16704 10.35007 4.16704
4.16338 10.44286 4.16338
4.15915 10.53684 4.15915
4.15433 10.63207 4.15433
4.14886 10.72862 4.14886
4.14270 10.82661 4.14270
4.13574 10.92623 4.13574
4.12786 11.02776 4.12786
4.11885 11.13157 4.11885
4.10844 11.23824 4.10844
4.09616 11.34869 4.09616
4.08126 11.46441 4.08126
4.06272 11.58746 4.06272
4.03850 11.72191 4.03850
4.00322 11.87851 4.00322
4.00000 13.19120 4.00000
4.00000 13.19120 4.00000
4.00000 13.19120 4.00000
4.00000 13.19120 4.00000
4.00000 13.19120 4.00000
4.00000 13.19120 4.00000
4.00000 13.19120 4.00000
4.00000 13.19120 4.00000
4.00000 13.19120 4.00000
4.00000 13.19120 4.00000
4.00000 13.19120 4.00000
4.00000 13.19120 4.00000
4.00001 13.19123 4.00001
4.00000 13.19120 4.00000
4.00000 13.19120 4.00000
4.00963 13.24759 4.00963
4.01883 13.31586 4.01883
4.02608 13.38804 4.02608
4.03146 13.46402 4.03146
4.03503 13.54364 4.03503
4.03697 13.62654 4.03697
4.03849 13.71032 4.03849
4.03997 13.79422 4.03997
4.04141 13.87821 4.04141
4.04283 13.96229 4.04283
4.04421 14.04646 4.04421
4.04558 14.13070 4.04558
4.04692 14.21502 4.04692
4.04824 14.29939 4.04824
4.04955 14.38383 4.04955
4.05084 14.46833 4.05084
4.05212 14.55288 4.05212
4.05339 14.63748 4.05339
4.05465 14.72212 4.05465
4.05590 14.80681 4.05590
4.05714 14.89154 4.05714
4.05837 14.97632 4.05837
4.05960 15.06113 4.05960
4.06077 15.14609 4.06077
4.06173 15.23149 4.06173
4.06249 15.31731 4.06249
4.06306 15.40353 4.06306
4.06346 15.49012 4.06346
4.06369 15.57707 4.06369
4.06377 15.66434 4.06377
4.06372 15.75191 4.06372
4.06353 15.83976 4.06353
4.06323 15.92787 4.06323
4.06282 16.01621 4.06282
4.06232 16.10477 4.06232
4.06173 16.19353 4.06173
4.06106 16.28246 4.06106
4.06032 16.37155 4.06032
4.05952 16.46078 4.05952
4.05867 16.55015 4.05867
4.05777 16.63962 4.05777
4.05683 16.72920 4.05683
4.05586 16.81887 4.05586
4.05486 16.90861 4.05486
4.05383 16.99842 4.05383
4.05279 17.08829 4.05279
4.05173 17.17821 4.05173
4.05066 17.26816 4.05066
4.04959 17.35815 4.04959
4.04851 17.44817 4.04851
4.04743 17.53820 4.04743
4.04635 17.62826 4.04635
4.04528 17.71832 4.04528
4.04421 17.80839 4.04421
4.04315 17.89846 4.04315
4.04210 17.98853 4.04210
4.04106 18.07859 4.04106
4.04003 18.16865 4.04003
4.03902 18.25869 4.03902
4.03802 18.34873 4.03802
4.03704 18.43875 4.03704
4.03607 18.52876 4.03607
4.03512 18.61875 4.03512

Angle 0.294791 5.760822

4.00000 7.03347 4.00000
4.00000 7.03348 4.00000
4.00000 7.03348 4.00000
4.00000 7.03348 4.00000
4.00000 7.03348 4.00000
4.00000 7.03348 4.00000
4.00000 7.03348 4.00000
4.00000 7.03348 4.00000
4.00000 7.03348 4.00000
4.00000 7.03348 4.00000
4.00000 7.03348 4.00000
4.00000 7.03348 4.00000
4.00000 7.03348 4.00000
4.00000 7.03348 4.00000
4.00000 7.03348 4.00000
4.00000 7.03348 4.00000
4.00000 7.03348 4.00000
4.00000 7.03348 4.00000
4.00000 7.03348 4.00000
4.00000 7.03348 4.00000
4.00000 7.03348 4.00000
4.00000 7.03348 4.00000
4.00000 7.03348 4.00000
4.00000 7.03348 4.00000
4.00000 7.03348 4.00000
4.00000 7.03348 4.00000
4.00000 7.03348 4.00000
4.00000 7.03348 4.00000
4.00000 7.03348 4.00000
4.00000 7.03348 4.00000
4.00000 7.03348 4.00000
4.00000 7.03348 4.00000
4.00000 7.03348 4.00000
4.00000 7.03348 4.00000
4.00000 7.03348 4.00000
4.00000 7.03348 4.00000
4.00000 7.03348 4.00000
4.00000 7.03348 4.00000
4.00000 7.03348 4.00000
4.00000 7.03348 4.00000
4.00000 7.03348 4.00000
4.00000 7.03348 4.00000
4.00000 7.03348 4.00000
4.00000 7.03348 4.00000
4.00000 7.03348 4.00000
4.00000 7.03348 4.00000
4.00000 7.03348 4.00000
4.00000 7.03348 4.00000
4.00000 7.03348 4.00000
4.00000 7.03348 4.00000
4.00000 7.03348 4.00000
4.00000 7.03348 4.00000
4.00000 7.03348 4.00000
4.00000 7.03348 4.00000
4.00000 7.03348 4.00000
4.00000 7.03348 4.00000
4.00000 7.03348 4.00000
4.00000 7.03348 4.00000
4.00000 7.03348 4.00000
4.00000 7.03348 4.00000
4.00000 7.03348 4.00000
4.00000 7.03348 4.00000
4.00000 7.03348 4.00000
4.00000 7.03348 4.00000
4.00000 7.03348 4.00000
4.00000 7.03348 4.00000
4.00000 7.03348 4.00000
4.00000 7.03348 4.00000
4.00000 7.03348 4.00000
4.00000 7.03348 4.00000
4.00000 7.03348 4.00000
4.00000 7.03348 4.00000
4.00000 7.03348 4.00000
4.00000 7.03348 4.00000
4.00000 7.03348 4.00000
4.00000 7.03348 4.00000
4.00000 7.03348 4.00000
4.00000 7.03348 4.00000
4.00000 7.03348 4.00000
4.00000 7.03348 4.00000
4.00000 7.03348 4.00000
4.00000 7.03348 4.00000
4.00000 7.03349 4.00000
4.00000 7.03348 4.00000
4.00000 7.03348 4.00000
4.00000 7.03348 4.00000
4.00164 7.08971 4.00164
4.00367 7.16049 4.00367
4.00566 7.23151 4.00566
4.00762 7.30276 4.00762
4.00956 7.37421 4.00956
4.01148 7.44586 4.01148
4.01340 7.51768 4.01340
4.01532 7.58966 4.01532
4.01724 7.66178 4.01724
4.01918 7.73402 4.01918
4.02115 7.80637 4.02115
4.02315 7.87880 4.02315
4.02519 7.95129 4.02519
4.02729 8.02382 4.02729
4.02945 8.09635 4.02945
4.03170 8.16885 4.03170
4.03406 8.24129 4.03406
4.03653 8.31362 4.03653
4.03916 8.38578 4.03916
4.04198 8.45770 4.04198
4.04502 8.52930 4.04502
4.04833 8.60048 4.04833
4.05200 8.67110 4.05200
4.05601 8.74113 4.05601
4.06037 8.81062 4.06037
4.06508 8.87949 4.06508
4.07019 8.94772 4.07019
4.07570 9.01524 4.07570
4.08164 9.08204 4.08164
4.08801 9.14809 4.08801
4.09481 9.21339 4.09481
4.10202 9.27799 4.10202
4.10960 9.34195 4.10960
4.11750 9.40539 4.11750
4.12563 9.46848 4.12563
4.13386 9.53146 4.13386
4.14204 9.59466 4.14204
4.14996 9.65849 4.14996
4.15736 9.72346 4.15736
4.16391 9.79021 4.16391
4.16927 9.85947 4.16927
4.17302 9.93203 4.17302
4.17478 10.00867 4.17478
4.17429 10.08991 4.17429
4.17248 10.17390 4.17248
4.17010 10.25909 4.17010
4.16721 10.34542 4.16721
4.16380 10.43287 4.16380
4.15988 10.52143 4.15988
4.15543 10.61114 4.15543
4.15043 10.70205 4.15043
4.14481 10.79428 4.14481
4.13850 10.88796 4.13850
4.13142 10.98328 4.13142
4.12341 11.08054 4.12341
4.11427 11.18015 4.11427
4.10369 11.28270 4.10369
4.09120 11.38916 4.09120
4.07606 11.50102 4.07606
4.05722 11.62035 4.05721
4.03249 11.75152 4.03249
4.00000 13.19120 4.00000
4.00000 13.19120 4.00000
4.00000 13.19120 4.00000
4.00000 13.19120 4.00000
4.00000 13.19120 4.00000
4.00000 13.19120 4.00000
4.00000 13.19120 4.00000
4.00000 13.19120 4.00000
4.00000 13.19120 4.00000
4.00000 13.19120 4.00000
4.00000 13.19120 4.00000
4.00000 13.19120 4.00000
4.00000 13.19120 4.00000
4.00000 13.19120 4.00000
4.00000 13.19120 4.00000
4.00000 13.19121 4.00000
4.00342 13.20989 4.00342
4.01335 13.27300 4.01335
4.02149 13.33975 4.02149
4.02786 13.41008 4.02786
4.03253 13.48389 4.03253
4.03556 13.56104 4.03556
4.03723 13.64096 4.03723
4.03869 13.72138 4.03869
4.04010 13.80193 4.04010
4.04149 13.88260 4.04149
4.04285 13.96338 4.04284
4.04418 14.04427 4.04418
4.04549 14.12525 4.04549
4.04678 14.20633 4.04678
4.04806 14.28749 4.04806
4.04932 14.36873 4.04932
4.05056 14.45006 4.05056
4.05180 14.53146 4.05180
4.05302 14.61293 4.05302
4.05424 14.69448 4.05424
4.05545 14.77609 4.05545
4.05665 14.85776 4.05665
4.05784 14.93950 4.05784
4.05903 15.02129 4.05903
4.06020 15.10316 4.06020
4.06123 15.18537 4.06123
4.06207 15.26800 4.06207
4.06273 15.35104 4.06273
4.06322 15.43447 4.06322
4.06355 15.51827 4.06355
4.06373 15.60241 4.06373
4.06377 15.68686 4.06377
4.06369 15.77162 4.06369
4.06348 15.85666 4.06348
4.06317 15.94195 4.06317
4.06276 16.02748 4.06276
4.06227 16.11323 4.06227
4.06169 16.19919 4.06169
4.06104 16.28533 4.06104
4.06032 16.37165 4.06032
4.05955 16.45812 4.05955
4.05872 16.54473 4.05872
4.05786 16.63146 4.05786
4.05695 16.71832 4.05695
4.05601 16.80528 4.05601
4.05504 16.89233 4.05504
4.05405 16.97947 4.05405
4.05304 17.06668 4.05304
4.05202 17.15396 4.05202
4.05098 17.24130 4.05098
4.04994 17.32869 4.04994
4.04889 17.41613 4.04889
4.04784 17.50361 4.04784
4.04679 17.59112 4.04679
4.04575 17.67866 4.04575
4.04471 17.76623 4.04471
4.04367 17.85381 4.04367
4.04265 17.94142 4.04265
4.04163 18.02904 4.04163
4.04062 18.11667 4.04062
4.03963 18.20431 4.03963
4.03865 18.29196 4.03865
4.03768 18.37961 4.03768
4.03673 18.46726 4.03673
4.03579 18.55492 4.03579
4.03487 18.64258 4.03487
4.03396 18.73023 4.03396
4.03307 18.81788 4.03307
4.03220 18.90553 4.03220
4.03135 18.99318 4.03135
4.03051 19.08082 4.03051
4.02969 19.16846 4.02969
4.02889 19.25609 4.02889
4.02810 19.34372 4.02810
4.02733 19.43134 4.02733
4.02658 19.51895 4.02658
4.02585 19.60656 4.02585
4.02513 19.69416 4.02513
4.02443 19.78176 4.02443
4.02375 19.86935 4.02375
4.02308 19.95694 4.02308
4.02243 20.04452 4.02243
4.02180 20.13209 4.02180
4.02118 20.21966 4.02118
4.02058 20.30722 4.02058
4.01999 20.39478 4.01999
4.01942 20.48234 4.01942
4.01886 20.56989 4.01886
4.01832 20.65744 4.01832
4.01779 20.74498 4.01779
4.01727 20.83252 4.01727
4.01677 20.92006 4.01677
4.01629 21.00760 4.01629
4.01581 21.09513 4.01581
4.01535 21.18266 4.01535
4.01490 21.27020 4.01490
4.01447 21.35773 4.01447
4.01404 21.44526 4.01404
4.01363 21.53279 4.01363
4.01323 21.62032 4.01323
4.01284 21.70785 4.01284
4.01246 21.79537 4.01246
4.01209 21.88291 4.01209
4.01173 21.97044 4.01173
4.01139 22.05798 4.01139
4.01105 22.14551 4.01105
4.01072 22.23306 4.01072
4.01040 22.32060 4.01040
4.01009 22.40815 4.01009
4.00979 22.49570 4.00979
4.00950 22.58325 4.00950
4.00921 22.67081 4.00921
4.00894 22.75837 4.00894
4.00867 22.84593 4.00867
4.00841 22.93351 4.00841
4.00816 23.02108 4.00816
4.00791 23.10866 4.00791
4.00767 23.19624 4.00767
4.00744 23.28384 4.00744
4.00722 23.37144 4.00722
4.00700 23.45904 4.00700
4.00679 23.54665 4.00679
4.00659 23.63426 4.00659
4.00639 23.72189 4.00639
4.00619 23.80952 4.00619
4.00601 23.89716 4.00601
4.00582 23.98480 4.00582
4.00565 24.07245 4.00565
4.00548 24.16011 4.00548
4.00531 24.24778 4.00531
4.00515 24.33545 4.00515
4.00499 24.42314 4.00499
4.00484 24.51083 4.00484
4.00469 24.59853 4.00469
4.00455 24.68624 4.00455
4.00441 24.77395 4.00441
4.00428 24.86168 4.00428
4.00415 24.94941 4.00415
4.00402 25.03716 4.00402
4.00390 25.12491 4.00390
4.00378 25.21267 4.00378
4.00366 25.30044 4.00366
4.00355 25.38821 4.00355
4.00344 25.47600 4.00344
4.00334 25.56380 4.00334
4.00324 25.65161 4.00324
4.00314 25.73942 4.00314
4.00304 25.82725 4.00304
4.00295 25.91509 4.00295
4.00286 26.00293 4.00286
4.00277 26.09079 4.00277
4.00269 26.17865 4.00269
4.00260 26.26652 4.00260
4.00252 26.35441 4.00252
4.00245 26.44230 4.00245
4.00237 26.53021 4.00237
4.00230 26.61812 4.00230
4.00223 26.70604 4.00223
4.00216 26.79397 4.00216
4.00209 26.88192 4.00209
4.00203 26.96987 4.00203
4.00197 27.05784 4.00197
4.00191 27.14581 4.00191
4.00185 27.23379 4.00185
4.00179 27.32179 4.00179
4.00173 27.40979 4.00174
4.00168 27.49780 4.00168
4.00163 27.58582 4.00163
4.00158 27.67386 4.00158
4.00153 27.76190 4.00153
4.00148 27.84996 4.00148
4.00144 27.93802 4.00144
4.00139 28.02609 4.00139
4.00135 28.11418 4.00135
4.00131 28.20227 4.00131
4.00127 28.29038 4.00127
4.00123 28.37849 4.00123
4.00119 28.46661 4.00119
4.00116 28.55475 4.00116
4.00112 28.64289 4.00112
4.00108 28.73105 4.00108
4.00105 28.81921 4.00105
4.00102 28.90738 4.00102
4.00099 28.99557 4.00099
4.00096 29.08376 4.00096
4.00093 29.17196 4.00093
4.00090 29.26017 4.00090
4.00087 29.34840 4.00087
4.00084 29.43663 4.00084
4.00082 29.52487 4.00082
4.00079 29.61312 4.00079
4.00077 29.70138 4.00077
4.00074 29.78965 4.00074
4.00072 29.87794 4.00072
4.00070 29.96622 4.00070
4.00068 30.05452 4.00068
4.00066 30.14283 4.00066
4.00064 30.23115 4.00064
4.00062 30.31948 4.00062
4.00060 30.40782 4.00060
4.00058 30.49616 4.00058
4.00056 30.58452 4.00056
4.00054 30.67288 4.00054
4.00053 30.76126 4.00053
4.00051 30.84964 4.00051
4.00049 30.93803 4.00049
4.00048 31.02644 4.00048
4.00046 31.11485 4.00046
4.00045 31.20327 4.00045
4.00044 31.29169 4.00044
4.00042 31.38013 4.00042
4.00041 31.46858 4.00041
4.00040 31.55703 4.00040
4.00038 31.64550 4.00038
4.00037 31.73397 4.00037
4.00036 31.82245 4.00036
4.00035 31.91094 4.00035
4.00034 31.99944 4.00034
4.00033 32.08795 4.00033
4.00032 32.17647 4.00032
4.00031 32.26499 4.00031
4.00030 32.35353 4.00030
4.00029 32.44207 4.00029
4.00028 32.53062 4.00028
4.00027 32.61918 4.00027
4.00026 32.70775 4.00026
4.00025 32.79632 4.00025
4.00025 32.88491 4.00025
4.00024 32.97350 4.00024
4.00023 33.06210 4.00023
4.00022 33.15071 4.00022
4.00022 33.23932 4.00022
4.00021 33.32795 4.00021
4.00020 33.41658 4.00020
4.00020 33.50522 4.00020
4.00019 33.59387 4.00019
4.00019 33.68252 4.00019

Angle 0.636785 0.492025

4.00000 7.03348 4.00000
4.00000 7.03348 4.00000
4.00000 7.03348 4.00000
4.00000 7.03348 4.00000
4.00000 7.03348 4.00000
4.00000 7.03348 4.00000
4.00000 7.03348 4.00000
4.00000 7.03348 4.00000
4.00000 7.03348 4.00000
4.00000 7.03348 4.00000
4.00000 7.03348 4.00000
4.00000 7.03348 4.00000
4.00000 7.03348 4.00000
4.00000 7.03348 4.00000
4.00000 7.03348 4.00000
4.00000 7.03348 4.00000
4.00000 7.03348 4.00000
4.00000 7.03348 4.00000
4.00000 7.03348 4.00000
4.00000 7.03348 4.00000
4.00000 7.03348 4.00000
4.00000 7.03348 4.00000
4.00000 7.03348 4.00000
4.00000 7.03348 4.00000
4.00000 7.03348 4.00000
4.00000 7.03348 4.00000
4.00000 7.03348 4.00000
4.00000 7.03348 4.00000
4.00000 7.03348 4.00000
4.00000 7.03348 4.00000
4.00000 7.03348 4.00000
4.00000 7.03348 4.00000
4.00000 7.03348 4.00000
4.00000 7.03348 4.00000
4.00000 7.03348 4.00000
4.00000 7.03348 4.00000
4.00000 7.03348 4.00000
4.00000 7.03348 4.00000
4.00000 7.03348 4.00000
4.00000 7.03348 4.00000
4.00000 7.03348 4.00000
4.00000 7.03348 4.00000
4.00000 7.03348 4.00000
4.00000 7.03348 4.00000
4.00000 7.03348 4.00000
4.00000 7.03348 4.00000
4.00000 7.03348 4.00000
4.00000 7.03348 4.00000
4.00000 7.03348 4.00000
4.00000 7.03348 4.00000
4.00000 7.03348 4.00000
4.00000 7.03348 4.00000
4.00000 7.03348 4.00000
4.00000 7.03348 4.00000
4.00000 7.03348 4.00000
4.00000 7.03348 4.00000
4.00000 7.03348 4.00000
4.00000 7.03348 4.00000
4.00000 7.03348 4.00000
4.00000 7.03348 4.00000
4.00000 7.03348 4.00000
4.00000 7.03348 4.00000
4.00000 7.03348 4.00000
4.00000 7.03348 4.00000
4.00000 7.03348 4.00000
4.00000 7.03348 4.00000
4.00000 7.03348 4.00000
4.00000 7.03348 4.00000
4.00000 7.03348 4.00000
4.00000 7.03348 4.00000
4.00000 7.03348 4.00000
4.00000 7.03348 4.00000
4.00000 7.03348 4.00000
4.00000 7.03348 4.00000
4.00000 7.03348 4.00000
4.00000 7.03348 4.00000
4.00000 7.03348 4.00000
4.00000 7.03348 4.00000
4.00000 7.03348 4.00000
4.00000 7.03348 4.00000
4.00000 7.03348 4.00000
4.00000 7.03348 4.00000
4.00000 7.03348 4.00000
4.00000 7.03348 4.00000
4.00000 7.03348 4.00000
4.00000 7.03348 4.00000
4.00000 7.03348 4.00000
4.00000 7.03348 4.00000
4.00000 7.03348 4.00000
4.00000 7.03348 4.00000
4.00000 7.03348 4.00000
4.00000 7.03348 4.00000
4.00000 7.03348 4.00000
4.00000 7.03348 4.00000
4.00000 7.03348 4.00000
4.00000 7.03348 4.00000
4.00000 7.03348 4.00000
4.00000 7.03348 4.00000
4.00000 7.03348 4.00000
4.00000 7.03348 4.00000
4.00000 7.03348 4.00000
4.00000 7.03348 4.00000
4.00000 7.03348 4.00000
4.00000 7.03348 4.00000
4.00000 7.03348 4.00000
4.00000 7.03348 4.00000
4.00000 7.03348 4.00000
4.00000 7.03348 4.00000
4.00000 7.03348 4.00000
4.00000 7.03348 4.00000
4.00000 7.03348 4.00000
4.00000 7.03348 4.00000
4.00000 7.03348 4.00000
4.00000 7.03348 4.00000
4.00000 7.03348 4.00000
4.00000 7.03348 4.00000
4.00000 7.03348 4.00000
4.00000 7.03348 4.00000
4.00000 7.03348 4.00000
4.00000 7.03348 4.00000
4.00000 7.03348 4.00000
4.00000 7.03348 4.00000
4.00000 7.03348 4.00000
4.00000 7.03348 4.00000
4.00000 7.03348 4.00000
4.00000 7.03348 4.00000
4.00000 7.03348 4.00000
4.00000 7.03348 4.00000
4.00000 7.03348 4.00000
4.00000 7.03348 4.00000
4.00000 7.03348 4.00000
4.00000 7.03348 4.00000
4.00000 7.03348 4.00000
4.00000 7.03348 4.00000
4.00000 7.03348 4.00000
4.00000 7.03348 4.00000
4.00000 7.03348 4.00000
4.00000 7.03348 4.00000
4.00000 7.03348 4.00000
4.00000 7.03348 4.00000
4.00000 7.03348 4.00000
4.00000 7.03348 4.00000
4.00000 7.03349 4.00000
4.00000 7.03348 4.00000
4.00000 7.03348 4.00000
4.00000 7.03348 4.00000
4.00000 7.03348 4.00000
4.00000 7.03349 4.00000
4.00000 7.03348 4.00000
4.00000 7.03348 4.00000
4.00109 7.07051 4.00108
4.00335 7.14942 4.00335
4.00557 7.22851 4.00557
4.00775 7.30776 4.00775
4.00990 7.38714 4.00990
4.01204 7.46664 4.01204
4.01416 7.54623 4.01416
4.01628 7.62590 4.01628
4.01842 7.70562 4.01842
4.02058 7.78536 4.02058
4.02277 7.86511 4.02277
4.02501 7.94484 4.02501
4.02731 8.02451 4.02731
4.02969 8.10408 4.02969
4.03217 8.18353 4.03217
4.03478 8.26278 4.03478
4.03754 8.34179 4.03754
4.04050 8.42049 4.04050
4.04369 8.49877 4.04369
4.04718 8.57651 4.04718
4.05105 8.65356 4.05105
4.05534 8.72983 4.05534
4.06002 8.80537 4.06002
4.06513 8.88012 4.06513
4.07068 8.95403 4.07068
4.07672 9.02705 4.07672
4.08324 9.09913 4.08324
4.09026 9.17028 4.09026
4.09777 9.24050 4.09777
4.10574 9.30986 4.10574
4.11411 9.37847 4.11411
4.12278 9.44653 4.12278
4.13162 9.51431 4.13162
4.14044 9.58216 4.14044
4.14901 9.65059 4.14901
4.15700 9.72020 4.15700
4.16405 9.79176 4.16405
4.16970 9.86616 4.16970
4.17346 9.94438 4.17346
4.17488 10.02733 4.17488
4.17380 10.11532 4.17380
4.17165 10.20550 4.17165
4.16889 10.29695 4.16889
4.16554 10.38961 4.16554
4.16162 10.48347 4.16162
4.15711 10.57855 4.15711
4.15197 10.67491 4.15197
4.14617 10.77265 4.14617
4.13963 10.87193 4.13963
4.13222 10.97296 4.13222
4.12380 11.07607 4.12380
4.11412 11.18173 4.11412
4.10282 11.29066 4.10282
4.08932 11.40403 4.08932
4.07271 11.52366 4.07271
4.05162 11.65229 4.05162
4.02286 11.79630 4.02286
4.00000 13.19120 4.00000
4.00000 13.19120 4.00000
4.00000 13.19120 4.00000
4.00000 13.19120 4.00000
4.00000 13.19120 4.00000
4.00000 13.19120 4.00000
4.00000 13.19120 4.00000
4.00000 13.19120 4.00000
4.00000 13.19120 4.00000
4.00000 13.19120 4.00000
4.00000 13.19120 4.00000
4.00000 13.19120 4.00000
4.00000 13.19121 4.00000
4.00000 13.19120 4.00000
4.00000 13.19120 4.00000
4.00518 13.22006 4.00518
4.01524 13.28699 4.01524
4.02333 13.35788 4.02333
4.02950 13.43265 4.02949
4.03380 13.51116 4.03380
4.03635 13.59323 4.03635
4.03790 13.67732 4.03790
4.03940 13.76153 4.03940
4.04086 13.84584 4.04086
4.04229 13.93025 4.04229
4.04369 14.01474 4.04369
4.04507 14.09930 4.04507
4.04643 14.18394 4.04643
4.04776 14.26864 4.04776
4.04908 14.35340 4.04908
4.05038 14.43821 4.05038
4.05167 14.52308 4.05167
4.05295 14.60799 4.05295
4.05422 14.69296 4.05422
4.05547 14.77796 4.05547
4.05672 14.86301 4.05672
4.05796 14.94809 4.05796
4.05920 15.03321 4.05920
4.06041 15.11840 4.06041
4.06144 15.20397 4.06144
4.06227 15.28998 4.06227
4.06290 15.37639 4.06290
4.06335 15.46319 4.06335
4.06363 15.55034 4.06363
4.06376 15.63783 4.06376
4.06375 15.72562 4.06375
4.06360 15.81370 4.06360
4.06333 15.90204 4.06333
4.06295 15.99063 4.06295
4.06247 16.07943 4.06247
4.06190 16.16844 4.06190
4.06125 16.25762 4.06125
4.06053 16.34697 4.06053
4.05975 16.43647 4.05975
4.05890 16.52609 4.05890
4.05801 16.61583 4.05801
4.05708 16.70568 4.05708
4.05611 16.79561 4.05611
4.05512 16.88563 4.05512
4.05409 16.97571 4.05409
4.05305 17.06585 4.05305
4.05199 17.15603 4.05199
4.05092 17.24626 4.05092
4.04985 17.33652 4.04985
4.04877 17.42681 4.04877
4.04768 17.51712 4.04768
4.04660 17.60744 4.04660
4.04552 17.69777 4.04552
4.04445 17.78811 4.04445
4.04338 17.87845 4.04338
4.04233 17.96878 4.04233
4.04128 18.05911 4.04128
4.04025 18.14943 4.04025
4.03923 18.23974 4.03923
4.03823 18.33004 4.03823
4.03724 18.42032 4.03724
4.03626 18.51058 4.03626
4.03531 18.60083 4.03531
4.03437 18.69105 4.03437
4.03344 18.78126 4.03344
4.03254 18.87144 4.03254
4.03165 18.96161 4.03165
4.03079 19.05175 4.03079
4.02994 19.14186 4.02994
4.02911 19.23196 4.02911
4.02829 19.32203 4.02829
4.02750 19.41208 4.02750
4.02672 19.50210 4.02672
4.02597 19.59211 4.02597
4.02523 19.68208 4.02523
4.02451 19.77204 4.02451
4.02380 19.86197 4.02380
4.02312 19.95189 4.02312
4.02245 20.04178 4.02245
4.02180 20.13165 4.02180
4.02117 20.22149 4.02117
4.02055 20.31132 4.02055
4.01995 20.40112 4.01995
4.01936 20.49091 4.01936
4.01879 20.58068 4.01879
4.01824 20.67043 4.01824
4.01770 20.76016 4.01770
4.01717 20.84987 4.01717
4.01666 20.93957 4.01666
4.01617 21.02925 4.01617
4.01569 21.11891 4.01569
4.01522 21.20856 4.01522
4.01476 21.29819 4.01476
4.01432 21.38781 4.01432
4.01389 21.47742 4.01389
4.01347 21.56701 4.01347
4.01307 21.65659 4.01307
4.01267 21.74615 4.01267
4.01229 21.83570 4.01229
4.01192 21.92525 4.01192
4.01156 22.01478 4.01156
4.01121 22.10430 4.01121
4.01087 22.19381 4.01086
4.01053 22.28331 4.01054
4.01021 22.37280 4.01021
4.00990 22.46228 4.00990
4.00960 22.55176 4.00960
4.00931 22.64122 4.00931
4.00902 22.73068 4.00902
4.00875 22.82013 4.00875
4.00848 22.90958 4.00848
4.00822 22.99902 4.00822
4.00797 23.08845 4.00797
4.00772 23.17788 4.00772
4.00749 23.26730 4.00749
4.00726 23.35671 4.00726
4.00703 23.44613 4.00703
4.00682 23.53553 4.00682
4.00661 23.62494 4.00661
4.00640 23.71434 4.00640
4.00621 23.80373 4.00621
4.00602 23.89312 4.00601
4.00583 23.98252 4.00583
4.00565 24.07190 4.00565
4.00547 24.16129 4.00547
4.00531 24.25067 4.00531
4.00514 24.34005 4.00514
4.00498 24.42943 4.00498
4.00483 24.51881 4.00483
4.00468 24.60819 4.00468
4.00453 24.69756 4.00453
4.00439 24.78694 4.00439
4.00426 24.87631 4.00426
4.00412 24.96569 4.00412
4.00400 25.05506 4.00400
4.00387 25.14443 4.00387
4.00375 25.23381 4.00375
4.00364 25.32318 4.00364
4.00352 25.41256 4.00352
4.00341 25.50193 4.00341
4.00331 25.59131 4.00331
4.00320 25.68069 4.00320
4.00310 25.77007 4.00310
4.00301 25.85944 4.00301
4.00291 25.94882 4.00291
4.00282 26.03821 4.00282
4.00273 26.12759 4.00273
4.00265 26.21698 4.00265
4.00257 26.30636 4.00257
4.00249 26.39575 4.00249
4.00241 26.48514 4.00241
4.00233 26.57454 4.00233
4.00226 26.66393 4.00226
4.00219 26.75333 4.00219
4.00212 26.84273 4.00212
4.00206 26.93213 4.00206
4.00199 27.02154 4.00199
4.00193 27.11094 4.00193
4.00187 27.20035 4.00187
4.00181 27.28977 4.00181
4.00175 27.37918 4.00175
4.00170 27.46860 4.00170
4.00165 27.55802 4.00165
4.00159 27.64745 4.00159
4.00154 27.73688 4.00154
4.00150 27.82631 4.00150
4.00145 27.91574 4.00145
4.00140 28.00518 4.00140
4.00136 28.09462 4.00136
4.00132 28.18406 4.00132
4.00128 28.27351 4.00128
4.00124 28.36296 4.00124
4.00120 28.45241 4.00120
4.00116 28.54187 4.00116
4.00112 28.63133 4.00112
4.00109 28.72079 4.00109
4.00105 28.81026 4.00105
4.00102 28.89973 4.00102

