0.4291
0.4314
0.4338
0.4363
0.4388
0.4413
0.4439
0.4465
0.4492
0.4519
0.4546
0.4573
0.4600
0.4627
0.4654
0.4680
0.4707
0.4734
0.4763
0.4794
0.4823
0.4838
0.4827
0.4761
0.4760
0.4761
0.4761
0.4762
0.4765
0.4769
0.4775
0.4781
0.4784
0.4783
0.4778
0.4772
0.4765
0.4759
0.4753
0.4747
0.4743
0.4741
0.4739
0.4739
0.4741
0.4744
0.4752
0.4759
0.4767
0.4776
0.4787
0.4798
0.4810
0.4809
0.4823
0.4839
0.4855
0.4871
0.4887
0.4905
0.4924
0.4944
0.4965
0.4987
0.5010
0.5036
0.5063
0.5093
0.5124
0.5155
0.5181
0.5204
0.5227
0.5250
0.5273
0.5297
0.5321
0.5345
0.5370
0.5397
0.5424
0.5560
0.5588
0.5620
0.5625
0.5660
0.5686
0.5713
0.5740
0.5768
0.5796
0.5824
0.5851
0.5878
0.5902
0.5915
0.5937
0.5978
0.6019
0.6060
0.6101
0.6142
0.6185
0.6224
0.6264
0.6304
0.6345
0.6387
0.6429
0.6439
0.6488
0.6538
0.6591
0.6645
0.6701
0.6760
0.6822
0.6890
0.6964
0.7055
0.7163
0.7188
0.7211
0.7231
0.7248
0.7273
0.7296
0.7322
0.7346
0.7373
0.7398
0.7426
0.7452
0.7479
0.7506
0.7534
0.7562
0.7592
0.7622
0.7654
0.7577
0.7621
0.7666
0.7714
0.7762
0.7812
0.7862
0.7903
0.7930
0.7943
0.7961
0.7957
0.7969
0.7972
0.8002
0.8026
0.8047
0.8055
0.8072
0.8090
0.8108
0.8127
0.8147
0.8167
0.8187
0.8208
0.8230
0.8253
0.8277
0.8301
0.8327
0.8354
0.8383
0.8413
0.8445
0.8480
0.8519
0.8562
0.8611
0.8673
0.8789
0.8796
0.8802
0.8807
0.8811
0.8905
0.8907
0.8897
0.8874
0.8886
0.8896
0.8906
0.8914
0.8922
0.8929
0.8935
0.8940
0.8943
0.8944
0.8941
0.8916
0.8909
0.8918
0.8927
0.8936
0.8945
0.8954
0.8963
0.8971
0.9016
0.9026
0.9036
0.9045
0.9093
0.9104
0.9114
0.9124
0.9134
0.9143
0.9151
0.9158
0.9163
0.9165
0.9159
0.9143
0.9146
0.9141
0.9118
0.9125
0.9132
0.9138
0.9145
0.9152
0.9158
0.9165
0.9171
0.9177
0.9184
0.9190
0.9196
0.9202
0.9208
0.9214
0.9220
0.8977
0.9046
0.9060
0.9074
0.9089
0.9104
0.9120
0.9135
0.9151
0.9167
0.9182
0.9197
0.9213
0.9229
0.9244
0.9249
0.9331
0.9315
0.9320
0.9324
0.9329
0.9334
0.9338
0.9343
0.9348
0.9352
0.9356
0.9361
0.9365
0.9369
0.9374
0.9378
0.9382
0.9386
0.9390
0.9394
0.9398
0.9402
0.9406
0.9410
0.9414
0.9418
0.9422
0.9425
0.9429
0.9433
0.9436
0.9440
0.9444
0.9447
0.9451
0.9454
0.9458
0.9461
0.9464
0.9468
0.9471
0.9474
0.9478
0.9481
0.9484
0.9487
0.9490
0.9493
0.9497
0.9500
0.9503
0.9506
0.9509
0.9512
0.9515
0.9517
0.9520
0.9523
0.9526
0.9529
0.9532
0.9534
0.9537
0.9540
0.9542
0.9545
0.9548
0.9550
0.9553
0.9556
0.9558
0.9561
0.9563
0.9566
0.9568
0.9571
0.9573
0.9575
0.9578
0.9580
0.9582
0.9585
0.9587
0.9589
0.9592
0.9594
0.9596
0.9598
0.9601
0.9603
0.9605
0.9607
0.9609
0.9611
0.9613
0.9615
0.9618
0.9620
0.9622
0.9624
0.9626
0.9628
0.9630
0.9632
0.9633
0.9635
0.9637
0.9639
0.9641
0.9643
0.9645
0.9647
0.9648
0.9650
0.9652
0.9654
0.9656
0.9657
0.9659
0.9661
0.9662
0.9664
0.9666
0.9668
0.9669
0.9671
0.9672
0.9674
0.9676
0.9677
0.9679
0.9681
0.9682
0.9684
0.9685
0.9687
0.9688
0.9690
0.9691
0.9693
