0.3777
0.3755
0.3734
0.3712
0.3692
0.3671
0.3651
0.3632
0.3612
0.3593
0.3573
0.3553
0.3534
0.3515
0.3498
0.3479
0.3459
0.3440
0.3420
0.3401
0.3382
0.3364
0.3347
0.3330
0.3315
0.3300
0.3286
0.3270
0.3255
0.3241
0.3227
0.3214
0.3200
0.3185
0.3170
0.3154
0.3138
0.3122
0.3106
0.3089
0.3072
0.3055
0.3037
0.3020
0.3002
0.2984
0.2966
0.2948
0.2930
0.2912
0.2894
0.2876
0.2858
0.2840
0.2822
0.2801
0.2783
0.2765
0.2747
0.2729
0.2712
0.2694
0.2677
0.2659
0.2642
0.2625
0.2608
0.2591
0.2574
0.2557
0.2539
0.2522
0.2505
0.2488
0.2471
0.2454
0.2437
0.2420
0.2404
0.2387
0.2371
0.2355
0.2339
0.2324
0.2308
0.2293
0.2278
0.2264
0.2249
0.2234
0.2221
0.2207
0.2194
0.2181
0.2169
0.2157
0.2145
0.2133
0.2121
0.2109
0.2098
0.2087
0.2076
0.2066
0.2056
0.2047
0.2039
0.2031
0.2023
0.2017
0.2010
0.2005
0.2000
0.1997
0.1995
0.1994
0.1995
0.1995
0.1996
0.1997
0.1998
0.2000
0.2002
0.2005
0.2010
0.2015
0.2023
0.2031
0.2042
0.2054
0.2068
0.2084
0.2103
0.2126
0.2151
0.2181
0.2216
0.2258
0.2311
0.2390
0.2473
0.2488
0.2505
0.2523
0.2543
0.2565
0.2588
0.2613
0.2640
0.2669
0.2701
0.2735
0.2771
0.2811
0.2854
0.2900
0.2953
0.3014
0.3087
0.3162
0.3197
0.3229
0.3263
0.3301
0.3341
0.3384
0.3431
0.3482
0.3536
0.3591
0.3639
0.3683
0.3706
0.3741
0.3777
0.3816
0.3857
0.3901
0.3947
0.3997
0.4051
0.4110
0.4174
0.4246
0.4330
0.4481
0.4536
0.4594
0.4629
0.4644
0.4659
0.4674
0.4690
0.4707
0.4724
0.4742
0.4760
0.4779
0.4799
0.4819
0.4840
0.4879
0.4907
0.4936
0.4967
0.5000
0.5032
0.5064
0.5094
0.5123
0.5151
0.5179
0.5205
0.5231
0.5254
0.5272
0.5276
0.5310
0.5346
0.5382
0.5254
0.5300
0.5347
0.5396
0.5446
0.5497
0.5550
0.5604
0.5660
0.5718
0.5778
0.5841
0.5908
0.6048
0.6122
0.6199
0.6261
0.6323
0.6387
0.6452
0.6519
0.6588
0.6657
0.6728
0.6848
0.6925
0.7012
0.7114
0.7213
0.7411
0.7436
0.7460
0.7485
0.7509
0.7532
0.7555
0.7576
0.7609
0.7621
0.7638
0.7665
0.7693
0.7720
0.7747
0.7774
0.7801
0.7828
0.7854
0.7880
0.7905
0.7930
0.7956
0.7980
0.8003
0.8028
0.8057
0.8086
0.8116
0.8147
0.8177
0.8209
0.8240
0.8274
0.8306
0.8340
0.8374
0.8409
0.8445
0.8482
0.8519
0.8555
0.8593
0.8632
0.8678
0.8696
0.8706
0.8717
0.8727
0.8737
0.8746
0.8756
0.8766
0.8775
0.8784
0.8794
0.8803
0.8904
0.8913
0.8921
0.8928
0.8935
0.8942
0.8948
0.9052
0.9054
0.9056
0.9056
0.9055
0.9052
0.9044
0.9013
0.9014
0.9019
0.9023
0.9026
0.9027
0.9023
0.9016
0.8987
0.8995
0.9002
0.9009
0.9016
0.9023
0.9030
0.9036
0.9043
0.9049
0.9056
0.9062
0.9069
0.9075
0.9081
0.9087
0.9093
0.9099
0.9105
0.9111
0.9117
0.9123
0.9129
0.9203
0.9209
0.9214
0.9219
0.9224
0.9228
0.9233
0.9236
0.9240
0.9243
0.9245
0.9246
0.9245
0.9238
0.9217
0.9214
0.9218
0.9223
0.9228
0.9233
0.9238
0.9242
0.9247
0.9252
0.9256
0.9261
0.9265
0.9270
0.9274
0.9278
0.9283
0.9287
0.9291
0.9295
0.9299
0.9304
0.9308
0.9312
0.9316
0.9320
0.9324
0.9328
0.9332
0.9335
0.9339
0.9343
0.9347
0.9350
0.9354
