0.3896
0.3933
0.3970
0.4007
0.4042
0.4078
0.4112
0.4145
0.4176
0.4206
0.4236
0.4264
0.4293
0.4320
0.4347
0.4373
0.4398
0.4422
0.4444
0.4465
0.4487
0.4508
0.4529
0.4547
0.4564
0.4580
0.4593
0.4604
0.4613
0.4625
0.4645
0.4632
0.4634
0.4635
0.4635
0.4634
0.4634
0.4635
0.4637
0.4639
0.4641
0.4642
0.4644
0.4645
0.4646
0.4645
0.4644
0.4641
0.4637
0.4633
0.4627
0.4621
0.4613
0.4605
0.4595
0.4585
0.4572
0.4559
0.4546
0.4531
0.4517
0.4501
0.4486
0.4470
0.4453
0.4438
0.4421
0.4404
0.4386
0.4368
0.4350
0.4332
0.4314
0.4297
0.4280
0.4265
0.4251
0.4239
0.4230
0.4226
0.4241
0.4223
0.4205
0.4185
0.4165
0.4143
0.4120
0.4098
0.4048
0.4034
0.4019
0.4004
0.3988
0.3972
0.3956
0.3939
0.3922
0.3904
0.3886
0.3867
0.3847
0.3826
0.3804
0.3781
0.3755
0.3727
0.3692
0.3646
0.3628
0.3620
0.3611
0.3542
0.3538
0.3534
0.3530
0.3527
0.3524
0.3521
0.3518
0.3515
0.3512
0.3510
0.3508
0.3506
0.3504
0.3503
0.3502
0.3501
0.3499
0.3530
0.3533
0.3536
0.3541
0.3546
0.3552
0.3560
0.3568
0.3578
0.3589
0.3600
0.3613
0.3627
0.3643
0.3659
0.3677
0.3696
0.3716
0.3738
0.3761
0.3785
0.3810
0.3837
0.3569
0.3607
0.3647
0.3688
0.3731
0.3776
0.3823
0.3872
0.3923
0.3977
0.4033
0.4092
0.4155
0.4221
0.4033
0.4124
0.4252
0.4325
0.4393
0.4464
0.4537
0.4613
0.4692
0.4776
0.4864
0.4957
0.5057
0.5166
0.5289
0.5219
0.5358
0.5485
0.5553
0.5624
0.5700
0.5780
0.5867
0.5960
0.6070
0.6219
0.6291
0.6369
0.6405
0.6440
0.6476
0.6514
0.6554
0.6600
0.6689
0.6727
0.6755
0.6784
0.6812
0.6841
0.6870
0.6899
0.6928
0.6958
0.6987
0.7017
0.7047
0.7078
0.7108
0.7139
0.7170
0.7202
0.7234
0.7266
0.7298
0.7331
0.7364
0.7398
0.7431
0.7465
0.7499
0.7534
0.7569
0.7604
0.7640
0.7676
0.7714
0.7754
0.7795
0.7837
0.7882
0.7929
0.7981
0.8040
0.8117
0.8181
0.8201
0.8219
0.8239
0.8259
0.8280
0.8302
0.8322
0.8339
0.8405
0.8418
0.8429
0.8438
0.8445
0.8449
0.8447
0.8429
0.8439
0.8448
0.8456
0.8463
0.8469
0.8471
0.8297
0.8310
0.8328
0.8347
0.8365
0.8383
0.8401
0.8420
0.8437
0.8455
0.8473
0.8490
0.8507
0.8523
0.8539
0.8555
0.8574
0.8605
0.8629
0.8638
0.8647
0.8655
0.8664
0.8673
0.8681
0.8690
0.8698
0.8706
0.8714
0.8723
0.8731
0.8739
0.8746
0.8555
0.8575
0.8594
0.8614
0.8634
0.8655
0.8676
0.8699
0.8720
0.8740
0.8760
0.8779
0.8798
0.8817
0.8839
0.8864
0.8871
0.8877
0.8884
0.8891
0.8897
0.8904
0.8910
0.8917
0.8923
0.8929
0.8936
0.8942
0.8948
0.8954
0.8960
0.8966
0.8972
0.8978
0.8984
0.8990
0.8995
0.9001
0.9007
0.9012
0.9018
0.9023
0.9029
0.9034
0.9040
0.9045
0.9050
0.9056
0.9061
0.9066
0.9071
0.9076
0.9081
0.9086
0.9091
0.9096
0.9101
0.9106
0.9111
0.9116
0.9120
0.9125
0.9130
0.9134
0.9139
0.9143
0.9148
0.9152
0.9157
0.9161
0.9166
0.9170
0.9174
0.9179
0.9183
0.9187
0.9191
0.9196
0.9200
0.9204
0.9208
0.9212
0.9216
0.9220
0.9224
0.9228
0.9232
0.9236
0.9239
0.9243
0.9247
0.9251
0.9254
0.9258
0.9262
0.9265
0.9269
0.9273
0.9276
0.9280
0.9283
0.9287
0.9290
