0.4237
0.4211
0.4185
0.4157
0.4128
0.4097
0.4066
0.4035
0.4001
0.3968
0.3935
0.3904
0.3873
0.3842
0.3811
0.3779
0.3748
0.3717
0.3686
0.3656
0.3625
0.3596
0.3567
0.3537
0.3508
0.3478
0.3449
0.3421
0.3393
0.3365
0.3338
0.3311
0.3284
0.3258
0.3232
0.3207
0.3182
0.3158
0.3135
0.3111
0.3088
0.3065
0.3043
0.3020
0.2998
0.2975
0.2953
0.2931
0.2909
0.2887
0.2865
0.2844
0.2822
0.2801
0.2780
0.2758
0.2737
0.2716
0.2695
0.2674
0.2653
0.2632
0.2611
0.2590
0.2569
0.2548
0.2526
0.2505
0.2484
0.2464
0.2443
0.2423
0.2403
0.2385
0.2367
0.2350
0.2334
0.2319
0.2305
0.2291
0.2278
0.2266
0.2254
0.2243
0.2233
0.2224
0.2215
0.2208
0.2207
0.2203
0.2198
0.2194
0.2192
0.2192
0.2194
0.2198
0.2205
0.2213
0.2224
0.2237
0.2252
0.2269
0.2288
0.2310
0.2333
0.2359
0.2386
0.2417
0.2450
0.2522
0.2532
0.2565
0.2599
0.2634
0.2671
0.2708
0.2745
0.2783
0.2822
0.2860
0.2899
0.2937
0.2976
0.3016
0.3057
0.3099
0.3144
0.3193
0.3246
0.3304
0.3370
0.3450
0.3541
0.3667
0.3692
0.3701
0.3739
0.3746
0.3773
0.3794
0.3809
0.3849
0.3890
0.3932
0.3975
0.4020
0.4067
0.4114
0.4164
0.4216
0.4271
0.4330
0.4392
0.4460
0.4534
0.4620
0.4734
0.4825
0.4866
0.4907
0.4949
0.4993
0.5037
0.5082
0.5128
0.5175
0.5222
0.5271
0.5321
0.5372
0.5424
0.5477
0.5531
0.5586
0.5642
0.5700
0.5759
0.5819
0.5881
0.5687
0.5762
0.5840
0.5921
0.6007
0.6098
0.6195
0.6300
0.6418
0.6583
0.6681
0.6757
0.6962
0.7042
0.7129
0.7226
0.7399
0.7507
0.7611
0.7706
0.7734
0.7760
0.7785
0.7808
0.7829
0.7847
0.7859
0.7853
0.7886
0.7919
0.7926
0.7939
0.7946
0.7970
0.7993
0.8017
0.8074
0.8104
0.8133
0.8161
0.8189
0.8217
0.8245
0.8272
0.8299
0.8326
0.8351
0.8376
0.8399
0.8420
0.8435
0.8441
0.8472
0.8502
0.8533
0.8563
0.8593
0.8623
0.8653
0.8683
0.8712
0.8742
0.8772
0.8804
0.8842
0.8884
0.8923
0.8966
0.8975
0.9028
0.9039
0.9050
0.9061
0.9072
0.9082
0.9092
0.9101
0.9134
0.9141
0.9149
0.9158
0.9166
0.9172
0.9175
0.9159
0.9168
0.9017
0.9031
0.9042
0.9052
0.9059
0.9061
0.9050
0.9068
0.9089
0.9107
0.9124
0.9140
0.9157
0.9173
0.9191
0.9206
0.9212
0.9217
0.9223
0.9228
0.9234
0.9239
0.9245
0.9250
0.9255
0.9261
0.9266
0.9271
0.9276
0.9281
0.9286
0.9291
0.9296
0.9301
0.9305
0.9310
0.9315
0.9312
0.9319
0.9327
0.9334
0.9342
0.9349
0.9357
0.9364
0.9371
0.9378
0.9385
0.9392
0.9398
0.9401
0.9379
0.9383
0.9387
0.9391
0.9395
0.9399
0.9403
0.9406
0.9410
0.9414
0.9417
0.9421
0.9425
0.9428
0.9432
0.9435
0.9439
0.9442
0.9446
0.9449
0.9452
0.9456
0.9459
0.9462
0.9465
0.9469
0.9472
0.9475
0.9478
0.9481
0.9484
0.9487
0.9490
0.9493
0.9496
0.9499
0.9502
0.9505
0.9508
0.9510
0.9513
0.9516
0.9519
0.9521
0.9524
0.9527
0.9529
0.9532
0.9535
0.9537
0.9540
0.9542
0.9545
0.9547
0.9550
0.9552
0.9555
0.9557
0.9560
0.9562
0.9564
0.9567
0.9569
0.9571
0.9574
0.9576
0.9578
0.9581
0.9583
0.9585
0.9587
0.9589
0.9592
0.9594
0.9596
0.9598
0.9600
0.9602
0.9604
0.9606
0.9608
0.9610
0.9612
0.9614
