0.4420
0.4410
0.4398
0.4385
0.4373
0.4362
0.4345
0.4328
0.4314
0.4302
0.4291
0.4281
0.4273
0.4265
0.4257
0.4251
0.4245
0.4240
0.4235
0.4229
0.4224
0.4218
0.4211
0.4203
0.4194
0.4184
0.4171
0.4155
0.4134
0.4109
0.4079
0.4036
0.4045
0.4050
0.4055
0.4062
0.4069
0.4078
0.4087
0.4098
0.4109
0.4119
0.4121
0.4130
0.4140
0.4152
0.4166
0.4180
0.4195
0.4211
0.4189
0.4166
0.4147
0.4161
0.4159
0.4156
0.4153
0.4150
0.4147
0.4144
0.4143
0.4142
0.4141
0.4141
0.4143
0.4146
0.4152
0.4159
0.4170
0.4182
0.4196
0.4212
0.4228
0.4246
0.4263
0.4280
0.4298
0.4315
0.4333
0.4352
0.4370
0.4389
0.4408
0.4427
0.4447
0.4468
0.4492
0.4518
0.4548
0.4582
0.4619
0.4663
0.4714
0.4794
0.4903
0.4915
0.4927
0.4937
0.4939
0.4948
0.4947
0.4976
0.4963
0.4959
0.4965
0.4974
0.4980
0.4979
0.4978
0.4976
0.4990
0.5005
0.5020
0.5036
0.5052
0.5069
0.5067
0.5090
0.5114
0.5138
0.5164
0.5191
0.5219
0.5246
0.5272
0.5296
0.5318
0.5338
0.5356
0.5371
0.5383
0.5374
0.5391
0.5412
0.5435
0.5459
0.5484
0.5517
0.5547
0.5548
0.5538
0.5523
0.5498
0.5503
0.5514
0.5526
0.5540
0.5557
0.5574
0.5592
0.5611
0.5630
0.5649
0.5668
0.5688
0.5709
0.5732
0.5755
0.5778
0.5829
0.5869
0.5900
0.5931
0.5964
0.5997
0.6031
0.6067
0.6102
0.6138
0.6174
0.6208
0.6240
0.6268
0.6291
0.6299
0.6316
0.6330
0.6368
0.6407
0.6447
0.6488
0.6530
0.6572
0.6616
0.6661
0.6707
0.6754
0.6802
0.6852
0.6903
0.6955
0.7008
0.7063
0.7119
0.7177
0.7238
0.7301
0.7366
0.7433
0.7517
0.7594
0.7676
0.7767
0.7878
0.7994
0.8037
0.8081
0.8125
0.8171
0.8217
0.8264
0.8314
0.8367
0.8422
0.8477
0.8553
0.8650
0.8761
0.8798
0.8833
0.8858
0.8875
0.8886
0.8887
0.8885
0.8894
0.8904
0.8913
0.8922
0.8931
0.8940
0.8949
0.8957
0.8966
0.8974
0.8983
0.8991
0.8999
0.9007
0.9015
0.9023
0.9031
0.9038
0.9046
0.9053
0.9061
0.9068
0.9075
0.9083
0.9090
0.9097
0.9103
0.9110
0.9117
0.9124
0.9130
0.9137
0.9143
0.9150
0.9156
0.9162
0.9168
0.9303
0.9307
0.9310
0.9313
0.9315
0.9317
0.9318
0.9319
0.9319
0.9318
0.9316
0.9312
0.9305
0.9292
0.9359
0.9365
0.9368
0.9370
0.9183
0.9196
0.9208
0.9219
0.9230
0.9240
0.9249
0.9258
0.9264
0.9267
0.9263
0.9277
0.9294
0.9310
0.9328
0.9343
0.9347
0.9351
0.9356
0.9360
0.9364
0.9368
0.9372
0.9376
0.9380
0.9384
0.9388
0.9391
0.9395
0.9399
0.9403
0.9406
0.9410
0.9414
0.9417
0.9421
0.9424
0.9428
0.9431
0.9435
0.9438
0.9441
0.9445
0.9448
0.9451
0.9455
0.9458
0.9461
0.9464
0.9467
0.9470
0.9473
0.9477
0.9480
0.9483
0.9486
0.9488
0.9491
0.9494
0.9497
0.9500
0.9503
0.9506
0.9508
0.9511
0.9514
0.9517
0.9519
0.9522
0.9525
0.9527
0.9530
0.9532
0.9535
0.9537
0.9540
0.9542
0.9545
0.9547
0.9550
0.9552
0.9554
0.9557
0.9559
0.9562
0.9564
0.9566
0.9568
0.9571
0.9573
0.9575
0.9577
0.9580
0.9582
0.9584
0.9586
0.9588
0.9590
0.9592
0.9594
0.9596
0.9598
0.9600
0.9602
0.9604
0.9606
0.9608
0.9610
0.9612
0.9614
0.9616
0.9618
0.9620
0.9622
0.9624
0.9625
0.9627
0.9629
0.9631
0.9633
