0.3735
0.3755
0.3772
0.3789
0.3808
0.3827
0.3847
0.3866
0.3886
0.3905
0.3925
0.3944
0.3962
0.3982
0.4003
0.4023
0.4044
0.4064
0.4085
0.4107
0.4128
0.4149
0.4168
0.4185
0.4203
0.4223
0.4243
0.4263
0.4282
0.4301
0.4320
0.4338
0.4356
0.4374
0.4392
0.4409
0.4426
0.4443
0.4460
0.4471
0.4485
0.4502
0.4521
0.4537
0.4550
0.4562
0.4573
0.4592
0.4610
0.4629
0.4647
0.4665
0.4683
0.4700
0.4718
0.4731
0.4744
0.4758
0.4772
0.4787
0.4802
0.4817
0.4832
0.4847
0.4863
0.4880
0.4897
0.4915
0.4933
0.4952
0.4972
0.4992
0.5013
0.5035
0.5057
0.5079
0.5101
0.5122
0.5137
0.5151
0.5157
0.5174
0.5205
0.5235
0.5265
0.5294
0.5322
0.5345
0.5357
0.5343
0.5374
0.5404
0.5434
0.5462
0.5490
0.5518
0.5544
0.5570
0.5594
0.5619
0.5643
0.5666
0.5688
0.5710
0.5729
0.5742
0.5772
0.5820
0.5872
0.5929
0.5992
0.6000
0.6041
0.6056
0.6049
0.6076
0.6095
0.6113
0.6130
0.6147
0.6162
0.6177
0.6190
0.6202
0.6213
0.6223
0.6236
0.6248
0.6260
0.6272
0.6283
0.6293
0.6303
0.6312
0.6321
0.6329
0.6337
0.6344
0.6350
0.6356
0.6360
0.6363
0.6364
0.6366
0.6367
0.6368
0.6136
0.6145
0.6155
0.6165
0.6175
0.6187
0.6200
0.6215
0.6230
0.6246
0.6261
0.6278
0.6295
0.6311
0.6315
0.6347
0.6397
0.6405
0.6413
0.6421
0.6430
0.6381
0.6400
0.6419
0.6438
0.6458
0.6477
0.6497
0.6518
0.6633
0.6653
0.6671
0.6691
0.6710
0.6729
0.6747
0.6759
0.6777
0.6795
0.6815
0.6515
0.6548
0.6597
0.6624
0.6576
0.6544
0.6576
0.6601
0.6628
0.6657
0.6686
0.6718
0.6752
0.6788
0.6828
0.6871
0.6919
0.6977
0.7063
0.7115
0.7149
0.7186
0.7228
0.7277
0.7341
0.7453
0.7459
0.7465
0.7472
0.7479
0.7486
0.7493
0.7500
0.7508
0.7515
0.7523
0.7531
0.7540
0.7548
0.7557
0.7566
0.7575
0.7585
0.7594
0.7605
0.7615
0.7625
0.7636
0.7647
0.7659
0.7670
0.7682
0.7695
0.7707
0.7720
0.7733
0.7746
0.7760
0.7774
0.7788
0.7803
0.7818
0.7613
0.7641
0.7669
0.7698
0.7728
0.7759
0.7791
0.7824
0.7855
0.7886
0.7916
0.7948
0.7980
0.8013
0.8049
0.8100
0.8120
0.8141
0.8162
0.8183
0.8205
0.8227
0.8250
0.8314
0.8340
0.8367
0.8394
0.8422
0.8450
0.8479
0.8508
0.8536
0.8565
0.8593
0.8621
0.8648
0.8673
0.8696
0.8694
0.8731
0.8771
0.8815
0.8864
0.8924
0.9030
0.9052
0.9059
0.9065
0.9072
0.9079
0.9085
0.9092
0.9098
0.9105
0.9111
0.9117
0.9123
0.9129
0.9135
0.9141
0.9147
0.9153
0.9159
0.9164
0.9170
0.9176
0.9181
0.9187
0.9192
0.9197
0.9203
0.9208
0.9213
0.9218
0.9223
0.9228
0.9233
0.9238
0.9243
0.9248
0.9253
0.9258
0.9262
0.9267
0.9272
0.9276
0.9281
0.9285
0.9290
0.9294
0.9299
0.9303
0.9307
0.9311
0.9316
0.9320
0.9324
0.9328
0.9332
0.9336
0.9340
0.9344
0.9459
0.9461
0.9462
0.9464
0.9465
0.9466
0.9466
0.9466
0.9465
0.9464
0.9461
0.9457
0.9450
0.9440
0.9421
0.9402
0.9406
0.9409
0.9412
0.9416
0.9419
0.9422
0.9425
0.9429
0.9432
0.9435
0.9438
0.9441
0.9444
0.9447
0.9450
0.9453
0.9456
0.9459
0.9462
0.9465
0.9468
0.9470
0.9473
0.9476
0.9479
0.9482
0.9484
0.9487
0.9490
0.9492
0.9495
0.9498
0.9500
0.9503
