0.5951
0.5927
0.5905
0.5884
0.5857
0.5833
0.5811
0.5789
0.5768
0.5747
0.5725
0.5703
0.5681
0.5658
0.5636
0.5613
0.5589
0.5566
0.5542
0.5519
0.5495
0.5471
0.5448
0.5427
0.5406
0.5383
0.5361
0.5339
0.5317
0.5296
0.5276
0.5256
0.5238
0.5220
0.5203
0.5187
0.5172
0.5157
0.5143
0.5130
0.5118
0.5106
0.5095
0.5085
0.5074
0.5065
0.5056
0.5047
0.5039
0.5032
0.5026
0.5020
0.5016
0.5013
0.5010
0.5009
0.5008
0.5008
0.5009
0.5011
0.5013
0.5017
0.5020
0.5025
0.5030
0.5036
0.5043
0.5051
0.5060
0.5070
0.5081
0.5093
0.5106
0.5121
0.5137
0.5155
0.5172
0.5183
0.5184
0.5195
0.5206
0.5217
0.5229
0.5240
0.5252
0.5263
0.5275
0.5286
0.5298
0.5309
0.5320
0.5331
0.5342
0.5352
0.5362
0.5370
0.5380
0.5391
0.5402
0.5415
0.5428
0.5442
0.5456
0.5469
0.5483
0.5496
0.5509
0.5522
0.5531
0.5544
0.5558
0.5572
0.5585
0.5598
0.5610
0.5621
0.5632
0.5642
0.5652
0.5662
0.5671
0.5680
0.5690
0.5699
0.5709
0.5720
0.5732
0.5745
0.5762
0.5780
0.5796
0.5804
0.5785
0.5763
0.5560
0.5535
0.5543
0.5551
0.5559
0.5566
0.5572
0.5578
0.5584
0.5592
0.5600
0.5607
0.5616
0.5629
0.5655
0.5656
0.5655
0.5655
0.5655
0.5655
0.5656
0.5658
0.5660
0.5663
0.5666
0.5670
0.5675
0.5680
0.5686
0.5693
0.5663
0.5676
0.5689
0.5697
0.5703
0.5696
0.5709
0.5722
0.5734
0.5742
0.5752
0.5762
0.5771
0.5781
0.5790
0.5791
0.5800
0.5809
0.5818
0.5829
0.5840
0.5854
0.5877
0.5925
0.5920
0.5915
0.5910
0.5907
0.5904
0.5902
0.5901
0.5901
0.5932
0.5940
0.5950
0.5961
0.5974
0.5984
0.5992
0.6000
0.6006
0.6013
0.6018
0.6023
0.6028
0.6030
0.6027
0.6010
0.6025
0.6040
0.6055
0.6072
0.6090
0.6108
0.6127
0.6148
0.6168
0.6190
0.6213
0.6237
0.6261
0.6243
0.6274
0.6307
0.6340
0.6375
0.6409
0.6445
0.6479
0.6516
0.6554
0.6592
0.6631
0.6670
0.6710
0.6749
0.6783
0.6824
0.6867
0.6911
0.6752
0.6809
0.6868
0.6928
0.6991
0.7055
0.7123
0.7194
0.7268
0.7349
0.7437
0.7537
0.7660
0.7710
0.7773
0.7823
0.7860
0.7898
0.7937
0.7977
0.8018
0.8061
0.8105
0.8151
0.8199
0.8249
0.8303
0.8362
0.8430
0.8525
0.8547
0.8569
0.8592
0.8615
0.8638
0.8662
0.8687
0.8712
0.8737
0.8763
0.8789
0.8815
0.8841
0.8869
0.8897
0.8927
0.8959
0.8993
0.9031
0.9071
0.9116
0.9169
0.9239
0.9325
0.9331
0.9337
0.9342
0.9348
0.9354
0.9359
0.9365
0.9370
0.9376
0.9381
0.9386
0.9391
0.9396
0.9401
0.9406
0.9490
0.9495
0.9499
0.9503
0.9506
0.9510
0.9513
0.9515
0.9517
0.9519
0.9519
0.9518
0.9515
0.9507
0.9474
0.9478
0.9458
0.9465
0.9471
0.9478
0.9485
0.9492
0.9499
0.9505
0.9512
0.9519
0.9525
0.9531
0.9537
0.9543
0.9546
0.9537
0.9541
0.9544
0.9547
0.9551
0.9554
0.9557
0.9560
0.9563
0.9566
0.9569
0.9689
0.9690
0.9691
0.9691
0.9691
0.9691
0.9690
0.9689
0.9687
0.9684
0.9680
0.9674
0.9666
0.9654
0.9610
0.9614
0.9617
0.9619
0.9622
0.9624
0.9627
0.9629
0.9631
0.9634
0.9636
0.9638
0.9641
0.9643
0.9645
0.9648
0.9650
0.9652
0.9654
0.9656
0.9658
0.9661
0.9663
0.9665
0.9667
0.9669
0.9671
0.9673
0.9675
0.9677
0.9679
