0.5543
0.5516
0.5490
0.5466
0.5444
0.5423
0.5405
0.5381
0.5350
0.5322
0.5295
0.5265
0.5237
0.5210
0.5183
0.5156
0.5128
0.5101
0.5065
0.5038
0.5011
0.4985
0.4960
0.4934
0.4909
0.4884
0.4860
0.4836
0.4813
0.4790
0.4767
0.4745
0.4723
0.4702
0.4680
0.4660
0.4639
0.4618
0.4598
0.4578
0.4558
0.4538
0.4518
0.4499
0.4479
0.4459
0.4440
0.4421
0.4402
0.4383
0.4365
0.4347
0.4330
0.4313
0.4296
0.4279
0.4263
0.4248
0.4232
0.4217
0.4203
0.4189
0.4176
0.4162
0.4150
0.4137
0.4125
0.4113
0.4102
0.4090
0.4079
0.4068
0.4057
0.4045
0.4034
0.4021
0.4007
0.3985
0.3954
0.3944
0.3945
0.3947
0.3950
0.3954
0.3958
0.3962
0.3967
0.3973
0.3979
0.3986
0.3993
0.4001
0.4009
0.4017
0.4026
0.4034
0.4042
0.4051
0.4060
0.4068
0.4078
0.4087
0.4097
0.4108
0.4123
0.4138
0.4153
0.4171
0.4190
0.4211
0.4234
0.4257
0.4282
0.4309
0.4337
0.4366
0.4396
0.4428
0.4460
0.4493
0.4528
0.4582
0.4647
0.4654
0.4657
0.4678
0.4703
0.4730
0.4757
0.4785
0.4813
0.4842
0.4871
0.4900
0.4930
0.4960
0.4780
0.4820
0.4861
0.4902
0.4943
0.4983
0.5023
0.5057
0.5092
0.5132
0.5172
0.5217
0.5265
0.5325
0.5411
0.5470
0.5530
0.5607
0.5720
0.5800
0.5837
0.5884
0.5936
0.5991
0.6070
0.6168
0.6176
0.6188
0.6199
0.6211
0.6221
0.6232
0.6242
0.6253
0.6263
0.6273
0.6283
0.6294
0.6308
0.6347
0.6314
0.6305
0.6282
0.6282
0.6283
0.6284
0.6284
0.6286
0.6287
0.6289
0.6291
0.6291
0.6293
0.6295
0.6296
0.6296
0.6286
0.6284
0.6286
0.6289
0.6291
0.6294
0.6297
0.6311
0.6315
0.6320
0.6325
0.6331
0.6336
0.6342
0.6347
0.6352
0.6358
0.6363
0.6368
0.6373
0.6377
0.6381
0.6384
0.6386
0.6397
0.6405
0.6414
0.6424
0.6517
0.6530
0.6540
0.6552
0.6564
0.6617
0.6630
0.6643
0.6654
0.6665
0.6676
0.6686
0.6694
0.6478
0.6489
0.6484
0.6511
0.6539
0.6566
0.6593
0.6618
0.6628
0.6667
0.6704
0.6742
0.6781
0.6821
0.6865
0.6924
0.6950
0.6977
0.7004
0.7032
0.7061
0.7089
0.7119
0.7149
0.7179
0.7210
0.7242
0.7274
0.7306
0.7340
0.7374
0.7408
0.7443
0.7480
0.7517
0.7555
0.7595
0.7636
0.7679
0.7724
0.7772
0.7823
0.7878
0.7937
0.8005
0.8088
0.8170
0.8198
0.8226
0.8255
0.8284
0.8313
0.8343
0.8373
0.8404
0.8435
0.8467
0.8500
0.8533
0.8568
0.8604
0.8641
0.8679
0.8717
0.8759
0.8807
0.8874
0.8950
0.8958
0.8966
0.8974
0.8981
0.8989
0.8997
0.9004
0.9011
0.9019
0.9026
0.9033
0.9040
0.9047
0.9054
0.9061
0.9068
0.9074
0.9081
0.9088
0.9094
0.9101
0.9107
0.9113
0.9119
0.9126
0.9132
0.9138
0.9144
0.9150
0.9155
0.9161
0.9167
0.9172
0.9178
0.9184
0.9189
0.9195
0.9200
0.9323
0.9326
0.9329
0.9332
0.9334
0.9335
0.9337
0.9337
0.9337
0.9337
0.9335
0.9332
0.9327
0.9319
0.9302
0.9279
0.9284
0.9283
0.9290
0.9297
0.9304
0.9312
0.9319
0.9326
0.9333
0.9340
0.9346
0.9352
0.9355
0.9359
0.9361
0.9360
0.9351
0.9355
0.9358
0.9362
0.9366
0.9370
0.9374
0.9377
0.9381
0.9384
0.9388
0.9392
0.9395
0.9399
0.9402
0.9405
0.9409
0.9412
0.9416
0.9419
0.9422
0.9425
0.9429
0.9432
0.9435
0.9438
0.9441
0.9444
0.9447
