0.2145
0.2139
0.2135
0.2133
0.2132
0.2134
0.2134
0.2128
0.2115
0.2081
0.2081
0.2055
0.2058
0.2062
0.2065
0.2069
0.2074
0.2080
0.2085
0.2092
0.2098
0.2105
0.2113
0.2116
0.2124
0.2127
0.2137
0.2146
0.2156
0.2166
0.2177
0.2188
0.2200
0.2212
0.2224
0.2237
0.2250
0.2264
0.2278
0.2293
0.2308
0.2324
0.2341
0.2359
0.2378
0.2397
0.2419
0.2441
0.2467
0.2485
0.2511
0.2525
0.2541
0.2557
0.2573
0.2588
0.2605
0.2623
0.2642
0.2661
0.2681
0.2701
0.2720
0.2738
0.2757
0.2776
0.2792
0.2840
0.2863
0.2887
0.2911
0.2937
0.2963
0.2989
0.3016
0.3043
0.3071
0.3098
0.3125
0.3150
0.3173
0.3195
0.3204
0.3235
0.3269
0.3303
0.3339
0.3378
0.3418
0.3462
0.3510
0.3569
0.3617
0.3650
0.3684
0.3718
0.3754
0.3790
0.3826
0.3864
0.3902
0.3942
0.3982
0.4023
0.4065
0.4107
0.4150
0.4193
0.4236
0.4280
0.4324
0.4369
0.4414
0.4459
0.4507
0.4559
0.4579
0.4607
0.4635
0.4662
0.4689
0.4715
0.4741
0.4766
0.4791
0.4817
0.4842
0.4867
0.4892
0.4918
0.4945
0.4972
0.5002
0.5033
0.5063
0.5094
0.5128
0.5164
0.5204
0.5246
0.5033
0.5090
0.5153
0.5225
0.5315
0.5428
0.5459
0.5491
0.5525
0.5561
0.5599
0.5636
0.5675
0.5715
0.5754
0.5794
0.5832
0.5865
0.5904
0.5964
0.5995
0.6026
0.6055
0.6084
0.6112
0.6139
0.6164
0.6188
0.6209
0.6226
0.6234
0.6241
0.6265
0.6289
0.6314
0.6339
0.6364
0.6389
0.6229
0.6261
0.6294
0.6327
0.6361
0.6395
0.6430
0.6466
0.6348
0.6391
0.6436
0.6482
0.6530
0.6579
0.6630
0.6684
0.6745
0.6814
0.6910
0.6978
0.7037
0.7101
0.7178
0.7313
0.7348
0.7380
0.7384
0.7410
0.7436
0.7462
0.7489
0.7515
0.7538
0.7560
0.7580
0.7599
0.7617
0.7635
0.7654
0.7673
0.7687
0.7688
0.7694
0.7439
0.7466
0.7492
0.7518
0.7544
0.7571
0.7598
0.7625
0.7653
0.7682
0.7712
0.7743
0.7777
0.7926
0.7967
0.8027
0.8068
0.8080
0.8092
0.8103
0.8114
0.8124
0.8134
0.8141
0.8148
0.8153
0.8157
0.8155
0.8127
0.8140
0.8152
0.8165
0.8178
0.8190
0.8202
0.8214
0.8227
0.8239
0.8250
0.8262
0.8274
0.8285
0.8297
0.8308
0.8319
0.8330
0.8341
0.8352
0.8363
0.8374
0.8418
0.8429
0.8441
0.8452
0.8462
0.8473
0.8483
0.8493
0.8503
0.8512
0.8520
0.8528
0.8536
0.8542
0.8547
0.8550
0.8549
0.8551
0.8560
0.8569
0.8578
0.8587
0.8596
0.8605
0.8613
0.8622
0.8630
0.8638
0.8647
0.8655
0.8663
0.8671
0.8679
0.8687
0.8695
0.8703
0.8711
0.8718
0.8726
0.8734
0.8741
0.8748
0.8756
0.8763
0.8770
0.8778
0.8785
0.8792
0.8799
0.8806
0.8813
0.8819
0.8826
0.8833
0.8840
0.8846
0.8853
0.8859
0.8866
0.8872
0.8878
0.8885
0.8891
0.8897
0.8903
0.8909
0.8915
0.8921
0.8927
0.8933
0.8939
0.8945
0.8951
0.8957
0.8962
0.8968
0.8973
0.8979
0.8984
0.8990
0.8995
0.9001
0.9006
0.9011
0.9017
0.9022
0.9027
0.9032
0.9037
0.9042
0.9047
0.9052
0.9057
0.9062
0.9067
0.9072
0.9077
0.9081
0.9086
0.9091
0.9095
0.9100
0.9105
0.9109
0.9114
0.9118
0.9123
0.9127
0.9132
0.9136
0.9140
0.9144
0.9149
0.9153
0.9157
0.9161
0.9166
0.9170
0.9174
0.9178
0.9182
0.9186
0.9190
0.9194
0.9198
0.9202
0.9205
0.9209
0.9213
