Angle 0.443802 0.803166

4.00000 7.03348 4.00000
4.00000 7.03348 4.00000
4.00000 7.03348 4.00000
4.00000 7.03348 4.00000
4.00000 7.03348 4.00000
4.00000 7.03348 4.00000
4.00000 7.03348 4.00000
4.00000 7.03348 4.00000
4.00000 7.03348 4.00000
4.00000 7.03348 4.00000
4.00000 7.03348 4.00000
4.00000 7.03348 4.00000
4.00000 7.03348 4.00000
4.00000 7.03348 4.00000
4.00000 7.03348 4.00000
4.00000 7.03348 4.00000
4.00000 7.03348 4.00000
4.00000 7.03348 4.00000
4.00000 7.03348 4.00000
4.00000 7.03348 4.00000
4.00000 7.03348 4.00000
4.00000 7.03348 4.00000
4.00000 7.03348 4.00000
4.00000 7.03348 4.00000
4.00000 7.03348 4.00000
4.00000 7.03348 4.00000
4.00000 7.03348 4.00000
4.00000 7.03348 4.00000
4.00000 7.03348 4.00000
4.00000 7.03348 4.00000
4.00000 7.03348 4.00000
4.00000 7.03348 4.00000
4.00000 7.03348 4.00000
4.00000 7.03348 4.00000
4.00000 7.03348 4.00000
4.00000 7.03348 4.00000
4.00000 7.03348 4.00000
4.00000 7.03347 4.00000
4.00000 7.03348 4.00000
4.00000 7.03348 4.00000
4.00000 7.03348 4.00000
4.00000 7.03348 4.00000
4.00000 7.03348 4.00000
4.00000 7.03348 4.00000
4.00000 7.03348 4.00000
4.00000 7.03347 4.00000
4.00000 7.03347 4.00000
4.00000 7.03348 4.00000
4.00000 7.03348 4.00000
4.00000 7.03348 4.00000
4.00000 7.03348 4.00000
4.00000 7.03348 4.00000
4.00000 7.03349 4.00000
4.00000 7.03348 4.00000
4.00000 7.03348 4.00000
4.00000 7.03348 4.00000
4.00000 7.03348 4.00000
4.00000 7.03347 4.00000
4.00000 7.03348 4.00000
4.00000 7.03348 4.00000
4.00000 7.03348 4.00000
4.00000 7.03348 4.00000
4.00000 7.03345 4.00000
4.00000 7.03347 4.00000
4.00000 7.03347 4.00000
4.00000 7.03348 4.00000
4.00000 7.03348 4.00000
4.00000 7.03348 4.00000
4.00166 7.07946 4.00167
4.00394 7.14344 4.00394
4.00618 7.20777 4.00618
4.00840 7.27242 4.00840
4.01060 7.33737 4.01060
4.01278 7.40260 4.01278
4.01496 7.46808 4.01496
4.01713 7.53381 4.01713
4.01931 7.59974 4.01931
4.02151 7.66587 4.02151
4.02372 7.73215 4.02372
4.02596 7.79856 4.02596
4.02823 7.86509 4.02823
4.03055 7.93168 4.03055
4.03293 7.99832 4.03293
4.03538 8.06496 4.03538
4.03791 8.13156 4.03790
4.04053 8.19807 4.04053
4.04327 8.26444 4.04327
4.04615 8.33061 4.04614
4.04918 8.39650 4.04918
4.05242 8.46201 4.05242
4.05588 8.52706 4.05588
4.05961 8.59151 4.05961
4.06367 8.65522 4.06367
4.06809 8.71810 4.06809
4.07283 8.78027 4.07283
4.07790 8.84169 4.07790
4.08333 8.90232 4.08333
4.08914 8.96213 4.08914
4.09532 9.02109 4.09532
4.10191 9.07918 4.10191
4.10889 9.13642 4.10889
4.11627 9.19281 4.11627
4.12404 9.24840 4.12404
4.13217 9.30325 4.13217
4.14065 9.35746 4.14065
4.14942 9.41116 4.14942
4.15843 9.46451 4.15843
4.16760 9.51774 4.16760
4.17681 9.57111 4.17681
4.18595 9.62498 4.18595
4.19483 9.67977 4.19483
4.20323 9.73606 4.20323
4.21088 9.79456 4.21088
4.21740 9.85617 4.21740
4.22232 9.92208 4.22232
4.22508 9.99373 4.22508
4.22503 10.07270 4.22503
4.22266 10.15781 4.22265
4.21942 10.24524 4.21942
4.21539 10.33489 4.21539
4.21055 10.42674 4.21055
4.20490 10.52087 4.20490
4.19838 10.61741 4.19838
4.19093 10.71660 4.19093
4.18240 10.81881 4.18240
4.17262 10.92461 4.17262
4.16127 11.03487 4.16127
4.14787 11.15105 4.14787
4.13151 11.27581 4.13151
4.11025 11.41488 4.11025
4.07902 11.58370 4.07903
4.00000 13.19120 4.00000
4.00000 13.19120 4.00000
4.00000 13.19120 4.00000
4.00000 13.19120 4.00000
4.00000 13.19120 4.00000
4.00000 13.19120 4.00000
4.00000 13.19120 4.00000
4.00000 13.19120 4.00000
4.00000 13.19120 4.00000
4.00000 13.19120 4.00000
4.00000 13.19120 4.00000
4.00000 13.19120 4.00000
4.00000 13.19120 4.00000
4.00000 13.19120 4.00000
4.00000 13.19120 4.00000
4.00000 13.19120 4.00000
4.00123 13.19651 4.00123
4.01163 13.24600 4.01163
4.02087 13.29948 4.02087
4.02885 13.35721 4.02885
4.03544 13.41939 4.03544
4.04054 13.48626 4.04055
4.04407 13.55799 4.04407
4.04611 13.63424 4.04611
4.04786 13.71143 4.04786
4.04957 13.78883 4.04957
4.05124 13.86641 4.05124
4.05288 13.94416 4.05288
4.05449 14.02206 4.05449
4.05608 14.10011 4.05608
4.05765 14.17829 4.05765
4.05920 14.25660 4.05920
4.06074 14.33502 4.06074
4.06226 14.41357 4.06226
4.06376 14.49222 4.06376
4.06526 14.57097 4.06526
4.06674 14.64982 4.06674
4.06821 14.72876 4.06821
4.06968 14.80780 4.06968
4.07114 14.88692 4.07114
4.07259 14.96612 4.07259
4.07404 15.04540 4.07404
4.07545 15.12484 4.07545
4.07665 15.20494 4.07665
4.07763 15.28574 4.07763
4.07840 15.36721 4.07840
4.07897 15.44932 4.07897
4.07935 15.53203 4.07935
4.07955 15.61532 4.07955
4.07957 15.69914 4.07957
4.07944 15.78346 4.07944
4.07917 15.86825 4.07917
4.07876 15.95348 4.07876
4.07823 16.03912 4.07823
4.07758 16.12513 4.07758
4.07684 16.21148 4.07684
4.07600 16.29815 4.07600
4.07508 16.38511 4.07508
4.07409 16.47233 4.07409
4.07303 16.55978 4.07303
4.07191 16.64745 4.07191
4.07075 16.73530 4.07075
4.06955 16.82333 4.06955
4.06831 16.91150 4.06831
4.06704 16.99981 4.06704
4.06575 17.08823 4.06575
4.06444 17.17676 4.06444
4.06312 17.26537 4.06312
4.06179 17.35405 4.06179
4.06046 17.44280 4.06046
4.05912 17.53159 4.05912
4.05779 17.62043 4.05779
4.05646 17.70930 4.05646
4.05514 17.79819 4.05514
4.05383 17.88710 4.05382
4.05253 17.97601 4.05253
4.05124 18.06493 4.05124
4.04997 18.15385 4.04997
4.04872 18.24276 4.04872
4.04748 18.33167 4.04748
4.04626 18.42055 4.04626
4.04507 18.50943 4.04507
4.04389 18.59828 4.04389
4.04273 18.68711 4.04273
4.04160 18.77591 4.04160
4.04049 18.86469 4.04049
4.03940 18.95344 4.03940
4.03833 19.04216 4.03833
4.03729 19.13086 4.03729
4.03627 19.21952 4.03627
4.03527 19.30815 4.03527
4.03429 19.39675 4.03429
4.03334 19.48532 4.03334
4.03241 19.57385 4.03241
4.03150 19.66236 4.03150
4.03061 19.75083 4.03061
4.02974 19.83928 4.02974
4.02890 19.92769 4.02890
4.02808 20.01607 4.02808
4.02728 20.10442 4.02728
4.02649 20.19274 4.02649
4.02573 20.28103 4.02574
4.02499 20.36929 4.02499
4.02427 20.45753 4.02427
4.02357 20.54574 4.02357
4.02288 20.63392 4.02288
4.02222 20.72207 4.02222
4.02157 20.81021 4.02157
4.02094 20.89831 4.02094
4.02033 20.98640 4.02033
4.01973 21.07446 4.01973
4.01915 21.16250 4.01915
4.01859 21.25052 4.01859
4.01804 21.33852 4.01804
4.01751 21.42650 4.01751
4.01699 21.51446 4.01699
4.01649 21.60241 4.01649
4.01600 21.69034 4.01600
4.01552 21.77825 4.01552
4.01506 21.86615 4.01506
4.01462 21.95403 4.01462
4.01418 22.04190 4.01418
4.01376 22.12975 4.01376
4.01335 22.21760 4.01335
4.01295 22.30543 4.01295
4.01256 22.39325 4.01256
4.01218 22.48106 4.01218
4.01182 22.56887 4.01182
4.01146 22.65666 4.01146
4.01112 22.74445 4.01112
4.01079 22.83222 4.01079
4.01046 22.92000 4.01046
4.01015 23.00776 4.01015
4.00984 23.09552 4.00984
4.00954 23.18327 4.00954
4.00926 23.27102 4.00926
4.00898 23.35876 4.00898
4.00871 23.44651 4.00871
4.00844 23.53425 4.00844
4.00819 23.62198 4.00818
4.00794 23.70972 4.00794
4.00770 23.79745 4.00770
4.00747 23.88518 4.00747
4.00724 23.97291 4.00724
4.00702 24.06064 4.00702
4.00681 24.14837 4.00681
4.00660 24.23610 4.00660
4.00640 24.32384 4.00640
4.00621 24.41157 4.00621
4.00602 24.49931 4.00602
4.00583 24.58704 4.00584
4.00566 24.67478 4.00566
4.00548 24.76252 4.00549
4.00532 24.85027 4.00532
4.00515 24.93802 4.00516
4.00500 25.02577 4.00500
4.00484 25.11353 4.00485
4.00470 25.20129 4.00470
4.00455 25.28905 4.00456
4.00441 25.37682 4.00441
4.00428 25.46459 4.00428
4.00415 25.55238 4.00415
4.00402 25.64016 4.00402
4.00390 25.72795 4.00390
4.00378 25.81575 4.00378
4.00366 25.90355 4.00366
4.00355 25.99136 4.00355
4.00344 26.07917 4.00344
4.00334 26.16699 4.00334
4.00323 26.25482 4.00324
4.00314 26.34266 4.00314
4.00304 26.43050 4.00304
4.00295 26.51835 4.00295
4.00286 26.60621 4.00286
4.00277 26.69407 4.00277
4.00268 26.78194 4.00268
4.00260 26.86982 4.00260
4.00252 26.95771 4.00252
4.00244 27.04560 4.00244
4.00237 27.13351 4.00237
4.00230 27.22142 4.00230
4.00223 27.30934 4.00223
4.00216 27.39727 4.00216
4.00209 27.48520 4.00209
4.00203 27.57315 4.00203
4.00197 27.66110 4.00197
4.00190 27.74907 4.00190
4.00184 27.83704 4.00184
4.00179 27.92502 4.00179
4.00173 28.01300 4.00173
4.00168 28.10100 4.00168
4.00163 28.18901 4.00163
4.00158 28.27703 4.00158
4.00153 28.36505 4.00153
4.00148 28.45308 4.00149
4.00144 28.54112 4.00144
4.00139 28.62918 4.00139
4.00134 28.71725 4.00135
4.00131 28.80531 4.00131
4.00127 28.89339 4.00126
4.00123 28.98148 4.00122
4.00119 29.06957 4.00119
4.00116 29.15768 4.00116
4.00111 29.24580 4.00112
4.00108 29.33393 4.00108
4.00105 29.42206 4.00105
4.00101 29.51021 4.00102
4.00099 29.59836 4.00099
4.00095 29.68653 4.00096
4.00092 29.77470 4.00092
4.00090 29.86288 4.00090
4.00087 29.95107 4.00087
4.00084 30.03927 4.00084
4.00081 30.12748 4.00082
4.00079 30.21570 4.00079
4.00077 30.30392 4.00077
4.00074 30.39216 4.00074
4.00072 30.48041 4.00072
4.00070 30.56867 4.00070
4.00068 30.65693 4.00068
4.00066 30.74521 4.00065
4.00063 30.83349 4.00063
4.00062 30.92179 4.00062
4.00060 31.01009 4.00060
4.00058 31.09840 4.00058
4.00056 31.18672 4.00056
4.00054 31.27505 4.00054
4.00053 31.36339 4.00053
4.00051 31.45174 4.00051
4.00049 31.54010 4.00049
4.00048 31.62846 4.00048
4.00046 31.71684 4.00046
4.00045 31.80523 4.00045
4.00043 31.89362 4.00043
4.00042 31.98202 4.00042
4.00041 32.07043 4.00041
4.00040 32.15885 4.00040
4.00038 32.24728 4.00038
4.00037 32.33572 4.00037
4.00036 32.42417 4.00036
4.00035 32.51262 4.00035
4.00034 32.60109 4.00034
4.00033 32.68956 4.00033
4.00032 32.77804 4.00032
4.00031 32.86653 4.00031
4.00030 32.95503 4.00030
4.00029 33.04354 4.00029
4.00028 33.13206 4.00028
4.00027 33.22058 4.00027
4.00026 33.30911 4.00026
4.00025 33.39765 4.00025
4.00024 33.48622 4.00024
4.00024 33.57476 4.00024
4.00023 33.66334 4.00023
4.00022 33.75190 4.00022
4.00022 33.84050 4.00022
4.00021 33.92908 4.00021
4.00020 34.01768 4.00020
4.00020 34.10628 4.00020
4.00019 34.19490 4.00019
4.00019 34.28352 4.00019
4.00018 34.37216 4.00018
4.00017 34.46079 4.00017
4.00017 34.54945 4.00017
4.00016 34.63810 4.00016
4.00016 34.72676 4.00016
4.00015 34.81543 4.00015
4.00015 34.90411 4.00015
4.00014 34.99281 4.00014

Angle 0.132663 0.160848

4.00000 7.03348 4.00000
4.00000 7.03349 4.00000
4.00000 7.03348 4.00000
4.00000 7.03348 4.00000
4.00000 7.03348 4.00000
4.00000 7.03348 4.00000
4.00000 7.03348 4.00000
4.00000 7.03348 4.00000
4.00000 7.03348 4.00000
4.00000 7.03348 4.00000
4.00000 7.03348 4.00000
4.00000 7.03350 4.00000
4.00000 7.03348 4.00000
4.00000 7.03348 4.00000
4.00000 7.03348 4.00000
4.00000 7.03348 4.00000
4.00000 7.03348 4.00000
4.00000 7.03349 4.00000
4.00000 7.03352 4.00000
4.00000 7.03357 4.00000
4.00228 7.09652 4.00228
4.00511 7.17674 4.00511
4.00788 7.25718 4.00788
4.01061 7.33779 4.01061
4.01331 7.41855 4.01331
4.01600 7.49942 4.01600
4.01867 7.58035 4.01867
4.02135 7.66130 4.02135
4.02406 7.74224 4.02406
4.02679 7.82311 4.02679
4.02958 7.90388 4.02958
4.03243 7.98449 4.03243
4.03537 8.06489 4.03537
4.03843 8.14500 4.03843
4.04161 8.22474 4.04161
4.04497 8.30403 4.04497
4.04854 8.38276 4.04854
4.05235 8.46080 4.05235
4.05649 8.53797 4.05649
4.06100 8.61409 4.06100
4.06599 8.68890 4.06599
4.07143 8.76250 4.07143
4.07732 8.83491 4.07732
4.08368 8.90607 4.08368
4.09054 8.97595 4.09054
4.09792 9.04451 4.09792
4.10582 9.11175 4.10582
4.11424 9.17770 4.11424
4.12318 9.24242 4.12318
4.13259 9.30600 4.13259
4.14244 9.36862 4.14244
4.15266 9.43047 4.15266
4.16313 9.49185 4.16313
4.17372 9.55313 4.17372
4.18424 9.61479 4.18424
4.19446 9.67745 4.19446
4.20406 9.74192 4.20406
4.21259 9.80929 4.21259
4.21951 9.88095 4.21951
4.22408 9.95876 4.22408
4.22540 10.04494 4.22540
4.22322 10.14017 4.22322
4.21968 10.23890 4.21968
4.21512 10.34033 4.21512
4.20954 10.44443 4.20954
4.20292 10.55131 4.20292
4.19519 10.66119 4.19519
4.18621 10.77446 4.18621
4.17577 10.89176 4.17577
4.16350 11.01415 4.16350
4.14880 11.14344 4.14880
4.13048 11.28308 4.13048
4.10578 11.44131 4.10579
4.06596 11.64481 4.06596
4.00000 13.19120 4.00000
4.00000 13.19120 4.00000
4.00000 13.19120 4.00000
4.00000 13.19120 4.00000
4.00000 13.19120 4.00000
4.00000 13.19120 4.00000
4.00000 13.19120 4.00000
4.00000 13.19120 4.00000
4.00000 13.19120 4.00000
4.00000 13.19120 4.00000
4.00000 13.19120 4.00000
4.00000 13.19120 4.00000
4.00000 13.19120 4.00000
4.00000 13.19121 4.00000
4.00000 13.19120 4.00000
4.01145 13.24509 4.01145
4.02155 13.30386 4.02155
4.03010 13.36769 4.03010
4.03696 13.43685 4.03696
4.04200 13.51161 4.04200
4.04513 13.59216 4.04513
4.04707 13.67627 4.04707
4.04895 13.76058 4.04895
4.05078 13.84505 4.05078
4.05258 13.92964 4.05258
4.05433 14.01435 4.05434
4.05606 14.09916 4.05606
4.05777 14.18407 4.05777
4.05945 14.26906 4.05945
4.06111 14.35413 4.06111
4.06275 14.43926 4.06275
4.06437 14.52445 4.06437
4.06598 14.60970 4.06598
4.06758 14.69499 4.06758
4.06917 14.78033 4.06917
4.07075 14.86572 4.07075
4.07231 14.95114 4.07231
4.07388 15.03659 4.07388
4.07540 15.12216 4.07540
4.07670 15.20839 4.07670
4.07774 15.29538 4.07774
4.07853 15.38309 4.07853
4.07909 15.47147 4.07909
4.07944 15.56047 4.07944
4.07958 15.65007 4.07958
4.07953 15.74022 4.07953
4.07931 15.83086 4.07931
4.07893 15.92198 4.07893
4.07840 16.01351 4.07840
4.07774 16.10544 4.07774
4.07696 16.19771 4.07696
4.07608 16.29029 4.07608
4.07510 16.38315 4.07510
4.07404 16.47626 4.07404
4.07291 16.56959 4.07291
4.07171 16.66310 4.07171
4.07046 16.75678 4.07046
4.06917 16.85059 4.06917
4.06784 16.94452 4.06784
4.06648 17.03855 4.06648
4.06510 17.13265 4.06510
4.06370 17.22680 4.06370
4.06229 17.32100 4.06229
4.06087 17.41523 4.06087
4.05945 17.50948 4.05945
4.05804 17.60372 4.05804
4.05663 17.69796 4.05663
4.05523 17.79219 4.05523
4.05384 17.88638 4.05384
4.05246 17.98055 4.05246
4.05110 18.07468 4.05110
4.04976 18.16877 4.04976
4.04844 18.26280 4.04844
4.04714 18.35679 4.04713
4.04586 18.45071 4.04586
4.04460 18.54458 4.04460
4.04337 18.63838 4.04337
4.04216 18.73212 4.04216
4.04097 18.82580 4.04097
4.03982 18.91940 4.03981
4.03868 19.01294 4.03868
4.03757 19.10641 4.03757
4.03649 19.19980 4.03649
4.03543 19.29313 4.03544
4.03440 19.38639 4.03440
4.03340 19.47957 4.03340
4.03242 19.57269 4.03242
4.03146 19.66574 4.03146
4.03053 19.75872 4.03053
4.02962 19.85163 4.02963
4.02874 19.94447 4.02874
4.02788 20.03725 4.02788
4.02705 20.12996 4.02705
4.02623 20.22261 4.02623
4.02544 20.31519 4.02544
4.02468 20.40772 4.02468
4.02393 20.50018 4.02393
4.02320 20.59258 4.02320
4.02250 20.68492 4.02250
4.02181 20.77721 4.02181
4.02115 20.86944 4.02115
4.02050 20.96161 4.02050
4.01987 21.05373 4.01987
4.01926 21.14580 4.01926
4.01867 21.23782 4.01867
4.01809 21.32979 4.01809
4.01754 21.42171 4.01754
4.01700 21.51358 4.01700
4.01647 21.60541 4.01647
4.01596 21.69719 4.01596
4.01547 21.78893 4.01547
4.01499 21.88062 4.01499
4.01452 21.97228 4.01452
4.01407 22.06389 4.01407
4.01364 22.15547 4.01364
4.01321 22.24700 4.01321
4.01280 22.33850 4.01280
4.01240 22.42996 4.01240
4.01202 22.52139 4.01202
4.01164 22.61279 4.01164
4.01128 22.70415 4.01128
4.01092 22.79548 4.01093
4.01058 22.88678 4.01058
4.01025 22.97805 4.01025
4.00993 23.06929 4.00993
4.00962 23.16050 4.00962
4.00932 23.25168 4.00932
4.00903 23.34284 4.00903
4.00874 23.43397 4.00874
4.00847 23.52508 4.00847
4.00820 23.61616 4.00820
4.00795 23.70721 4.00795
4.00770 23.79825 4.00770
4.00746 23.88927 4.00746
4.00722 23.98026 4.00722
4.00699 24.07123 4.00699
4.00677 24.16218 4.00677
4.00656 24.25311 4.00656
4.00635 24.34403 4.00636
4.00615 24.43492 4.00615
4.00596 24.52580 4.00596
4.00577 24.61666 4.00577
4.00559 24.70750 4.00559
4.00541 24.79833 4.00541
4.00524 24.88914 4.00524
4.00508 24.97994 4.00508
4.00492 25.07072 4.00492
4.00476 25.16149 4.00476
4.00461 25.25225 4.00461
4.00447 25.34299 4.00447
4.00433 25.43372 4.00433
4.00419 25.52444 4.00419
4.00406 25.61514 4.00406
4.00393 25.70584 4.00393
4.00381 25.79652 4.00381
4.00369 25.88719 4.00369
4.00357 25.97786 4.00357
4.00346 26.06851 4.00346
4.00335 26.15915 4.00335
4.00324 26.24978 4.00324
4.00314 26.34041 4.00314
4.00304 26.43103 4.00304
4.00294 26.52163 4.00294
4.00285 26.61223 4.00285
4.00276 26.70282 4.00276
4.00267 26.79341 4.00267
4.00259 26.88399 4.00259
4.00251 26.97456 4.00251
4.00243 27.06512 4.00243
4.00235 27.15568 4.00235
4.00228 27.24623 4.00228
4.00220 27.33677 4.00220
4.00213 27.42731 4.00213
4.00207 27.51784 4.00207
4.00200 27.60837 4.00200
4.00194 27.69890 4.00194
4.00188 27.78941 4.00188
4.00182 27.87993 4.00182
4.00176 27.97043 4.00176
4.00170 28.06094 4.00170
4.00165 28.15144 4.00165
4.00160 28.24193 4.00160
4.00155 28.33242 4.00155
4.00150 28.42291 4.00150
4.00145 28.51339 4.00145
4.00141 28.60388 4.00140
4.00136 28.69435 4.00136
4.00132 28.78483 4.00132
4.00127 28.87530 4.00128
4.00124 28.96576 4.00124
4.00119 29.05623 4.00120
4.00116 29.14669 4.00116
4.00112 29.23715 4.00112
4.00109 29.32761 4.00109
4.00105 29.41806 4.00105
4.00102 29.50851 4.00102
4.00098 29.59898 4.00098
4.00095 29.68941 4.00095
4.00092 29.77986 4.00092
4.00089 29.87031 4.00089
4.00087 29.96074 4.00087
4.00084 30.05118 4.00084
4.00081 30.14162 4.00081
4.00079 30.23206 4.00079
4.00076 30.32249 4.00076
4.00074 30.41293 4.00074
4.00071 30.50336 4.00071
4.00069 30.59379 4.00069
4.00067 30.68422 4.00067
4.00065 30.77465 4.00065
4.00063 30.86507 4.00063
4.00061 30.95550 4.00061
4.00059 31.04593 4.00059
4.00057 31.13635 4.00057
4.00055 31.22677 4.00055
4.00053 31.31720 4.00053
4.00052 31.40762 4.00052
4.00050 31.49804 4.00050
4.00048 31.58846 4.00048
4.00047 31.67888 4.00047
4.00045 31.76930 4.00045
4.00044 31.85972 4.00044
4.00043 31.95013 4.00043
4.00041 32.04055 4.00041
4.00040 32.13097 4.00040
4.00039 32.22138 4.00039
4.00037 32.31180 4.00037
4.00036 32.40221 4.00036
4.00035 32.49263 4.00035
4.00034 32.58304 4.00034
4.00033 32.67346 4.00033
4.00032 32.76387 4.00032
4.00031 32.85429 4.00031
4.00030 32.94470 4.00030
4.00029 33.03512 4.00029
4.00028 33.12553 4.00028
4.00027 33.21594 4.00027
4.00027 33.30636 4.00026
4.00025 33.39677 4.00025
4.00025 33.48718 4.00025
4.00024 33.57760 4.00024
4.00023 33.66801 4.00023
4.00022 33.75842 4.00022
4.00022 33.84884 4.00022
4.00021 33.93925 4.00021
4.00020 34.02966 4.00020
4.00020 34.12008 4.00020
4.00019 34.21049 4.00019
4.00018 34.30091 4.00018
4.00018 34.39132 4.00018
4.00017 34.48173 4.00017
4.00017 34.57214 4.00017
4.00016 34.66256 4.00016
4.00016 34.75298 4.00016
4.00015 34.84340 4.00015
4.00015 34.93381 4.00015
4.00014 35.02422 4.00014
4.00014 35.11464 4.00014
4.00013 35.20505 4.00013
4.00013 35.29547 4.00013
4.00013 35.38589 4.00012
4.00012 35.47630 4.00012
4.00012 35.56672 4.00012
4.00011 35.65714 4.00011
4.00011 35.74756 4.00011
4.00011 35.83797 4.00011
4.00011 35.92839 4.00010
4.00010 36.01881 4.00010
4.00009 36.10923 4.00010
4.00009 36.19965 4.00009
4.00009 36.29006 4.00009
4.00009 36.38049 4.00009
4.00009 36.47090 4.00008
4.00008 36.56133 4.00008
4.00008 36.65176 4.00008
4.00008 36.74218 4.00008
4.00008 36.83261 4.00007
4.00007 36.92305 4.00007
4.00007 37.01348 4.00007
4.00007 37.10392 4.00007
4.00007 37.19435 4.00007
4.00006 37.28479 4.00006
4.00006 37.37523 4.00006
4.00006 37.46568 4.00006
4.00006 37.55612 4.00006
4.00006 37.64657 4.00006
4.00005 37.73701 4.00005
4.00005 37.82746 4.00005
4.00005 37.91791 4.00005
4.00005 38.00835 4.00005
4.00005 38.09880 4.00005
4.00005 38.18925 4.00005
4.00004 38.27971 4.00004
4.00004 38.37016 4.00004
4.00004 38.46061 4.00004
4.00004 38.55106 4.00004
4.00004 38.64152 4.00004
4.00004 38.73198 4.00004
4.00004 38.82243 4.00004
4.00004 38.91240 4.00004
4.00003 39.00283 4.00003
4.00003 39.09326 4.00003
4.00003 39.18370 4.00003
4.00003 39.27413 4.00003
4.00003 39.36457 4.00003
4.00003 39.45501 4.00003
4.00003 39.54545 4.00003
4.00003 39.63589 4.00002
4.00003 39.72633 4.00002
4.00003 39.81677 4.00002
4.00003 39.90722 4.00002
4.00003 39.99766 4.00002
4.00003 40.08811 4.00002
4.00003 40.17855 4.00002
4.00002 40.26900 4.00002
4.00002 40.35945 4.00002
4.00002 40.44990 4.00002
4.00002 40.54035 4.00002
4.00002 40.63080 4.00002
4.00002 40.72125 4.00001
4.00002 40.81171 4.00001
4.00002 40.90216 4.00001
4.00002 40.99261 4.00001
4.00002 41.08307 4.00001
4.00002 41.17352 4.00001
4.00002 41.26398 4.00001

Angle 0.441771 1.006642

4.00000 7.03348 4.00000
4.00000 7.03348 4.00000
4.00000 7.03348 4.00000
4.00000 7.03348 4.00000
4.00000 7.03348 4.00000
4.00000 7.03348 4.00000
4.00000 7.03347 4.00000
4.00000 7.03348 4.00000
4.00000 7.03348 4.00000
4.00000 7.03348 4.00000
4.00098 7.06039 4.00098
4.00251 7.10297 4.00251
4.00403 7.14601 4.00403
4.00555 7.18950 4.00555
4.00707 7.23344 4.00707
4.00858 7.27782 4.00858
4.01010 7.32261 4.01010
4.01162 7.36783 4.01162
4.01314 7.41345 4.01314
4.01467 7.45947 4.01467
4.01621 7.50588 4.01621
4.01776 7.55266 4.01776
4.01932 7.59980 4.01932
4.02089 7.64730 4.02089
4.02248 7.69514 4.02248
4.02409 7.74330 4.02409
4.02573 7.79178 4.02573
4.02739 7.84055 4.02739
4.02908 7.88961 4.02908
4.03081 7.93894 4.03081
4.03258 7.98852 4.03258
4.03439 8.03832 4.03439
4.03625 8.08834 4.03625
4.03818 8.13854 4.03817
4.04016 8.18891 4.04016
4.04222 8.23941 4.04222
4.04436 8.29001 4.04436
4.04660 8.34068 4.04660
4.04894 8.39137 4.04894
4.05140 8.44205 4.05141
4.05401 8.49265 4.05401
4.05677 8.54312 4.05678
4.05972 8.59339 4.05972
4.06289 8.64337 4.06289
4.06629 8.69300 4.06628
4.06989 8.74235 4.06989
4.07372 8.79142 4.07372
4.07777 8.84017 4.07777
4.08206 8.88857 4.08206
4.08660 8.93660 4.08660
4.09140 8.98425 4.09140
4.09647 9.03148 4.09646
4.10180 9.07829 4.10180
4.10741 9.12467 4.10741
4.11331 9.17063 4.11331
4.11947 9.21618 4.11947
4.12591 9.26133 4.12591
4.13261 9.30612 4.13261
4.13955 9.35060 4.13955
4.14672 9.39484 4.14672
4.15408 9.43891 4.15408
4.16159 9.48294 4.16159
4.16920 9.52704 4.16920
4.17686 9.57139 4.17686
4.18448 9.61618 4.18448
4.19196 9.66167 4.19196
4.19918 9.70816 4.19918
4.20599 9.75604 4.20599
4.21219 9.80579 4.21219
4.21756 9.85799 4.21756
4.22180 9.91337 4.22180
4.22456 9.97282 4.22456
4.22544 10.03732 4.22544
4.22416 10.10759 4.22417
4.22188 10.18067 4.22188
4.21900 10.25554 4.21900
4.21552 10.33216 4.21552
4.21145 10.41054 4.21145
4.20678 10.49071 4.20678
4.20148 10.57277 4.20148
4.19551 10.65684 4.19551
4.18880 10.74312 4.18880
4.18125 10.83188 4.18125
4.17272 10.92353 4.17272
4.16302 11.01866 4.16302
4.15182 11.11820 4.15182
4.13862 11.22363 4.13862
4.12248 11.33774 4.12248
4.10137 11.46660 4.10137
4.07003 11.62630 4.07003
4.00000 13.19120 4.00000
4.00000 13.19120 4.00000
4.00000 13.19120 4.00000
4.00000 13.19120 4.00000
4.00000 13.19120 4.00000
4.00000 13.19120 4.00000
4.00000 13.19120 4.00000
4.00000 13.19120 4.00000
4.00000 13.19120 4.00000
4.00000 13.19120 4.00000
4.00000 13.19120 4.00000
4.00000 13.19120 4.00000
4.00000 13.19120 4.00000
4.00000 13.19120 4.00000
4.00000 13.19120 4.00000
4.00000 13.19120 4.00000
4.00000 13.19120 4.00000
4.00000 13.19120 4.00000
4.00147 13.19754 4.00147
4.01081 13.24177 4.01081
4.01925 13.28925 4.01925
4.02670 13.34017 4.02670
4.03306 13.39469 4.03305
4.03825 13.45299 4.03825
4.04219 13.51523 4.04219
4.04484 13.58154 4.04484
4.04649 13.65094 4.04649
4.04807 13.72073 4.04807
4.04961 13.79075 4.04961
4.05112 13.86098 4.05112
4.05261 13.93142 4.05261
4.05408 14.00206 4.05408
4.05553 14.07288 4.05553
4.05697 14.14389 4.05697
4.05838 14.21506 4.05838
4.05979 14.28640 4.05979
4.06118 14.35791 4.06118
4.06256 14.42956 4.06256
4.06394 14.50137 4.06394
4.06530 14.57332 4.06530
4.06666 14.64542 4.06666
4.06801 14.71765 4.06801
4.06935 14.79002 4.06935
4.07069 14.86252 4.07069
4.07202 14.93514 4.07202
4.07335 15.00789 4.07335
4.07468 15.08077 4.07468
4.07591 15.15402 4.07591
4.07695 15.22793 4.07695
4.07781 15.30249 4.07781
4.07849 15.37766 4.07849
4.07900 15.45343 4.07900
4.07934 15.52977 4.07934
4.07953 15.60664 4.07953
4.07958 15.68403 4.07958
4.07949 15.76191 4.07949
4.07928 15.84025 4.07928
4.07894 15.91903 4.07894
4.07850 15.99821 4.07850
4.07795 16.07779 4.07795
4.07731 16.15773 4.07731
4.07659 16.23800 4.07659
4.07579 16.31859 4.07579
4.07492 16.39947 4.07492
4.07399 16.48062 4.07399
4.07300 16.56203 4.07300
4.07196 16.64367 4.07196
4.07088 16.72552 4.07088
4.06977 16.80756 4.06977
4.06862 16.88979 4.06862
4.06744 16.97219 4.06744
4.06624 17.05474 4.06624
4.06503 17.13742 4.06503
4.06380 17.22023 4.06380
4.06256 17.30316 4.06256
4.06131 17.38619 4.06131
4.06006 17.46931 4.06006
4.05881 17.55252 4.05881
4.05756 17.63581 4.05756
4.05631 17.71916 4.05631
4.05507 17.80258 4.05507
4.05384 17.88605 4.05384
4.05262 17.96958 4.05262
4.05141 18.05315 4.05141
4.05021 18.13676 4.05021
4.04903 18.22040 4.04903
4.04786 18.30407 4.04786
4.04671 18.38777 4.04671
4.04558 18.47150 4.04557
4.04446 18.55524 4.04446
4.04336 18.63901 4.04336
4.04228 18.72280 4.04228
4.04121 18.80659 4.04121
4.04017 18.89040 4.04017
4.03915 18.97422 4.03915
4.03814 19.05806 4.03814
4.03716 19.14190 4.03716
4.03620 19.22574 4.03620
4.03525 19.30960 4.03525
4.03432 19.39346 4.03433
4.03342 19.47733 4.03342
4.03254 19.56120 4.03254
4.03167 19.64507 4.03167
4.03083 19.72896 4.03083
4.03000 19.81284 4.03000
4.02919 19.89673 4.02919
4.02840 19.98062 4.02841
4.02763 20.06452 4.02764
4.02688 20.14842 4.02688
4.02615 20.23233 4.02615
4.02544 20.31624 4.02543
4.02474 20.40015 4.02474
4.02406 20.48407 4.02406
4.02339 20.56800 4.02339
4.02275 20.65193 4.02275
4.02212 20.73586 4.02212
4.02150 20.81981 4.02150
4.02090 20.90376 4.02090
4.02032 20.98771 4.02032
4.01975 21.07168 4.01975
4.01920 21.15565 4.01920
4.01866 21.23963 4.01866
4.01813 21.32362 4.01813
4.01762 21.40762 4.01762
4.01712 21.49163 4.01712
4.01664 21.57564 4.01664
4.01617 21.65967 4.01617
4.01571 21.74372 4.01571
4.01526 21.82776 4.01526
4.01483 21.91182 4.01483
4.01441 21.99590 4.01441
4.01400 22.07998 4.01400
4.01360 22.16408 4.01360
4.01321 22.24820 4.01321
4.01283 22.33232 4.01283
4.01246 22.41646 4.01246
4.01210 22.50062 4.01210
4.01176 22.58478 4.01175
4.01142 22.66897 4.01142
4.01109 22.75317 4.01109
4.01077 22.83739 4.01077
4.01046 22.92162 4.01046
4.01015 23.00587 4.01015
4.00986 23.09013 4.00986
4.00957 23.17441 4.00957
4.00930 23.25871 4.00930
4.00903 23.34303 4.00903
4.00877 23.42736 4.00877
4.00851 23.51172 4.00851
4.00826 23.59609 4.00826
4.00802 23.68048 4.00802
4.00779 23.76489 4.00779
4.00756 23.84931 4.00756
4.00734 23.93376 4.00734
4.00713 24.01823 4.00713
4.00692 24.10271 4.00692
4.00671 24.18722 4.00671
4.00652 24.27175 4.00652
4.00633 24.35629 4.00633
4.00614 24.44086 4.00614
4.00596 24.52545 4.00596
4.00579 24.61006 4.00579
4.00562 24.69468 4.00562
4.00545 24.77933 4.00545
4.00529 24.86401 4.00529
4.00514 24.94870 4.00514
4.00498 25.03341 4.00498
4.00484 25.11815 4.00484
4.00469 25.20290 4.00469
4.00456 25.28768 4.00456
4.00442 25.37248 4.00442
4.00429 25.45730 4.00429
4.00416 25.54215 4.00416
4.00404 25.62701 4.00404
4.00392 25.71190 4.00392
4.00381 25.79681 4.00381
4.00369 25.88174 4.00369
4.00358 25.96669 4.00358
4.00348 26.05167 4.00348
4.00337 26.13667 4.00337
4.00327 26.22169 4.00327
4.00318 26.30673 4.00318
4.00308 26.39179 4.00308
4.00299 26.47688 4.00299
4.00290 26.56199 4.00290
4.00282 26.64712 4.00282
4.00273 26.73227 4.00273
4.00265 26.81744 4.00265
4.00258 26.90263 4.00257
4.00250 26.98786 4.00249
4.00243 27.07310 4.00242
4.00235 27.15837 4.00235
4.00228 27.24366 4.00227
4.00221 27.32897 4.00220
4.00214 27.41429 4.00214
4.00208 27.49964 4.00208
4.00202 27.58502 4.00202
4.00196 27.67041 4.00196
4.00190 27.75583 4.00190
4.00184 27.84127 4.00184
4.00179 27.92674 4.00179
4.00173 28.01222 4.00173
4.00168 28.09773 4.00168
4.00163 28.18325 4.00163
4.00158 28.26880 4.00158
4.00153 28.35437 4.00153
4.00149 28.43996 4.00149
4.00144 28.52558 4.00144
4.00140 28.61121 4.00140
4.00136 28.69687 4.00136
4.00132 28.78254 4.00132
4.00128 28.86824 4.00128
4.00124 28.95396 4.00124
4.00120 29.03971 4.00120
4.00117 29.12547 4.00117
4.00113 29.21125 4.00113
4.00110 29.29705 4.00110
4.00107 29.38288 4.00106
4.00103 29.46872 4.00103
4.00100 29.55459 4.00100
4.00097 29.64047 4.00097
4.00094 29.72638 4.00094
4.00091 29.81230 4.00091
4.00089 29.89825 4.00088
4.00086 29.98422 4.00086
4.00083 30.07021 4.00083
4.00081 30.15621 4.00081
4.00078 30.24224 4.00078
4.00076 30.32829 4.00076
4.00074 30.41435 4.00074
4.00071 30.50044 4.00071
4.00069 30.58654 4.00069
4.00067 30.67267 4.00067
4.00065 30.75881 4.00065
4.00063 30.84498 4.00063
4.00061 30.93116 4.00061
4.00059 31.01736 4.00059
4.00058 31.10359 4.00058
4.00056 31.18983 4.00056
4.00054 31.27608 4.00054
4.00053 31.36236 4.00053
4.00051 31.44866 4.00051
4.00049 31.53497 4.00049
4.00048 31.62131 4.00048
4.00046 31.70766 4.00046
4.00045 31.79403 4.00045
4.00044 31.88042 4.00044
4.00042 31.96683 4.00042
4.00041 32.05325 4.00041
4.00040 32.13969 4.00040
4.00039 32.22615 4.00038
4.00037 32.31263 4.00037
4.00037 32.39912 4.00036
4.00035 32.48565 4.00035
4.00034 32.57217 4.00034
4.00033 32.65872 4.00033
4.00032 32.74529 4.00032
4.00031 32.83187 4.00031
4.00030 32.91847 4.00030
4.00029 33.00509 4.00029
4.00028 33.09172 4.00029
4.00027 33.17838 4.00028
4.00027 33.26503 4.00027
4.00026 33.35173 4.00026
4.00025 33.43844 4.00025
4.00024 33.52516 4.00024
4.00024 33.61187 4.00024
4.00023 33.69862 4.00023
4.00022 33.78539 4.00022
4.00021 33.87219 4.00022
4.00021 33.95897 4.00021
4.00020 34.04578 4.00020
4.00019 34.13262 4.00020
4.00019 34.21947 4.00019
4.00018 34.30632 4.00018
4.00018 34.39319 4.00018
4.00017 34.48009 4.00018
4.00017 34.56701 4.00017
4.00016 34.65394 4.00017
4.00016 34.74086 4.00016
4.00015 34.82781 4.00016
4.00015 34.91478 4.00015
4.00014 35.00177 4.00015
4.00014 35.08878 4.00014
4.00013 35.17581 4.00014
4.00013 35.26280 4.00013
4.00013 35.34984 4.00013
4.00012 35.43691 4.00013
4.00012 35.52399 4.00012
4.00011 35.61108 4.00012
4.00011 35.69819 4.00012
4.00011 35.78532 4.00011
4.00011 35.87241 4.00011
4.00010 35.95956 4.00011
4.00010 36.04672 4.00010
4.00009 36.13390 4.00010
4.00009 36.22110 4.00010
4.00009 36.30831 4.00010
4.00009 36.39554 4.00009
4.00009 36.48270 4.00008
4.00008 36.56995 4.00009
4.00008 36.65721 4.00008
4.00008 36.74449 4.00008
4.00007 36.83178 4.00008
4.00007 36.91908 4.00008
4.00007 37.00640 4.00008
4.00007 37.09374 4.00007
4.00006 37.18109 4.00007
4.00006 37.26846 4.00006
4.00006 37.35569 4.00006

Angle 0.130612 5.252276

4.00000 7.03348 4.00000
4.00000 7.03348 4.00000
4.00000 7.03347 4.00000
4.00000 7.03348 4.00000
4.00000 7.03348 4.00000
4.00000 7.03348 4.00000
4.00000 7.03348 4.00000
4.00000 7.03348 4.00000
4.00000 7.03348 4.00000
4.00000 7.03348 4.00000
4.00000 7.03348 4.00000
4.00000 7.03347 4.00000
4.00000 7.03348 4.00000
4.00000 7.03348 4.00000
4.00000 7.03348 4.00000
4.00000 7.03348 4.00000
4.00000 7.03348 4.00000
4.00000 7.03348 4.00000
4.00000 7.03348 4.00000
4.00000 7.03348 4.00000
4.00000 7.03348 4.00000
4.00000 7.03348 4.00000
4.00000 7.03348 4.00000
4.00000 7.03348 4.00000
4.00000 7.03349 4.00000
4.00000 7.03350 4.00000
4.00000 7.03349 4.00000
4.00000 7.03349 4.00000
4.00000 7.03348 4.00000
4.00000 7.03348 4.00000
4.00000 7.03348 4.00000
4.00000 7.03348 4.00000
4.00000 7.03348 4.00000
4.00000 7.03348 4.00000
4.00000 7.03348 4.00000
4.00000 7.03348 4.00000
4.00000 7.03348 4.00000
4.00000 7.03348 4.00000
4.00000 7.03348 4.00000
4.00000 7.03348 4.00000
4.00000 7.03348 4.00000
4.00000 7.03348 4.00000
4.00000 7.03348 4.00000
4.00000 7.03352 4.00000
4.00000 7.03348 4.00000
4.00000 7.03348 4.00000
4.00000 7.03348 4.00000
4.00000 7.03348 4.00000
4.00000 7.03348 4.00000
4.00000 7.03348 4.00000
4.00000 7.03348 4.00000
4.00000 7.03348 4.00000
4.00000 7.03348 4.00000
4.00000 7.03348 4.00000
4.00000 7.03349 4.00000
4.00000 7.03349 4.00000
4.00020 7.03896 4.00020
4.00279 7.11093 4.00279
4.00533 7.18321 4.00533
4.00783 7.25576 4.00783
4.01030 7.32857 4.01030
4.01275 7.40159 4.01275
4.01518 7.47481 4.01518
4.01761 7.54817 4.01761
4.02004 7.62167 4.02004
4.02248 7.69526 4.02249
4.02496 7.76892 4.02495
4.02746 7.84260 4.02746
4.03001 7.91627 4.03001
4.03263 7.98988 4.03263
4.03532 8.06339 4.03532
4.03811 8.13675 4.03811
4.04101 8.20989 4.04101
4.04405 8.28274 4.04405
4.04726 8.35523 4.04726
4.05067 8.42724 4.05067
4.05433 8.49866 4.05433
4.05829 8.56935 4.05829
4.06261 8.63912 4.06261
4.06734 8.70782 4.06734
4.07246 8.77559 4.07246
4.07796 8.84239 4.07796
4.08388 8.90819 4.08388
4.09024 8.97294 4.09024
4.09704 9.03661 4.09703
4.10429 9.09921 4.10429
4.11201 9.16073 4.11201
4.12018 9.22123 4.12018
4.12878 9.28076 4.12878
4.13779 9.33944 4.13779
4.14715 9.39742 4.14715
4.15679 9.45488 4.15679
4.16662 9.51209 4.16662
4.17652 9.56939 4.17652
4.18631 9.62718 4.18631
4.19580 9.68603 4.19580
4.20470 9.74662 4.20470
4.21266 9.80986 4.21266
4.21919 9.87693 4.21919
4.22369 9.94935 4.22369
4.22544 10.02896 4.22544
4.22390 10.11711 4.22390
4.22084 10.20923 4.22084
4.21686 10.30382 4.21686
4.21198 10.40084 4.21198
4.20619 10.50033 4.20619
4.19944 10.60243 4.19944
4.19165 10.70740 4.19165
4.18268 10.81566 4.18268
4.17230 10.92785 4.17230
4.16016 11.04503 4.16016
4.14565 11.16899 4.14565
4.12760 11.30315 4.12760
4.10330 11.45564 4.10330
4.06429 11.65226 4.06429
4.00000 13.19120 4.00000
4.00000 13.19120 4.00000
4.00000 13.19120 4.00000
4.00000 13.19120 4.00000
4.00000 13.19120 4.00000
4.00000 13.19120 4.00000
4.00000 13.19120 4.00000
4.00000 13.19120 4.00000
4.00000 13.19120 4.00000
4.00000 13.19120 4.00000
4.00000 13.19120 4.00000
4.00000 13.19120 4.00000
4.00000 13.19120 4.00000
4.00000 13.19120 4.00000
4.00000 13.19120 4.00000
4.00289 13.20383 4.00289
4.01358 13.25639 4.01358
4.02297 13.31336 4.02297
4.03094 13.37500 4.03094
4.03735 13.44157 4.03735
4.04209 13.51330 4.04209
4.04508 13.59037 4.04508
4.04695 13.67085 4.04695
4.04875 13.75156 4.04875
4.05051 13.83244 4.05051
4.05224 13.91348 4.05224
4.05393 13.99465 4.05393
4.05559 14.07596 4.05559
4.05724 14.15738 4.05724
4.05886 14.23891 4.05886
4.06046 14.32055 4.06046
4.06204 14.40227 4.06204
4.06361 14.48408 4.06361
4.06516 14.56598 4.06516
4.06670 14.64795 4.06670
4.06823 14.72999 4.06823
4.06976 14.81210 4.06976
4.07127 14.89427 4.07127
4.07278 14.97651 4.07278
4.07428 15.05879 4.07428
4.07571 15.14131 4.07571
4.07691 15.22455 4.07691
4.07787 15.30851 4.07787
4.07861 15.39315 4.07861
4.07913 15.47844 4.07913
4.07945 15.56434 4.07945
4.07958 15.65081 4.07958
4.07953 15.73781 4.07953
4.07933 15.82531 4.07933
4.07897 15.91327 4.07897
4.07848 16.00165 4.07848
4.07786 16.09042 4.07786
4.07713 16.17955 4.07713
4.07629 16.26900 4.07629
4.07537 16.35874 4.07537
4.07436 16.44875 4.07436
4.07329 16.53898 4.07329
4.07215 16.62943 4.07215
4.07096 16.72006 4.07096
4.06972 16.81085 4.06972
4.06845 16.90178 4.06845
4.06714 16.99283 4.06714
4.06581 17.08398 4.06581
4.06447 17.17522 4.06447
4.06310 17.26652 4.06310
4.06173 17.35788 4.06173
4.06036 17.44929 4.06036
4.05898 17.54072 4.05898
4.05761 17.63218 4.05761
4.05624 17.72365 4.05624
4.05489 17.81512 4.05489
4.05354 17.90658 4.05354
4.05221 17.99804 4.05221
4.05089 18.08947 4.05089
4.04959 18.18088 4.04959
4.04830 18.27227 4.04830
4.04704 18.36362 4.04704
4.04580 18.45494 4.04580
4.04458 18.54622 4.04458
4.04338 18.63746 4.04338
4.04220 18.72866 4.04220
4.04105 18.81981 4.04105
4.03992 18.91092 4.03992
4.03881 19.00198 4.03881
4.03773 19.09299 4.03773
4.03667 19.18395 4.03667
4.03564 19.27486 4.03564
4.03463 19.36572 4.03463
4.03364 19.45653 4.03364
4.03268 19.54729 4.03268
4.03174 19.63801 4.03174
4.03083 19.72867 4.03083
4.02994 19.81928 4.02994
4.02907 19.90985 4.02907
4.02822 20.00036 4.02822
4.02740 20.09084 4.02740
4.02659 20.18126 4.02659
4.02581 20.27164 4.02581
4.02505 20.36197 4.02505
4.02431 20.45226 4.02431
4.02359 20.54251 4.02359
4.02289 20.63272 4.02289
4.02221 20.72288 4.02221
4.02155 20.81300 4.02155
4.02091 20.90309 4.02091
4.02028 20.99313 4.02028
4.01967 21.08314 4.01967
4.01908 21.17312 4.01908
4.01851 21.26305 4.01851
4.01795 21.35296 4.01795
4.01741 21.44283 4.01741
4.01689 21.53267 4.01689
4.01638 21.62248 4.01637
4.01588 21.71226 4.01588
4.01540 21.80201 4.01540
4.01493 21.89173 4.01493
4.01448 21.98143 4.01448
4.01404 22.07110 4.01404
4.01361 22.16074 4.01361
4.01320 22.25036 4.01320
4.01279 22.33995 4.01279
4.01240 22.42953 4.01240
4.01203 22.51908 4.01203
4.01166 22.60861 4.01166
4.01130 22.69812 4.01130
4.01095 22.78761 4.01095
4.01062 22.87708 4.01062
4.01029 22.96654 4.01029
4.00998 23.05598 4.00998
4.00967 23.14540 4.00967
4.00937 23.23480 4.00937
4.00909 23.32419 4.00909
4.00881 23.41357 4.00881
4.00854 23.50293 4.00854
4.00827 23.59228 4.00827
4.00802 23.68162 4.00802
4.00777 23.77094 4.00777
4.00753 23.86026 4.00753
4.00730 23.94956 4.00730
4.00707 24.03885 4.00707
4.00686 24.12813 4.00685
4.00664 24.21741 4.00664
4.00644 24.30668 4.00644
4.00624 24.39593 4.00624
4.00605 24.48518 4.00605
4.00586 24.57442 4.00586
4.00568 24.66366 4.00568
4.00550 24.75289 4.00550
4.00533 24.84211 4.00533
4.00517 24.93133 4.00517
4.00501 25.02054 4.00501
4.00485 25.10975 4.00485
4.00470 25.19896 4.00470
4.00456 25.28816 4.00455
4.00441 25.37735 4.00441
4.00428 25.46654 4.00428
4.00414 25.55574 4.00414
4.00402 25.64492 4.00402
4.00389 25.73411 4.00389
4.00377 25.82329 4.00377
4.00365 25.91247 4.00365
4.00354 26.00165 4.00354
4.00343 26.09082 4.00343
4.00332 26.18000 4.00332
4.00322 26.26918 4.00322
4.00312 26.35835 4.00312
4.00302 26.44753 4.00302
4.00293 26.53670 4.00293
4.00284 26.62588 4.00284
4.00275 26.71505 4.00275
4.00266 26.80423 4.00266
4.00258 26.89340 4.00258
4.00250 26.98258 4.00250
4.00242 27.07175 4.00242
4.00235 27.16093 4.00235
4.00227 27.25011 4.00227
4.00220 27.33929 4.00220
4.00213 27.42848 4.00213
4.00207 27.51766 4.00207
4.00200 27.60685 4.00200
4.00194 27.69604 4.00194
4.00188 27.78523 4.00188
4.00182 27.87442 4.00182
4.00176 27.96362 4.00176
4.00171 28.05282 4.00171
4.00166 28.14202 4.00165
4.00160 28.23122 4.00160
4.00155 28.32043 4.00155
4.00150 28.40964 4.00150
4.00146 28.49885 4.00146
4.00141 28.58806 4.00141
4.00137 28.67728 4.00137
4.00133 28.76650 4.00133
4.00128 28.85574 4.00128
4.00124 28.94497 4.00124
4.00120 29.03419 4.00120
4.00117 29.12342 4.00117
4.00113 29.21266 4.00113
4.00109 29.30191 4.00110
4.00106 29.39115 4.00106
4.00103 29.48040 4.00103
4.00100 29.56966 4.00100
4.00096 29.65891 4.00096
4.00093 29.74818 4.00093
4.00091 29.83744 4.00091
4.00088 29.92671 4.00088
4.00085 30.01598 4.00085
4.00082 30.10526 4.00082
4.00080 30.19454 4.00080
4.00077 30.28383 4.00077
4.00075 30.37312 4.00075
4.00072 30.46241 4.00072
4.00070 30.55171 4.00070
4.00068 30.64101 4.00068
4.00066 30.73032 4.00066
4.00064 30.81963 4.00064
4.00062 30.90895 4.00062
4.00060 30.99827 4.00060
4.00058 31.08759 4.00058
4.00056 31.17692 4.00056
4.00054 31.26626 4.00054
4.00053 31.35559 4.00053
4.00051 31.44493 4.00051
4.00049 31.53428 4.00050
4.00048 31.62363 4.00048
4.00046 31.71299 4.00047
4.00045 31.80235 4.00045
4.00044 31.89171 4.00044
4.00042 31.98108 4.00042
4.00041 32.07046 4.00040
4.00040 32.15983 4.00040
4.00038 32.24921 4.00038
4.00037 32.33860 4.00037
4.00036 32.42799 4.00036
4.00035 32.51738 4.00035
4.00034 32.60678 4.00034
4.00033 32.69619 4.00033
4.00032 32.78560 4.00031
4.00031 32.87501 4.00031
4.00030 32.96443 4.00030
4.00029 33.05385 4.00029
4.00028 33.14327 4.00028
4.00027 33.23270 4.00027
4.00026 33.32214 4.00026
4.00025 33.41158 4.00025
4.00025 33.50102 4.00024
4.00024 33.59047 4.00024
4.00023 33.67992 4.00023
4.00022 33.76938 4.00022
4.00022 33.85884 4.00022
4.00021 33.94830 4.00021
4.00020 34.03777 4.00020
4.00020 34.12725 4.00020
4.00019 34.21673 4.00019
4.00018 34.30621 4.00018
4.00018 34.39570 4.00018
4.00017 34.48519 4.00017
4.00017 34.57469 4.00017
4.00016 34.66419 4.00016
4.00016 34.75369 4.00016
4.00015 34.84320 4.00015
4.00015 34.93271 4.00015
4.00014 35.02223 4.00014
4.00014 35.11173 4.00014
4.00013 35.20126 4.00013
4.00013 35.29078 4.00013
4.00013 35.38032 4.00013
4.00012 35.46985 4.00012
4.00012 35.55939 4.00012
4.00011 35.64894 4.00011
4.00011 35.73849 4.00011
4.00011 35.82804 4.00011
4.00010 35.91759 4.00010
4.00010 36.00715 4.00010
4.00009 36.09673 4.00010
4.00009 36.18629 4.00009
4.00009 36.27586 4.00009
4.00008 36.36544 4.00009
4.00009 36.45502 4.00009
4.00008 36.54460 4.00008
4.00007 36.63419 4.00008
4.00008 36.72378 4.00008
4.00007 36.81337 4.00008
4.00007 36.90298 4.00007
4.00006 36.99259 4.00007

Angle 0.670495 3.761998

4.00000 7.03348 4.00000
4.00000 7.03348 4.00000
4.00000 7.03348 4.00000
4.00000 7.03348 4.00000
4.00000 7.03348 4.00000
4.00000 7.03348 4.00000
4.00000 7.03348 4.00000
4.00000 7.03348 4.00000
4.00000 7.03348 4.00000
4.00000 7.03348 4.00000
4.00000 7.03348 4.00000
4.00000 7.03348 4.00000
4.00000 7.03348 4.00000
4.00000 7.03348 4.00000
4.00000 7.03347 4.00000
4.00000 7.03348 4.00000
4.00000 7.03348 4.00000
4.00000 7.03347 4.00000
4.00000 7.03348 4.00000
4.00000 7.03348 4.00000
4.00000 7.03347 4.00000
4.00000 7.03348 4.00000
4.00000 7.03348 4.00000
4.00000 7.03348 4.00000
4.00000 7.03348 4.00000
4.00000 7.03348 4.00000
4.00000 7.03348 4.00000
4.00000 7.03348 4.00000
4.00000 7.03348 4.00000
4.00000 7.03348 4.00000
4.00000 7.03348 4.00000
4.00000 7.03348 4.00000
4.00000 7.03349 4.00000
4.00000 7.03348 4.00000
4.00000 7.03347 4.00000
4.00000 7.03349 4.00000
4.00000 7.03348 4.00000
4.00000 7.03349 4.00000
4.00000 7.03348 4.00000
4.00000 7.03348 4.00000
4.00000 7.03348 4.00000
4.00000 7.03348 4.00000
4.00000 7.03348 4.00000
4.00000 7.03348 4.00000
4.00000 7.03348 4.00000
4.00000 7.03348 4.00000
4.00000 7.03348 4.00000
4.00000 7.03348 4.00000
4.00000 7.03348 4.00000
4.00000 7.03348 4.00000
4.00000 7.03348 4.00000
4.00000 7.03348 4.00000
4.00000 7.03348 4.00000
4.00000 7.03348 4.00000
4.00000 7.03347 4.00000
4.00000 7.03348 4.00000
4.00000 7.03346 4.00000
4.00000 7.03348 4.00000
4.00000 7.03348 4.00000
4.00000 7.03348 4.00000
4.00000 7.03347 4.00000
4.00000 7.03344 4.00000
4.00000 7.03348 4.00000
4.00000 7.03351 4.00000
4.00000 7.03348 4.00000
4.00000 7.03348 4.00000
4.00000 7.03342 4.00000
4.00000 7.03348 4.00000
4.00000 7.03348 4.00000
4.00000 7.03348 4.00000
4.00000 7.03348 4.00000
4.00000 7.03348 4.00000
4.00000 7.03348 4.00000
4.00000 7.03348 4.00000
4.00000 7.03348 4.00000
4.00000 7.03349 4.00000
4.00000 7.03343 4.00000
4.00000 7.03347 4.00000
4.00000 7.03353 4.00000
4.00000 7.03360 4.00000
4.00000 7.03358 4.00000
4.00000 7.03342 4.00000
4.00000 7.03349 4.00000
4.00000 7.03348 4.00000
4.00000 7.03350 4.00000
4.00000 7.03350 4.00000
4.00000 7.03348 4.00000
4.00000 7.03353 4.00000
4.00000 7.03348 4.00000
4.00000 7.03347 4.00000
4.00000 7.03350 4.00000
3.99999 7.03351 4.00000
4.00000 7.03350 4.00000
4.00000 7.03348 4.00000
4.00000 7.03347 4.00000
4.00000 7.03347 4.00000
4.00000 7.03347 4.00000
4.00000 7.03348 4.00000
4.00000 7.03348 4.00000
4.00000 7.03348 4.00000
4.00000 7.03348 4.00000
4.00000 7.03348 4.00000
4.00000 7.03348 4.00000
4.00000 7.03348 4.00000
4.00000 7.03349 4.00000
4.00000 7.03349 4.00000
4.00000 7.03349 4.00000
4.00000 7.03349 4.00000
4.00000 7.03349 4.00000
4.00000 7.03350 4.00000
4.00000 7.03349 4.00000
4.00000 7.03349 4.00000
4.00000 7.03347 4.00000
4.00000 7.03348 4.00000
4.00000 7.03348 4.00000
4.00000 7.03348 4.00000
4.00000 7.03348 4.00000
4.00000 7.03347 4.00000
4.00000 7.03347 4.00000
4.00000 7.03348 4.00000
4.00000 7.03348 4.00000
4.00000 7.03346 4.00000
4.00000 7.03347 4.00000
4.00000 7.03347 4.00000
4.00000 7.03347 4.00000
4.00000 7.03348 4.00000
4.00000 7.03347 4.00000
4.00000 7.03347 4.00000
4.00000 7.03347 4.00000
4.00000 7.03347 4.00000
4.00000 7.03347 4.00000
4.00000 7.03347 4.00000
4.00000 7.03347 4.00000
4.00000 7.03347 4.00000
4.00000 7.03347 4.00000
4.00000 7.03347 4.00000
4.00000 7.03347 4.00000
4.00000 7.03347 4.00000
4.00000 7.03347 4.00000
4.00000 7.03348 4.00000
4.00000 7.03348 4.00000
4.00000 7.03348 4.00000
4.00000 7.03348 4.00000
4.00000 7.03348 4.00000
4.00000 7.03348 4.00000
4.00000 7.03348 4.00000
4.00000 7.03348 4.00000
4.00000 7.03348 4.00000
4.00000 7.03348 4.00000
4.00000 7.03348 4.00000
4.00000 7.03348 4.00000
4.00000 7.03348 4.00000
4.00000 7.03348 4.00000
4.00000 7.03348 4.00000
4.00000 7.03348 4.00000
4.00000 7.03348 4.00000
4.00000 7.03348 4.00000
4.00000 7.03348 4.00000
4.00000 7.03348 4.00000
4.00000 7.03348 4.00000
4.00000 7.03348 4.00000
4.00000 7.03348 4.00000
4.00000 7.03348 4.00000
4.00000 7.03348 4.00000
4.00000 7.03348 4.00000
4.00000 7.03348 4.00000
4.00000 7.03348 4.00000
4.00000 7.03348 4.00000
4.00000 7.03349 4.00000
4.00000 7.03348 4.00000
4.00000 7.03348 4.00000
4.00000 7.03348 4.00000
4.00000 7.03348 4.00000
4.00000 7.03348 4.00000
4.00000 7.03348 4.00000
4.00000 7.03348 4.00000
4.00000 7.03348 4.00000
4.00000 7.03348 4.00000
4.00000 7.03348 4.00000
4.00000 7.03348 4.00000
4.00000 7.03348 4.00000
4.00000 7.03348 4.00000
4.00000 7.03348 4.00000
4.00000 7.03348 4.00000
4.00000 7.03348 4.00000
4.00000 7.03348 4.00000
4.00000 7.03348 4.00000
4.00000 7.03348 4.00000
4.00000 7.03348 4.00000
4.00000 7.03348 4.00000
4.00000 7.03348 4.00000
4.00000 7.03348 4.00000
4.00000 7.03348 4.00000
4.00000 7.03348 4.00000
4.00000 7.03348 4.00000
4.00000 7.03348 4.00000
4.00000 7.03348 4.00000
4.00000 7.03348 4.00000
4.00000 7.03348 4.00000
4.00000 7.03348 4.00000
4.00000 7.03348 4.00000
4.00000 7.03348 4.00000
4.00000 7.03348 4.00000
4.00000 7.03347 4.00000
4.00000 7.03347 4.00000
4.00000 7.03348 4.00000
4.00000 7.03348 4.00000
4.00000 7.03348 4.00000
4.00000 7.03348 4.00000
4.00000 7.03348 4.00000
4.00000 7.03348 4.00000
4.00000 7.03348 4.00000
4.00000 7.03348 4.00000
4.00000 7.03348 4.00000
4.00000 7.03346 4.00000
4.00000 7.03346 4.00000
4.00000 7.03348 4.00000
4.00000 7.03348 4.00000
4.00000 7.03348 4.00000
4.00000 7.03348 4.00000
4.00000 7.03353 4.00000
4.00000 7.03349 4.00000
4.00000 7.03348 4.00000
4.00000 7.03348 4.00000
4.00000 7.03343 4.00000
4.00000 7.03347 4.00000
4.00000 7.03348 4.00000
4.00000 7.03348 4.00000
4.00230 7.09704 4.00230
4.00516 7.17834 4.00516
4.00797 7.25986 4.00797
4.01074 7.34154 4.01074
4.01347 7.42336 4.01347
4.01619 7.50526 4.01619
4.01890 7.58722 4.01890
4.02162 7.66918 4.02162
4.02435 7.75111 4.02435
4.02713 7.83296 4.02713
4.02996 7.91468 4.02996
4.03286 7.99622 4.03286
4.03585 8.07751 4.03585
4.03895 8.15849 4.03895
4.04221 8.23907 4.04221
4.04564 8.31916 4.04564
4.04929 8.39864 4.04929
4.05321 8.47737 4.05321
4.05746 8.55516 4.05746
4.06213 8.63181 4.06213
4.06729 8.70710 4.06729
4.07290 8.78117 4.07290
4.07897 8.85401 4.07897
4.08553 8.92555 4.08553
4.09261 8.99576 4.09261
4.10021 9.06461 4.10021
4.10835 9.13212 4.10835
4.11702 9.19832 4.11702
4.12620 9.26328 4.12620
4.13586 9.32713 4.13586
4.14593 9.39004 4.14593
4.15634 9.45227 4.15634
4.16697 9.51413 4.16697
4.17766 9.57604 4.17766
4.18820 9.63856 4.18820
4.19831 9.70237 4.19831
4.20762 9.76842 4.20762
4.21565 9.83794 4.21565
4.22175 9.91253 4.22175
4.22509 9.99427 4.22509
4.22474 10.08551 4.22474
4.22178 10.18350 4.22178
4.21775 10.28426 4.21775
4.21269 10.38774 4.21269
4.20658 10.49397 4.20658
4.19939 10.60308 4.19940
4.19102 10.71541 4.19102
4.18129 10.83145 4.18129
4.16991 10.95202 4.16991
4.15642 11.07854 4.15642
4.13996 11.21352 4.13996
4.11872 11.36227 4.11872
4.08788 11.53936 4.08788
4.00000 13.19120 4.00000
4.00000 13.19120 4.00000
4.00000 13.19120 4.00000
4.00000 13.19120 4.00000
4.00000 13.19120 4.00000
4.00000 13.19119 4.00000
4.00000 13.19120 4.00000
4.00000 13.19120 4.00000
4.00000 13.19120 4.00000
4.00000 13.19120 4.00000
4.00000 13.19121 4.00000
4.00000 13.19121 4.00000
4.00000 13.19120 4.00000
4.00000 13.19120 4.00000
4.00000 13.19120 4.00000
4.00745 13.22502 4.00745
4.01813 13.28242 4.01813
4.02730 13.34482 4.02730
4.03481 13.41252 4.03481
4.04052 13.48580 4.04052
4.04431 13.56488 4.04431
4.04645 13.64895 4.04645
4.04835 13.73371 4.04835
4.05021 13.81863 4.05021
4.05203 13.90368 4.05203
4.05381 13.98885 4.05381
4.05556 14.07413 4.05556
4.05728 14.15949 4.05728
4.05897 14.24494 4.05897
4.06065 14.33046 4.06065
4.06230 14.41605 4.06230
4.06394 14.50170 4.06394
4.06556 14.58740 4.06557
4.06718 14.67315 4.06717
4.06877 14.75894 4.06877
4.07036 14.84477 4.07036
4.07194 14.93063 4.07194
4.07351 15.01653 4.07351
4.07507 15.10247 4.07507
4.07643 15.18897 4.07643
4.07753 15.27625 4.07753
4.07838 15.36425 4.07838
4.07899 15.45293 4.07899
4.07938 15.54225 4.07938
4.07956 15.63218 4.07956
4.07955 15.72266 4.07955
4.07936 15.81366 4.07936
4.07901 15.90513 4.07901
4.07851 15.99702 4.07851
4.07787 16.08932 4.07787
4.07710 16.18197 4.07710
4.07623 16.27494 4.07623
4.07526 16.36819 4.07526
4.07421 16.46169 4.07421
4.07308 16.55541 4.07308
4.07189 16.64932 4.07189
4.07064 16.74340 4.07064
4.06935 16.83761 4.06935
4.06802 16.93194 4.06802
4.06666 17.02637 4.06666
4.06527 17.12087 4.06527
4.06387 17.21543 4.06387
4.06245 17.31003 4.06245
4.06103 17.40466 4.06103
4.05961 17.49930 4.05961
4.05818 17.59394 4.05818
4.05677 17.68858 4.05677
4.05536 17.78319 4.05536
4.05396 17.87778 4.05396
4.05258 17.97234 4.05258
4.05121 18.06685 4.05121
4.04986 18.16132 4.04986
4.04854 18.25573 4.04854
4.04722 18.35009 4.04723
4.04594 18.44439 4.04594
4.04467 18.53863 4.04468
4.04344 18.63280 4.04344
4.04222 18.72690 4.04223
4.04103 18.82094 4.04103
4.03987 18.91490 4.03987
4.03873 19.00879 4.03873
4.03762 19.10261 4.03762
4.03653 19.19636 4.03653
4.03547 19.29003 4.03547
4.03443 19.38363 4.03443
4.03342 19.47716 4.03342
4.03244 19.57061 4.03244
4.03148 19.66399 4.03148
4.03055 19.75731 4.03055
4.02964 19.85055 4.02963
4.02875 19.94372 4.02875
4.02789 20.03682 4.02789
4.02705 20.12985 4.02705
4.02623 20.22282 4.02623
4.02544 20.31572 4.02544
4.02467 20.40856 4.02467
4.02392 20.50133 4.02392
4.02319 20.59404 4.02319
4.02248 20.68669 4.02248
4.02180 20.77928 4.02180
4.02113 20.87181 4.02113
4.02048 20.96428 4.02048
4.01985 21.05670 4.01985
4.01924 21.14906 4.01924
4.01865 21.24137 4.01865
4.01807 21.33363 4.01807
4.01751 21.42584 4.01751
4.01697 21.51800 4.01697
4.01644 21.61011 4.01644
4.01593 21.70217 4.01593
4.01544 21.79419 4.01544
4.01496 21.88616 4.01496
4.01450 21.97809 4.01450
4.01404 22.06997 4.01404
4.01361 22.16182 4.01361
4.01318 22.25363 4.01318
4.01277 22.34539 4.01277
4.01237 22.43712 4.01237
4.01198 22.52882 4.01198

Angle 0.553666 5.479879

4.00000 7.03348 4.00000
4.00000 7.03348 4.00000
4.00000 7.03348 4.00000
4.00000 7.03348 4.00000
4.00000 7.03350 4.00000
4.00000 7.03348 4.00000
4.00000 7.03348 4.00000
4.00094 7.05939 4.00094
4.00321 7.12292 4.00322
4.00546 7.18680 4.00545
4.00767 7.25102 4.00767
4.00986 7.31555 4.00986
4.01204 7.38037 4.01204
4.01421 7.44546 4.01421
4.01637 7.51079 4.01637
4.01854 7.57635 4.01854
4.02072 7.64210 4.02072
4.02291 7.70803 4.02291
4.02513 7.77410 4.02513
4.02738 7.84030 4.02738
4.02967 7.90658 4.02967
4.03202 7.97292 4.03202
4.03443 8.03929 4.03443
4.03691 8.10564 4.03691
4.03948 8.17192 4.03948
4.04216 8.23809 4.04216
4.04497 8.30408 4.04497
4.04793 8.36984 4.04793
4.05107 8.43527 4.05107
4.05442 8.50027 4.05442
4.05802 8.56475 4.05802
4.06192 8.62855 4.06192
4.06618 8.69153 4.06618
4.07076 8.75378 4.07076
4.07567 8.81532 4.07567
4.08093 8.87608 4.08093
4.08655 8.93605 4.08655
4.09255 8.99518 4.09255
4.09893 9.05347 4.09893
4.10571 9.11090 4.10571
4.11289 9.16748 4.11289
4.12046 9.22325 4.12046
4.12841 9.27825 4.12841
4.13671 9.33257 4.13671
4.14532 9.38632 4.14532
4.15420 9.43965 4.15420
4.16328 9.49274 4.16328
4.17246 9.54585 4.17246
4.18162 9.59928 4.18162
4.19062 9.65341 4.19062
4.19926 9.70875 4.19926
4.20729 9.76592 4.20729
4.21439 9.82572 4.21439
4.22015 9.88920 4.22015
4.22403 9.95765 4.22403
4.22545 10.03260 4.22545
4.22396 10.11515 4.22396
4.22114 10.20123 4.22114
4.21752 10.28954 4.21752
4.21309 10.38005 4.21309
4.20787 10.47278 4.20787
4.20182 10.56783 4.20182
4.19487 10.66539 4.19487
4.18694 10.76575 4.18694
4.17785 10.86936 4.17786
4.16739 10.97691 4.16739
4.15517 11.08950 4.15517
4.14054 11.20905 4.14054
4.12226 11.33923 4.12226
4.09736 11.48891 4.09736
4.05590 11.68864 4.05590
4.00000 13.19120 4.00000
4.00000 13.19120 4.00000
4.00000 13.19120 4.00000
4.00000 13.19120 4.00000
4.00000 13.19120 4.00000
4.00000 13.19120 4.00000
4.00000 13.19120 4.00000
4.00000 13.19120 4.00000
4.00000 13.19120 4.00000
4.00000 13.19120 4.00000
4.00000 13.19120 4.00000
4.00000 13.19120 4.00000
4.00000 13.19120 4.00000
4.00000 13.19120 4.00000
4.00000 13.19120 4.00000
4.00000 13.19122 4.00000
4.00587 13.21751 4.00587
4.01577 13.26860 4.01577
4.02447 13.32378 4.02447
4.03185 13.38328 4.03185
4.03781 13.44733 4.03781
4.04224 13.51613 4.04224
4.04507 13.58983 4.04507
4.04685 13.66673 4.04685
4.04858 13.74388 4.04858
4.05027 13.82122 4.05027
4.05192 13.89874 4.05192
4.05355 13.97642 4.05355
4.05515 14.05426 4.05515
4.05673 14.13223 4.05673
4.05829 14.21034 4.05829
4.05983 14.28857 4.05983
4.06136 14.36692 4.06135
4.06287 14.44538 4.06287
4.06436 14.52395 4.06436
4.06585 14.60262 4.06585
4.06733 14.68139 4.06733
4.06880 14.76025 4.06880
4.07026 14.83919 4.07026
4.07171 14.91823 4.07171
4.07316 14.99734 4.07316
4.07460 15.07653 4.07460
4.07594 15.15608 4.07594
4.07706 15.23634 4.07706
4.07796 15.31729 4.07796
4.07865 15.39889 4.07865
4.07914 15.48112 4.07914
4.07945 15.56394 4.07945
4.07958 15.64732 4.07958
4.07954 15.73122 4.07954
4.07936 15.81561 4.07936
4.07903 15.90045 4.07903
4.07857 15.98573 4.07857
4.07800 16.07140 4.07800
4.07732 16.15743 4.07732
4.07654 16.24379 4.07654
4.07567 16.33046 4.07567
4.07472 16.41740 4.07472
4.07370 16.50460 4.07370
4.07262 16.59202 4.07262
4.07149 16.67965 4.07149
4.07032 16.76746 4.07032
4.06910 16.85544 4.06910
4.06785 16.94355 4.06785
4.06658 17.03180 4.06658
4.06528 17.12015 4.06528
4.06397 17.20860 4.06397
4.06265 17.29714 4.06265
4.06132 17.38574 4.06132
4.05998 17.47440 4.05998
4.05865 17.56311 4.05865
4.05732 17.65186 4.05732
4.05599 17.74063 4.05599
4.05468 17.82943 4.05468
4.05337 17.91824 4.05337
4.05208 18.00706 4.05208
4.05080 18.09588 4.05080
4.04953 18.18470 4.04953
4.04829 18.27352 4.04829
4.04706 18.36232 4.04706
4.04585 18.45111 4.04585
4.04466 18.53988 4.04466
4.04349 18.62863 4.04349
4.04235 18.71736 4.04235
4.04122 18.80606 4.04122
4.04012 18.89474 4.04012
4.03904 18.98339 4.03904
4.03798 19.07202 4.03798
4.03694 19.16061 4.03694
4.03593 19.24917 4.03593
4.03494 19.33771 4.03494
4.03397 19.42621 4.03397
4.03303 19.51468 4.03303
4.03210 19.60312 4.03210
4.03120 19.69153 4.03120
4.03032 19.77991 4.03032
4.02946 19.86826 4.02947
4.02863 19.95657 4.02863
4.02781 20.04486 4.02781
4.02702 20.13312 4.02702
4.02625 20.22135 4.02625
4.02549 20.30955 4.02549
4.02475 20.39773 4.02476
4.02404 20.48587 4.02404
4.02334 20.57400 4.02335
4.02267 20.66209 4.02267
4.02201 20.75016 4.02201
4.02137 20.83821 4.02137
4.02074 20.92623 4.02074
4.02014 21.01423 4.02014
4.01955 21.10221 4.01955
4.01897 21.19017 4.01897
4.01842 21.27811 4.01842
4.01787 21.36603 4.01787
4.01735 21.45393 4.01735
4.01683 21.54182 4.01683
4.01634 21.62969 4.01634
4.01585 21.71754 4.01585
4.01538 21.80537 4.01538
4.01492 21.89320 4.01492
4.01448 21.98100 4.01448
4.01405 22.06880 4.01405
4.01363 22.15658 4.01363
4.01322 22.24435 4.01322
4.01283 22.33211 4.01283
4.01245 22.41986 4.01245
4.01207 22.50761 4.01207
4.01171 22.59534 4.01171
4.01136 22.68306 4.01136
4.01102 22.77078 4.01102
4.01069 22.85849 4.01069
4.01037 22.94619 4.01037
4.01006 23.03389 4.01006
4.00975 23.12158 4.00975
4.00946 23.20927 4.00946
4.00917 23.29695 4.00917
4.00890 23.38463 4.00890
4.00863 23.47231 4.00863
4.00837 23.55999 4.00836
4.00811 23.64766 4.00811
4.00787 23.73533 4.00787
4.00763 23.82300 4.00763
4.00740 23.91067 4.00740
4.00718 23.99834 4.00718
4.00696 24.08601 4.00696
4.00675 24.17369 4.00675
4.00654 24.26136 4.00654
4.00634 24.34903 4.00634
4.00615 24.43671 4.00615
4.00596 24.52438 4.00596
4.00578 24.61206 4.00578
4.00561 24.69975 4.00561
4.00544 24.78743 4.00544
4.00527 24.87512 4.00527
4.00511 24.96281 4.00511
4.00495 25.05051 4.00495
4.00480 25.13821 4.00480
4.00466 25.22592 4.00466
4.00451 25.31363 4.00451
4.00438 25.40134 4.00438
4.00424 25.48907 4.00424
4.00411 25.57679 4.00411
4.00399 25.66452 4.00399
4.00387 25.75226 4.00387
4.00375 25.84001 4.00375
4.00363 25.92776 4.00363
4.00352 26.01552 4.00352
4.00341 26.10328 4.00341
4.00331 26.19105 4.00331
4.00321 26.27883 4.00321
4.00311 26.36661 4.00311
4.00301 26.45441 4.00301
4.00292 26.54221 4.00292
4.00283 26.63001 4.00283
4.00275 26.71783 4.00275
4.00266 26.80565 4.00266
4.00258 26.89349 4.00258
4.00250 26.98133 4.00250
4.00242 27.06917 4.00242
4.00235 27.15703 4.00235
4.00228 27.24489 4.00228
4.00221 27.33277 4.00221
4.00214 27.42065 4.00214
4.00207 27.50854 4.00207
4.00201 27.59644 4.00201
4.00195 27.68435 4.00195
4.00189 27.77226 4.00189
4.00183 27.86019 4.00183
4.00177 27.94813 4.00177
4.00172 28.03607 4.00172
4.00167 28.12402 4.00167
4.00161 28.21199 4.00161
4.00157 28.29995 4.00157
4.00152 28.38794 4.00152
4.00147 28.47593 4.00147
4.00142 28.56393 4.00143
4.00138 28.65194 4.00138
4.00134 28.73996 4.00134
4.00130 28.82799 4.00130
4.00126 28.91602 4.00126
4.00122 29.00407 4.00122
4.00118 29.09213 4.00118
4.00114 29.18019 4.00114
4.00111 29.26827 4.00111
4.00107 29.35636 4.00107
4.00104 29.44445 4.00104
4.00101 29.53256 4.00101
4.00098 29.62067 4.00098
4.00095 29.70879 4.00095
4.00092 29.79693 4.00092
4.00089 29.88507 4.00089
4.00086 29.97322 4.00086
4.00083 30.06138 4.00083
4.00081 30.14956 4.00081
4.00078 30.23773 4.00079
4.00076 30.32592 4.00076
4.00074 30.41412 4.00074
4.00071 30.50233 4.00071
4.00069 30.59055 4.00069
4.00068 30.67877 4.00067
4.00065 30.76702 4.00065
4.00063 30.85526 4.00063
4.00062 30.94352 4.00061
4.00059 31.03178 4.00059
4.00058 31.12006 4.00057
4.00056 31.20834 4.00055
4.00054 31.29664 4.00054
4.00052 31.38495 4.00052
4.00051 31.47325 4.00050
4.00049 31.56157 4.00049
4.00048 31.64990 4.00047
4.00046 31.73825 4.00046
4.00045 31.82660 4.00044
4.00044 31.91495 4.00043
4.00042 32.00333 4.00042
4.00041 32.09170 4.00041
4.00040 32.18009 4.00039
4.00038 32.26848 4.00038
4.00037 32.35688 4.00037
4.00036 32.44530 4.00036
4.00035 32.53372 4.00034
4.00034 32.62215 4.00033
4.00033 32.71059 4.00032
4.00032 32.79904 4.00031
4.00031 32.88750 4.00030
4.00030 32.97596 4.00029
4.00029 33.06443 4.00028
4.00028 33.15292 4.00027
4.00027 33.24141 4.00027
4.00026 33.32991 4.00026
4.00025 33.41842 4.00025
4.00025 33.50694 4.00024
4.00024 33.59546 4.00023
4.00023 33.68400 4.00023
4.00022 33.77254 4.00022
4.00022 33.86109 4.00022
4.00021 33.94965 4.00021
4.00020 34.03822 4.00020
4.00020 34.12680 4.00020
4.00019 34.21538 4.00019
4.00018 34.30397 4.00018
4.00018 34.39258 4.00018
4.00017 34.48119 4.00017
4.00017 34.56981 4.00017
4.00016 34.65844 4.00016
4.00016 34.74707 4.00016
4.00015 34.83571 4.00015
4.00015 34.92437 4.00015
4.00014 35.01303 4.00014
4.00014 35.10170 4.00014
4.00013 35.19037 4.00013
4.00013 35.27905 4.00013
4.00013 35.36775 4.00013
4.00012 35.45645 4.00012
4.00012 35.54515 4.00012
4.00011 35.63387 4.00011
4.00011 35.72259 4.00011
4.00011 35.81132 4.00011
4.00010 35.90007 4.00010
4.00010 35.98881 4.00010
4.00010 36.07756 4.00010
4.00009 36.16632 4.00010
4.00009 36.25499 4.00009
4.00009 36.34376 4.00009
4.00008 36.43254 4.00009
4.00008 36.52132 4.00008
4.00008 36.61012 4.00008
4.00008 36.69892 4.00008
4.00007 36.78772 4.00008
4.00007 36.87654 4.00007
4.00007 36.96536 4.00007
4.00007 37.05419 4.00007
4.00006 37.14302 4.00007
4.00006 37.23186 4.00007
4.00006 37.32071 4.00006
4.00006 37.40957 4.00006
4.00006 37.49843 4.00006
4.00005 37.58730 4.00006
4.00005 37.67618 4.00006
4.00005 37.76506 4.00006
4.00005 37.85395 4.00005
4.00005 37.94285 4.00005
4.00005 38.03175 4.00005
4.00004 38.12066 4.00005
4.00004 38.20958 4.00005
4.00004 38.29850 4.00005
4.00004 38.38743 4.00005
4.00004 38.47636 4.00004
4.00004 38.56531 4.00004
4.00004 38.65426 4.00004
4.00004 38.74321 4.00004
4.00003 38.83217 4.00004
4.00003 38.92114 4.00004
4.00003 39.01011 4.00004
4.00003 39.09909 4.00004
4.00003 39.18808 4.00004
4.00003 39.27707 4.00003
4.00003 39.36607 4.00003
4.00003 39.45507 4.00003
4.00003 39.54408 4.00003
4.00003 39.63310 4.00003
4.00002 39.72212 4.00003
4.00002 39.81114 4.00003
4.00002 39.90018 4.00003
4.00002 39.98922 4.00003
4.00002 40.07826 4.00003
4.00002 40.16731 4.00003
4.00002 40.25637 4.00003
4.00002 40.34543 4.00003

Angle 0.447547 0.796936

4.00000 7.03348 4.00000
4.00000 7.03348 4.00000
4.00000 7.03348 4.00000
4.00000 7.03348 4.00000
4.00000 7.03348 4.00000
4.00000 7.03348 4.00000
4.00000 7.03348 4.00000
4.00000 7.03348 4.00000
4.00000 7.03348 4.00000
4.00000 7.03348 4.00000
4.00000 7.03348 4.00000
4.00000 7.03348 4.00000
4.00000 7.03348 4.00000
4.00000 7.03348 4.00000
4.00000 7.03348 4.00000
4.00000 7.03348 4.00000
4.00000 7.03348 4.00000
4.00058 7.04936 4.00058
4.00301 7.11713 4.00301
4.00540 7.18523 4.00540
4.00776 7.25364 4.00776
4.01009 7.32233 4.01009
4.01241 7.39127 4.01240
4.01471 7.46045 4.01471
4.01700 7.52983 4.01700
4.01930 7.59938 4.01930
4.02161 7.66908 4.02161
4.02394 7.73890 4.02394
4.02631 7.80881 4.02631
4.02871 7.87878 4.02871
4.03116 7.94877 4.03116
4.03367 8.01874 4.03367
4.03627 8.08865 4.03627
4.03895 8.15844 4.03895
4.04175 8.22807 4.04175
4.04468 8.29747 4.04468
4.04778 8.36655 4.04778
4.05107 8.43523 4.05107
4.05459 8.50341 4.05459
4.05838 8.57094 4.05838
4.06251 8.63767 4.06251
4.06703 8.70346 4.06703
4.07190 8.76842 4.07190
4.07712 8.83254 4.07712
4.08273 8.89578 4.08273
4.08873 8.95809 4.08873
4.09515 9.01946 4.09515
4.10199 9.07985 4.10199
4.10925 9.13929 4.10925
4.11694 9.19779 4.11694
4.12505 9.25540 4.12505
4.13354 9.31220 4.13354
4.14239 9.36830 4.14240
4.15154 9.42386 4.15154
4.16093 9.47907 4.16093
4.17044 9.53420 4.17044
4.17997 9.58956 4.17997
4.18935 9.64558 4.18935
4.19837 9.70278 4.19837
4.20676 9.76185 4.20676
4.21417 9.82365 4.21417
4.22016 9.88933 4.22016
4.22413 9.96031 4.22413
4.22543 10.03830 4.22543
4.22370 10.12420 4.22370
4.22068 10.21350 4.22068
4.21680 10.30513 4.21680
4.21208 10.39907 4.21208
4.20650 10.49536 4.20650
4.20002 10.59413 4.20002
4.19257 10.69560 4.19257
4.18403 10.80014 4.18403
4.17419 10.90832 4.17419
4.16277 11.02102 4.16277
4.14925 11.13971 4.14925
4.13273 11.26707 4.13273
4.11124 11.40895 4.11124
4.07953 11.58124 4.07953
4.00000 13.19120 4.00000
4.00000 13.19120 4.00000
4.00000 13.19120 4.00000
4.00000 13.19120 4.00000
4.00000 13.19120 4.00000
4.00000 13.19120 4.00000
4.00000 13.19120 4.00000
4.00000 13.19120 4.00000
4.00000 13.19120 4.00000
4.00000 13.19120 4.00000
4.00000 13.19120 4.00000
4.00000 13.19120 4.00000
4.00000 13.19120 4.00000
4.00000 13.19120 4.00000
4.00000 13.19120 4.00000
4.00000 13.19120 4.00000
4.00558 13.21614 4.00558
4.01574 13.26841 4.01574
4.02463 13.32496 4.02463
4.03215 13.38602 4.03215
4.03816 13.45185 4.03816
4.04256 13.52264 4.04256
4.04529 13.59856 4.04529
4.04709 13.67729 4.04709
4.04885 13.75621 4.04885
4.05057 13.83532 4.05057
4.05226 13.91459 4.05226
4.05392 13.99401 4.05392
4.05555 14.07357 4.05555
4.05715 14.15326 4.05715
4.05874 14.23307 4.05874
4.06031 14.31299 4.06031
4.06186 14.39302 4.06186
4.06340 14.47314 4.06340
4.06492 14.55336 4.06492
4.06644 14.63367 4.06644
4.06794 14.71406 4.06794
4.06943 14.79453 4.06943
4.07092 14.87508 4.07092
4.07240 14.95570 4.07240
4.07387 15.03638 4.07387
4.07532 15.11720 4.07532
4.07657 15.19864 4.07657
4.07758 15.28080 4.07758
4.07838 15.36365 4.07838
4.07896 15.44714 4.07896
4.07935 15.53124 4.07935
4.07955 15.61592 4.07955
4.07957 15.70115 4.07957
4.07944 15.78688 4.07944
4.07915 15.87308 4.07915
4.07873 15.95972 4.07873
4.07817 16.04677 4.07818
4.07751 16.13418 4.07751
4.07674 16.22194 4.07674
4.07588 16.31001 4.07588
4.07493 16.39835 4.07493
4.07391 16.48696 4.07391
4.07283 16.57579 4.07283
4.07169 16.66482 4.07169
4.07050 16.75403 4.07050
4.06927 16.84340 4.06927
4.06800 16.93292 4.06800
4.06671 17.02255 4.06671
4.06540 17.11229 4.06540
4.06407 17.20211 4.06407
4.06272 17.29201 4.06272
4.06137 17.38197 4.06137
4.06002 17.47199 4.06002
4.05866 17.56203 4.05866
4.05731 17.65211 4.05731
4.05597 17.74221 4.05597
4.05463 17.83232 4.05463
4.05331 17.92243 4.05331
4.05200 18.01255 4.05200
4.05070 18.10265 4.05070
4.04942 18.19274 4.04942
4.04816 18.28281 4.04816
4.04691 18.37287 4.04691
4.04569 18.46289 4.04569
4.04449 18.55289 4.04449
4.04331 18.64286 4.04331
4.04215 18.73280 4.04215
4.04101 18.82270 4.04101
4.03990 18.91257 4.03990
4.03881 19.00240 4.03881
4.03774 19.09219 4.03774
4.03670 19.18194 4.03670
4.03568 19.27165 4.03568
4.03468 19.36132 4.03468
4.03370 19.45095 4.03370
4.03275 19.54055 4.03275
4.03183 19.63010 4.03183
4.03092 19.71961 4.03092
4.03004 19.80908 4.03004
4.02918 19.89851 4.02918
4.02834 19.98791 4.02834
4.02752 20.07726 4.02752
4.02673 20.16658 4.02672
4.02595 20.25586 4.02595
4.02519 20.34511 4.02519
4.02446 20.43432 4.02446
4.02374 20.52349 4.02374
4.02305 20.61263 4.02305
4.02237 20.70174 4.02237
4.02171 20.79082 4.02171
4.02107 20.87986 4.02107
4.02045 20.96888 4.02045
4.01984 21.05786 4.01984
4.01925 21.14682 4.01925
4.01868 21.23574 4.01868
4.01813 21.32465 4.01813
4.01759 21.41353 4.01759
4.01706 21.50238 4.01706
4.01655 21.59120 4.01655
4.01606 21.68001 4.01606
4.01557 21.76879 4.01558
4.01511 21.85755 4.01511
4.01465 21.94630 4.01465
4.01421 22.03501 4.01421
4.01379 22.12372 4.01379
4.01337 22.21240 4.01337
4.01297 22.30106 4.01297
4.01258 22.38971 4.01258
4.01219 22.47835 4.01219
4.01183 22.56697 4.01183
4.01147 22.65557 4.01147
4.01112 22.74416 4.01112
4.01078 22.83274 4.01079
4.01045 22.92131 4.01046
4.01014 23.00986 4.01014
4.00983 23.09841 4.00983
4.00953 23.18694 4.00953
4.00924 23.27546 4.00924
4.00896 23.36398 4.00896
4.00869 23.45249 4.00869
4.00842 23.54098 4.00842
4.00817 23.62948 4.00817
4.00792 23.71796 4.00792
4.00767 23.80644 4.00768
4.00744 23.89491 4.00744
4.00721 23.98338 4.00721
4.00699 24.07184 4.00699
4.00678 24.16030 4.00678
4.00657 24.24875 4.00657
4.00637 24.33721 4.00637
4.00617 24.42565 4.00617
4.00599 24.51410 4.00598
4.00580 24.60254 4.00580
4.00562 24.69099 4.00562
4.00545 24.77942 4.00545
4.00528 24.86786 4.00528
4.00512 24.95630 4.00512
4.00496 25.04474 4.00496
4.00481 25.13318 4.00481
4.00466 25.22161 4.00466
4.00452 25.31005 4.00452
4.00438 25.39849 4.00438
4.00425 25.48693 4.00425
4.00412 25.57538 4.00412
4.00399 25.66382 4.00399
4.00387 25.75226 4.00386
4.00375 25.84072 4.00375
4.00363 25.92916 4.00363
4.00352 26.01761 4.00352
4.00341 26.10607 4.00341
4.00330 26.19453 4.00331
4.00320 26.28300 4.00320
4.00310 26.37146 4.00310
4.00301 26.45993 4.00301
4.00292 26.54840 4.00292
4.00283 26.63688 4.00282
4.00274 26.72536 4.00274
4.00265 26.81384 4.00265
4.00257 26.90233 4.00257
4.00249 26.99082 4.00249
4.00242 27.07932 4.00241
4.00234 27.16783 4.00234
4.00227 27.25633 4.00227
4.00220 27.34484 4.00220
4.00213 27.43337 4.00213
4.00206 27.52189 4.00206
4.00200 27.61042 4.00200
4.00194 27.69896 4.00194
4.00188 27.78750 4.00188
4.00181 27.87605 4.00182
4.00176 27.96460 4.00176
4.00171 28.05316 4.00171
4.00165 28.14172 4.00166
4.00160 28.23029 4.00160
4.00155 28.31886 4.00156
4.00151 28.40745 4.00151
4.00146 28.49603 4.00146
4.00141 28.58463 4.00141
4.00137 28.67323 4.00137
4.00133 28.76184 4.00133
4.00129 28.85045 4.00129
4.00125 28.93908 4.00125
4.00121 29.02770 4.00121
4.00117 29.11634 4.00117
4.00113 29.20498 4.00113
4.00110 29.29363 4.00110
4.00106 29.38228 4.00106
4.00103 29.47094 4.00103
4.00100 29.55961 4.00100
4.00097 29.64828 4.00097
4.00094 29.73696 4.00094
4.00091 29.82565 4.00091
4.00088 29.91434 4.00088
4.00085 30.00305 4.00085
4.00082 30.09175 4.00083
4.00080 30.18047 4.00081
4.00077 30.26919 4.00078
4.00075 30.35792 4.00075
4.00073 30.44666 4.00073
4.00070 30.53540 4.00071
4.00068 30.62415 4.00069
4.00066 30.71291 4.00067
4.00064 30.80167 4.00064
4.00062 30.89044 4.00062
4.00060 30.97922 4.00060
4.00058 31.06800 4.00059
4.00057 31.15680 4.00057
4.00055 31.24559 4.00055
4.00053 31.33440 4.00053
4.00051 31.42321 4.00052
4.00050 31.51203 4.00050
4.00048 31.60086 4.00048
4.00047 31.68969 4.00047
4.00045 31.77853 4.00045
4.00044 31.86738 4.00044
4.00042 31.95624 4.00042
4.00041 32.04510 4.00041
4.00040 32.13397 4.00040
4.00039 32.22285 4.00039
4.00037 32.31173 4.00037
4.00036 32.40063 4.00036
4.00035 32.48949 4.00035
4.00034 32.57840 4.00034
4.00033 32.66730 4.00033
4.00032 32.75622 4.00032
4.00031 32.84514 4.00031
4.00030 32.93407 4.00030
4.00029 33.02301 4.00029
4.00028 33.11195 4.00028
4.00027 33.20091 4.00027
4.00027 33.28986 4.00026
4.00026 33.37882 4.00026
4.00025 33.46779 4.00025
4.00024 33.55677 4.00024
4.00023 33.64575 4.00023
4.00023 33.73471 4.00023
4.00022 33.82370 4.00022
4.00021 33.91270 4.00021
4.00021 34.00171 4.00020
4.00020 34.09073 4.00020
4.00019 34.17975 4.00019
4.00019 34.26877 4.00018
4.00018 34.35780 4.00018
4.00018 34.44684 4.00017
4.00017 34.53589 4.00017
4.00017 34.62494 4.00016
4.00016 34.71400 4.00016
4.00015 34.80304 4.00015
4.00015 34.89211 4.00015
4.00015 34.98118 4.00014
4.00014 35.07026 4.00014
4.00014 35.15935 4.00013
4.00013 35.24844 4.00013
4.00013 35.33754 4.00012
4.00013 35.42665 4.00012
4.00012 35.51576 4.00012
4.00012 35.60488 4.00011
4.00011 35.69400 4.00011
4.00011 35.78313 4.00011
4.00011 35.87227 4.00010
4.00010 35.96141 4.00010
4.00010 36.05055 4.00010
4.00010 36.13971 4.00009
4.00010 36.22886 4.00009
4.00009 36.31803 4.00009
4.00009 36.40720 4.00008
4.00009 36.49637 4.00008
4.00009 36.58555 4.00008
4.00008 36.67474 4.00008
4.00008 36.76393 4.00007
4.00008 36.85313 4.00007
4.00008 36.94233 4.00007
4.00007 37.03154 4.00007
4.00007 37.12075 4.00006
4.00007 37.20997 4.00006
4.00007 37.29920 4.00006
4.00007 37.38843 4.00006
4.00006 37.47766 4.00006
4.00006 37.56690 4.00005
4.00006 37.65615 4.00005
4.00006 37.74540 4.00005
4.00006 37.83465 4.00005
4.00006 37.92391 4.00005
4.00005 38.01318 4.00005
4.00005 38.10245 4.00004
4.00005 38.19173 4.00004
4.00005 38.28101 4.00004
4.00005 38.37030 4.00004
4.00005 38.45959 4.00004
4.00005 38.54888 4.00004
4.00004 38.63818 4.00004
4.00004 38.72749 4.00004
4.00004 38.81680 4.00003
4.00004 38.90611 4.00003
4.00004 38.99543 4.00003
4.00004 39.08476 4.00003
4.00004 39.17409 4.00003
4.00004 39.26342 4.00003
4.00004 39.35276 4.00003
4.00004 39.44211 4.00003
4.00003 39.53145 4.00003
4.00003 39.62081 4.00003
4.00003 39.71016 4.00002
4.00003 39.79953 4.00002
4.00003 39.88889 4.00002
4.00003 39.97826 4.00002

Angle 0.369602 2.892955

4.00000 7.03348 4.00000
4.00000 7.03348 4.00000
4.00000 7.03348 4.00000
4.00000 7.03348 4.00000
4.00000 7.03348 4.00000
4.00000 7.03348 4.00000
4.00000 7.03348 4.00000
4.00000 7.03348 4.00000
4.00000 7.03348 4.00000
4.00000 7.03348 4.00000
4.00000 7.03348 4.00000
4.00000 7.03348 4.00000
4.00000 7.03348 4.00000
4.00000 7.03348 4.00000
4.00000 7.03348 4.00000
4.00000 7.03348 4.00000
4.00000 7.03348 4.00000
4.00000 7.03348 4.00000
4.00000 7.03348 4.00000
4.00000 7.03348 4.00000
4.00000 7.03348 4.00000
4.00000 7.03348 4.00000
4.00000 7.03348 4.00000
4.00000 7.03348 4.00000
4.00000 7.03348 4.00000
4.00000 7.03348 4.00000
4.00000 7.03348 4.00000
4.00000 7.03348 4.00000
4.00000 7.03348 4.00000
4.00000 7.03347 4.00000
4.00000 7.03347 4.00000
4.00000 7.03348 4.00000
4.00000 7.03348 4.00000
4.00000 7.03348 4.00000
4.00000 7.03348 4.00000
4.00000 7.03347 4.00000
4.00000 7.03348 4.00000
4.00000 7.03348 4.00000
4.00000 7.03348 4.00000
4.00000 7.03348 4.00000
4.00000 7.03348 4.00000
4.00000 7.03348 4.00000
4.00000 7.03348 4.00000
4.00000 7.03348 4.00000
4.00000 7.03348 4.00000
4.00000 7.03348 4.00000
4.00000 7.03348 4.00000
4.00000 7.03348 4.00000
4.00000 7.03348 4.00000
4.00000 7.03348 4.00000
4.00000 7.03348 4.00000
4.00000 7.03348 4.00000
4.00000 7.03348 4.00000
4.00000 7.03348 4.00000
4.00000 7.03348 4.00000
4.00000 7.03348 4.00000
4.00000 7.03348 4.00000
4.00000 7.03348 4.00000
4.00000 7.03348 4.00000
4.00000 7.03348 4.00000
4.00000 7.03348 4.00000
4.00000 7.03348 4.00000
4.00000 7.03348 4.00000
4.00000 7.03348 4.00000
4.00000 7.03348 4.00000
4.00000 7.03348 4.00000
4.00000 7.03348 4.00000
4.00000 7.03348 4.00000
4.00000 7.03348 4.00000
4.00000 7.03348 4.00000
4.00000 7.03348 4.00000
4.00000 7.03348 4.00000
4.00000 7.03348 4.00000
4.00000 7.03348 4.00000
4.00000 7.03348 4.00000
4.00000 7.03348 4.00000
4.00000 7.03348 4.00000
4.00000 7.03348 4.00000
4.00000 7.03348 4.00000
4.00000 7.03348 4.00000
4.00000 7.03348 4.00000
4.00000 7.03348 4.00000
4.00000 7.03348 4.00000
4.00000 7.03348 4.00000
4.00000 7.03348 4.00000
4.00000 7.03348 4.00000
4.00000 7.03348 4.00000
4.00000 7.03348 4.00000
4.00000 7.03348 4.00000
4.00000 7.03348 4.00000
4.00000 7.03348 4.00000
4.00000 7.03348 4.00000
4.00000 7.03347 4.00000
4.00000 7.03348 4.00000
4.00000 7.03347 4.00000
4.00000 7.03347 4.00000
4.00000 7.03348 4.00000
4.00000 7.03348 4.00000
4.00000 7.03348 4.00000
4.00000 7.03348 4.00000
4.00000 7.03348 4.00000
4.00000 7.03348 4.00000
4.00000 7.03348 4.00000
4.00000 7.03348 4.00000
4.00000 7.03348 4.00000
4.00000 7.03348 4.00000
4.00000 7.03348 4.00000
4.00000 7.03348 4.00000
4.00000 7.03348 4.00000
4.00000 7.03348 4.00000
4.00000 7.03348 4.00000
4.00000 7.03348 4.00000
4.00000 7.03348 4.00000
4.00000 7.03348 4.00000
4.00000 7.03348 4.00000
4.00000 7.03347 4.00000
4.00000 7.03348 4.00000
4.00000 7.03348 4.00000
4.00000 7.03348 4.00000
4.00000 7.03348 4.00000
4.00000 7.03348 4.00000
4.00000 7.03348 4.00000
4.00000 7.03348 4.00000
4.00000 7.03347 4.00000
4.00000 7.03348 4.00000
4.00000 7.03348 4.00000
4.00000 7.03348 4.00000
4.00000 7.03348 4.00000
4.00000 7.03348 4.00000
4.00000 7.03348 4.00000
4.00000 7.03348 4.00000
4.00000 7.03348 4.00000
4.00000 7.03348 4.00000
4.00000 7.03348 4.00000
4.00000 7.03348 4.00000
4.00000 7.03348 4.00000
4.00000 7.03348 4.00000
4.00000 7.03348 4.00000
4.00000 7.03348 4.00000
4.00000 7.03348 4.00000
4.00000 7.03348 4.00000
4.00000 7.03348 4.00000
4.00000 7.03348 4.00000
4.00000 7.03348 4.00000
4.00000 7.03348 4.00000
4.00000 7.03348 4.00000
4.00000 7.03348 4.00000
4.00000 7.03348 4.00000
4.00000 7.03348 4.00000
4.00000 7.03348 4.00000
4.00000 7.03348 4.00000
4.00000 7.03348 4.00000
4.00000 7.03348 4.00000
4.00000 7.03348 4.00000
4.00000 7.03348 4.00000
4.00000 7.03348 4.00000
4.00000 7.03348 4.00000
4.00000 7.03348 4.00000
4.00000 7.03348 4.00000
4.00000 7.03348 4.00000
4.00000 7.03348 4.00000
4.00000 7.03348 4.00000
4.00000 7.03348 4.00000
4.00000 7.03347 4.00000
4.00000 7.03346 4.00000
4.00000 7.03348 4.00000
4.00132 7.06987 4.00132
4.00418 7.15028 4.00418
4.00698 7.23093 4.00698
4.00973 7.31178 4.00973
4.01245 7.39277 4.01245
4.01515 7.47388 4.01515
4.01784 7.55506 4.01784
4.02052 7.63628 4.02052
4.02323 7.71748 4.02323
4.02596 7.79864 4.02596
4.02874 7.87971 4.02874
4.03158 7.96062 4.03158
4.03450 8.04133 4.03450
4.03753 8.12177 4.03753
4.04068 8.20187 4.04068
4.04400 8.28154 4.04400
4.04751 8.36067 4.04751
4.05126 8.43914 4.05126
4.05531 8.51680 4.05531
4.05973 8.59344 4.05973
4.06460 8.66883 4.06460
4.06994 8.74294 4.06994
4.07572 8.81587 4.07572
4.08197 8.88756 4.08197
4.08872 8.95796 4.08872
4.09598 9.02704 4.09598
4.10376 9.09479 4.10376
4.11207 9.16124 4.11207
4.12091 9.22642 4.12091
4.13023 9.29043 4.13023
4.14000 9.35342 4.14000
4.15016 9.41559 4.15016
4.16061 9.47720 4.16061
4.17121 9.53861 4.17121
4.18179 9.60027 4.18179
4.19214 9.66278 4.19213
4.20193 9.72691 4.20193
4.21077 9.79365 4.21077
4.21813 9.86436 4.21813
4.22331 9.94079 4.22331
4.22544 10.02509 4.22544
4.22385 10.11897 4.22385
4.22054 10.21732 4.22054
4.21618 10.31839 4.21618
4.21081 10.42214 4.21081
4.20440 10.52864 4.20440
4.19689 10.63809 4.19689
4.18817 10.75085 4.18817
4.17803 10.86750 4.17803
4.16614 10.98899 4.16614
4.15197 11.11695 4.15197
4.13448 11.25438 4.13448
4.11138 11.40811 4.11138
4.07598 11.59837 4.07598
4.00000 13.19120 4.00000
4.00000 13.19120 4.00000
4.00000 13.19120 4.00000
4.00000 13.19120 4.00000
4.00000 13.19120 4.00000
4.00000 13.19120 4.00000
4.00000 13.19120 4.00000
4.00000 13.19120 4.00000
4.00000 13.19120 4.00000
4.00000 13.19120 4.00000
4.00000 13.19120 4.00000
4.00000 13.19120 4.00000
4.00000 13.19120 4.00000
4.00000 13.19121 4.00000
4.00000 13.19120 4.00000
4.00965 13.23585 4.00965
4.02000 13.29391 4.02000
4.02883 13.35700 4.02883
4.03598 13.42540 4.03598
4.04133 13.49936 4.04133
4.04477 13.57912 4.04477
4.04677 13.66318 4.04677
4.04866 13.74759 4.04866
4.05050 13.83216 4.05050
4.05231 13.91687 4.05231
4.05407 14.00169 4.05407
4.05581 14.08662 4.05581
4.05752 14.17164 4.05752
4.05921 14.25674 4.05921
4.06087 14.34192 4.06087
4.06252 14.42717 4.06252
4.06415 14.51248 4.06415
4.06576 14.59784 4.06576
4.06736 14.68325 4.06736
4.06895 14.76871 4.06895
4.07053 14.85421 4.07053
4.07211 14.93973 4.07211
4.07367 15.02530 4.07367
4.07521 15.11094 4.07521
4.07655 15.19719 4.07655
4.07762 15.28420 4.07762
4.07844 15.37193 4.07844
4.07903 15.46035 4.07903
4.07940 15.54939 4.07940
4.07957 15.63904 4.07957
4.07955 15.72923 4.07955
4.07934 15.81993 4.07934
4.07898 15.91111 4.07898
4.07847 16.00271 4.07847
4.07782 16.09471 4.07782
4.07706 16.18705 4.07706
4.07619 16.27971 4.07619
4.07522 16.37266 4.07522
4.07416 16.46585 4.07416
4.07303 16.55927 4.07303
4.07184 16.65287 4.07184
4.07060 16.74664 4.07060
4.06931 16.84055 4.06931
4.06798 16.93458 4.06798
4.06662 17.02870 4.06662
4.06524 17.12290 4.06524
4.06384 17.21716 4.06384
4.06243 17.31146 4.06243
4.06101 17.40579 4.06101
4.05959 17.50014 4.05959
4.05818 17.59449 4.05818
4.05676 17.68883 4.05676
4.05536 17.78316 4.05536
4.05397 17.87746 4.05397
4.05259 17.97173 4.05259
4.05123 18.06597 4.05123
4.04988 18.16016 4.04988
4.04856 18.25429 4.04856
4.04725 18.34838 4.04725
4.04597 18.44241 4.04597
4.04471 18.53637 4.04471
4.04347 18.63028 4.04347
4.04226 18.72412 4.04226
4.04107 18.81789 4.04107
4.03991 18.91160 4.03991
4.03877 19.00523 4.03877
4.03766 19.09879 4.03766
4.03658 19.19229 4.03658
4.03552 19.28571 4.03552
4.03448 19.37906 4.03448
4.03348 19.47234 4.03348
4.03249 19.56555 4.03249
4.03153 19.65869 4.03153
4.03060 19.75176 4.03060
4.02969 19.84476 4.02969
4.02881 19.93770 4.02881
4.02794 20.03056 4.02794
4.02711 20.12336 4.02711
4.02629 20.21610 4.02629
4.02550 20.30877 4.02550
4.02473 20.40138 4.02473
4.02398 20.49392 4.02398
4.02325 20.58641 4.02325
4.02254 20.67884 4.02254
4.02185 20.77121 4.02186
4.02119 20.86352 4.02119
4.02054 20.95578 4.02054
4.01991 21.04798 4.01991
4.01930 21.14013 4.01930
4.01870 21.23223 4.01871
4.01813 21.32427 4.01813
4.01757 21.41627 4.01757
4.01703 21.50822 4.01703
4.01650 21.60013 4.01650
4.01599 21.69198 4.01599
4.01550 21.78380 4.01550
4.01502 21.87557 4.01502
4.01455 21.96730 4.01455
4.01410 22.05898 4.01410
4.01366 22.15063 4.01366
4.01323 22.24224 4.01323
4.01282 22.33381 4.01282
4.01242 22.42535 4.01242
4.01203 22.51685 4.01203
4.01166 22.60831 4.01166
4.01129 22.69975 4.01129
4.01094 22.79115 4.01094
4.01060 22.88251 4.01060
4.01027 22.97385 4.01027
4.00995 23.06516 4.00995
4.00963 23.15644 4.00963
4.00933 23.24769 4.00933
4.00904 23.33891 4.00904
4.00876 23.43011 4.00876
4.00848 23.52128 4.00848
4.00822 23.61243 4.00822
4.00796 23.70355 4.00796
4.00771 23.79465 4.00771
4.00746 23.88573 4.00746
4.00723 23.97679 4.00723
4.00700 24.06782 4.00700
4.00678 24.15884 4.00678
4.00657 24.24983 4.00657
4.00636 24.34080 4.00636
4.00616 24.43176 4.00616
4.00597 24.52270 4.00597
4.00578 24.61362 4.00578
4.00560 24.70453 4.00560
4.00542 24.79541 4.00542
4.00525 24.88629 4.00525
4.00508 24.97714 4.00508
4.00492 25.06798 4.00492
4.00477 25.15881 4.00477
4.00462 25.24962 4.00462
4.00447 25.34043 4.00447
4.00433 25.43121 4.00433
4.00419 25.52199 4.00419
4.00406 25.61275 4.00406
4.00393 25.70350 4.00393
4.00381 25.79424 4.00381
4.00369 25.88497 4.00369
4.00357 25.97569 4.00357
4.00346 26.06639 4.00346
4.00335 26.15709 4.00335
4.00324 26.24778 4.00324
4.00314 26.33846 4.00314
4.00304 26.42913 4.00304
4.00295 26.51979 4.00295
4.00285 26.61044 4.00285
4.00276 26.70109 4.00276
4.00267 26.79172 4.00267
4.00259 26.88235 4.00259
4.00251 26.97297 4.00251
4.00243 27.06359 4.00243
4.00235 27.15420 4.00235
4.00228 27.24480 4.00228
4.00221 27.33539 4.00221
4.00213 27.42598 4.00213
4.00207 27.51657 4.00207
4.00200 27.60715 4.00200
4.00194 27.69772 4.00194
4.00188 27.78829 4.00188
4.00182 27.87885 4.00182
4.00176 27.96940 4.00176
4.00171 28.05996 4.00170

