Angle 0.082761 1.299058

4.00000 7.03348 4.00000
4.00000 7.03348 4.00000
4.00000 7.03348 4.00000
4.00000 7.03348 4.00000
4.00000 7.03348 4.00000
4.00000 7.03348 4.00000
4.00000 7.03348 4.00000
4.00000 7.03348 4.00000
4.00000 7.03348 4.00000
4.00000 7.03348 4.00000
4.00000 7.03347 4.00000
4.00000 7.03348 4.00000
4.00000 7.03348 4.00000
4.00000 7.03348 4.00000
4.00000 7.03348 4.00000
4.00000 7.03348 4.00000
4.00000 7.03348 4.00000
4.00000 7.03348 4.00000
4.00000 7.03348 4.00000
4.00000 7.03348 4.00000
4.00000 7.03348 4.00000
4.00000 7.03348 4.00000
4.00000 7.03348 4.00000
4.00000 7.03348 4.00000
4.00000 7.03348 4.00000
4.00000 7.03348 4.00000
4.00000 7.03348 4.00000
4.00000 7.03348 4.00000
4.00000 7.03348 4.00000
4.00000 7.03348 4.00000
4.00000 7.03348 4.00000
4.00000 7.03348 4.00000
4.00000 7.03348 4.00000
4.00000 7.03348 4.00000
4.00000 7.03348 4.00000
4.00000 7.03348 4.00000
4.00000 7.03348 4.00000
4.00000 7.03348 4.00000
4.00000 7.03348 4.00000
4.00000 7.03347 4.00000
4.00000 7.03348 4.00000
4.00000 7.03348 4.00000
4.00000 7.03348 4.00000
4.00000 7.03348 4.00000
4.00000 7.03348 4.00000
4.00000 7.03348 4.00000
4.00000 7.03348 4.00000
4.00000 7.03348 4.00000
4.00000 7.03348 4.00000
4.00000 7.03348 4.00000
4.00000 7.03348 4.00000
4.00000 7.03348 4.00000
4.00000 7.03348 4.00000
4.00000 7.03348 4.00000
4.00000 7.03347 4.00000
4.00000 7.03348 4.00000
4.00000 7.03347 4.00000
4.00000 7.03348 4.00000
4.00000 7.03348 4.00000
4.00000 7.03345 4.00000
4.00000 7.03346 4.00000
4.00000 7.03352 4.00000
4.00000 7.03348 4.00000
4.00000 7.03346 4.00000
4.00000 7.03346 4.00000
4.00000 7.03348 4.00000
4.00000 7.03346 4.00000
4.00000 7.03347 4.00000
4.00000 7.03347 4.00000
4.00000 7.03350 4.00000
4.00000 7.03346 4.00000
4.00000 7.03346 4.00000
4.00000 7.03347 4.00000
4.00000 7.03348 4.00000
4.00000 7.03349 4.00000
4.00000 7.03349 4.00000
4.00000 7.03347 4.00000
4.00000 7.03350 4.00000
4.00000 7.03348 4.00000
4.00000 7.03348 4.00000
4.00000 7.03347 4.00000
4.00000 7.03348 4.00000
4.00000 7.03348 4.00000
4.00000 7.03348 4.00000
4.00000 7.03348 4.00000
4.00000 7.03348 4.00000
4.00000 7.03348 4.00000
4.00000 7.03348 4.00000
4.00000 7.03348 4.00000
4.00000 7.03348 4.00000
4.00000 7.03348 4.00000
4.00000 7.03348 4.00000
4.00000 7.03348 4.00000
4.00000 7.03348 4.00000
4.00000 7.03348 4.00000
4.00000 7.03348 4.00000
4.00000 7.03348 4.00000
4.00000 7.03348 4.00000
4.00000 7.03348 4.00000
4.00000 7.03348 4.00000
4.00000 7.03348 4.00000
4.00000 7.03348 4.00000
4.00000 7.03348 4.00000
4.00000 7.03348 4.00000
4.00000 7.03348 4.00000
4.00000 7.03348 4.00000
4.00000 7.03348 4.00000
4.00000 7.03348 4.00000
4.00000 7.03348 4.00000
4.00000 7.03348 4.00000
4.00000 7.03348 4.00000
4.00000 7.03347 4.00000
4.00000 7.03348 4.00000
4.00000 7.03348 4.00000
4.00000 7.03348 4.00000
4.00000 7.03348 4.00000
4.00000 7.03348 4.00000
4.00000 7.03348 4.00000
4.00000 7.03348 4.00000
4.00000 7.03348 4.00000
4.00000 7.03348 4.00000
4.00000 7.03349 4.00000
4.00000 7.03348 4.00000
4.00000 7.03348 4.00000
4.00000 7.03348 4.00000
4.00000 7.03348 4.00000
4.00000 7.03348 4.00000
4.00000 7.03348 4.00000
4.00000 7.03348 4.00000
4.00000 7.03348 4.00000
4.00000 7.03348 4.00000
4.00000 7.03348 4.00000
4.00000 7.03349 4.00000
4.00000 7.03348 4.00000
4.00000 7.03348 4.00000
4.00000 7.03348 4.00000
4.00000 7.03348 4.00000
4.00000 7.03348 4.00000
4.00000 7.03348 4.00000
4.00000 7.03348 4.00000
4.00000 7.03348 4.00000
4.00000 7.03348 4.00000
4.00000 7.03348 4.00000
4.00000 7.03348 4.00000
4.00000 7.03348 4.00000
4.00000 7.03348 4.00000
4.00000 7.03348 4.00000
4.00000 7.03348 4.00000
4.00000 7.03348 4.00000
4.00000 7.03348 4.00000
4.00000 7.03348 4.00000
4.00000 7.03348 4.00000
4.00000 7.03348 4.00000
4.00000 7.03348 4.00000
4.00000 7.03348 4.00000
4.00000 7.03348 4.00000
4.00000 7.03348 4.00000
4.00000 7.03348 4.00000
4.00000 7.03348 4.00000
4.00000 7.03348 4.00000
4.00000 7.03348 4.00000
4.00000 7.03348 4.00000
4.00000 7.03348 4.00000
4.00000 7.03349 4.00000
4.00000 7.03348 4.00000
4.00000 7.03348 4.00000
4.00000 7.03348 4.00000
4.00000 7.03348 4.00000
4.00000 7.03348 4.00000
4.00000 7.03348 4.00000
4.00000 7.03348 4.00000
4.00000 7.03348 4.00000
4.00000 7.03348 4.00000
4.00000 7.03348 4.00000
4.00243 7.10086 4.00243
4.00491 7.17109 4.00491
4.00735 7.24161 4.00735
4.00976 7.31240 4.00976
4.01214 7.38343 4.01214
4.01451 7.45468 4.01451
4.01688 7.52611 4.01688
4.01925 7.59770 4.01925
4.02162 7.66941 4.02162
4.02402 7.74122 4.02402
4.02645 7.81310 4.02645
4.02892 7.88500 4.02892
4.03145 7.95689 4.03145
4.03404 8.02873 4.03404
4.03671 8.10048 4.03671
4.03949 8.17206 4.03949
4.04239 8.24343 4.04239
4.04543 8.31452 4.04543
4.04865 8.38523 4.04865
4.05208 8.45547 4.05208
4.05577 8.52511 4.05577
4.05976 8.59400 4.05976
4.06413 8.66196 4.06413
4.06889 8.72895 4.06889
4.07401 8.79507 4.07401
4.07952 8.86026 4.07952
4.08543 8.92449 4.08543
4.09176 8.98773 4.09176
4.09853 9.04994 4.09853
4.10574 9.11113 4.10574
4.11339 9.17131 4.11339
4.12148 9.23052 4.12148
4.12999 9.28883 4.12999
4.13888 9.34635 4.13888
4.14810 9.40322 4.14810
4.15760 9.45963 4.15760
4.16727 9.51583 4.16727
4.17699 9.57215 4.17699
4.18661 9.62899 4.18661
4.19593 9.68687 4.19593
4.20468 9.74645 4.20468
4.21252 9.80861 4.21252
4.21899 9.87447 4.21899
4.22352 9.94546 4.22352
4.22543 10.02331 4.22543
4.22411 10.10955 4.22411
4.22119 10.20001 4.22119
4.21736 10.29289 4.21736
4.21266 10.38813 4.21267
4.20708 10.48578 4.20708
4.20058 10.58595 4.20058
4.19309 10.68888 4.19309
4.18447 10.79492 4.18447
4.17454 10.90467 4.17454
4.16298 11.01902 4.16298
4.14927 11.13951 4.14927
4.13247 11.26892 4.13247
4.11050 11.41343 4.11050
4.07768 11.59023 4.07768
4.00000 13.19120 4.00000
4.00000 13.19120 4.00000
4.00000 13.19120 4.00000
4.00000 13.19120 4.00000
4.00000 13.19120 4.00000
4.00000 13.19120 4.00000
4.00000 13.19120 4.00000
4.00000 13.19120 4.00000
4.00000 13.19120 4.00000
4.00000 13.19120 4.00000
4.00000 13.19120 4.00000
4.00000 13.19120 4.00000
4.00000 13.19120 4.00000
4.00000 13.19121 4.00000
4.00000 13.19120 4.00000
4.00000 13.19121 4.00000
4.00854 13.23032 4.00854
4.01847 13.28445 4.01847
4.02707 13.34304 4.02707
4.03422 13.40633 4.03422
4.03979 13.47455 4.03979
4.04368 13.54792 4.04368
4.04593 13.62630 4.04593
4.04774 13.70604 4.04774
4.04950 13.78596 4.04950
4.05123 13.86605 4.05123
4.05292 13.94629 4.05292
4.05459 14.02668 4.05459
4.05623 14.10719 4.05623
4.05784 14.18783 4.05784
4.05944 14.26857 4.05944
4.06102 14.34942 4.06102
4.06258 14.43036 4.06258
4.06413 14.51140 4.06413
4.06566 14.59252 4.06566
4.06719 14.67372 4.06719
4.06870 14.75499 4.06870
4.07020 14.83634 4.07021
4.07170 14.91775 4.07170
4.07319 14.99923 4.07319
4.07468 15.08078 4.07468
4.07605 15.16271 4.07605
4.07717 15.24537 4.07717
4.07807 15.32874 4.07807
4.07874 15.41278 4.07874
4.07921 15.49745 4.07921
4.07949 15.58272 4.07949
4.07958 15.66854 4.07958
4.07951 15.75490 4.07951
4.07927 15.84173 4.07927
4.07889 15.92902 4.07889
4.07838 16.01673 4.07838
4.07775 16.10482 4.07775
4.07700 16.19326 4.07700
4.07616 16.28202 4.07616
4.07523 16.37107 4.07523
4.07423 16.46037 4.07423
4.07315 16.54991 4.07315
4.07202 16.63966 4.07202
4.07083 16.72959 4.07083
4.06960 16.81969 4.06960
4.06833 16.90992 4.06833
4.06703 17.00028 4.06703
4.06571 17.09074 4.06571
4.06438 17.18129 4.06438
4.06302 17.27191 4.06302
4.06166 17.36259 4.06166
4.06030 17.45331 4.06030
4.05893 17.54408 4.05893
4.05757 17.63487 4.05757
4.05621 17.72567 4.05621
4.05487 17.81648 4.05487
4.05353 17.90729 4.05353
4.05221 17.99810 4.05221
4.05090 18.08889 4.05090
4.04960 18.17966 4.04960
4.04833 18.27042 4.04833
4.04707 18.36114 4.04707
4.04584 18.45184 4.04584
4.04463 18.54250 4.04463
4.04343 18.63313 4.04343
4.04226 18.72372 4.04226
4.04112 18.81427 4.04112
4.03999 18.90478 4.03999
4.03889 18.99525 4.03889
4.03782 19.08568 4.03782
4.03676 19.17606 4.03676
4.03574 19.26639 4.03574
4.03473 19.35668 4.03473
4.03375 19.44692 4.03375
4.03279 19.53712 4.03279
4.03185 19.62728 4.03185
4.03094 19.71739 4.03094
4.03005 19.80745 4.03005
4.02919 19.89747 4.02919
4.02834 19.98745 4.02834
4.02752 20.07739 4.02752
4.02672 20.16728 4.02672
4.02594 20.25713 4.02594
4.02518 20.34694 4.02518
4.02444 20.43671 4.02444
4.02372 20.52644 4.02372
4.02302 20.61614 4.02302
4.02234 20.70579 4.02234
4.02168 20.79541 4.02168
4.02103 20.88500 4.02103
4.02041 20.97455 4.02041
4.01980 21.06407 4.01980
4.01921 21.15355 4.01921
4.01864 21.24300 4.01864
4.01808 21.33243 4.01808
4.01754 21.42182 4.01754
4.01701 21.51118 4.01701
4.01650 21.60052 4.01650
4.01600 21.68983 4.01600
4.01552 21.77912 4.01552
4.01505 21.86838 4.01505
4.01460 21.95761 4.01460
4.01416 22.04682 4.01416
4.01373 22.13601 4.01373
4.01331 22.22518 4.01331
4.01291 22.31433 4.01291
4.01252 22.40346 4.01252
4.01214 22.49257 4.01214
4.01177 22.58166 4.01177
4.01141 22.67073 4.01141
4.01106 22.75979 4.01106
4.01072 22.84883 4.01072
4.01040 22.93786 4.01040
4.01008 23.02687 4.01008
4.00977 23.11587 4.00977
4.00947 23.20485 4.00947
4.00918 23.29383 4.00918
4.00890 23.38279 4.00890
4.00863 23.47174 4.00863
4.00837 23.56068 4.00837
4.00811 23.64961 4.00811
4.00786 23.73853 4.00786
4.00762 23.82744 4.00762
4.00739 23.91634 4.00739
4.00716 24.00523 4.00716
4.00694 24.09412 4.00694
4.00672 24.18300 4.00672
4.00652 24.27188 4.00652
4.00632 24.36074 4.00632
4.00612 24.44961 4.00612
4.00593 24.53847 4.00593
4.00575 24.62732 4.00575
4.00557 24.71617 4.00557
4.00540 24.80501 4.00540
4.00524 24.89385 4.00524
4.00507 24.98269 4.00507
4.00492 25.07153 4.00492
4.00477 25.16036 4.00477
4.00462 25.24920 4.00462
4.00448 25.33803 4.00448
4.00434 25.42685 4.00434
4.00420 25.51568 4.00420
4.00407 25.60451 4.00407
4.00395 25.69334 4.00395
4.00382 25.78216 4.00383
4.00371 25.87099 4.00371
4.00359 25.95982 4.00359
4.00348 26.04864 4.00348
4.00337 26.13747 4.00337
4.00327 26.22630 4.00327
4.00317 26.31513 4.00317

Angle 0.043120 1.315516

4.00000 7.03348 4.00000
4.00000 7.03348 4.00000
4.00000 7.03348 4.00000
4.00000 7.03348 4.00000
4.00000 7.03348 4.00000
4.00000 7.03348 4.00000
4.00000 7.03351 4.00000
4.00000 7.03352 4.00000
4.00000 7.03350 4.00000
4.00000 7.03351 4.00001
4.00000 7.03348 4.00000
4.00000 7.03348 4.00000
4.00000 7.03348 4.00000
4.00000 7.03348 4.00000
4.00000 7.03348 4.00000
4.00000 7.03348 4.00000
4.00000 7.03349 4.00000
4.00000 7.03348 4.00000
4.00000 7.03348 4.00000
4.00000 7.03348 4.00000
4.00000 7.03348 4.00000
4.00000 7.03348 4.00000
4.00000 7.03347 4.00000
4.00000 7.03348 4.00000
4.00000 7.03347 4.00000
4.00000 7.03348 4.00000
4.00000 7.03348 4.00000
4.00000 7.03348 4.00000
4.00000 7.03348 4.00000
4.00000 7.03348 4.00000
4.00000 7.03348 4.00000
4.00000 7.03350 4.00000
4.00000 7.03348 4.00000
4.00000 7.03348 4.00000
4.00000 7.03348 4.00000
4.00000 7.03348 4.00000
4.00000 7.03348 4.00000
4.00000 7.03348 4.00000
4.00000 7.03348 4.00000
4.00000 7.03345 4.00000
4.00000 7.03348 4.00000
4.00000 7.03348 4.00000
4.00000 7.03348 4.00000
4.00000 7.03348 4.00000
4.00000 7.03348 4.00000
4.00000 7.03348 4.00000
4.00000 7.03348 4.00000
4.00000 7.03348 4.00000
4.00000 7.03348 4.00000
4.00000 7.03348 4.00000
4.00000 7.03349 4.00000
4.00000 7.03348 4.00000
4.00000 7.03348 4.00000
4.00000 7.03348 4.00000
4.00000 7.03349 4.00000
4.00000 7.03349 4.00000
4.00000 7.03348 4.00000
4.00000 7.03348 4.00000
4.00000 7.03348 4.00000
4.00000 7.03348 4.00000
4.00000 7.03348 4.00000
4.00000 7.03348 4.00000
4.00000 7.03348 4.00000
4.00000 7.03348 4.00000
4.00000 7.03348 4.00000
4.00000 7.03348 4.00000
4.00000 7.03348 4.00000
4.00000 7.03348 4.00000
4.00000 7.03348 4.00000
4.00000 7.03348 4.00000
4.00000 7.03348 4.00000
4.00000 7.03348 4.00000
4.00000 7.03348 4.00000
4.00000 7.03348 4.00000
4.00000 7.03348 4.00000
4.00000 7.03348 4.00000
4.00000 7.03348 4.00000
4.00000 7.03348 4.00000
4.00000 7.03348 4.00000
4.00000 7.03348 4.00000
4.00000 7.03348 4.00000
4.00000 7.03351 4.00000
4.00000 7.03350 4.00000
4.00000 7.03349 4.00000
4.00000 7.03349 4.00000
4.00000 7.03349 4.00000
4.00000 7.03348 4.00000
4.00000 7.03349 4.00000
4.00000 7.03347 4.00000
4.00000 7.03348 4.00000
4.00000 7.03348 4.00000
4.00000 7.03348 4.00000
4.00000 7.03348 4.00000
4.00000 7.03347 4.00000
4.00000 7.03348 4.00000
4.00000 7.03348 4.00000
4.00000 7.03348 4.00000
4.00000 7.03348 4.00000
4.00000 7.03348 4.00000
4.00000 7.03348 4.00000
4.00000 7.03348 4.00000
4.00000 7.03348 4.00000
4.00000 7.03346 4.00000
4.00000 7.03348 4.00000
4.00000 7.03348 4.00000
4.00000 7.03348 4.00000
4.00252 7.10328 4.00252
4.00522 7.18015 4.00523
4.00788 7.25727 4.00788
4.01050 7.33459 4.01050
4.01310 7.41209 4.01310
4.01567 7.48973 4.01567
4.01825 7.56747 4.01825
4.02082 7.64529 4.02082
4.02342 7.72313 4.02342
4.02604 7.80097 4.02604
4.02871 7.87876 4.02871
4.03143 7.95646 4.03143
4.03423 8.03400 4.03423
4.03713 8.11135 4.03713
4.04014 8.18843 4.04014
4.04330 8.26516 4.04330
4.04663 8.34145 4.04663
4.05018 8.41719 4.05018
4.05399 8.49226 4.05399
4.05812 8.56648 4.05812
4.06264 8.63965 4.06264
4.06762 8.71162 4.06762
4.07301 8.78251 4.07300
4.07882 8.85230 4.07882
4.08509 8.92094 4.08509
4.09183 8.98839 4.09183
4.09906 9.05463 4.09906
4.10679 9.11965 4.10679
4.11501 9.18349 4.11501
4.12372 9.24619 4.12372
4.13288 9.30786 4.13288
4.14245 9.36864 4.14245
4.15236 9.42872 4.15236
4.16252 9.48836 4.16252
4.17281 9.54790 4.17281
4.18306 9.60778 4.18306
4.19306 9.66855 4.19305
4.20251 9.73093 4.20250
4.21104 9.79587 4.21104
4.21815 9.86462 4.21815
4.22321 9.93878 4.22321
4.22541 10.02035 4.22541
4.22407 10.11109 4.22407
4.22095 10.20646 4.22095
4.21684 10.30444 4.21683
4.21176 10.40498 4.21176
4.20570 10.50814 4.20570
4.19862 10.61407 4.19862
4.19041 10.72308 4.19041
4.18091 10.83565 4.18091
4.16986 10.95255 4.16986
4.15681 11.07507 4.15681
4.14101 11.20546 4.14100
4.12086 11.34839 4.12086
4.09235 11.51598 4.09235
4.03585 11.76865 4.03585
4.00000 13.19120 4.00000
4.00000 13.19120 4.00000
4.00000 13.19120 4.00000
4.00000 13.19120 4.00000
4.00000 13.19120 4.00000
4.00000 13.19120 4.00000
4.00000 13.19120 4.00000
4.00000 13.19120 4.00000
4.00000 13.19120 4.00000
4.00000 13.19120 4.00000
4.00000 13.19120 4.00000
4.00000 13.19120 4.00000
4.00000 13.19120 4.00000
4.00000 13.19120 4.00000
4.00084 13.19482 4.00084
4.01202 13.24807 4.01202
4.02186 13.30592 4.02186
4.03021 13.36865 4.03021
4.03694 13.43653 4.03694
4.04191 13.50981 4.04191
4.04504 13.58868 4.04504
4.04695 13.67120 4.04695
4.04880 13.75396 4.04880
4.05061 13.83688 4.05061
4.05237 13.91995 4.05237
4.05410 14.00314 4.05410
4.05581 14.08645 4.05581
4.05749 14.16986 4.05748
4.05914 14.25336 4.05914
4.06077 14.33695 4.06077
4.06239 14.42062 4.06239
4.06399 14.50436 4.06399
4.06558 14.58817 4.06558
4.06715 14.67204 4.06715
4.06872 14.75596 4.06872
4.07027 14.83994 4.07027
4.07182 14.92397 4.07182
4.07335 15.00804 4.07335
4.07488 15.09216 4.07488
4.07625 15.17676 4.07625
4.07737 15.26212 4.07737
4.07824 15.34820 4.07824
4.07889 15.43495 4.07889
4.07931 15.52234 4.07931
4.07954 15.61034 4.07954
4.07957 15.69889 4.07957
4.07943 15.78796 4.07943
4.07913 15.87751 4.07913
4.07868 15.96750 4.07868
4.07810 16.05790 4.07810
4.07739 16.14867 4.07739
4.07657 16.23976 4.07657
4.07566 16.33116 4.07566
4.07466 16.42282 4.07466
4.07358 16.51472 4.07358
4.07244 16.60683 4.07244
4.07124 16.69912 4.07124
4.06999 16.79157 4.06999
4.06870 16.88416 4.06870
4.06737 16.97686 4.06737
4.06602 17.06965 4.06602
4.06465 17.16253 4.06465
4.06327 17.25546 4.06327
4.06188 17.34844 4.06188
4.06048 17.44146 4.06048
4.05908 17.53449 4.05908
4.05768 17.62753 4.05768
4.05629 17.72058 4.05629
4.05491 17.81361 4.05491
4.05354 17.90663 4.05354
4.05218 17.99962 4.05218
4.05084 18.09259 4.05084
4.04952 18.18551 4.04952
4.04822 18.27840 4.04822
4.04694 18.37125 4.04694
4.04567 18.46404 4.04568
4.04444 18.55679 4.04444
4.04322 18.64948 4.04322
4.04203 18.74212 4.04203
4.04086 18.83470 4.04086
4.03972 18.92722 4.03972
4.03860 19.01968 4.03860
4.03751 19.11208 4.03751
4.03644 19.20442 4.03644
4.03540 19.29670 4.03540
4.03438 19.38891 4.03438
4.03338 19.48107 4.03338
4.03241 19.57317 4.03241
4.03147 19.66520 4.03147
4.03055 19.75717 4.03055
4.02965 19.84908 4.02965
4.02878 19.94094 4.02878
4.02792 20.03274 4.02792
4.02710 20.12448 4.02710
4.02629 20.21616 4.02629
4.02551 20.30779 4.02551
4.02474 20.39936 4.02474
4.02400 20.49088 4.02400
4.02328 20.58235 4.02328
4.02258 20.67376 4.02258
4.02190 20.76513 4.02190
4.02124 20.85645 4.02124
4.02060 20.94771 4.02060
4.01997 21.03894 4.01997
4.01936 21.13012 4.01936
4.01877 21.22125 4.01877
4.01820 21.31234 4.01820
4.01765 21.40338 4.01765
4.01711 21.49439 4.01711
4.01659 21.58536 4.01658
4.01608 21.67629 4.01608
4.01558 21.76718 4.01558
4.01511 21.85803 4.01511
4.01464 21.94885 4.01464
4.01419 22.03963 4.01419
4.01375 22.13038 4.01375
4.01333 22.22110 4.01333
4.01292 22.31178 4.01292
4.01252 22.40244 4.01252
4.01213 22.49307 4.01213
4.01176 22.58366 4.01176
4.01140 22.67423 4.01140
4.01104 22.76478 4.01104
4.01070 22.85530 4.01070
4.01037 22.94579 4.01037
4.01005 23.03626 4.01005
4.00974 23.12670 4.00974
4.00943 23.21713 4.00943
4.00914 23.30753 4.00914
4.00886 23.39790 4.00886
4.00858 23.48826 4.00858
4.00831 23.57860 4.00831
4.00805 23.66893 4.00805
4.00780 23.75923 4.00780
4.00756 23.84951 4.00756
4.00732 23.93978 4.00732
4.00710 24.03003 4.00710
4.00688 24.12027 4.00688
4.00666 24.21049 4.00666
4.00645 24.30069 4.00645
4.00625 24.39089 4.00625
4.00606 24.48107 4.00606
4.00587 24.57123 4.00587
4.00568 24.66138 4.00568
4.00551 24.75153 4.00550
4.00533 24.84166 4.00533
4.00517 24.93177 4.00517
4.00500 25.02188 4.00500
4.00485 25.11198 4.00485
4.00470 25.20207 4.00470
4.00455 25.29215 4.00455
4.00441 25.38222 4.00441
4.00427 25.47228 4.00427
4.00413 25.56234 4.00413
4.00400 25.65238 4.00400
4.00388 25.74242 4.00388
4.00376 25.83245 4.00376
4.00364 25.92248 4.00364
4.00353 26.01250 4.00353
4.00341 26.10251 4.00341
4.00331 26.19252 4.00331
4.00320 26.28252 4.00320
4.00310 26.37251 4.00310
4.00301 26.46250 4.00301
4.00291 26.55249 4.00291
4.00282 26.64247 4.00282
4.00273 26.73245 4.00273
4.00265 26.82242 4.00265
4.00256 26.91239 4.00256
4.00248 27.00236 4.00248
4.00240 27.09232 4.00240
4.00233 27.18228 4.00233
4.00225 27.27224 4.00225
4.00218 27.36219 4.00218
4.00212 27.45214 4.00212
4.00205 27.54209 4.00205
4.00198 27.63204 4.00198
4.00192 27.72199 4.00192
4.00186 27.81193 4.00186
4.00180 27.90187 4.00180
4.00175 27.99181 4.00175
4.00169 28.08175 4.00169
4.00164 28.17169 4.00164
4.00159 28.26162 4.00159
4.00154 28.35156 4.00154
4.00149 28.44149 4.00149
4.00144 28.53143 4.00144
4.00140 28.62136 4.00140
4.00135 28.71129 4.00135
4.00131 28.80122 4.00131
4.00127 28.89115 4.00127
4.00123 28.98109 4.00123
4.00119 29.07102 4.00119
4.00115 29.16095 4.00115
4.00112 29.25088 4.00112
4.00108 29.34081 4.00108
4.00105 29.43074 4.00105
4.00101 29.52068 4.00101
4.00098 29.61061 4.00098
4.00095 29.70054 4.00095
4.00092 29.79048 4.00092
4.00089 29.88041 4.00089
4.00086 29.97035 4.00086
4.00084 30.06028 4.00084
4.00081 30.15022 4.00081
4.00078 30.24016 4.00078
4.00076 30.33009 4.00076
4.00074 30.42003 4.00074
4.00071 30.50997 4.00071
4.00069 30.59992 4.00069
4.00067 30.68986 4.00067
4.00065 30.77980 4.00065
4.00063 30.86975 4.00063
4.00061 30.95969 4.00061
4.00059 31.04964 4.00059
4.00057 31.13959 4.00057
4.00055 31.22954 4.00055
4.00053 31.31949 4.00053
4.00052 31.40945 4.00052
4.00050 31.49940 4.00050
4.00048 31.58936 4.00048
4.00047 31.67932 4.00047
4.00045 31.76927 4.00045
4.00044 31.85924 4.00044
4.00043 31.94920 4.00043
4.00041 32.03916 4.00041
4.00040 32.12913 4.00040
4.00039 32.21910 4.00039
4.00037 32.30907 4.00037
4.00036 32.39904 4.00036
4.00035 32.48901 4.00035
4.00034 32.57898 4.00034
4.00033 32.66896 4.00033
4.00032 32.75894 4.00032
4.00031 32.84892 4.00031
4.00030 32.93890 4.00030
4.00029 33.02888 4.00029
4.00028 33.11887 4.00028

Angle 0.721700 3.126063

4.00000 7.03348 4.00000
4.00000 7.03348 4.00000
4.00000 7.03348 4.00000
4.00000 7.03348 4.00000
4.00000 7.03348 4.00000
4.00000 7.03348 4.00000
4.00000 7.03348 4.00000
4.00000 7.03348 4.00000
4.00000 7.03348 4.00000
4.00000 7.03348 4.00000
4.00000 7.03348 4.00000
4.00000 7.03348 4.00000
4.00000 7.03348 4.00000
4.00000 7.03348 4.00000
4.00000 7.03348 4.00000
4.00000 7.03348 4.00000
4.00000 7.03348 4.00000
4.00000 7.03348 4.00000
4.00000 7.03348 4.00000
4.00000 7.03348 4.00000
4.00000 7.03347 4.00000
4.00000 7.03348 4.00000
4.00000 7.03348 4.00000
4.00000 7.03346 4.00000
4.00000 7.03347 4.00000
4.00000 7.03348 4.00000
4.00000 7.03348 4.00000
4.00000 7.03348 4.00000
4.00000 7.03348 4.00000
4.00000 7.03348 4.00000
4.00000 7.03347 4.00000
4.00000 7.03348 4.00000
4.00000 7.03348 4.00000
4.00000 7.03346 4.00000
4.00000 7.03347 4.00000
4.00000 7.03348 4.00000
4.00000 7.03348 4.00000
4.00000 7.03348 4.00000
4.00000 7.03348 4.00000
4.00000 7.03348 4.00000
4.00000 7.03348 4.00000
4.00000 7.03348 4.00000
4.00000 7.03348 4.00000
4.00000 7.03348 4.00000
4.00000 7.03348 4.00000
4.00000 7.03349 4.00000
4.00000 7.03348 4.00000
4.00000 7.03348 4.00000
4.00000 7.03348 4.00000
4.00000 7.03348 4.00000
4.00000 7.03347 4.00000
4.00000 7.03348 4.00000
4.00000 7.03348 4.00000
4.00000 7.03348 4.00000
4.00000 7.03348 4.00000
4.00000 7.03348 4.00000
4.00000 7.03348 4.00000
4.00000 7.03348 4.00000
4.00000 7.03348 4.00000
4.00000 7.03349 4.00000
4.00000 7.03348 4.00000
4.00000 7.03348 4.00000
4.00000 7.03348 4.00000
4.00000 7.03348 4.00000
4.00000 7.03348 4.00000
4.00000 7.03348 4.00000
4.00000 7.03348 4.00000
4.00000 7.03349 4.00000
4.00000 7.03349 4.00000
4.00000 7.03349 4.00000
4.00000 7.03348 4.00000
4.00000 7.03348 4.00000
4.00000 7.03347 4.00000
4.00000 7.03348 4.00000
4.00000 7.03348 4.00000
4.00000 7.03348 4.00000
4.00000 7.03348 4.00000
4.00000 7.03348 4.00000
4.00000 7.03348 4.00000
4.00000 7.03348 4.00000
4.00000 7.03348 4.00000
4.00000 7.03348 4.00000
4.00000 7.03349 4.00000
4.00000 7.03348 4.00000
4.00000 7.03349 4.00000
4.00000 7.03348 4.00000
4.00000 7.03348 4.00000
4.00000 7.03348 4.00000
4.00000 7.03348 4.00000
4.00000 7.03348 4.00000
4.00000 7.03348 4.00000
4.00000 7.03348 4.00000
4.00000 7.03348 4.00000
4.00000 7.03347 4.00000
4.00000 7.03347 4.00000
4.00000 7.03348 4.00000
4.00000 7.03348 4.00000
4.00000 7.03348 4.00000
4.00000 7.03348 4.00000
4.00000 7.03348 4.00000
4.00000 7.03348 4.00000
4.00000 7.03348 4.00000
4.00000 7.03348 4.00000
4.00000 7.03348 4.00000
4.00000 7.03348 4.00000
4.00000 7.03348 4.00000
4.00000 7.03348 4.00000
4.00000 7.03348 4.00000
4.00000 7.03348 4.00000
4.00000 7.03348 4.00000
4.00000 7.03348 4.00000
4.00000 7.03348 4.00000
4.00000 7.03348 4.00000
4.00000 7.03348 4.00000
4.00000 7.03348 4.00000
4.00000 7.03348 4.00000
4.00000 7.03348 4.00000
4.00000 7.03348 4.00000
4.00000 7.03348 4.00000
4.00000 7.03348 4.00000
4.00000 7.03348 4.00000
4.00000 7.03348 4.00000
4.00000 7.03348 4.00000
4.00000 7.03348 4.00000
4.00000 7.03348 4.00000
4.00000 7.03348 4.00000
4.00000 7.03348 4.00000
4.00000 7.03348 4.00000
4.00000 7.03348 4.00000
4.00000 7.03348 4.00000
4.00000 7.03348 4.00000
4.00000 7.03348 4.00000
4.00000 7.03347 4.00000
4.00000 7.03347 4.00000
4.00000 7.03349 4.00000
4.00000 7.03348 4.00000
4.00000 7.03348 4.00000
4.00000 7.03349 4.00000
4.00000 7.03348 4.00000
4.00000 7.03348 4.00000
4.00000 7.03348 4.00000
4.00000 7.03348 4.00000
4.00000 7.03348 4.00000
4.00000 7.03348 4.00000
4.00000 7.03346 4.00000
4.00000 7.03348 4.00000
4.00177 7.08227 4.00177
4.00438 7.15607 4.00438
4.00695 7.23016 4.00695
4.00949 7.30449 4.00949
4.01199 7.37903 4.01199
4.01448 7.45376 4.01448
4.01696 7.52864 4.01696
4.01944 7.60364 4.01944
4.02193 7.67872 4.02193
4.02445 7.75385 4.02445
4.02699 7.82900 4.02699
4.02959 7.90412 4.02959
4.03224 7.97917 4.03224
4.03497 8.05411 4.03497
4.03780 8.12887 4.03780
4.04074 8.20339 4.04074
4.04383 8.27761 4.04383
4.04708 8.35143 4.04709
4.05055 8.42475 4.05055
4.05427 8.49745 4.05427
4.05829 8.56938 4.05829
4.06269 8.64033 4.06269
4.06751 8.71017 4.06751
4.07273 8.77903 4.07273
4.07835 8.84688 4.07835
4.08440 8.91367 4.08440
4.09090 8.97936 4.09089
4.09785 9.04393 4.09785
4.10528 9.10737 4.10528
4.11318 9.16970 4.11318
4.12155 9.23096 4.12155
4.13035 9.29124 4.13035
4.13956 9.35065 4.13956
4.14912 9.40936 4.14912
4.15896 9.46758 4.15896
4.16896 9.52560 4.16896
4.17899 9.58379 4.17899
4.18886 9.64262 4.18886
4.19835 9.70268 4.19835
4.20714 9.76476 4.20714
4.21483 9.82988 4.21483
4.22088 9.89937 4.22088
4.22462 9.97491 4.22462
4.22527 10.05847 4.22527
4.22291 10.14983 4.22291
4.21947 10.24405 4.21947
4.21510 10.34077 4.21510
4.20980 10.43996 4.20980
4.20355 10.54173 4.20355
4.19629 10.64624 4.19630
4.18792 10.75384 4.18792
4.17825 10.86505 4.17825
4.16700 10.98068 4.16700
4.15371 11.10212 4.15371
4.13753 11.23181 4.13753
4.11673 11.37494 4.11674
4.08671 11.54533 4.08671
4.01034 11.85812 4.01034
4.00000 13.19120 4.00000
4.00000 13.19120 4.00000
4.00000 13.19120 4.00000
4.00000 13.19120 4.00000
4.00000 13.19120 4.00000
4.00000 13.19120 4.00000
4.00000 13.19120 4.00000
4.00000 13.19120 4.00000
4.00000 13.19120 4.00000
4.00000 13.19120 4.00000
4.00000 13.19120 4.00000
4.00000 13.19120 4.00000
4.00000 13.19121 4.00000
4.00000 13.19122 4.00000
4.00000 13.19120 4.00000
4.01028 13.23905 4.01028
4.02019 13.29512 4.02019
4.02869 13.35586 4.02869
4.03564 13.42154 4.03564
4.04092 13.49241 4.04092
4.04444 13.56866 4.04444
4.04646 13.64943 4.04646
4.04829 13.73082 4.04829
4.05008 13.81237 4.05008
4.05183 13.89408 4.05183
4.05354 13.97593 4.05354
4.05523 14.05791 4.05523
4.05689 14.14000 4.05689
4.05852 14.22220 4.05853
4.06014 14.30449 4.06014
4.06174 14.38688 4.06174
4.06332 14.46935 4.06333
4.06489 14.55189 4.06489
4.06645 14.63451 4.06645
4.06800 14.71720 4.06800
4.06953 14.79995 4.06953
4.07106 14.88276 4.07106
4.07258 14.96562 4.07258
4.07409 15.04854 4.07409
4.07556 15.13163 4.07556
4.07679 15.21541 4.07679
4.07778 15.29993 4.07778
4.07855 15.38513 4.07855
4.07909 15.47099 4.07909
4.07943 15.55747 4.07943
4.07957 15.64453 4.07957
4.07954 15.73212 4.07954
4.07934 15.82021 4.07934
4.07899 15.90877 4.07899
4.07850 15.99775 4.07850
4.07788 16.08713 4.07788
4.07715 16.17686 4.07715
4.07632 16.26691 4.07631
4.07538 16.35726 4.07538
4.07437 16.44787 4.07437
4.07329 16.53871 4.07329
4.07214 16.62975 4.07214
4.07094 16.72098 4.07094
4.06970 16.81237 4.06970
4.06842 16.90389 4.06842
4.06710 16.99552 4.06710
4.06577 17.08726 4.06577
4.06441 17.17907 4.06441
4.06304 17.27095 4.06304
4.06166 17.36289 4.06166
4.06028 17.45485 4.06028
4.05889 17.54685 4.05889
4.05751 17.63886 4.05751
4.05614 17.73088 4.05614
4.05477 17.82290 4.05477
4.05342 17.91491 4.05342
4.05208 18.00690 4.05208
4.05075 18.09887 4.05075
4.04945 18.19081 4.04945
4.04816 18.28271 4.04816
4.04689 18.37459 4.04689
4.04564 18.46642 4.04564
4.04442 18.55821 4.04442
4.04321 18.64995 4.04322
4.04204 18.74165 4.04204
4.04088 18.83330 4.04088
4.03975 18.92489 4.03975
4.03864 19.01644 4.03864
4.03756 19.10793 4.03756
4.03650 19.19937 4.03650
4.03546 19.29076 4.03546
4.03445 19.38209 4.03445
4.03346 19.47336 4.03347
4.03250 19.56459 4.03250
4.03156 19.65576 4.03156
4.03065 19.74687 4.03065
4.02976 19.83794 4.02976
4.02889 19.92895 4.02889
4.02804 20.01991 4.02804
4.02722 20.11082 4.02722
4.02642 20.20168 4.02642
4.02564 20.29249 4.02564
4.02488 20.38326 4.02488
4.02414 20.47397 4.02414
4.02342 20.56464 4.02342
4.02272 20.65527 4.02272
4.02204 20.74585 4.02204
4.02138 20.83639 4.02138
4.02074 20.92688 4.02074
4.02012 21.01734 4.02012
4.01951 21.10776 4.01951
4.01892 21.19813 4.01892
4.01835 21.28847 4.01835
4.01780 21.37877 4.01780
4.01726 21.46904 4.01726
4.01673 21.55927 4.01673
4.01623 21.64947 4.01623
4.01573 21.73963 4.01573
4.01525 21.82977 4.01525
4.01479 21.91987 4.01479
4.01434 22.00994 4.01434
4.01390 22.09999 4.01390
4.01347 22.19001 4.01347
4.01306 22.28000 4.01306
4.01266 22.36996 4.01266
4.01227 22.45990 4.01227
4.01190 22.54982 4.01190
4.01153 22.63971 4.01153
4.01118 22.72958 4.01118
4.01084 22.81943 4.01083
4.01050 22.90926 4.01050
4.01018 22.99907 4.01018
4.00987 23.08885 4.00986
4.00956 23.17863 4.00956
4.00927 23.26838 4.00927
4.00898 23.35812 4.00898
4.00870 23.44783 4.00870
4.00843 23.53754 4.00843
4.00817 23.62722 4.00817
4.00792 23.71690 4.00792
4.00768 23.80656 4.00767
4.00744 23.89621 4.00744
4.00721 23.98584 4.00721
4.00698 24.07546 4.00698
4.00677 24.16508 4.00677
4.00656 24.25467 4.00656
4.00635 24.34426 4.00635
4.00616 24.43384 4.00616
4.00597 24.52341 4.00597
4.00578 24.61297 4.00578
4.00560 24.70253 4.00560
4.00543 24.79207 4.00543
4.00526 24.88161 4.00526
4.00509 24.97114 4.00509
4.00494 25.06066 4.00494
4.00479 25.15018 4.00478
4.00463 25.23969 4.00463
4.00449 25.32919 4.00449
4.00435 25.41869 4.00435
4.00422 25.50818 4.00421
4.00408 25.59767 4.00408
4.00396 25.68716 4.00396
4.00383 25.77664 4.00383
4.00371 25.86612 4.00371
4.00360 25.95559 4.00360
4.00348 26.04506 4.00349
4.00338 26.13453 4.00338
4.00327 26.22399 4.00327
4.00317 26.31346 4.00317
4.00307 26.40292 4.00307
4.00297 26.49238 4.00297
4.00288 26.58183 4.00288
4.00279 26.67129 4.00279
4.00270 26.76075 4.00270
4.00262 26.85020 4.00262
4.00254 26.93965 4.00254
4.00246 27.02910 4.00246
4.00238 27.11856 4.00238
4.00231 27.20801 4.00231
4.00223 27.29746 4.00223
4.00216 27.38691 4.00216
4.00210 27.47636 4.00210
4.00203 27.56582 4.00203
4.00197 27.65527 4.00197
4.00191 27.74472 4.00191
4.00185 27.83417 4.00185
4.00179 27.92363 4.00179
4.00173 28.01308 4.00173
4.00168 28.10254 4.00168
4.00163 28.19199 4.00163
4.00157 28.28146 4.00157
4.00153 28.37092 4.00152
4.00148 28.46039 4.00148
4.00143 28.54985 4.00143
4.00139 28.63932 4.00139
4.00134 28.72879 4.00134
4.00130 28.81826 4.00130
4.00126 28.90773 4.00126
4.00122 28.99720 4.00122
4.00118 29.08668 4.00118
4.00115 29.17616 4.00115

Angle 0.335160 0.705881

4.00000 7.03348 4.00000
4.00000 7.03348 4.00000
4.00000 7.03348 4.00000
4.00000 7.03348 4.00000
4.00000 7.03348 4.00000
4.00000 7.03348 4.00000
4.00000 7.03348 4.00000
4.00000 7.03348 4.00000
4.00000 7.03348 4.00000
4.00000 7.03347 4.00000
4.00000 7.03348 4.00000
4.00000 7.03348 4.00000
4.00000 7.03348 4.00000
4.00000 7.03348 4.00000
4.00000 7.03348 4.00000
4.00000 7.03348 4.00000
4.00000 7.03348 4.00000
4.00000 7.03348 4.00000
4.00000 7.03348 4.00000
4.00000 7.03348 4.00000
4.00000 7.03348 4.00000
4.00000 7.03348 4.00000
4.00000 7.03348 4.00000
4.00000 7.03348 4.00000
4.00000 7.03348 4.00000
4.00000 7.03348 4.00000
4.00000 7.03348 4.00000
4.00000 7.03348 4.00000
4.00000 7.03348 4.00000
4.00000 7.03348 4.00000
4.00000 7.03348 4.00000
4.00000 7.03348 4.00000
4.00000 7.03348 4.00000
4.00000 7.03348 4.00000
4.00000 7.03348 4.00000
4.00000 7.03348 4.00000
4.00000 7.03348 4.00000
4.00000 7.03348 4.00000
4.00000 7.03348 4.00000
4.00000 7.03348 4.00000
4.00000 7.03348 4.00000
4.00000 7.03348 4.00000
4.00000 7.03348 4.00000
4.00000 7.03348 4.00000
4.00000 7.03348 4.00000
4.00000 7.03348 4.00000
4.00000 7.03348 4.00000
4.00000 7.03348 4.00000
4.00000 7.03348 4.00000
4.00000 7.03348 4.00000
4.00000 7.03348 4.00000
4.00000 7.03348 4.00000
4.00000 7.03348 4.00000
4.00000 7.03348 4.00000
4.00000 7.03348 4.00000
4.00000 7.03348 4.00000
4.00000 7.03348 4.00000
4.00000 7.03348 4.00000
4.00000 7.03348 4.00000
4.00000 7.03348 4.00000
4.00000 7.03348 4.00000
4.00000 7.03348 4.00000
4.00000 7.03348 4.00000
4.00000 7.03348 4.00000
4.00000 7.03348 4.00000
4.00000 7.03348 4.00000
4.00000 7.03348 4.00000
4.00000 7.03348 4.00000
4.00000 7.03348 4.00000
4.00000 7.03348 4.00000
4.00000 7.03348 4.00000
4.00000 7.03348 4.00000
4.00000 7.03348 4.00000
4.00000 7.03349 4.00000
4.00000 7.03349 4.00000
4.00000 7.03349 4.00000
4.00000 7.03349 4.00000
4.00000 7.03349 4.00000
4.00000 7.03349 4.00000
4.00000 7.03349 4.00000
4.00000 7.03348 4.00000
4.00000 7.03348 4.00000
4.00000 7.03348 4.00000
4.00000 7.03348 4.00000
4.00000 7.03348 4.00000
4.00000 7.03348 4.00000
4.00000 7.03348 4.00000
4.00000 7.03348 4.00000
4.00000 7.03348 4.00000
4.00000 7.03349 4.00000
4.00000 7.03348 4.00000
4.00000 7.03349 4.00000
4.00000 7.03348 4.00000
4.00000 7.03348 4.00000
4.00000 7.03348 4.00000
4.00000 7.03348 4.00000
4.00000 7.03348 4.00000
4.00000 7.03348 4.00000
4.00000 7.03348 4.00000
4.00000 7.03348 4.00000
4.00000 7.03348 4.00000
4.00000 7.03348 4.00000
4.00000 7.03348 4.00000
4.00000 7.03348 4.00000
4.00000 7.03348 4.00000
4.00000 7.03348 4.00000
4.00000 7.03348 4.00000
4.00000 7.03348 4.00000
4.00000 7.03348 4.00000
4.00000 7.03348 4.00000
4.00000 7.03348 4.00000
4.00000 7.03348 4.00000
4.00000 7.03348 4.00000
4.00000 7.03348 4.00000
4.00000 7.03348 4.00000
4.00000 7.03348 4.00000
4.00000 7.03348 4.00000
4.00000 7.03348 4.00000
4.00000 7.03348 4.00000
4.00000 7.03348 4.00000
4.00000 7.03348 4.00000
4.00000 7.03348 4.00000
4.00000 7.03348 4.00000
4.00000 7.03347 4.00000
4.00000 7.03347 4.00000
4.00000 7.03348 4.00000
4.00166 7.07916 4.00166
4.00441 7.15677 4.00441
4.00711 7.23464 4.00711
4.00977 7.31272 4.00977
4.01239 7.39098 4.01239
4.01500 7.46937 4.01500
4.01760 7.54788 4.01760
4.02020 7.62645 4.02020
4.02281 7.70506 4.02281
4.02545 7.78365 4.02545
4.02813 7.86220 4.02813
4.03087 7.94065 4.03087
4.03368 8.01896 4.03368
4.03658 8.09706 4.03658
4.03960 8.17489 4.03960
4.04276 8.25237 4.04276
4.04609 8.32941 4.04609
4.04963 8.40591 4.04963
4.05344 8.48173 4.05344
4.05755 8.55671 4.05755
4.06206 8.63064 4.06206
4.06702 8.70335 4.06702
4.07241 8.77494 4.07241
4.07822 8.84542 4.07822
4.08450 8.91472 4.08450
4.09125 8.98281 4.09125
4.09850 9.04966 4.09850
4.10625 9.11527 4.10625
4.11450 9.17966 4.11450
4.12325 9.24290 4.12325
4.13245 9.30508 4.13245
4.14208 9.36633 4.14208
4.15205 9.42687 4.15205
4.16228 9.48695 4.16228
4.17264 9.54692 4.17264
4.18297 9.60720 4.18297
4.19303 9.66839 4.19303
4.20254 9.73120 4.20254
4.21112 9.79661 4.21112
4.21826 9.86588 4.21826
4.22330 9.94067 4.22330
4.22543 10.02302 4.22543
4.22397 10.11461 4.22397
4.22079 10.21070 4.22079
4.21660 10.30942 4.21660
4.21144 10.41073 4.21144
4.20529 10.51469 4.20529
4.19809 10.62147 4.19809
4.18975 10.73138 4.18975
4.18008 10.84493 4.18008
4.16881 10.96295 4.16881
4.15548 11.08678 4.15548
4.13925 11.21889 4.13925
4.11839 11.36440 4.11839
4.08832 11.53710 4.08832
4.01646 11.83781 4.01646
4.00000 13.19120 4.00000
4.00000 13.19120 4.00000
4.00000 13.19120 4.00000
4.00000 13.19120 4.00000
4.00000 13.19120 4.00000
4.00000 13.19120 4.00000
4.00000 13.19120 4.00000
4.00000 13.19120 4.00000
4.00000 13.19120 4.00000
4.00000 13.19120 4.00000
4.00000 13.19120 4.00000
4.00000 13.19120 4.00000
4.00000 13.19120 4.00000
4.00000 13.19120 4.00000
4.00311 13.20481 4.00311
4.01409 13.25920 4.01409
4.02369 13.31829 4.02369
4.03175 13.38236 4.03175
4.03815 13.45169 4.03815
4.04275 13.52650 4.04275
4.04548 13.60697 4.04548
4.04738 13.68997 4.04738
4.04922 13.77314 4.04922
4.05103 13.85647 4.05103
4.05279 13.93994 4.05279
4.05452 14.02352 4.05452
4.05623 14.10722 4.05623
4.05791 14.19101 4.05791
4.05956 14.27490 4.05956
4.06120 14.35887 4.06120
4.06282 14.44291 4.06282
4.06442 14.52702 4.06442
4.06601 14.61119 4.06601
4.06759 14.69542 4.06759
4.06916 14.77970 4.06916
4.07072 14.86403 4.07072
4.07226 14.94841 4.07226
4.07381 15.03283 4.07381
4.07532 15.11734 4.07532
4.07662 15.20251 4.07662
4.07766 15.28842 4.07766
4.07847 15.37504 4.07847
4.07904 15.46232 4.07904
4.07941 15.55024 4.07941
4.07957 15.63875 4.07957
4.07955 15.72780 4.07955
4.07935 15.81736 4.07935
4.07900 15.90739 4.07900
4.07850 15.99785 4.07850
4.07787 16.08870 4.07787
4.07712 16.17990 4.07712
4.07627 16.27143 4.07627
4.07532 16.36324 4.07532
4.07429 16.45531 4.07429
4.07318 16.54760 4.07318
4.07201 16.64009 4.07201
4.07079 16.73276 4.07079
4.06952 16.82557 4.06952
4.06821 16.91851 4.06821
4.06687 17.01156 4.06687
4.06551 17.10469 4.06551
4.06413 17.19789 4.06413
4.06274 17.29114 4.06274
4.06134 17.38444 4.06134
4.05993 17.47775 4.05993
4.05853 17.57109 4.05853
4.05713 17.66442 4.05713
4.05574 17.75775 4.05574
4.05436 17.85107 4.05436
4.05299 17.94436 4.05299
4.05163 18.03763 4.05163
4.05030 18.13086 4.05030
4.04898 18.22405 4.04898
4.04768 18.31720 4.04768
4.04640 18.41029 4.04640
4.04515 18.50334 4.04515
4.04392 18.59633 4.04392
4.04271 18.68927 4.04271
4.04152 18.78215 4.04152
4.04036 18.87496 4.04036
4.03923 18.96772 4.03923
4.03812 19.06041 4.03812
4.03703 19.15304 4.03703
4.03597 19.24561 4.03597
4.03493 19.33812 4.03493
4.03392 19.43056 4.03392
4.03294 19.52294 4.03294
4.03198 19.61525 4.03198
4.03104 19.70750 4.03104
4.03013 19.79969 4.03013
4.02924 19.89182 4.02924
4.02837 19.98389 4.02837
4.02753 20.07590 4.02753
4.02671 20.16784 4.02671
4.02592 20.25974 4.02592
4.02514 20.35157 4.02514
4.02438 20.44335 4.02438
4.02365 20.53507 4.02365
4.02294 20.62674 4.02294
4.02225 20.71836 4.02225
4.02157 20.80993 4.02157
4.02092 20.90144 4.02092
4.02028 20.99291 4.02028
4.01967 21.08433 4.01967
4.01907 21.17570 4.01907
4.01849 21.26703 4.01849
4.01792 21.35831 4.01792
4.01737 21.44955 4.01737
4.01684 21.54075 4.01684
4.01632 21.63191 4.01632
4.01582 21.72303 4.01582
4.01534 21.81410 4.01534
4.01486 21.90515 4.01486
4.01441 21.99615 4.01440
4.01396 22.08712 4.01396
4.01353 22.17805 4.01353
4.01311 22.26896 4.01311
4.01271 22.35983 4.01271
4.01231 22.45066 4.01231
4.01193 22.54147 4.01193
4.01156 22.63225 4.01156
4.01120 22.72300 4.01120
4.01086 22.81372 4.01086
4.01052 22.90442 4.01052
4.01019 22.99509 4.01019
4.00988 23.08573 4.00988
4.00957 23.17635 4.00957
4.00927 23.26695 4.00927
4.00898 23.35753 4.00898
4.00870 23.44808 4.00870
4.00843 23.53861 4.00843
4.00817 23.62912 4.00817
4.00791 23.71961 4.00791
4.00767 23.81008 4.00767
4.00743 23.90054 4.00743
4.00719 23.99097 4.00719
4.00697 24.08139 4.00697
4.00675 24.17180 4.00675
4.00654 24.26218 4.00654
4.00634 24.35255 4.00634
4.00614 24.44291 4.00614
4.00595 24.53325 4.00595
4.00576 24.62358 4.00576
4.00558 24.71390 4.00558
4.00540 24.80420 4.00540
4.00523 24.89449 4.00524
4.00507 24.98477 4.00507
4.00491 25.07504 4.00491
4.00476 25.16529 4.00476
4.00461 25.25554 4.00461
4.00446 25.34578 4.00446
4.00432 25.43600 4.00432
4.00419 25.52622 4.00419
4.00406 25.61643 4.00406
4.00393 25.70663 4.00393
4.00381 25.79682 4.00381
4.00369 25.88700 4.00369
4.00357 25.97718 4.00357
4.00346 26.06735 4.00346
4.00335 26.15752 4.00335
4.00324 26.24767 4.00324
4.00314 26.33782 4.00314
4.00304 26.42796 4.00304
4.00295 26.51810 4.00295
4.00285 26.60824 4.00285
4.00276 26.69836 4.00276
4.00268 26.78849 4.00268
4.00259 26.87860 4.00259
4.00251 26.96872 4.00251
4.00243 27.05883 4.00243
4.00236 27.14894 4.00236
4.00228 27.23904 4.00228
4.00221 27.32913 4.00221
4.00214 27.41923 4.00214
4.00207 27.50932 4.00207
4.00201 27.59941 4.00201
4.00194 27.68950 4.00194
4.00188 27.77958 4.00188
4.00182 27.86966 4.00182
4.00177 27.95974 4.00177
4.00171 28.04981 4.00171
4.00166 28.13989 4.00166
4.00160 28.22996 4.00160
4.00155 28.32003 4.00155
4.00151 28.41010 4.00150
4.00146 28.50017 4.00146
4.00141 28.59023 4.00141
4.00137 28.68030 4.00137
4.00132 28.77036 4.00132
4.00128 28.86043 4.00128
4.00124 28.95049 4.00124
4.00120 29.04055 4.00120
4.00116 29.13061 4.00116
4.00113 29.22067 4.00113
4.00109 29.31073 4.00109
4.00106 29.40078 4.00106
4.00102 29.49084 4.00102
4.00099 29.58090 4.00099
4.00096 29.67096 4.00096
4.00093 29.76102 4.00093
4.00090 29.85107 4.00091
4.00087 29.94114 4.00087
4.00084 30.03119 4.00084
4.00082 30.12125 4.00082
4.00079 30.21131 4.00079
4.00077 30.30137 4.00077
4.00074 30.39143 4.00074
4.00072 30.48149 4.00072
4.00070 30.57155 4.00070
4.00068 30.66161 4.00067
4.00065 30.75166 4.00066
4.00063 30.84173 4.00063
4.00061 30.93179 4.00061
4.00059 31.02186 4.00059
4.00057 31.11192 4.00058
4.00056 31.20199 4.00056
4.00054 31.29204 4.00054
4.00052 31.38212 4.00052

Angle 0.073309 4.543216

4.00000 7.03348 4.00000
4.00000 7.03348 4.00000
4.00000 7.03348 4.00000
4.00000 7.03348 4.00000
4.00000 7.03348 4.00000
4.00000 7.03348 4.00000
4.00000 7.03348 4.00000
4.00000 7.03348 4.00000
4.00000 7.03348 4.00000
4.00000 7.03348 4.00000
4.00000 7.03348 4.00000
4.00000 7.03348 4.00000
4.00000 7.03348 4.00000
4.00000 7.03348 4.00000
4.00000 7.03348 4.00000
4.00000 7.03348 4.00000
4.00000 7.03348 4.00000
4.00000 7.03348 4.00000
4.00000 7.03348 4.00000
4.00000 7.03348 4.00000
4.00000 7.03348 4.00000
4.00000 7.03348 4.00000
4.00000 7.03348 4.00000
4.00000 7.03348 4.00000
4.00000 7.03348 4.00000
4.00000 7.03348 4.00000
4.00000 7.03348 4.00000
4.00000 7.03348 4.00000
4.00000 7.03348 4.00000
4.00000 7.03348 4.00000
4.00000 7.03348 4.00000
4.00000 7.03348 4.00000
4.00000 7.03348 4.00000
4.00000 7.03348 4.00000
4.00000 7.03347 4.00000
4.00000 7.03348 4.00000
4.00000 7.03348 4.00000
4.00000 7.03348 4.00000
4.00000 7.03348 4.00000
4.00000 7.03348 4.00000
4.00000 7.03348 4.00000
4.00000 7.03348 4.00000
4.00000 7.03348 4.00000
4.00000 7.03348 4.00000
4.00000 7.03348 4.00000
4.00000 7.03348 4.00000
4.00000 7.03348 4.00000
4.00000 7.03348 4.00000
4.00000 7.03348 4.00000
4.00000 7.03348 4.00000
4.00000 7.03348 4.00000
4.00000 7.03348 4.00000
4.00000 7.03348 4.00000
4.00000 7.03348 4.00000
4.00000 7.03348 4.00000
4.00000 7.03348 4.00000
4.00000 7.03348 4.00000
4.00000 7.03348 4.00000
4.00000 7.03348 4.00000
4.00000 7.03348 4.00000
4.00000 7.03348 4.00000
4.00000 7.03348 4.00000
4.00000 7.03348 4.00000
4.00000 7.03348 4.00000
4.00000 7.03348 4.00000
4.00000 7.03348 4.00000
4.00000 7.03348 4.00000
4.00000 7.03348 4.00000
4.00000 7.03348 4.00000
4.00000 7.03348 4.00000
4.00000 7.03348 4.00000
4.00000 7.03348 4.00000
4.00000 7.03348 4.00000
4.00000 7.03348 4.00000
4.00000 7.03348 4.00000
4.00000 7.03348 4.00000
4.00000 7.03348 4.00000
4.00000 7.03348 4.00000
4.00000 7.03348 4.00000
4.00000 7.03348 4.00000
4.00000 7.03348 4.00000
4.00000 7.03348 4.00000
4.00000 7.03348 4.00000
4.00000 7.03348 4.00000
4.00000 7.03348 4.00000
4.00000 7.03348 4.00000
4.00000 7.03348 4.00000
4.00000 7.03348 4.00000
4.00000 7.03348 4.00000
4.00000 7.03348 4.00000
4.00000 7.03348 4.00000
4.00000 7.03348 4.00000
4.00000 7.03348 4.00000
4.00000 7.03348 4.00000
4.00000 7.03348 4.00000
4.00000 7.03348 4.00000
4.00000 7.03348 4.00000
4.00000 7.03348 4.00000
4.00000 7.03349 4.00000
4.00000 7.03349 4.00000
4.00000 7.03349 4.00000
4.00000 7.03349 4.00000
4.00000 7.03348 4.00000
4.00000 7.03349 4.00000
4.00000 7.03349 4.00000
4.00000 7.03349 4.00000
4.00000 7.03349 4.00000
4.00000 7.03349 4.00000
4.00000 7.03349 4.00000
4.00000 7.03349 4.00000
4.00000 7.03348 4.00000
4.00000 7.03348 4.00000
4.00000 7.03348 4.00000
4.00000 7.03348 4.00000
4.00000 7.03348 4.00000
4.00000 7.03348 4.00000
4.00000 7.03348 4.00000
4.00000 7.03348 4.00000
4.00000 7.03348 4.00000
4.00000 7.03348 4.00000
4.00000 7.03348 4.00000
4.00000 7.03348 4.00000
4.00000 7.03348 4.00000
4.00000 7.03348 4.00000
4.00000 7.03348 4.00000
4.00000 7.03348 4.00000
4.00000 7.03348 4.00000
4.00000 7.03348 4.00000
4.00000 7.03348 4.00000
4.00000 7.03348 4.00000
4.00000 7.03348 4.00000
4.00000 7.03348 4.00000
4.00000 7.03348 4.00000
4.00000 7.03348 4.00000
4.00000 7.03348 4.00000
4.00000 7.03348 4.00000
4.00000 7.03348 4.00000
4.00000 7.03349 4.00000
4.00000 7.03350 4.00000
4.00000 7.03348 4.00000
4.00000 7.03348 4.00000
4.00000 7.03348 4.00000
4.00000 7.03348 4.00000
4.00000 7.03350 4.00000
4.00000 7.03348 4.00000
4.00000 7.03348 4.00000
4.00000 7.03348 4.00000
4.00000 7.03348 4.00000
4.00000 7.03348 4.00000
4.00000 7.03348 4.00000
4.00000 7.03348 4.00000
4.00000 7.03348 4.00000
4.00000 7.03348 4.00000
4.00000 7.03348 4.00000
4.00000 7.03348 4.00000
4.00088 7.05764 4.00088
4.00252 7.10340 4.00252
4.00416 7.14961 4.00416
4.00578 7.19625 4.00578
4.00741 7.24333 4.00741
4.00903 7.29083 4.00903
4.01064 7.33873 4.01064
4.01226 7.38703 4.01226
4.01388 7.43571 4.01388
4.01551 7.48477 4.01551
4.01715 7.53418 4.01715
4.01879 7.58395 4.01879
4.02045 7.63405 4.02045
4.02213 7.68448 4.02213
4.02382 7.73521 4.02382
4.02554 7.78624 4.02554
4.02729 7.83754 4.02729
4.02907 7.88910 4.02906
4.03088 7.94091 4.03088
4.03274 7.99293 4.03274
4.03464 8.04516 4.03464
4.03660 8.09757 4.03660
4.03863 8.15012 4.03863
4.04072 8.20281 4.04072
4.04289 8.25558 4.04289
4.04516 8.30840 4.04516
4.04753 8.36125 4.04753
4.05003 8.41405 4.05003
4.05266 8.46678 4.05266
4.05545 8.51935 4.05545
4.05843 8.57171 4.05843
4.06162 8.62376 4.06162
4.06505 8.67541 4.06505
4.06872 8.72670 4.06872
4.07262 8.77766 4.07262
4.07676 8.82825 4.07676
4.08114 8.87845 4.08114
4.08579 8.92823 4.08579
4.09071 8.97757 4.09071
4.09591 9.02644 4.09591
4.10140 9.07483 4.10140
4.10718 9.12275 4.10717
4.11325 9.17019 4.11325
4.11961 9.21716 4.11961
4.12626 9.26369 4.12626
4.13318 9.30981 4.13318
4.14035 9.35560 4.14035
4.14775 9.40111 4.14776
4.15535 9.44645 4.15535
4.16310 9.49173 4.16310
4.17095 9.53710 4.17095
4.17881 9.58276 4.17881
4.18661 9.62894 4.18661
4.19422 9.67592 4.19422
4.20152 9.72405 4.20152
4.20831 9.77378 4.20831
4.21439 9.82566 4.21439
4.21947 9.88038 4.21947
4.22321 9.93879 4.22321
4.22522 10.00189 4.22522
4.22507 10.07076 4.22507
4.22308 10.14459 4.22308
4.22042 10.22034 4.22042
4.21714 10.29792 4.21714
4.21324 10.37730 4.21324
4.20872 10.45851 4.20872
4.20356 10.54163 4.20356
4.19771 10.62676 4.19771
4.19112 10.71409 4.19113
4.18370 10.80389 4.18370
4.17532 10.89652 4.17532
4.16577 10.99255 4.16578
4.15478 11.09283 4.15479
4.14187 11.19876 4.14187
4.12619 11.31284 4.12619
4.10593 11.44046 4.10593
4.07667 11.59510 4.07667
4.00000 13.19120 4.00000
4.00000 13.19120 4.00000
4.00000 13.19120 4.00000
4.00000 13.19120 4.00000
4.00000 13.19120 4.00000
4.00000 13.19120 4.00000
4.00000 13.19120 4.00000
4.00000 13.19120 4.00000
4.00000 13.19120 4.00000
4.00000 13.19120 4.00000
4.00000 13.19120 4.00000
4.00000 13.19120 4.00000
4.00000 13.19120 4.00000
4.00000 13.19120 4.00000
4.00000 13.19120 4.00000
4.00000 13.19120 4.00000
4.00000 13.19120 4.00000
4.00001 13.19121 4.00000
4.00297 13.20418 4.00297
4.01231 13.24961 4.01231
4.02071 13.29841 4.02071
4.02806 13.35077 4.02806
4.03427 13.40688 4.03427
4.03926 13.46690 4.03926
4.04296 13.53100 4.04296
4.04530 13.59929 4.04530
4.04692 13.66988 4.04692
4.04851 13.74071 4.04851
4.05006 13.81175 4.05006
4.05159 13.88301 4.05159
4.05309 13.95446 4.05309
4.05458 14.02610 4.05458
4.05604 14.09792 4.05604
4.05749 14.16991 4.05749
4.05892 14.24207 4.05892
4.06034 14.31438 4.06034
4.06174 14.38685 4.06174
4.06314 14.45947 4.06314
4.06452 14.53223 4.06452
4.06590 14.60512 4.06590
4.06727 14.67816 4.06727
4.06863 14.75132 4.06863
4.06999 14.82461 4.06999
4.07134 14.89802 4.07134
4.07269 14.97156 4.07269
4.07403 15.04521 4.07403
4.07535 15.11904 4.07535
4.07649 15.19348 4.07649
4.07744 15.26857 4.07744
4.07821 15.34430 4.07821
4.07880 15.42064 4.07880
4.07921 15.49756 4.07921
4.07947 15.57504 4.07947
4.07958 15.65305 4.07958
4.07954 15.73156 4.07954
4.07937 15.81055 4.07937
4.07908 15.88998 4.07908
4.07867 15.96983 4.07867
4.07815 16.05008 4.07815
4.07754 16.13070 4.07754
4.07684 16.21166 4.07684
4.07605 16.29295 4.07605
4.07520 16.37453 4.07520
4.07427 16.45639 4.07427
4.07329 16.53851 4.07329
4.07226 16.62086 4.07226
4.07118 16.70343 4.07118
4.07006 16.78619 4.07006
4.06891 16.86914 4.06891
4.06773 16.95225 4.06773
4.06652 17.03552 4.06652
4.06530 17.11892 4.06530
4.06406 17.20245 4.06406
4.06281 17.28609 4.06281
4.06155 17.36983 4.06156
4.06029 17.45366 4.06029
4.05903 17.53758 4.05903
4.05777 17.62157 4.05777
4.05651 17.70562 4.05651
4.05526 17.78973 4.05526
4.05402 17.87390 4.05402
4.05279 17.95810 4.05279
4.05157 18.04235 4.05157
4.05036 18.12664 4.05036
4.04916 18.21096 4.04916
4.04798 18.29530 4.04798
4.04682 18.37966 4.04682
4.04568 18.46405 4.04568
4.04455 18.54845 4.04455
4.04344 18.63287 4.04344
4.04235 18.71729 4.04235
4.04128 18.80173 4.04128
4.04022 18.88618 4.04022
4.03919 18.97063 4.03919
4.03818 19.05508 4.03818
4.03719 19.13955 4.03719
4.03622 19.22401 4.03621
4.03526 19.30848 4.03526
4.03433 19.39294 4.03433
4.03342 19.47741 4.03342
4.03253 19.56188 4.03253
4.03166 19.64635 4.03166
4.03081 19.73082 4.03081
4.02998 19.81529 4.02998
4.02916 19.89975 4.02916
4.02837 19.98422 4.02837
4.02760 20.06869 4.02760
4.02684 20.15316 4.02684
4.02611 20.23762 4.02611
4.02539 20.32209 4.02539
4.02468 20.40656 4.02469
4.02400 20.49103 4.02400
4.02334 20.57550 4.02333
4.02269 20.65998 4.02268
4.02205 20.74445 4.02205
4.02144 20.82893 4.02144
4.02084 20.91341 4.02083
4.02025 20.99789 4.02025
4.01968 21.08238 4.01968
4.01912 21.16687 4.01912
4.01858 21.25137 4.01858
4.01806 21.33587 4.01806
4.01754 21.42038 4.01754
4.01705 21.50489 4.01705
4.01656 21.58941 4.01656
4.01609 21.67394 4.01609
4.01563 21.75847 4.01563
4.01519 21.84301 4.01519
4.01475 21.92756 4.01475
4.01433 22.01212 4.01433
4.01392 22.09669 4.01392
4.01352 22.18127 4.01352
4.01312 22.26587 4.01312
4.01275 22.35047 4.01275
4.01238 22.43508 4.01238
4.01202 22.51970 4.01202
4.01168 22.60433 4.01167
4.01133 22.68897 4.01134
4.01101 22.77363 4.01101
4.01069 22.85831 4.01069
4.01038 22.94299 4.01038
4.01007 23.02769 4.01007
4.00978 23.11241 4.00978
4.00950 23.19713 4.00950
4.00922 23.28187 4.00922
4.00895 23.36663 4.00895
4.00869 23.45140 4.00869
4.00844 23.53619 4.00844
4.00819 23.62100 4.00819
4.00795 23.70581 4.00795
4.00772 23.79065 4.00772
4.00749 23.87550 4.00749
4.00727 23.96037 4.00727
4.00706 24.04526 4.00706
4.00685 24.13016 4.00685
4.00665 24.21508 4.00665
4.00645 24.30002 4.00645
4.00626 24.38498 4.00626
4.00608 24.46995 4.00608
4.00590 24.55495 4.00590
4.00573 24.63996 4.00573
4.00556 24.72499 4.00556
4.00539 24.81004 4.00539
4.00523 24.89510 4.00523
4.00508 24.98019 4.00508
4.00493 25.06529 4.00493
4.00478 25.15042 4.00478
4.00464 25.23557 4.00464

Angle 0.181810 0.813499

4.00000 7.03348 4.00000
4.00000 7.03348 4.00000
4.00000 7.03348 4.00000
4.00000 7.03348 4.00000
4.00000 7.03348 4.00000
4.00000 7.03348 4.00000
4.00000 7.03348 4.00000
4.00000 7.03348 4.00000
4.00000 7.03348 4.00000
4.00000 7.03348 4.00000
4.00000 7.03348 4.00000
4.00000 7.03348 4.00000
4.00000 7.03348 4.00000
4.00000 7.03348 4.00000
4.00000 7.03349 4.00000
4.00000 7.03349 4.00000
4.00000 7.03349 4.00000
4.00000 7.03349 4.00000
4.00000 7.03348 4.00000
4.00000 7.03348 4.00000
4.00000 7.03348 4.00000
4.00000 7.03348 4.00000
4.00000 7.03348 4.00000
4.00000 7.03349 4.00000
4.00000 7.03348 4.00000
4.00000 7.03350 4.00000
4.00000 7.03348 4.00000
4.00000 7.03348 4.00000
4.00000 7.03347 4.00000
4.00000 7.03348 4.00000
4.00000 7.03348 4.00000
4.00000 7.03346 4.00000
4.00000 7.03348 4.00000
4.00000 7.03347 4.00000
4.00000 7.03348 4.00000
4.00000 7.03349 4.00000
4.00000 7.03348 4.00000
4.00000 7.03348 4.00000
4.00000 7.03348 4.00000
4.00000 7.03348 4.00000
4.00000 7.03348 4.00000
4.00000 7.03348 4.00000
4.00000 7.03348 4.00000
4.00000 7.03348 4.00000
4.00000 7.03348 4.00000
4.00000 7.03348 4.00000
4.00000 7.03350 4.00000
4.00000 7.03348 4.00000
4.00000 7.03348 4.00000
4.00000 7.03348 4.00000
4.00000 7.03348 4.00000
4.00000 7.03348 4.00000
4.00000 7.03348 4.00000
4.00000 7.03346 4.00000
4.00000 7.03354 4.00000
4.00000 7.03347 4.00000
4.00073 7.05349 4.00073
4.00246 7.10170 4.00246
4.00418 7.15035 4.00418
4.00589 7.19943 4.00589
4.00760 7.24893 4.00760
4.00930 7.29883 4.00930
4.01099 7.34913 4.01099
4.01269 7.39980 4.01269
4.01439 7.45084 4.01439
4.01609 7.50224 4.01609
4.01780 7.55398 4.01780
4.01952 7.60604 4.01952
4.02126 7.65842 4.02126
4.02301 7.71109 4.02301
4.02479 7.76405 4.02479
4.02659 7.81727 4.02659
4.02843 7.87074 4.02843
4.03030 7.92443 4.03030
4.03221 7.97834 4.03221
4.03417 8.03242 4.03417
4.03619 8.08667 4.03619
4.03827 8.14105 4.03827
4.04043 8.19553 4.04043
4.04266 8.25008 4.04266
4.04500 8.30466 4.04500
4.04744 8.35922 4.04744
4.05001 8.41372 4.05001
4.05273 8.46810 4.05273
4.05561 8.52229 4.05561
4.05869 8.57622 4.05869
4.06200 8.62979 4.06200
4.06557 8.68289 4.06557
4.06939 8.73560 4.06939
4.07344 8.78793 4.07344
4.07774 8.83984 4.07774
4.08231 8.89131 4.08231
4.08716 8.94230 4.08716
4.09230 8.99280 4.09230
4.09772 9.04278 4.09772
4.10346 9.09224 4.10346
4.10949 9.14118 4.10949
4.11583 9.18959 4.11583
4.12248 9.23751 4.12248
4.12941 9.28497 4.12941
4.13662 9.33201 4.13662
4.14408 9.37870 4.14408
4.15176 9.42515 4.15176
4.15962 9.47145 4.15962
4.16760 9.51777 4.16760
4.17564 9.56428 4.17564
4.18364 9.61122 4.18364
4.19150 9.65885 4.19150
4.19908 9.70752 4.19908
4.20621 9.75768 4.20621
4.21266 9.80987 4.21266
4.21817 9.86476 4.21817
4.22239 9.92322 4.22239
4.22492 9.98625 4.22492
4.22531 10.05498 4.22531
4.22354 10.12948 4.22354
4.22095 10.20629 4.22095
4.21772 10.28496 4.21772
4.21385 10.36549 4.21385
4.20934 10.44790 4.20934
4.20417 10.53224 4.20417
4.19829 10.61863 4.19829
4.19166 10.70726 4.19166
4.18418 10.79839 4.18418
4.17571 10.89241 4.17570
4.16605 10.98988 4.16605
4.15491 11.09170 4.15492
4.14180 11.19931 4.14180
4.12582 11.31534 4.12582
4.10506 11.44550 4.10506
4.07469 11.60452 4.07469
4.00000 13.19120 4.00000
4.00000 13.19120 4.00000
4.00000 13.19120 4.00000
4.00000 13.19120 4.00000
4.00000 13.19120 4.00000
4.00000 13.19120 4.00000
4.00000 13.19120 4.00000
4.00000 13.19120 4.00000
4.00000 13.19120 4.00000
4.00000 13.19120 4.00000
4.00000 13.19120 4.00000
4.00000 13.19120 4.00000
4.00000 13.19120 4.00000
4.00000 13.19120 4.00000
4.00000 13.19120 4.00000
4.00000 13.19120 4.00000
4.00000 13.19120 4.00000
4.00000 13.19120 4.00000
4.00598 13.21802 4.00598
4.01515 13.26507 4.01515
4.02330 13.31563 4.02330
4.03036 13.36989 4.03036
4.03621 13.42804 4.03621
4.04079 13.49026 4.04079
4.04402 13.55668 4.04402
4.04595 13.62713 4.04595
4.04757 13.69861 4.04757
4.04916 13.77032 4.04916
4.05072 13.84224 4.05072
4.05225 13.91436 4.05225
4.05376 13.98667 4.05376
4.05525 14.05916 4.05525
4.05672 14.13182 4.05672
4.05818 14.20465 4.05818
4.05962 14.27763 4.05962
4.06104 14.35077 4.06104
4.06246 14.42404 4.06246
4.06386 14.49747 4.06386
4.06526 14.57102 4.06526
4.06664 14.64471 4.06664
4.06802 14.71853 4.06802
4.06939 14.79247 4.06939
4.07076 14.86653 4.07076
4.07212 14.94070 4.07212
4.07348 15.01500 4.07348
4.07484 15.08940 4.07484
4.07607 15.16425 4.07607
4.07710 15.23978 4.07710
4.07795 15.31595 4.07795
4.07860 15.39275 4.07860
4.07908 15.47014 4.07908
4.07940 15.54810 4.07940
4.07956 15.62661 4.07956
4.07957 15.70563 4.07957
4.07944 15.78513 4.07944
4.07918 15.86509 4.07918
4.07880 15.94548 4.07880
4.07832 16.02628 4.07832
4.07773 16.10746 4.07773
4.07704 16.18898 4.07704
4.07627 16.27083 4.07627
4.07543 16.35299 4.07543
4.07451 16.43543 4.07451
4.07354 16.51812 4.07354
4.07251 16.60106 4.07251
4.07143 16.68421 4.07143
4.07031 16.76756 4.07031
4.06916 16.85110 4.06916
4.06798 16.93480 4.06798
4.06677 17.01866 4.06677
4.06554 17.10265 4.06554
4.06429 17.18676 4.06429
4.06304 17.27098 4.06304
4.06177 17.35531 4.06177
4.06050 17.43972 4.06050
4.05923 17.52422 4.05923
4.05796 17.60878 4.05796
4.05670 17.69341 4.05670
4.05543 17.77809 4.05544
4.05418 17.86283 4.05418
4.05294 17.94760 4.05294
4.05171 18.03241 4.05171
4.05049 18.11725 4.05049
4.04929 18.20212 4.04929
4.04810 18.28701 4.04810
4.04693 18.37192 4.04693
4.04577 18.45685 4.04577
4.04464 18.54179 4.04464
4.04352 18.62674 4.04352
4.04242 18.71170 4.04242
4.04134 18.79666 4.04134
4.04028 18.88163 4.04028
4.03924 18.96660 4.03924
4.03822 19.05157 4.03822
4.03722 19.13654 4.03722
4.03624 19.22151 4.03624
4.03528 19.30648 4.03529
4.03435 19.39144 4.03435
4.03343 19.47641 4.03343
4.03254 19.56137 4.03254
4.03166 19.64632 4.03166
4.03080 19.73127 4.03080
4.02997 19.81622 4.02997
4.02915 19.90117 4.02915
4.02835 19.98611 4.02835
4.02758 20.07104 4.02758
4.02682 20.15597 4.02682
4.02608 20.24090 4.02608
4.02535 20.32583 4.02535
4.02465 20.41076 4.02465
4.02396 20.49568 4.02396
4.02330 20.58060 4.02330
4.02264 20.66552 4.02264
4.02201 20.75043 4.02201
4.02139 20.83535 4.02139
4.02079 20.92027 4.02079
4.02020 21.00518 4.02020
4.01963 21.09010 4.01963
4.01907 21.17502 4.01907
4.01853 21.25994 4.01853
4.01800 21.34486 4.01800
4.01749 21.42978 4.01749
4.01699 21.51471 4.01699
4.01650 21.59964 4.01650
4.01603 21.68458 4.01603
4.01557 21.76952 4.01557
4.01512 21.85447 4.01512
4.01469 21.93942 4.01469
4.01427 22.02438 4.01427
4.01386 22.10934 4.01385
4.01345 22.19432 4.01345
4.01307 22.27930 4.01307
4.01269 22.36429 4.01269
4.01232 22.44928 4.01232
4.01196 22.53429 4.01196
4.01161 22.61931 4.01161
4.01128 22.70433 4.01128
4.01095 22.78936 4.01095
4.01063 22.87441 4.01063
4.01032 22.95947 4.01032
4.01002 23.04454 4.01002
4.00972 23.12962 4.00973
4.00944 23.21471 4.00944
4.00916 23.29981 4.00916
4.00890 23.38493 4.00890
4.00863 23.47006 4.00863
4.00838 23.55521 4.00838
4.00814 23.64037 4.00814
4.00790 23.72554 4.00790
4.00766 23.81072 4.00766
4.00744 23.89592 4.00744
4.00722 23.98114 4.00722
4.00701 24.06637 4.00701
4.00680 24.15162 4.00680
4.00660 24.23688 4.00660
4.00640 24.32216 4.00640
4.00621 24.40745 4.00621
4.00603 24.49276 4.00603
4.00585 24.57809 4.00585
4.00568 24.66343 4.00568
4.00551 24.74879 4.00551
4.00535 24.83417 4.00535
4.00519 24.91956 4.00519
4.00503 25.00497 4.00503
4.00488 25.09040 4.00488
4.00474 25.17584 4.00474
4.00460 25.26131 4.00460
4.00446 25.34679 4.00446
4.00433 25.43229 4.00433
4.00420 25.51780 4.00420
4.00408 25.60334 4.00408
4.00395 25.68889 4.00395
4.00384 25.77446 4.00384
4.00372 25.86005 4.00372
4.00361 25.94566 4.00361
4.00350 26.03129 4.00350
4.00340 26.11693 4.00340
4.00330 26.20260 4.00330
4.00320 26.28828 4.00320
4.00310 26.37398 4.00310
4.00301 26.45970 4.00301
4.00292 26.54544 4.00292
4.00283 26.63120 4.00283
4.00275 26.71697 4.00275
4.00266 26.80277 4.00266
4.00259 26.88858 4.00258
4.00251 26.97442 4.00251
4.00243 27.06027 4.00243
4.00236 27.14614 4.00236
4.00229 27.23203 4.00229
4.00222 27.31794 4.00222
4.00215 27.40387 4.00215
4.00209 27.48981 4.00209
4.00202 27.57578 4.00202
4.00196 27.66177 4.00196
4.00190 27.74777 4.00190
4.00185 27.83379 4.00185
4.00179 27.91984 4.00179
4.00174 28.00589 4.00174
4.00168 28.09197 4.00168
4.00163 28.17807 4.00163
4.00158 28.26419 4.00158
4.00154 28.35032 4.00154
4.00149 28.43648 4.00149
4.00145 28.52265 4.00145
4.00140 28.60884 4.00140
4.00136 28.69506 4.00135
4.00132 28.78128 4.00132
4.00128 28.86753 4.00128
4.00124 28.95380 4.00124
4.00120 29.04008 4.00120
4.00117 29.12638 4.00117
4.00113 29.21270 4.00113
4.00110 29.29904 4.00109
4.00106 29.38539 4.00106
4.00103 29.47178 4.00103
4.00100 29.55816 4.00100
4.00097 29.64457 4.00097
4.00094 29.73100 4.00094
4.00091 29.81744 4.00092
4.00088 29.90391 4.00088
4.00085 29.99040 4.00085
4.00083 30.07689 4.00083
4.00081 30.16340 4.00081
4.00078 30.24994 4.00078
4.00076 30.33649 4.00076
4.00073 30.42306 4.00073
4.00071 30.50965 4.00071
4.00069 30.59625 4.00069
4.00067 30.68287 4.00067
4.00065 30.76951 4.00065
4.00063 30.85616 4.00063
4.00061 30.94283 4.00061
4.00059 31.02952 4.00059
4.00058 31.11622 4.00058
4.00056 31.20295 4.00056
4.00054 31.28969 4.00054
4.00052 31.37644 4.00052
4.00051 31.46322 4.00051
4.00049 31.55001 4.00049
4.00048 31.63681 4.00048
4.00046 31.72363 4.00046
4.00045 31.81047 4.00045
4.00043 31.89732 4.00044
4.00042 31.98420 4.00042
4.00041 32.07107 4.00041
4.00040 32.15798 4.00039
4.00038 32.24489 4.00038
4.00037 32.33182 4.00037
4.00036 32.41877 4.00036
4.00035 32.50573 4.00035
4.00034 32.59272 4.00033
4.00033 32.67971 4.00033
4.00032 32.76672 4.00032
4.00031 32.85375 4.00031
4.00030 32.94078 4.00030
4.00029 33.02784 4.00029
4.00028 33.11491 4.00029
4.00027 33.20200 4.00028
4.00026 33.28909 4.00026
4.00026 33.37621 4.00026
4.00025 33.46334 4.00025
4.00024 33.55049 4.00024
4.00023 33.63765 4.00024
4.00023 33.72481 4.00023
4.00022 33.81200 4.00022
4.00021 33.89920 4.00022
4.00020 33.98642 4.00021
4.00020 34.07366 4.00020

Angle 0.696149 0.923677

4.00000 7.03348 4.00000
4.00000 7.03347 4.00000
4.00000 7.03347 4.00000
4.00000 7.03347 4.00000
4.00000 7.03347 4.00000
4.00000 7.03347 4.00000
4.00000 7.03348 4.00000
4.00000 7.03348 4.00000
4.00000 7.03347 4.00000
4.00000 7.03348 4.00000
4.00000 7.03349 4.00000
4.00000 7.03349 4.00000
4.00000 7.03348 4.00000
4.00000 7.03347 4.00000
4.00000 7.03348 4.00000
4.00000 7.03348 4.00000
4.00000 7.03348 4.00000
4.00000 7.03348 4.00000
4.00000 7.03348 4.00000
4.00000 7.03348 4.00000
4.00000 7.03348 4.00000
4.00000 7.03349 4.00000
4.00000 7.03349 4.00000
4.00000 7.03348 4.00000
4.00000 7.03348 4.00000
4.00000 7.03348 4.00000
4.00000 7.03348 4.00000
4.00000 7.03348 4.00000
4.00000 7.03348 4.00000
4.00000 7.03348 4.00000
4.00000 7.03348 4.00000
4.00000 7.03348 4.00000
4.00000 7.03348 4.00000
4.00000 7.03348 4.00000
4.00000 7.03348 4.00000
4.00000 7.03348 4.00000
4.00000 7.03348 4.00000
4.00000 7.03348 4.00000
4.00000 7.03348 4.00000
4.00000 7.03348 4.00000
4.00000 7.03348 4.00000
4.00000 7.03348 4.00000
4.00000 7.03348 4.00000
4.00000 7.03348 4.00000
4.00000 7.03348 4.00000
4.00000 7.03348 4.00000
4.00000 7.03348 4.00000
4.00000 7.03348 4.00000
4.00000 7.03348 4.00000
4.00000 7.03348 4.00000
4.00000 7.03348 4.00000
4.00000 7.03348 4.00000
4.00000 7.03348 4.00000
4.00000 7.03348 4.00000
4.00000 7.03348 4.00000
4.00000 7.03348 4.00000
4.00000 7.03348 4.00000
4.00000 7.03348 4.00000
4.00000 7.03348 4.00000
4.00000 7.03348 4.00000
4.00000 7.03348 4.00000
4.00000 7.03348 4.00000
4.00000 7.03348 4.00000
4.00000 7.03348 4.00000
4.00000 7.03348 4.00000
4.00000 7.03348 4.00000
4.00000 7.03348 4.00000
4.00000 7.03348 4.00000
4.00000 7.03348 4.00000
4.00000 7.03348 4.00000
4.00000 7.03348 4.00000
4.00000 7.03348 4.00000
4.00000 7.03348 4.00000
4.00000 7.03348 4.00000
4.00000 7.03348 4.00000
4.00000 7.03348 4.00000
4.00000 7.03348 4.00000
4.00000 7.03348 4.00000
4.00000 7.03348 4.00000
4.00000 7.03348 4.00000
4.00000 7.03348 4.00000
4.00000 7.03348 4.00000
4.00000 7.03348 4.00000
4.00000 7.03348 4.00000
4.00000 7.03348 4.00000
4.00000 7.03348 4.00000
4.00000 7.03348 4.00000
4.00000 7.03348 4.00000
4.00000 7.03348 4.00000
4.00000 7.03348 4.00000
4.00000 7.03348 4.00000
4.00000 7.03348 4.00000
4.00000 7.03348 4.00000
4.00000 7.03348 4.00000
4.00000 7.03348 4.00000
4.00000 7.03348 4.00000
4.00000 7.03348 4.00000
4.00000 7.03348 4.00000
4.00000 7.03348 4.00000
4.00000 7.03348 4.00000
4.00000 7.03348 4.00000
4.00000 7.03348 4.00000
4.00000 7.03348 4.00000
4.00000 7.03348 4.00000
4.00000 7.03348 4.00000
4.00000 7.03348 4.00000
4.00000 7.03348 4.00000
4.00000 7.03348 4.00000
4.00000 7.03348 4.00000
4.00000 7.03348 4.00000
4.00000 7.03348 4.00000
4.00000 7.03348 4.00000
4.00000 7.03348 4.00000
4.00000 7.03348 4.00000
4.00000 7.03348 4.00000
4.00000 7.03348 4.00000
4.00000 7.03348 4.00000
4.00000 7.03348 4.00000
4.00000 7.03348 4.00000
4.00000 7.03348 4.00000
4.00000 7.03348 4.00000
4.00000 7.03348 4.00000
4.00000 7.03348 4.00000
4.00000 7.03348 4.00000
4.00000 7.03348 4.00000
4.00000 7.03348 4.00000
4.00000 7.03348 4.00000
4.00000 7.03348 4.00000
4.00000 7.03348 4.00000
4.00000 7.03348 4.00000
4.00000 7.03348 4.00000
4.00000 7.03348 4.00000
4.00000 7.03348 4.00000
4.00000 7.03348 4.00000
4.00000 7.03348 4.00000
4.00000 7.03347 4.00000
4.00000 7.03348 4.00000
4.00000 7.03348 4.00000
4.00000 7.03347 4.00000
4.00000 7.03348 4.00000
4.00000 7.03348 4.00000
4.00000 7.03348 4.00000
4.00000 7.03348 4.00000
4.00000 7.03348 4.00000
4.00000 7.03348 4.00000
4.00000 7.03348 4.00000
4.00000 7.03348 4.00000
4.00000 7.03348 4.00000
4.00000 7.03348 4.00000
4.00000 7.03348 4.00000
4.00000 7.03348 4.00000
4.00000 7.03348 4.00000
4.00000 7.03348 4.00000
4.00000 7.03348 4.00000
4.00000 7.03347 4.00000
4.00000 7.03347 4.00000
4.00000 7.03347 4.00000
4.00000 7.03350 4.00000
4.00000 7.03349 4.00000
4.00000 7.03348 4.00000
4.00000 7.03348 4.00000
4.00000 7.03348 4.00000
4.00000 7.03348 4.00000
4.00000 7.03348 4.00000
4.00000 7.03348 4.00000
4.00000 7.03348 4.00000
4.00000 7.03348 4.00000
4.00000 7.03348 4.00000
4.00000 7.03348 4.00000
4.00000 7.03348 4.00000
4.00000 7.03348 4.00000
4.00000 7.03348 4.00000
4.00000 7.03348 4.00000
4.00000 7.03348 4.00000
4.00000 7.03348 4.00000
4.00000 7.03348 4.00000
4.00000 7.03348 4.00000
4.00000 7.03348 4.00000
4.00000 7.03349 4.00000
4.00000 7.03348 4.00000
4.00000 7.03348 4.00000
4.00000 7.03348 4.00000
4.00000 7.03346 4.00000
4.00000 7.03345 4.00000
4.00000 7.03348 4.00000
4.00000 7.03349 4.00000
4.00000 7.03350 4.00000
4.00000 7.03349 4.00000
4.00000 7.03348 4.00000
4.00188 7.08536 4.00188
4.00471 7.16536 4.00471
4.00748 7.24559 4.00748
4.01021 7.32600 4.01021
4.01291 7.40657 4.01291
4.01559 7.48724 4.01559
4.01826 7.56799 4.01826
4.02094 7.64877 4.02094
4.02363 7.72954 4.02363
4.02636 7.81026 4.02636
4.02913 7.89089 4.02913
4.03196 7.97137 4.03196
4.03488 8.05164 4.03488
4.03791 8.13164 4.03791
4.04106 8.21130 4.04106
4.04438 8.29053 4.04438
4.04790 8.36921 4.04790
4.05167 8.44724 4.05167
4.05573 8.52443 4.05573
4.06017 8.60061 4.06017
4.06506 8.67553 4.06506
4.07041 8.74921 4.07041
4.07621 8.82171 4.07620
4.08247 8.89298 4.08247
4.08922 8.96298 4.08922
4.09649 9.03167 4.09649
4.10427 9.09905 4.10427
4.11258 9.16513 4.11258
4.12141 9.22997 4.12141
4.13072 9.29367 4.13072
4.14047 9.35636 4.14047
4.15060 9.41824 4.15060
4.16102 9.47959 4.16102
4.17158 9.54076 4.17158
4.18212 9.60220 4.18212
4.19241 9.66450 4.19241
4.20215 9.72843 4.20215
4.21093 9.79500 4.21093
4.21823 9.86553 4.21823
4.22335 9.94177 4.22335
4.22544 10.02586 4.22544
4.22383 10.11946 4.22383
4.22053 10.21746 4.22053
4.21619 10.31817 4.21619
4.21084 10.42155 4.21084
4.20446 10.52766 4.20446
4.19699 10.63671 4.19699
4.18832 10.74903 4.18832
4.17824 10.86522 4.17824
4.16643 10.98619 4.16644
4.15237 11.11354 4.15237
4.13505 11.25020 4.13505
4.11226 11.40275 4.11226
4.07765 11.59039 4.07765
4.00000 13.19120 4.00000
4.00000 13.19120 4.00000
4.00000 13.19120 4.00000
4.00000 13.19120 4.00000
4.00000 13.19120 4.00000
4.00000 13.19120 4.00000
4.00000 13.19120 4.00000
4.00000 13.19120 4.00000
4.00000 13.19120 4.00000
4.00000 13.19120 4.00000
4.00000 13.19120 4.00000
4.00000 13.19120 4.00000
4.00000 13.19120 4.00000
4.00000 13.19121 4.00000
4.00000 13.19120 4.00000
4.00873 13.23127 4.00873
4.01917 13.28877 4.01917
4.02812 13.35124 4.02812
4.03541 13.41897 4.03541
4.04091 13.49223 4.04091
4.04452 13.57122 4.04452
4.04658 13.65487 4.04659
4.04847 13.73906 4.04847
4.05032 13.82340 4.05032
4.05212 13.90788 4.05212
4.05388 13.99248 4.05388
4.05562 14.07719 4.05562
4.05733 14.16199 4.05733
4.05901 14.24688 4.05901
4.06068 14.33184 4.06068
4.06232 14.41688 4.06232
4.06395 14.50197 4.06395
4.06556 14.58713 4.06556
4.06716 14.67233 4.06716
4.06875 14.75759 4.06875
4.07033 14.84288 4.07033
4.07189 14.92821 4.07189
4.07346 15.01358 4.07346
4.07501 15.09900 4.07501
4.07637 15.18495 4.07637
4.07748 15.27167 4.07748
4.07834 15.35911 4.07834
4.07896 15.44723 4.07896
4.07936 15.53599 4.07936
4.07956 15.62536 4.07956
4.07956 15.71528 4.07956
4.07939 15.80572 4.07939
4.07905 15.89663 4.07905
4.07856 15.98798 4.07856
4.07794 16.07973 4.07794
4.07719 16.17183 4.07719
4.07634 16.26426 4.07634
4.07539 16.35697 4.07539
4.07435 16.44994 4.07435
4.07323 16.54314 4.07323
4.07206 16.63653 4.07206
4.07082 16.73009 4.07082
4.06954 16.82380 4.06954
4.06822 16.91763 4.06822
4.06687 17.01156 4.06687
4.06550 17.10557 4.06550
4.06410 17.19964 4.06410
4.06270 17.29376 4.06270
4.06128 17.38792 4.06128
4.05987 17.48209 4.05987
4.05845 17.57627 4.05845
4.05704 17.67045 4.05704
4.05564 17.76461 4.05564
4.05424 17.85875 4.05424
4.05286 17.95286 4.05286
4.05150 18.04694 4.05150
4.05015 18.14098 4.05015
4.04883 18.23496 4.04883
4.04752 18.32890 4.04752
4.04623 18.42278 4.04623
4.04497 18.51660 4.04497
4.04373 18.61037 4.04373
4.04252 18.70406 4.04252
4.04133 18.79770 4.04133
4.04016 18.89126 4.04016
4.03902 18.98476 4.03902
4.03791 19.07819 4.03791
4.03682 19.17155 4.03682
4.03575 19.26484 4.03575
4.03471 19.35806 4.03471
4.03370 19.45121 4.03370
4.03271 19.54429 4.03271
4.03175 19.63731 4.03175
4.03081 19.73025 4.03081
4.02990 19.82313 4.02990
4.02901 19.91594 4.02901
4.02815 20.00868 4.02815
4.02730 20.10136 4.02730
4.02648 20.19397 4.02648
4.02569 20.28652 4.02569
4.02491 20.37901 4.02491
4.02416 20.47144 4.02416
4.02343 20.56381 4.02343
4.02271 20.65612 4.02271
4.02202 20.74836 4.02202
4.02135 20.84056 4.02135
4.02070 20.93270 4.02070
4.02007 21.02479 4.02007
4.01945 21.11683 4.01945
4.01885 21.20881 4.01885
4.01827 21.30075 4.01827
4.01771 21.39263 4.01771
4.01717 21.48447 4.01717
4.01664 21.57627 4.01664
4.01612 21.66801 4.01612
4.01562 21.75972 4.01562
4.01514 21.85138 4.01514
4.01467 21.94300 4.01467
4.01422 22.03458 4.01422
4.01377 22.12612 4.01377
4.01335 22.21762 4.01335
4.01293 22.30909 4.01293
4.01253 22.40052 4.01253
4.01214 22.49191 4.01214
4.01176 22.58327 4.01176
4.01139 22.67460 4.01139
4.01104 22.76590 4.01104
4.01069 22.85716 4.01069
4.01036 22.94840 4.01036
4.01004 23.03960 4.01004
4.00972 23.13078 4.00972
4.00942 23.22193 4.00942
4.00912 23.31305 4.00912
4.00884 23.40415 4.00884
4.00856 23.49522 4.00856
4.00829 23.58627 4.00829
4.00803 23.67729 4.00803
4.00778 23.76830 4.00778
4.00753 23.85928 4.00753
4.00730 23.95023 4.00730
4.00707 24.04117 4.00707
4.00685 24.13209 4.00685
4.00663 24.22299 4.00663
4.00642 24.31387 4.00642
4.00622 24.40473 4.00622
4.00602 24.49557 4.00602
4.00583 24.58640 4.00583
4.00565 24.67721 4.00565
4.00547 24.76801 4.00547
4.00530 24.85879 4.00530
4.00513 24.94955 4.00513
4.00497 25.04030 4.00497
4.00482 25.13104 4.00482
4.00466 25.22176 4.00466
4.00452 25.31247 4.00452
4.00437 25.40317 4.00437
4.00424 25.49385 4.00424
4.00410 25.58452 4.00410
4.00397 25.67519 4.00397
4.00385 25.76584 4.00385
4.00373 25.85648 4.00373
4.00361 25.94711 4.00361

Angle 0.072716 2.576688

4.00000 7.03349 4.00000
4.00000 7.03348 4.00000
4.00000 7.03348 4.00000
4.00000 7.03348 4.00000
4.00000 7.03348 4.00000
4.00000 7.03348 4.00000
4.00000 7.03348 4.00000
4.00000 7.03348 4.00000
4.00000 7.03348 4.00000
4.00000 7.03348 4.00000
4.00000 7.03348 4.00000
4.00000 7.03348 4.00000
4.00000 7.03349 4.00000
4.00000 7.03348 4.00000
4.00000 7.03348 4.00000
4.00000 7.03348 4.00000
4.00000 7.03346 4.00000
4.00000 7.03348 4.00000
4.00000 7.03348 4.00000
4.00000 7.03348 4.00000
4.00000 7.03348 4.00000
4.00000 7.03348 4.00000
4.00000 7.03348 4.00000
4.00000 7.03348 4.00000
4.00000 7.03348 4.00000
4.00000 7.03348 4.00000
4.00000 7.03348 4.00000
4.00000 7.03348 4.00000
4.00000 7.03348 4.00000
4.00000 7.03348 4.00000
4.00000 7.03348 4.00000
4.00000 7.03348 4.00000
4.00000 7.03348 4.00000
4.00000 7.03348 4.00000
4.00000 7.03348 4.00000
4.00000 7.03348 4.00000
4.00000 7.03348 4.00000
4.00000 7.03348 4.00000
4.00000 7.03348 4.00000
4.00000 7.03348 4.00000
4.00000 7.03348 4.00000
4.00000 7.03348 4.00000
4.00000 7.03348 4.00000
4.00000 7.03348 4.00000
4.00000 7.03348 4.00000
4.00000 7.03348 4.00000
4.00000 7.03348 4.00000
4.00000 7.03348 4.00000
4.00000 7.03348 4.00000
4.00000 7.03348 4.00000
4.00000 7.03348 4.00000
4.00000 7.03348 4.00000
4.00000 7.03348 4.00000
4.00000 7.03348 4.00000
4.00000 7.03348 4.00000
4.00000 7.03348 4.00000
4.00000 7.03348 4.00000
4.00000 7.03348 4.00000
4.00000 7.03348 4.00000
4.00000 7.03348 4.00000
4.00000 7.03348 4.00000
4.00000 7.03348 4.00000
4.00000 7.03348 4.00000
4.00000 7.03348 4.00000
4.00000 7.03348 4.00000
4.00000 7.03348 4.00000
4.00000 7.03348 4.00000
4.00000 7.03348 4.00000
4.00000 7.03347 4.00000
4.00000 7.03348 4.00000
4.00000 7.03348 4.00000
4.00000 7.03348 4.00000
4.00000 7.03348 4.00000
4.00000 7.03348 4.00000
4.00000 7.03348 4.00000
4.00000 7.03348 4.00000
4.00000 7.03348 4.00000
4.00000 7.03349 4.00000
4.00000 7.03349 4.00000
4.00000 7.03347 4.00000
4.00000 7.03348 4.00000
4.00000 7.03348 4.00000
4.00000 7.03348 4.00000
4.00000 7.03348 4.00000
4.00000 7.03348 4.00000
4.00000 7.03348 4.00000
4.00000 7.03349 4.00000
4.00000 7.03348 4.00000
4.00000 7.03348 4.00000
4.00000 7.03348 4.00000
4.00000 7.03348 4.00000
4.00000 7.03348 4.00000
4.00000 7.03348 4.00000
4.00000 7.03348 4.00000
4.00000 7.03348 4.00000
4.00000 7.03348 4.00000
4.00000 7.03349 4.00000
4.00000 7.03348 4.00000
4.00000 7.03348 4.00000
4.00000 7.03348 4.00000
4.00000 7.03348 4.00000
4.00000 7.03347 4.00000
4.00000 7.03347 4.00000
4.00000 7.03348 4.00000
4.00000 7.03348 4.00000
4.00000 7.03348 4.00000
4.00000 7.03348 4.00000
4.00000 7.03348 4.00000
4.00000 7.03348 4.00000
4.00000 7.03348 4.00000
4.00000 7.03348 4.00000
4.00000 7.03348 4.00000
4.00000 7.03348 4.00000
4.00000 7.03348 4.00000
4.00000 7.03348 4.00000
4.00000 7.03348 4.00000
4.00000 7.03348 4.00000
4.00000 7.03348 4.00000
4.00000 7.03348 4.00000
4.00000 7.03348 4.00000
4.00000 7.03348 4.00000
4.00000 7.03347 4.00000
4.00000 7.03348 4.00000
4.00000 7.03348 4.00000
4.00000 7.03348 4.00000
4.00000 7.03348 4.00000
4.00000 7.03348 4.00000
4.00000 7.03348 4.00000
4.00000 7.03348 4.00000
4.00000 7.03348 4.00000
4.00000 7.03348 4.00000
4.00000 7.03348 4.00000
4.00000 7.03348 4.00000
4.00000 7.03347 4.00000
4.00000 7.03348 4.00000
4.00000 7.03348 4.00000
4.00000 7.03348 4.00000
4.00000 7.03348 4.00000
4.00000 7.03348 4.00000
4.00000 7.03348 4.00000
4.00000 7.03348 4.00000
4.00000 7.03348 4.00000
4.00000 7.03348 4.00000
4.00000 7.03348 4.00000
4.00000 7.03348 4.00000
4.00000 7.03348 4.00000
4.00000 7.03348 4.00000
4.00000 7.03348 4.00000
4.00000 7.03348 4.00000
4.00000 7.03348 4.00000
4.00000 7.03348 4.00000
4.00000 7.03348 4.00000
4.00000 7.03348 4.00000
4.00000 7.03348 4.00000
4.00000 7.03348 4.00000
4.00000 7.03348 4.00000
4.00000 7.03348 4.00000
4.00000 7.03348 4.00000
4.00000 7.03348 4.00000
4.00000 7.03348 4.00000
4.00000 7.03348 4.00000
4.00000 7.03348 4.00000
4.00000 7.03348 4.00000
4.00000 7.03348 4.00000
4.00000 7.03348 4.00000
4.00000 7.03349 4.00000
4.00000 7.03347 4.00000
4.00000 7.03349 4.00000
4.00000 7.03348 4.00000
4.00000 7.03349 4.00000
4.00000 7.03348 4.00000
4.00000 7.03349 4.00000
4.00000 7.03348 4.00000
4.00000 7.03348 4.00000
4.00000 7.03348 4.00000
4.00000 7.03347 4.00000
4.00000 7.03349 4.00000
4.00000 7.03348 4.00000
4.00218 7.09386 4.00218
4.00480 7.16788 4.00480
4.00737 7.24217 4.00737
4.00990 7.31670 4.00990
4.01241 7.39144 4.01241
4.01490 7.46635 4.01490
4.01738 7.54141 4.01739
4.01987 7.61658 4.01987
4.02237 7.69182 4.02237
4.02489 7.76711 4.02489
4.02745 7.84240 4.02745
4.03006 7.91766 4.03006
4.03273 7.99284 4.03273
4.03549 8.06789 4.03549
4.03834 8.14275 4.03834
4.04131 8.21736 4.04131
4.04443 8.29165 4.04443
4.04773 8.36551 4.04773
4.05125 8.43886 4.05125
4.05502 8.51154 4.05502
4.05912 8.58342 4.05912
4.06361 8.65428 4.06361
4.06853 8.72403 4.06853
4.07383 8.79280 4.07383
4.07955 8.86055 4.07955
4.08569 8.92722 4.08569
4.09229 8.99279 4.09229
4.09936 9.05723 4.09936
4.10690 9.12053 4.10690
4.11491 9.18273 4.11491
4.12338 9.24387 4.12338
4.13229 9.30404 4.13229
4.14160 9.36337 4.14160
4.15124 9.42204 4.15124
4.16113 9.48027 4.16113
4.17117 9.53838 4.17117
4.18120 9.59675 4.18119
4.19102 9.65587 4.19102
4.20040 9.71640 4.20040
4.20899 9.77915 4.20899
4.21637 9.84522 4.21637
4.22196 9.91602 4.22196
4.22507 9.99332 4.22507
4.22490 10.07912 4.22490
4.22220 10.17149 4.22220
4.21853 10.26642 4.21853
4.21394 10.36384 4.21394
4.20841 10.46375 4.20841
4.20192 10.56627 4.20192
4.19440 10.67161 4.19440
4.18573 10.78015 4.18573
4.17570 10.89246 4.17570
4.16400 11.00948 4.16400
4.15008 11.13278 4.15008
4.13298 11.26525 4.13298
4.11050 11.41338 4.11050
4.07654 11.59570 4.07654
4.00000 13.19120 4.00000
4.00000 13.19120 4.00000
4.00000 13.19120 4.00000
4.00000 13.19120 4.00000
4.00000 13.19120 4.00000
4.00000 13.19120 4.00000
4.00000 13.19120 4.00000
4.00000 13.19120 4.00000
4.00000 13.19120 4.00000
4.00000 13.19120 4.00000
4.00000 13.19120 4.00000
4.00000 13.19121 4.00000
4.00000 13.19121 4.00000
4.00000 13.19120 4.00000
4.00000 13.19120 4.00000
4.00216 13.20058 4.00216
4.01303 13.25343 4.01303
4.02259 13.31076 4.02259
4.03070 13.37285 4.03069
4.03722 13.43996 4.03722
4.04204 13.51231 4.04204
4.04507 13.59011 4.04508
4.04696 13.67138 4.04696
4.04878 13.75288 4.04878
4.05056 13.83456 4.05055
4.05230 13.91638 4.05230
4.05400 13.99833 4.05401
4.05569 14.08041 4.05569
4.05734 14.16260 4.05734
4.05897 14.24490 4.05897
4.06059 14.32729 4.06059
4.06218 14.40977 4.06218
4.06376 14.49233 4.06376
4.06533 14.57496 4.06533
4.06689 14.65766 4.06689
4.06843 14.74043 4.06843
4.06996 14.82327 4.06996
4.07149 14.90616 4.07149
4.07301 14.98910 4.07301
4.07452 15.07210 4.07452
4.07593 15.15541 4.07593
4.07710 15.23948 4.07710
4.07802 15.32426 4.07802
4.07872 15.40972 4.07872
4.07921 15.49582 4.07921
4.07949 15.58253 4.07949
4.07958 15.66981 4.07958
4.07950 15.75762 4.07950
4.07926 15.84591 4.07926
4.07886 15.93466 4.07886
4.07833 16.02383 4.07833
4.07768 16.11337 4.07768
4.07691 16.20326 4.07691
4.07605 16.29347 4.07605
4.07509 16.38396 4.07509
4.07406 16.47470 4.07406
4.07296 16.56566 4.07295
4.07179 16.65683 4.07179
4.07058 16.74816 4.07058
4.06932 16.83965 4.06932
4.06803 16.93127 4.06803
4.06671 17.02299 4.06671
4.06536 17.11481 4.06536
4.06400 17.20671 4.06400
4.06262 17.29866 4.06262
4.06124 17.39066 4.06124
4.05986 17.48270 4.05986
4.05847 17.57476 4.05847
4.05709 17.66683 4.05709
4.05572 17.75891 4.05572
4.05436 17.85098 4.05436
4.05301 17.94303 4.05301
4.05167 18.03507 4.05167
4.05035 18.12709 4.05035
4.04905 18.21907 4.04905
4.04777 18.31103 4.04777
4.04650 18.40294 4.04650
4.04526 18.49481 4.04526
4.04404 18.58664 4.04404
4.04285 18.67842 4.04285
4.04167 18.77015 4.04167
4.04052 18.86183 4.04052
4.03940 18.95347 4.03940
4.03830 19.04504 4.03830
4.03722 19.13657 4.03722
4.03617 19.22804 4.03617
4.03514 19.31946 4.03514
4.03414 19.41082 4.03414
4.03316 19.50213 4.03316
4.03220 19.59338 4.03220
4.03127 19.68458 4.03127
4.03036 19.77573 4.03036
4.02948 19.86683 4.02948
4.02862 19.95787 4.02862
4.02778 20.04886 4.02778
4.02696 20.13980 4.02696
4.02616 20.23069 4.02616
4.02539 20.32153 4.02539
4.02464 20.41233 4.02464
4.02390 20.50307 4.02390
4.02319 20.59377 4.02319
4.02250 20.68442 4.02250
4.02183 20.77504 4.02183
4.02117 20.86560 4.02117
4.02054 20.95613 4.02054
4.01992 21.04661 4.01992
4.01932 21.13706 4.01932
4.01874 21.22746 4.01874
4.01817 21.31783 4.01817
4.01762 21.40816 4.01762
4.01708 21.49846 4.01708
4.01657 21.58872 4.01657
4.01606 21.67895 4.01606
4.01557 21.76914 4.01557
4.01510 21.85931 4.01510
4.01464 21.94944 4.01464
4.01419 22.03954 4.01419
4.01376 22.12962 4.01376
4.01334 22.21967 4.01334
4.01293 22.30969 4.01293
4.01253 22.39968 4.01253
4.01215 22.48965 4.01215
4.01178 22.57960 4.01178
4.01141 22.66952 4.01141
4.01106 22.75942 4.01106
4.01072 22.84930 4.01072
4.01039 22.93915 4.01039
4.01007 23.02899 4.01007
4.00976 23.11881 4.00976
4.00946 23.20861 4.00946
4.00917 23.29840 4.00917
4.00889 23.38816 4.00889
4.00861 23.47791 4.00861
4.00835 23.56765 4.00834
4.00809 23.65736 4.00809
4.00784 23.74707 4.00784
4.00759 23.83676 4.00759
4.00736 23.92644 4.00736
4.00713 24.01610 4.00713
4.00691 24.10575 4.00691
4.00670 24.19539 4.00670
4.00649 24.28502 4.00649
4.00629 24.37464 4.00629
4.00609 24.46425 4.00609
4.00590 24.55385 4.00590
4.00572 24.64344 4.00572
4.00554 24.73302 4.00554
4.00537 24.82260 4.00537
4.00520 24.91217 4.00520
4.00504 25.00172 4.00504
4.00488 25.09128 4.00488
4.00473 25.18082 4.00473
4.00458 25.27036 4.00458
4.00444 25.35989 4.00444
4.00430 25.44942 4.00430
4.00417 25.53894 4.00417
4.00404 25.62846 4.00404
4.00391 25.71798 4.00391
4.00379 25.80749 4.00379
4.00367 25.89699 4.00367
4.00356 25.98650 4.00356
4.00345 26.07600 4.00345
4.00334 26.16549 4.00334
4.00323 26.25499 4.00324
4.00313 26.34448 4.00313

