Angle 0.363983 0.270586

4.00000 7.03348 4.00000
4.00000 7.03347 4.00000
4.00000 7.03348 4.00000
4.00000 7.03348 4.00000
4.00000 7.03348 4.00000
4.00000 7.03347 4.00000
4.00000 7.03348 4.00000
4.00000 7.03348 4.00000
4.00000 7.03348 4.00000
4.00000 7.03348 4.00000
4.00000 7.03347 4.00000
4.00000 7.03348 4.00000
4.00000 7.03348 4.00000
4.00000 7.03348 4.00000
4.00000 7.03347 4.00000
4.00000 7.03348 4.00000
4.00000 7.03348 4.00000
4.00000 7.03348 4.00000
4.00000 7.03348 4.00000
4.00000 7.03348 4.00000
4.00000 7.03347 4.00000
4.00000 7.03348 4.00000
4.00000 7.03348 4.00000
4.00000 7.03348 4.00000
4.00000 7.03348 4.00000
4.00000 7.03348 4.00000
4.00000 7.03347 4.00000
4.00000 7.03348 4.00000
4.00000 7.03349 4.00000
4.00000 7.03349 4.00000
4.00000 7.03349 4.00000
4.00000 7.03349 4.00000
4.00000 7.03350 4.00000
4.00000 7.03349 4.00000
4.00000 7.03348 4.00000
4.00000 7.03348 4.00000
4.00000 7.03348 4.00000
4.00000 7.03348 4.00000
4.00000 7.03349 4.00000
4.00000 7.03348 4.00000
4.00000 7.03348 4.00000
4.00000 7.03348 4.00000
4.00000 7.03348 4.00000
4.00000 7.03348 4.00000
4.00000 7.03348 4.00000
4.00000 7.03348 4.00000
4.00000 7.03348 4.00000
4.00000 7.03348 4.00000
4.00000 7.03348 4.00000
4.00000 7.03348 4.00000
4.00000 7.03348 4.00000
4.00000 7.03348 4.00000
4.00000 7.03348 4.00000
4.00000 7.03348 4.00000
4.00000 7.03348 4.00000
4.00000 7.03348 4.00000
4.00000 7.03348 4.00000
4.00000 7.03348 4.00000
4.00000 7.03348 4.00000
4.00000 7.03348 4.00000
4.00000 7.03348 4.00000
4.00000 7.03348 4.00000
4.00000 7.03348 4.00000
4.00000 7.03348 4.00000
4.00000 7.03348 4.00000
4.00000 7.03348 4.00000
4.00000 7.03348 4.00000
4.00000 7.03347 4.00000
4.00000 7.03348 4.00000
4.00000 7.03348 4.00000
4.00000 7.03348 4.00000
4.00000 7.03348 4.00000
4.00000 7.03348 4.00000
4.00000 7.03348 4.00000
4.00000 7.03348 4.00000
4.00000 7.03348 4.00000
4.00000 7.03348 4.00000
4.00000 7.03350 4.00000
4.00000 7.03349 4.00000
4.00000 7.03348 4.00000
4.00000 7.03348 4.00000
4.00000 7.03348 4.00000
4.00000 7.03348 4.00000
4.00000 7.03348 4.00000
4.00000 7.03348 4.00000
4.00000 7.03348 4.00000
4.00000 7.03348 4.00000
4.00000 7.03348 4.00000
4.00000 7.03348 4.00000
4.00000 7.03349 4.00000
4.00000 7.03348 4.00000
4.00000 7.03348 4.00000
4.00000 7.03348 4.00000
4.00000 7.03348 4.00000
4.00000 7.03348 4.00000
4.00004 7.03421 4.00005
4.00291 7.11427 4.00291
4.00573 7.19454 4.00572
4.00849 7.27503 4.00849
4.01121 7.35568 4.01121
4.01391 7.43647 4.01391
4.01659 7.51735 4.01659
4.01927 7.59829 4.01927
4.02195 7.67925 4.02195
4.02466 7.76017 4.02466
4.02741 7.84103 4.02741
4.03021 7.92177 4.03021
4.03308 8.00234 4.03308
4.03604 8.08268 4.03604
4.03912 8.16272 4.03912
4.04234 8.24237 4.04234
4.04574 8.32155 4.04574
4.04936 8.40014 4.04936
4.05324 8.47800 4.05324
4.05745 8.55496 4.05745
4.06207 8.63081 4.06207
4.06716 8.70533 4.06716
4.07270 8.77867 4.07270
4.07869 8.85081 4.07869
4.08516 8.92169 4.08516
4.09214 8.99128 4.09214
4.09963 9.05955 4.09963
4.10764 9.12650 4.10764
4.11618 9.19217 4.11618
4.12523 9.25663 4.12523
4.13474 9.31998 4.13474
4.14468 9.38241 4.14468
4.15496 9.44413 4.15496
4.16547 9.50545 4.16547
4.17607 9.56677 4.17607
4.18655 9.62859 4.18655
4.19666 9.69157 4.19666
4.20606 9.75659 4.20606
4.21429 9.82478 4.21429
4.22076 9.89764 4.22076
4.22468 9.97710 4.22468
4.22517 10.06545 4.22517
4.22252 10.16186 4.22252
4.21876 10.26120 4.21876
4.21397 10.36322 4.21397
4.20816 10.46793 4.20816
4.20130 10.57545 4.20130
4.19331 10.68604 4.19331
4.18402 10.80014 4.18402
4.17321 10.91847 4.17321
4.16047 11.04220 4.16047
4.14510 11.17340 4.14510
4.12570 11.31616 4.12570
4.09883 11.48081 4.09883
4.05135 11.70762 4.05135
4.00000 13.19120 4.00000
4.00000 13.19120 4.00000
4.00000 13.19120 4.00000
4.00000 13.19120 4.00000
4.00000 13.19120 4.00000
4.00000 13.19120 4.00000
4.00000 13.19120 4.00000
4.00000 13.19120 4.00000
4.00000 13.19121 4.00000
4.00000 13.19120 4.00000
4.00000 13.19120 4.00000
4.00000 13.19120 4.00000
4.00000 13.19120 4.00000
4.00000 13.19120 4.00000
4.00263 13.20268 4.00263
4.01382 13.25774 4.01382
4.02359 13.31761 4.02359
4.03178 13.38260 4.03178
4.03824 13.45299 4.03824
4.04287 13.52902 4.04287
4.04557 13.61084 4.04557
4.04749 13.69501 4.04749
4.04936 13.77936 4.04936
4.05118 13.86385 4.05118
4.05297 13.94848 4.05297
4.05472 14.03321 4.05472
4.05645 14.11805 4.05645
4.05814 14.20297 4.05814
4.05982 14.28798 4.05982
4.06147 14.37306 4.06147
4.06311 14.45821 4.06311
4.06473 14.54341 4.06473
4.06634 14.62867 4.06634
4.06794 14.71398 4.06794
4.06952 14.79934 4.06952
4.07110 14.88472 4.07110
4.07266 14.97015 4.07266
4.07422 15.05561 4.07422
4.07571 15.14128 4.07571
4.07695 15.22769 4.07695
4.07793 15.31485 4.07793
4.07868 15.40270 4.07867
4.07919 15.49123 4.07919
4.07948 15.58037 4.07949
4.07958 15.67009 4.07958
4.07949 15.76035 4.07950
4.07924 15.85111 4.07924
4.07882 15.94232 4.07882
4.07826 16.03395 4.07826
4.07758 16.12595 4.07758
4.07677 16.21830 4.07677
4.07587 16.31095 4.07587
4.07487 16.40387 4.07487
4.07379 16.49703 4.07379
4.07265 16.59039 4.07265
4.07144 16.68395 4.07144
4.07018 16.77766 4.07018
4.06888 16.87150 4.06888
4.06754 16.96545 4.06754
4.06617 17.05949 4.06617
4.06479 17.15361 4.06479
4.06338 17.24778 4.06339
4.06197 17.34199 4.06197
4.06056 17.43622 4.06056
4.05914 17.53047 4.05914
4.05772 17.62471 4.05772
4.05631 17.71895 4.05631
4.05492 17.81317 4.05492
4.05353 17.90736 4.05353
4.05216 18.00152 4.05216
4.05080 18.09564 4.05080
4.04946 18.18972 4.04946
4.04814 18.28374 4.04814
4.04685 18.37772 4.04685
4.04557 18.47163 4.04557
4.04432 18.56548 4.04432
4.04309 18.65927 4.04309
4.04189 18.75300 4.04189
4.04071 18.84666 4.04071
4.03956 18.94025 4.03956
4.03843 19.03377 4.03843
4.03733 19.12722 4.03733
4.03625 19.22060 4.03625
4.03520 19.31392 4.03520
4.03418 19.40716 4.03418
4.03318 19.50033 4.03318
4.03220 19.59343 4.03220
4.03125 19.68646 4.03125
4.03033 19.77943 4.03033
4.02943 19.87232 4.02943
4.02855 19.96515 4.02855
4.02769 20.05792 4.02770
4.02686 20.15061 4.02686
4.02606 20.24325 4.02606
4.02527 20.33582 4.02527
4.02451 20.42833 4.02451
4.02376 20.52078 4.02376
4.02304 20.61317 4.02304
4.02234 20.70550 4.02234
4.02166 20.79777 4.02166
4.02100 20.88999 4.02100
4.02036 20.98215 4.02036
4.01973 21.07426 4.01973
4.01913 21.16632 4.01913
4.01854 21.25833 4.01854
4.01797 21.35028 4.01797
4.01742 21.44219 4.01742
4.01688 21.53406 4.01688
4.01636 21.62587 4.01636
4.01585 21.71765 4.01585
4.01536 21.80937 4.01536
4.01488 21.90106 4.01488
4.01442 21.99271 4.01442
4.01397 22.08431 4.01397
4.01354 22.17588 4.01354
4.01312 22.26741 4.01312
4.01271 22.35890 4.01271
4.01231 22.45035 4.01231
4.01193 22.54177 4.01193
4.01156 22.63316 4.01156
4.01120 22.72452 4.01120
4.01085 22.81584 4.01085
4.01051 22.90713 4.01051
4.01018 22.99839 4.01018
4.00986 23.08963 4.00986
4.00955 23.18083 4.00955
4.00925 23.27201 4.00925
4.00896 23.36316 4.00896
4.00868 23.45429 4.00868
4.00841 23.54539 4.00841
4.00815 23.63647 4.00815
4.00789 23.72752 4.00789
4.00764 23.81855 4.00764
4.00740 23.90956 4.00740
4.00717 24.00055 4.00717
4.00694 24.09152 4.00694
4.00673 24.18246 4.00673
4.00651 24.27339 4.00651
4.00631 24.36430 4.00631
4.00611 24.45519 4.00611
4.00592 24.54607 4.00592
4.00573 24.63692 4.00573
4.00555 24.72776 4.00555
4.00538 24.81859 4.00538
4.00521 24.90940 4.00521
4.00504 25.00019 4.00504
4.00488 25.09097 4.00488
4.00473 25.18174 4.00473
4.00458 25.27249 4.00458
4.00444 25.36323 4.00444
4.00430 25.45396 4.00430
4.00416 25.54467 4.00416
4.00403 25.63538 4.00403
4.00390 25.72607 4.00390
4.00378 25.81675 4.00378
4.00366 25.90742 4.00366
4.00354 25.99808 4.00354
4.00343 26.08873 4.00343
4.00332 26.17937 4.00332
4.00322 26.27000 4.00322
4.00312 26.36063 4.00312
4.00302 26.45124 4.00302
4.00292 26.54185 4.00292
4.00283 26.63245 4.00283
4.00274 26.72304 4.00274
4.00265 26.81362 4.00265
4.00257 26.90420 4.00257
4.00249 26.99477 4.00249
4.00241 27.08533 4.00241
4.00233 27.17588 4.00233
4.00226 27.26643 4.00226
4.00219 27.35697 4.00219
4.00212 27.44751 4.00212
4.00205 27.53805 4.00205
4.00199 27.62857 4.00199
4.00192 27.71910 4.00192
4.00186 27.80961 4.00186
4.00180 27.90013 4.00180
4.00175 27.99063 4.00175
4.00169 28.08114 4.00169
4.00164 28.17164 4.00164
4.00159 28.26213 4.00158
4.00153 28.35262 4.00153
4.00149 28.44311 4.00149
4.00144 28.53359 4.00144
4.00139 28.62407 4.00139
4.00135 28.71455 4.00135
4.00131 28.80502 4.00131
4.00127 28.89549 4.00127
4.00122 28.98596 4.00123
4.00119 29.07642 4.00119
4.00115 29.16689 4.00115
4.00111 29.25734 4.00111
4.00108 29.34780 4.00108
4.00104 29.43825 4.00104
4.00101 29.52871 4.00101
4.00098 29.61915 4.00098
4.00095 29.70960 4.00095
4.00092 29.80004 4.00092
4.00089 29.89049 4.00089
4.00086 29.98094 4.00086
4.00083 30.07137 4.00083
4.00080 30.16181 4.00081
4.00078 30.25225 4.00078
4.00076 30.34268 4.00076
4.00073 30.43311 4.00073
4.00071 30.52355 4.00071
4.00069 30.61398 4.00069
4.00066 30.70441 4.00067
4.00064 30.79484 4.00065
4.00062 30.88527 4.00063
4.00060 30.97569 4.00060
4.00058 31.06611 4.00059
4.00056 31.15654 4.00057
4.00055 31.24696 4.00055
4.00053 31.33739 4.00053
4.00051 31.42780 4.00051
4.00050 31.51822 4.00050
4.00048 31.60864 4.00049
4.00046 31.69907 4.00047
4.00045 31.78949 4.00046
4.00043 31.87991 4.00044
4.00042 31.97033 4.00043
4.00041 32.06074 4.00041
4.00040 32.15115 4.00040
4.00038 32.24157 4.00039
4.00037 32.33199 4.00038
4.00036 32.42240 4.00037
4.00035 32.51282 4.00035
4.00034 32.60323 4.00034
4.00032 32.69365 4.00033
4.00031 32.78407 4.00032
4.00031 32.87448 4.00031
4.00030 32.96489 4.00030
4.00029 33.05530 4.00029
4.00028 33.14572 4.00028
4.00027 33.23613 4.00027
4.00026 33.32654 4.00027
4.00025 33.41696 4.00026
4.00024 33.50737 4.00025
4.00023 33.59779 4.00024
4.00023 33.68820 4.00024
4.00022 33.77862 4.00023
4.00021 33.86904 4.00021
4.00021 33.95945 4.00021
4.00020 34.04985 4.00020
4.00020 34.14027 4.00020
4.00019 34.23068 4.00019
4.00018 34.32109 4.00019
4.00018 34.41151 4.00018

Angle 0.014058 1.520195

4.00000 7.03348 4.00000
4.00000 7.03348 4.00000
4.00000 7.03348 4.00000
4.00000 7.03348 4.00000
4.00000 7.03348 4.00000
4.00000 7.03348 4.00000
4.00000 7.03348 4.00000
4.00000 7.03348 4.00000
4.00000 7.03348 4.00000
4.00000 7.03348 4.00000
4.00000 7.03348 4.00000
4.00000 7.03348 4.00000
4.00000 7.03348 4.00000
4.00000 7.03348 4.00000
4.00000 7.03348 4.00000
4.00000 7.03348 4.00000
4.00000 7.03348 4.00000
4.00000 7.03348 4.00000
4.00000 7.03348 4.00000
4.00000 7.03348 4.00000
4.00000 7.03348 4.00000
4.00000 7.03348 4.00000
4.00000 7.03348 4.00000
4.00000 7.03348 4.00000
4.00000 7.03348 4.00000
4.00000 7.03348 4.00000
4.00000 7.03348 4.00000
4.00000 7.03348 4.00000
4.00000 7.03348 4.00000
4.00000 7.03348 4.00000
4.00000 7.03348 4.00000
4.00000 7.03348 4.00000
4.00000 7.03348 4.00000
4.00000 7.03348 4.00000
4.00000 7.03348 4.00000
4.00000 7.03348 4.00000
4.00000 7.03348 4.00000
4.00000 7.03348 4.00000
4.00000 7.03347 4.00000
4.00000 7.03348 4.00000
4.00000 7.03348 4.00000
4.00000 7.03348 4.00000
4.00000 7.03348 4.00000
4.00000 7.03348 4.00000
4.00000 7.03348 4.00000
4.00000 7.03348 4.00000
4.00000 7.03348 4.00000
4.00000 7.03348 4.00000
4.00000 7.03348 4.00000
4.00000 7.03348 4.00000
4.00000 7.03348 4.00000
4.00000 7.03348 4.00000
4.00000 7.03348 4.00000
4.00000 7.03348 4.00000
4.00000 7.03348 4.00000
4.00000 7.03348 4.00000
4.00000 7.03348 4.00000
4.00000 7.03348 4.00000
4.00000 7.03348 4.00000
4.00000 7.03348 4.00000
4.00000 7.03348 4.00000
4.00000 7.03348 4.00000
4.00000 7.03348 4.00000
4.00000 7.03348 4.00000
4.00000 7.03348 4.00000
4.00000 7.03348 4.00000
4.00000 7.03348 4.00000
4.00000 7.03348 4.00000
4.00000 7.03348 4.00000
4.00000 7.03348 4.00000
4.00000 7.03348 4.00000
4.00000 7.03348 4.00000
4.00000 7.03348 4.00000
4.00000 7.03348 4.00000
4.00000 7.03348 4.00000
4.00000 7.03348 4.00000
4.00000 7.03348 4.00000
4.00000 7.03348 4.00000
4.00000 7.03348 4.00000
4.00000 7.03348 4.00000
4.00000 7.03348 4.00000
4.00000 7.03348 4.00000
4.00000 7.03348 4.00000
4.00000 7.03348 4.00000
4.00000 7.03348 4.00000
4.00000 7.03348 4.00000
4.00000 7.03348 4.00000
4.00000 7.03348 4.00000
4.00000 7.03348 4.00000
4.00000 7.03348 4.00000
4.00000 7.03348 4.00000
4.00000 7.03348 4.00000
4.00000 7.03348 4.00000
4.00000 7.03348 4.00000
4.00000 7.03347 4.00000
4.00000 7.03348 4.00000
4.00000 7.03348 4.00000
4.00000 7.03348 4.00000
4.00000 7.03348 4.00000
4.00000 7.03348 4.00000
4.00000 7.03348 4.00000
4.00000 7.03348 4.00000
4.00000 7.03348 4.00000
4.00000 7.03348 4.00000
4.00000 7.03348 4.00000
4.00000 7.03348 4.00000
4.00000 7.03348 4.00000
4.00000 7.03346 4.00000
4.00000 7.03348 4.00000
4.00000 7.03348 4.00000
4.00000 7.03348 4.00000
4.00000 7.03348 4.00000
4.00000 7.03348 4.00000
4.00000 7.03348 4.00000
4.00000 7.03348 4.00000
4.00000 7.03348 4.00000
4.00000 7.03350 4.00001
4.00000 7.03347 4.00000
4.00000 7.03346 4.00000
4.00000 7.03348 4.00000
4.00000 7.03354 4.00000
4.00028 7.04100 4.00027
4.00275 7.10991 4.00275
4.00519 7.17915 4.00519
4.00759 7.24869 4.00759
4.00996 7.31850 4.00996
4.01231 7.38856 4.01231
4.01465 7.45885 4.01465
4.01698 7.52932 4.01698
4.01932 7.59996 4.01932
4.02167 7.67074 4.02167
4.02404 7.74162 4.02404
4.02643 7.81258 4.02644
4.02887 7.88358 4.02887
4.03136 7.95458 4.03136
4.03392 8.02554 4.03392
4.03656 8.09643 4.03656
4.03930 8.16717 4.03930
4.04215 8.23773 4.04215
4.04514 8.30802 4.04514
4.04831 8.37796 4.04831
4.05168 8.44747 4.05168
4.05529 8.51641 4.05529
4.05920 8.58466 4.05920
4.06346 8.65203 4.06346
4.06812 8.71843 4.06812
4.07313 8.78400 4.07312
4.07851 8.84868 4.07851
4.08428 8.91243 4.08428
4.09047 8.97522 4.09047
4.09708 9.03701 4.09708
4.10412 9.09781 4.10412
4.11160 9.15763 4.11161
4.11952 9.21649 4.11952
4.12784 9.27445 4.12784
4.13656 9.33162 4.13656
4.14562 9.38811 4.14562
4.15496 9.44411 4.15496
4.16450 9.49983 4.16450
4.17414 9.55557 4.17414
4.18372 9.61171 4.18372
4.19308 9.66870 4.19308
4.20196 9.72716 4.20196
4.21007 9.78785 4.21007
4.21699 9.85179 4.21699
4.22222 9.92027 4.22222
4.22510 9.99489 4.22510
4.22494 10.07746 4.22494
4.22238 10.16629 4.22238
4.21891 10.25754 4.21891
4.21458 10.35114 4.21458
4.20939 10.44709 4.20939
4.20330 10.54547 4.20331
4.19628 10.64648 4.19628
4.18820 10.75040 4.18820
4.17892 10.85769 4.17892
4.16819 10.96911 4.16819
4.15559 11.08583 4.15559
4.14042 11.20992 4.14042
4.12131 11.34550 4.12130
4.09481 11.50283 4.09480
4.04761 11.72285 4.04761
4.00000 13.19120 4.00000
4.00000 13.19120 4.00000
4.00000 13.19120 4.00000
4.00000 13.19120 4.00000
4.00000 13.19120 4.00000
4.00000 13.19120 4.00000
4.00000 13.19120 4.00000
4.00000 13.19120 4.00000
4.00000 13.19120 4.00000
4.00000 13.19120 4.00000
4.00000 13.19120 4.00000
4.00000 13.19120 4.00000
4.00000 13.19120 4.00000
4.00000 13.19120 4.00000
4.00000 13.19120 4.00000
4.00235 13.20141 4.00235
4.01292 13.25282 4.01292
4.02225 13.30848 4.02225
4.03021 13.36865 4.03021
4.03669 13.43357 4.03669
4.04156 13.50346 4.04156
4.04475 13.57851 4.04475
4.04664 13.65749 4.04664
4.04842 13.73686 4.04842
4.05016 13.81642 4.05016
4.05187 13.89614 4.05187
4.05354 13.97601 4.05354
4.05519 14.05602 4.05519
4.05681 14.13616 4.05681
4.05841 14.21641 4.05841
4.05999 14.29678 4.05999
4.06156 14.37725 4.06156
4.06310 14.45782 4.06310
4.06464 14.53847 4.06464
4.06616 14.61922 4.06616
4.06768 14.70005 4.06768
4.06918 14.78095 4.06918
4.07068 14.86193 4.07068
4.07217 14.94297 4.07216
4.07365 15.02409 4.07365
4.07512 15.10529 4.07512
4.07640 15.18706 4.07640
4.07746 15.26955 4.07746
4.07828 15.35274 4.07828
4.07890 15.43658 4.07890
4.07931 15.52104 4.07931
4.07953 15.60608 4.07953
4.07958 15.69167 4.07958
4.07946 15.77778 4.07946
4.07919 15.86436 4.07919
4.07877 15.95139 4.07877
4.07823 16.03882 4.07823
4.07757 16.12663 4.07757
4.07681 16.21478 4.07681
4.07595 16.30324 4.07595
4.07500 16.39198 4.07500
4.07398 16.48098 4.07398
4.07290 16.57020 4.07290
4.07176 16.65963 4.07175
4.07056 16.74924 4.07056
4.06933 16.83901 4.06933
4.06806 16.92892 4.06806
4.06676 17.01894 4.06676
4.06544 17.10907 4.06544
4.06411 17.19929 4.06411
4.06276 17.28957 4.06276
4.06140 17.37992 4.06140
4.06004 17.47032 4.06004
4.05868 17.56075 4.05868
4.05733 17.65120 4.05733
4.05598 17.74168 4.05598
4.05464 17.83216 4.05464
4.05331 17.92264 4.05331
4.05199 18.01312 4.05199
4.05069 18.10359 4.05069
4.04940 18.19404 4.04940
4.04813 18.28447 4.04813
4.04689 18.37488 4.04689
4.04566 18.46526 4.04566
4.04445 18.55560 4.04445
4.04327 18.64592 4.04327
4.04210 18.73620 4.04210
4.04096 18.82644 4.04096
4.03985 18.91664 4.03985
4.03875 19.00681 4.03875
4.03769 19.09693 4.03768
4.03664 19.18701 4.03664
4.03562 19.27705 4.03562
4.03462 19.36704 4.03462
4.03364 19.45700 4.03364
4.03269 19.54691 4.03269
4.03176 19.63677 4.03176
4.03085 19.72660 4.03085
4.02997 19.81638 4.02997
4.02910 19.90612 4.02910
4.02826 19.99582 4.02826
4.02745 20.08548 4.02745
4.02665 20.17510 4.02665
4.02587 20.26468 4.02587
4.02512 20.35422 4.02512
4.02438 20.44372 4.02438
4.02367 20.53319 4.02367
4.02297 20.62262 4.02297
4.02229 20.71202 4.02229
4.02163 20.80138 4.02163
4.02099 20.89071 4.02099
4.02037 20.98000 4.02037
4.01977 21.06927 4.01977
4.01918 21.15850 4.01918
4.01861 21.24770 4.01861
4.01805 21.33688 4.01805
4.01751 21.42603 4.01751
4.01699 21.51515 4.01699
4.01648 21.60424 4.01648
4.01598 21.69331 4.01598
4.01550 21.78236 4.01550
4.01504 21.87138 4.01504
4.01458 21.96038 4.01458
4.01414 22.04936 4.01414
4.01372 22.13832 4.01372
4.01330 22.22726 4.01330
4.01290 22.31618 4.01290
4.01251 22.40508 4.01251
4.01213 22.49397 4.01213
4.01176 22.58283 4.01176
4.01141 22.67168 4.01141
4.01106 22.76052 4.01106
4.01072 22.84934 4.01072
4.01040 22.93815 4.01039
4.01008 23.02695 4.01008
4.00977 23.11573 4.00977
4.00947 23.20451 4.00947
4.00919 23.29326 4.00918
4.00890 23.38202 4.00890
4.00863 23.47076 4.00863
4.00837 23.55949 4.00837
4.00811 23.64821 4.00811
4.00786 23.73692 4.00786
4.00762 23.82563 4.00762
4.00739 23.91433 4.00739
4.00716 24.00303 4.00716
4.00694 24.09171 4.00694
4.00673 24.18039 4.00673
4.00653 24.26907 4.00652
4.00633 24.35774 4.00632
4.00613 24.44641 4.00613
4.00594 24.53507 4.00594
4.00576 24.62373 4.00576
4.00558 24.71239 4.00558
4.00541 24.80105 4.00541
4.00524 24.88970 4.00524
4.00508 24.97835 4.00508
4.00493 25.06700 4.00492
4.00477 25.15564 4.00477
4.00463 25.24429 4.00463
4.00448 25.33294 4.00448
4.00435 25.42158 4.00435
4.00421 25.51023 4.00421
4.00408 25.59888 4.00408
4.00396 25.68752 4.00396
4.00384 25.77617 4.00383
4.00371 25.86482 4.00371
4.00360 25.95347 4.00360
4.00349 26.04212 4.00349
4.00338 26.13077 4.00338
4.00328 26.21943 4.00328
4.00317 26.30808 4.00317
4.00308 26.39675 4.00308
4.00298 26.48541 4.00298
4.00289 26.57407 4.00289
4.00280 26.66274 4.00280
4.00271 26.75141 4.00271
4.00263 26.84009 4.00263
4.00255 26.92876 4.00255
4.00247 27.01745 4.00247
4.00239 27.10613 4.00239
4.00232 27.19482 4.00232
4.00225 27.28351 4.00225
4.00218 27.37221 4.00218
4.00211 27.46091 4.00211
4.00204 27.54962 4.00204
4.00198 27.63833 4.00198
4.00192 27.72704 4.00192
4.00186 27.81576 4.00186
4.00180 27.90448 4.00180
4.00175 27.99322 4.00175
4.00169 28.08195 4.00169
4.00164 28.17069 4.00164
4.00159 28.25944 4.00159
4.00154 28.34819 4.00154
4.00149 28.43694 4.00149
4.00144 28.52571 4.00145
4.00140 28.61447 4.00140
4.00136 28.70324 4.00136
4.00131 28.79202 4.00131
4.00127 28.88080 4.00127
4.00123 28.96959 4.00123
4.00120 29.05838 4.00119
4.00116 29.14719 4.00116
4.00112 29.23599 4.00112
4.00109 29.32480 4.00109
4.00105 29.41363 4.00105
4.00102 29.50244 4.00102
4.00099 29.59127 4.00099
4.00096 29.68011 4.00096
4.00093 29.76895 4.00093
4.00090 29.85780 4.00090
4.00087 29.94665 4.00087
4.00084 30.03551 4.00084
4.00082 30.12438 4.00082
4.00079 30.21325 4.00079
4.00077 30.30213 4.00077
4.00074 30.39101 4.00074
4.00072 30.47990 4.00072
4.00070 30.56880 4.00070
4.00068 30.65770 4.00068
4.00065 30.74661 4.00065
4.00063 30.83553 4.00063

Angle 0.639746 5.915248

4.00000 7.03348 4.00000
4.00000 7.03348 4.00000
4.00000 7.03348 4.00000
4.00000 7.03348 4.00000
4.00000 7.03348 4.00000
4.00000 7.03348 4.00000
4.00000 7.03347 4.00000
4.00000 7.03348 4.00000
4.00000 7.03348 4.00000
4.00000 7.03348 4.00000
4.00000 7.03348 4.00000
4.00000 7.03348 4.00000
4.00000 7.03348 4.00000
4.00000 7.03348 4.00000
4.00000 7.03348 4.00000
4.00000 7.03348 4.00000
4.00000 7.03349 4.00000
4.00000 7.03349 4.00000
4.00000 7.03348 4.00000
4.00000 7.03348 4.00000
4.00000 7.03348 4.00000
4.00000 7.03349 4.00000
4.00000 7.03349 4.00000
4.00000 7.03348 4.00000
4.00000 7.03348 4.00000
4.00000 7.03348 4.00000
4.00000 7.03348 4.00000
4.00000 7.03348 4.00000
4.00000 7.03348 4.00000
4.00000 7.03348 4.00000
4.00000 7.03348 4.00000
4.00000 7.03348 4.00000
4.00000 7.03348 4.00000
4.00000 7.03348 4.00000
4.00000 7.03348 4.00000
4.00000 7.03348 4.00000
4.00000 7.03349 4.00000
4.00000 7.03348 4.00000
4.00000 7.03348 4.00000
4.00000 7.03348 4.00000
4.00000 7.03348 4.00000
4.00000 7.03350 4.00000
4.00000 7.03348 4.00000
4.00000 7.03342 4.00000
4.00000 7.03350 4.00000
4.00072 7.05334 4.00072
4.00347 7.13026 4.00348
4.00617 7.20745 4.00617
4.00882 7.28488 4.00882
4.01144 7.36250 4.01144
4.01403 7.44028 4.01403
4.01662 7.51818 4.01662
4.01920 7.59618 4.01920
4.02178 7.67422 4.02178
4.02439 7.75229 4.02439
4.02704 7.83033 4.02704
4.02973 7.90829 4.02973
4.03249 7.98615 4.03249
4.03534 8.06383 4.03534
4.03828 8.14128 4.03828
4.04135 8.21843 4.04136
4.04459 8.29519 4.04459
4.04801 8.37147 4.04801
4.05166 8.44715 4.05166
4.05560 8.52208 4.05560
4.05989 8.59609 4.05989
4.06461 8.66894 4.06461
4.06976 8.74063 4.06976
4.07534 8.81124 4.07534
4.08135 8.88073 4.08135
4.08783 8.94903 4.08783
4.09479 9.01613 4.09479
4.10224 9.08200 4.10224
4.11019 9.14666 4.11019
4.11864 9.21015 4.11864
4.12756 9.27253 4.12756
4.13692 9.33393 4.13692
4.14667 9.39450 4.14667
4.15672 9.45448 4.15672
4.16698 9.51416 4.16698
4.17729 9.57391 4.17729
4.18748 9.63421 4.18748
4.19729 9.69571 4.19729
4.20641 9.75921 4.20641
4.21440 9.82579 4.21440
4.22070 9.89685 4.22070
4.22460 9.97420 4.22460
4.22525 10.05995 4.22525
4.22279 10.15375 4.22279
4.21921 10.25048 4.21921
4.21465 10.34980 4.21465
4.20912 10.45170 4.20912
4.20259 10.55628 4.20259
4.19500 10.66377 4.19500
4.18620 10.77453 4.18620
4.17601 10.88918 4.17601
4.16408 11.00868 4.16408
4.14985 11.13470 4.14985
4.13227 11.27035 4.13227
4.10894 11.42274 4.10894
4.07287 11.61312 4.07287
4.00000 13.19120 4.00000
4.00000 13.19120 4.00000
4.00000 13.19120 4.00000
4.00000 13.19120 4.00000
4.00000 13.19120 4.00000
4.00000 13.19120 4.00000
4.00000 13.19120 4.00000
4.00000 13.19120 4.00000
4.00000 13.19120 4.00000
4.00000 13.19120 4.00000
4.00000 13.19120 4.00000
4.00000 13.19120 4.00000
4.00000 13.19120 4.00000
4.00000 13.19120 4.00000
4.00000 13.19120 4.00000
4.00653 13.22063 4.00654
4.01708 13.27620 4.01708
4.02621 13.33652 4.02621
4.03378 13.40187 4.03378
4.03965 13.47252 4.03965
4.04371 13.54867 4.04371
4.04602 13.63015 4.04602
4.04789 13.71292 4.04789
4.04972 13.79588 4.04972
4.05151 13.87898 4.05151
4.05326 13.96221 4.05326
4.05498 14.04557 4.05498
4.05667 14.12903 4.05667
4.05833 14.21259 4.05833
4.05998 14.29624 4.05998
4.06161 14.37997 4.06161
4.06322 14.46378 4.06322
4.06481 14.54766 4.06481
4.06640 14.63159 4.06640
4.06797 14.71559 4.06797
4.06953 14.79964 4.06953
4.07108 14.88374 4.07108
4.07262 14.96789 4.07262
4.07416 15.05208 4.07416
4.07564 15.13645 4.07564
4.07687 15.22155 4.07687
4.07786 15.30739 4.07786
4.07861 15.39392 4.07861
4.07914 15.48111 4.07914
4.07946 15.56892 4.07946
4.07958 15.65730 4.07958
4.07952 15.74623 4.07952
4.07929 15.83566 4.07929
4.07891 15.92554 4.07891
4.07839 16.01585 4.07838
4.07773 16.10654 4.07773
4.07696 16.19758 4.07696
4.07609 16.28893 4.07609
4.07513 16.38056 4.07513
4.07408 16.47245 4.07409
4.07297 16.56455 4.07297
4.07179 16.65685 4.07179
4.07056 16.74932 4.07056
4.06929 16.84194 4.06929
4.06798 16.93468 4.06798
4.06664 17.02752 4.06664
4.06528 17.12045 4.06528
4.06390 17.21344 4.06390
4.06251 17.30649 4.06251
4.06111 17.39957 4.06111
4.05971 17.49268 4.05971
4.05831 17.58581 4.05831
4.05691 17.67893 4.05691
4.05552 17.77205 4.05552
4.05415 17.86516 4.05415
4.05279 17.95825 4.05279
4.05144 18.05130 4.05144
4.05011 18.14433 4.05011
4.04879 18.23731 4.04879
4.04750 18.33026 4.04750
4.04623 18.42315 4.04623
4.04498 18.51600 4.04498
4.04375 18.60878 4.04376
4.04255 18.70153 4.04255
4.04137 18.79421 4.04137
4.04021 18.88683 4.04021
4.03909 18.97938 4.03909
4.03798 19.07189 4.03798
4.03690 19.16433 4.03690
4.03584 19.25671 4.03584
4.03481 19.34902 4.03481
4.03381 19.44128 4.03381
4.03283 19.53347 4.03283
4.03187 19.62560 4.03187
4.03094 19.71767 4.03094
4.03003 19.80968 4.03003
4.02915 19.90162 4.02915
4.02829 19.99351 4.02829
4.02745 20.08534 4.02745
4.02663 20.17712 4.02663
4.02584 20.26884 4.02584
4.02506 20.36050 4.02506
4.02431 20.45211 4.02431
4.02358 20.54366 4.02358
4.02287 20.63516 4.02287
4.02218 20.72661 4.02218
4.02151 20.81801 4.02151
4.02086 20.90937 4.02086
4.02023 21.00067 4.02023
4.01962 21.09193 4.01961
4.01902 21.18314 4.01902
4.01844 21.27431 4.01844
4.01788 21.36544 4.01788
4.01733 21.45652 4.01733
4.01680 21.54756 4.01680
4.01629 21.63857 4.01629
4.01579 21.72953 4.01579
4.01530 21.82046 4.01530
4.01483 21.91135 4.01483
4.01438 22.00221 4.01438
4.01393 22.09303 4.01393
4.01350 22.18382 4.01350
4.01309 22.27457 4.01309
4.01268 22.36530 4.01268
4.01229 22.45599 4.01229
4.01191 22.54666 4.01191
4.01154 22.63730 4.01154
4.01118 22.72790 4.01118
4.01084 22.81849 4.01084
4.01050 22.90904 4.01050
4.01018 22.99958 4.01018
4.00986 23.09009 4.00986
4.00955 23.18057 4.00955
4.00926 23.27103 4.00926
4.00897 23.36147 4.00897
4.00869 23.45189 4.00869
4.00842 23.54229 4.00842
4.00816 23.63267 4.00816
4.00790 23.72303 4.00790
4.00766 23.81338 4.00766
4.00742 23.90370 4.00742
4.00719 23.99401 4.00719
4.00696 24.08430 4.00696
4.00675 24.17458 4.00674
4.00653 24.26484 4.00653
4.00633 24.35509 4.00633
4.00613 24.44532 4.00613
4.00594 24.53554 4.00594
4.00575 24.62574 4.00576
4.00557 24.71594 4.00557
4.00540 24.80612 4.00540
4.00523 24.89629 4.00523
4.00507 24.98645 4.00507
4.00491 25.07660 4.00491
4.00475 25.16674 4.00475
4.00461 25.25687 4.00461
4.00446 25.34699 4.00446
4.00432 25.43710 4.00432
4.00419 25.52720 4.00419
4.00405 25.61730 4.00405
4.00393 25.70738 4.00393
4.00380 25.79746 4.00380
4.00368 25.88753 4.00368
4.00357 25.97760 4.00357
4.00346 26.06766 4.00346
4.00335 26.15771 4.00335
4.00324 26.24776 4.00324
4.00314 26.33780 4.00314
4.00304 26.42783 4.00304
4.00295 26.51786 4.00295
4.00285 26.60789 4.00285
4.00276 26.69791 4.00276
4.00268 26.78793 4.00268
4.00259 26.87794 4.00259
4.00251 26.96795 4.00251
4.00243 27.05796 4.00243
4.00236 27.14796 4.00236
4.00228 27.23796 4.00228
4.00221 27.32795 4.00221
4.00214 27.41795 4.00214
4.00207 27.50794 4.00207
4.00201 27.59792 4.00201
4.00195 27.68791 4.00195
4.00188 27.77789 4.00188
4.00182 27.86788 4.00183
4.00177 27.95785 4.00177
4.00171 28.04783 4.00171
4.00166 28.13781 4.00166
4.00161 28.22779 4.00160
4.00155 28.31776 4.00155
4.00151 28.40773 4.00150
4.00146 28.49771 4.00146
4.00141 28.58768 4.00141
4.00137 28.67765 4.00137
4.00132 28.76761 4.00133
4.00128 28.85758 4.00128
4.00124 28.94755 4.00124
4.00120 29.03752 4.00120
4.00117 29.12749 4.00117
4.00113 29.21746 4.00113
4.00109 29.30743 4.00109
4.00106 29.39739 4.00106
4.00102 29.48736 4.00102
4.00099 29.57733 4.00099
4.00096 29.66730 4.00096
4.00093 29.75727 4.00093
4.00090 29.84724 4.00090
4.00087 29.93721 4.00087
4.00085 30.02717 4.00085
4.00082 30.11715 4.00082
4.00079 30.20712 4.00079
4.00077 30.29709 4.00077
4.00074 30.38707 4.00074
4.00072 30.47704 4.00072
4.00070 30.56701 4.00070
4.00067 30.65699 4.00068
4.00065 30.74697 4.00066
4.00063 30.83694 4.00063
4.00061 30.92692 4.00061
4.00059 31.01691 4.00060
4.00057 31.10689 4.00058
4.00056 31.19687 4.00056
4.00054 31.28685 4.00054
4.00052 31.37683 4.00052
4.00051 31.46682 4.00051
4.00049 31.55681 4.00049
4.00047 31.64680 4.00048
4.00046 31.73679 4.00046
4.00044 31.82678 4.00045
4.00043 31.91677 4.00043
4.00042 32.00677 4.00042
4.00040 32.09677 4.00041
4.00039 32.18676 4.00039
4.00038 32.27676 4.00038
4.00037 32.36677 4.00037
4.00035 32.45677 4.00036
4.00034 32.54677 4.00035
4.00033 32.63678 4.00034
4.00032 32.72679 4.00033
4.00031 32.81680 4.00032
4.00030 32.90681 4.00031
4.00029 32.99682 4.00030
4.00028 33.08683 4.00029
4.00027 33.17685 4.00028
4.00026 33.26687 4.00027
4.00026 33.35689 4.00026
4.00025 33.44691 4.00025
4.00024 33.53693 4.00025
4.00023 33.62696 4.00024
4.00022 33.71698 4.00023
4.00022 33.80701 4.00022
4.00021 33.89704 4.00022
4.00020 33.98707 4.00021
4.00020 34.07711 4.00020
4.00019 34.16714 4.00020
4.00018 34.25718 4.00019
4.00018 34.34722 4.00019
4.00017 34.43726 4.00018
4.00017 34.52730 4.00018
4.00016 34.61735 4.00017
4.00016 34.70739 4.00016
4.00015 34.79744 4.00016
4.00015 34.88749 4.00015
4.00014 34.97754 4.00015
4.00014 35.06759 4.00015
4.00013 35.15765 4.00014
4.00013 35.24771 4.00014
4.00013 35.33776 4.00013
4.00012 35.42783 4.00013
4.00012 35.51789 4.00012
4.00011 35.60795 4.00012
4.00011 35.69802 4.00012
4.00011 35.78808 4.00011
4.00010 35.87815 4.00011
4.00010 35.96823 4.00011
4.00010 36.05830 4.00010
4.00009 36.14837 4.00010
4.00009 36.23845 4.00010
4.00009 36.32853 4.00009
4.00009 36.41861 4.00009
4.00008 36.50869 4.00009
4.00008 36.59877 4.00009
4.00008 36.68886 4.00008
4.00008 36.77895 4.00008
4.00007 36.86904 4.00008
4.00007 36.95913 4.00008
4.00007 37.04922 4.00007
4.00007 37.13931 4.00007
4.00006 37.22941 4.00007
4.00006 37.31951 4.00007
4.00006 37.40961 4.00006
4.00006 37.49971 4.00006
4.00006 37.58982 4.00006
4.00006 37.67992 4.00006
4.00005 37.77003 4.00005
4.00005 37.86014 4.00005
4.00005 37.95025 4.00005
4.00005 38.04036 4.00005
4.00005 38.13047 4.00005
4.00005 38.22059 4.00005
4.00004 38.31070 4.00004
4.00004 38.40082 4.00004
4.00004 38.49094 4.00004
4.00004 38.58106 4.00004

Angle 0.413770 2.644256

4.00000 7.03348 4.00000
4.00000 7.03348 4.00000
4.00000 7.03348 4.00000
4.00000 7.03348 4.00000
4.00000 7.03348 4.00000
4.00000 7.03348 4.00000
4.00000 7.03348 4.00000
4.00000 7.03348 4.00000
4.00000 7.03348 4.00000
4.00000 7.03348 4.00000
4.00000 7.03348 4.00000
4.00000 7.03348 4.00000
4.00000 7.03348 4.00000
4.00000 7.03348 4.00000
4.00000 7.03348 4.00000
4.00000 7.03348 4.00000
4.00000 7.03348 4.00000
4.00000 7.03348 4.00000
4.00000 7.03348 4.00000
4.00000 7.03348 4.00000
4.00000 7.03348 4.00000
4.00000 7.03348 4.00000
4.00000 7.03348 4.00000
4.00000 7.03347 4.00000
4.00000 7.03348 4.00000
4.00000 7.03348 4.00000
4.00000 7.03348 4.00000
4.00000 7.03348 4.00000
4.00000 7.03348 4.00000
4.00000 7.03348 4.00000
4.00000 7.03348 4.00000
4.00000 7.03348 4.00000
4.00000 7.03347 4.00000
4.00000 7.03348 4.00000
4.00000 7.03347 4.00000
4.00000 7.03348 4.00000
4.00000 7.03347 4.00000
4.00000 7.03348 4.00000
4.00000 7.03348 4.00000
4.00000 7.03348 4.00000
4.00000 7.03348 4.00000
4.00000 7.03348 4.00000
4.00000 7.03348 4.00000
4.00000 7.03348 4.00000
4.00000 7.03348 4.00000
4.00000 7.03348 4.00000
4.00000 7.03346 4.00000
4.00000 7.03348 4.00000
4.00000 7.03348 4.00000
4.00000 7.03347 4.00000
4.00000 7.03348 4.00000
4.00000 7.03348 4.00000
4.00000 7.03347 4.00000
4.00000 7.03346 4.00000
4.00000 7.03348 4.00000
4.00000 7.03348 4.00000
4.00000 7.03348 4.00000
4.00000 7.03348 4.00000
4.00000 7.03348 4.00000
4.00000 7.03348 4.00000
4.00000 7.03348 4.00000
4.00000 7.03348 4.00000
4.00000 7.03348 4.00000
4.00000 7.03348 4.00000
4.00000 7.03348 4.00000
4.00000 7.03348 4.00000
4.00000 7.03348 4.00000
4.00000 7.03348 4.00000
4.00000 7.03348 4.00000
4.00000 7.03348 4.00000
4.00000 7.03348 4.00000
4.00000 7.03348 4.00000
4.00000 7.03348 4.00000
4.00000 7.03348 4.00000
4.00000 7.03348 4.00000
4.00000 7.03348 4.00000
4.00000 7.03348 4.00000
4.00000 7.03348 4.00000
4.00000 7.03348 4.00000
4.00000 7.03348 4.00000
4.00000 7.03348 4.00000
4.00000 7.03348 4.00000
4.00000 7.03349 4.00000
4.00000 7.03348 4.00000
4.00000 7.03348 4.00000
4.00000 7.03348 4.00000
4.00000 7.03348 4.00000
4.00000 7.03347 4.00000
4.00000 7.03347 4.00000
4.00000 7.03347 4.00000
4.00000 7.03347 4.00000
4.00000 7.03347 4.00000
4.00000 7.03348 4.00000
4.00000 7.03348 4.00000
4.00000 7.03348 4.00000
4.00000 7.03348 4.00000
4.00000 7.03348 4.00000
4.00000 7.03348 4.00000
4.00000 7.03348 4.00000
4.00000 7.03348 4.00000
4.00000 7.03348 4.00000
4.00000 7.03348 4.00000
4.00000 7.03348 4.00000
4.00000 7.03348 4.00000
4.00000 7.03348 4.00000
4.00000 7.03348 4.00000
4.00000 7.03348 4.00000
4.00000 7.03348 4.00000
4.00000 7.03347 4.00000
4.00000 7.03348 4.00000
4.00000 7.03348 4.00000
4.00000 7.03348 4.00000
4.00000 7.03348 4.00000
4.00000 7.03348 4.00000
4.00000 7.03348 4.00000
4.00000 7.03348 4.00000
4.00000 7.03348 4.00000
4.00000 7.03348 4.00000
4.00000 7.03348 4.00000
4.00000 7.03348 4.00000
4.00000 7.03348 4.00000
4.00000 7.03348 4.00000
4.00000 7.03348 4.00000
4.00000 7.03348 4.00000
4.00000 7.03348 4.00000
4.00000 7.03348 4.00000
4.00000 7.03347 4.00000
4.00000 7.03348 4.00000
4.00000 7.03348 4.00000
4.00000 7.03348 4.00000
4.00000 7.03348 4.00000
4.00000 7.03348 4.00000
4.00000 7.03348 4.00000
4.00000 7.03348 4.00000
4.00000 7.03348 4.00000
4.00000 7.03348 4.00000
4.00000 7.03348 4.00000
4.00000 7.03348 4.00000
4.00000 7.03348 4.00000
4.00000 7.03348 4.00000
4.00000 7.03348 4.00000
4.00000 7.03348 4.00000
4.00000 7.03348 4.00000
4.00000 7.03348 4.00000
4.00000 7.03348 4.00000
4.00000 7.03348 4.00000
4.00000 7.03348 4.00000
4.00000 7.03348 4.00000
4.00000 7.03348 4.00000
4.00000 7.03348 4.00000
4.00000 7.03348 4.00000
4.00000 7.03348 4.00000
4.00000 7.03348 4.00000
4.00000 7.03348 4.00000
4.00000 7.03348 4.00000
4.00000 7.03348 4.00000
4.00000 7.03348 4.00000
4.00000 7.03348 4.00000
4.00000 7.03348 4.00000
4.00000 7.03348 4.00000
4.00000 7.03348 4.00000
4.00000 7.03348 4.00000
4.00000 7.03348 4.00000
4.00000 7.03348 4.00000
4.00000 7.03348 4.00000
4.00000 7.03348 4.00000
4.00000 7.03348 4.00000
4.00000 7.03348 4.00000
4.00000 7.03348 4.00000
4.00000 7.03349 4.00000
4.00000 7.03349 4.00000
4.00000 7.03348 4.00000
4.00000 7.03348 4.00000
4.00000 7.03347 4.00000
4.00000 7.03347 4.00000
4.00000 7.03348 4.00000
4.00000 7.03348 4.00000
4.00000 7.03348 4.00000
4.00000 7.03348 4.00000
4.00000 7.03349 4.00000
4.00000 7.03348 4.00000
4.00000 7.03348 4.00000
4.00000 7.03348 4.00000
4.00000 7.03348 4.00000
4.00000 7.03348 4.00000
4.00000 7.03348 4.00000
4.00000 7.03348 4.00000
4.00000 7.03348 4.00000
4.00000 7.03348 4.00000
4.00000 7.03348 4.00000
4.00000 7.03348 4.00000
4.00000 7.03348 4.00000
4.00000 7.03348 4.00000
4.00000 7.03348 4.00000
4.00000 7.03348 4.00000
4.00000 7.03349 4.00000
4.00000 7.03347 4.00000
4.00000 7.03348 4.00000
4.00000 7.03348 4.00000
4.00000 7.03348 4.00000
4.00000 7.03348 4.00000
4.00000 7.03348 4.00000
4.00000 7.03348 4.00000
4.00000 7.03348 4.00000
4.00000 7.03348 4.00000
4.00009 7.03605 4.00009
4.00294 7.11513 4.00294
4.00572 7.19448 4.00572
4.00846 7.27404 4.00846
4.01115 7.35379 4.01115
4.01382 7.43368 4.01382
4.01647 7.51367 4.01647
4.01911 7.59373 4.01911
4.02177 7.67382 4.02177
4.02445 7.75390 4.02445
4.02716 7.83393 4.02716
4.02993 7.91385 4.02993
4.03276 7.99362 4.03276
4.03568 8.07319 4.03568
4.03872 8.15247 4.03872
4.04189 8.23140 4.04189
4.04523 8.30989 4.04523
4.04877 8.38783 4.04877
4.05257 8.46509 4.05257
4.05668 8.54150 4.05668
4.06118 8.61686 4.06118
4.06614 8.69095 4.06614
4.07154 8.76387 4.07154
4.07738 8.83562 4.07738
4.08369 8.90615 4.08369
4.09049 8.97543 4.09049
4.09779 9.04342 4.09780
4.10562 9.11012 4.10562
4.11396 9.17555 4.11396
4.12280 9.23978 4.12280
4.13212 9.30289 4.13212
4.14187 9.36505 4.14187
4.15198 9.42645 4.15198
4.16235 9.48736 4.16235
4.17286 9.54816 4.17286
4.18332 9.60928 4.18332
4.19350 9.67134 4.19350
4.20310 9.73511 4.20310
4.21171 9.80160 4.21171
4.21880 9.87216 4.21880
4.22366 9.94854 4.22366
4.22545 10.03288 4.22545
4.22363 10.12651 4.22363
4.22027 10.22415 4.22027
4.21589 10.32447 4.21589
4.21051 10.42743 4.21051
4.20411 10.53310 4.20411
4.19663 10.64170 4.19663
4.18794 10.75357 4.18794
4.17786 10.86929 4.17786
4.16606 10.98979 4.16606
4.15200 11.11667 4.15200
4.13469 11.25287 4.13469
4.11189 11.40498 4.11189
4.07726 11.59227 4.07726
4.00000 13.19120 4.00000
4.00000 13.19120 4.00000
4.00000 13.19120 4.00000
4.00000 13.19120 4.00000
4.00000 13.19120 4.00000
4.00000 13.19120 4.00000
4.00000 13.19120 4.00000
4.00000 13.19120 4.00000
4.00000 13.19120 4.00000
4.00000 13.19120 4.00000
4.00000 13.19120 4.00000
4.00000 13.19119 4.00000
4.00000 13.19120 4.00000
4.00000 13.19120 4.00000
4.00000 13.19121 4.00000
4.00799 13.22762 4.00799
4.01848 13.28455 4.01848
4.02750 13.34638 4.02750
4.03489 13.41341 4.03489
4.04052 13.48590 4.04052
4.04428 13.56406 4.04428
4.04641 13.64716 4.04641
4.04829 13.73099 4.04829
4.05013 13.81497 4.05013
4.05193 13.89910 4.05193
4.05369 13.98335 4.05370
4.05543 14.06771 4.05543
4.05713 14.15217 4.05713
4.05881 14.23672 4.05881
4.06047 14.32135 4.06047
4.06211 14.40605 4.06211
4.06373 14.49082 4.06373
4.06534 14.57565 4.06534
4.06694 14.66053 4.06694
4.06852 14.74547 4.06852
4.07010 14.83044 4.07010
4.07166 14.91546 4.07166
4.07322 15.00052 4.07322
4.07477 15.08562 4.07477
4.07617 15.17114 4.07617
4.07732 15.25743 4.07732
4.07821 15.34445 4.07821
4.07887 15.43217 4.07887
4.07931 15.52052 4.07931
4.07954 15.60948 4.07954
4.07957 15.69900 4.07957
4.07943 15.78905 4.07943
4.07912 15.87958 4.07912
4.07866 15.97055 4.07866
4.07807 16.06192 4.07807
4.07735 16.15366 4.07735
4.07652 16.24573 4.07652
4.07559 16.33810 4.07559
4.07457 16.43073 4.07457
4.07347 16.52359 4.07347
4.07231 16.61665 4.07231
4.07109 16.70989 4.07109
4.06983 16.80328 4.06982
4.06852 16.89680 4.06852
4.06718 16.99043 4.06718
4.06581 17.08414 4.06581
4.06443 17.17792 4.06443
4.06303 17.27176 4.06303
4.06162 17.36563 4.06162
4.06021 17.45953 4.06021
4.05879 17.55344 4.05879
4.05738 17.64735 4.05738
4.05598 17.74125 4.05598
4.05459 17.83513 4.05459
4.05321 17.92899 4.05321
4.05185 18.02282 4.05185
4.05050 18.11661 4.05050
4.04917 18.21035 4.04917
4.04786 18.30405 4.04786
4.04657 18.39769 4.04657
4.04531 18.49128 4.04531
4.04407 18.58481 4.04407
4.04285 18.67828 4.04285
4.04165 18.77169 4.04165
4.04048 18.86503 4.04048
4.03934 18.95831 4.03934
4.03822 19.05152 4.03822
4.03713 19.14466 4.03713
4.03606 19.23774 4.03606
4.03502 19.33074 4.03502
4.03400 19.42369 4.03400
4.03301 19.51656 4.03301
4.03204 19.60936 4.03204
4.03110 19.70210 4.03110
4.03018 19.79477 4.03018
4.02928 19.88738 4.02928
4.02841 19.97992 4.02841
4.02756 20.07240 4.02756
4.02674 20.16482 4.02674
4.02594 20.25717 4.02594
4.02516 20.34947 4.02516
4.02440 20.44170 4.02440
4.02366 20.53388 4.02366
4.02294 20.62599 4.02295
4.02225 20.71806 4.02225
4.02157 20.81007 4.02157
4.02091 20.90202 4.02091
4.02028 20.99392 4.02028
4.01966 21.08578 4.01966
4.01906 21.17758 4.01906
4.01847 21.26933 4.01847
4.01790 21.36103 4.01790
4.01735 21.45269 4.01735
4.01682 21.54430 4.01682
4.01630 21.63587 4.01630
4.01580 21.72740 4.01580
4.01531 21.81889 4.01531
4.01484 21.91033 4.01484
4.01438 22.00174 4.01438
4.01393 22.09311 4.01393
4.01350 22.18444 4.01350
4.01308 22.27573 4.01308
4.01268 22.36699 4.01268
4.01228 22.45821 4.01228
4.01190 22.54941 4.01190
4.01153 22.64057 4.01153
4.01117 22.73170 4.01117
4.01082 22.82279 4.01082
4.01048 22.91387 4.01048
4.01016 23.00490 4.01016
4.00984 23.09592 4.00984
4.00953 23.18690 4.00953
4.00923 23.27787 4.00923
4.00895 23.36880 4.00895
4.00867 23.45972 4.00867
4.00840 23.55061 4.00840
4.00813 23.64147 4.00813
4.00788 23.73232 4.00788
4.00763 23.82314 4.00763
4.00739 23.91394 4.00739
4.00716 24.00472 4.00716
4.00693 24.09549 4.00693
4.00672 24.18623 4.00672
4.00651 24.27696 4.00651
4.00630 24.36767 4.00630

Angle 0.085531 2.534303

4.00000 7.03348 4.00000
4.00000 7.03348 4.00000
4.00000 7.03348 4.00000
4.00000 7.03348 4.00000
4.00000 7.03348 4.00000
4.00000 7.03348 4.00000
4.00000 7.03348 4.00000
4.00000 7.03348 4.00000
4.00000 7.03348 4.00000
4.00000 7.03346 4.00000
4.00000 7.03346 4.00000
4.00000 7.03348 4.00000
4.00000 7.03348 4.00000
4.00000 7.03348 4.00000
4.00000 7.03348 4.00000
4.00000 7.03348 4.00000
4.00000 7.03347 4.00000
4.00000 7.03348 4.00000
4.00000 7.03348 4.00000
4.00000 7.03348 4.00000
4.00000 7.03348 4.00000
4.00000 7.03348 4.00000
4.00000 7.03348 4.00000
4.00000 7.03348 4.00000
4.00000 7.03348 4.00000
4.00000 7.03348 4.00000
4.00000 7.03348 4.00000
4.00000 7.03348 4.00000
4.00000 7.03348 4.00000
4.00000 7.03348 4.00000
4.00000 7.03348 4.00000
4.00000 7.03348 4.00000
4.00000 7.03348 4.00000
4.00000 7.03348 4.00000
4.00000 7.03348 4.00000
4.00000 7.03348 4.00000
4.00000 7.03348 4.00000
4.00000 7.03348 4.00000
4.00000 7.03348 4.00000
4.00000 7.03348 4.00000
4.00000 7.03348 4.00000
4.00000 7.03348 4.00000
4.00000 7.03348 4.00000
4.00000 7.03348 4.00000
4.00000 7.03347 4.00000
4.00000 7.03348 4.00000
4.00000 7.03348 4.00000
4.00000 7.03348 4.00000
4.00000 7.03348 4.00000
4.00000 7.03348 4.00000
4.00000 7.03348 4.00000
4.00000 7.03348 4.00000
4.00000 7.03348 4.00000
4.00000 7.03348 4.00000
4.00000 7.03348 4.00000
4.00000 7.03348 4.00000
4.00000 7.03348 4.00000
4.00000 7.03348 4.00000
4.00000 7.03348 4.00000
4.00000 7.03348 4.00000
4.00000 7.03348 4.00000
4.00000 7.03348 4.00000
4.00000 7.03348 4.00000
4.00000 7.03348 4.00000
4.00000 7.03348 4.00000
4.00000 7.03348 4.00000
4.00000 7.03348 4.00000
4.00000 7.03348 4.00000
4.00000 7.03347 4.00000
4.00000 7.03348 4.00000
4.00000 7.03348 4.00000
4.00000 7.03348 4.00000
4.00000 7.03348 4.00000
4.00000 7.03348 4.00000
4.00000 7.03348 4.00000
4.00000 7.03348 4.00000
4.00000 7.03348 4.00000
4.00000 7.03348 4.00000
4.00000 7.03348 4.00000
4.00000 7.03348 4.00000
4.00000 7.03348 4.00000
4.00000 7.03348 4.00000
4.00000 7.03348 4.00000
4.00000 7.03348 4.00000
4.00000 7.03348 4.00000
4.00000 7.03348 4.00000
4.00000 7.03348 4.00000
4.00000 7.03348 4.00000
4.00000 7.03347 4.00000
4.00000 7.03347 4.00000
4.00000 7.03348 4.00000
4.00000 7.03348 4.00000
4.00000 7.03348 4.00000
4.00000 7.03348 4.00000
4.00000 7.03348 4.00000
4.00000 7.03348 4.00000
4.00000 7.03348 4.00000
4.00000 7.03348 4.00000
4.00000 7.03348 4.00000
4.00000 7.03348 4.00000
4.00000 7.03348 4.00000
4.00000 7.03348 4.00000
4.00000 7.03348 4.00000
4.00000 7.03348 4.00000
4.00000 7.03348 4.00000
4.00000 7.03348 4.00000
4.00000 7.03348 4.00000
4.00000 7.03348 4.00000
4.00000 7.03348 4.00000
4.00000 7.03348 4.00000
4.00000 7.03348 4.00000
4.00000 7.03348 4.00000
4.00000 7.03348 4.00000
4.00000 7.03348 4.00000
4.00000 7.03348 4.00000
4.00000 7.03348 4.00000
4.00000 7.03348 4.00000
4.00000 7.03348 4.00000
4.00000 7.03348 4.00000
4.00000 7.03348 4.00000
4.00000 7.03348 4.00000
4.00000 7.03348 4.00000
4.00000 7.03348 4.00000
4.00000 7.03348 4.00000
4.00000 7.03348 4.00000
4.00000 7.03348 4.00000
4.00000 7.03348 4.00000
4.00000 7.03348 4.00000
4.00000 7.03348 4.00000
4.00000 7.03348 4.00000
4.00000 7.03348 4.00000
4.00000 7.03348 4.00000
4.00000 7.03348 4.00000
4.00000 7.03348 4.00000
4.00000 7.03348 4.00000
4.00000 7.03348 4.00000
4.00000 7.03348 4.00000
4.00000 7.03348 4.00000
4.00000 7.03348 4.00000
4.00000 7.03348 4.00000
4.00000 7.03348 4.00000
4.00000 7.03348 4.00000
4.00000 7.03348 4.00000
4.00000 7.03348 4.00000
4.00000 7.03348 4.00000
4.00000 7.03348 4.00000
4.00000 7.03348 4.00000
4.00000 7.03348 4.00000
4.00000 7.03348 4.00000
4.00000 7.03348 4.00000
4.00000 7.03348 4.00000
4.00000 7.03348 4.00000
4.00000 7.03348 4.00000
4.00000 7.03348 4.00000
4.00000 7.03348 4.00000
4.00000 7.03348 4.00000
4.00000 7.03348 4.00000
4.00000 7.03348 4.00000
4.00000 7.03348 4.00000
4.00000 7.03348 4.00000
4.00000 7.03348 4.00000
4.00000 7.03348 4.00000
4.00000 7.03347 4.00000
4.00000 7.03348 4.00000
4.00000 7.03348 4.00000
4.00000 7.03348 4.00000
4.00000 7.03348 4.00000
4.00000 7.03348 4.00000
4.00000 7.03348 4.00000
4.00000 7.03348 4.00000
4.00000 7.03348 4.00000
4.00000 7.03348 4.00000
4.00000 7.03348 4.00000
4.00000 7.03348 4.00000
4.00000 7.03348 4.00000
4.00000 7.03348 4.00000
4.00000 7.03348 4.00000
4.00000 7.03348 4.00000
4.00000 7.03348 4.00000
4.00000 7.03348 4.00000
4.00000 7.03348 4.00000
4.00000 7.03348 4.00000
4.00000 7.03348 4.00000
4.00000 7.03348 4.00000
4.00000 7.03348 4.00000
4.00000 7.03348 4.00000
4.00000 7.03348 4.00000
4.00000 7.03350 4.00000
4.00000 7.03351 4.00000
4.00000 7.03348 4.00000
4.00000 7.03348 4.00000
4.00000 7.03348 4.00000
4.00000 7.03348 4.00000
4.00000 7.03348 4.00000
4.00000 7.03348 4.00000
4.00000 7.03348 4.00000
4.00000 7.03348 4.00000
4.00000 7.03348 4.00000
4.00000 7.03348 4.00000
4.00000 7.03348 4.00000
4.00000 7.03348 4.00000
4.00000 7.03348 4.00000
4.00000 7.03348 4.00000
4.00000 7.03348 4.00000
4.00259 7.10532 4.00259
4.00533 7.18306 4.00533
4.00801 7.26104 4.00801
4.01066 7.33923 4.01066
4.01328 7.41758 4.01328
4.01588 7.49606 4.01588
4.01848 7.57463 4.01848
4.02109 7.65325 4.02109
4.02371 7.73190 4.02371
4.02636 7.81052 4.02636
4.02906 7.88908 4.02906
4.03183 7.96752 4.03183
4.03467 8.04580 4.03467
4.03761 8.12385 4.03761
4.04067 8.20160 4.04067
4.04389 8.27898 4.04389
4.04729 8.35588 4.04729
4.05092 8.43220 4.05092
4.05482 8.50777 4.05482
4.05906 8.58245 4.05906
4.06372 8.65600 4.06373
4.06884 8.72833 4.06884
4.07438 8.79957 4.07438
4.08036 8.86967 4.08036
4.08680 8.93858 4.08680
4.09372 9.00627 4.09372
4.10115 9.07271 4.10115
4.10908 9.13791 4.10908
4.11751 9.20192 4.11751
4.12642 9.26480 4.12642
4.13578 9.32666 4.13578
4.14554 9.38766 4.14554
4.15562 9.44802 4.15562
4.16592 9.50804 4.16592
4.17629 9.56808 4.17629
4.18655 9.62864 4.18656
4.19647 9.69032 4.19647
4.20570 9.75395 4.20570
4.21384 9.82058 4.21384
4.22032 9.89162 4.22032
4.22443 9.96886 4.22443
4.22532 10.05444 4.22532
4.22296 10.14840 4.22296
4.21942 10.24546 4.21942
4.21488 10.34513 4.21488
4.20937 10.44741 4.20937
4.20285 10.55238 4.20285
4.19526 10.66026 4.19526
4.18646 10.77143 4.18646
4.17626 10.88649 4.17626
4.16432 11.00643 4.16432
4.15007 11.13288 4.15007
4.13246 11.26900 4.13246
4.10908 11.42189 4.10908
4.07290 11.61295 4.07290
4.00000 13.19120 4.00000
4.00000 13.19120 4.00000
4.00000 13.19120 4.00000
4.00000 13.19120 4.00000
4.00000 13.19120 4.00000
4.00000 13.19120 4.00000
4.00000 13.19120 4.00000
4.00000 13.19120 4.00000
4.00000 13.19120 4.00000
4.00000 13.19120 4.00000
4.00000 13.19120 4.00000
4.00000 13.19120 4.00000
4.00000 13.19120 4.00000
4.00000 13.19120 4.00000
4.00000 13.19121 4.00000
4.00724 13.22401 4.00724
4.01774 13.28009 4.01774
4.02680 13.34097 4.02680
4.03428 13.40693 4.03428
4.04003 13.47824 4.04003
4.04396 13.55512 4.04396
4.04618 13.63716 4.04618
4.04806 13.72025 4.04805
4.04988 13.80350 4.04988
4.05167 13.88689 4.05167
4.05343 13.97042 4.05343
4.05515 14.05407 4.05515
4.05684 14.13782 4.05684
4.05851 14.22167 4.05851
4.06016 14.30560 4.06016
4.06179 14.38962 4.06179
4.06341 14.47370 4.06341
4.06501 14.55785 4.06501
4.06659 14.64206 4.06659
4.06817 14.72633 4.06817
4.06973 14.81065 4.06973
4.07129 14.89501 4.07129
4.07283 14.97942 4.07283
4.07437 15.06387 4.07437
4.07583 15.14858 4.07583
4.07703 15.23404 4.07703
4.07799 15.32023 4.07799
4.07871 15.40712 4.07870
4.07920 15.49466 4.07920
4.07949 15.58281 4.07949
4.07958 15.67154 4.07958
4.07949 15.76080 4.07949
4.07924 15.85056 4.07924
4.07883 15.94077 4.07883
4.07828 16.03139 4.07828
4.07761 16.12239 4.07761
4.07682 16.21373 4.07682
4.07593 16.30538 4.07593
4.07494 16.39731 4.07494
4.07388 16.48948 4.07388
4.07275 16.58187 4.07275
4.07156 16.67444 4.07156
4.07032 16.76718 4.07032
4.06904 16.86006 4.06904
4.06772 16.95306 4.06772
4.06637 17.04615 4.06637
4.06500 17.13933 4.06500
4.06361 17.23256 4.06361
4.06222 17.32585 4.06222
4.06081 17.41917 4.06081
4.05941 17.51251 4.05941
4.05801 17.60586 4.05801
4.05661 17.69921 4.05661
4.05522 17.79255 4.05522
4.05384 17.88587 4.05384
4.05248 17.97917 4.05248
4.05113 18.07244 4.05113
4.04980 18.16567 4.04980
4.04849 18.25885 4.04849
4.04720 18.35200 4.04720
4.04593 18.44509 4.04593
4.04468 18.53813 4.04468
4.04346 18.63112 4.04346
4.04226 18.72404 4.04226
4.04108 18.81691 4.04108
4.03993 18.90972 4.03993
4.03881 19.00247 4.03880
4.03771 19.09515 4.03771
4.03663 19.18777 4.03663
4.03558 19.28033 4.03558
4.03455 19.37282 4.03455
4.03355 19.46525 4.03355
4.03257 19.55762 4.03257
4.03162 19.64992 4.03162
4.03070 19.74216 4.03070
4.02979 19.83434 4.02979
4.02891 19.92646 4.02891
4.02806 20.01851 4.02805
4.02722 20.11051 4.02722
4.02641 20.20245 4.02641
4.02562 20.29433 4.02562
4.02485 20.38616 4.02485
4.02411 20.47793 4.02411
4.02338 20.56964 4.02338
4.02268 20.66130 4.02267
4.02199 20.75291 4.02199
4.02132 20.84447 4.02132
4.02068 20.93598 4.02068
4.02005 21.02744 4.02005
4.01944 21.11885 4.01944
4.01885 21.21022 4.01885
4.01827 21.30154 4.01827
4.01771 21.39282 4.01771
4.01717 21.48405 4.01717
4.01664 21.57525 4.01664
4.01613 21.66640 4.01613
4.01564 21.75751 4.01564
4.01515 21.84859 4.01516
4.01469 21.93962 4.01469
4.01424 22.03062 4.01424
4.01380 22.12159 4.01380
4.01337 22.21252 4.01337
4.01296 22.30342 4.01296
4.01256 22.39429 4.01256
4.01217 22.48513 4.01217
4.01179 22.57594 4.01179
4.01142 22.66671 4.01142
4.01107 22.75746 4.01107
4.01073 22.84818 4.01073
4.01039 22.93888 4.01039
4.01007 23.02955 4.01007
4.00976 23.12019 4.00976
4.00945 23.21081 4.00945
4.00916 23.30141 4.00916
4.00887 23.39199 4.00887
4.00860 23.48254 4.00860
4.00833 23.57307 4.00833
4.00807 23.66359 4.00807
4.00782 23.75408 4.00782
4.00757 23.84455 4.00757
4.00734 23.93501 4.00734
4.00711 24.02545 4.00711
4.00689 24.11587 4.00689
4.00667 24.20627 4.00667
4.00646 24.29666 4.00646
4.00626 24.38704 4.00626

Angle 0.598304 4.981176

4.00000 7.03348 4.00000
4.00000 7.03348 4.00000
4.00000 7.03348 4.00000
4.00000 7.03348 4.00000
4.00000 7.03348 4.00000
4.00000 7.03348 4.00000
4.00000 7.03348 4.00000
4.00000 7.03348 4.00000
4.00000 7.03348 4.00000
4.00000 7.03348 4.00000
4.00000 7.03348 4.00000
4.00000 7.03348 4.00000
4.00000 7.03348 4.00000
4.00000 7.03348 4.00000
4.00000 7.03348 4.00000
4.00000 7.03348 4.00000
4.00000 7.03348 4.00000
4.00000 7.03348 4.00000
4.00000 7.03348 4.00000
4.00000 7.03348 4.00000
4.00000 7.03348 4.00000
4.00000 7.03348 4.00000
4.00000 7.03348 4.00000
4.00000 7.03348 4.00000
4.00000 7.03348 4.00000
4.00000 7.03348 4.00000
4.00000 7.03347 4.00000
4.00000 7.03348 4.00000
4.00000 7.03348 4.00000
4.00000 7.03348 4.00000
4.00000 7.03348 4.00000
4.00000 7.03348 4.00000
4.00000 7.03348 4.00000
4.00000 7.03348 4.00000
4.00000 7.03348 4.00000
4.00000 7.03348 4.00000
4.00000 7.03348 4.00000
4.00000 7.03348 4.00000
4.00000 7.03348 4.00000
4.00000 7.03348 4.00000
4.00000 7.03348 4.00000
4.00000 7.03348 4.00000
4.00000 7.03348 4.00000
4.00000 7.03348 4.00000
4.00000 7.03348 4.00000
4.00000 7.03348 4.00000
4.00000 7.03348 4.00000
4.00000 7.03348 4.00000
4.00000 7.03348 4.00000
4.00000 7.03348 4.00000
4.00000 7.03348 4.00000
4.00000 7.03348 4.00000
4.00000 7.03348 4.00000
4.00000 7.03348 4.00000
4.00000 7.03348 4.00000
4.00000 7.03348 4.00000
4.00000 7.03348 4.00000
4.00000 7.03348 4.00000
4.00000 7.03348 4.00000
4.00000 7.03348 4.00000
4.00000 7.03348 4.00000
4.00000 7.03348 4.00000
4.00000 7.03348 4.00000
4.00000 7.03348 4.00000
4.00000 7.03348 4.00000
4.00000 7.03348 4.00000
4.00000 7.03348 4.00000
4.00000 7.03348 4.00000
4.00000 7.03348 4.00000
4.00000 7.03348 4.00000
4.00000 7.03348 4.00000
4.00000 7.03348 4.00000
4.00000 7.03348 4.00000
4.00000 7.03348 4.00000
4.00000 7.03348 4.00000
4.00000 7.03348 4.00000
4.00000 7.03348 4.00000
4.00000 7.03348 4.00000
4.00000 7.03348 4.00000
4.00000 7.03348 4.00000
4.00000 7.03348 4.00000
4.00000 7.03348 4.00000
4.00000 7.03348 4.00000
4.00000 7.03348 4.00000
4.00000 7.03348 4.00000
4.00000 7.03348 4.00000
4.00000 7.03348 4.00000
4.00000 7.03348 4.00000
4.00000 7.03347 4.00000
4.00000 7.03348 4.00000
4.00027 7.04089 4.00027
4.00270 7.10843 4.00270
4.00509 7.17632 4.00509
4.00745 7.24451 4.00745
4.00978 7.31300 4.00978
4.01209 7.38174 4.01209
4.01438 7.45072 4.01438
4.01667 7.51990 4.01667
4.01897 7.58927 4.01897
4.02127 7.65879 4.02127
4.02359 7.72844 4.02359
4.02594 7.79818 4.02595
4.02833 7.86799 4.02833
4.03077 7.93782 4.03077
4.03327 8.00765 4.03327
4.03584 8.07742 4.03584
4.03851 8.14709 4.03851
4.04128 8.21661 4.04128
4.04418 8.28591 4.04418
4.04724 8.35492 4.04724
4.05049 8.42354 4.05049
4.05396 8.49168 4.05396
4.05770 8.55920 4.05770
4.06176 8.62596 4.06176
4.06620 8.69178 4.06620
4.07099 8.75678 4.07099
4.07614 8.82094 4.07614
4.08167 8.88423 4.08167
4.08759 8.94660 4.08759
4.09391 9.00804 4.09391
4.10066 9.06851 4.10066
4.10783 9.12803 4.10783
4.11543 9.18661 4.11543
4.12344 9.24429 4.12344
4.13185 9.30115 4.13185
4.14062 9.35728 4.14062
4.14970 9.41285 4.14970
4.15903 9.46802 4.15903
4.16852 9.52306 4.16852
4.17804 9.57826 4.17804
4.18745 9.63402 4.18745
4.19655 9.69084 4.19655
4.20508 9.74937 4.20508
4.21272 9.81043 4.21272
4.21904 9.87509 4.21904
4.22349 9.94472 4.22349
4.22542 10.02095 4.22542
4.22423 10.10531 4.22423
4.22141 10.19397 4.22141
4.21772 10.28497 4.21772
4.21319 10.37828 4.21319
4.20780 10.47392 4.20780
4.20154 10.57199 4.20154
4.19432 10.67271 4.19432
4.18605 10.77639 4.18605
4.17654 10.88355 4.17654
4.16552 10.99498 4.16552
4.15255 11.11199 4.15255
4.13686 11.23686 4.13686
4.11682 11.37438 4.11682
4.08837 11.53680 4.08837
4.02949 11.79216 4.02949
4.00000 13.19120 4.00000
4.00000 13.19120 4.00000
4.00000 13.19120 4.00000
4.00000 13.19120 4.00000
4.00000 13.19120 4.00000
4.00000 13.19120 4.00000
4.00000 13.19120 4.00000
4.00000 13.19120 4.00000
4.00000 13.19120 4.00000
4.00000 13.19120 4.00000
4.00000 13.19120 4.00000
4.00000 13.19120 4.00000
4.00000 13.19120 4.00000
4.00000 13.19120 4.00000
4.00000 13.19120 4.00000
4.00286 13.20369 4.00286
4.01330 13.25488 4.01329
4.02252 13.31027 4.02252
4.03038 13.37011 4.03038
4.03678 13.43464 4.03678
4.04160 13.50408 4.04160
4.04475 13.57861 4.04475
4.04663 13.65702 4.04663
4.04840 13.73582 4.04840
4.05013 13.81481 4.05013
4.05182 13.89397 4.05182
4.05349 13.97328 4.05349
4.05512 14.05273 4.05512
4.05673 14.13232 4.05673
4.05832 14.21202 4.05832
4.05989 14.29185 4.05989
4.06145 14.37178 4.06145
4.06299 14.45181 4.06299
4.06452 14.53193 4.06452
4.06603 14.61215 4.06603
4.06754 14.69245 4.06754
4.06903 14.77284 4.06903
4.07052 14.85330 4.07052
4.07200 14.93383 4.07200
4.07347 15.01444 4.07347
4.07494 15.09512 4.07494
4.07625 15.17630 4.07625
4.07732 15.25820 4.07732
4.07818 15.34079 4.07818
4.07882 15.42405 4.07882
4.07926 15.50792 4.07926
4.07951 15.59238 4.07951
4.07958 15.67740 4.07958
4.07949 15.76293 4.07949
4.07924 15.84894 4.07924
4.07886 15.93540 4.07886
4.07834 16.02227 4.07834
4.07771 16.10952 4.07771
4.07697 16.19712 4.07697
4.07613 16.28504 4.07613
4.07521 16.37325 4.07521
4.07421 16.46172 4.07421
4.07314 16.55043 4.07314
4.07202 16.63935 4.07202
4.07084 16.72845 4.07084
4.06962 16.81772 4.06963
4.06837 16.90713 4.06837
4.06709 16.99667 4.06709
4.06578 17.08633 4.06578
4.06445 17.17607 4.06445
4.06311 17.26589 4.06311
4.06177 17.35578 4.06177
4.06041 17.44572 4.06041
4.05906 17.53570 4.05906
4.05771 17.62571 4.05771
4.05636 17.71575 4.05636
4.05503 17.80580 4.05503
4.05370 17.89586 4.05370
4.05238 17.98592 4.05238
4.05108 18.07597 4.05108
4.04980 18.16601 4.04980
4.04853 18.25604 4.04853
4.04728 18.34604 4.04728
4.04605 18.43603 4.04605
4.04485 18.52598 4.04485
4.04366 18.61591 4.04366
4.04249 18.70581 4.04249
4.04135 18.79567 4.04135
4.04023 18.88550 4.04023
4.03913 18.97528 4.03913
4.03806 19.06504 4.03806
4.03701 19.15475 4.03701
4.03598 19.24443 4.03598
4.03498 19.33406 4.03498
4.03400 19.42366 4.03400
4.03304 19.51321 4.03304
4.03211 19.60273 4.03211
4.03119 19.69221 4.03119
4.03031 19.78165 4.03031
4.02944 19.87104 4.02944
4.02859 19.96040 4.02859
4.02777 20.04973 4.02777
4.02697 20.13901 4.02697
4.02618 20.22826 4.02619
4.02543 20.31747 4.02542
4.02468 20.40665 4.02468
4.02396 20.49579 4.02396
4.02326 20.58489 4.02326
4.02258 20.67397 4.02258
4.02192 20.76301 4.02192
4.02127 20.85203 4.02127
4.02064 20.94101 4.02064
4.02003 21.02996 4.02003
4.01944 21.11888 4.01944
4.01886 21.20778 4.01886
4.01830 21.29665 4.01830
4.01776 21.38549 4.01776
4.01723 21.47431 4.01723
4.01671 21.56311 4.01671
4.01621 21.65188 4.01621
4.01573 21.74062 4.01573
4.01526 21.82935 4.01525
4.01480 21.91806 4.01480
4.01435 22.00675 4.01435
4.01392 22.09542 4.01392
4.01350 22.18407 4.01350
4.01310 22.27270 4.01310
4.01270 22.36132 4.01270
4.01232 22.44992 4.01232
4.01194 22.53851 4.01195
4.01158 22.62708 4.01158
4.01123 22.71564 4.01123
4.01089 22.80418 4.01089
4.01056 22.89272 4.01056
4.01024 22.98124 4.01024
4.00993 23.06975 4.00993
4.00963 23.15825 4.00963
4.00934 23.24674 4.00934
4.00905 23.33522 4.00905
4.00877 23.42369 4.00878
4.00851 23.51216 4.00851
4.00825 23.60062 4.00825
4.00800 23.68908 4.00800
4.00775 23.77752 4.00775
4.00752 23.86596 4.00752
4.00729 23.95440 4.00729
4.00706 24.04283 4.00706
4.00685 24.13126 4.00685
4.00664 24.21968 4.00664
4.00644 24.30810 4.00644
4.00624 24.39651 4.00624
4.00605 24.48493 4.00605
4.00586 24.57334 4.00586
4.00568 24.66175 4.00568
4.00550 24.75016 4.00551
4.00534 24.83857 4.00534
4.00518 24.92697 4.00518
4.00502 25.01538 4.00502
4.00486 25.10379 4.00486
4.00471 25.19219 4.00471
4.00457 25.28060 4.00457
4.00443 25.36901 4.00443
4.00429 25.45742 4.00429
4.00416 25.54583 4.00416
4.00403 25.63424 4.00403
4.00391 25.72266 4.00391
4.00379 25.81107 4.00379
4.00367 25.89949 4.00367
4.00356 25.98792 4.00356
4.00345 26.07634 4.00345
4.00334 26.16477 4.00334
4.00324 26.25320 4.00324
4.00314 26.34164 4.00314
4.00304 26.43008 4.00304
4.00295 26.51852 4.00295
4.00286 26.60697 4.00286
4.00277 26.69542 4.00277
4.00268 26.78387 4.00268
4.00260 26.87233 4.00260
4.00252 26.96080 4.00252
4.00244 27.04927 4.00244
4.00237 27.13774 4.00237
4.00229 27.22622 4.00229
4.00222 27.31471 4.00222
4.00215 27.40320 4.00215
4.00209 27.49169 4.00209
4.00202 27.58019 4.00202
4.00196 27.66870 4.00196
4.00190 27.75721 4.00190
4.00184 27.84573 4.00184
4.00178 27.93425 4.00178
4.00173 28.02278 4.00173
4.00168 28.11132 4.00167
4.00162 28.19986 4.00162
4.00157 28.28841 4.00157
4.00153 28.37696 4.00152
4.00148 28.46553 4.00147
4.00143 28.55410 4.00143
4.00138 28.64267 4.00139
4.00134 28.73125 4.00134
4.00130 28.81984 4.00130
4.00126 28.90843 4.00126
4.00122 28.99703 4.00122
4.00118 29.08564 4.00118
4.00115 29.17426 4.00115
4.00111 29.26288 4.00111
4.00108 29.35150 4.00108
4.00104 29.44014 4.00104
4.00101 29.52878 4.00101
4.00098 29.61742 4.00098
4.00095 29.70609 4.00095
4.00092 29.79474 4.00092
4.00089 29.88341 4.00089
4.00086 29.97209 4.00087
4.00084 30.06077 4.00084
4.00081 30.14946 4.00081
4.00078 30.23816 4.00078
4.00076 30.32687 4.00076
4.00074 30.41558 4.00074
4.00071 30.50429 4.00071
4.00069 30.59302 4.00069
4.00067 30.68175 4.00067
4.00065 30.77049 4.00065
4.00063 30.85924 4.00063
4.00061 30.94799 4.00061
4.00059 31.03675 4.00059
4.00057 31.12552 4.00057
4.00055 31.21429 4.00056
4.00054 31.30308 4.00054
4.00052 31.39186 4.00052
4.00050 31.48066 4.00050
4.00049 31.56946 4.00049
4.00047 31.65827 4.00047
4.00046 31.74709 4.00046
4.00044 31.83591 4.00044
4.00043 31.92474 4.00043
4.00042 32.01358 4.00042
4.00040 32.10242 4.00040
4.00039 32.19127 4.00040
4.00038 32.28013 4.00038
4.00037 32.36899 4.00037
4.00036 32.45787 4.00036
4.00035 32.54674 4.00035
4.00033 32.63563 4.00033
4.00032 32.72452 4.00033
4.00031 32.81342 4.00031
4.00030 32.90232 4.00031
4.00029 32.99124 4.00029
4.00029 33.08016 4.00028
4.00028 33.16908 4.00028
4.00027 33.25802 4.00027
4.00026 33.34695 4.00026
4.00025 33.43590 4.00025

Angle 0.409691 4.015222

4.00000 7.03348 4.00000
4.00000 7.03348 4.00000
4.00000 7.03349 4.00000
4.00000 7.03348 4.00000
4.00000 7.03346 4.00000
4.00000 7.03348 4.00000
4.00000 7.03348 4.00000
4.00000 7.03348 4.00000
4.00000 7.03348 4.00000
4.00000 7.03348 4.00000
4.00000 7.03348 4.00000
4.00000 7.03348 4.00000
4.00000 7.03348 4.00000
4.00000 7.03348 4.00000
4.00000 7.03348 4.00000
4.00000 7.03348 4.00000
4.00000 7.03348 4.00000
4.00000 7.03348 4.00000
4.00000 7.03348 4.00000
4.00000 7.03346 4.00000
4.00000 7.03348 4.00000
4.00000 7.03348 4.00000
4.00000 7.03348 4.00000
4.00000 7.03349 4.00000
4.00000 7.03348 4.00000
4.00000 7.03348 4.00000
4.00000 7.03348 4.00000
4.00000 7.03348 4.00000
4.00000 7.03348 4.00000
4.00000 7.03348 4.00000
4.00000 7.03348 4.00000
4.00000 7.03348 4.00000
4.00000 7.03348 4.00000
4.00000 7.03348 4.00000
4.00000 7.03348 4.00000
4.00000 7.03348 4.00000
4.00000 7.03348 4.00000
4.00000 7.03348 4.00000
4.00000 7.03348 4.00000
4.00000 7.03348 4.00000
4.00000 7.03348 4.00000
4.00000 7.03348 4.00000
4.00000 7.03348 4.00000
4.00000 7.03348 4.00000
4.00000 7.03348 4.00000
4.00000 7.03348 4.00000
4.00000 7.03348 4.00000
4.00000 7.03348 4.00000
4.00000 7.03348 4.00000
4.00000 7.03348 4.00000
4.00000 7.03348 4.00000
4.00000 7.03348 4.00000
4.00000 7.03348 4.00000
4.00000 7.03348 4.00000
4.00000 7.03348 4.00000
4.00000 7.03348 4.00000
4.00000 7.03348 4.00000
4.00000 7.03348 4.00000
4.00000 7.03348 4.00000
4.00000 7.03348 4.00000
4.00000 7.03348 4.00000
4.00000 7.03348 4.00000
4.00000 7.03347 4.00000
4.00000 7.03347 4.00000
4.00000 7.03348 4.00000
4.00000 7.03348 4.00000
4.00000 7.03348 4.00000
4.00000 7.03348 4.00000
4.00000 7.03348 4.00000
4.00000 7.03348 4.00000
4.00000 7.03348 4.00000
4.00000 7.03348 4.00000
4.00000 7.03348 4.00000
4.00000 7.03346 4.00000
4.00000 7.03348 4.00000
4.00000 7.03348 4.00000
4.00000 7.03348 4.00000
4.00000 7.03348 4.00000
4.00000 7.03348 4.00000
4.00000 7.03348 4.00000
4.00000 7.03348 4.00000
4.00000 7.03348 4.00000
4.00000 7.03348 4.00000
4.00000 7.03348 4.00000
4.00000 7.03348 4.00000
4.00000 7.03348 4.00000
4.00000 7.03348 4.00000
4.00000 7.03348 4.00000
4.00000 7.03348 4.00000
4.00000 7.03348 4.00000
4.00000 7.03348 4.00000
4.00000 7.03348 4.00000
4.00000 7.03348 4.00000
4.00000 7.03348 4.00000
4.00000 7.03348 4.00000
4.00000 7.03348 4.00000
4.00000 7.03348 4.00000
4.00000 7.03348 4.00000
4.00000 7.03348 4.00000
4.00000 7.03348 4.00000
4.00000 7.03348 4.00000
4.00000 7.03348 4.00000
4.00000 7.03348 4.00000
4.00000 7.03348 4.00000
4.00000 7.03348 4.00000
4.00000 7.03348 4.00000
4.00000 7.03348 4.00000
4.00000 7.03348 4.00000
4.00000 7.03348 4.00000
4.00000 7.03348 4.00000
4.00000 7.03348 4.00000
4.00000 7.03348 4.00000
4.00000 7.03348 4.00000
4.00000 7.03350 4.00000
4.00000 7.03348 4.00000
4.00000 7.03348 4.00000
4.00000 7.03348 4.00000
4.00000 7.03349 4.00000
4.00000 7.03348 4.00000
4.00000 7.03348 4.00000
4.00000 7.03348 4.00000
4.00000 7.03347 4.00000
4.00000 7.03348 4.00000
4.00000 7.03348 4.00000
4.00000 7.03348 4.00000
4.00000 7.03348 4.00000
4.00000 7.03348 4.00000
4.00000 7.03348 4.00000
4.00000 7.03349 4.00000
4.00000 7.03350 4.00000
4.00000 7.03347 4.00000
4.00000 7.03346 4.00000
4.00000 7.03348 4.00000
4.00000 7.03348 4.00000
4.00000 7.03348 4.00000
4.00000 7.03348 4.00000
4.00000 7.03347 4.00000
4.00000 7.03348 4.00000
4.00187 7.08506 4.00187
4.00435 7.15508 4.00435
4.00679 7.22541 4.00679
4.00920 7.29602 4.00920
4.01159 7.36688 4.01159
4.01396 7.43796 4.01396
4.01632 7.50923 4.01632
4.01868 7.58066 4.01868
4.02105 7.65223 4.02105
4.02344 7.72391 4.02344
4.02586 7.79565 4.02586
4.02831 7.86744 4.02831
4.03082 7.93923 4.03082
4.03339 8.01098 4.03339
4.03604 8.08264 4.03604
4.03878 8.15416 4.03878
4.04164 8.22549 4.04164
4.04464 8.29655 4.04464
4.04781 8.36727 4.04781
4.05118 8.43754 4.05118
4.05479 8.50725 4.05479
4.05870 8.57625 4.05869
4.06295 8.64439 4.06295
4.06761 8.71152 4.06761
4.07263 8.77778 4.07263
4.07803 8.84314 4.07803
4.08382 8.90755 4.08382
4.09003 8.97097 4.09003
4.09668 9.03338 4.09667
4.10376 9.09476 4.10376
4.11128 9.15514 4.11128
4.11924 9.21453 4.11925
4.12763 9.27301 4.12763
4.13641 9.33067 4.13641
4.14554 9.38763 4.14554
4.15495 9.44408 4.15495
4.16457 9.50025 4.16457
4.17429 9.55644 4.17429
4.18395 9.61302 4.18395
4.19336 9.67049 4.19336
4.20229 9.72945 4.20229
4.21042 9.79072 4.21042
4.21732 9.85533 4.21732
4.22247 9.92462 4.22247
4.22520 10.00025 4.22519
4.22478 10.08405 4.22478
4.22212 10.17372 4.22212
4.21856 10.26581 4.21856
4.21412 10.36028 4.21412
4.20880 10.45713 4.20880
4.20258 10.55645 4.20258
4.19539 10.65845 4.19539
4.18713 10.76343 4.18713
4.17762 10.87191 4.17762
4.16659 10.98468 4.16659
4.15360 11.10303 4.15360
4.13787 11.22926 4.13787
4.11781 11.36810 4.11781
4.08934 11.53180 4.08934
4.03109 11.78634 4.03109
4.00000 13.19120 4.00000
4.00000 13.19120 4.00000
4.00000 13.19120 4.00000
4.00000 13.19120 4.00000
4.00000 13.19120 4.00000
4.00000 13.19120 4.00000
4.00000 13.19120 4.00000
4.00000 13.19120 4.00000
4.00000 13.19120 4.00000
4.00000 13.19120 4.00000
4.00000 13.19120 4.00000
4.00000 13.19120 4.00000
4.00000 13.19121 4.00000
4.00000 13.19120 4.00000
4.00000 13.19120 4.00000
4.00518 13.21426 4.00518
4.01549 13.26702 4.01549
4.02452 13.32414 4.02452
4.03213 13.38588 4.03213
4.03821 13.45248 4.03821
4.04264 13.52415 4.04264
4.04534 13.60107 4.04535
4.04717 13.68069 4.04717
4.04895 13.76050 4.04895
4.05068 13.84048 4.05068
4.05239 13.92063 4.05239
4.05406 14.00092 4.05406
4.05570 14.08134 4.05570
4.05733 14.16188 4.05733
4.05893 14.24254 4.05893
4.06051 14.32330 4.06051
4.06207 14.40416 4.06208
4.06363 14.48512 4.06363
4.06516 14.56616 4.06516
4.06669 14.64728 4.06669
4.06821 14.72849 4.06821
4.06971 14.80976 4.06971
4.07121 14.89111 4.07121
4.07271 14.97252 4.07271
4.07419 15.05399 4.07419
4.07562 15.13567 4.07562
4.07683 15.21805 4.07683
4.07780 15.30114 4.07780
4.07854 15.38491 4.07854
4.07908 15.46933 4.07908
4.07942 15.55436 4.07942
4.07957 15.63996 4.07957
4.07955 15.72609 4.07955
4.07937 15.81272 4.07937
4.07903 15.89982 4.07903
4.07856 15.98734 4.07856
4.07797 16.07526 4.07797
4.07727 16.16354 4.07726
4.07646 16.25215 4.07646
4.07556 16.34106 4.07556
4.07457 16.43023 4.07457
4.07352 16.51965 4.07352
4.07240 16.60929 4.07240
4.07124 16.69912 4.07124
4.07002 16.78911 4.07002
4.06877 16.87926 4.06877
4.06748 16.96953 4.06748
4.06617 17.05991 4.06617
4.06483 17.15039 4.06483
4.06349 17.24094 4.06349
4.06213 17.33156 4.06213
4.06077 17.42223 4.06077
4.05940 17.51294 4.05940
4.05804 17.60368 4.05804
4.05668 17.69444 4.05668
4.05533 17.78521 4.05533
4.05399 17.87598 4.05399
4.05266 17.96674 4.05266
4.05135 18.05750 4.05135
4.05005 18.14824 4.05005
4.04877 18.23896 4.04877
4.04751 18.32966 4.04751
4.04627 18.42033 4.04627
4.04505 18.51096 4.04505
4.04385 18.60157 4.04385
4.04267 18.69213 4.04267
4.04151 18.78266 4.04152
4.04038 18.87315 4.04038
4.03928 18.96359 4.03928
4.03819 19.05399 4.03819
4.03713 19.14436 4.03713
4.03609 19.23467 4.03609
4.03508 19.32493 4.03508
4.03409 19.41516 4.03409
4.03312 19.50534 4.03313
4.03218 19.59547 4.03218
4.03126 19.68556 4.03126
4.03036 19.77561 4.03036
4.02949 19.86561 4.02949
4.02864 19.95557 4.02864
4.02781 20.04549 4.02781
4.02700 20.13536 4.02700
4.02621 20.22519 4.02621
4.02545 20.31498 4.02545
4.02470 20.40474 4.02470
4.02397 20.49445 4.02397
4.02327 20.58412 4.02327
4.02258 20.67376 4.02258
4.02191 20.76336 4.02191
4.02126 20.85293 4.02126
4.02063 20.94246 4.02063
4.02002 21.03195 4.02002
4.01942 21.12142 4.01942
4.01884 21.21085 4.01884
4.01828 21.30025 4.01828
4.01773 21.38963 4.01773
4.01720 21.47897 4.01720
4.01668 21.56829 4.01668
4.01618 21.65758 4.01618
4.01569 21.74684 4.01569
4.01522 21.83608 4.01522
4.01476 21.92530 4.01476
4.01431 22.01449 4.01431
4.01388 22.10366 4.01388
4.01346 22.19281 4.01346
4.01305 22.28193 4.01305
4.01266 22.37104 4.01266
4.01227 22.46013 4.01227
4.01190 22.54920 4.01190
4.01154 22.63825 4.01154
4.01119 22.72729 4.01119
4.01085 22.81631 4.01085
4.01052 22.90531 4.01052
4.01019 22.99430 4.01019
4.00988 23.08328 4.00988
4.00958 23.17224 4.00958
4.00929 23.26119 4.00929
4.00900 23.35013 4.00900
4.00873 23.43906 4.00873
4.00846 23.52797 4.00846
4.00820 23.61688 4.00820
4.00795 23.70578 4.00795
4.00771 23.79467 4.00771
4.00747 23.88355 4.00747
4.00724 23.97242 4.00724
4.00702 24.06128 4.00702
4.00680 24.15014 4.00680
4.00659 24.23899 4.00659
4.00639 24.32784 4.00639
4.00619 24.41668 4.00619
4.00600 24.50552 4.00600
4.00582 24.59434 4.00582
4.00564 24.68317 4.00564
4.00547 24.77199 4.00547
4.00530 24.86082 4.00530
4.00513 24.94963 4.00513
4.00497 25.03845 4.00497
4.00482 25.12726 4.00482
4.00467 25.21606 4.00467
4.00453 25.30487 4.00453
4.00439 25.39368 4.00439
4.00425 25.48248 4.00425
4.00412 25.57129 4.00412
4.00399 25.66010 4.00399
4.00387 25.74890 4.00387
4.00375 25.83770 4.00375
4.00363 25.92651 4.00363
4.00352 26.01531 4.00352
4.00341 26.10412 4.00341
4.00331 26.19292 4.00331
4.00320 26.28173 4.00321
4.00311 26.37054 4.00311
4.00301 26.45935 4.00301
4.00292 26.54817 4.00292
4.00283 26.63698 4.00283
4.00274 26.72580 4.00274
4.00265 26.81462 4.00265
4.00257 26.90344 4.00257
4.00249 26.99227 4.00249
4.00241 27.08110 4.00241
4.00234 27.16993 4.00234
4.00227 27.25876 4.00226
4.00220 27.34760 4.00220
4.00213 27.43644 4.00213
4.00206 27.52529 4.00206
4.00200 27.61414 4.00200
4.00193 27.70299 4.00193
4.00187 27.79184 4.00188
4.00182 27.88070 4.00182
4.00176 27.96957 4.00176
4.00171 28.05844 4.00171
4.00165 28.14731 4.00165
4.00160 28.23619 4.00160
4.00155 28.32507 4.00155
4.00150 28.41396 4.00150
4.00146 28.50285 4.00146
4.00141 28.59175 4.00141
4.00137 28.68065 4.00137
4.00132 28.76956 4.00132
4.00128 28.85847 4.00128
4.00124 28.94738 4.00124
4.00120 29.03630 4.00120
4.00117 29.12523 4.00117
4.00113 29.21416 4.00113
4.00110 29.30310 4.00109
4.00106 29.39204 4.00106
4.00103 29.48099 4.00103

Angle 0.718513 5.722875

4.00000 7.03348 4.00000
4.00000 7.03348 4.00000
4.00000 7.03348 4.00000
4.00000 7.03348 4.00000
4.00000 7.03348 4.00000
4.00000 7.03347 4.00000
4.00000 7.03348 4.00000
4.00000 7.03348 4.00000
4.00000 7.03348 4.00000
4.00000 7.03348 4.00000
4.00000 7.03348 4.00000
4.00000 7.03348 4.00000
4.00000 7.03348 4.00000
4.00000 7.03348 4.00000
4.00000 7.03348 4.00000
4.00000 7.03348 4.00000
4.00000 7.03348 4.00000
4.00000 7.03348 4.00000
4.00000 7.03348 4.00000
4.00000 7.03348 4.00000
4.00000 7.03349 4.00000
4.00000 7.03349 4.00000
4.00000 7.03348 4.00000
4.00000 7.03349 4.00000
4.00000 7.03348 4.00000
4.00000 7.03348 4.00000
4.00000 7.03348 4.00000
4.00000 7.03348 4.00000
4.00000 7.03348 4.00000
4.00000 7.03348 4.00000
4.00000 7.03348 4.00000
4.00000 7.03348 4.00000
4.00000 7.03348 4.00000
4.00000 7.03348 4.00000
4.00000 7.03348 4.00000
4.00000 7.03347 4.00000
4.00000 7.03348 4.00000
4.00000 7.03348 4.00000
4.00000 7.03348 4.00000
4.00000 7.03348 4.00000
4.00000 7.03348 4.00000
4.00000 7.03348 4.00000
4.00000 7.03349 4.00000
4.00000 7.03348 4.00000
4.00000 7.03348 4.00000
4.00000 7.03348 4.00000
4.00000 7.03348 4.00000
4.00000 7.03348 4.00000
4.00000 7.03348 4.00000
4.00000 7.03346 4.00000
4.00000 7.03348 4.00000
4.00000 7.03349 4.00000
4.00000 7.03348 4.00000
4.00000 7.03347 4.00000
4.00000 7.03348 4.00000
4.00000 7.03348 4.00000
4.00000 7.03348 4.00000
4.00000 7.03348 4.00000
4.00000 7.03348 4.00000
4.00000 7.03348 4.00000
4.00000 7.03348 4.00000
4.00000 7.03350 4.00000
4.00000 7.03348 4.00000
4.00000 7.03348 4.00000
4.00000 7.03348 4.00000
4.00000 7.03348 4.00000
4.00000 7.03348 4.00000
4.00000 7.03348 4.00000
4.00000 7.03349 4.00000
4.00000 7.03350 4.00000
4.00000 7.03350 4.00000
4.00000 7.03348 4.00000
4.00000 7.03348 4.00000
4.00000 7.03348 4.00000
4.00000 7.03348 4.00000
4.00000 7.03348 4.00000
4.00000 7.03348 4.00000
4.00000 7.03348 4.00000
4.00214 7.09276 4.00214
4.00490 7.17092 4.00490
4.00761 7.24933 4.00761
4.01028 7.32794 4.01028
4.01292 7.40672 4.01292
4.01554 7.48562 4.01554
4.01815 7.56462 4.01815
4.02077 7.64367 4.02077
4.02340 7.72274 4.02340
4.02607 7.80179 4.02607
4.02878 7.88077 4.02878
4.03154 7.95964 4.03154
4.03439 8.03834 4.03439
4.03734 8.11681 4.03734
4.04040 8.19498 4.04040
4.04362 8.27277 4.04362
4.04702 8.35009 4.04702
4.05065 8.42682 4.05065
4.05455 8.50281 4.05455
4.05879 8.57790 4.05879
4.06345 8.65187 4.06345
4.06857 8.72459 4.06857
4.07411 8.79621 4.07411
4.08009 8.86668 4.08009
4.08654 8.93594 4.08654
4.09348 9.00397 4.09348
4.10092 9.07074 4.10092
4.10887 9.13626 4.10887
4.11732 9.20056 4.11732
4.12626 9.26372 4.12626
4.13566 9.32585 4.13565
4.14545 9.38711 4.14545
4.15557 9.44772 4.15557
4.16591 9.50797 4.16591
4.17632 9.56825 4.17632
4.18662 9.62905 4.18662
4.19657 9.69098 4.19657
4.20583 9.75488 4.20583
4.21398 9.82182 4.21398
4.22044 9.89323 4.22044
4.22450 9.97093 4.22450
4.22529 10.05708 4.22529
4.22286 10.15154 4.22286
4.21927 10.24904 4.21927
4.21468 10.34916 4.21468
4.20911 10.45190 4.20911
4.20252 10.55736 4.20252
4.19485 10.66576 4.19485
4.18595 10.77749 4.18595
4.17563 10.89318 4.17563
4.16354 11.01383 4.16353
4.14907 11.14119 4.14907
4.13112 11.27855 4.13112
4.10710 11.43359 4.10710
4.06919 11.63016 4.06919
4.00000 13.19120 4.00000
4.00000 13.19120 4.00000
4.00000 13.19120 4.00000
4.00000 13.19120 4.00000
4.00000 13.19120 4.00000
4.00000 13.19120 4.00000
4.00000 13.19120 4.00000
4.00000 13.19120 4.00000
4.00000 13.19120 4.00000
4.00000 13.19120 4.00000
4.00000 13.19119 4.00000
4.00000 13.19120 4.00000
4.00000 13.19120 4.00000
4.00000 13.19120 4.00000
4.00001 13.19122 4.00001
4.00857 13.23048 4.00857
4.01893 13.28728 4.01893
4.02783 13.34893 4.02783
4.03511 13.41574 4.03511
4.04065 13.48794 4.04065
4.04434 13.56577 4.04434
4.04644 13.64841 4.04644
4.04831 13.73173 4.04831
4.05014 13.81521 4.05014
4.05193 13.89884 4.05193
4.05368 13.98259 4.05368
4.05540 14.06646 4.05540
4.05710 14.15043 4.05710
4.05877 14.23449 4.05877
4.06042 14.31864 4.06042
4.06205 14.40286 4.06205
4.06366 14.48715 4.06366
4.06527 14.57151 4.06526
4.06685 14.65592 4.06685
4.06843 14.74039 4.06843
4.06999 14.82491 4.06999
4.07155 14.90947 4.07155
4.07310 14.99408 4.07310
4.07464 15.07871 4.07464
4.07606 15.16373 4.07606
4.07722 15.24951 4.07722
4.07814 15.33602 4.07813
4.07881 15.42321 4.07881
4.07927 15.51106 4.07927
4.07952 15.59951 4.07952
4.07958 15.68853 4.07958
4.07946 15.77807 4.07946
4.07917 15.86810 4.07917
4.07873 15.95857 4.07873
4.07816 16.04946 4.07816
4.07746 16.14071 4.07746
4.07665 16.23230 4.07665
4.07573 16.32419 4.07573
4.07473 16.41635 4.07473
4.07365 16.50874 4.07365
4.07251 16.60135 4.07251
4.07130 16.69414 4.07130
4.07005 16.78708 4.07005
4.06875 16.88016 4.06875
4.06742 16.97336 4.06742
4.06607 17.06664 4.06607
4.06469 17.16000 4.06469
4.06330 17.25342 4.06330
4.06190 17.34688 4.06190
4.06049 17.44037 4.06049
4.05909 17.53388 4.05909
4.05768 17.62740 4.05768
4.05628 17.72091 4.05629
4.05490 17.81441 4.05490
4.05352 17.90789 4.05352
4.05216 18.00134 4.05216
4.05081 18.09476 4.05081
4.04948 18.18813 4.04948
4.04818 18.28147 4.04818
4.04689 18.37475 4.04689
4.04562 18.46799 4.04562
4.04438 18.56117 4.04438
4.04316 18.65429 4.04316
4.04196 18.74735 4.04196
4.04079 18.84035 4.04079
4.03964 18.93329 4.03964
4.03852 19.02617 4.03852
4.03743 19.11898 4.03743
4.03635 19.21173 4.03636
4.03531 19.30441 4.03531
4.03429 19.39703 4.03429
4.03329 19.48959 4.03329
4.03232 19.58207 4.03232
4.03137 19.67450 4.03137
4.03045 19.76686 4.03045
4.02955 19.85916 4.02955
4.02868 19.95140 4.02868
4.02783 20.04357 4.02783
4.02700 20.13569 4.02700
4.02619 20.22774 4.02619
4.02541 20.31974 4.02541
4.02464 20.41168 4.02464
4.02390 20.50356 4.02390
4.02318 20.59539 4.02318
4.02248 20.68716 4.02248
4.02180 20.77889 4.02180
4.02114 20.87056 4.02114
4.02050 20.96218 4.02049
4.01987 21.05375 4.01987
4.01926 21.14527 4.01926
4.01868 21.23674 4.01868
4.01811 21.32817 4.01810
4.01755 21.41956 4.01755
4.01701 21.51090 4.01701
4.01649 21.60220 4.01649
4.01598 21.69346 4.01598
4.01549 21.78468 4.01549
4.01501 21.87586 4.01501
4.01455 21.96700 4.01455
4.01410 22.05811 4.01410
4.01367 22.14918 4.01367
4.01324 22.24021 4.01324
4.01283 22.33121 4.01283
4.01244 22.42218 4.01244
4.01205 22.51312 4.01205
4.01168 22.60403 4.01167
4.01131 22.69491 4.01131
4.01096 22.78576 4.01096
4.01062 22.87658 4.01062
4.01029 22.96737 4.01029
4.00997 23.05814 4.00997
4.00966 23.14888 4.00966
4.00936 23.23960 4.00936
4.00907 23.33030 4.00907
4.00878 23.42097 4.00878
4.00851 23.51162 4.00851
4.00824 23.60225 4.00825
4.00799 23.69286 4.00799
4.00774 23.78344 4.00774
4.00750 23.87402 4.00750
4.00726 23.96456 4.00726
4.00703 24.05510 4.00703
4.00681 24.14561 4.00681
4.00660 24.23611 4.00660
4.00639 24.32659 4.00639
4.00619 24.41706 4.00619
4.00600 24.50751 4.00600
4.00581 24.59795 4.00581
4.00563 24.68837 4.00563
4.00545 24.77878 4.00545
4.00528 24.86917 4.00529
4.00512 24.95956 4.00512
4.00495 25.04993 4.00495
4.00480 25.14029 4.00480
4.00465 25.23064 4.00465
4.00450 25.32098 4.00450
4.00436 25.41131 4.00436
4.00422 25.50162 4.00423
4.00409 25.59193 4.00409
4.00396 25.68224 4.00396
4.00384 25.77253 4.00384
4.00372 25.86281 4.00372
4.00360 25.95308 4.00360
4.00349 26.04335 4.00349
4.00338 26.13361 4.00338
4.00327 26.22386 4.00327
4.00317 26.31411 4.00317
4.00307 26.40434 4.00307
4.00297 26.49457 4.00297
4.00288 26.58480 4.00288
4.00279 26.67502 4.00279
4.00270 26.76524 4.00270
4.00262 26.85545 4.00262
4.00253 26.94565 4.00253
4.00245 27.03585 4.00245
4.00238 27.12605 4.00238
4.00230 27.21624 4.00230
4.00223 27.30642 4.00223
4.00216 27.39661 4.00216
4.00209 27.48679 4.00209
4.00202 27.57697 4.00202
4.00196 27.66714 4.00196
4.00190 27.75731 4.00190
4.00184 27.84748 4.00184
4.00178 27.93764 4.00178
4.00172 28.02780 4.00172
4.00167 28.11796 4.00167
4.00162 28.20812 4.00162
4.00157 28.29827 4.00157
4.00152 28.38842 4.00152
4.00147 28.47857 4.00147
4.00142 28.56872 4.00142
4.00138 28.65887 4.00138
4.00133 28.74901 4.00133
4.00129 28.83915 4.00129
4.00125 28.92930 4.00125
4.00121 29.01943 4.00121
4.00117 29.10958 4.00117
4.00114 29.19972 4.00114
4.00110 29.28985 4.00110
4.00107 29.37999 4.00107
4.00103 29.47013 4.00103
4.00100 29.56026 4.00100
4.00097 29.65040 4.00097
4.00094 29.74053 4.00094
4.00091 29.83067 4.00091
4.00088 29.92080 4.00088
4.00085 30.01093 4.00085
4.00082 30.10107 4.00082
4.00080 30.19121 4.00080
4.00077 30.28133 4.00077
4.00075 30.37146 4.00075
4.00072 30.46160 4.00072
4.00070 30.55174 4.00070
4.00068 30.64186 4.00068
4.00066 30.73199 4.00066
4.00064 30.82213 4.00064
4.00062 30.91227 4.00062
4.00060 31.00240 4.00060
4.00058 31.09253 4.00058
4.00056 31.18267 4.00056
4.00054 31.27281 4.00054
4.00053 31.36294 4.00053
4.00051 31.45308 4.00051
4.00049 31.54322 4.00049
4.00048 31.63336 4.00048
4.00046 31.72351 4.00046
4.00045 31.81363 4.00045
4.00043 31.90377 4.00043
4.00042 31.99392 4.00042
4.00041 32.08407 4.00041
4.00039 32.17422 4.00039
4.00038 32.26434 4.00039
4.00037 32.35448 4.00037
4.00036 32.44463 4.00036
4.00035 32.53479 4.00035
4.00034 32.62495 4.00033
4.00032 32.71511 4.00032
4.00031 32.80522 4.00031
4.00030 32.89537 4.00030
4.00030 32.98552 4.00029
4.00029 33.07567 4.00029
4.00028 33.16582 4.00028
4.00026 33.25600 4.00027
4.00026 33.34614 4.00026
4.00025 33.43629 4.00025
4.00024 33.52645 4.00024
4.00024 33.61661 4.00024
4.00023 33.70677 4.00023
4.00022 33.79694 4.00022
4.00021 33.88710 4.00021
4.00021 33.97727 4.00021
4.00021 34.06742 4.00020
4.00020 34.15759 4.00019
4.00019 34.24778 4.00019
4.00018 34.33792 4.00018
4.00018 34.42810 4.00018
4.00017 34.51828 4.00017
4.00017 34.60846 4.00017
4.00016 34.69865 4.00016
4.00015 34.78884 4.00015
4.00015 34.87904 4.00015
4.00015 34.96925 4.00015
4.00014 35.05932 4.00014
4.00014 35.14950 4.00014
4.00013 35.23969 4.00013
4.00013 35.32988 4.00013
4.00012 35.42008 4.00012
4.00012 35.51029 4.00012
4.00012 35.60050 4.00012
4.00011 35.69071 4.00011
4.00011 35.78093 4.00011

