0.7232
0.7191
0.7152
0.7114
0.7076
0.7039
0.7001
0.6961
0.6916
0.6861
0.6760
0.6745
0.6734
0.6725
0.6715
0.6706
0.6697
0.6689
0.6680
0.6671
0.6662
0.6654
0.6645
0.6636
0.6627
0.6618
0.6609
0.6600
0.6590
0.6581
0.6572
0.6563
0.6554
0.6544
0.6533
0.6520
0.6507
0.6491
0.6472
0.6449
0.6422
0.6390
0.6352
0.6297
0.6233
0.6111
0.5906
0.5774
0.5622
0.5563
0.5442
0.5445
0.5437
0.5480
0.5474
0.5470
0.5466
0.5463
0.5461
0.5461
0.5460
0.5461
0.5461
0.5461
0.5461
0.5459
0.5453
0.5433
0.5437
0.5440
0.5437
0.5586
0.5590
0.5594
0.5599
0.5603
0.5608
0.5614
0.5621
0.5628
0.5630
0.5632
0.5633
0.5633
0.5629
0.5619
0.5595
0.5612
0.5631
0.5652
0.5674
0.5694
0.5715
0.5737
0.5760
0.5784
0.5808
0.5833
0.5859
0.5885
0.5911
0.5938
0.5966
0.5994
0.6022
0.6052
0.6082
0.6113
0.6144
0.6176
0.6209
0.6242
0.6276
0.6311
0.6346
0.6382
0.6418
0.6455
0.6492
0.6531
0.6569
0.6609
0.6648
0.6689
0.6730
0.6768
0.6812
0.6855
0.6888
0.6923
0.6958
0.6994
0.7032
0.7071
0.7111
0.7152
0.7196
0.7241
0.7289
0.7335
0.7393
0.7473
0.7581
0.7602
0.7556
0.7581
0.7607
0.7633
0.7659
0.7685
0.7711
0.7737
0.7764
0.7790
0.7817
0.7843
0.7870
0.7896
0.7921
0.7943
0.7964
0.7987
0.8009
0.8031
0.8054
0.8077
0.8100
0.8123
0.8146
0.8169
0.8193
0.8216
0.8240
0.8263
0.8287
0.8312
0.8336
0.8361
0.8386
0.8412
0.8439
0.8378
0.8412
0.8449
0.8488
0.8528
0.8560
0.8587
0.8611
0.8635
0.8657
0.8680
0.8703
0.8727
0.8753
0.8779
0.8800
0.8808
0.8817
0.8825
0.8834
0.8843
0.8852
0.8861
0.8870
0.8880
0.8890
0.9099
0.9104
0.9108
0.9112
0.9117
0.9121
0.9125
0.9129
0.9132
0.9135
0.9138
0.9140
0.9140
0.9139
0.9134
0.9125
0.9096
0.9109
0.9124
0.9141
0.9158
0.9176
0.9195
0.9214
0.9235
0.9257
0.9281
0.9307
0.9336
0.9369
0.9399
0.9440
0.9424
0.9429
0.9434
0.9440
0.9445
0.9450
0.9455
0.9460
0.9465
0.9470
0.9474
0.9429
0.9438
0.9447
0.9455
0.9464
0.9473
0.9481
0.9490
0.9498
0.9506
0.9515
0.9522
0.9530
0.9536
0.9539
0.9542
0.9546
0.9550
0.9554
0.9557
0.9561
0.9565
0.9568
0.9572
0.9575
0.9578
0.9582
0.9585
0.9588
0.9592
0.9595
0.9598
0.9601
0.9604
0.9607
0.9610
0.9613
0.9616
0.9619
0.9622
0.9625
0.9628
0.9631
0.9633
0.9636
0.9639
0.9641
0.9644
0.9777
0.9777
0.9776
0.9775
0.9774
0.9772
0.9770
0.9768
0.9765
0.9761
0.9756
0.9749
0.9741
0.9729
0.9707
0.9683
0.9685
0.9687
0.9689
0.9691
0.9693
0.9695
0.9698
0.9700
0.9702
0.9704
0.9706
0.9708
0.9709
0.9711
0.9713
0.9715
0.9717
0.9719
0.9721
0.9722
0.9724
0.9726
0.9728
0.9730
0.9731
0.9733
0.9735
0.9736
0.9738
0.9740
0.9741
0.9743
0.9744
0.9746
0.9748
0.9749
0.9751
0.9752
0.9754
0.9755
0.9757
0.9758
0.9760
0.9761
0.9763
0.9764
0.9765
0.9767
0.9768
0.9769
0.9771
0.9772
0.9773
0.9775
0.9776
0.9777
0.9779
0.9780
0.9781
0.9782
0.9784
0.9785
0.9786
0.9787
0.9788
0.9790
0.9791
0.9792
0.9793
0.9794
0.9795
0.9797
0.9798
0.9799
0.9800
0.9801
0.9802
0.9803
0.9804
0.9805
0.9806
0.9807
0.9808
0.9809
0.9810
0.9811
