0.3659
0.3645
0.3632
0.3620
0.3610
0.3600
0.3592
0.3585
0.3579
0.3574
0.3571
0.3570
0.3569
0.3570
0.3571
0.3575
0.3578
0.3585
0.3594
0.3607
0.3623
0.3641
0.3661
0.3681
0.3703
0.3726
0.3748
0.3767
0.3745
0.3746
0.3722
0.3654
0.3571
0.3512
0.3474
0.3448
0.3431
0.3421
0.3417
0.3418
0.3422
0.3429
0.3438
0.3449
0.3461
0.3475
0.3491
0.3508
0.3525
0.3544
0.3565
0.3586
0.3608
0.3632
0.3658
0.3685
0.3715
0.3749
0.3793
0.3808
0.3829
0.3851
0.3874
0.3898
0.3923
0.3949
0.3976
0.4004
0.4032
0.4061
0.4090
0.4119
0.4147
0.4174
0.4200
0.4226
0.4252
0.4277
0.4303
0.4329
0.4356
0.4385
0.4418
0.4457
0.4510
0.4520
0.4529
0.4539
0.4550
0.4560
0.4571
0.4582
0.4594
0.4605
0.4618
0.4630
0.4643
0.4656
0.4669
0.4683
0.4697
0.4712
0.4727
0.4742
0.4757
0.4773
0.4790
0.4808
0.4826
0.4845
0.4866
0.4887
0.4911
0.4929
0.4956
0.4985
0.5015
0.5047
0.5081
0.5117
0.5155
0.5195
0.5239
0.5285
0.5329
0.5365
0.5391
0.5410
0.5433
0.5453
0.5463
0.5465
0.5500
0.5535
0.5571
0.5606
0.5642
0.5678
0.5711
0.5767
0.5800
0.5833
0.5866
0.5898
0.5928
0.5960
0.5992
0.6024
0.6057
0.6091
0.6125
0.6158
0.6190
0.6210
0.6250
0.6290
0.6332
0.6374
0.6417
0.6461
0.6507
0.6554
0.6603
0.6654
0.6707
0.6764
0.6821
0.6873
0.6914
0.6943
0.6968
0.6996
0.7060
0.7121
0.7174
0.7229
0.7286
0.7348
0.7418
0.7481
0.7558
0.7655
0.7766
0.7806
0.7824
0.7842
0.7860
0.7954
0.7972
0.7989
0.8007
0.8024
0.8041
0.8058
0.8075
0.8092
0.8108
0.8124
0.8139
0.8152
0.8163
0.8167
0.8167
0.8187
0.8208
0.8229
0.8251
0.8272
0.8294
0.8316
0.8338
0.8361
0.8384
0.8407
0.8430
0.8453
0.8477
0.8501
0.8526
0.8551
0.8576
0.8601
0.8626
0.8652
0.8678
0.8703
0.8729
0.8754
0.8881
0.8905
0.8929
0.8953
0.8928
0.8957
0.8987
0.9018
0.9050
0.9085
0.9123
0.9169
0.9362
0.9378
0.9365
0.9356
0.9363
0.9369
0.9373
0.9374
0.9376
0.9595
0.9589
0.9582
0.9573
0.9561
0.9544
0.9503
0.9501
0.9498
0.9494
0.9489
0.9483
0.9475
0.9465
0.9450
0.9427
0.9383
0.9388
0.9394
0.9399
0.9404
0.9409
0.9414
0.9419
0.9423
0.9428
0.9433
0.9437
0.9442
0.9447
0.9451
0.9456
0.9460
0.9464
0.9469
0.9473
0.9477
0.9481
0.9485
0.9489
0.9493
0.9497
0.9501
0.9505
0.9509
0.9513
0.9516
0.9520
0.9603
0.9606
0.9608
0.9610
0.9612
0.9614
0.9615
0.9616
0.9617
0.9616
0.9615
0.9613
0.9609
0.9601
0.9577
0.9574
0.9577
0.9580
0.9583
0.9586
0.9589
0.9592
0.9595
0.9598
0.9601
0.9603
0.9606
0.9609
0.9612
0.9614
0.9617
0.9620
0.9622
0.9625
0.9627
0.9630
0.9632
0.9635
0.9637
0.9640
0.9642
0.9644
0.9647
0.9649
0.9651
0.9654
0.9656
0.9658
0.9660
0.9663
0.9665
0.9667
0.9669
0.9671
0.9673
0.9675
0.9677
0.9679
0.9681
0.9683
0.9685
0.9687
0.9689
0.9691
0.9693
0.9695
0.9697
0.9699
0.9701
0.9703
0.9704
0.9706
0.9708
0.9710
0.9711
0.9713
0.9715
0.9717
0.9718
0.9720
0.9722
0.9723
0.9725
0.9727
0.9728
0.9730
0.9731
0.9733
0.9734
0.9736
0.9737
0.9739
0.9740
0.9742
0.9743
0.9745
0.9746
0.9748
0.9749
0.9751
0.9752
0.9753
0.9755
