0.6781
0.6653
0.6416
0.5984
0.5626
0.5948
0.6360
0.6572
0.6681
0.6742
0.6778
0.6738
0.6773
0.6808
0.6839
0.6870
0.6896
0.6916
0.6931
0.6943
0.6952
0.6960
0.6967
0.6973
0.6978
0.6982
0.6985
0.6987
0.6987
0.6984
0.6978
0.6971
0.6966
0.6964
0.6966
0.6971
0.6978
0.6986
0.6996
0.7008
0.7021
0.7036
0.7052
0.7069
0.7087
0.7107
0.7127
0.7148
0.7170
0.7194
0.7217
0.7241
0.7266
0.7292
0.7319
0.7345
0.7372
0.7400
0.7428
0.7458
0.7488
0.7519
0.7547
0.7576
0.7605
0.7634
0.7662
0.7691
0.7721
0.7751
0.7782
0.7798
0.7808
0.7848
0.7890
0.7933
0.7954
0.7977
0.7967
0.7987
0.8010
0.8027
0.8032
0.8050
0.8074
0.8098
0.8120
0.8141
0.8170
0.8199
0.8274
0.8555
0.8583
0.8598
0.8608
0.8601
0.8495
0.7441
0.8549
0.8674
0.8714
0.8739
0.8758
0.8776
0.8796
0.8811
0.8825
0.8839
0.8852
0.8866
0.8879
0.8891
0.8904
0.8916
0.8928
0.8939
0.8951
0.8962
0.8973
0.8983
0.8994
0.9004
0.9014
0.9024
0.9034
0.9018
0.9031
0.9043
0.9056
0.9165
0.8924
0.8937
0.8950
0.8975
0.8990
0.9004
0.9018
0.9037
0.9049
0.9055
0.9064
0.9073
0.9080
0.9079
0.9076
0.9096
0.9116
0.9128
0.9149
0.9185
0.9242
0.9248
0.9248
0.9255
0.9260
0.9265
0.9270
0.9275
0.9280
0.9285
0.9289
0.9294
0.9298
0.9302
0.9306
0.9310
0.9314
0.9318
0.9321
0.9325
0.9328
0.9331
0.9334
0.9337
0.9339
0.9342
0.9344
0.9346
0.9348
0.9350
0.9351
0.9352
0.9353
0.9354
0.9354
0.9354
0.9353
0.9353
0.9351
0.9349
0.9347
0.9344
0.9340
0.9336
0.9330
0.9324
0.9316
0.9306
0.9294
0.9280
0.9262
0.9238
0.9202
0.9110
0.9114
0.9121
0.9129
0.9065
0.9077
0.9089
0.9102
0.9114
0.9125
0.9137
0.9149
0.9161
0.9173
0.9184
0.9196
0.9207
0.9219
0.9229
0.9235
0.9241
0.9247
0.9253
0.9259
0.9265
0.9271
0.9276
0.9282
0.9287
0.9293
0.9298
0.9303
0.9309
0.9314
0.9319
0.9324
0.9329
0.9334
0.9339
0.9344
0.9348
0.9353
0.9357
0.9364
0.9369
0.9374
0.9378
0.9383
0.9387
0.9392
0.9396
0.9400
0.9405
0.9409
0.9413
0.9417
0.9421
0.9426
0.9430
0.9434
0.9438
0.9441
0.9615
0.9614
0.9613
0.9612
0.9610
0.9608
0.9606
0.9603
0.9599
0.9595
0.9589
0.9582
0.9574
0.9562
0.9543
0.9499
0.9502
0.9505
0.9508
0.9512
0.9515
0.9518
0.9521
0.9524
0.9527
0.9530
0.9533
0.9536
0.9539
0.9542
0.9545
0.9548
0.9551
0.9554
0.9556
0.9486
0.9493
0.9501
0.9509
0.9517
0.9525
0.9532
0.9540
0.9548
0.9556
0.9564
0.9572
0.9580
0.9589
0.9595
0.9598
0.9600
0.9602
0.9605
0.9607
0.9609
0.9612
0.9614
0.9616
0.9618
0.9620
0.9623
0.9625
0.9627
0.9629
0.9631
0.9633
0.9635
0.9637
0.9639
0.9642
0.9644
0.9646
0.9648
0.9649
0.9651
0.9653
0.9655
0.9657
0.9659
0.9661
0.9663
0.9665
0.9666
0.9668
0.9670
0.9672
0.9674
0.9675
0.9677
0.9679
0.9680
0.9682
0.9684
0.9685
0.9687
0.9689
0.9690
0.9692
0.9694
0.9695
0.9697
0.9698
0.9700
0.9702
0.9703
0.9705
0.9706
0.9708
0.9709
0.9711
0.9712
0.9713
0.9715
0.9716
0.9718
0.9719
0.9721
0.9722
0.9723
0.9725
0.9726
0.9727
0.9729
0.9730
0.9731
0.9733
0.9734
0.9735
0.9737
0.9738
0.9739
0.9740
0.9742
0.9743
