0.5404
0.5617
0.6028
0.6277
0.6402
0.6468
0.6509
0.6394
0.6393
0.6395
0.6411
0.6422
0.6427
0.6426
0.6421
0.6412
0.6398
0.6382
0.6364
0.6343
0.6320
0.6297
0.6271
0.6244
0.6215
0.6185
0.6154
0.6120
0.6086
0.6050
0.6012
0.5971
0.5927
0.5882
0.5836
0.5792
0.5754
0.5721
0.5695
0.5673
0.5651
0.5606
0.5561
0.5515
0.5469
0.5424
0.5378
0.5331
0.5283
0.5233
0.5182
0.5131
0.5078
0.5023
0.4966
0.4908
0.4847
0.4783
0.4716
0.4647
0.4578
0.4509
0.4438
0.4366
0.4294
0.4223
0.4151
0.4080
0.4010
0.3941
0.3873
0.3807
0.3743
0.3680
0.3619
0.3561
0.3504
0.3449
0.3397
0.3347
0.3299
0.3254
0.3212
0.3171
0.3134
0.3099
0.3066
0.3036
0.3009
0.2984
0.2961
0.2941
0.2923
0.2907
0.2893
0.2882
0.2872
0.2865
0.2860
0.2858
0.2858
0.2863
0.2872
0.2883
0.2897
0.2912
0.2932
0.2956
0.2985
0.3021
0.3066
0.3129
0.3223
0.3230
0.3239
0.3249
0.3261
0.3275
0.3291
0.3308
0.3327
0.3348
0.3370
0.3394
0.3419
0.3446
0.3475
0.3505
0.3537
0.3570
0.3604
0.3640
0.3677
0.3715
0.3755
0.3797
0.3840
0.3885
0.3931
0.3979
0.4028
0.4079
0.4133
0.4188
0.4248
0.4311
0.4377
0.4446
0.4517
0.4589
0.4661
0.4737
0.4818
0.4915
0.4987
0.5015
0.5084
0.5154
0.5226
0.5300
0.5376
0.5453
0.5532
0.5613
0.5695
0.5779
0.5865
0.5953
0.6042
0.6134
0.6229
0.6471
0.6569
0.6670
0.6776
0.6885
0.6999
0.7118
0.7241
0.7371
0.7511
0.7667
0.7858
0.7983
0.8135
0.8193
0.8229
0.8295
0.8371
0.8448
0.8531
0.8624
0.8741
0.8864
0.8899
0.8939
0.8993
0.9049
0.9060
0.9070
0.9080
0.9090
0.9100
0.9039
0.9053
0.9067
0.9081
0.9095
0.9109
0.9123
0.9178
0.9192
0.9206
0.9220
0.9233
0.9246
0.9259
0.9271
0.9279
0.9285
0.9291
0.9296
0.9300
0.9301
0.9298
0.9287
0.9294
0.9301
0.9308
0.9314
0.9321
0.9327
0.9333
0.9339
0.9346
0.9352
0.9358
0.9364
0.9369
0.9476
0.9479
0.9483
0.9486
0.9489
0.9492
0.9662
0.9659
0.9656
0.9674
0.9753
0.9744
0.9733
0.9745
0.9716
0.9708
0.9703
0.9696
0.9685
0.9671
0.9649
0.9613
0.9585
0.9560
0.9545
0.9522
0.9518
0.9506
0.9510
0.9514
0.9518
0.9522
0.9526
0.9529
0.9533
0.9537
0.9540
0.9544
0.9548
0.9551
0.9555
0.9558
0.9562
0.9565
0.9568
0.9572
0.9575
0.9578
0.9581
0.9584
0.9588
0.9591
0.9594
0.9597
0.9600
0.9603
0.9606
0.9608
0.9611
0.9614
0.9617
0.9620
0.9622
0.9625
0.9628
0.9631
0.9633
0.9636
0.9638
0.9641
0.9643
0.9646
0.9648
0.9651
0.9653
0.9656
0.9658
0.9660
0.9663
0.9665
0.9667
0.9670
0.9672
0.9674
0.9676
0.9678
0.9680
0.9683
0.9685
0.9687
0.9689
0.9691
0.9693
0.9695
0.9697
0.9699
0.9701
0.9703
0.9705
0.9707
0.9708
0.9710
0.9712
0.9714
0.9716
0.9717
0.9719
0.9721
0.9723
0.9724
0.9726
0.9728
0.9730
0.9731
0.9733
0.9734
0.9736
0.9738
0.9739
0.9741
0.9742
0.9744
0.9745
0.9747
0.9748
0.9750
0.9751
0.9753
0.9754
0.9756
0.9757
0.9759
0.9760
0.9761
0.9763
0.9764
0.9765
0.9767
0.9768
0.9769
0.9771
0.9772
0.9773
0.9775
0.9776
0.9777
0.9778
0.9780
0.9781
0.9782
0.9783
0.9785
0.9786
0.9787
0.9788
0.9789
0.9790
0.9792
0.9793
0.9794
0.9795
