0.1657
0.1649
0.1645
0.1643
0.1640
0.1636
0.1632
0.1629
0.1626
0.1625
0.1625
0.1627
0.1630
0.1635
0.1642
0.1650
0.1661
0.1672
0.1686
0.1701
0.1718
0.1736
0.1756
0.1777
0.1800
0.1825
0.1851
0.1878
0.1907
0.1937
0.1968
0.2000
0.2034
0.2069
0.2105
0.2142
0.2180
0.2219
0.2259
0.2301
0.2343
0.2388
0.2434
0.2482
0.2531
0.2583
0.2637
0.2693
0.2751
0.2811
0.2873
0.2937
0.3003
0.3071
0.3140
0.3209
0.3277
0.3345
0.3411
0.3477
0.3543
0.3610
0.3678
0.3746
0.3817
0.3889
0.3964
0.4042
0.4124
0.4212
0.4312
0.4434
0.4488
0.4544
0.4607
0.4674
0.4738
0.4812
0.4898
0.4954
0.5003
0.5050
0.5093
0.5131
0.5165
0.5195
0.5221
0.5247
0.5273
0.5313
0.5351
0.5388
0.5423
0.5458
0.5495
0.5532
0.5571
0.5609
0.5648
0.5686
0.5724
0.5763
0.5802
0.5843
0.5883
0.5929
0.5983
0.6066
0.6113
0.6181
0.6189
0.6197
0.6201
0.6203
0.6201
0.6195
0.6179
0.6160
0.6169
0.6177
0.6184
0.6192
0.6200
0.6209
0.6221
0.6236
0.6254
0.6333
0.6358
0.6384
0.6412
0.6441
0.6471
0.6507
0.6581
0.6635
0.6692
0.6687
0.6707
0.6726
0.6722
0.6713
0.6737
0.6782
0.6834
0.6904
0.6912
0.6936
0.6947
0.6978
0.7009
0.7040
0.7071
0.7102
0.7133
0.7164
0.7195
0.7226
0.7258
0.7289
0.7320
0.7352
0.7384
0.7416
0.7493
0.7527
0.7561
0.7595
0.7631
0.7667
0.7703
0.7739
0.7776
0.7815
0.7907
0.7936
0.7931
0.7947
0.7952
0.7946
0.7954
0.7961
0.7966
0.7971
0.7974
0.7975
0.7974
0.7968
0.7950
0.7956
0.7966
0.7977
0.7989
0.8001
0.8013
0.8025
0.8038
0.8052
0.8065
0.8337
0.8344
0.8352
0.8359
0.8367
0.8598
0.8600
0.8601
0.8602
0.8603
0.8603
0.8603
0.8601
0.8598
0.8593
0.8586
0.8575
0.8559
0.8776
0.8730
0.8715
0.8673
0.8685
0.8696
0.8708
0.8718
0.8728
0.8738
0.8746
0.8753
0.8758
0.8761
0.8762
0.8758
0.8744
0.8714
0.8732
0.8751
0.8770
0.8790
0.8812
0.8837
0.8868
0.8876
0.8885
0.8893
0.8901
0.8909
0.8917
0.8925
0.8932
0.8940
0.8948
0.8955
0.8963
0.8970
0.8977
0.8985
0.8992
0.8999
0.9006
0.9013
0.9020
0.9027
0.9033
0.9040
0.9047
0.9053
0.9060
0.9066
0.9073
0.9079
0.9085
0.9092
0.9098
0.9104
0.9110
0.9116
0.9122
0.9128
0.9133
0.9139
0.9145
0.9151
0.9156
0.9162
0.9167
0.9173
0.9178
0.9184
0.9189
0.9194
0.9199
0.9205
0.9210
0.9215
0.9090
0.9102
0.9114
0.9126
0.9138
0.9150
0.9162
0.9175
0.9188
0.9201
0.9214
0.9228
0.9243
0.9260
0.9277
0.9290
0.9295
0.9299
0.9303
0.9307
0.9312
0.9316
0.9320
0.9324
0.9328
0.9332
0.9336
0.9340
0.9344
0.9348
0.9352
0.9356
0.9360
0.9363
0.9367
0.9371
0.9374
0.9378
0.9382
0.9385
0.9389
0.9392
0.9396
0.9399
0.9403
0.9406
0.9410
0.9413
0.9416
0.9420
0.9423
0.9426
0.9429
0.9433
0.9436
0.9439
0.9442
0.9445
0.9448
0.9451
0.9454
0.9457
0.9460
0.9463
0.9466
0.9469
0.9472
0.9475
0.9478
0.9481
0.9483
0.9486
0.9489
0.9492
0.9494
0.9497
0.9500
0.9502
0.9505
0.9508
0.9510
0.9513
0.9515
0.9518
0.9520
0.9523
0.9525
0.9528
0.9530
0.9533
0.9535
0.9537
0.9540
0.9542
0.9544
0.9547
0.9549
0.9551
0.9554
0.9556
0.9558
0.9560
0.9562
0.9565
0.9567
