0.2570
0.2560
0.2569
0.2575
0.2575
0.2574
0.2570
0.2566
0.2562
0.2557
0.2553
0.2548
0.2545
0.2542
0.2539
0.2538
0.2539
0.2541
0.2544
0.2550
0.2555
0.2556
0.2555
0.2556
0.2558
0.2560
0.2564
0.2569
0.2575
0.2582
0.2591
0.2601
0.2612
0.2625
0.2636
0.2647
0.2660
0.2674
0.2689
0.2705
0.2722
0.2740
0.2759
0.2779
0.2800
0.2822
0.2845
0.2869
0.2894
0.2920
0.2947
0.2975
0.3004
0.3035
0.3066
0.3098
0.3131
0.3165
0.3200
0.3237
0.3275
0.3314
0.3354
0.3397
0.3442
0.3491
0.3553
0.3601
0.3645
0.3690
0.3735
0.3782
0.3829
0.3877
0.3922
0.3972
0.4022
0.4074
0.4125
0.4177
0.4229
0.4282
0.4335
0.4388
0.4442
0.4496
0.4552
0.4608
0.4665
0.4721
0.4779
0.4836
0.4892
0.4949
0.5006
0.5063
0.5122
0.5181
0.5243
0.5304
0.5360
0.5421
0.5491
0.5567
0.5610
0.5656
0.5703
0.5751
0.5800
0.5849
0.5900
0.5951
0.6002
0.6055
0.6110
0.6166
0.6225
0.6286
0.6351
0.6421
0.6500
0.6604
0.6682
0.6722
0.6763
0.6807
0.6852
0.6901
0.6952
0.7007
0.7058
0.7100
0.7096
0.7108
0.7146
0.7183
0.7221
0.7260
0.7298
0.7338
0.7378
0.7418
0.7459
0.7500
0.7542
0.7584
0.7626
0.7666
0.7704
0.7740
0.7775
0.7810
0.7845
0.7880
0.7918
0.7963
0.7949
0.7969
0.7990
0.8010
0.8031
0.8051
0.8071
0.8090
0.8110
0.8129
0.8148
0.8167
0.8185
0.8202
0.8218
0.8230
0.8245
0.8259
0.8273
0.8492
0.8499
0.8506
0.8594
0.8599
0.8603
0.8607
0.8870
0.8865
0.8860
0.8853
0.8845
0.8836
0.8825
0.8812
0.8796
0.8775
0.8894
0.9023
0.8998
0.8970
0.8957
0.8941
0.8920
0.8889
0.8832
0.8829
0.8823
0.8815
0.8803
0.8785
0.8752
0.8725
0.8706
0.8687
0.8697
0.8709
0.8720
0.8732
0.8743
0.8755
0.8766
0.8776
0.8787
0.8797
0.8807
0.8816
0.8824
0.8830
0.8830
0.8833
0.8841
0.8849
0.8858
0.8866
0.8874
0.8882
0.8890
0.8898
0.8905
0.8913
0.8921
0.8928
0.8936
0.8943
0.8950
0.8958
0.8965
0.8972
0.8979
0.8986
0.8993
0.9000
0.9007
0.9014
0.9020
0.9027
0.9033
0.9040
0.9046
0.9053
0.9059
0.9065
0.9072
0.9078
0.9084
0.9090
0.9096
0.9102
0.9108
0.9113
0.9119
0.9125
0.9131
0.9136
0.9142
0.9147
0.9153
0.9158
0.9164
0.9169
0.9174
0.9179
0.9185
0.9190
0.9195
0.9200
0.9205
0.9210
0.9215
0.9220
0.9225
0.9229
0.9234
0.9239
0.9244
0.9248
0.9253
0.9257
0.9262
0.9266
0.9271
0.9275
0.9279
0.9284
0.9288
0.9292
0.9297
0.9301
0.9305
0.9309
0.9313
0.9317
0.9321
0.9325
0.9329
0.9333
0.9337
0.9341
0.9345
0.9348
0.9352
0.9356
0.9360
0.9363
0.9367
0.9370
0.9374
0.9378
0.9381
0.9385
0.9388
0.9391
0.9395
0.9398
0.9402
0.9405
0.9408
0.9412
0.9415
0.9418
0.9421
0.9424
0.9428
0.9431
0.9434
0.9437
0.9440
0.9443
0.9446
0.9449
0.9452
0.9455
0.9458
0.9461
0.9464
0.9466
0.9469
0.9472
0.9475
0.9478
0.9480
0.9483
0.9486
0.9488
0.9491
0.9494
0.9496
0.9499
0.9502
0.9504
0.9507
0.9509
0.9512
0.9514
0.9517
0.9519
0.9522
0.9524
0.9526
0.9529
0.9531
0.9533
0.9536
0.9538
0.9540
0.9543
0.9545
0.9547
0.9549
0.9552
0.9554
0.9556
0.9558
0.9560
0.9562
0.9565
0.9567
0.9569
0.9571
0.9573
0.9575
0.9577
0.9579
0.9581
