0.5963
0.5974
0.5980
0.5984
0.5986
0.5986
0.5985
0.5984
0.5983
0.5995
0.6018
0.6044
0.6075
0.6118
0.6215
0.6202
0.6191
0.6183
0.6178
0.6182
0.6203
0.6257
0.6378
0.6728
0.6620
0.6421
0.6191
0.5980
0.5896
0.5989
0.6187
0.6395
0.6535
0.6601
0.6393
0.6368
0.6349
0.6333
0.6317
0.6301
0.6286
0.6271
0.6256
0.6242
0.6228
0.6215
0.6202
0.6191
0.6180
0.6172
0.6166
0.6162
0.6160
0.6162
0.6166
0.6173
0.6184
0.6198
0.6252
0.6287
0.6322
0.6352
0.6393
0.6448
0.6514
0.6580
0.6631
0.6646
0.6610
0.6487
0.6081
0.5920
0.5637
0.5460
0.5392
0.5383
0.5558
0.5546
0.5535
0.5522
0.5500
0.5718
0.5677
0.5618
0.5540
0.5448
0.5376
0.5310
0.5253
0.5202
0.5153
0.5101
0.5044
0.5026
0.5012
0.4998
0.4982
0.4959
0.4919
0.4929
0.4940
0.4952
0.4964
0.4976
0.4988
0.5000
0.5012
0.5025
0.5039
0.5053
0.5070
0.5088
0.5109
0.5133
0.5158
0.5146
0.5162
0.5165
0.5163
0.5158
0.5153
0.5146
0.5138
0.5130
0.5118
0.5104
0.5076
0.5057
0.5051
0.5046
0.5042
0.5040
0.5039
0.5041
0.5045
0.5051
0.5060
0.5071
0.5085
0.5102
0.5120
0.5142
0.5165
0.5191
0.5219
0.5248
0.5280
0.5313
0.5349
0.5386
0.5423
0.5462
0.5503
0.5546
0.5591
0.5637
0.5686
0.5737
0.5790
0.5844
0.5900
0.5959
0.6021
0.6086
0.6156
0.6233
0.6325
0.6440
0.6475
0.6510
0.6546
0.6582
0.6620
0.6658
0.6697
0.6737
0.6778
0.6819
0.6852
0.6886
0.6920
0.6978
0.7014
0.7051
0.7087
0.7124
0.7162
0.7199
0.7236
0.7274
0.7312
0.7349
0.7386
0.7422
0.7457
0.7488
0.7515
0.7555
0.7595
0.7636
0.7676
0.7717
0.7759
0.7801
0.7843
0.7886
0.7929
0.7972
0.8016
0.8061
0.8106
0.8151
0.8198
0.8244
0.8292
0.8341
0.8391
0.8442
0.8497
0.8555
0.8610
0.8655
0.8702
0.8745
0.8786
0.8944
0.8976
0.9003
0.9029
0.9055
0.9084
0.9033
0.9050
0.9067
0.9083
0.9099
0.9113
0.9126
0.9135
0.9128
0.9139
0.9163
0.9187
0.9211
0.9235
0.9258
0.9279
0.9301
0.9324
0.9347
0.9372
0.9398
0.9426
0.9455
0.9483
0.9508
0.9529
0.9547
0.9564
0.9580
0.9596
0.9612
0.9629
0.9648
0.9673
0.9686
0.9688
0.9690
0.9692
0.9694
0.9696
0.9698
0.9700
0.9702
0.9704
0.9706
0.9708
0.9656
0.9662
0.9668
0.9674
0.9680
0.9687
0.9693
0.9656
0.9666
0.9676
0.9686
0.9695
0.9705
0.9713
0.9718
0.9723
0.9728
0.9733
0.9738
0.9742
0.9746
0.9744
0.9746
0.9747
0.9749
0.9750
0.9752
0.9753
0.9754
0.9756
0.9757
0.9759
0.9760
0.9761
0.9763
0.9764
0.9765
0.9767
0.9768
0.9769
0.9770
0.9772
0.9757
0.9761
0.9765
0.9769
0.9773
0.9777
0.9780
0.9784
0.9787
0.9791
0.9793
0.9796
0.9797
0.9797
0.9789
0.9790
0.9791
0.9793
0.9794
0.9795
0.9796
0.9797
0.9798
0.9799
0.9800
0.9801
0.9802
0.9803
0.9803
0.9804
0.9805
0.9807
0.9808
0.9809
0.9810
0.9811
0.9811
0.9813
0.9813
0.9814
0.9815
0.9816
0.9817
0.9818
0.9819
0.9819
0.9821
0.9821
0.9822
0.9823
0.9824
0.9825
0.9825
0.9826
0.9827
0.9828
0.9829
0.9829
0.9830
0.9831
0.9832
0.9832
0.9833
0.9834
0.9835
0.9835
0.9836
0.9837
0.9837
0.9838
0.9839
0.9840
0.9841
0.9841
0.9842
0.9843
0.9843
0.9844
0.9845
0.9845
0.9846
