0.5765
0.5737
0.5710
0.5683
0.5657
0.5632
0.5609
0.5588
0.5566
0.5546
0.5527
0.5510
0.5493
0.5478
0.5465
0.5453
0.5443
0.5434
0.5428
0.5424
0.5425
0.5429
0.5442
0.5464
0.5426
0.5407
0.5388
0.5369
0.5350
0.5332
0.5314
0.5297
0.5282
0.5267
0.5252
0.5238
0.5224
0.5210
0.5198
0.5185
0.5173
0.5162
0.5151
0.5140
0.5131
0.5121
0.5110
0.5099
0.5090
0.5081
0.5071
0.5063
0.5054
0.5046
0.5037
0.5029
0.5019
0.5009
0.4997
0.4985
0.4972
0.4959
0.4948
0.4936
0.4935
0.4933
0.4927
0.4906
0.4861
0.4796
0.4725
0.4668
0.4624
0.4553
0.4506
0.4466
0.4434
0.4407
0.4385
0.4367
0.4353
0.4342
0.4334
0.4468
0.4462
0.4457
0.4455
0.4454
0.4455
0.4457
0.4459
0.4463
0.4467
0.4472
0.4476
0.4480
0.4483
0.4481
0.4461
0.4482
0.4506
0.4533
0.4563
0.4599
0.4640
0.4691
0.4794
0.4804
0.4813
0.4823
0.4833
0.4845
0.4858
0.4872
0.4886
0.4902
0.4919
0.4938
0.4957
0.4979
0.5002
0.5026
0.5052
0.5079
0.5107
0.5136
0.5165
0.5203
0.5237
0.5273
0.5312
0.5352
0.5396
0.5441
0.5489
0.5543
0.5603
0.5676
0.5790
0.5849
0.5872
0.5883
0.5911
0.5939
0.5968
0.5997
0.6023
0.6051
0.6079
0.6107
0.6137
0.6167
0.6198
0.6230
0.6262
0.6294
0.6327
0.6361
0.6396
0.6431
0.6467
0.6504
0.6542
0.6662
0.6699
0.6737
0.6776
0.6814
0.6854
0.6894
0.6934
0.6975
0.7016
0.7057
0.7098
0.7138
0.7176
0.7198
0.7243
0.7295
0.7349
0.7359
0.7421
0.7485
0.7552
0.7624
0.7702
0.7795
0.7923
0.7959
0.7996
0.8032
0.8068
0.8104
0.8139
0.8170
0.8204
0.8239
0.8274
0.8309
0.8345
0.8381
0.8418
0.8456
0.8694
0.8728
0.8763
0.8802
0.8844
0.8886
0.8917
0.8943
0.8965
0.8990
0.9017
0.9044
0.9054
0.9061
0.9064
0.9057
0.9048
0.9072
0.9096
0.9121
0.9145
0.9168
0.9191
0.9214
0.9235
0.9256
0.9276
0.9296
0.9315
0.9335
0.9355
0.9376
0.9398
0.9423
0.9459
0.9476
0.9481
0.9485
0.9489
0.9494
0.9498
0.9502
0.9506
0.9637
0.9638
0.9639
0.9639
0.9639
0.9639
0.9638
0.9637
0.9635
0.9632
0.9629
0.9623
0.9616
0.9603
0.9572
0.9565
0.9568
0.9571
0.9575
0.9578
0.9581
0.9584
0.9546
0.9553
0.9559
0.9566
0.9573
0.9580
0.9587
0.9593
0.9600
0.9606
0.9613
0.9619
0.9625
0.9627
0.9627
0.9630
0.9632
0.9635
0.9638
0.9640
0.9643
0.9645
0.9648
0.9650
0.9658
0.9663
0.9667
0.9671
0.9675
0.9679
0.9683
0.9686
0.9690
0.9693
0.9695
0.9697
0.9698
0.9697
0.9688
0.9686
0.9688
0.9690
0.9692
0.9694
0.9696
0.9698
0.9699
0.9701
0.9703
0.9705
0.9707
0.9709
0.9711
0.9712
0.9714
0.9716
0.9718
0.9719
0.9721
0.9723
0.9725
0.9726
0.9728
0.9730
0.9731
0.9733
0.9734
0.9736
0.9738
0.9739
0.9741
0.9742
0.9744
0.9745
0.9747
0.9748
0.9750
0.9751
0.9753
0.9754
0.9755
0.9757
0.9758
0.9760
0.9761
0.9762
0.9764
0.9765
0.9766
0.9767
0.9769
0.9770
0.9771
0.9773
0.9774
0.9775
0.9776
0.9778
0.9779
0.9780
0.9781
0.9782
0.9784
0.9785
0.9786
0.9787
0.9788
0.9789
0.9790
0.9792
0.9793
0.9794
0.9795
0.9796
0.9797
0.9798
0.9799
0.9800
0.9801
0.9802
0.9803
0.9804
0.9805
0.9806
0.9807
0.9808
0.9809
0.9810
0.9811
0.9812
0.9813
