0.2829
0.2848
0.2922
0.2993
0.3049
0.3099
0.3147
0.3193
0.3238
0.3283
0.3327
0.3371
0.3415
0.3458
0.3502
0.3545
0.3589
0.3632
0.3676
0.3719
0.3758
0.3794
0.3822
0.3844
0.3860
0.3877
0.3892
0.3907
0.3922
0.3937
0.3951
0.3965
0.3979
0.3993
0.4007
0.4019
0.4031
0.4042
0.4052
0.4060
0.4068
0.4075
0.4081
0.4087
0.4093
0.4100
0.4107
0.4114
0.4121
0.4127
0.4133
0.4139
0.4146
0.4156
0.4168
0.4183
0.4197
0.4212
0.4226
0.4239
0.4253
0.4266
0.4279
0.4291
0.4303
0.4315
0.4327
0.4338
0.4349
0.4360
0.4370
0.4380
0.4388
0.4395
0.4401
0.4405
0.4407
0.4406
0.4399
0.4383
0.4355
0.4306
0.4234
0.4151
0.4066
0.3983
0.3909
0.3845
0.3792
0.3749
0.3717
0.3694
0.3680
0.3674
0.3677
0.3689
0.3710
0.3758
0.3747
0.3752
0.3757
0.3768
0.3777
0.3780
0.3772
0.3781
0.3812
0.3846
0.3881
0.3920
0.3962
0.4009
0.4061
0.4120
0.4142
0.4170
0.4200
0.4231
0.4264
0.4297
0.4332
0.4369
0.4407
0.4446
0.4487
0.4530
0.4575
0.4623
0.4673
0.4727
0.4783
0.4844
0.4911
0.4988
0.5089
0.5187
0.5498
0.5524
0.5551
0.5579
0.5607
0.5636
0.5665
0.5695
0.5726
0.5758
0.5791
0.5825
0.5862
0.5901
0.5948
0.6020
0.6061
0.6118
0.6107
0.6105
0.6137
0.6168
0.6198
0.6228
0.6257
0.6285
0.6313
0.6339
0.6364
0.6540
0.6557
0.6566
0.6572
0.6593
0.6613
0.6633
0.6651
0.6668
0.6821
0.6832
0.6840
0.6846
0.6847
0.6841
0.6821
0.6838
0.6857
0.6874
0.6891
0.6908
0.6923
0.6935
0.6942
0.6962
0.6997
0.7033
0.7070
0.7109
0.7144
0.7327
0.7374
0.7430
0.7501
0.7530
0.7556
0.7582
0.7607
0.7632
0.7656
0.7679
0.7701
0.7721
0.7737
0.7743
0.7745
0.7778
0.7812
0.7846
0.7882
0.7918
0.7955
0.7994
0.8033
0.8069
0.8102
0.8132
0.8159
0.8185
0.8209
0.8232
0.8255
0.8278
0.8300
0.8323
0.8347
0.8374
0.8403
0.8692
0.8697
0.8702
0.8707
0.8711
0.8714
0.8717
0.8720
0.8721
0.8723
0.8723
0.8723
0.8721
0.8718
0.8714
0.8707
0.8696
0.8678
0.8618
0.8629
0.8639
0.8649
0.8659
0.8669
0.8679
0.8689
0.8698
0.8708
0.8717
0.8727
0.8736
0.8745
0.8754
0.8763
0.8998
0.9000
0.9002
0.9004
0.9005
0.9006
0.9006
0.9006
0.9005
0.9003
0.9000
0.8996
0.8990
0.8982
0.8971
0.8951
0.8903
0.8910
0.8918
0.8885
0.8896
0.8907
0.8918
0.8929
0.8940
0.8951
0.8961
0.8972
0.8982
0.8992
0.9002
0.9011
0.9019
0.9021
0.9028
0.9034
0.9040
0.9047
0.9053
0.9059
0.9065
0.9071
0.9077
0.9083
0.9089
0.9095
0.9100
0.9106
0.9112
0.9117
0.9123
0.9128
0.9134
0.9139
0.9144
0.9150
0.9155
0.9160
0.9165
0.9170
0.9176
0.9181
0.9186
0.9190
0.9195
0.9200
0.9205
0.9210
0.9215
0.9219
0.9224
0.9229
0.9233
0.9238
0.9242
0.9247
0.9251
0.9255
0.9260
0.9264
0.9268
0.9273
0.9277
0.9281
0.9285
0.9289
0.9293
0.9297
0.9301
0.9305
0.9309
0.9313
0.9317
0.9321
0.9325
0.9328
0.9332
0.9336
0.9339
0.9343
0.9347
0.9350
0.9354
0.9357
0.9361
0.9364
0.9368
0.9371
0.9375
0.9378
0.9381
0.9385
0.9388
0.9391
0.9395
0.9398
0.9401
0.9404
0.9407
0.9410
0.9413
0.9417
0.9420
0.9423
0.9426
0.9429
0.9432
0.9435
0.9437
0.9440
0.9443
0.9446
0.9449
