0
0
0
0
0
0
0
0
0
0
0
0
0
0
0
0
0
0
0
0
0
0
0
0
0
0
0
0
0
0
0
0
0
0
0
0
0
0
0
0
0
0
0
0
0
0
0
0
0
0
1
2
2
2
4
5
6
6
7
7
8
9
10
10
11
12
12
13
13
15
16
16
16
17
19
19
19
19
20
21
25
27
27
29
29
30
33
33
33
33
34
36
39
39
41
42
45
46
47
50
51
52
53
56
57
59
60
62
64
66
68
70
72
74
78
81
85
88
89
92
92
93
94
97
101
103
105
107
107
111
114
118
121
124
124
126
128
130
131
133
133
135
138
140
141
143
145
147
149
153
156
159
162
163
165
168
173
175
178
180
182
183
184
188
191
192
195
198
201
201
205
209
211
215
220
224
227
232
234
238
241
241
247
251
253
255
257
260
261
264
266
267
270
274
275
277
280
282
284
286
292
293
295
300
301
303
305
309
317
320
326
327
333
334
337
340
348
353
356
358
359
361
364
365
368
368
373
374
374
377
381
383
384
385
386
388
392
394
394
395
396
398
401
406
409
411
412
413
414
416
419
419
420
421
424
425
427
431
433
435
436
437
438
442
444
447
448
450
452
454
454
456
458
459
459
459
460
463
465
465
465
466
467
468
470
473
474
474
476
477
477
477
477
478
480
482
483
484
485
486
486
486
488
489
490
491
492
492
493
494
496
496
496
497
500
500
500
501
505
505
506
507
507
507
507
507
507
507
508
508
508
508
508
509
509
509
509
509
509
509
509
509
509
509
509
509
509
509
510
511
512
512
512
512
512
512
512
512
512
512
512
512
512
512
512
512
512
512
512
512
512
512
512
512
512
512
512
512
512
512
512
512
512
512
512
512
512
512
512
512
512
512
512
512
512
512
512
512
512
512
