Angle 0.718535 3.924056

4.00000 7.03348 4.00000
4.00000 7.03348 4.00000
4.00000 7.03348 4.00000
4.00000 7.03348 4.00000
4.00000 7.03348 4.00000
4.00000 7.03348 4.00000
4.00000 7.03350 4.00000
4.00000 7.03348 4.00000
4.00000 7.03348 4.00000
4.00000 7.03348 4.00000
4.00000 7.03348 4.00000
4.00000 7.03348 4.00000
4.00000 7.03348 4.00000
4.00000 7.03348 4.00000
4.00000 7.03348 4.00000
4.00000 7.03348 4.00000
4.00000 7.03348 4.00000
4.00000 7.03348 4.00000
4.00000 7.03348 4.00000
4.00000 7.03348 4.00000
4.00000 7.03348 4.00000
4.00000 7.03348 4.00000
4.00000 7.03348 4.00000
4.00000 7.03348 4.00000
4.00000 7.03348 4.00000
4.00000 7.03348 4.00000
4.00000 7.03348 4.00000
4.00000 7.03348 4.00000
4.00000 7.03348 4.00000
4.00000 7.03348 4.00000
4.00000 7.03348 4.00000
4.00000 7.03348 4.00000
4.00000 7.03348 4.00000
4.00000 7.03348 4.00000
4.00000 7.03348 4.00000
4.00000 7.03348 4.00000
4.00000 7.03348 4.00000
4.00000 7.03348 4.00000
4.00000 7.03348 4.00000
4.00000 7.03348 4.00000
4.00000 7.03348 4.00000
4.00000 7.03348 4.00000
4.00000 7.03348 4.00000
4.00000 7.03348 4.00000
4.00000 7.03348 4.00000
4.00000 7.03348 4.00000
4.00000 7.03348 4.00000
4.00000 7.03348 4.00000
4.00000 7.03348 4.00000
4.00000 7.03348 4.00000
4.00000 7.03348 4.00000
4.00000 7.03348 4.00000
4.00000 7.03348 4.00000
4.00000 7.03348 4.00000
4.00000 7.03348 4.00000
4.00000 7.03349 4.00000
4.00000 7.03349 4.00000
4.00000 7.03349 4.00000
4.00000 7.03349 4.00000
4.00000 7.03348 4.00000
4.00000 7.03348 4.00000
4.00000 7.03348 4.00000
4.00000 7.03348 4.00000
4.00000 7.03348 4.00000
4.00000 7.03348 4.00000
4.00000 7.03348 4.00000
4.00000 7.03348 4.00000
4.00000 7.03348 4.00000
4.00000 7.03349 4.00000
4.00000 7.03349 4.00000
4.00000 7.03349 4.00000
4.00000 7.03348 4.00000
4.00000 7.03348 4.00000
4.00000 7.03348 4.00000
4.00000 7.03348 4.00000
4.00000 7.03348 4.00000
4.00000 7.03348 4.00000
4.00000 7.03348 4.00000
4.00000 7.03348 4.00000
4.00000 7.03348 4.00000
4.00000 7.03348 4.00000
4.00000 7.03348 4.00000
4.00000 7.03348 4.00000
4.00000 7.03350 4.00000
4.00000 7.03347 4.00000
4.00000 7.03347 4.00000
4.00000 7.03349 4.00000
4.00000 7.03348 4.00000
4.00000 7.03347 4.00000
4.00000 7.03348 4.00000
4.00000 7.03348 4.00000
4.00000 7.03348 4.00000
4.00000 7.03348 4.00000
4.00000 7.03348 4.00000
4.00000 7.03348 4.00000
4.00000 7.03348 4.00000
4.00000 7.03348 4.00000
4.00000 7.03348 4.00000
4.00000 7.03348 4.00000
4.00000 7.03348 4.00000
4.00000 7.03348 4.00000
4.00000 7.03348 4.00000
4.00000 7.03348 4.00000
4.00000 7.03348 4.00000
4.00000 7.03348 4.00000
4.00000 7.03348 4.00000
4.00000 7.03348 4.00000
4.00000 7.03348 4.00000
4.00000 7.03348 4.00000
4.00000 7.03348 4.00000
4.00000 7.03348 4.00000
4.00000 7.03348 4.00000
4.00000 7.03348 4.00000
4.00000 7.03348 4.00000
4.00000 7.03348 4.00000
4.00000 7.03348 4.00000
4.00000 7.03348 4.00000
4.00000 7.03348 4.00000
4.00000 7.03348 4.00000
4.00000 7.03348 4.00000
4.00000 7.03348 4.00000
4.00000 7.03348 4.00000
4.00000 7.03348 4.00000
4.00000 7.03348 4.00000
4.00000 7.03348 4.00000
4.00000 7.03348 4.00000
4.00000 7.03348 4.00000
4.00000 7.03348 4.00000
4.00000 7.03348 4.00000
4.00000 7.03348 4.00000
4.00000 7.03348 4.00000
4.00000 7.03348 4.00000
4.00000 7.03348 4.00000
4.00000 7.03348 4.00000
4.00000 7.03348 4.00000
4.00000 7.03348 4.00000
4.00000 7.03348 4.00000
4.00000 7.03348 4.00000
4.00000 7.03348 4.00000
4.00000 7.03348 4.00000
4.00000 7.03348 4.00000
4.00000 7.03348 4.00000
4.00000 7.03348 4.00000
4.00000 7.03348 4.00000
4.00000 7.03348 4.00000
4.00000 7.03348 4.00000
4.00000 7.03348 4.00000
4.00000 7.03348 4.00000
4.00000 7.03348 4.00000
4.00000 7.03348 4.00000
4.00000 7.03348 4.00000
4.00000 7.03348 4.00000
4.00000 7.03348 4.00000
4.00000 7.03348 4.00000
4.00000 7.03348 4.00000
4.00000 7.03348 4.00000
4.00000 7.03348 4.00000
4.00000 7.03348 4.00000
4.00000 7.03348 4.00000
4.00000 7.03348 4.00000
4.00000 7.03348 4.00000
4.00000 7.03348 4.00000
4.00000 7.03347 4.00000
4.00000 7.03348 4.00000
4.00000 7.03348 4.00000
4.00000 7.03348 4.00000
4.00000 7.03348 4.00000
4.00000 7.03348 4.00000
4.00000 7.03348 4.00000
4.00000 7.03350 4.00000
4.00000 7.03348 4.00000
4.00000 7.03348 4.00000
4.00000 7.03348 4.00000
4.00000 7.03348 4.00000
4.00000 7.03348 4.00000
4.00000 7.03348 4.00000
4.00000 7.03348 4.00000
4.00000 7.03348 4.00000
4.00000 7.03348 4.00000
4.00000 7.03348 4.00000
4.00000 7.03348 4.00000
4.00000 7.03348 4.00000
4.00000 7.03348 4.00000
4.00000 7.03348 4.00000
4.00000 7.03348 4.00000
4.00000 7.03348 4.00000
4.00000 7.03348 4.00000
4.00000 7.03348 4.00000
4.00000 7.03348 4.00000
4.00000 7.03348 4.00000
4.00000 7.03348 4.00000
4.00000 7.03348 4.00000
4.00000 7.03348 4.00000
4.00000 7.03348 4.00000
4.00000 7.03348 4.00000
4.00000 7.03348 4.00000
4.00000 7.03348 4.00000
4.00000 7.03348 4.00000
4.00000 7.03348 4.00000
4.00000 7.03348 4.00000
4.00000 7.03348 4.00000
4.00000 7.03348 4.00000
4.00000 7.03348 4.00000
4.00000 7.03348 4.00000
4.00000 7.03348 4.00000
4.00000 7.03348 4.00000
4.00000 7.03348 4.00000
4.00000 7.03348 4.00000
4.00000 7.03348 4.00000
4.00000 7.03348 4.00000
4.00000 7.03348 4.00000
4.00000 7.03348 4.00000
4.00000 7.03348 4.00000
4.00000 7.03348 4.00000
4.00000 7.03348 4.00000
4.00000 7.03348 4.00000
4.00000 7.03348 4.00000
4.00000 7.03348 4.00000
4.00000 7.03348 4.00000
4.00000 7.03348 4.00000
4.00000 7.03348 4.00000
4.00000 7.03348 4.00000
4.00000 7.03348 4.00000
4.00000 7.03348 4.00000
4.00000 7.03348 4.00000
4.00000 7.03348 4.00000
4.00000 7.03348 4.00000
4.00000 7.03348 4.00000
4.00000 7.03348 4.00000
4.00000 7.03348 4.00000
4.00000 7.03348 4.00000
4.00000 7.03348 4.00000
4.00000 7.03348 4.00000
4.00000 7.03348 4.00000
4.00000 7.03348 4.00000
4.00000 7.03348 4.00000
4.00000 7.03348 4.00000
4.00000 7.03349 4.00000
4.00000 7.03348 4.00000
4.00000 7.03347 4.00000
4.00000 7.03348 4.00000
4.00000 7.03348 4.00000
4.00000 7.03348 4.00000
4.00000 7.03348 4.00000
4.00000 7.03348 4.00000
4.00000 7.03348 4.00000
4.00000 7.03348 4.00000
4.00000 7.03348 4.00000
4.00000 7.03348 4.00000
4.00000 7.03348 4.00000
4.00000 7.03348 4.00000
4.00000 7.03348 4.00000
4.00000 7.03348 4.00000
4.00000 7.03348 4.00000
4.00000 7.03348 4.00000
4.00000 7.03348 4.00000
4.00000 7.03347 4.00000
4.00000 7.03348 4.00000
4.00000 7.03348 4.00000
4.00000 7.03348 4.00000
4.00000 7.03348 4.00000
4.00000 7.03348 4.00000
4.00000 7.03349 4.00000
4.00315 7.09575 4.00315
4.00664 7.16687 4.00664
4.01005 7.23841 4.01005
4.01339 7.31030 4.01339
4.01667 7.38251 4.01667
4.01991 7.45500 4.01991
4.02312 7.52772 4.02312
4.02630 7.60064 4.02630
4.02947 7.67370 4.02947
4.03265 7.74687 4.03265
4.03584 7.82011 4.03584
4.03906 7.89336 4.03906
4.04232 7.96658 4.04232
4.04564 8.03971 4.04564
4.04904 8.11270 4.04904
4.05254 8.18548 4.05254
4.05615 8.25797 4.05615
4.05992 8.33010 4.05992
4.06387 8.40175 4.06387
4.06803 8.47282 4.06803
4.07246 8.54317 4.07246
4.07720 8.61263 4.07720
4.08232 8.68103 4.08232
4.08779 8.74847 4.08779
4.09357 8.81505 4.09357
4.09968 8.88076 4.09968
4.10613 8.94561 4.10613
4.11290 9.00960 4.11290
4.12000 9.07277 4.12000
4.12742 9.13517 4.12742
4.13512 9.19688 4.13512
4.14308 9.25802 4.14308
4.15125 9.31873 4.15125
4.15959 9.37918 4.15959
4.16799 9.43961 4.16799
4.17638 9.50031 4.17638
4.18462 9.56165 4.18462
4.19256 9.62406 4.19256
4.19999 9.68810 4.19999
4.20668 9.75445 4.20668
4.21233 9.82390 4.21233
4.21660 9.89743 4.21660
4.21910 9.97608 4.21910
4.21947 10.06086 4.21947
4.21797 10.15103 4.21797
4.21580 10.24314 4.21580
4.21305 10.33702 4.21305
4.20968 10.43270 4.20968
4.20567 10.53033 4.20567
4.20094 10.63011 4.20094
4.19538 10.73241 4.19538
4.18880 10.83777 4.18880
4.18095 10.94702 4.18095
4.17137 11.06156 4.17137
4.15926 11.18391 4.15926
4.14287 11.31956 4.14287
4.11680 11.48572 4.11680
4.00000 13.19120 4.00000
4.00000 13.19120 4.00000
4.00000 13.19120 4.00000
4.00000 13.19120 4.00000
4.00000 13.19120 4.00000
4.00000 13.19120 4.00000
4.00000 13.19120 4.00000
4.00000 13.19120 4.00000
4.00000 13.19120 4.00000
4.00000 13.19120 4.00000
4.00000 13.19120 4.00000
4.00000 13.19120 4.00000
4.00000 13.19120 4.00000
4.00000 13.19120 4.00000
4.00000 13.19120 4.00000
4.00946 13.22194 4.00946
4.02151 13.26831 4.02151
4.03221 13.31959 4.03221
4.04141 13.37620 4.04141
4.04894 13.43855 4.04894
4.05465 13.50703 4.05465
4.05840 13.58204 4.05840
4.06066 13.66190 4.06066
4.06281 13.74221 4.06281
4.06489 13.82275 4.06489
4.06692 13.90351 4.06692
4.06891 13.98446 4.06891
4.07084 14.06559 4.07084
4.07274 14.14688 4.07275
4.07461 14.22832 4.07461
4.07644 14.30990 4.07644
4.07825 14.39161 4.07825
4.08003 14.47343 4.08003
4.08178 14.55537 4.08178
4.08351 14.63741 4.08351
4.08522 14.71955 4.08522
4.08691 14.80178 4.08691
4.08859 14.88410 4.08859
4.09024 14.96650 4.09024
4.09189 15.04898 4.09189
4.09347 15.13168 4.09347
4.09480 15.21521 4.09480
4.09587 15.29959 4.09587
4.09668 15.38478 4.09668
4.09727 15.47074 4.09727
4.09763 15.55741 4.09763
4.09779 15.64476 4.09779
4.09775 15.73273 4.09776
4.09754 15.82130 4.09754
4.09716 15.91040 4.09716
4.09662 16.00000 4.09662
4.09595 16.09007 4.09595
4.09515 16.18056 4.09515
4.09424 16.27144 4.09424
4.09322 16.36268 4.09321
4.09210 16.45423 4.09210
4.09090 16.54607 4.09090
4.08963 16.63817 4.08963
4.08829 16.73051 4.08829
4.08690 16.82305 4.08690
4.08545 16.91576 4.08545
4.08397 17.00864 4.08397
4.08245 17.10165 4.08245
4.08090 17.19478 4.08090
4.07932 17.28800 4.07932
4.07774 17.38131 4.07774
4.07613 17.47467 4.07613
4.07453 17.56809 4.07453
4.07291 17.66154 4.07291
4.07130 17.75502 4.07130
4.06970 17.84850 4.06969
4.06809 17.94199 4.06809
4.06650 18.03547 4.06650
4.06492 18.12894 4.06492
4.06336 18.22238 4.06335
4.06181 18.31579 4.06181
4.06027 18.40917 4.06028
4.05876 18.50250 4.05876
4.05727 18.59579 4.05727
4.05581 18.68902 4.05581

Angle 0.364292 2.490180

4.00000 7.03348 4.00000
4.00000 7.03347 4.00000
4.00000 7.03348 4.00000
4.00000 7.03348 4.00000
4.00000 7.03348 4.00000
4.00000 7.03348 4.00000
4.00000 7.03348 4.00000
4.00000 7.03347 4.00000
4.00000 7.03348 4.00000
4.00000 7.03348 4.00000
4.00000 7.03348 4.00000
4.00000 7.03349 4.00000
4.00000 7.03348 4.00000
4.00000 7.03348 4.00000
4.00000 7.03348 4.00000
4.00000 7.03348 4.00000
4.00000 7.03348 4.00000
4.00000 7.03347 4.00000
4.00000 7.03348 4.00000
4.00000 7.03348 4.00000
4.00000 7.03348 4.00000
4.00000 7.03348 4.00000
4.00000 7.03348 4.00000
4.00000 7.03348 4.00000
4.00000 7.03348 4.00000
4.00000 7.03348 4.00000
4.00000 7.03348 4.00000
4.00000 7.03348 4.00000
4.00000 7.03348 4.00000
4.00000 7.03348 4.00000
4.00000 7.03348 4.00000
4.00000 7.03348 4.00000
4.00000 7.03348 4.00000
4.00000 7.03348 4.00000
4.00000 7.03348 4.00000
4.00000 7.03348 4.00000
4.00000 7.03348 4.00000
4.00000 7.03348 4.00000
4.00000 7.03348 4.00000
4.00000 7.03348 4.00000
4.00000 7.03348 4.00000
4.00000 7.03348 4.00000
4.00000 7.03348 4.00000
4.00000 7.03348 4.00000
4.00000 7.03348 4.00000
4.00000 7.03348 4.00000
4.00000 7.03348 4.00000
4.00000 7.03348 4.00000
4.00000 7.03348 4.00000
4.00000 7.03348 4.00000
4.00000 7.03348 4.00000
4.00000 7.03347 4.00000
4.00000 7.03348 4.00000
4.00000 7.03348 4.00000
4.00000 7.03348 4.00000
4.00000 7.03348 4.00000
4.00000 7.03348 4.00000
4.00000 7.03348 4.00000
4.00000 7.03348 4.00000
4.00000 7.03348 4.00000
4.00000 7.03348 4.00000
4.00000 7.03348 4.00000
4.00000 7.03348 4.00000
4.00000 7.03348 4.00000
4.00000 7.03349 4.00000
4.00000 7.03348 4.00000
4.00000 7.03348 4.00000
4.00000 7.03348 4.00000
4.00000 7.03348 4.00000
4.00000 7.03348 4.00000
4.00000 7.03348 4.00000
4.00000 7.03348 4.00000
4.00000 7.03348 4.00000
4.00000 7.03348 4.00000
4.00000 7.03349 4.00000
4.00000 7.03348 4.00000
4.00000 7.03348 4.00000
4.00000 7.03348 4.00000
4.00000 7.03348 4.00000
4.00000 7.03348 4.00000
4.00000 7.03348 4.00000
4.00000 7.03348 4.00000
4.00000 7.03348 4.00000
4.00000 7.03348 4.00000
4.00000 7.03348 4.00000
4.00000 7.03348 4.00000
4.00000 7.03348 4.00000
4.00000 7.03348 4.00000
4.00000 7.03348 4.00000
4.00000 7.03347 4.00000
4.00000 7.03348 4.00000
4.00000 7.03348 4.00000
4.00000 7.03348 4.00000
4.00000 7.03348 4.00000
4.00000 7.03348 4.00000
4.00000 7.03348 4.00000
4.00000 7.03348 4.00000
4.00000 7.03348 4.00000
4.00000 7.03348 4.00000
4.00000 7.03348 4.00000
4.00000 7.03348 4.00000
4.00000 7.03348 4.00000
4.00000 7.03348 4.00000
4.00000 7.03348 4.00000
4.00000 7.03349 4.00000
4.00000 7.03348 4.00000
4.00000 7.03348 4.00000
4.00000 7.03348 4.00000
4.00000 7.03348 4.00000
4.00000 7.03348 4.00000
4.00000 7.03348 4.00000
4.00000 7.03352 4.00000
4.00000 7.03348 4.00000
4.00000 7.03348 4.00000
4.00000 7.03348 4.00000
4.00000 7.03348 4.00000
4.00000 7.03348 4.00000
4.00000 7.03346 4.00000
4.00000 7.03348 4.00000
4.00000 7.03348 4.00000
4.00000 7.03342 4.00000
4.00000 7.03348 4.00000
4.00000 7.03348 4.00000
4.00000 7.03348 4.00000
4.00000 7.03348 4.00000
4.00000 7.03348 4.00000
4.00000 7.03348 4.00000
4.00000 7.03348 4.00000
4.00000 7.03348 4.00000
4.00000 7.03348 4.00000
4.00000 7.03346 4.00000
4.00000 7.03348 4.00000
4.00000 7.03348 4.00000
4.00000 7.03348 4.00000
4.00000 7.03348 4.00000
4.00000 7.03348 4.00000
4.00000 7.03348 4.00000
4.00000 7.03347 4.00000
4.00000 7.03348 4.00000
4.00000 7.03348 4.00000
4.00000 7.03348 4.00000
4.00000 7.03348 4.00000
4.00000 7.03348 4.00000
4.00000 7.03348 4.00000
4.00000 7.03348 4.00000
4.00000 7.03348 4.00000
4.00000 7.03348 4.00000
4.00000 7.03348 4.00000
4.00000 7.03348 4.00000
4.00000 7.03348 4.00000
4.00000 7.03348 4.00000
4.00000 7.03348 4.00000
4.00000 7.03348 4.00000
4.00000 7.03348 4.00000
4.00000 7.03348 4.00000
4.00000 7.03348 4.00000
4.00000 7.03348 4.00000
4.00000 7.03348 4.00000
4.00000 7.03348 4.00000
4.00000 7.03348 4.00000
4.00000 7.03348 4.00000
4.00000 7.03348 4.00000
4.00000 7.03348 4.00000
4.00000 7.03348 4.00000
4.00000 7.03348 4.00000
4.00000 7.03348 4.00000
4.00000 7.03348 4.00000
4.00000 7.03348 4.00000
4.00000 7.03348 4.00000
4.00000 7.03348 4.00000
4.00000 7.03348 4.00000
4.00000 7.03348 4.00000
4.00000 7.03348 4.00000
4.00000 7.03348 4.00000
4.00000 7.03348 4.00000
4.00000 7.03348 4.00000
4.00000 7.03348 4.00000
4.00000 7.03348 4.00000
4.00000 7.03348 4.00000
4.00000 7.03348 4.00000
4.00000 7.03348 4.00000
4.00000 7.03348 4.00000
4.00000 7.03347 4.00000
4.00000 7.03347 4.00000
4.00000 7.03347 4.00000
4.00000 7.03347 4.00000
4.00000 7.03348 4.00000
4.00000 7.03348 4.00000
4.00000 7.03348 4.00000
4.00000 7.03348 4.00000
4.00000 7.03348 4.00000
4.00000 7.03348 4.00000
4.00000 7.03348 4.00000
4.00000 7.03348 4.00000
4.00000 7.03347 4.00000
4.00000 7.03347 4.00000
4.00000 7.03347 4.00000
4.00000 7.03347 4.00000
4.00000 7.03347 4.00000
4.00000 7.03347 4.00000
4.00000 7.03347 4.00000
4.00000 7.03347 4.00000
4.00000 7.03348 4.00000
4.00000 7.03348 4.00000
4.00000 7.03348 4.00000
4.00000 7.03348 4.00000
4.00000 7.03348 4.00000
4.00000 7.03348 4.00000
4.00000 7.03348 4.00000
4.00000 7.03348 4.00000
4.00000 7.03348 4.00000
4.00000 7.03347 4.00000
4.00000 7.03348 4.00000
4.00000 7.03348 4.00000
4.00000 7.03348 4.00000
4.00000 7.03348 4.00000
4.00000 7.03348 4.00000
4.00000 7.03348 4.00000
4.00000 7.03348 4.00000
4.00000 7.03349 4.00000
4.00000 7.03348 4.00000
4.00000 7.03348 4.00000
4.00000 7.03348 4.00000
4.00000 7.03348 4.00000
4.00000 7.03348 4.00000
4.00000 7.03348 4.00000
4.00000 7.03348 4.00000
4.00000 7.03348 4.00000
4.00000 7.03348 4.00000
4.00000 7.03348 4.00000
4.00000 7.03348 4.00000
4.00000 7.03348 4.00000
4.00000 7.03348 4.00000
4.00000 7.03348 4.00000
4.00000 7.03348 4.00000
4.00000 7.03348 4.00000
4.00000 7.03348 4.00000
4.00000 7.03348 4.00000
4.00000 7.03348 4.00000
4.00000 7.03348 4.00000
4.00000 7.03348 4.00000
4.00000 7.03348 4.00000
4.00000 7.03348 4.00000
4.00000 7.03348 4.00000
4.00000 7.03347 4.00000
4.00000 7.03348 4.00000
4.00000 7.03348 4.00000
4.00000 7.03348 4.00000
4.00000 7.03348 4.00000
4.00000 7.03348 4.00000
4.00000 7.03348 4.00000
4.00000 7.03348 4.00000
4.00000 7.03348 4.00000
4.00000 7.03347 4.00000
4.00000 7.03347 4.00000
4.00000 7.03347 4.00000
4.00000 7.03348 4.00000
4.00000 7.03348 4.00000
4.00000 7.03348 4.00000
4.00000 7.03348 4.00000
4.00000 7.03348 4.00000
4.00000 7.03357 4.00000
4.00121 7.05706 4.00121
4.00500 7.13309 4.00500
4.00868 7.20953 4.00868
4.01229 7.28633 4.01229
4.01581 7.36344 4.01581
4.01928 7.44080 4.01928
4.02271 7.51837 4.02271
4.02610 7.59609 4.02610
4.02948 7.67391 4.02948
4.03286 7.75180 4.03286
4.03626 7.82968 4.03626
4.03968 7.90751 4.03968
4.04316 7.98523 4.04316
4.04670 8.06278 4.04670
4.05034 8.14008 4.05034
4.05409 8.21705 4.05409
4.05799 8.29360 4.05799
4.06207 8.36964 4.06207
4.06637 8.44502 4.06637
4.07094 8.51962 4.07094
4.07584 8.59323 4.07584
4.08113 8.66567 4.08113
4.08682 8.73693 4.08682
4.09287 8.80719 4.09287
4.09927 8.87645 4.09927
4.10603 8.94470 4.10603
4.11316 9.01196 4.11316
4.12064 9.07828 4.12064
4.12846 9.14372 4.12846
4.13659 9.20838 4.13659
4.14499 9.27239 4.14499
4.15361 9.33593 4.15361
4.16237 9.39923 4.16237
4.17118 9.46257 4.17118
4.17992 9.52632 4.17992
4.18841 9.59092 4.18841
4.19648 9.65693 4.19648
4.20386 9.72505 4.20386
4.21026 9.79613 4.21026
4.21529 9.87119 4.21529
4.21854 9.95138 4.21854
4.21959 10.03788 4.21959
4.21836 10.13090 4.21836
4.21623 10.22652 4.21623
4.21346 10.32400 4.21346
4.21003 10.42338 4.21004
4.20591 10.52480 4.20591
4.20102 10.62850 4.20102
4.19523 10.73488 4.19523
4.18835 10.84452 4.18835
4.18006 10.95841 4.18006
4.16985 11.07816 4.16985
4.15672 11.20687 4.15672
4.13841 11.35171 4.13841
4.10647 11.53968 4.10647
4.00000 13.19120 4.00000
4.00000 13.19120 4.00000
4.00000 13.19120 4.00000
4.00000 13.19120 4.00000
4.00000 13.19120 4.00000
4.00000 13.19120 4.00000
4.00000 13.19120 4.00000
4.00000 13.19120 4.00000
4.00000 13.19120 4.00000
4.00000 13.19120 4.00000
4.00000 13.19120 4.00000
4.00000 13.19120 4.00000
4.00000 13.19120 4.00000
4.00000 13.19120 4.00000
4.00649 13.21182 4.00649
4.01919 13.25861 4.01919
4.03050 13.31053 4.03050
4.04023 13.36803 4.04023
4.04822 13.43155 4.04822
4.05428 13.50151 4.05428
4.05827 13.57835 4.05827
4.06063 13.66053 4.06063
4.06284 13.74321 4.06283
4.06498 13.82612 4.06498
4.06707 13.90924 4.06707
4.06910 13.99254 4.06910
4.07109 14.07600 4.07109
4.07304 14.15961 4.07304
4.07495 14.24336 4.07495
4.07683 14.32722 4.07683
4.07868 14.41121 4.07868
4.08050 14.49529 4.08050
4.08229 14.57947 4.08229
4.08406 14.66374 4.08406
4.08581 14.74809 4.08581
4.08754 14.83252 4.08754
4.08925 14.91702 4.08925
4.09094 15.00158 4.09094
4.09262 15.08621 4.09262
4.09414 15.17137 4.09414
4.09537 15.25744 4.09537
4.09633 15.34436 4.09633
4.09703 15.43209 4.09703
4.09750 15.52058 4.09750
4.09775 15.60978 4.09775
4.09779 15.69963 4.09779
4.09763 15.79010 4.09763
4.09730 15.88113 4.09730
4.09680 15.97269 4.09680
4.09615 16.06472 4.09615
4.09537 16.15720 4.09537
4.09446 16.25007 4.09446
4.09344 16.34330 4.09344
4.09232 16.43686 4.09232
4.09111 16.53071 4.09111
4.08982 16.62482 4.08982
4.08846 16.71916 4.08846
4.08704 16.81370 4.08704
4.08557 16.90841 4.08557
4.08405 17.00328 4.08405
4.08250 17.09827 4.08250
4.08092 17.19337 4.08092
4.07932 17.28855 4.07932
4.07769 17.38380 4.07769
4.07606 17.47911 4.07606
4.07442 17.57444 4.07442
4.07277 17.66980 4.07277
4.07113 17.76517 4.07113
4.06949 17.86053 4.06949
4.06785 17.95589 4.06785
4.06623 18.05121 4.06623
4.06462 18.14651 4.06462
4.06303 18.24176 4.06303
4.06146 18.33697 4.06146
4.05990 18.43213 4.05990
4.05837 18.52723 4.05837
4.05686 18.62226 4.05686
4.05537 18.71722 4.05537
4.05390 18.81212 4.05390
4.05247 18.90694 4.05247
4.05105 19.00168 4.05105
4.04967 19.09635 4.04967
4.04831 19.19093 4.04831

Angle 0.530184 5.962580

4.00000 7.03350 4.00000
4.00000 7.03347 4.00000
4.00000 7.03347 4.00000
4.00000 7.03348 4.00000
4.00000 7.03348 4.00000
4.00000 7.03351 4.00000
4.00000 7.03351 4.00000
4.00000 7.03348 4.00000
4.00000 7.03347 4.00000
4.00000 7.03348 4.00000
4.00000 7.03348 4.00000
4.00000 7.03348 4.00000
4.00000 7.03348 4.00000
4.00000 7.03348 4.00000
4.00000 7.03348 4.00000
4.00000 7.03348 4.00000
4.00000 7.03348 4.00000
4.00000 7.03348 4.00000
4.00000 7.03348 4.00000
4.00000 7.03348 4.00000
4.00000 7.03347 4.00000
4.00000 7.03348 4.00000
4.00000 7.03348 4.00000
4.00000 7.03348 4.00000
4.00000 7.03352 4.00000
4.00000 7.03352 4.00000
4.00000 7.03348 4.00000
4.00000 7.03346 4.00000
4.00000 7.03348 4.00000
4.00000 7.03348 4.00000
4.00000 7.03348 4.00000
4.00000 7.03348 4.00000
4.00000 7.03348 4.00000
4.00000 7.03348 4.00000
4.00000 7.03352 4.00000
4.00000 7.03348 4.00000
4.00000 7.03348 4.00000
4.00000 7.03348 4.00000
4.00000 7.03348 4.00000
4.00000 7.03348 4.00000
4.00000 7.03348 4.00000
4.00000 7.03348 4.00000
4.00000 7.03348 4.00000
4.00000 7.03348 4.00000
4.00000 7.03348 4.00000
4.00000 7.03348 4.00000
4.00000 7.03348 4.00000
4.00000 7.03348 4.00000
4.00000 7.03347 4.00000
4.00000 7.03349 4.00000
4.00000 7.03348 4.00000
4.00000 7.03348 4.00000
4.00000 7.03348 4.00000
4.00000 7.03348 4.00000
4.00000 7.03347 4.00000
4.00000 7.03348 4.00000
4.00000 7.03348 4.00000
4.00000 7.03348 4.00000
4.00000 7.03348 4.00000
4.00000 7.03348 4.00000
4.00000 7.03348 4.00000
4.00000 7.03348 4.00000
4.00000 7.03348 4.00000
4.00000 7.03348 4.00000
4.00000 7.03348 4.00000
4.00000 7.03348 4.00000
4.00000 7.03348 4.00000
4.00000 7.03348 4.00000
4.00000 7.03348 4.00000
4.00000 7.03347 4.00000
4.00000 7.03348 4.00000
4.00000 7.03348 4.00000
4.00000 7.03348 4.00000
4.00000 7.03348 4.00000
4.00000 7.03348 4.00000
4.00000 7.03348 4.00000
4.00000 7.03348 4.00000
4.00000 7.03347 4.00000
4.00000 7.03348 4.00000
4.00000 7.03349 4.00000
4.00000 7.03347 4.00000
4.00000 7.03348 4.00000
4.00000 7.03348 4.00000
4.00000 7.03348 4.00000
4.00000 7.03349 4.00000
4.00000 7.03350 4.00000
4.00000 7.03347 4.00000
4.00000 7.03343 3.99999
4.00000 7.03352 4.00000
4.00000 7.03350 4.00000
4.00000 7.03348 4.00000
4.00000 7.03348 4.00000
4.00000 7.03348 4.00000
4.00000 7.03348 4.00000
4.00000 7.03348 4.00000
4.00000 7.03348 4.00000
4.00000 7.03347 4.00000
4.00000 7.03348 4.00000
4.00000 7.03348 4.00000
4.00000 7.03348 4.00000
4.00000 7.03348 4.00000
4.00000 7.03348 4.00000
4.00000 7.03347 4.00000
4.00000 7.03348 4.00000
4.00000 7.03348 4.00000
4.00000 7.03348 4.00000
4.00000 7.03348 4.00000
4.00000 7.03348 4.00000
4.00000 7.03348 4.00000
4.00000 7.03348 4.00000
4.00000 7.03347 4.00000
4.00000 7.03347 4.00000
4.00000 7.03348 4.00000
4.00000 7.03348 4.00000
4.00000 7.03348 4.00000
4.00000 7.03348 4.00000
4.00000 7.03348 4.00000
4.00000 7.03348 4.00000
4.00000 7.03348 4.00000
4.00000 7.03348 4.00000
4.00000 7.03348 4.00000
4.00000 7.03348 4.00000
4.00000 7.03348 4.00000
4.00000 7.03348 4.00000
4.00000 7.03347 4.00000
4.00000 7.03349 4.00000
4.00000 7.03348 4.00000
4.00000 7.03348 4.00000
4.00000 7.03348 4.00000
4.00000 7.03348 4.00000
4.00000 7.03348 4.00000
4.00000 7.03348 4.00000
4.00000 7.03348 4.00000
4.00000 7.03348 4.00000
4.00000 7.03348 4.00000
4.00000 7.03348 4.00000
4.00000 7.03348 4.00000
4.00000 7.03348 4.00000
4.00000 7.03348 4.00000
4.00000 7.03348 4.00000
4.00000 7.03348 4.00000
4.00000 7.03348 4.00000
4.00000 7.03348 4.00000
4.00000 7.03348 4.00000
4.00000 7.03348 4.00000
4.00000 7.03348 4.00000
4.00000 7.03348 4.00000
4.00000 7.03348 4.00000
4.00000 7.03349 4.00000
4.00000 7.03347 4.00000
4.00000 7.03349 4.00000
4.00000 7.03348 4.00000
4.00000 7.03347 4.00000
4.00000 7.03348 4.00000
4.00000 7.03348 4.00000
4.00000 7.03348 4.00000
4.00000 7.03348 4.00000
4.00297 7.09206 4.00297
4.00676 7.16940 4.00676
4.01046 7.24713 4.01046
4.01407 7.32519 4.01407
4.01762 7.40352 4.01762
4.02111 7.48207 4.02111
4.02456 7.56079 4.02456
4.02800 7.63962 4.02800
4.03142 7.71853 4.03142
4.03485 7.79744 4.03485
4.03830 7.87631 4.03830
4.04180 7.95508 4.04180
4.04536 8.03369 4.04536
4.04901 8.11205 4.04901
4.05276 8.19011 4.05276
4.05665 8.26775 4.05665
4.06072 8.34489 4.06072
4.06499 8.42140 4.06499
4.06953 8.49713 4.06953
4.07437 8.57192 4.07437
4.07961 8.64555 4.07960
4.08526 8.71791 4.08526
4.09128 8.78923 4.09128
4.09766 8.85951 4.09766
4.10441 8.92875 4.10441
4.11153 8.99696 4.11153
4.11901 9.06419 4.11902
4.12685 9.13050 4.12685
4.13500 9.19599 4.13500
4.14344 9.26077 4.14344
4.15212 9.32503 4.15212
4.16095 9.38899 4.16095
4.16984 9.45294 4.16984
4.17869 9.51722 4.17869
4.18731 9.58231 4.18731
4.19552 9.64874 4.19552
4.20307 9.71722 4.20307
4.20965 9.78861 4.20965
4.21488 9.86392 4.21488
4.21835 9.94433 4.21835
4.21960 10.03108 4.21960
4.21848 10.12459 4.21848
4.21638 10.22093 4.21638
4.21361 10.31917 4.21361
4.21019 10.41934 4.21019
4.20606 10.52156 4.20606
4.20114 10.62609 4.20114
4.19532 10.73331 4.19532
4.18839 10.84384 4.18839
4.18004 10.95867 4.18004
4.16973 11.07946 4.16973
4.15644 11.20939 4.15644
4.13781 11.35595 4.13781
4.10474 11.54819 4.10474
4.00000 13.19120 4.00000
4.00000 13.19120 4.00000
4.00000 13.19120 4.00000
4.00000 13.19120 4.00000
4.00000 13.19120 4.00000
4.00000 13.19120 4.00000
4.00000 13.19120 4.00000
4.00000 13.19120 4.00000
4.00000 13.19120 4.00000
4.00000 13.19120 4.00000
4.00000 13.19121 4.00000
4.00000 13.19120 4.00000
4.00000 13.19120 4.00000
4.00000 13.19120 4.00000
4.00842 13.21833 4.00842
4.02101 13.26619 4.02101
4.03216 13.31931 4.03216
4.04168 13.37814 4.04169
4.04941 13.44315 4.04940
4.05515 13.51477 4.05515
4.05877 13.59342 4.05877
4.06106 13.67640 4.06106
4.06327 13.75967 4.06327
4.06541 13.84315 4.06541
4.06750 13.92683 4.06750
4.06954 14.01069 4.06954
4.07153 14.09470 4.07153
4.07348 14.17886 4.07348
4.07540 14.26314 4.07540
4.07728 14.34755 4.07728
4.07913 14.43206 4.07913
4.08095 14.51667 4.08095
4.08275 14.60137 4.08275
4.08453 14.68615 4.08453
4.08628 14.77101 4.08628
4.08802 14.85594 4.08802
4.08973 14.94094 4.08973
4.09143 15.02600 4.09143
4.09310 15.11117 4.09310
4.09453 15.19708 4.09453
4.09569 15.28388 4.09569
4.09657 15.37154 4.09657
4.09721 15.45998 4.09721
4.09761 15.54918 4.09761
4.09778 15.63907 4.09778
4.09776 15.72961 4.09776
4.09754 15.82074 4.09754
4.09715 15.91243 4.09715
4.09659 16.00463 4.09659
4.09589 16.09730 4.09589
4.09506 16.19038 4.09506
4.09410 16.28386 4.09410
4.09304 16.37768 4.09304
4.09188 16.47182 4.09188
4.09063 16.56623 4.09063
4.08931 16.66089 4.08931
4.08792 16.75576 4.08792
4.08647 16.85083 4.08647
4.08497 16.94606 4.08497
4.08343 17.04142 4.08343
4.08186 17.13691 4.08186
4.08026 17.23248 4.08026
4.07864 17.32814 4.07864
4.07701 17.42385 4.07701
4.07536 17.51960 4.07536
4.07371 17.61538 4.07371
4.07206 17.71117 4.07206
4.07041 17.80696 4.07041
4.06876 17.90275 4.06876
4.06713 17.99850 4.06713
4.06551 18.09423 4.06551
4.06390 18.18992 4.06390
4.06231 18.28557 4.06231
4.06073 18.38116 4.06073
4.05918 18.47669 4.05918
4.05765 18.57215 4.05765
4.05614 18.66755 4.05614
4.05466 18.76288 4.05466
4.05320 18.85812 4.05320
4.05177 18.95329 4.05177
4.05037 19.04838 4.05037
4.04899 19.14339 4.04899
4.04764 19.23831 4.04764
4.04632 19.33313 4.04632
4.04503 19.42788 4.04503
4.04376 19.52254 4.04376
4.04253 19.61711 4.04253
4.04132 19.71158 4.04132
4.04014 19.80597 4.04014
4.03899 19.90028 4.03899
4.03786 19.99449 4.03786
4.03677 20.08862 4.03677
4.03570 20.18266 4.03570
4.03466 20.27661 4.03466
4.03364 20.37048 4.03364
4.03265 20.46427 4.03265
4.03169 20.55797 4.03169
4.03075 20.65159 4.03075
4.02984 20.74512 4.02984
4.02895 20.83858 4.02895
4.02809 20.93197 4.02809
4.02725 21.02527 4.02725
4.02643 21.11850 4.02643
4.02563 21.21166 4.02563
4.02486 21.30474 4.02486
4.02411 21.39776 4.02411
4.02338 21.49070 4.02338
4.02267 21.58358 4.02267
4.02198 21.67639 4.02198
4.02131 21.76914 4.02131
4.02066 21.86182 4.02066
4.02003 21.95444 4.02003
4.01942 22.04701 4.01942
4.01883 22.13951 4.01882
4.01825 22.23195 4.01825
4.01769 22.32434 4.01769
4.01714 22.41668 4.01714
4.01662 22.50896 4.01661
4.01610 22.60119 4.01610
4.01561 22.69337 4.01561
4.01512 22.78550 4.01512
4.01466 22.87758 4.01466
4.01420 22.96962 4.01420
4.01376 23.06161 4.01376
4.01334 23.15356 4.01333
4.01292 23.24546 4.01292
4.01252 23.33733 4.01252
4.01213 23.42915 4.01213
4.01175 23.52093 4.01175
4.01139 23.61268 4.01139
4.01103 23.70439 4.01103
4.01069 23.79606 4.01069
4.01035 23.88770 4.01035
4.01003 23.97930 4.01003
4.00972 24.07087 4.00972
4.00941 24.16241 4.00941
4.00912 24.25392 4.00912
4.00883 24.34539 4.00883
4.00856 24.43684 4.00856
4.00829 24.52826 4.00829
4.00803 24.61965 4.00803
4.00778 24.71101 4.00778
4.00753 24.80235 4.00753
4.00730 24.89366 4.00730
4.00707 24.98495 4.00707
4.00684 25.07622 4.00684
4.00663 25.16746 4.00663
4.00642 25.25868 4.00642
4.00622 25.34988 4.00622
4.00602 25.44106 4.00602
4.00583 25.53221 4.00583
4.00565 25.62335 4.00565
4.00547 25.71447 4.00547
4.00530 25.80557 4.00530
4.00513 25.89665 4.00513
4.00497 25.98771 4.00497
4.00481 26.07876 4.00481
4.00466 26.16979 4.00466
4.00451 26.26080 4.00451
4.00437 26.35180 4.00437
4.00423 26.44278 4.00423
4.00410 26.53375 4.00410
4.00397 26.62471 4.00397
4.00385 26.71565 4.00384
4.00372 26.80658 4.00372
4.00361 26.89750 4.00361
4.00349 26.98840 4.00349
4.00338 27.07929 4.00338
4.00327 27.17017 4.00328
4.00317 27.26104 4.00317
4.00307 27.35190 4.00307
4.00297 27.44275 4.00297
4.00288 27.53358 4.00288
4.00279 27.62441 4.00279
4.00270 27.71523 4.00270
4.00261 27.80604 4.00261
4.00253 27.89684 4.00253
4.00245 27.98763 4.00245
4.00237 28.07841 4.00237
4.00230 28.16919 4.00230
4.00223 28.25996 4.00223
4.00216 28.35072 4.00215
4.00209 28.44147 4.00209
4.00202 28.53221 4.00202
4.00196 28.62295 4.00196
4.00189 28.71368 4.00189
4.00183 28.80441 4.00183
4.00178 28.89513 4.00178
4.00172 28.98584 4.00172

Angle 0.094840 2.288413

4.00000 7.03348 4.00000
4.00000 7.03348 4.00000
4.00000 7.03348 4.00000
4.00000 7.03348 4.00000
4.00000 7.03348 4.00000
4.00000 7.03348 4.00000
4.00000 7.03348 4.00000
4.00000 7.03348 4.00000
4.00000 7.03348 4.00000
4.00000 7.03348 4.00000
4.00000 7.03348 4.00000
4.00000 7.03348 4.00000
4.00000 7.03348 4.00000
4.00000 7.03347 4.00000
4.00000 7.03348 4.00000
4.00000 7.03348 4.00000
4.00000 7.03348 4.00000
4.00000 7.03348 4.00000
4.00000 7.03348 4.00000
4.00000 7.03348 4.00000
4.00000 7.03348 4.00000
4.00000 7.03348 4.00000
4.00000 7.03348 4.00000
4.00000 7.03347 4.00000
4.00000 7.03347 4.00000
4.00000 7.03348 4.00000
4.00000 7.03348 4.00000
4.00000 7.03348 4.00000
4.00000 7.03348 4.00000
4.00000 7.03348 4.00000
4.00000 7.03348 4.00000
4.00000 7.03348 4.00000
4.00000 7.03348 4.00000
4.00000 7.03348 4.00000
4.00000 7.03348 4.00000
4.00000 7.03348 4.00000
4.00000 7.03348 4.00000
4.00000 7.03348 4.00000
4.00000 7.03348 4.00000
4.00000 7.03348 4.00000
4.00000 7.03348 4.00000
4.00000 7.03348 4.00000
4.00000 7.03348 4.00000
4.00000 7.03348 4.00000
4.00000 7.03348 4.00000
4.00000 7.03348 4.00000
4.00000 7.03348 4.00000
4.00000 7.03348 4.00000
4.00000 7.03348 4.00000
4.00000 7.03348 4.00000
4.00000 7.03348 4.00000
4.00000 7.03348 4.00000
4.00000 7.03347 4.00000
4.00000 7.03347 4.00000
4.00000 7.03348 4.00000
4.00000 7.03348 4.00000
4.00000 7.03348 4.00000
4.00000 7.03348 4.00000
4.00000 7.03348 4.00000
4.00000 7.03348 4.00000
4.00000 7.03348 4.00000
4.00000 7.03348 4.00000
4.00000 7.03348 4.00000
4.00000 7.03348 4.00000
4.00000 7.03348 4.00000
4.00000 7.03348 4.00000
4.00000 7.03348 4.00000
4.00000 7.03348 4.00000
4.00000 7.03348 4.00000
4.00000 7.03348 4.00000
4.00000 7.03348 4.00000
4.00000 7.03348 4.00000
4.00000 7.03348 4.00000
4.00000 7.03348 4.00000
4.00000 7.03348 4.00000
4.00000 7.03348 4.00000
4.00000 7.03348 4.00000
4.00000 7.03348 4.00000
4.00000 7.03348 4.00000
4.00000 7.03348 4.00000
4.00000 7.03348 4.00000
4.00000 7.03348 4.00000
4.00000 7.03348 4.00000
4.00000 7.03348 4.00000
4.00000 7.03348 4.00000
4.00000 7.03348 4.00000
4.00000 7.03348 4.00000
4.00000 7.03348 4.00000
4.00000 7.03348 4.00000
4.00000 7.03348 4.00000
4.00000 7.03348 4.00000
4.00000 7.03348 4.00000
4.00000 7.03348 4.00000
4.00000 7.03348 4.00000
4.00000 7.03348 4.00000
4.00000 7.03348 4.00000
4.00000 7.03348 4.00000
4.00000 7.03348 4.00000
4.00000 7.03348 4.00000
4.00000 7.03348 4.00000
4.00000 7.03348 4.00000
4.00000 7.03346 4.00000
4.00000 7.03348 4.00000
4.00000 7.03348 4.00000
4.00000 7.03348 4.00000
4.00000 7.03348 4.00000
4.00000 7.03348 4.00000
4.00000 7.03348 4.00000
4.00000 7.03348 4.00000
4.00000 7.03348 4.00000
4.00000 7.03348 4.00000
4.00000 7.03348 4.00000
4.00000 7.03348 4.00000
4.00000 7.03348 4.00000
4.00000 7.03348 4.00000
4.00000 7.03348 4.00000
4.00000 7.03348 4.00000
4.00000 7.03348 4.00000
4.00000 7.03348 4.00000
4.00000 7.03348 4.00000
4.00000 7.03346 4.00000
4.00185 7.06973 4.00185
4.00549 7.14327 4.00549
4.00905 7.21721 4.00905
4.01253 7.29152 4.01253
4.01594 7.36614 4.01594
4.01929 7.44104 4.01930
4.02261 7.51616 4.02261
4.02590 7.59146 4.02590
4.02918 7.66688 4.02918
4.03245 7.74240 4.03245
4.03574 7.81795 4.03574
4.03906 7.89349 4.03906
4.04242 7.96897 4.04243
4.04585 8.04432 4.04585
4.04936 8.11948 4.04936
4.05297 8.19439 4.05297
4.05672 8.26895 4.05672
4.06062 8.34307 4.06062
4.06472 8.41666 4.06472
4.06906 8.48957 4.06906
4.07368 8.56166 4.07368
4.07866 8.63273 4.07866
4.08403 8.70265 4.08403
4.08975 8.77160 4.08975
4.09581 8.83961 4.09581
4.10221 8.90669 4.10221
4.10896 8.97284 4.10896
4.11605 9.03808 4.11605
4.12348 9.10246 4.12348
4.13122 9.16605 4.13122
4.13926 9.22896 4.13926
4.14753 9.29131 4.14753
4.15600 9.35329 4.15600
4.16459 9.41513 4.16459
4.17319 9.47710 4.17319
4.18169 9.53956 4.18169
4.18994 9.60296 4.18994
4.19773 9.66783 4.19773
4.20483 9.73486 4.20483
4.21094 9.80486 4.21094
4.21569 9.87882 4.21570
4.21871 9.95782 4.21871
4.21958 10.04299 4.21958
4.21830 10.13432 4.21830
4.21620 10.22804 4.21620
4.21347 10.32357 4.21347
4.21013 10.42096 4.21013
4.20611 10.52031 4.20611
4.20136 10.62187 4.20136
4.19575 10.72598 4.19575
4.18911 10.83321 4.18911
4.18115 10.94442 4.18115
4.17141 11.06105 4.17142
4.15905 11.18577 4.15905
4.14221 11.32442 4.14221
4.11490 11.49608 4.11490
4.00000 13.19120 4.00000
4.00000 13.19120 4.00000
4.00000 13.19120 4.00000
4.00000 13.19120 4.00000
4.00000 13.19120 4.00000
4.00000 13.19120 4.00000
4.00000 13.19120 4.00000
4.00000 13.19120 4.00000
3.99999 13.19120 4.00000
4.00000 13.19120 4.00000
4.00000 13.19120 4.00000
4.00000 13.19120 4.00000
4.00000 13.19120 4.00000
4.00000 13.19120 4.00000
4.00042 13.19247 4.00042
4.01349 13.23640 4.01349
4.02529 13.28509 4.02529
4.03565 13.33899 4.03565
4.04439 13.39853 4.04439
4.05136 13.46412 4.05136
4.05639 13.53618 4.05639
4.05938 13.61498 4.05938
4.06159 13.69632 4.06159
4.06374 13.77790 4.06374
4.06583 13.85971 4.06583
4.06786 13.94172 4.06787
4.06985 14.02390 4.06985
4.07180 14.10626 4.07180
4.07371 14.18876 4.07371
4.07558 14.27139 4.07558
4.07742 14.35416 4.07742
4.07924 14.43704 4.07924
4.08103 14.52003 4.08103
4.08279 14.60312 4.08279
4.08453 14.68630 4.08453
4.08625 14.76957 4.08625
4.08795 14.85292 4.08796
4.08964 14.93636 4.08964
4.09130 15.01986 4.09131
4.09295 15.10346 4.09296
4.09439 15.18773 4.09439
4.09556 15.27289 4.09556
4.09646 15.35888 4.09646
4.09712 15.44566 4.09712
4.09755 15.53318 4.09755
4.09777 15.62140 4.09777
4.09778 15.71026 4.09778
4.09760 15.79972 4.09760
4.09726 15.88974 4.09726
4.09675 15.98027 4.09675
4.09610 16.07128 4.09610
4.09532 16.16272 4.09532
4.09441 16.25456 4.09441
4.09340 16.34676 4.09340
4.09229 16.43928 4.09229
4.09109 16.53209 4.09109
4.08981 16.62517 4.08981
4.08847 16.71848 4.08847
4.08707 16.81199 4.08707
4.08561 16.90568 4.08561
4.08411 16.99953 4.08411
4.08258 17.09351 4.08258
4.08102 17.18760 4.08102
4.07943 17.28178 4.07943
4.07783 17.37604 4.07783
4.07621 17.47036 4.07621
4.07459 17.56472 4.07459
4.07296 17.65912 4.07296
4.07133 17.75353 4.07133
4.06970 17.84794 4.06970
4.06809 17.94235 4.06809
4.06648 18.03674 4.06648
4.06488 18.13111 4.06488
4.06330 18.22545 4.06330
4.06174 18.31975 4.06174
4.06020 18.41401 4.06020
4.05867 18.50822 4.05867
4.05717 18.60237 4.05717
4.05569 18.69646 4.05569
4.05424 18.79049 4.05424
4.05280 18.88446 4.05280
4.05140 18.97835 4.05140
4.05002 19.07218 4.05002
4.04867 19.16593 4.04867
4.04734 19.25960 4.04734
4.04604 19.35320 4.04604
4.04477 19.44673 4.04477
4.04353 19.54017 4.04353
4.04232 19.63354 4.04232
4.04113 19.72683 4.04113
4.03997 19.82003 4.03997
4.03883 19.91316 4.03883
4.03773 20.00622 4.03773
4.03665 20.09919 4.03665
4.03559 20.19209 4.03559
4.03457 20.28491 4.03457
4.03357 20.37766 4.03357
4.03259 20.47033 4.03259
4.03164 20.56293 4.03164
4.03071 20.65546 4.03071
4.02981 20.74791 4.02981
4.02894 20.84030 4.02894
4.02808 20.93261 4.02808
4.02725 21.02486 4.02725
4.02644 21.11704 4.02644
4.02566 21.20916 4.02566
4.02489 21.30121 4.02489
4.02415 21.39320 4.02415
4.02343 21.48513 4.02342
4.02272 21.57699 4.02272
4.02204 21.66880 4.02204
4.02138 21.76056 4.02138
4.02073 21.85226 4.02073
4.02011 21.94390 4.02010
4.01950 22.03549 4.01950
4.01891 22.12703 4.01891
4.01833 22.21852 4.01833
4.01778 22.30996 4.01777
4.01724 22.40135 4.01723
4.01671 22.49270 4.01671
4.01620 22.58400 4.01620
4.01571 22.67525 4.01570
4.01523 22.76647 4.01522
4.01476 22.85764 4.01476
4.01431 22.94878 4.01430
4.01387 23.03987 4.01387
4.01344 23.13093 4.01344
4.01303 23.22195 4.01303
4.01263 23.31293 4.01263
4.01224 23.40388 4.01224
4.01186 23.49479 4.01186
4.01150 23.58568 4.01149
4.01114 23.67653 4.01114
4.01080 23.76735 4.01079
4.01047 23.85814 4.01046
4.01014 23.94890 4.01014
4.00983 24.03964 4.00982
4.00952 24.13035 4.00952
4.00922 24.22104 4.00922
4.00894 24.31170 4.00894
4.00866 24.40233 4.00866
4.00839 24.49294 4.00839
4.00813 24.58353 4.00813
4.00788 24.67409 4.00788
4.00763 24.76464 4.00763
4.00739 24.85516 4.00739
4.00716 24.94566 4.00716
4.00694 25.03615 4.00694
4.00672 25.12661 4.00672
4.00652 25.21706 4.00652
4.00631 25.30749 4.00631
4.00611 25.39791 4.00611
4.00592 25.48831 4.00592
4.00574 25.57869 4.00574
4.00556 25.66906 4.00556
4.00539 25.75941 4.00539
4.00522 25.84975 4.00522
4.00505 25.94008 4.00505
4.00490 26.03040 4.00490
4.00474 26.12070 4.00474
4.00459 26.21099 4.00459
4.00445 26.30127 4.00445
4.00431 26.39154 4.00431
4.00418 26.48179 4.00418
4.00404 26.57204 4.00405
4.00392 26.66228 4.00392
4.00380 26.75251 4.00380
4.00368 26.84273 4.00368
4.00356 26.93294 4.00356
4.00345 27.02314 4.00345
4.00334 27.11333 4.00334
4.00324 27.20352 4.00324
4.00313 27.29370 4.00313
4.00304 27.38387 4.00304
4.00294 27.47404 4.00294
4.00285 27.56420 4.00285
4.00276 27.65435 4.00276
4.00267 27.74450 4.00267
4.00259 27.83465 4.00259
4.00251 27.92478 4.00251
4.00243 28.01492 4.00243
4.00235 28.10504 4.00235
4.00228 28.19517 4.00228
4.00221 28.28529 4.00221
4.00214 28.37540 4.00214
4.00207 28.46551 4.00207
4.00200 28.55562 4.00200
4.00194 28.64572 4.00194
4.00188 28.73582 4.00188
4.00182 28.82592 4.00182
4.00176 28.91602 4.00176
4.00171 29.00611 4.00171
4.00165 29.09620 4.00165
4.00160 29.18628 4.00160
4.00155 29.27637 4.00155
4.00150 29.36645 4.00150
4.00146 29.45653 4.00145
4.00141 29.54661 4.00141
4.00136 29.63668 4.00136
4.00132 29.72676 4.00132
4.00128 29.81683 4.00128
4.00124 29.90690 4.00124
4.00120 29.99698 4.00120
4.00116 30.08704 4.00116
4.00113 30.17711 4.00113
4.00109 30.26718 4.00109
4.00106 30.35725 4.00106
4.00102 30.44732 4.00102
4.00099 30.53738 4.00099
4.00096 30.62745 4.00096
4.00093 30.71751 4.00093
4.00090 30.80758 4.00090
4.00087 30.89764 4.00087
4.00084 30.98771 4.00084
4.00082 31.07777 4.00082
4.00080 31.16782 4.00079
4.00077 31.25789 4.00076
4.00074 31.34796 4.00074
4.00072 31.43803 4.00072
4.00070 31.52809 4.00070
4.00067 31.61815 4.00067
4.00065 31.70821 4.00066
4.00063 31.79829 4.00063

Angle 0.119622 3.572858

4.00000 7.03348 4.00000
4.00000 7.03344 4.00000
4.00000 7.03348 4.00000
4.00000 7.03348 4.00000
4.00000 7.03348 4.00000
4.00000 7.03348 4.00000
4.00000 7.03349 4.00000
4.00000 7.03348 4.00000
4.00000 7.03348 4.00000
4.00000 7.03348 4.00000
4.00000 7.03346 4.00000
4.00000 7.03347 4.00000
4.00000 7.03348 4.00000
4.00000 7.03348 4.00000
4.00000 7.03348 4.00000
4.00000 7.03348 4.00000
4.00000 7.03348 4.00000
4.00000 7.03348 4.00000
4.00000 7.03348 4.00000
4.00000 7.03352 4.00000
4.00000 7.03349 4.00000
4.00000 7.03348 4.00000
4.00000 7.03348 4.00000
4.00000 7.03348 4.00000
4.00000 7.03348 4.00000
4.00000 7.03348 4.00000
4.00000 7.03348 4.00000
4.00000 7.03348 4.00000
4.00000 7.03348 4.00000
4.00000 7.03348 4.00000
4.00000 7.03348 4.00000
4.00000 7.03347 4.00000
4.00000 7.03348 4.00000
4.00000 7.03348 4.00000
4.00000 7.03348 4.00000
4.00000 7.03348 4.00000
4.00000 7.03348 4.00000
4.00000 7.03348 4.00000
4.00000 7.03348 4.00000
4.00000 7.03348 4.00000
4.00000 7.03349 4.00000
4.00000 7.03348 4.00000
4.00000 7.03348 4.00000
4.00000 7.03348 4.00000
4.00000 7.03349 4.00000
4.00000 7.03348 4.00000
4.00000 7.03348 4.00000
4.00000 7.03348 4.00000
4.00000 7.03348 4.00000
4.00000 7.03348 4.00000
4.00000 7.03348 4.00000
4.00000 7.03348 4.00000
4.00000 7.03348 4.00000
4.00000 7.03348 4.00000
4.00000 7.03348 4.00000
4.00000 7.03348 4.00000
4.00000 7.03348 4.00000
4.00000 7.03347 4.00000
4.00000 7.03348 4.00000
4.00000 7.03348 4.00000
4.00000 7.03348 4.00000
4.00000 7.03348 4.00000
4.00000 7.03348 4.00000
4.00000 7.03348 4.00000
4.00000 7.03348 4.00000
4.00000 7.03348 4.00000
4.00000 7.03348 4.00000
4.00000 7.03347 4.00000
4.00000 7.03347 4.00000
4.00000 7.03347 4.00000
4.00000 7.03347 4.00000
4.00000 7.03348 4.00000
4.00000 7.03348 4.00000
4.00000 7.03348 4.00000
4.00000 7.03347 4.00000
4.00000 7.03348 4.00000
4.00000 7.03348 4.00000
4.00000 7.03348 4.00000
4.00000 7.03348 4.00000
4.00000 7.03348 4.00000
4.00000 7.03348 4.00000
4.00000 7.03347 4.00000
4.00000 7.03346 4.00000
4.00000 7.03348 4.00000
4.00000 7.03348 4.00000
4.00000 7.03348 4.00000
4.00000 7.03347 4.00000
4.00000 7.03348 4.00000
4.00000 7.03348 4.00000
4.00000 7.03348 4.00000
4.00000 7.03348 4.00000
4.00000 7.03348 4.00000
4.00000 7.03348 4.00000
4.00000 7.03348 4.00000
4.00000 7.03348 4.00000
4.00000 7.03348 4.00000
4.00000 7.03348 4.00000
4.00000 7.03348 4.00000
4.00000 7.03348 4.00000
4.00000 7.03348 4.00000
4.00000 7.03348 4.00000
4.00000 7.03347 4.00000
4.00000 7.03347 4.00000
4.00000 7.03348 4.00000
4.00000 7.03348 4.00000
4.00000 7.03348 4.00000
4.00000 7.03348 4.00000
4.00000 7.03348 4.00000
4.00000 7.03348 4.00000
4.00000 7.03348 4.00000
4.00000 7.03348 4.00000
4.00000 7.03348 4.00000
4.00000 7.03348 4.00000
4.00000 7.03348 4.00000
4.00000 7.03348 4.00000
4.00000 7.03348 4.00000
4.00000 7.03348 4.00000
4.00000 7.03348 4.00000
4.00000 7.03348 4.00000
4.00000 7.03348 4.00000
4.00000 7.03348 4.00000
4.00000 7.03348 4.00000
4.00000 7.03348 4.00000
4.00000 7.03348 4.00000
4.00000 7.03348 4.00000
4.00000 7.03348 4.00000
4.00000 7.03348 4.00000
4.00000 7.03348 4.00000
4.00000 7.03348 4.00000
4.00000 7.03348 4.00000
4.00000 7.03349 4.00000
4.00000 7.03348 4.00000
4.00000 7.03348 4.00000
4.00000 7.03348 4.00000
4.00000 7.03348 4.00000
4.00000 7.03348 4.00000
4.00000 7.03348 4.00000
4.00000 7.03348 4.00000
4.00000 7.03348 4.00000
4.00000 7.03348 4.00000
4.00000 7.03348 4.00000
4.00000 7.03348 4.00000
4.00000 7.03348 4.00000
4.00000 7.03348 4.00000
4.00000 7.03348 4.00000
4.00000 7.03348 4.00000
4.00000 7.03348 4.00000
4.00000 7.03348 4.00000
4.00000 7.03347 4.00000
4.00000 7.03348 4.00000
4.00000 7.03347 4.00000
4.00000 7.03348 4.00000
4.00000 7.03348 4.00000
4.00000 7.03348 4.00000
4.00000 7.03348 4.00000
4.00000 7.03348 4.00000
4.00000 7.03348 4.00000
4.00000 7.03348 4.00000
4.00000 7.03348 4.00000
4.00000 7.03348 4.00000
4.00000 7.03348 4.00000
4.00000 7.03348 4.00000
4.00000 7.03348 4.00000
4.00000 7.03348 4.00000
4.00000 7.03348 4.00000
4.00000 7.03348 4.00000
4.00000 7.03348 4.00000
4.00000 7.03348 4.00000
4.00000 7.03348 4.00000
4.00000 7.03348 4.00000
4.00000 7.03348 4.00000
4.00000 7.03348 4.00000
4.00000 7.03349 4.00000
4.00000 7.03348 4.00000
4.00000 7.03348 4.00000
4.00000 7.03348 4.00000
4.00000 7.03348 4.00000
4.00000 7.03348 4.00000
4.00000 7.03348 4.00000
4.00000 7.03349 4.00000
4.00000 7.03348 4.00000
4.00000 7.03348 4.00000
4.00000 7.03348 4.00000
4.00000 7.03348 4.00000
4.00000 7.03348 4.00000
4.00000 7.03348 4.00000
4.00000 7.03348 4.00000
4.00000 7.03348 4.00000
4.00000 7.03348 4.00000
4.00000 7.03348 4.00000
4.00000 7.03348 4.00000
4.00000 7.03348 4.00000
4.00000 7.03348 4.00000
4.00000 7.03348 4.00000
4.00000 7.03348 4.00000
4.00000 7.03348 4.00000
4.00000 7.03348 4.00000
4.00000 7.03348 4.00000
4.00000 7.03350 4.00000
4.00000 7.03349 4.00000
4.00000 7.03348 4.00000
4.00000 7.03348 4.00000
4.00000 7.03348 4.00000
4.00000 7.03348 4.00000
4.00000 7.03348 4.00000
4.00000 7.03347 4.00000
4.00000 7.03345 4.00000
4.00177 7.06830 4.00177
4.00544 7.14218 4.00544
4.00901 7.21646 4.00901
4.01251 7.29110 4.01251
4.01593 7.36605 4.01593
4.01930 7.44129 4.01930
4.02264 7.51674 4.02264
4.02594 7.59236 4.02594
4.02923 7.66811 4.02923
4.03252 7.74394 4.03252
4.03582 7.81981 4.03582
4.03916 7.89566 4.03916
4.04254 7.97143 4.04254
4.04598 8.04708 4.04598
4.04950 8.12253 4.04950
4.05314 8.19771 4.05314
4.05690 8.27254 4.05690
4.06083 8.34692 4.06083
4.06496 8.42075 4.06496
4.06932 8.49389 4.06932
4.07399 8.56618 4.07399
4.07900 8.63744 4.07900
4.08442 8.70753 4.08442
4.09019 8.77665 4.09019
4.09629 8.84483 4.09629
4.10274 8.91207 4.10274
4.10954 8.97836 4.10954
4.11669 9.04374 4.11669
4.12417 9.10826 4.12417
4.13197 9.17200 4.13197
4.14005 9.23505 4.14005
4.14838 9.29756 4.14838
4.15689 9.35971 4.15689
4.16551 9.42174 4.16551
4.17413 9.48393 4.17413
4.18264 9.54667 4.18264
4.19087 9.61039 4.19087
4.19862 9.67568 4.19862
4.20563 9.74322 4.20563
4.21161 9.81386 4.21161
4.21619 9.88860 4.21619
4.21895 9.96857 4.21895
4.21952 10.05486 4.21951
4.21805 10.14698 4.21805
4.21585 10.24121 4.21585
4.21304 10.33726 4.21304
4.20959 10.43517 4.20959
4.20546 10.53510 4.20546
4.20057 10.63728 4.20057
4.19481 10.74210 4.19481
4.18797 10.85015 4.18797
4.17975 10.96238 4.17975
4.16964 11.08037 4.16964
4.15670 11.20712 4.15670
4.13873 11.34951 4.13873
4.10788 11.53261 4.10788
4.00000 13.19120 4.00000
4.00000 13.19120 4.00000
4.00000 13.19120 4.00000
4.00000 13.19120 4.00000
4.00000 13.19120 4.00000
4.00000 13.19120 4.00000
4.00000 13.19120 4.00000
4.00000 13.19120 4.00000
4.00000 13.19120 4.00000
4.00000 13.19120 4.00000
4.00000 13.19120 4.00000
4.00000 13.19119 4.00000
4.00000 13.19120 4.00000
4.00000 13.19120 4.00000
4.00315 13.20097 4.00315
4.01600 13.24592 4.01600
4.02755 13.29575 4.02755
4.03760 13.35089 4.03760
4.04601 13.41178 4.04601
4.05259 13.47884 4.05259
4.05720 13.55248 4.05720
4.05986 13.63252 4.05986
4.06207 13.71407 4.06207
4.06420 13.79587 4.06420
4.06628 13.87788 4.06629
4.06831 13.96009 4.06831
4.07030 14.04247 4.07030
4.07224 14.12502 4.07224
4.07414 14.20770 4.07414
4.07601 14.29052 4.07601
4.07785 14.37347 4.07785
4.07966 14.45652 4.07966
4.08145 14.53969 4.08145
4.08321 14.62295 4.08321
4.08495 14.70630 4.08495
4.08667 14.78974 4.08667
4.08837 14.87325 4.08837
4.09005 14.95685 4.09005
4.09172 15.04051 4.09172
4.09334 15.12435 4.09334
4.09471 15.20899 4.09471
4.09581 15.29450 4.09581
4.09665 15.38084 4.09665
4.09725 15.46796 4.09725
4.09763 15.55581 4.09763
4.09779 15.64434 4.09779
4.09775 15.73350 4.09775
4.09753 15.82326 4.09753
4.09714 15.91356 4.09714
4.09659 16.00436 4.09659
4.09591 16.09563 4.09591
4.09509 16.18732 4.09509
4.09415 16.27940 4.09415
4.09311 16.37183 4.09311
4.09197 16.46457 4.09197
4.09075 16.55760 4.09075
4.08945 16.65088 4.08945
4.08809 16.74438 4.08809
4.08666 16.83808 4.08666
4.08520 16.93196 4.08520
4.08369 17.02598 4.08369
4.08214 17.12013 4.08214
4.08057 17.21438 4.08057
4.07897 17.30872 4.07897
4.07736 17.40313 4.07736
4.07574 17.49759 4.07574
4.07411 17.59209 4.07411
4.07248 17.68662 4.07248
4.07085 17.78116 4.07085
4.06923 17.87570 4.06923
4.06761 17.97023 4.06761
4.06600 18.06474 4.06600
4.06441 18.15922 4.06441
4.06283 18.25368 4.06283
4.06128 18.34809 4.06127
4.05974 18.44245 4.05973
4.05822 18.53676 4.05821
4.05672 18.63101 4.05672
4.05524 18.72521 4.05524
4.05379 18.81933 4.05379
4.05237 18.91339 4.05237
4.05097 19.00738 4.05097
4.04960 19.10130 4.04960
4.04825 19.19514 4.04825
4.04693 19.28890 4.04693
4.04564 19.38259 4.04564
4.04438 19.47620 4.04438
4.04314 19.56973 4.04314
4.04193 19.66318 4.04193
4.04075 19.75655 4.04075
4.03960 19.84984 4.03960
4.03847 19.94306 4.03847
4.03738 20.03619 4.03737
4.03630 20.12924 4.03630
4.03526 20.22222 4.03526
4.03424 20.31512 4.03424
4.03324 20.40795 4.03324
4.03227 20.50070 4.03228
4.03133 20.59337 4.03133
4.03041 20.68597 4.03041
4.02952 20.77850 4.02952
4.02865 20.87096 4.02865
4.02780 20.96335 4.02780
4.02698 21.05568 4.02698
4.02618 21.14793 4.02618
4.02540 21.24012 4.02540
4.02464 21.33225 4.02464
4.02390 21.42431 4.02390
4.02318 21.51631 4.02318
4.02249 21.60825 4.02249
4.02181 21.70014 4.02181
4.02115 21.79196 4.02115
4.02051 21.88373 4.02051
4.01989 21.97545 4.01989
4.01929 22.06711 4.01929
4.01870 22.15872 4.01870
4.01814 22.25028 4.01814
4.01758 22.34179 4.01758
4.01705 22.43326 4.01705
4.01653 22.52468 4.01653
4.01602 22.61605 4.01602
4.01553 22.70737 4.01553
4.01506 22.79866 4.01506
4.01459 22.88990 4.01460
4.01415 22.98111 4.01415
4.01371 23.07227 4.01371
4.01329 23.16340 4.01329
4.01288 23.25448 4.01288
4.01248 23.34554 4.01248
4.01210 23.43656 4.01210
4.01173 23.52754 4.01173
4.01136 23.61849 4.01136
4.01101 23.70941 4.01101
4.01067 23.80030 4.01067
4.01034 23.89116 4.01034
4.01002 23.98199 4.01002
4.00971 24.07280 4.00971

Angle 0.338846 1.020814

4.00000 7.03348 4.00000
4.00000 7.03348 4.00000
4.00000 7.03348 4.00000
4.00000 7.03348 4.00000
4.00000 7.03348 4.00000
4.00000 7.03348 4.00000
4.00000 7.03348 4.00000
4.00000 7.03348 4.00000
4.00000 7.03348 4.00000
4.00000 7.03348 4.00000
4.00000 7.03348 4.00000
4.00000 7.03348 4.00000
4.00000 7.03348 4.00000
4.00000 7.03348 4.00000
4.00000 7.03348 4.00000
4.00000 7.03348 4.00000
4.00000 7.03348 4.00000
4.00000 7.03348 4.00000
4.00000 7.03348 4.00000
4.00000 7.03348 4.00000
4.00000 7.03348 4.00000
4.00000 7.03348 4.00000
4.00000 7.03348 4.00000
4.00000 7.03348 4.00000
4.00000 7.03348 4.00000
4.00000 7.03348 4.00000
4.00000 7.03348 4.00000
4.00000 7.03348 4.00000
4.00000 7.03348 4.00000
4.00000 7.03348 4.00000
4.00000 7.03347 4.00000
4.00000 7.03348 4.00000
4.00000 7.03348 4.00000
4.00000 7.03348 4.00000
4.00000 7.03349 4.00000
4.00023 7.03788 4.00023
4.00399 7.11264 4.00399
4.00765 7.18784 4.00765
4.01122 7.26342 4.01122
4.01472 7.33932 4.01472
4.01816 7.41551 4.01816
4.02155 7.49192 4.02155
4.02490 7.56851 4.02490
4.02824 7.64524 4.02824
4.03157 7.72205 4.03157
4.03491 7.79890 4.03491
4.03828 7.87573 4.03828
4.04168 7.95249 4.04169
4.04515 8.02911 4.04516
4.04870 8.10554 4.04870
4.05235 8.18170 4.05235
4.05613 8.25751 4.05613
4.06007 8.33288 4.06007
4.06421 8.40768 4.06421
4.06858 8.48179 4.06858
4.07324 8.55506 4.07324
4.07826 8.62729 4.07826
4.08369 8.69831 4.08369
4.08947 8.76832 4.08947
4.09560 8.83735 4.09560
4.10208 8.90541 4.10208
4.10892 8.97250 4.10892
4.11612 9.03864 4.11612
4.12365 9.10389 4.12365
4.13151 9.16832 4.13151
4.13966 9.23205 4.13966
4.14806 9.29520 4.14806
4.15665 9.35798 4.15665
4.16535 9.42061 4.16535
4.17406 9.48340 4.17406
4.18265 9.54673 4.18265
4.19095 9.61107 4.19095
4.19877 9.67699 4.19877
4.20582 9.74522 4.20582
4.21181 9.81663 4.21181
4.21636 9.89226 4.21636
4.21904 9.97325 4.21904
4.21947 10.06071 4.21947
4.21791 10.15387 4.21791
4.21565 10.24905 4.21565
4.21275 10.34609 4.21275
4.20921 10.44502 4.20921
4.20497 10.54601 4.20497
4.19995 10.64931 4.19995
4.19402 10.75534 4.19402
4.18697 10.86474 4.18697
4.17846 10.97856 4.17846
4.16793 11.09853 4.16793
4.15431 11.22807 4.15431
4.13496 11.37544 4.13496
4.09894 11.57575 4.09894
4.00000 13.19120 4.00000
4.00000 13.19120 4.00000
4.00000 13.19120 4.00000
4.00000 13.19120 4.00000
4.00000 13.19120 4.00000
4.00000 13.19120 4.00000
4.00000 13.19120 4.00000
4.00000 13.19120 4.00000
4.00000 13.19120 4.00000
4.00000 13.19120 4.00000
4.00000 13.19120 4.00000
4.00000 13.19120 4.00000
4.00000 13.19120 4.00000
4.00000 13.19120 4.00000
4.00685 13.21303 4.00685
4.01944 13.25962 4.01944
4.03064 13.31127 4.03064
4.04029 13.36843 4.04029
4.04822 13.43154 4.04822
4.05425 13.50102 4.05425
4.05823 13.57728 4.05823
4.06058 13.65888 4.06058
4.06278 13.74102 4.06278
4.06491 13.82339 4.06491
4.06698 13.90597 4.06698
4.06901 13.98874 4.06901
4.07099 14.07167 4.07099
4.07293 14.15475 4.07293
4.07483 14.23797 4.07483
4.07670 14.32132 4.07670
4.07854 14.40478 4.07854
4.08035 14.48835 4.08035
4.08213 14.57203 4.08213
4.08390 14.65579 4.08390
4.08564 14.73964 4.08564
4.08736 14.82357 4.08736
4.08906 14.90757 4.08906
4.09075 14.99165 4.09075
4.09242 15.07579 4.09242
4.09396 15.16036 4.09396
4.09522 15.24583 4.09522
4.09621 15.33216 4.09621
4.09695 15.41930 4.09695
4.09745 15.50720 4.09745
4.09772 15.59581 4.09772
4.09779 15.68508 4.09779
4.09767 15.77497 4.09767
4.09737 15.86543 4.09737
4.09690 15.95642 4.09690
4.09628 16.04790 4.09628
4.09553 16.13982 4.09553
4.09464 16.23215 4.09464
4.09365 16.32484 4.09365
4.09255 16.41787 4.09255
4.09137 16.51119 4.09137
4.09010 16.60479 4.09010
4.08876 16.69862 4.08876
4.08736 16.79266 4.08736
4.08591 16.88688 4.08591
4.08441 16.98126 4.08441
4.08287 17.07577 4.08287
4.08130 17.17040 4.08130
4.07971 17.26511 4.07971
4.07810 17.35991 4.07810
4.07648 17.45476 4.07648
4.07484 17.54965 4.07484
4.07321 17.64457 4.07321
4.07157 17.73951 4.07157
4.06993 17.83445 4.06993
4.06831 17.92938 4.06831
4.06669 18.02430 4.06669
4.06508 18.11919 4.06508
4.06349 18.21404 4.06349
4.06192 18.30885 4.06192
4.06037 18.40362 4.06037
4.05883 18.49833 4.05883
4.05732 18.59298 4.05732
4.05583 18.68757 4.05583
4.05436 18.78209 4.05436
4.05292 18.87655 4.05292
4.05151 18.97093 4.05151
4.05012 19.06523 4.05012
4.04876 19.15946 4.04876
4.04743 19.25361 4.04743
4.04612 19.34768 4.04612
4.04484 19.44167 4.04484
4.04359 19.53557 4.04359
4.04237 19.62939 4.04237
4.04117 19.72314 4.04117
4.04001 19.81680 4.04001
4.03887 19.91037 4.03887
4.03775 20.00387 4.03775
4.03667 20.09728 4.03667
4.03561 20.19061 4.03561
4.03458 20.28386 4.03458
4.03357 20.37704 4.03357
4.03259 20.47013 4.03259
4.03164 20.56315 4.03164
4.03071 20.65609 4.03071
4.02980 20.74896 4.02980
4.02892 20.84175 4.02892
4.02806 20.93447 4.02806
4.02723 21.02712 4.02723
4.02642 21.11970 4.02642
4.02563 21.21222 4.02563
4.02486 21.30466 4.02486
4.02412 21.39704 4.02412
4.02339 21.48936 4.02339
4.02269 21.58161 4.02269
4.02200 21.67380 4.02200
4.02134 21.76593 4.02134
4.02069 21.85800 4.02069
4.02006 21.95002 4.02006
4.01945 22.04198 4.01945
4.01886 22.13389 4.01886
4.01829 22.22574 4.01829
4.01773 22.31754 4.01773
4.01719 22.40929 4.01719
4.01666 22.50100 4.01666
4.01615 22.59265 4.01615
4.01566 22.68426 4.01566
4.01517 22.77582 4.01517
4.01471 22.86734 4.01471
4.01426 22.95882 4.01426
4.01382 23.05026 4.01382
4.01339 23.14165 4.01339
4.01298 23.23301 4.01298
4.01258 23.32433 4.01258
4.01219 23.41561 4.01219
4.01181 23.50686 4.01181
4.01144 23.59807 4.01144
4.01109 23.68925 4.01109
4.01075 23.78040 4.01075
4.01041 23.87151 4.01041
4.01009 23.96260 4.01009
4.00978 24.05365 4.00978
4.00947 24.14467 4.00947
4.00918 24.23567 4.00918
4.00889 24.32664 4.00889
4.00861 24.41759 4.00861
4.00835 24.50850 4.00835
4.00809 24.59940 4.00809
4.00783 24.69027 4.00783
4.00759 24.78112 4.00759
4.00735 24.87194 4.00735
4.00712 24.96274 4.00712
4.00690 25.05353 4.00690
4.00668 25.14429 4.00668
4.00647 25.23503 4.00647
4.00627 25.32576 4.00627
4.00608 25.41646 4.00608
4.00588 25.50715 4.00588
4.00570 25.59782 4.00570
4.00552 25.68848 4.00552
4.00535 25.77912 4.00535
4.00518 25.86974 4.00518
4.00502 25.96035 4.00502
4.00486 26.05094 4.00486
4.00471 26.14152 4.00471
4.00456 26.23209 4.00456
4.00442 26.32264 4.00442
4.00428 26.41318 4.00428
4.00414 26.50371 4.00414
4.00401 26.59423 4.00401
4.00389 26.68474 4.00389
4.00376 26.77523 4.00376
4.00365 26.86572 4.00365
4.00353 26.95620 4.00353
4.00342 27.04666 4.00342
4.00331 27.13712 4.00331
4.00321 27.22757 4.00321
4.00311 27.31800 4.00311
4.00301 27.40844 4.00301
4.00291 27.49886 4.00291
4.00282 27.58927 4.00282
4.00273 27.67968 4.00273
4.00265 27.77008 4.00265
4.00256 27.86048 4.00256
4.00248 27.95086 4.00248
4.00240 28.04125 4.00241
4.00233 28.13162 4.00233
4.00226 28.22199 4.00226
4.00218 28.31235 4.00218
4.00212 28.40271 4.00212
4.00205 28.49306 4.00205
4.00198 28.58341 4.00198
4.00192 28.67376 4.00192
4.00186 28.76410 4.00186
4.00180 28.85443 4.00180
4.00174 28.94476 4.00175
4.00169 29.03509 4.00169
4.00164 29.12541 4.00164
4.00158 29.21573 4.00159
4.00153 29.30605 4.00154
4.00149 29.39636 4.00149
4.00144 29.48667 4.00144
4.00139 29.57698 4.00139
4.00135 29.66728 4.00135
4.00131 29.75758 4.00131
4.00127 29.84788 4.00127
4.00123 29.93817 4.00123
4.00119 30.02847 4.00119
4.00115 30.11876 4.00115
4.00111 30.20905 4.00111
4.00108 30.29934 4.00108
4.00104 30.38962 4.00104
4.00101 30.47991 4.00101
4.00098 30.57019 4.00098
4.00095 30.66047 4.00095
4.00092 30.75075 4.00092
4.00089 30.84103 4.00089
4.00086 30.93130 4.00086
4.00083 31.02158 4.00083
4.00081 31.11185 4.00081
4.00078 31.20212 4.00078
4.00076 31.29240 4.00076
4.00073 31.38267 4.00073
4.00071 31.47294 4.00071
4.00069 31.56321 4.00069
4.00067 31.65348 4.00067
4.00064 31.74375 4.00064
4.00062 31.83401 4.00062
4.00060 31.92428 4.00060
4.00058 32.01455 4.00059
4.00057 32.10481 4.00057
4.00055 32.19508 4.00055
4.00053 32.28535 4.00053
4.00051 32.37561 4.00051
4.00050 32.46588 4.00050
4.00048 32.55614 4.00048
4.00047 32.64641 4.00047
4.00045 32.73667 4.00045
4.00044 32.82694 4.00044
4.00042 32.91720 4.00042
4.00041 33.00747 4.00041
4.00040 33.09774 4.00040
4.00039 33.18800 4.00039
4.00037 33.27827 4.00037
4.00036 33.36853 4.00036
4.00035 33.45880 4.00035
4.00034 33.54907 4.00034
4.00033 33.63933 4.00033
4.00032 33.72960 4.00032
4.00031 33.81987 4.00031
4.00030 33.91014 4.00030
4.00029 34.00041 4.00029
4.00028 34.09068 4.00028
4.00027 34.18095 4.00027
4.00026 34.27122 4.00026
4.00025 34.36149 4.00025
4.00025 34.45176 4.00025
4.00024 34.54203 4.00024
4.00023 34.63230 4.00023
4.00022 34.72257 4.00022
4.00022 34.81285 4.00022
4.00021 34.90312 4.00021
4.00020 34.99340 4.00020
4.00020 35.08367 4.00020
4.00019 35.17395 4.00019
4.00018 35.26422 4.00018
4.00018 35.35450 4.00018
4.00017 35.44478 4.00017
4.00017 35.53506 4.00017
4.00016 35.62534 4.00016
4.00016 35.71562 4.00016
4.00015 35.80590 4.00015
4.00015 35.89618 4.00015
4.00014 35.98646 4.00014
4.00014 36.07675 4.00014
4.00013 36.16703 4.00013
4.00013 36.25732 4.00013
4.00012 36.34760 4.00012
4.00012 36.43789 4.00012
4.00012 36.52818 4.00012
4.00011 36.61846 4.00011
4.00011 36.70875 4.00011
4.00011 36.79904 4.00011
4.00010 36.88933 4.00010
4.00010 36.97962 4.00010
4.00010 37.06992 4.00010
4.00009 37.16021 4.00009
4.00009 37.25050 4.00009
4.00009 37.34080 4.00009
4.00008 37.43109 4.00008
4.00008 37.52139 4.00008
4.00008 37.61169 4.00008
4.00008 37.70198 4.00008
4.00007 37.79228 4.00007
4.00007 37.88258 4.00007
4.00007 37.97288 4.00007
4.00007 38.06319 4.00007
4.00007 38.15349 4.00007
4.00006 38.24379 4.00006
4.00006 38.33409 4.00006
4.00006 38.42440 4.00006
4.00006 38.51470 4.00006
4.00006 38.60501 4.00006
4.00005 38.69532 4.00005
4.00005 38.78563 4.00005
4.00005 38.87594 4.00005
4.00005 38.96625 4.00005
4.00005 39.05656 4.00005
4.00005 39.14687 4.00005
4.00004 39.23718 4.00004
4.00004 39.32750 4.00004
4.00004 39.41781 4.00004
4.00004 39.50813 4.00004
4.00004 39.59844 4.00004
4.00004 39.68876 4.00004

Angle 0.478879 4.348042

4.00000 7.03348 4.00000
4.00000 7.03348 4.00000
4.00000 7.03348 4.00000
4.00000 7.03348 4.00000
4.00000 7.03348 4.00000
4.00000 7.03348 4.00000
4.00000 7.03348 4.00000
4.00000 7.03348 4.00000
4.00000 7.03348 4.00000
4.00000 7.03347 4.00000
4.00000 7.03347 4.00000
4.00000 7.03348 4.00000
4.00000 7.03348 4.00000
4.00000 7.03348 4.00000
4.00000 7.03348 4.00000
4.00000 7.03348 4.00000
4.00000 7.03348 4.00000
4.00000 7.03348 4.00000
4.00000 7.03348 4.00000
4.00000 7.03348 4.00000
4.00000 7.03348 4.00000
4.00000 7.03348 4.00000
4.00000 7.03349 4.00000
4.00000 7.03349 4.00000
4.00000 7.03348 4.00000
4.00000 7.03348 4.00000
4.00000 7.03349 4.00000
4.00000 7.03349 4.00000
4.00000 7.03350 4.00000
4.00000 7.03349 4.00000
4.00000 7.03349 4.00000
4.00000 7.03348 4.00000
4.00000 7.03348 4.00000
4.00000 7.03349 4.00000
4.00000 7.03348 4.00000
4.00000 7.03348 4.00000
4.00000 7.03348 4.00000
4.00000 7.03348 4.00000
4.00000 7.03348 4.00000
4.00000 7.03348 4.00000
4.00000 7.03348 4.00000
4.00000 7.03349 4.00000
4.00000 7.03348 4.00000
4.00000 7.03349 4.00000
4.00000 7.03350 4.00000
4.00000 7.03350 4.00000
4.00000 7.03349 4.00000
4.00000 7.03350 4.00000
4.00000 7.03349 4.00000
4.00000 7.03348 4.00000
4.00000 7.03348 4.00000
4.00000 7.03347 4.00000
4.00000 7.03346 4.00000
4.00000 7.03348 4.00000
4.00000 7.03348 4.00000
4.00000 7.03348 4.00000
4.00000 7.03348 4.00000
4.00000 7.03348 4.00000
4.00000 7.03347 4.00000
4.00000 7.03348 4.00000
4.00000 7.03349 4.00000
4.00000 7.03349 4.00000
4.00000 7.03348 4.00000
4.00000 7.03348 4.00000
4.00000 7.03348 4.00000
4.00000 7.03348 4.00000
4.00000 7.03347 4.00000
4.00000 7.03347 4.00000
4.00000 7.03347 4.00000
4.00000 7.03347 4.00000
4.00000 7.03347 4.00000
4.00000 7.03348 4.00000
4.00000 7.03348 4.00000
4.00000 7.03348 4.00000
4.00000 7.03348 4.00000
4.00000 7.03348 4.00000
4.00000 7.03348 4.00000
4.00000 7.03348 4.00000
4.00000 7.03348 4.00000
4.00000 7.03348 4.00000
4.00000 7.03348 4.00000
4.00000 7.03348 4.00000
4.00000 7.03347 4.00000
4.00000 7.03348 4.00000
4.00000 7.03348 4.00000
4.00000 7.03348 4.00000
4.00000 7.03348 4.00000
4.00000 7.03348 4.00000
4.00000 7.03348 4.00000
4.00000 7.03348 4.00000
4.00000 7.03348 4.00000
4.00000 7.03348 4.00000
4.00000 7.03348 4.00000
4.00000 7.03348 4.00000
4.00000 7.03348 4.00000
4.00000 7.03348 4.00000
4.00000 7.03348 4.00000
4.00000 7.03348 4.00000
4.00000 7.03348 4.00000
4.00000 7.03348 4.00000
4.00000 7.03348 4.00000
4.00000 7.03348 4.00000
4.00000 7.03348 4.00000
4.00000 7.03348 4.00000
4.00000 7.03348 4.00000
4.00000 7.03348 4.00000
4.00000 7.03348 4.00000
4.00000 7.03348 4.00000
4.00000 7.03348 4.00000
4.00000 7.03348 4.00000
4.00000 7.03348 4.00000
4.00000 7.03348 4.00000
4.00000 7.03348 4.00000
4.00000 7.03348 4.00000
4.00000 7.03348 4.00000
4.00000 7.03348 4.00000
4.00000 7.03348 4.00000
4.00000 7.03348 4.00000
4.00000 7.03348 4.00000
4.00000 7.03348 4.00000
4.00000 7.03348 4.00000
4.00000 7.03348 4.00000
4.00000 7.03348 4.00000
4.00000 7.03346 4.00000
4.00000 7.03348 4.00000
4.00000 7.03348 4.00000
4.00000 7.03348 4.00000
4.00000 7.03348 4.00000
4.00000 7.03348 4.00000
4.00000 7.03348 4.00000
4.00000 7.03348 4.00000
4.00000 7.03348 4.00000
4.00000 7.03348 4.00000
4.00000 7.03348 4.00000
4.00000 7.03348 4.00000
4.00000 7.03348 4.00000
4.00000 7.03348 4.00000
4.00000 7.03348 4.00000
4.00000 7.03348 4.00000
4.00000 7.03348 4.00000
4.00000 7.03348 4.00000
4.00000 7.03348 4.00000
4.00000 7.03348 4.00000
4.00000 7.03348 4.00000
4.00000 7.03348 4.00000
4.00000 7.03348 4.00000
4.00000 7.03348 4.00000
4.00000 7.03348 4.00000
4.00000 7.03349 4.00000
4.00000 7.03348 4.00000
4.00000 7.03348 4.00000
4.00000 7.03348 4.00000
4.00000 7.03348 4.00000
4.00000 7.03348 4.00000
4.00000 7.03347 4.00000
4.00000 7.03348 4.00000
4.00000 7.03348 4.00000
4.00000 7.03348 4.00000
4.00000 7.03348 4.00000
4.00000 7.03348 4.00000
4.00000 7.03348 4.00000
4.00000 7.03348 4.00000
4.00000 7.03348 4.00000
4.00000 7.03347 4.00000
4.00000 7.03348 4.00000
4.00000 7.03348 4.00000
4.00000 7.03348 4.00000
4.00000 7.03348 4.00000
4.00000 7.03348 4.00000
4.00000 7.03348 4.00000
4.00000 7.03348 4.00000
4.00000 7.03348 4.00000
4.00000 7.03348 4.00000
4.00000 7.03348 4.00000
4.00000 7.03348 4.00000
4.00000 7.03348 4.00000
4.00000 7.03348 4.00000
4.00000 7.03348 4.00000
4.00000 7.03353 4.00000
4.00000 7.03348 4.00000
4.00000 7.03351 4.00000
4.00286 7.08991 4.00286
4.00661 7.16614 4.00661
4.01025 7.24276 4.01026
4.01382 7.31972 4.01382
4.01732 7.39696 4.01732
4.02077 7.47444 4.02077
4.02419 7.55210 4.02418
4.02757 7.62988 4.02757
4.03095 7.70776 4.03095
4.03434 7.78566 4.03434
4.03774 7.86355 4.03774
4.04119 7.94135 4.04119
4.04469 8.01902 4.04469
4.04827 8.09648 4.04827
4.05196 8.17366 4.05196
4.05577 8.25048 4.05577
4.05975 8.32684 4.05975
4.06392 8.40262 4.06392
4.06833 8.47769 4.06833
4.07303 8.55189 4.07303
4.07809 8.62504 4.07810
4.08358 8.69693 4.08358
4.08942 8.76777 4.08942
4.09562 8.83761 4.09562
4.10219 8.90643 4.10218
4.10911 8.97426 4.10911
4.11639 9.04111 4.11639
4.12403 9.10704 4.12403
4.13199 9.17214 4.13199
4.14024 9.23651 4.14024
4.14875 9.30030 4.14875
4.15744 9.36371 4.15744
4.16624 9.42700 4.16624
4.17503 9.49048 4.17503
4.18369 9.55455 4.18369
4.19202 9.61971 4.19202
4.19983 9.68656 4.19982
4.20682 9.75588 4.20682
4.21266 9.82858 4.21266
4.21697 9.90576 4.21697
4.21930 9.98860 4.21930
4.21927 10.07821 4.21927
4.21751 10.17277 4.21751
4.21509 10.26922 4.21509
4.21203 10.36754 4.21203
4.20831 10.46781 4.20831
4.20386 10.57022 4.20386
4.19859 10.67505 4.19859
4.19235 10.78279 4.19235
4.18489 10.89417 4.18489
4.17584 11.01040 4.17584
4.16450 11.13360 4.16450
4.14951 11.26810 4.14951
4.12713 11.42575 4.12713
4.06716 11.70399 4.06716
4.00000 13.19120 4.00000
4.00000 13.19120 4.00000
4.00000 13.19120 4.00000
4.00000 13.19120 4.00000
4.00000 13.19120 4.00000
4.00000 13.19120 4.00000
4.00000 13.19120 4.00000
4.00000 13.19120 4.00000
4.00000 13.19120 4.00000
4.00000 13.19120 4.00000
4.00001 13.19121 4.00000
4.00000 13.19119 4.00000
4.00000 13.19120 4.00000
4.00000 13.19120 4.00000
4.01228 13.23197 4.01228
4.02439 13.28099 4.02439
4.03502 13.33533 4.03502
4.04400 13.39545 4.04400
4.05115 13.46179 4.05115
4.05631 13.53476 4.05632
4.05937 13.61468 4.05937
4.06161 13.69723 4.06162
4.06379 13.78003 4.06379
4.06591 13.86304 4.06591
4.06797 13.94625 4.06798
4.06999 14.02963 4.06999
4.07196 14.11317 4.07196
4.07389 14.19685 4.07389
4.07579 14.28066 4.07579
4.07765 14.36459 4.07765
4.07949 14.44863 4.07949
4.08130 14.53276 4.08130
4.08308 14.61699 4.08308
4.08484 14.70130 4.08484
4.08658 14.78569 4.08658
4.08830 14.87016 4.08830
4.09001 14.95470 4.09001
4.09169 15.03930 4.09169
4.09333 15.12406 4.09333
4.09472 15.20964 4.09472
4.09583 15.29610 4.09583
4.09667 15.38340 4.09667
4.09727 15.47148 4.09727
4.09764 15.56030 4.09764
4.09779 15.64980 4.09779
4.09774 15.73994 4.09774
4.09750 15.83067 4.09750
4.09710 15.92195 4.09710
4.09653 16.01374 4.09653
4.09582 16.10598 4.09582
4.09498 16.19864 4.09498
4.09402 16.29169 4.09402
4.09295 16.38508 4.09295
4.09179 16.47878 4.09179
4.09054 16.57276 4.09054
4.08922 16.66698 4.08922
4.08783 16.76142 4.08783
4.08639 16.85605 4.08639
4.08489 16.95084 4.08489
4.08336 17.04577 4.08336
4.08180 17.14082 4.08180
4.08020 17.23596 4.08020
4.07859 17.33119 4.07859
4.07696 17.42647 4.07696
4.07532 17.52180 4.07532
4.07368 17.61715 4.07368
4.07203 17.71252 4.07203
4.07039 17.80790 4.07039
4.06875 17.90326 4.06875
4.06713 17.99861 4.06713
4.06551 18.09393 4.06551
4.06391 18.18922 4.06391
4.06232 18.28446 4.06232
4.06076 18.37965 4.06076
4.05921 18.47479 4.05921
4.05769 18.56986 4.05769
4.05619 18.66487 4.05619
4.05471 18.75981 4.05471
4.05326 18.85468 4.05326
4.05183 18.94947 4.05183
4.05043 19.04419 4.05043
4.04906 19.13882 4.04906
4.04771 19.23337 4.04771
4.04639 19.32784 4.04639
4.04510 19.42223 4.04510
4.04384 19.51653 4.04384
4.04261 19.61074 4.04261
4.04140 19.70487 4.04140
4.04023 19.79891 4.04023
4.03908 19.89287 4.03908
4.03795 19.98674 4.03796
4.03686 20.08053 4.03686
4.03579 20.17423 4.03579
4.03475 20.26785 4.03475
4.03374 20.36139 4.03374
4.03275 20.45485 4.03275
4.03179 20.54822 4.03179
4.03085 20.64152 4.03085
4.02994 20.73474 4.02994
4.02905 20.82788 4.02905
4.02819 20.92095 4.02819
4.02735 21.01394 4.02735
4.02653 21.10686 4.02653
4.02573 21.19971 4.02573
4.02496 21.29249 4.02496
4.02421 21.38521 4.02421
4.02348 21.47785 4.02348
4.02277 21.57043 4.02277
4.02208 21.66294 4.02208
4.02141 21.75540 4.02141
4.02076 21.84779 4.02076
4.02013 21.94012 4.02013
4.01952 22.03240 4.01952
4.01892 22.12461 4.01892
4.01834 22.21678 4.01834
4.01778 22.30888 4.01778
4.01724 22.40094 4.01724
4.01671 22.49294 4.01671
4.01619 22.58490 4.01619
4.01569 22.67680 4.01569
4.01521 22.76866 4.01521
4.01474 22.86048 4.01474
4.01429 22.95224 4.01429
4.01385 23.04397 4.01385
4.01342 23.13565 4.01342
4.01300 23.22729 4.01300
4.01260 23.31890 4.01260
4.01221 23.41046 4.01221
4.01183 23.50198 4.01183
4.01146 23.59347 4.01146
4.01111 23.68492 4.01111
4.01076 23.77634 4.01076
4.01043 23.86773 4.01043
4.01010 23.95908 4.01010
4.00979 24.05040 4.00979
4.00948 24.14169 4.00948
4.00919 24.23295 4.00919
4.00890 24.32419 4.00890
4.00862 24.41539 4.00862
4.00835 24.50657 4.00835
4.00809 24.59772 4.00809
4.00784 24.68884 4.00784
4.00759 24.77994 4.00759
4.00735 24.87102 4.00735
4.00712 24.96208 4.00712
4.00690 25.05311 4.00690
4.00668 25.14412 4.00668
4.00647 25.23510 4.00647
4.00627 25.32607 4.00627
4.00607 25.41702 4.00607
4.00588 25.50795 4.00588
4.00570 25.59886 4.00570
4.00552 25.68975 4.00552
4.00535 25.78063 4.00535
4.00518 25.87149 4.00518
4.00501 25.96233 4.00501
4.00486 26.05316 4.00486
4.00470 26.14397 4.00470
4.00456 26.23476 4.00456
4.00441 26.32555 4.00441
4.00427 26.41632 4.00427
4.00414 26.50707 4.00414
4.00401 26.59781 4.00401
4.00388 26.68854 4.00388

Angle 0.531737 0.871513

4.00000 7.03348 4.00000
4.00000 7.03348 4.00000
4.00000 7.03348 4.00000
4.00000 7.03348 4.00000
4.00000 7.03348 4.00000
4.00000 7.03348 4.00000
4.00000 7.03349 4.00000
4.00000 7.03348 4.00000
4.00000 7.03348 4.00000
4.00000 7.03348 4.00000
4.00000 7.03349 4.00000
4.00000 7.03348 4.00000
4.00000 7.03347 4.00000
4.00000 7.03348 4.00000
4.00000 7.03348 4.00000
4.00000 7.03348 4.00000
4.00000 7.03348 4.00000
4.00000 7.03348 4.00000
4.00000 7.03348 4.00000
4.00000 7.03348 4.00000
4.00000 7.03348 4.00000
4.00000 7.03350 4.00000
4.00000 7.03348 4.00000
4.00000 7.03348 4.00000
4.00000 7.03348 4.00000
4.00000 7.03348 4.00000
4.00000 7.03348 4.00000
4.00000 7.03348 4.00000
4.00000 7.03351 4.00000
4.00000 7.03348 4.00000
4.00000 7.03348 4.00000
4.00000 7.03348 4.00000
4.00000 7.03348 4.00000
4.00000 7.03348 4.00000
4.00000 7.03348 4.00000
4.00000 7.03351 4.00000
4.00000 7.03348 4.00000
4.00000 7.03348 4.00000
4.00000 7.03348 4.00000
4.00000 7.03350 4.00000
4.00000 7.03348 4.00000
4.00000 7.03348 4.00000
4.00000 7.03348 4.00000
4.00000 7.03348 4.00000
4.00000 7.03349 4.00000
4.00000 7.03348 4.00000
4.00000 7.03348 4.00000
4.00000 7.03348 4.00000
4.00000 7.03348 4.00000
4.00000 7.03348 4.00000
4.00000 7.03348 4.00000
4.00000 7.03348 4.00000
4.00000 7.03348 4.00000
4.00000 7.03348 4.00000
4.00000 7.03348 4.00000
4.00000 7.03348 4.00000
4.00000 7.03348 4.00000
4.00000 7.03348 4.00000
4.00000 7.03348 4.00000
4.00000 7.03348 4.00000
4.00000 7.03348 4.00000
4.00000 7.03348 4.00000
4.00000 7.03350 4.00000
4.00000 7.03348 4.00000
4.00000 7.03348 4.00000
4.00000 7.03348 4.00000
4.00000 7.03348 4.00000
4.00000 7.03348 4.00000
4.00000 7.03348 4.00000
4.00000 7.03348 4.00000
4.00000 7.03348 4.00000
4.00000 7.03348 4.00000
4.00000 7.03348 4.00000
4.00000 7.03348 4.00000
4.00000 7.03348 4.00000
4.00000 7.03348 4.00000
4.00000 7.03348 4.00000
4.00000 7.03348 4.00000
4.00000 7.03348 4.00000
4.00000 7.03348 4.00000
4.00000 7.03348 4.00000
4.00000 7.03348 4.00000
4.00000 7.03348 4.00000
4.00000 7.03348 4.00000
4.00000 7.03348 4.00000
4.00000 7.03349 4.00000
4.00000 7.03348 4.00000
4.00000 7.03348 4.00000
4.00000 7.03348 4.00000
4.00000 7.03348 4.00000
4.00000 7.03348 4.00000
4.00000 7.03348 4.00000
4.00000 7.03348 4.00000
4.00000 7.03348 4.00000
4.00000 7.03348 4.00000
4.00000 7.03348 4.00000
4.00000 7.03348 4.00000
4.00000 7.03348 4.00000
4.00000 7.03348 4.00000
4.00000 7.03348 4.00000
4.00000 7.03348 4.00000
4.00000 7.03346 4.00000
4.00000 7.03348 4.00000
4.00000 7.03349 4.00000
4.00000 7.03348 4.00000
4.00000 7.03348 4.00000
4.00000 7.03348 4.00000
4.00000 7.03348 4.00000
4.00000 7.03348 4.00000
4.00000 7.03348 4.00000
4.00000 7.03348 4.00000
4.00000 7.03348 4.00000
4.00000 7.03348 4.00000
4.00000 7.03348 4.00000
4.00000 7.03348 4.00000
4.00000 7.03348 4.00000
4.00000 7.03348 4.00000
4.00000 7.03348 4.00000
4.00000 7.03348 4.00000
4.00000 7.03348 4.00000
4.00000 7.03348 4.00000
4.00000 7.03348 4.00000
4.00000 7.03348 4.00000
4.00000 7.03348 4.00000
4.00000 7.03348 4.00000
4.00000 7.03348 4.00000
4.00000 7.03348 4.00000
4.00000 7.03351 4.00000
4.00000 7.03347 4.00000
4.00000 7.03348 4.00000
4.00000 7.03348 4.00000
4.00000 7.03349 4.00000
4.00000 7.03348 4.00000
4.00000 7.03348 4.00000
4.00000 7.03348 4.00000
4.00000 7.03348 4.00000
4.00000 7.03348 4.00000
4.00000 7.03348 4.00000
4.00000 7.03348 4.00000
4.00000 7.03348 4.00000
4.00000 7.03349 4.00000
4.00000 7.03348 4.00000
4.00000 7.03348 4.00000
4.00000 7.03348 4.00000
4.00000 7.03348 4.00000
4.00000 7.03348 4.00000
4.00000 7.03348 4.00000
4.00000 7.03347 4.00000
4.00000 7.03348 4.00000
4.00000 7.03348 4.00000
4.00000 7.03348 4.00000
4.00000 7.03348 4.00000
4.00000 7.03346 4.00000
4.00000 7.03348 4.00000
4.00000 7.03350 4.00000
4.00000 7.03348 4.00000
4.00000 7.03348 4.00000
4.00000 7.03348 4.00000
4.00000 7.03348 4.00000
4.00000 7.03349 4.00000
4.00014 7.03625 4.00014
4.00402 7.11317 4.00402
4.00778 7.19051 4.00778
4.01145 7.26823 4.01145
4.01503 7.34626 4.01503
4.01856 7.42455 4.01856
4.02203 7.50305 4.02203
4.02548 7.58170 4.02548
4.02890 7.66046 4.02890
4.03232 7.73927 4.03232
4.03575 7.81808 4.03575
4.03921 7.89683 4.03921
4.04272 7.97546 4.04272
4.04629 8.05392 4.04629
4.04996 8.13212 4.04996
4.05374 8.20998 4.05374
4.05767 8.28742 4.05767
4.06178 8.36432 4.06178
4.06611 8.44056 4.06611
4.07071 8.51599 4.07071
4.07564 8.59042 4.07564
4.08098 8.66365 4.08097
4.08672 8.73566 4.08672
4.09282 8.80664 4.09282
4.09928 8.87659 4.09928
4.10612 8.94551 4.10612
4.11332 9.01341 4.11332
4.12088 9.08034 4.12088
4.12879 9.14637 4.12879
4.13701 9.21161 4.13701
4.14550 9.27619 4.14550
4.15421 9.34029 4.15421
4.16306 9.40415 4.16306
4.17195 9.46809 4.17194
4.18074 9.53246 4.18074
4.18928 9.59774 4.18928
4.19735 9.66452 4.19735
4.20470 9.73353 4.20470
4.21100 9.80566 4.21100
4.21586 9.88198 4.21586
4.21885 9.96367 4.21885
4.21953 10.05194 4.21953
4.21806 10.14640 4.21806
4.21580 10.24310 4.21580
4.21290 10.34168 4.21290
4.20932 10.44221 4.20932
4.20502 10.54484 4.20502
4.19993 10.64985 4.19993
4.19388 10.75766 4.19388
4.18667 10.86895 4.18668
4.17795 10.98483 4.17795
4.16710 11.10718 4.16710
4.15294 11.23976 4.15294
4.13245 11.39205 4.13245
4.09105 11.61092 4.09105
4.00000 13.19120 4.00000
4.00000 13.19120 4.00000
4.00000 13.19120 4.00000
4.00000 13.19120 4.00000
4.00000 13.19120 4.00000
4.00000 13.19120 4.00000
4.00000 13.19120 4.00000
4.00000 13.19120 4.00000
4.00000 13.19120 4.00000
4.00000 13.19120 4.00000
4.00000 13.19120 4.00000
4.00000 13.19120 4.00000
4.00000 13.19120 4.00000
4.00000 13.19120 4.00000
4.01114 13.22786 4.01114
4.02344 13.27673 4.02344
4.03426 13.33096 4.03426
4.04342 13.39099 4.04343
4.05075 13.45728 4.05075
4.05607 13.53026 4.05607
4.05925 13.61028 4.05925
4.06151 13.69329 4.06151
4.06371 13.77655 4.06371
4.06584 13.86002 4.06584
4.06791 13.94369 4.06791
4.06994 14.02753 4.06994
4.07192 14.11152 4.07192
4.07387 14.19566 4.07387
4.07577 14.27992 4.07577
4.07765 14.36429 4.07765
4.07949 14.44877 4.07949
4.08131 14.53335 4.08131
4.08310 14.61802 4.08310
4.08487 14.70277 4.08487
4.08662 14.78760 4.08662
4.08835 14.87250 4.08835
4.09006 14.95746 4.09006
4.09176 15.04249 4.09176
4.09340 15.12769 4.09340
4.09478 15.21373 4.09478
4.09588 15.30066 4.09588
4.09671 15.38842 4.09671
4.09730 15.47697 4.09730
4.09766 15.56625 4.09766
4.09779 15.65622 4.09779
4.09773 15.74683 4.09773
4.09748 15.83803 4.09748
4.09705 15.92977 4.09705
4.09647 16.02202 4.09647
4.09574 16.11472 4.09575
4.09489 16.20784 4.09489
4.09391 16.30133 4.09391
4.09283 16.39517 4.09283
4.09165 16.48931 4.09165
4.09039 16.58373 4.09039
4.08905 16.67839 4.08905
4.08765 16.77326 4.08765
4.08620 16.86831 4.08620
4.08469 16.96352 4.08469
4.08315 17.05887 4.08315
4.08157 17.15432 4.08157
4.07997 17.24987 4.07997
4.07835 17.34550 4.07835
4.07671 17.44117 4.07671
4.07506 17.53689 4.07506
4.07341 17.63263 4.07341
4.07176 17.72838 4.07176
4.07011 17.82413 4.07011
4.06847 17.91987 4.06847
4.06684 18.01558 4.06684
4.06522 18.11126 4.06522
4.06361 18.20690 4.06361
4.06203 18.30250 4.06203
4.06046 18.39804 4.06046
4.05891 18.49352 4.05891
4.05738 18.58894 4.05738
4.05588 18.68428 4.05588
4.05440 18.77956 4.05440
4.05295 18.87475 4.05295
4.05153 18.96987 4.05153
4.05013 19.06491 4.05013
4.04876 19.15986 4.04876
4.04741 19.25472 4.04741
4.04610 19.34951 4.04610
4.04481 19.44420 4.04481
4.04355 19.53880 4.04355
4.04232 19.63332 4.04232
4.04112 19.72775 4.04112
4.03994 19.82209 4.03994
4.03879 19.91634 4.03879
4.03768 20.01051 4.03768
4.03658 20.10458 4.03658
4.03552 20.19858 4.03552
4.03448 20.29248 4.03448
4.03347 20.38630 4.03347
4.03249 20.48004 4.03249
4.03153 20.57369 4.03153
4.03060 20.66727 4.03060
4.02969 20.76076 4.02969
4.02881 20.85417 4.02881
4.02795 20.94751 4.02795
4.02711 21.04077 4.02711
4.02630 21.13396 4.02630
4.02550 21.22707 4.02550
4.02474 21.32011 4.02474
4.02399 21.41308 4.02399
4.02326 21.50599 4.02326
4.02256 21.59882 4.02256
4.02187 21.69159 4.02187
4.02121 21.78430 4.02121
4.02056 21.87694 4.02056
4.01993 21.96952 4.01993
4.01932 22.06205 4.01932
4.01873 22.15451 4.01873
4.01816 22.24692 4.01816
4.01760 22.33927 4.01760
4.01706 22.43157 4.01706
4.01653 22.52381 4.01653
4.01602 22.61601 4.01602
4.01553 22.70815 4.01553
4.01505 22.80025 4.01505
4.01458 22.89229 4.01458
4.01413 22.98430 4.01413
4.01369 23.07625 4.01369
4.01327 23.16817 4.01327
4.01286 23.26004 4.01286
4.01246 23.35187 4.01246
4.01207 23.44366 4.01207
4.01169 23.53541 4.01169
4.01133 23.62712 4.01133
4.01098 23.71880 4.01098
4.01063 23.81044 4.01063
4.01030 23.90205 4.01030
4.00998 23.99362 4.00998
4.00967 24.08516 4.00967
4.00937 24.17667 4.00937
4.00907 24.26814 4.00907
4.00879 24.35959 4.00879
4.00851 24.45101 4.00851
4.00825 24.54240 4.00825
4.00799 24.63376 4.00799
4.00774 24.72510 4.00774
4.00750 24.81641 4.00750
4.00726 24.90769 4.00726
4.00703 24.99895 4.00703
4.00681 25.09019 4.00681
4.00660 25.18141 4.00660
4.00639 25.27260 4.00639
4.00619 25.36377 4.00619
4.00599 25.45492 4.00599
4.00581 25.54605 4.00581
4.00562 25.63716 4.00562
4.00545 25.72825 4.00545
4.00527 25.81933 4.00527
4.00511 25.91038 4.00511
4.00495 26.00142 4.00495
4.00479 26.09244 4.00479
4.00464 26.18345 4.00464
4.00449 26.27444 4.00449
4.00435 26.36541 4.00435
4.00421 26.45637 4.00421
4.00408 26.54732 4.00408
4.00395 26.63825 4.00395
4.00383 26.72917 4.00383
4.00371 26.82008 4.00371
4.00359 26.91097 4.00359
4.00348 27.00185 4.00348
4.00337 27.09272 4.00337
4.00326 27.18358 4.00326
4.00316 27.27442 4.00316
4.00306 27.36526 4.00306
4.00296 27.45609 4.00296
4.00287 27.54690 4.00287
4.00278 27.63771 4.00278
4.00269 27.72851 4.00269
4.00260 27.81929 4.00260
4.00252 27.91007 4.00252
4.00244 28.00084 4.00244
4.00236 28.09160 4.00236
4.00229 28.18236 4.00229
4.00222 28.27310 4.00222
4.00215 28.36384 4.00215
4.00208 28.45457 4.00208
4.00201 28.54530 4.00201
4.00195 28.63602 4.00195

