Angle 0.020129 6.207111

4.00000 7.03348 4.00000
4.00000 7.03348 4.00000
4.00000 7.03348 4.00000
4.00000 7.03348 4.00000
4.00000 7.03345 4.00000
4.00000 7.03347 4.00000
4.00000 7.03348 4.00000
4.00000 7.03348 4.00000
4.00000 7.03346 4.00000
4.00000 7.03348 4.00000
4.00000 7.03347 4.00000
4.00000 7.03349 4.00000
4.00001 7.03372 4.00001
4.00355 7.10372 4.00355
4.00733 7.18128 4.00733
4.01103 7.25922 4.01103
4.01463 7.33747 4.01463
4.01818 7.41599 4.01818
4.02167 7.49472 4.02167
4.02512 7.57361 4.02512
4.02856 7.65261 4.02856
4.03199 7.73166 4.03199
4.03543 7.81072 4.03543
4.03890 7.88972 4.03890
4.04241 7.96860 4.04241
4.04599 8.04730 4.04599
4.04966 8.12576 4.04966
4.05344 8.20388 4.05344
4.05737 8.28157 4.05737
4.06147 8.35873 4.06147
4.06580 8.43523 4.06580
4.07039 8.51093 4.07039
4.07531 8.58564 4.07531
4.08063 8.65915 4.08063
4.08637 8.73141 4.08637
4.09246 8.80265 4.09246
4.09892 8.87283 4.09892
4.10576 8.94198 4.10576
4.11296 9.01010 4.11296
4.12052 9.07725 4.12052
4.12843 9.14348 4.12843
4.13666 9.20891 4.13666
4.14516 9.27366 4.14516
4.15389 9.33793 4.15389
4.16275 9.40195 4.16275
4.17166 9.46603 4.17166
4.18048 9.53053 4.18048
4.18905 9.59593 4.18905
4.19716 9.66281 4.19716
4.20454 9.73191 4.20454
4.21088 9.80412 4.21088
4.21578 9.88051 4.21578
4.21881 9.96228 4.21881
4.21954 10.05063 4.21954
4.21808 10.14523 4.21808
4.21583 10.24211 4.21583
4.21292 10.34089 4.21292
4.20934 10.44161 4.20934
4.20504 10.54444 4.20504
4.19994 10.64965 4.19994
4.19388 10.75767 4.19388
4.18666 10.86919 4.18666
4.17791 10.98531 4.17791
4.16703 11.10794 4.16703
4.15281 11.24087 4.15281
4.13220 11.39371 4.13220
4.09012 11.61493 4.09012
4.00000 13.19120 4.00000
4.00000 13.19120 4.00000
4.00000 13.19120 4.00000
4.00000 13.19120 4.00000
4.00000 13.19120 4.00000
4.00000 13.19120 4.00000
4.00000 13.19120 4.00000
4.00000 13.19120 4.00000
4.00000 13.19120 4.00000
4.00000 13.19120 4.00000
4.00000 13.19120 4.00000
4.00000 13.19120 4.00000
4.00000 13.19120 4.00000
4.00000 13.19120 4.00000
4.01163 13.22961 4.01163
4.02390 13.27876 4.02390
4.03467 13.33330 4.03467
4.04377 13.39368 4.04377
4.05103 13.46036 4.05103
4.05626 13.53376 4.05626
4.05935 13.61419 4.05935
4.06162 13.69734 4.06162
4.06381 13.78074 4.06381
4.06595 13.86435 4.06595
4.06802 13.94815 4.06802
4.07005 14.03212 4.07005
4.07203 14.11624 4.07203
4.07398 14.20051 4.07398
4.07589 14.28489 4.07589
4.07776 14.36940 4.07776
4.07961 14.45400 4.07961
4.08143 14.53871 4.08143
4.08322 14.62350 4.08322
4.08499 14.70837 4.08499
4.08674 14.79332 4.08674
4.08847 14.87834 4.08847
4.09018 14.96342 4.09018
4.09188 15.04856 4.09188
4.09351 15.13392 4.09351
4.09487 15.22014 4.09487
4.09595 15.30724 4.09595
4.09677 15.39518 4.09677
4.09734 15.48390 4.09734
4.09767 15.57335 4.09767
4.09780 15.66349 4.09780
4.09772 15.75426 4.09772
4.09745 15.84562 4.09745
4.09701 15.93751 4.09701
4.09641 16.02991 4.09641
4.09568 16.12276 4.09568
4.09481 16.21603 4.09481
4.09382 16.30967 4.09382
4.09273 16.40364 4.09273
4.09154 16.49792 4.09154
4.09027 16.59247 4.09027
4.08892 16.68726 4.08892
4.08752 16.78225 4.08752
4.08605 16.87743 4.08605
4.08454 16.97276 4.08454
4.08300 17.06822 4.08300
4.08142 17.16380 4.08141
4.07981 17.25946 4.07981
4.07818 17.35519 4.07818
4.07654 17.45098 4.07654
4.07489 17.54680 4.07489
4.07324 17.64264 4.07324
4.07159 17.73849 4.07159
4.06994 17.83434 4.06994
4.06829 17.93018 4.06829
4.06666 18.02599 4.06666
4.06504 18.12176 4.06504
4.06344 18.21750 4.06344
4.06185 18.31318 4.06185
4.06028 18.40881 4.06028
4.05874 18.50438 4.05873
4.05721 18.59988 4.05721
4.05571 18.69532 4.05571
4.05423 18.79067 4.05423
4.05278 18.88595 4.05278
4.05136 18.98115 4.05136
4.04996 19.07627 4.04996
4.04859 19.17130 4.04859
4.04725 19.26625 4.04725
4.04594 19.36111 4.04594
4.04465 19.45588 4.04465
4.04339 19.55056 4.04339
4.04217 19.64516 4.04217
4.04097 19.73966 4.04097
4.03979 19.83407 4.03979
4.03865 19.92840 4.03865
4.03753 20.02264 4.03753
4.03645 20.11679 4.03645
4.03538 20.21085 4.03538
4.03435 20.30483 4.03435
4.03334 20.39872 4.03334
4.03236 20.49252 4.03236
4.03140 20.58625 4.03140
4.03047 20.67989 4.03047
4.02957 20.77345 4.02957
4.02869 20.86693 4.02869
4.02783 20.96034 4.02783
4.02699 21.05367 4.02700
4.02618 21.14692 4.02618
4.02540 21.24010 4.02540
4.02463 21.33321 4.02463
4.02389 21.42624 4.02388
4.02316 21.51921 4.02316
4.02246 21.61211 4.02246
4.02178 21.70495 4.02177
4.02111 21.79771 4.02111
4.02047 21.89042 4.02047
4.01984 21.98307 4.01984
4.01923 22.07565 4.01923
4.01864 22.16818 4.01864
4.01807 22.26065 4.01807
4.01752 22.35306 4.01752
4.01698 22.44542 4.01698
4.01646 22.53772 4.01645
4.01595 22.62998 4.01595
4.01546 22.72218 4.01545
4.01498 22.81434 4.01498
4.01451 22.90645 4.01451
4.01406 22.99851 4.01406
4.01363 23.09053 4.01363
4.01320 23.18250 4.01320
4.01279 23.27443 4.01279
4.01240 23.36632 4.01240
4.01201 23.45817 4.01201
4.01164 23.54998 4.01164
4.01127 23.64175 4.01127
4.01092 23.73348 4.01092
4.01058 23.82518 4.01058
4.01025 23.91684 4.01025
4.00993 24.00847 4.00993
4.00962 24.10007 4.00962
4.00932 24.19163 4.00932
4.00903 24.28316 4.00903
4.00874 24.37467 4.00874
4.00847 24.46614 4.00847
4.00820 24.55759 4.00820
4.00795 24.64900 4.00795
4.00770 24.74039 4.00770
4.00746 24.83176 4.00746
4.00722 24.92310 4.00722
4.00699 25.01441 4.00699
4.00677 25.10570 4.00677
4.00656 25.19697 4.00656
4.00635 25.28822 4.00635
4.00615 25.37944 4.00615
4.00596 25.47065 4.00596
4.00577 25.56183 4.00577
4.00559 25.65299 4.00559
4.00541 25.74414 4.00541
4.00524 25.83526 4.00524
4.00508 25.92637 4.00508
4.00492 26.01746 4.00492
4.00476 26.10853 4.00476
4.00461 26.19959 4.00461
4.00447 26.29063 4.00447
4.00433 26.38166 4.00433
4.00419 26.47267 4.00419
4.00406 26.56366 4.00406
4.00393 26.65464 4.00393
4.00380 26.74561 4.00380
4.00368 26.83657 4.00368
4.00357 26.92751 4.00357
4.00345 27.01844 4.00345
4.00334 27.10936 4.00335
4.00324 27.20026 4.00324
4.00314 27.29116 4.00314
4.00304 27.38204 4.00304
4.00294 27.47291 4.00294
4.00285 27.56378 4.00285
4.00276 27.65463 4.00276
4.00267 27.74547 4.00267
4.00259 27.83631 4.00259
4.00251 27.92714 4.00250
4.00243 28.01795 4.00243
4.00235 28.10876 4.00235
4.00227 28.19956 4.00227
4.00220 28.29035 4.00220
4.00213 28.38114 4.00213
4.00207 28.47191 4.00206
4.00200 28.56268 4.00200
4.00194 28.65345 4.00194
4.00188 28.74420 4.00187
4.00182 28.83495 4.00181
4.00176 28.92570 4.00176
4.00170 29.01643 4.00170
4.00165 29.10716 4.00165
4.00160 29.19789 4.00160
4.00155 29.28861 4.00154
4.00150 29.37932 4.00150
4.00145 29.47003 4.00145
4.00140 29.56074 4.00140
4.00136 29.65144 4.00136
4.00132 29.74213 4.00131
4.00127 29.83282 4.00127
4.00123 29.92351 4.00123
4.00119 30.01419 4.00119
4.00116 30.10487 4.00116
4.00112 30.19554 4.00112
4.00108 30.28621 4.00108
4.00105 30.37687 4.00105
4.00102 30.46754 4.00102
4.00098 30.55819 4.00098
4.00095 30.64885 4.00095
4.00092 30.73950 4.00092
4.00089 30.83015 4.00089
4.00086 30.92079 4.00086
4.00084 31.01143 4.00084
4.00081 31.10207 4.00081
4.00078 31.19271 4.00078
4.00076 31.28334 4.00076
4.00074 31.37397 4.00074
4.00071 31.46460 4.00071
4.00069 31.55523 4.00069
4.00067 31.64585 4.00067
4.00065 31.73647 4.00065
4.00063 31.82709 4.00063
4.00061 31.91771 4.00061
4.00059 32.00833 4.00059
4.00057 32.09894 4.00057
4.00055 32.18955 4.00055
4.00053 32.28016 4.00053
4.00052 32.37076 4.00052
4.00050 32.46137 4.00050
4.00048 32.55197 4.00048
4.00047 32.64258 4.00047
4.00045 32.73318 4.00045
4.00044 32.82377 4.00044
4.00042 32.91437 4.00042
4.00041 33.00497 4.00041
4.00040 33.09556 4.00040
4.00039 33.18615 4.00039
4.00037 33.27675 4.00037
4.00036 33.36734 4.00036
4.00035 33.45793 4.00035
4.00034 33.54851 4.00034
4.00033 33.63910 4.00033
4.00032 33.72969 4.00032
4.00031 33.82027 4.00031
4.00030 33.91085 4.00030
4.00029 34.00144 4.00029
4.00028 34.09202 4.00028
4.00027 34.18260 4.00027
4.00026 34.27318 4.00026
4.00025 34.36376 4.00025
4.00025 34.45433 4.00025
4.00024 34.54491 4.00024
4.00023 34.63549 4.00023
4.00022 34.72606 4.00022
4.00022 34.81664 4.00022
4.00021 34.90721 4.00021
4.00020 34.99779 4.00020
4.00020 35.08836 4.00020
4.00019 35.17893 4.00019
4.00018 35.26950 4.00018
4.00018 35.36007 4.00018
4.00017 35.45064 4.00017
4.00017 35.54121 4.00017
4.00016 35.63178 4.00016
4.00016 35.72235 4.00016
4.00015 35.81292 4.00015
4.00015 35.90349 4.00015
4.00014 35.99405 4.00014
4.00014 36.08462 4.00014
4.00013 36.17519 4.00013
4.00013 36.26575 4.00013
4.00012 36.35632 4.00012
4.00012 36.44688 4.00012
4.00012 36.53745 4.00012
4.00011 36.62801 4.00011
4.00011 36.71857 4.00011
4.00011 36.80914 4.00011
4.00010 36.89970 4.00010
4.00010 36.99026 4.00010
4.00010 37.08083 4.00010
4.00009 37.17139 4.00009
4.00009 37.26195 4.00009
4.00009 37.35251 4.00009
4.00008 37.44307 4.00008
4.00008 37.53363 4.00008
4.00008 37.62419 4.00008
4.00008 37.71476 4.00008
4.00007 37.80532 4.00007
4.00007 37.89588 4.00007
4.00007 37.98644 4.00007
4.00007 38.07700 4.00007
4.00007 38.16755 4.00007
4.00006 38.25811 4.00006
4.00006 38.34867 4.00006
4.00006 38.43923 4.00006
4.00006 38.52979 4.00006
4.00006 38.62035 4.00006
4.00005 38.71091 4.00005
4.00005 38.80147 4.00005
4.00005 38.89202 4.00005
4.00005 38.98258 4.00005
4.00005 39.07314 4.00005
4.00005 39.16370 4.00005
4.00004 39.25426 4.00004
4.00004 39.34482 4.00004
4.00004 39.43538 4.00004
4.00004 39.52593 4.00004
4.00004 39.61648 4.00004
4.00004 39.70704 4.00004
4.00004 39.79760 4.00004
4.00004 39.88816 4.00004
4.00003 39.97872 4.00003
4.00003 40.06927 4.00003
4.00003 40.15983 4.00003
4.00003 40.25039 4.00003
4.00003 40.34094 4.00003
4.00003 40.43150 4.00003
4.00003 40.52205 4.00003
4.00003 40.61261 4.00003
4.00003 40.70317 4.00003
4.00003 40.79373 4.00003
4.00002 40.88429 4.00002
4.00002 40.97484 4.00002
4.00002 41.06540 4.00002
4.00002 41.15596 4.00002
4.00002 41.24651 4.00002
4.00002 41.33707 4.00002
4.00002 41.42763 4.00002
4.00002 41.51819 4.00002
4.00002 41.60875 4.00002
4.00002 41.69931 4.00002
4.00002 41.78987 4.00002
4.00002 41.88043 4.00002
4.00002 41.97099 4.00002
4.00002 42.06155 4.00002

Angle 0.008981 4.721062

4.00000 7.03348 4.00000
4.00000 7.03349 4.00000
4.00000 7.03348 4.00000
4.00000 7.03348 4.00000
4.00000 7.03348 4.00000
4.00000 7.03348 4.00000
4.00000 7.03348 4.00000
4.00000 7.03348 4.00000
4.00000 7.03348 4.00000
4.00000 7.03348 4.00000
4.00000 7.03348 4.00000
4.00000 7.03348 4.00000
4.00000 7.03348 4.00000
4.00000 7.03348 4.00000
4.00000 7.03348 4.00000
4.00000 7.03348 4.00000
4.00000 7.03348 4.00000
4.00000 7.03348 4.00000
4.00000 7.03348 4.00000
4.00000 7.03348 4.00000
4.00000 7.03348 4.00000
4.00000 7.03348 4.00000
4.00000 7.03348 4.00000
4.00000 7.03348 4.00000
4.00000 7.03348 4.00000
4.00000 7.03348 4.00000
4.00000 7.03348 4.00000
4.00000 7.03348 4.00000
4.00000 7.03348 4.00000
4.00000 7.03348 4.00000
4.00000 7.03348 4.00000
4.00000 7.03347 4.00000
4.00000 7.03348 4.00000
4.00000 7.03348 4.00000
4.00000 7.03348 4.00000
4.00000 7.03348 4.00000
4.00000 7.03348 4.00000
4.00000 7.03348 4.00000
4.00000 7.03347 4.00000
4.00000 7.03347 4.00000
4.00000 7.03348 4.00000
4.00000 7.03348 4.00000
4.00000 7.03348 4.00000
4.00000 7.03348 4.00000
4.00000 7.03348 4.00000
4.00000 7.03348 4.00000
4.00000 7.03348 4.00000
4.00000 7.03348 4.00000
4.00000 7.03348 4.00000
4.00000 7.03348 4.00000
4.00000 7.03348 4.00000
4.00000 7.03348 4.00000
4.00000 7.03348 4.00000
4.00000 7.03348 4.00000
4.00000 7.03348 4.00000
4.00000 7.03348 4.00000
4.00000 7.03347 4.00000
4.00000 7.03348 4.00000
4.00000 7.03348 4.00000
4.00000 7.03348 4.00000
4.00000 7.03348 4.00000
4.00000 7.03348 4.00000
4.00000 7.03348 4.00000
4.00000 7.03348 4.00000
4.00000 7.03348 4.00000
4.00000 7.03348 4.00000
4.00000 7.03348 4.00000
4.00000 7.03348 4.00000
4.00000 7.03348 4.00000
4.00000 7.03348 4.00000
4.00000 7.03348 4.00000
4.00000 7.03347 4.00000
4.00000 7.03348 4.00000
4.00000 7.03348 4.00000
4.00000 7.03349 4.00000
4.00000 7.03348 4.00000
4.00000 7.03348 4.00000
4.00000 7.03348 4.00000
4.00000 7.03349 4.00000
4.00000 7.03348 4.00000
4.00000 7.03348 4.00000
4.00000 7.03348 4.00000
4.00000 7.03348 4.00000
4.00000 7.03348 4.00000
4.00000 7.03348 4.00000
4.00000 7.03348 4.00000
4.00000 7.03348 4.00000
4.00000 7.03348 4.00000
4.00000 7.03348 4.00000
4.00000 7.03348 4.00000
4.00000 7.03348 4.00000
4.00000 7.03348 4.00000
4.00000 7.03348 4.00000
4.00000 7.03347 4.00000
4.00000 7.03348 4.00000
4.00000 7.03348 4.00000
4.00000 7.03348 4.00000
4.00000 7.03348 4.00000
4.00000 7.03348 4.00000
4.00000 7.03348 4.00000
4.00000 7.03348 4.00000
4.00000 7.03348 4.00000
4.00000 7.03348 4.00000
4.00000 7.03348 4.00000
4.00000 7.03348 4.00000
4.00000 7.03348 4.00000
4.00000 7.03348 4.00000
4.00000 7.03348 4.00000
4.00000 7.03347 4.00000
4.00000 7.03348 4.00000
4.00000 7.03348 4.00000
4.00000 7.03348 4.00000
4.00000 7.03347 4.00000
4.00000 7.03348 4.00000
4.00000 7.03348 4.00000
4.00000 7.03349 4.00000
4.00000 7.03348 4.00000
4.00000 7.03348 4.00000
4.00000 7.03348 4.00000
4.00000 7.03348 4.00000
4.00000 7.03348 4.00000
4.00000 7.03348 4.00000
4.00000 7.03347 4.00000
4.00000 7.03348 4.00000
4.00000 7.03348 4.00000
4.00000 7.03348 4.00000
4.00000 7.03348 4.00000
4.00000 7.03347 4.00000
4.00000 7.03348 4.00000
4.00000 7.03348 4.00000
4.00000 7.03348 4.00000
4.00000 7.03348 4.00000
4.00000 7.03348 4.00000
4.00000 7.03349 4.00000
4.00000 7.03348 4.00000
4.00000 7.03348 4.00000
4.00000 7.03348 4.00000
4.00000 7.03348 4.00000
4.00000 7.03348 4.00000
4.00000 7.03348 4.00000
4.00000 7.03347 4.00000
4.00000 7.03349 4.00000
4.00000 7.03348 4.00000
4.00000 7.03348 4.00000
4.00000 7.03348 4.00000
4.00000 7.03348 4.00000
4.00000 7.03348 4.00000
4.00000 7.03348 4.00000
4.00000 7.03348 4.00000
4.00000 7.03349 4.00000
4.00000 7.03348 4.00000
4.00000 7.03348 4.00000
4.00000 7.03348 4.00000
4.00000 7.03348 4.00000
4.00000 7.03348 4.00000
4.00000 7.03348 4.00000
4.00000 7.03348 4.00000
4.00000 7.03348 4.00000
4.00000 7.03348 4.00000
4.00000 7.03348 4.00000
4.00000 7.03348 4.00000
4.00000 7.03349 4.00000
4.00000 7.03348 4.00000
4.00000 7.03348 4.00000
4.00000 7.03348 4.00000
4.00000 7.03348 4.00000
4.00000 7.03347 4.00000
4.00000 7.03348 4.00000
4.00000 7.03349 4.00000
4.00000 7.03349 4.00000
4.00000 7.03348 4.00000
4.00000 7.03348 4.00000
4.00000 7.03348 4.00000
4.00000 7.03348 4.00000
4.00000 7.03348 4.00000
4.00000 7.03348 4.00000
4.00000 7.03348 4.00000
4.00000 7.03348 4.00000
4.00000 7.03348 4.00000
4.00000 7.03348 4.00000
4.00000 7.03348 4.00000
4.00000 7.03349 4.00000
4.00000 7.03348 4.00000
4.00000 7.03348 4.00000
4.00000 7.03350 4.00000
4.00000 7.03347 4.00000
4.00000 7.03348 4.00000
4.00067 7.04663 4.00067
4.00438 7.12062 4.00438
4.00799 7.19504 4.00800
4.01152 7.26984 4.01152
4.01498 7.34497 4.01498
4.01837 7.42037 4.01837
4.02172 7.49601 4.02173
4.02505 7.57183 4.02505
4.02835 7.64780 4.02835
4.03165 7.72385 4.03165
4.03496 7.79995 4.03496
4.03829 7.87604 4.03829
4.04167 7.95207 4.04167
4.04510 8.02798 4.04510
4.04861 8.10371 4.04861
4.05223 8.17918 4.05223
4.05597 8.25432 4.05597
4.05986 8.32903 4.05986
4.06395 8.40321 4.06395
4.06827 8.47672 4.06827
4.07287 8.54943 4.07287
4.07781 8.62114 4.07781
4.08316 8.69167 4.08316
4.08886 8.76118 4.08886
4.09490 8.82975 4.09490
4.10129 8.89737 4.10129
4.10804 8.96404 4.10804
4.11513 9.02978 4.11513
4.12256 9.09464 4.12256
4.13031 9.15868 4.13031
4.13835 9.22202 4.13835
4.14665 9.28478 4.14665
4.15515 9.34713 4.15515
4.16378 9.40931 4.16378
4.17243 9.47159 4.17243
4.18099 9.53432 4.18099
4.18931 9.59796 4.18931
4.19718 9.66304 4.19718
4.20438 9.73024 4.20438
4.21059 9.80038 4.21059
4.21546 9.87444 4.21546
4.21860 9.95353 4.21860
4.21959 10.03877 4.21959
4.21837 10.13036 4.21837
4.21629 10.22446 4.21629
4.21357 10.32039 4.21357
4.21023 10.41817 4.21023
4.20621 10.51794 4.20621
4.20146 10.61991 4.20146
4.19583 10.72446 4.19584
4.18918 10.83213 4.18918
4.18120 10.94381 4.18120
4.17143 11.06094 4.17142
4.15900 11.18622 4.15900
4.14205 11.32559 4.14205
4.11443 11.49859 4.11443
4.00000 13.19120 4.00000
4.00000 13.19120 4.00000
4.00000 13.19120 4.00000
4.00000 13.19120 4.00000
4.00000 13.19120 4.00000
4.00000 13.19120 4.00000
4.00000 13.19120 4.00000
4.00000 13.19120 4.00000
4.00000 13.19120 4.00000
4.00000 13.19120 4.00000
4.00000 13.19120 4.00000
4.00000 13.19121 4.00000
4.00000 13.19120 4.00000
4.00000 13.19119 4.00000
4.00140 13.19548 4.00140
4.01443 13.23991 4.01443
4.02617 13.28917 4.02617
4.03644 13.34371 4.03644
4.04507 13.40395 4.04507
4.05189 13.47034 4.05190
4.05676 13.54327 4.05676
4.05959 13.62286 4.05959
4.06181 13.70450 4.06181
4.06396 13.78638 4.06397
4.06605 13.86850 4.06605
4.06809 13.95080 4.06809
4.07008 14.03328 4.07008
4.07203 14.11592 4.07203
4.07394 14.19871 4.07393
4.07581 14.28163 4.07581
4.07766 14.36468 4.07766
4.07947 14.44784 4.07947
4.08126 14.53110 4.08126
4.08303 14.61446 4.08303
4.08477 14.69792 4.08477
4.08650 14.78146 4.08650
4.08820 14.86507 4.08820
4.08989 14.94877 4.08989
4.09156 15.03253 4.09156
4.09320 15.11643 4.09320
4.09459 15.20110 4.09459
4.09572 15.28664 4.09572
4.09659 15.37301 4.09659
4.09721 15.46017 4.09721
4.09760 15.54806 4.09760
4.09778 15.63664 4.09778
4.09776 15.72586 4.09776
4.09756 15.81567 4.09756
4.09718 15.90603 4.09718
4.09664 15.99690 4.09664
4.09597 16.08824 4.09597
4.09516 16.18001 4.09516
4.09423 16.27216 4.09423
4.09319 16.36467 4.09319
4.09206 16.45749 4.09206
4.09084 16.55060 4.09084
4.08955 16.64397 4.08955
4.08819 16.73756 4.08819
4.08677 16.83135 4.08677
4.08530 16.92531 4.08530
4.08379 17.01943 4.08379
4.08225 17.11366 4.08225
4.08067 17.20801 4.08067
4.07908 17.30245 4.07908
4.07747 17.39695 4.07747
4.07585 17.49150 4.07585
4.07422 17.58610 4.07422
4.07258 17.68072 4.07258
4.07095 17.77536 4.07095
4.06932 17.86999 4.06932
4.06771 17.96462 4.06771
4.06610 18.05922 4.06610
4.06450 18.15380 4.06450
4.06292 18.24835 4.06292
4.06136 18.34285 4.06136
4.05982 18.43731 4.05982
4.05830 18.53171 4.05830
4.05680 18.62606 4.05680
4.05532 18.72034 4.05532
4.05387 18.81456 4.05387
4.05244 18.90871 4.05244
4.05104 19.00279 4.05104
4.04966 19.09679 4.04966
4.04831 19.19072 4.04832
4.04699 19.28457 4.04699
4.04570 19.37835 4.04570
4.04443 19.47204 4.04443
4.04320 19.56566 4.04320
4.04199 19.65919 4.04199
4.04080 19.75265 4.04080
4.03965 19.84603 4.03965
4.03852 19.93932 4.03852
4.03742 20.03254 4.03742
4.03634 20.12567 4.03634
4.03530 20.21873 4.03530
4.03427 20.31171 4.03427
4.03328 20.40462 4.03328
4.03231 20.49744 4.03231
4.03136 20.59020 4.03136
4.03044 20.68288 4.03044
4.02955 20.77548 4.02955
4.02868 20.86802 4.02868
4.02783 20.96049 4.02783
4.02700 21.05288 4.02700
4.02620 21.14521 4.02620
4.02542 21.23748 4.02542
4.02466 21.32968 4.02466
4.02392 21.42181 4.02392
4.02320 21.51388 4.02320
4.02250 21.60590 4.02250
4.02183 21.69785 4.02183
4.02117 21.78975 4.02117
4.02053 21.88159 4.02053
4.01991 21.97337 4.01991
4.01930 22.06510 4.01930
4.01872 22.15678 4.01872
4.01815 22.24841 4.01815
4.01759 22.33999 4.01759
4.01706 22.43152 4.01706
4.01654 22.52300 4.01654
4.01603 22.61444 4.01603
4.01554 22.70583 4.01554
4.01506 22.79718 4.01506
4.01460 22.88849 4.01460
4.01415 22.97975 4.01415
4.01372 23.07098 4.01372
4.01330 23.16217 4.01330
4.01289 23.25332 4.01289
4.01249 23.34443 4.01249
4.01210 23.43551 4.01210
4.01173 23.52656 4.01173
4.01137 23.61757 4.01137
4.01102 23.70855 4.01102
4.01068 23.79950 4.01068
4.01034 23.89042 4.01034
4.01002 23.98131 4.01002
4.00971 24.07217 4.00971
4.00941 24.16300 4.00941
4.00912 24.25381 4.00912
4.00884 24.34459 4.00883
4.00856 24.43535 4.00856
4.00830 24.52608 4.00829
4.00804 24.61679 4.00804
4.00779 24.70748 4.00779
4.00754 24.79815 4.00754
4.00731 24.88879 4.00731
4.00708 24.97941 4.00708
4.00686 25.07002 4.00686
4.00665 25.16061 4.00665
4.00644 25.25117 4.00644
4.00624 25.34172 4.00624
4.00604 25.43226 4.00604
4.00585 25.52277 4.00585
4.00567 25.61327 4.00567
4.00549 25.70376 4.00549
4.00532 25.79423 4.00532
4.00515 25.88468 4.00515

Angle 0.443304 5.374965

4.00000 7.03348 4.00000
4.00000 7.03348 4.00000
4.00000 7.03348 4.00000
4.00000 7.03349 4.00000
4.00000 7.03349 4.00000
4.00000 7.03348 4.00000
4.00000 7.03348 4.00000
4.00000 7.03348 4.00000
4.00000 7.03348 4.00000
4.00000 7.03348 4.00000
4.00000 7.03348 4.00000
4.00000 7.03349 4.00000
4.00000 7.03348 4.00000
4.00000 7.03348 4.00000
4.00000 7.03348 4.00000
4.00000 7.03348 4.00000
4.00000 7.03348 4.00000
4.00000 7.03348 4.00000
4.00000 7.03349 4.00000
4.00000 7.03349 4.00000
4.00000 7.03348 4.00000
4.00000 7.03348 4.00000
4.00000 7.03348 4.00000
4.00000 7.03348 4.00000
4.00000 7.03348 4.00000
4.00000 7.03348 4.00000
4.00000 7.03347 4.00000
4.00000 7.03348 4.00000
4.00000 7.03348 4.00000
4.00000 7.03348 4.00000
4.00000 7.03348 4.00000
4.00000 7.03348 4.00000
4.00000 7.03348 4.00000
4.00000 7.03348 4.00000
4.00000 7.03348 4.00000
4.00000 7.03348 4.00000
4.00000 7.03348 4.00000
4.00000 7.03348 4.00000
4.00000 7.03348 4.00000
4.00000 7.03348 4.00000
4.00000 7.03348 4.00000
4.00000 7.03348 4.00000
4.00000 7.03348 4.00000
4.00000 7.03348 4.00000
4.00000 7.03348 4.00000
4.00000 7.03348 4.00000
4.00000 7.03348 4.00000
4.00000 7.03348 4.00000
4.00000 7.03348 4.00000
4.00000 7.03348 4.00000
4.00000 7.03349 4.00000
4.00000 7.03348 4.00000
4.00000 7.03348 4.00000
4.00000 7.03348 4.00000
4.00000 7.03348 4.00000
4.00000 7.03348 4.00000
4.00000 7.03348 4.00000
4.00000 7.03348 4.00000
4.00000 7.03348 4.00000
4.00000 7.03348 4.00000
4.00000 7.03348 4.00000
4.00000 7.03348 4.00000
4.00000 7.03348 4.00000
4.00000 7.03348 4.00000
4.00000 7.03349 4.00000
4.00000 7.03349 4.00000
4.00000 7.03348 4.00000
4.00000 7.03349 4.00000
4.00000 7.03348 4.00000
4.00000 7.03348 4.00000
4.00000 7.03348 4.00000
4.00000 7.03348 4.00000
4.00000 7.03348 4.00000
4.00000 7.03348 4.00000
4.00000 7.03348 4.00000
4.00000 7.03348 4.00000
4.00000 7.03348 4.00000
4.00000 7.03348 4.00000
4.00000 7.03348 4.00000
4.00000 7.03348 4.00000
4.00000 7.03346 4.00000
4.00000 7.03348 4.00000
4.00000 7.03347 4.00000
4.00000 7.03348 4.00000
4.00000 7.03348 4.00000
4.00000 7.03346 4.00000
4.00000 7.03348 4.00000
4.00000 7.03348 4.00000
4.00000 7.03348 4.00000
4.00000 7.03348 4.00000
4.00000 7.03350 4.00000
4.00000 7.03349 4.00000
4.00183 7.06946 4.00183
4.00413 7.11554 4.00414
4.00641 7.16212 4.00641
4.00867 7.20916 4.00867
4.01091 7.25666 4.01091
4.01313 7.30461 4.01313
4.01534 7.35298 4.01534
4.01754 7.40176 4.01754
4.01973 7.45094 4.01973
4.02192 7.50050 4.02192
4.02411 7.55044 4.02411
4.02630 7.60072 4.02631
4.02850 7.65134 4.02850
4.03071 7.70228 4.03071
4.03294 7.75352 4.03294
4.03518 7.80505 4.03518
4.03745 7.85684 4.03745
4.03974 7.90887 4.03974
4.04207 7.96112 4.04207
4.04444 8.01357 4.04444
4.04686 8.06619 4.04686
4.04933 8.11896 4.04933
4.05187 8.17184 4.05187
4.05448 8.22480 4.05448
4.05717 8.27781 4.05717
4.05996 8.33082 4.05996
4.06286 8.38379 4.06286
4.06588 8.43666 4.06588
4.06905 8.48938 4.06905
4.07238 8.54188 4.07238
4.07590 8.59409 4.07589
4.07963 8.64591 4.07963
4.08360 8.69728 4.08360
4.08778 8.74834 4.08777
4.09215 8.79907 4.09215
4.09672 8.84948 4.09672
4.10151 8.89954 4.10151
4.10650 8.94926 4.10650
4.11171 8.99863 4.11171
4.11713 9.04766 4.11713
4.12276 9.09638 4.12276
4.12859 9.14479 4.12859
4.13462 9.19294 4.13461
4.14082 9.24088 4.14082
4.14718 9.28866 4.14718
4.15367 9.33636 4.15367
4.16027 9.38408 4.16027
4.16693 9.43193 4.16693
4.17360 9.48006 4.17360
4.18023 9.52863 4.18023
4.18674 9.57786 4.18674
4.19304 9.62799 4.19304
4.19902 9.67932 4.19902
4.20457 9.73219 4.20457
4.20952 9.78704 4.20952
4.21370 9.84433 4.21370
4.21692 9.90462 4.21692
4.21895 9.96850 4.21895
4.21960 10.03654 4.21960
4.21876 10.10898 4.21876
4.21727 10.18352 4.21727
4.21536 10.25941 4.21536
4.21306 10.33666 4.21306
4.21034 10.41529 4.21034
4.20718 10.49538 4.20718
4.20354 10.57706 4.20354
4.19937 10.66048 4.19937
4.19458 10.74589 4.19458
4.18908 10.83364 4.18908
4.18268 10.92423 4.18268
4.17516 11.01842 4.17516
4.16611 11.11743 4.16611
4.15484 11.22341 4.15484
4.13994 11.34090 4.13994
4.11732 11.48286 4.11732
4.00000 13.19120 4.00000
4.00000 13.19120 4.00000
4.00000 13.19120 4.00000
4.00000 13.19120 4.00000
4.00000 13.19120 4.00000
4.00000 13.19120 4.00000
4.00000 13.19120 4.00000
4.00000 13.19120 4.00000
4.00000 13.19120 4.00000
4.00000 13.19120 4.00000
4.00000 13.19120 4.00000
4.00000 13.19120 4.00000
4.00000 13.19120 4.00000
4.00000 13.19120 4.00000
4.00000 13.19120 4.00000
4.00000 13.19120 4.00000
4.00000 13.19120 4.00000
4.00123 13.19494 4.00122
4.01239 13.23236 4.01239
4.02266 13.27330 4.02266
4.03192 13.31803 4.03192
4.04006 13.36684 4.04006
4.04696 13.42002 4.04696
4.05251 13.47785 4.05251
4.05662 13.54061 4.05662
4.05920 13.60853 4.05920
4.06112 13.67870 4.06112
4.06299 13.74915 4.06299
4.06482 13.81987 4.06482
4.06661 13.89084 4.06661
4.06836 13.96204 4.06836
4.07008 14.03347 4.07008
4.07177 14.10511 4.07177
4.07344 14.17696 4.07344
4.07508 14.24899 4.07508
4.07670 14.32121 4.07670
4.07829 14.39361 4.07829
4.07987 14.46618 4.07987
4.08143 14.53892 4.08143
4.08297 14.61181 4.08297
4.08450 14.68486 4.08450
4.08602 14.75806 4.08602
4.08752 14.83140 4.08752
4.08901 14.90489 4.08901
4.09049 14.97851 4.09048
4.09195 15.05227 4.09195
4.09337 15.12627 4.09337
4.09459 15.20100 4.09459
4.09560 15.27650 4.09560
4.09641 15.35274 4.09641
4.09702 15.42967 4.09702
4.09745 15.50726 4.09745
4.09770 15.58550 4.09770
4.09780 15.66433 4.09780
4.09773 15.74374 4.09773
4.09753 15.82368 4.09753
4.09719 15.90414 4.09719
4.09672 15.98507 4.09672
4.09614 16.06645 4.09614
4.09545 16.14826 4.09545
4.09466 16.23046 4.09466
4.09378 16.31303 4.09378
4.09282 16.39595 4.09282
4.09178 16.47918 4.09178
4.09068 16.56271 4.09068
4.08951 16.64651 4.08951
4.08829 16.73056 4.08829
4.08702 16.81485 4.08702
4.08571 16.89935 4.08571
4.08436 16.98405 4.08436
4.08298 17.06893 4.08298
4.08158 17.15396 4.08158
4.08015 17.23915 4.08015
4.07871 17.32447 4.07871
4.07725 17.40990 4.07725
4.07578 17.49545 4.07578
4.07430 17.58109 4.07430
4.07282 17.66682 4.07282
4.07134 17.75262 4.07134
4.06987 17.83849 4.06987
4.06839 17.92442 4.06839
4.06693 18.01039 4.06693
4.06547 18.09641 4.06547
4.06402 18.18246 4.06402
4.06259 18.26854 4.06259
4.06117 18.35465 4.06117
4.05976 18.44078 4.05976
4.05837 18.52691 4.05837
4.05700 18.61306 4.05700
4.05565 18.69922 4.05565
4.05431 18.78537 4.05431
4.05300 18.87152 4.05300
4.05171 18.95767 4.05171
4.05044 19.04382 4.05043
4.04918 19.12996 4.04918
4.04796 19.21608 4.04796
4.04675 19.30219 4.04675
4.04556 19.38829 4.04557
4.04440 19.47438 4.04440
4.04326 19.56044 4.04326
4.04215 19.64649 4.04215
4.04106 19.73252 4.04106
4.03998 19.81854 4.03998
4.03894 19.90453 4.03894
4.03791 19.99051 4.03791
4.03691 20.07646 4.03691
4.03593 20.16240 4.03593
4.03497 20.24832 4.03497
4.03403 20.33422 4.03403
4.03312 20.42009 4.03312
4.03222 20.50595 4.03222
4.03135 20.59179 4.03135
4.03050 20.67762 4.03050
4.02966 20.76342 4.02966
4.02885 20.84920 4.02885
4.02806 20.93497 4.02806
4.02729 21.02073 4.02729
4.02653 21.10646 4.02653
4.02580 21.19218 4.02580
4.02508 21.27789 4.02508
4.02438 21.36358 4.02438
4.02370 21.44926 4.02370
4.02304 21.53493 4.02304
4.02240 21.62058 4.02239
4.02177 21.70622 4.02176
4.02115 21.79185 4.02115
4.02056 21.87748 4.02056
4.01998 21.96309 4.01998
4.01941 22.04869 4.01941
4.01886 22.13429 4.01886
4.01832 22.21987 4.01832
4.01780 22.30545 4.01780
4.01729 22.39103 4.01729
4.01680 22.47660 4.01680
4.01632 22.56217 4.01632
4.01585 22.64774 4.01585
4.01540 22.73329 4.01539
4.01495 22.81885 4.01495
4.01452 22.90440 4.01452
4.01411 22.98996 4.01410
4.01370 23.07550 4.01370
4.01330 23.16106 4.01330
4.01292 23.24662 4.01292
4.01254 23.33217 4.01254
4.01218 23.41772 4.01218
4.01182 23.50329 4.01182
4.01148 23.58885 4.01148
4.01115 23.67441 4.01115
4.01082 23.75998 4.01082
4.01051 23.84556 4.01051
4.01020 23.93114 4.01020
4.00990 24.01672 4.00990
4.00961 24.10231 4.00961
4.00933 24.18790 4.00933
4.00906 24.27351 4.00906
4.00879 24.35912 4.00879
4.00853 24.44474 4.00853
4.00828 24.53036 4.00828
4.00804 24.61599 4.00804
4.00780 24.70164 4.00780
4.00757 24.78730 4.00757
4.00735 24.87295 4.00735
4.00713 24.95862 4.00713
4.00692 25.04431 4.00692
4.00672 25.13000 4.00672
4.00652 25.21570 4.00652
4.00633 25.30142 4.00633
4.00614 25.38714 4.00614
4.00596 25.47288 4.00596
4.00578 25.55863 4.00578
4.00561 25.64439 4.00561
4.00544 25.73016 4.00544
4.00528 25.81596 4.00528
4.00512 25.90175 4.00513
4.00497 25.98757 4.00497
4.00482 26.07339 4.00482
4.00468 26.15923 4.00468
4.00454 26.24509 4.00454
4.00440 26.33095 4.00440
4.00427 26.41684 4.00427
4.00414 26.50273 4.00414
4.00402 26.58865 4.00402
4.00390 26.67456 4.00391
4.00378 26.76050 4.00378
4.00367 26.84647 4.00367
4.00356 26.93243 4.00356
4.00346 27.01841 4.00345
4.00335 27.10441 4.00335
4.00325 27.19043 4.00325
4.00315 27.27646 4.00315
4.00306 27.36251 4.00306
4.00297 27.44857 4.00297
4.00288 27.53465 4.00288
4.00279 27.62074 4.00279
4.00271 27.70685 4.00271
4.00263 27.79298 4.00263
4.00255 27.87911 4.00255
4.00247 27.96527 4.00247
4.00240 28.05145 4.00240
4.00232 28.13763 4.00233
4.00225 28.22384 4.00225
4.00219 28.31007 4.00219
4.00212 28.39630 4.00212
4.00206 28.48255 4.00206
4.00199 28.56883 4.00199
4.00193 28.65512 4.00193
4.00188 28.74141 4.00188
4.00182 28.82774 4.00182
4.00176 28.91407 4.00176
4.00171 29.00042 4.00171
4.00166 29.08679 4.00166
4.00161 29.17318 4.00161
4.00156 29.25958 4.00156
4.00151 29.34600 4.00151
4.00147 29.43243 4.00147
4.00142 29.51888 4.00143
4.00138 29.60535 4.00138
4.00134 29.69183 4.00134
4.00130 29.77833 4.00130
4.00126 29.86485 4.00126
4.00122 29.95137 4.00122
4.00118 30.03793 4.00118
4.00115 30.12449 4.00115
4.00111 30.21107 4.00111
4.00108 30.29767 4.00108
4.00105 30.38428 4.00105
4.00101 30.47091 4.00101
4.00098 30.55756 4.00098
4.00095 30.64422 4.00095
4.00092 30.73090 4.00092
4.00090 30.81759 4.00090
4.00088 30.90429 4.00087
4.00084 30.99102 4.00084

Angle 0.209103 4.909124

4.00000 7.03349 4.00000
4.00000 7.03348 4.00000
4.00000 7.03348 4.00000
4.00000 7.03348 4.00000
4.00000 7.03348 4.00000
4.00000 7.03348 4.00000
4.00000 7.03348 4.00000
4.00000 7.03348 4.00000
4.00000 7.03349 4.00000
4.00000 7.03349 4.00000
4.00000 7.03349 4.00000
4.00000 7.03349 4.00000
4.00000 7.03348 4.00000
4.00000 7.03348 4.00000
4.00000 7.03348 4.00000
4.00000 7.03348 4.00000
4.00000 7.03348 4.00000
4.00000 7.03348 4.00000
4.00000 7.03347 4.00000
4.00000 7.03349 4.00000
4.00000 7.03349 4.00000
4.00000 7.03349 4.00000
4.00000 7.03349 4.00000
4.00000 7.03349 4.00000
4.00000 7.03349 4.00000
4.00000 7.03348 4.00000
4.00000 7.03348 4.00000
4.00000 7.03348 4.00000
4.00000 7.03348 4.00000
4.00000 7.03348 4.00000
4.00000 7.03348 4.00000
4.00000 7.03348 4.00000
4.00000 7.03347 4.00000
4.00000 7.03348 4.00000
4.00000 7.03348 4.00000
4.00000 7.03348 4.00000
4.00000 7.03348 4.00000
4.00000 7.03348 4.00000
4.00000 7.03348 4.00000
4.00000 7.03348 4.00000
4.00000 7.03348 4.00000
4.00000 7.03348 4.00000
4.00000 7.03348 4.00000
4.00000 7.03347 4.00000
4.00000 7.03348 4.00000
4.00000 7.03347 4.00000
4.00000 7.03348 4.00000
4.00003 7.03412 4.00003
4.00164 7.06559 4.00164
4.00325 7.09775 4.00325
4.00487 7.13042 4.00487
4.00648 7.16358 4.00648
4.00810 7.19724 4.00810
4.00972 7.23138 4.00972
4.01134 7.26601 4.01134
4.01297 7.30111 4.01297
4.01460 7.33667 4.01460
4.01623 7.37270 4.01623
4.01787 7.40919 4.01787
4.01952 7.44611 4.01952
4.02117 7.48348 4.02117
4.02284 7.52128 4.02284
4.02451 7.55951 4.02451
4.02619 7.59814 4.02619
4.02789 7.63719 4.02789
4.02960 7.67663 4.02960
4.03133 7.71645 4.03133
4.03307 7.75666 4.03307
4.03484 7.79722 4.03484
4.03663 7.83815 4.03663
4.03844 7.87941 4.03844
4.04028 7.92100 4.04028
4.04215 7.96291 4.04215
4.04406 8.00512 4.04406
4.04600 8.04762 4.04600
4.04799 8.09038 4.04799
4.05002 8.13339 4.05002
4.05210 8.17663 4.05211
4.05424 8.22009 4.05424
4.05645 8.26373 4.05645
4.05872 8.30753 4.05872
4.06108 8.35147 4.06108
4.06352 8.39550 4.06352
4.06605 8.43961 4.06605
4.06870 8.48374 4.06870
4.07147 8.52786 4.07147
4.07437 8.57191 4.07437
4.07743 8.61584 4.07743
4.08067 8.65959 4.08067
4.08407 8.70316 4.08407
4.08763 8.74662 4.08763
4.09135 8.78997 4.09135
4.09522 8.83318 4.09522
4.09925 8.87626 4.09925
4.10345 8.91918 4.10345
4.10782 8.96195 4.10782
4.11236 9.00457 4.11236
4.11706 9.04703 4.11706
4.12193 9.08934 4.12193
4.12697 9.13152 4.12697
4.13217 9.17358 4.13217
4.13752 9.21555 4.13752
4.14300 9.25746 4.14300
4.14862 9.29935 4.14862
4.15435 9.34128 4.15435
4.16016 9.38331 4.16016
4.16603 9.42552 4.16603
4.17193 9.46800 4.17194
4.17782 9.51088 4.17782
4.18365 9.55428 4.18365
4.18936 9.59837 4.18936
4.19488 9.64334 4.19488
4.20014 9.68942 4.20014
4.20502 9.73686 4.20502
4.20944 9.78599 4.20943
4.21324 9.83714 4.21324
4.21629 9.89073 4.21629
4.21843 9.94719 4.21843
4.21950 10.00694 4.21950
4.21937 10.07039 4.21937
4.21825 10.13690 4.21825
4.21677 10.20467 4.21677
4.21497 10.27364 4.21497
4.21283 10.34380 4.21283
4.21034 10.41521 4.21034
4.20749 10.48791 4.20749
4.20424 10.56200 4.20424
4.20056 10.63759 4.20056
4.19638 10.71488 4.19638
4.19164 10.79408 4.19164
4.18622 10.87553 4.18621
4.17996 10.95971 4.17996
4.17264 11.04733 4.17264
4.16391 11.13951 4.16391
4.15312 11.23822 4.15312
4.13901 11.34748 4.13901
4.11815 11.47826 4.11815
4.00000 13.19120 4.00000
4.00000 13.19120 4.00000
4.00000 13.19120 4.00000
4.00000 13.19120 4.00000
4.00000 13.19120 4.00000
4.00000 13.19120 4.00000
4.00000 13.19120 4.00000
4.00000 13.19120 4.00000
4.00000 13.19120 4.00000
4.00000 13.19120 4.00000
4.00000 13.19120 4.00000
4.00000 13.19120 4.00000
4.00000 13.19120 4.00000
4.00000 13.19120 4.00000
4.00000 13.19120 4.00000
4.00000 13.19120 4.00000
4.00000 13.19120 4.00000
4.00000 13.19120 4.00000
4.00000 13.19120 4.00000
4.00747 13.21509 4.00746
4.01751 13.25182 4.01751
4.02672 13.29178 4.02672
4.03500 13.33521 4.03500
4.04227 13.38236 4.04227
4.04842 13.43347 4.04842
4.05337 13.48879 4.05336
4.05702 13.54854 4.05702
4.05932 13.61288 4.05932
4.06113 13.67897 4.06113
4.06289 13.74537 4.06289
4.06462 13.81204 4.06462
4.06631 13.87897 4.06631
4.06797 13.94616 4.06797
4.06961 14.01359 4.06960
4.07121 14.08125 4.07121
4.07280 14.14913 4.07280
4.07436 14.21723 4.07436
4.07590 14.28553 4.07590
4.07742 14.35404 4.07742
4.07893 14.42274 4.07893
4.08042 14.49162 4.08042
4.08189 14.56069 4.08189
4.08335 14.62994 4.08335
4.08480 14.69936 4.08480
4.08624 14.76895 4.08624
4.08767 14.83871 4.08767
4.08908 14.90862 4.08908
4.09049 14.97870 4.09049
4.09189 15.04893 4.09189
4.09325 15.11939 4.09325
4.09444 15.19053 4.09444
4.09543 15.26241 4.09543
4.09624 15.33499 4.09624
4.09687 15.40824 4.09687
4.09733 15.48214 4.09733
4.09763 15.55667 4.09763
4.09778 15.63178 4.09778
4.09778 15.70746 4.09778
4.09765 15.78368 4.09765
4.09739 15.86041 4.09739
4.09701 15.93762 4.09701
4.09652 16.01529 4.09652
4.09592 16.09340 4.09592
4.09523 16.17191 4.09523
4.09445 16.25081 4.09445
4.09359 16.33008 4.09359
4.09265 16.40968 4.09265
4.09165 16.48960 4.09165
4.09058 16.56982 4.09058
4.08945 16.65033 4.08946
4.08828 16.73109 4.08828
4.08706 16.81210 4.08706
4.08581 16.89333 4.08581
4.08451 16.97477 4.08451
4.08319 17.05640 4.08319
4.08184 17.13821 4.08184
4.08047 17.22019 4.08047
4.07908 17.30233 4.07908
4.07768 17.38460 4.07768
4.07627 17.46700 4.07627
4.07485 17.54952 4.07485
4.07342 17.63215 4.07342
4.07199 17.71488 4.07199
4.07057 17.79769 4.07057
4.06914 17.88059 4.06914
4.06772 17.96356 4.06772
4.06631 18.04660 4.06631
4.06491 18.12970 4.06491
4.06351 18.21286 4.06351
4.06213 18.29606 4.06213
4.06076 18.37930 4.06076
4.05941 18.46259 4.05941
4.05807 18.54591 4.05807
4.05675 18.62925 4.05675
4.05544 18.71263 4.05544
4.05415 18.79603 4.05415
4.05288 18.87944 4.05288
4.05163 18.96288 4.05163
4.05040 19.04633 4.05040
4.04919 19.12979 4.04919
4.04799 19.21326 4.04800
4.04682 19.29674 4.04682
4.04567 19.38023 4.04567
4.04455 19.46372 4.04455
4.04344 19.54722 4.04344
4.04235 19.63072 4.04235
4.04129 19.71422 4.04129
4.04024 19.79773 4.04024
4.03922 19.88123 4.03922
4.03822 19.96474 4.03822
4.03723 20.04824 4.03723
4.03627 20.13175 4.03627
4.03533 20.21526 4.03533
4.03442 20.29876 4.03441
4.03352 20.38226 4.03352
4.03264 20.46576 4.03264
4.03178 20.54926 4.03178
4.03094 20.63276 4.03094
4.03012 20.71626 4.03012
4.02932 20.79976 4.02932
4.02853 20.88326 4.02854
4.02777 20.96676 4.02777
4.02703 21.05026 4.02703
4.02630 21.13375 4.02630
4.02559 21.21725 4.02559
4.02489 21.30076 4.02489
4.02422 21.38426 4.02422
4.02356 21.46777 4.02356
4.02292 21.55128 4.02292
4.02229 21.63479 4.02229
4.02168 21.71831 4.02168
4.02108 21.80183 4.02108
4.02050 21.88536 4.02050
4.01994 21.96890 4.01994
4.01938 22.05243 4.01939
4.01885 22.13598 4.01885
4.01833 22.21952 4.01832
4.01782 22.30308 4.01782
4.01732 22.38665 4.01732
4.01684 22.47022 4.01684
4.01637 22.55381 4.01636
4.01591 22.63740 4.01591
4.01546 22.72100 4.01546
4.01503 22.80461 4.01503
4.01461 22.88824 4.01460
4.01419 22.97188 4.01419
4.01379 23.05552 4.01379
4.01340 23.13919 4.01340
4.01302 23.22286 4.01302
4.01265 23.30654 4.01266
4.01229 23.39025 4.01229
4.01194 23.47396 4.01194
4.01161 23.55769 4.01160
4.01127 23.64143 4.01127
4.01095 23.72519 4.01095
4.01064 23.80896 4.01064
4.01034 23.89275 4.01034
4.01004 23.97655 4.01004
4.00975 24.06037 4.00975
4.00947 24.14421 4.00947
4.00920 24.22807 4.00920
4.00894 24.31194 4.00894
4.00868 24.39583 4.00868
4.00843 24.47975 4.00843
4.00819 24.56367 4.00819
4.00795 24.64762 4.00795
4.00772 24.73159 4.00772
4.00750 24.81557 4.00750
4.00728 24.89957 4.00728
4.00707 24.98360 4.00707
4.00686 25.06765 4.00686
4.00667 25.15171 4.00667
4.00647 25.23579 4.00647
4.00628 25.31989 4.00628
4.00610 25.40402 4.00610
4.00592 25.48816 4.00592
4.00575 25.57233 4.00575
4.00558 25.65652 4.00558
4.00542 25.74074 4.00542
4.00526 25.82497 4.00526
4.00511 25.90922 4.00511
4.00496 25.99349 4.00496
4.00481 26.07779 4.00482
4.00467 26.16211 4.00468
4.00454 26.24645 4.00454
4.00440 26.33081 4.00440
4.00427 26.41519 4.00428
4.00415 26.49960 4.00415
4.00403 26.58403 4.00403
4.00391 26.66849 4.00391
4.00379 26.75296 4.00380
4.00368 26.83746 4.00368
4.00357 26.92199 4.00358
4.00347 27.00653 4.00347
4.00336 27.09110 4.00337
4.00327 27.17568 4.00327
4.00317 27.26030 4.00317
4.00308 27.34494 4.00308
4.00299 27.42959 4.00299
4.00290 27.51428 4.00290
4.00281 27.59899 4.00281
4.00273 27.68370 4.00273
4.00265 27.76846 4.00265
4.00257 27.85322 4.00257
4.00250 27.93802 4.00250
4.00242 28.02285 4.00242
4.00235 28.10768 4.00235
4.00228 28.19254 4.00228
4.00221 28.27744 4.00221
4.00215 28.36235 4.00215
4.00208 28.44729 4.00208
4.00202 28.53225 4.00202
4.00196 28.61723 4.00196
4.00190 28.70223 4.00190
4.00185 28.78726 4.00185
4.00179 28.87230 4.00179
4.00174 28.95738 4.00174
4.00169 29.04247 4.00169
4.00164 29.12759 4.00164
4.00159 29.21273 4.00159
4.00154 29.29789 4.00154
4.00149 29.38307 4.00149
4.00145 29.46828 4.00145
4.00141 29.55351 4.00141
4.00136 29.63876 4.00136
4.00132 29.72403 4.00132
4.00128 29.80933 4.00128
4.00124 29.89465 4.00125
4.00121 29.97999 4.00121
4.00117 30.06535 4.00117
4.00114 30.15073 4.00114
4.00110 30.23614 4.00110
4.00107 30.32156 4.00107
4.00104 30.40701 4.00104
4.00101 30.49248 4.00101
4.00098 30.57798 4.00098
4.00095 30.66349 4.00095
4.00092 30.74902 4.00092
4.00089 30.83458 4.00089
4.00086 30.92016 4.00086
4.00084 31.00576 4.00084
4.00081 31.09138 4.00082
4.00079 31.17702 4.00079
4.00076 31.26268 4.00077
4.00074 31.34836 4.00074
4.00072 31.43407 4.00072
4.00070 31.51979 4.00070
4.00068 31.60553 4.00068
4.00066 31.69130 4.00066
4.00063 31.77708 4.00064
4.00062 31.86289 4.00062
4.00060 31.94871 4.00060
4.00058 32.03456 4.00058
4.00056 32.12042 4.00056
4.00055 32.20631 4.00055
4.00053 32.29222 4.00053
4.00051 32.37815 4.00052
4.00050 32.46409 4.00050
4.00048 32.55005 4.00048
4.00047 32.63604 4.00047
4.00045 32.72204 4.00046
4.00044 32.80805 4.00044
4.00043 32.89410 4.00043

Angle 0.014916 2.545148

4.00000 7.03348 4.00000
4.00000 7.03348 4.00000
4.00000 7.03348 4.00000
4.00000 7.03348 4.00000
4.00000 7.03348 4.00000
4.00000 7.03348 4.00000
4.00000 7.03348 4.00000
4.00000 7.03348 4.00000
4.00000 7.03348 4.00000
4.00000 7.03348 4.00000
4.00000 7.03348 4.00000
4.00000 7.03348 4.00000
4.00000 7.03348 4.00000
4.00000 7.03348 4.00000
4.00000 7.03348 4.00000
4.00000 7.03348 4.00000
4.00000 7.03348 4.00000
4.00000 7.03348 4.00000
4.00000 7.03348 4.00000
4.00000 7.03348 4.00000
4.00000 7.03348 4.00000
4.00000 7.03348 4.00000
4.00000 7.03348 4.00000
4.00000 7.03348 4.00000
4.00000 7.03348 4.00000
4.00000 7.03348 4.00000
4.00000 7.03348 4.00000
4.00000 7.03348 4.00000
4.00000 7.03348 4.00000
4.00000 7.03348 4.00000
4.00000 7.03348 4.00000
4.00000 7.03348 4.00000
4.00000 7.03348 4.00000
4.00000 7.03348 4.00000
4.00000 7.03348 4.00000
4.00000 7.03348 4.00000
4.00000 7.03348 4.00000
4.00000 7.03348 4.00000
4.00000 7.03348 4.00000
4.00000 7.03348 4.00000
4.00000 7.03348 4.00000
4.00000 7.03348 4.00000
4.00000 7.03348 4.00000
4.00000 7.03348 4.00000
4.00000 7.03348 4.00000
4.00000 7.03348 4.00000
4.00000 7.03348 4.00000
4.00000 7.03348 4.00000
4.00000 7.03348 4.00000
4.00000 7.03348 4.00000
4.00000 7.03348 4.00000
4.00000 7.03348 4.00000
4.00000 7.03348 4.00000
4.00000 7.03348 4.00000
4.00000 7.03348 4.00000
4.00000 7.03348 4.00000
4.00000 7.03348 4.00000
4.00000 7.03348 4.00000
4.00000 7.03348 4.00000
4.00000 7.03348 4.00000
4.00000 7.03348 4.00000
4.00000 7.03348 4.00000
4.00000 7.03348 4.00000
4.00000 7.03348 4.00000
4.00000 7.03348 4.00000
4.00000 7.03348 4.00000
4.00000 7.03348 4.00000
4.00000 7.03348 4.00000
4.00000 7.03348 4.00000
4.00000 7.03348 4.00000
4.00000 7.03348 4.00000
4.00000 7.03348 4.00000
4.00000 7.03348 4.00000
4.00000 7.03348 4.00000
4.00000 7.03348 4.00000
4.00000 7.03348 4.00000
4.00000 7.03348 4.00000
4.00000 7.03348 4.00000
4.00000 7.03348 4.00000
4.00000 7.03348 4.00000
4.00000 7.03348 4.00000
4.00000 7.03348 4.00000
4.00000 7.03348 4.00000
4.00000 7.03348 4.00000
4.00000 7.03348 4.00000
4.00000 7.03348 4.00000
4.00000 7.03348 4.00000
4.00000 7.03348 4.00000
4.00000 7.03348 4.00000
4.00000 7.03348 4.00000
4.00000 7.03348 4.00000
4.00000 7.03348 4.00000
4.00000 7.03348 4.00000
4.00000 7.03348 4.00000
4.00000 7.03348 4.00000
4.00000 7.03348 4.00000
4.00000 7.03348 4.00000
4.00000 7.03348 4.00000
4.00000 7.03348 4.00000
4.00000 7.03348 4.00000
4.00000 7.03348 4.00000
4.00000 7.03348 4.00000
4.00000 7.03348 4.00000
4.00000 7.03348 4.00000
4.00000 7.03348 4.00000
4.00000 7.03348 4.00000
4.00000 7.03348 4.00000
4.00000 7.03348 4.00000
4.00000 7.03348 4.00000
4.00000 7.03348 4.00000
4.00000 7.03348 4.00000
4.00000 7.03348 4.00000
4.00000 7.03348 4.00000
4.00000 7.03349 4.00000
4.00000 7.03348 4.00000
4.00000 7.03348 4.00000
4.00000 7.03348 4.00000
4.00000 7.03348 4.00000
4.00000 7.03348 4.00000
4.00000 7.03348 4.00000
4.00000 7.03348 4.00000
4.00000 7.03348 4.00000
4.00000 7.03348 4.00000
4.00000 7.03348 4.00000
4.00000 7.03348 4.00000
4.00000 7.03348 4.00000
4.00000 7.03348 4.00000
4.00000 7.03348 4.00000
4.00000 7.03348 4.00000
4.00000 7.03348 4.00000
4.00000 7.03348 4.00000
4.00000 7.03348 4.00000
4.00000 7.03347 4.00000
4.00000 7.03348 4.00000
4.00000 7.03348 4.00000
4.00000 7.03348 4.00000
4.00000 7.03348 4.00000
4.00000 7.03348 4.00000
4.00000 7.03348 4.00000
4.00000 7.03348 4.00000
4.00000 7.03351 4.00000
4.00000 7.03348 4.00000
4.00256 7.08384 4.00256
4.00525 7.13828 4.00525
4.00791 7.19318 4.00791
4.01053 7.24852 4.01052
4.01311 7.30429 4.01311
4.01568 7.36044 4.01568
4.01822 7.41698 4.01822
4.02075 7.47387 4.02075
4.02327 7.53109 4.02327
4.02578 7.58862 4.02578
4.02829 7.64645 4.02829
4.03081 7.70453 4.03081
4.03334 7.76286 4.03334
4.03589 7.82140 4.03589
4.03847 7.88013 4.03847
4.04108 7.93903 4.04108
4.04374 7.99805 4.04374
4.04644 8.05717 4.04644
4.04921 8.11635 4.04921
4.05205 8.17556 4.05205
4.05498 8.23474 4.05498
4.05800 8.29386 4.05801
4.06115 8.35284 4.06115
4.06443 8.41164 4.06443
4.06787 8.47018 4.06787
4.07150 8.52839 4.07150
4.07535 8.58615 4.07535
4.07944 8.64336 4.07944
4.08382 8.69994 4.08382
4.08843 8.75605 4.08843
4.09327 8.81168 4.09327
4.09835 8.86683 4.09835
4.10368 8.92148 4.10368
4.10926 8.97565 4.10926
4.11508 9.02932 4.11508
4.12114 9.08254 4.12114
4.12743 9.13532 4.12743
4.13395 9.18771 4.13395
4.14067 9.23978 4.14067
4.14757 9.29159 4.14757
4.15462 9.34326 4.15462
4.16177 9.39490 4.16177
4.16898 9.44668 4.16898
4.17617 9.49877 4.17617
4.18327 9.55142 4.18327
4.19018 9.60489 4.19018
4.19678 9.65953 4.19678
4.20292 9.71574 4.20292
4.20843 9.77401 4.20843
4.21309 9.83491 4.21309
4.21667 9.89909 4.21667
4.21892 9.96725 4.21892
4.21959 10.04010 4.21959
4.21861 10.11779 4.21861
4.21694 10.19760 4.21694
4.21482 10.27887 4.21482
4.21224 10.36162 4.21223
4.20918 10.44589 4.20918
4.20561 10.53180 4.20561
4.20147 10.61950 4.20148
4.19670 10.70923 4.19670
4.19118 10.80135 4.19118
4.18473 10.89637 4.18473
4.17711 10.99506 4.17711
4.16792 11.09869 4.16792
4.15643 11.20952 4.15643
4.14114 11.33228 4.14114
4.11767 11.48092 4.11767
4.00000 13.19120 4.00000
4.00000 13.19120 4.00000
4.00000 13.19120 4.00000
4.00000 13.19120 4.00000
4.00000 13.19120 4.00000
4.00000 13.19120 4.00000
4.00000 13.19120 4.00000
4.00000 13.19120 4.00000
4.00000 13.19120 4.00000
4.00000 13.19120 4.00000
4.00000 13.19120 4.00000
4.00000 13.19120 4.00000
4.00000 13.19120 4.00000
4.00000 13.19120 4.00000
4.00000 13.19120 4.00000
4.00000 13.19120 4.00000
4.00000 13.19120 4.00000
4.01134 13.22857 4.01134
4.02215 13.27108 4.02216
4.03186 13.31770 4.03186
4.04034 13.36874 4.04034
4.04746 13.42454 4.04746
4.05311 13.48540 4.05311
4.05716 13.55163 4.05716
4.05960 13.62324 4.05960
4.06159 13.69643 4.06159
4.06353 13.76989 4.06353
4.06542 13.84360 4.06542
4.06727 13.91755 4.06727
4.06908 13.99171 4.06908
4.07086 14.06609 4.07086
4.07260 14.14065 4.07260
4.07432 14.21540 4.07432
4.07601 14.29033 4.07601
4.07767 14.36542 4.07767
4.07932 14.44067 4.07932
4.08094 14.51607 4.08094
4.08255 14.59162 4.08255
4.08414 14.66731 4.08414
4.08571 14.74314 4.08571
4.08727 14.81909 4.08727
4.08881 14.89518 4.08881
4.09034 14.97138 4.09034
4.09186 15.04770 4.09186
4.09334 15.12424 4.09334
4.09460 15.20153 4.09460
4.09564 15.27961 4.09564
4.09646 15.35845 4.09646
4.09707 15.43800 4.09707
4.09749 15.51824 4.09749
4.09773 15.59913 4.09773
4.09780 15.68063 4.09780
4.09770 15.76271 4.09770
4.09745 15.84533 4.09745
4.09706 15.92846 4.09706
4.09654 16.01207 4.09654
4.09590 16.09612 4.09590
4.09515 16.18059 4.09515
4.09430 16.26544 4.09430
4.09335 16.35065 4.09335
4.09233 16.43619 4.09233
4.09122 16.52204 4.09122
4.09005 16.60816 4.09005
4.08882 16.69454 4.08882
4.08753 16.78116 4.08753
4.08620 16.86798 4.08620
4.08483 16.95500 4.08483
4.08342 17.04220 4.08342
4.08198 17.12954 4.08198
4.08052 17.21703 4.08052
4.07904 17.30465 4.07904
4.07755 17.39237 4.07755
4.07604 17.48019 4.07604
4.07453 17.56809 4.07453
4.07301 17.65607 4.07301
4.07149 17.74411 4.07149
4.06997 17.83220 4.06997
4.06846 17.92033 4.06846
4.06696 18.00850 4.06696
4.06547 18.09669 4.06546
4.06398 18.18490 4.06398
4.06251 18.27313 4.06251
4.06106 18.36136 4.06106
4.05962 18.44959 4.05962
4.05820 18.53783 4.05820
4.05680 18.62605 4.05679
4.05542 18.71426 4.05541
4.05405 18.80246 4.05405
4.05271 18.89064 4.05271
4.05139 18.97880 4.05139
4.05010 19.06693 4.05010
4.04882 19.15505 4.04882
4.04757 19.24313 4.04757
4.04635 19.33118 4.04635
4.04514 19.41921 4.04515
4.04397 19.50720 4.04397
4.04281 19.59516 4.04281
4.04168 19.68309 4.04168
4.04057 19.77099 4.04057
4.03949 19.85885 4.03949
4.03843 19.94668 4.03843
4.03739 20.03447 4.03739
4.03638 20.12223 4.03638
4.03539 20.20995 4.03539
4.03443 20.29765 4.03443
4.03348 20.38530 4.03348
4.03256 20.47293 4.03256
4.03166 20.56052 4.03166
4.03079 20.64808 4.03079
4.02993 20.73561 4.02993
4.02910 20.82311 4.02910
4.02828 20.91058 4.02828
4.02749 20.99801 4.02749
4.02672 21.08542 4.02672
4.02596 21.17280 4.02596
4.02523 21.26016 4.02523
4.02451 21.34748 4.02451
4.02382 21.43478 4.02382
4.02314 21.52206 4.02314
4.02248 21.60931 4.02248
4.02184 21.69654 4.02184
4.02121 21.78375 4.02121
4.02060 21.87093 4.02060
4.02001 21.95810 4.02001
4.01943 22.04524 4.01943
4.01887 22.13237 4.01887
4.01832 22.21948 4.01833
4.01779 22.30657 4.01780
4.01728 22.39364 4.01728
4.01678 22.48070 4.01678
4.01629 22.56775 4.01629
4.01581 22.65478 4.01581
4.01535 22.74180 4.01535
4.01490 22.82880 4.01490
4.01447 22.91580 4.01447
4.01404 23.00278 4.01404
4.01363 23.08975 4.01363
4.01323 23.17671 4.01323
4.01284 23.26367 4.01284
4.01246 23.35062 4.01246
4.01210 23.43756 4.01209
4.01174 23.52449 4.01174
4.01139 23.61142 4.01139
4.01105 23.69834 4.01105
4.01073 23.78526 4.01073
4.01041 23.87217 4.01041
4.01010 23.95908 4.01010
4.00980 24.04599 4.00980
4.00951 24.13290 4.00951
4.00923 24.21980 4.00923
4.00895 24.30670 4.00895
4.00869 24.39360 4.00869
4.00843 24.48051 4.00843
4.00817 24.56742 4.00817
4.00793 24.65431 4.00793
4.00770 24.74122 4.00770
4.00746 24.82812 4.00746
4.00724 24.91504 4.00724
4.00703 25.00195 4.00703
4.00681 25.08886 4.00681
4.00661 25.17578 4.00661
4.00641 25.26270 4.00641
4.00622 25.34963 4.00622
4.00603 25.43656 4.00603
4.00585 25.52349 4.00585
4.00568 25.61043 4.00567
4.00550 25.69738 4.00551
4.00534 25.78433 4.00534
4.00518 25.87129 4.00518
4.00502 25.95825 4.00502
4.00487 26.04523 4.00487
4.00472 26.13221 4.00472
4.00458 26.21919 4.00458
4.00444 26.30619 4.00444
4.00431 26.39319 4.00431
4.00418 26.48020 4.00418
4.00405 26.56721 4.00405
4.00393 26.65424 4.00393
4.00381 26.74127 4.00381
4.00369 26.82832 4.00370
4.00358 26.91537 4.00358
4.00347 27.00244 4.00347
4.00337 27.08951 4.00337
4.00327 27.17659 4.00327
4.00317 27.26368 4.00317
4.00307 27.35078 4.00307
4.00298 27.43789 4.00298
4.00289 27.52501 4.00289
4.00280 27.61214 4.00280
4.00272 27.69928 4.00272

Angle 0.674833 4.879278

4.00000 7.03348 4.00000
4.00000 7.03348 4.00000
4.00000 7.03348 4.00000
4.00000 7.03348 4.00000
4.00000 7.03348 4.00000
4.00000 7.03348 4.00000
4.00000 7.03348 4.00000
4.00000 7.03348 4.00000
4.00000 7.03348 4.00000
4.00000 7.03348 4.00000
4.00000 7.03349 4.00000
4.00000 7.03349 4.00000
4.00000 7.03349 4.00000
4.00000 7.03348 4.00000
4.00000 7.03348 4.00000
4.00000 7.03348 4.00000
4.00000 7.03348 4.00000
4.00000 7.03348 4.00000
4.00000 7.03348 4.00000
4.00000 7.03348 4.00000
4.00000 7.03348 4.00000
4.00000 7.03348 4.00000
4.00000 7.03348 4.00000
4.00000 7.03348 4.00000
4.00000 7.03348 4.00000
4.00000 7.03348 4.00000
4.00000 7.03348 4.00000
4.00000 7.03348 4.00000
4.00000 7.03348 4.00000
4.00000 7.03348 4.00000
4.00000 7.03348 4.00000
4.00000 7.03348 4.00000
4.00000 7.03348 4.00000
4.00000 7.03348 4.00000
4.00000 7.03348 4.00000
4.00000 7.03348 4.00000
4.00000 7.03348 4.00000
4.00000 7.03348 4.00000
4.00000 7.03348 4.00000
4.00000 7.03348 4.00000
4.00000 7.03348 4.00000
4.00000 7.03348 4.00000
4.00000 7.03348 4.00000
4.00000 7.03349 4.00000
4.00000 7.03348 4.00000
4.00000 7.03348 4.00000
4.00000 7.03348 4.00000
4.00000 7.03348 4.00000
4.00000 7.03348 4.00000
4.00000 7.03348 4.00000
4.00000 7.03348 4.00000
4.00000 7.03348 4.00000
4.00000 7.03348 4.00000
4.00000 7.03348 4.00000
4.00000 7.03348 4.00000
4.00000 7.03348 4.00000
4.00000 7.03348 4.00000
4.00000 7.03348 4.00000
4.00000 7.03348 4.00000
4.00000 7.03348 4.00000
4.00000 7.03348 4.00000
4.00000 7.03348 4.00000
4.00000 7.03348 4.00000
4.00000 7.03348 4.00000
4.00000 7.03348 4.00000
4.00000 7.03348 4.00000
4.00000 7.03348 4.00000
4.00000 7.03348 4.00000
4.00000 7.03348 4.00000
4.00000 7.03348 4.00000
4.00000 7.03348 4.00000
4.00000 7.03348 4.00000
4.00000 7.03348 4.00000
4.00000 7.03347 4.00000
4.00000 7.03348 4.00000
4.00000 7.03348 4.00000
4.00000 7.03348 4.00000
4.00000 7.03348 4.00000
4.00000 7.03348 4.00000
4.00117 7.05645 4.00117
4.00503 7.13383 4.00503
4.00878 7.21161 4.00878
4.01244 7.28975 4.01244
4.01603 7.36819 4.01603
4.01955 7.44687 4.01955
4.02303 7.52574 4.02303
4.02648 7.60475 4.02648
4.02991 7.68384 4.02991
4.03335 7.76297 4.03335
4.03680 7.84207 4.03680
4.04029 7.92110 4.04029
4.04383 7.99999 4.04383
4.04744 8.07866 4.04744
4.05116 8.15706 4.05115
4.05499 8.23508 4.05499
4.05899 8.31264 4.05899
4.06318 8.38961 4.06318
4.06761 8.46586 4.06761
4.07233 8.54124 4.07233
4.07741 8.61555 4.07741
4.08291 8.68858 4.08291
4.08880 8.76047 4.08880
4.09505 8.83133 4.09505
4.10166 8.90114 4.10166
4.10865 8.96992 4.10865
4.11601 9.03768 4.11601
4.12372 9.10449 4.12372
4.13177 9.17042 4.13177
4.14012 9.23560 4.14012
4.14873 9.30017 4.14873
4.15753 9.36435 4.15753
4.16643 9.42840 4.16643
4.17533 9.49263 4.17533
4.18408 9.55748 4.18407
4.19248 9.62347 4.19249
4.20033 9.69122 4.20033
4.20733 9.76154 4.20733
4.21312 9.83539 4.21312
4.21730 9.91392 4.21730
4.21942 9.99835 4.21942
4.21909 10.08979 4.21909
4.21722 10.18562 4.21722
4.21469 10.28335 4.21469
4.21150 10.38299 4.21150
4.20762 10.48463 4.20762
4.20299 10.58848 4.20299
4.19751 10.69487 4.19751
4.19099 10.80432 4.19099
4.18317 10.91768 4.18317
4.17361 11.03632 4.17361
4.16151 11.16274 4.16151
4.14516 11.30233 4.14516
4.11931 11.47175 4.11931
4.00000 13.19120 4.00000
4.00000 13.19120 4.00000
4.00000 13.19120 4.00000
4.00000 13.19120 4.00000
4.00000 13.19120 4.00000
4.00000 13.19120 4.00000
4.00000 13.19120 4.00000
4.00000 13.19120 4.00000
4.00000 13.19120 4.00000
4.00000 13.19120 4.00000
4.00000 13.19121 4.00000
4.00000 13.19120 4.00000
4.00000 13.19121 4.00000
4.00000 13.19120 4.00000
4.00408 13.20394 4.00408
4.01711 13.25026 4.01711
4.02876 13.30172 4.02876
4.03884 13.35876 4.03884
4.04716 13.42184 4.04716
4.05356 13.49142 4.05356
4.05787 13.56791 4.05787
4.06035 13.65039 4.06035
4.06258 13.73368 4.06258
4.06475 13.81721 4.06475
4.06686 13.90094 4.06686
4.06891 13.98485 4.06891
4.07092 14.06893 4.07092
4.07289 14.15315 4.07289
4.07482 14.23750 4.07482
4.07671 14.32197 4.07671
4.07858 14.40656 4.07858
4.08041 14.49124 4.08041
4.08222 14.57601 4.08222
4.08400 14.66087 4.08400
4.08576 14.74581 4.08576
4.08751 14.83082 4.08751
4.08923 14.91590 4.08923
4.09093 15.00105 4.09093
4.09262 15.08625 4.09262
4.09415 15.17198 4.09415
4.09538 15.25863 4.09538
4.09634 15.34614 4.09634
4.09705 15.43446 4.09705
4.09751 15.52354 4.09751
4.09775 15.61334 4.09775
4.09778 15.70379 4.09778
4.09762 15.79486 4.09762
4.09727 15.88650 4.09727
4.09676 15.97865 4.09676
4.09610 16.07129 4.09610
4.09530 16.16436 4.09530
4.09438 16.25783 4.09438
4.09334 16.35165 4.09334
4.09221 16.44580 4.09221
4.09098 16.54023 4.09098
4.08968 16.63492 4.08968
4.08830 16.72984 4.08830
4.08687 16.82495 4.08687
4.08538 16.92023 4.08538
4.08385 17.01565 4.08385
4.08229 17.11120 4.08229
4.08069 17.20684 4.08069
4.07908 17.30257 4.07908
4.07744 17.39836 4.07744
4.07580 17.49419 4.07580
4.07415 17.59005 4.07415
4.07249 17.68593 4.07249
4.07084 17.78181 4.07084
4.06919 17.87768 4.06919
4.06755 17.97353 4.06755
4.06593 18.06936 4.06593
4.06431 18.16514 4.06431
4.06271 18.26088 4.06271
4.06114 18.35657 4.06114
4.05958 18.45220 4.05958
4.05804 18.54776 4.05804
4.05652 18.64326 4.05652
4.05503 18.73869 4.05503
4.05357 18.83403 4.05357
4.05213 18.92930 4.05213
4.05072 19.02449 4.05072
4.04933 19.11960 4.04933
4.04798 19.21461 4.04798
4.04665 19.30955 4.04665
4.04535 19.40439 4.04535
4.04407 19.49914 4.04407
4.04283 19.59381 4.04283
4.04161 19.68839 4.04161
4.04043 19.78287 4.04043
4.03927 19.87727 4.03927
4.03813 19.97158 4.03814
4.03703 20.06580 4.03703
4.03595 20.15993 4.03595
4.03491 20.25398 4.03491
4.03388 20.34794 4.03388
4.03289 20.44181 4.03289
4.03192 20.53560 4.03192
4.03097 20.62931 4.03097
4.03005 20.72294 4.03005
4.02916 20.81648 4.02916
4.02829 20.90995 4.02829
4.02744 21.00334 4.02744
4.02662 21.09665 4.02662
4.02582 21.18989 4.02582
4.02504 21.28306 4.02504
4.02428 21.37616 4.02428
4.02355 21.46918 4.02355
4.02283 21.56214 4.02283
4.02214 21.65503 4.02214
4.02147 21.74785 4.02147
4.02081 21.84061 4.02081
4.02018 21.93331 4.02018
4.01956 22.02595 4.01956
4.01896 22.11853 4.01896
4.01838 22.21104 4.01838
4.01781 22.30351 4.01781
4.01727 22.39592 4.01727
4.01673 22.48827 4.01673
4.01622 22.58057 4.01622
4.01572 22.67282 4.01572
4.01523 22.76502 4.01523
4.01476 22.85718 4.01476
4.01430 22.94928 4.01430
4.01386 23.04134 4.01386
4.01343 23.13335 4.01343
4.01301 23.22533 4.01301
4.01261 23.31725 4.01261
4.01221 23.40914 4.01221
4.01183 23.50099 4.01183
4.01147 23.59280 4.01147
4.01111 23.68457 4.01111
4.01076 23.77630 4.01076
4.01042 23.86800 4.01042
4.01010 23.95967 4.01010
4.00978 24.05130 4.00978
4.00948 24.14290 4.00948
4.00918 24.23446 4.00918
4.00889 24.32600 4.00889
4.00861 24.41751 4.00861
4.00834 24.50898 4.00834
4.00808 24.60043 4.00808
4.00782 24.69185 4.00784
4.00758 24.78325 4.00758
4.00734 24.87462 4.00734
4.00711 24.96596 4.00711
4.00689 25.05728 4.00690
4.00667 25.14857 4.00668
4.00646 25.23984 4.00647
4.00626 25.33110 4.00627
4.00606 25.42233 4.00607
4.00587 25.51354 4.00588
4.00568 25.60472 4.00569
4.00550 25.69589 4.00552
4.00533 25.78704 4.00534
4.00516 25.87818 4.00517
4.00500 25.96929 4.00501
4.00484 26.06039 4.00485
4.00469 26.15147 4.00470
4.00454 26.24253 4.00455
4.00440 26.33358 4.00441
4.00426 26.42461 4.00427
4.00412 26.51563 4.00413
4.00399 26.60664 4.00400
4.00387 26.69763 4.00388
4.00374 26.78860 4.00375
4.00363 26.87957 4.00364
4.00351 26.97052 4.00352
4.00340 27.06146 4.00341
4.00329 27.15238 4.00330
4.00319 27.24330 4.00320
4.00309 27.33420 4.00310
4.00299 27.42509 4.00300
4.00289 27.51598 4.00290
4.00280 27.60685 4.00281
4.00271 27.69771 4.00272
4.00263 27.78857 4.00264
4.00255 27.87941 4.00255
4.00246 27.97024 4.00247
4.00239 28.06107 4.00239
4.00231 28.15189 4.00232
4.00224 28.24270 4.00224
4.00217 28.33350 4.00217
4.00210 28.42429 4.00210
4.00203 28.51508 4.00204
4.00197 28.60586 4.00197
4.00190 28.69663 4.00191
4.00184 28.78740 4.00185
4.00179 28.87816 4.00179
4.00173 28.96891 4.00173
4.00167 29.05966 4.00168
4.00162 29.15040 4.00163
4.00157 29.24113 4.00157
4.00152 29.33186 4.00152
4.00147 29.42259 4.00148
4.00142 29.51331 4.00143
4.00138 29.60402 4.00138
4.00134 29.69473 4.00134
4.00129 29.78544 4.00130
4.00125 29.87614 4.00126
4.00121 29.96683 4.00122
4.00117 30.05752 4.00118
4.00114 30.14821 4.00114
4.00110 30.23889 4.00110
4.00107 30.32957 4.00107
4.00103 30.42025 4.00104
4.00100 30.51092 4.00100
4.00097 30.60159 4.00097
4.00094 30.69225 4.00094
4.00091 30.78291 4.00091
4.00088 30.87357 4.00088
4.00085 30.96423 4.00085
4.00082 31.05488 4.00083
4.00080 31.14553 4.00080
4.00077 31.23617 4.00077
4.00075 31.32682 4.00075
4.00072 31.41746 4.00073
4.00070 31.50810 4.00070
4.00068 31.59873 4.00068
4.00066 31.68937 4.00066
4.00064 31.78000 4.00064
4.00062 31.87063 4.00062
4.00060 31.96125 4.00060
4.00058 32.05188 4.00058
4.00056 32.14250 4.00056
4.00054 32.23312 4.00054
4.00052 32.32374 4.00053
4.00051 32.41436 4.00051
4.00049 32.50497 4.00049
4.00048 32.59558 4.00048
4.00046 32.68620 4.00046
4.00045 32.77681 4.00045
4.00043 32.86741 4.00043
4.00042 32.95802 4.00042
4.00040 33.04863 4.00040
4.00039 33.13923 4.00039
4.00038 33.22983 4.00038
4.00037 33.32043 4.00037
4.00036 33.41103 4.00036
4.00034 33.50163 4.00034
4.00033 33.59223 4.00033
4.00032 33.68282 4.00032
4.00031 33.77342 4.00031
4.00030 33.86401 4.00030
4.00029 33.95461 4.00029
4.00028 34.04520 4.00028
4.00027 34.13579 4.00027
4.00027 34.22638 4.00027
4.00026 34.31697 4.00026
4.00025 34.40755 4.00025
4.00024 34.49814 4.00024
4.00023 34.58873 4.00023
4.00023 34.67931 4.00023
4.00022 34.76990 4.00022
4.00021 34.86048 4.00021
4.00021 34.95106 4.00021
4.00020 35.04165 4.00020
4.00019 35.13223 4.00019
4.00019 35.22281 4.00019
4.00018 35.31339 4.00018
4.00017 35.40397 4.00017
4.00017 35.49455 4.00017
4.00016 35.58513 4.00016
4.00016 35.67570 4.00016
4.00015 35.76628 4.00015
4.00015 35.85686 4.00015
4.00014 35.94743 4.00014
4.00014 36.03801 4.00014

Angle 0.629020 1.979821

4.00000 7.03347 4.00000
4.00000 7.03348 4.00000
4.00000 7.03348 4.00000
4.00000 7.03348 4.00000
4.00000 7.03348 4.00000
4.00000 7.03348 4.00000
4.00000 7.03348 4.00000
4.00000 7.03348 4.00000
4.00000 7.03348 4.00000
4.00000 7.03348 4.00000
4.00000 7.03348 4.00000
4.00000 7.03349 4.00000
4.00000 7.03349 4.00000
4.00000 7.03348 4.00000
4.00000 7.03348 4.00000
4.00000 7.03348 4.00000
4.00000 7.03348 4.00000
4.00000 7.03348 4.00000
4.00000 7.03348 4.00000
4.00000 7.03348 4.00000
4.00000 7.03348 4.00000
4.00000 7.03348 4.00000
4.00000 7.03348 4.00000
4.00000 7.03348 4.00000
4.00000 7.03348 4.00000
4.00000 7.03348 4.00000
4.00000 7.03348 4.00000
4.00000 7.03348 4.00000
4.00000 7.03348 4.00000
4.00000 7.03348 4.00000
4.00000 7.03348 4.00000
4.00000 7.03348 4.00000
4.00000 7.03348 4.00000
4.00000 7.03348 4.00000
4.00000 7.03349 4.00000
4.00000 7.03347 4.00000
4.00000 7.03348 4.00000
4.00000 7.03348 4.00000
4.00000 7.03348 4.00000
4.00000 7.03348 4.00000
4.00000 7.03348 4.00000
4.00000 7.03348 4.00000
4.00000 7.03348 4.00000
4.00000 7.03348 4.00000
4.00000 7.03348 4.00000
4.00000 7.03348 4.00000
4.00000 7.03348 4.00000
4.00000 7.03348 4.00000
4.00000 7.03348 4.00000
4.00000 7.03348 4.00000
4.00000 7.03348 4.00000
4.00000 7.03348 4.00000
4.00000 7.03348 4.00000
4.00000 7.03348 4.00000
4.00000 7.03348 4.00000
4.00000 7.03348 4.00000
4.00000 7.03348 4.00000
4.00000 7.03348 4.00000
4.00000 7.03348 4.00000
4.00000 7.03348 4.00000
4.00000 7.03348 4.00000
4.00000 7.03348 4.00000
4.00000 7.03347 4.00000
4.00000 7.03348 4.00000
4.00000 7.03348 4.00000
4.00000 7.03348 4.00000
4.00000 7.03348 4.00000
4.00000 7.03348 4.00000
4.00000 7.03348 4.00000
4.00000 7.03348 4.00000
4.00000 7.03348 4.00000
4.00000 7.03348 4.00000
4.00000 7.03348 4.00000
4.00000 7.03348 4.00000
4.00000 7.03348 4.00000
4.00000 7.03348 4.00000
4.00000 7.03348 4.00000
4.00000 7.03348 4.00000
4.00000 7.03348 4.00000
4.00000 7.03348 4.00000
4.00000 7.03348 4.00000
4.00000 7.03348 4.00000
4.00000 7.03348 4.00000
4.00000 7.03348 4.00000
4.00000 7.03348 4.00000
4.00000 7.03348 4.00000
4.00000 7.03347 4.00000
4.00000 7.03348 4.00000
4.00000 7.03348 4.00000
4.00000 7.03348 4.00000
4.00000 7.03348 4.00000
4.00000 7.03348 4.00000
4.00000 7.03348 4.00000
4.00000 7.03348 4.00000
4.00000 7.03348 4.00000
4.00000 7.03348 4.00000
4.00000 7.03348 4.00000
4.00000 7.03348 4.00000
4.00000 7.03348 4.00000
4.00000 7.03348 4.00000
4.00000 7.03348 4.00000
4.00000 7.03348 4.00000
4.00000 7.03348 4.00000
4.00000 7.03348 4.00000
4.00000 7.03348 4.00000
4.00000 7.03348 4.00000
4.00000 7.03348 4.00000
4.00000 7.03348 4.00000
4.00000 7.03348 4.00000
4.00000 7.03348 4.00000
4.00000 7.03348 4.00000
4.00000 7.03348 4.00000
4.00000 7.03348 4.00000
4.00000 7.03348 4.00000
4.00000 7.03348 4.00000
4.00000 7.03348 4.00000
4.00000 7.03348 4.00000
4.00000 7.03348 4.00000
4.00000 7.03348 4.00000
4.00000 7.03347 4.00000
4.00000 7.03348 4.00000
4.00000 7.03348 4.00000
4.00000 7.03348 4.00000
4.00000 7.03348 4.00000
4.00000 7.03348 4.00000
4.00000 7.03349 4.00000
4.00000 7.03348 4.00000
4.00000 7.03350 4.00000
4.00000 7.03348 4.00000
4.00000 7.03349 4.00000
4.00000 7.03348 4.00000
4.00000 7.03348 4.00000
4.00000 7.03349 4.00000
4.00000 7.03348 4.00000
4.00088 7.05061 4.00088
4.00471 7.12719 4.00471
4.00843 7.20419 4.00843
4.01206 7.28155 4.01206
4.01562 7.35922 4.01562
4.01912 7.43714 4.01912
4.02257 7.51526 4.02257
4.02599 7.59353 4.02599
4.02940 7.67191 4.02940
4.03280 7.75033 4.03280
4.03622 7.82876 4.03622
4.03966 7.90712 4.03967
4.04316 7.98536 4.04316
4.04673 8.06342 4.04673
4.05039 8.14122 4.05039
4.05417 8.21869 4.05417
4.05810 8.29572 4.05810
4.06221 8.37222 4.06221
4.06655 8.44805 4.06655
4.07116 8.52306 4.07116
4.07610 8.59707 4.07610
4.08145 8.66987 4.08145
4.08720 8.74149 4.08720
4.09331 8.81210 4.09331
4.09977 8.88168 4.09977
4.10660 8.95024 4.10660
4.11380 9.01781 4.11380
4.12136 9.08441 4.12136
4.12925 9.15014 4.12925
4.13745 9.21508 4.13745
4.14593 9.27938 4.14593
4.15461 9.34322 4.15461
4.16343 9.40685 4.16343
4.17229 9.47055 4.17229
4.18104 9.53470 4.18104
4.18954 9.59979 4.18954
4.19757 9.66639 4.19757
4.20487 9.73522 4.20487
4.21111 9.80718 4.21111
4.21592 9.88332 4.21592
4.21887 9.96482 4.21887
4.21953 10.05288 4.21953
4.21805 10.14705 4.21805
4.21580 10.24343 4.21580
4.21289 10.34170 4.21289
4.20933 10.44190 4.20933
4.20505 10.54419 4.20505
4.19998 10.64884 4.19998
4.19397 10.75627 4.19396
4.18680 10.86716 4.18680
4.17813 10.98258 4.17813
4.16737 11.10440 4.16737
4.15335 11.23626 4.15335
4.13318 11.38731 4.13318
4.09340 11.60071 4.09340
4.00000 13.19120 4.00000
4.00000 13.19120 4.00000
4.00000 13.19120 4.00000
4.00000 13.19120 4.00000
4.00000 13.19120 4.00000
4.00000 13.19120 4.00000
4.00000 13.19120 4.00000
4.00000 13.19120 4.00000
4.00000 13.19120 4.00000
4.00000 13.19120 4.00000
4.00000 13.19120 4.00000
4.00000 13.19121 4.00000
4.00000 13.19120 4.00000
4.00000 13.19120 4.00000
4.01020 13.22451 4.01020
4.02257 13.27289 4.02257
4.03348 13.32655 4.03348
4.04276 13.38596 4.04276
4.05022 13.45156 4.05022
4.05570 13.52379 4.05570
4.05904 13.60304 4.05904
4.06131 13.68582 4.06131
4.06351 13.76886 4.06350
4.06564 13.85212 4.06564
4.06772 13.93557 4.06771
4.06974 14.01920 4.06974
4.07172 14.10298 4.07172
4.07367 14.18691 4.07367
4.07557 14.27096 4.07557
4.07745 14.35513 4.07745
4.07929 14.43942 4.07929
4.08111 14.52380 4.08111
4.08290 14.60827 4.08290
4.08467 14.69282 4.08467
4.08642 14.77746 4.08641
4.08814 14.86217 4.08814
4.08985 14.94694 4.08985
4.09155 15.03178 4.09155
4.09320 15.11675 4.09320
4.09461 15.20249 4.09461
4.09575 15.28913 4.09575
4.09662 15.37660 4.09662
4.09724 15.46487 4.09723
4.09762 15.55387 4.09762
4.09779 15.64357 4.09779
4.09775 15.73391 4.09775
4.09752 15.82485 4.09752
4.09713 15.91634 4.09713
4.09657 16.00834 4.09657
4.09586 16.10079 4.09586
4.09503 16.19368 4.09503
4.09407 16.28694 4.09407
4.09300 16.38055 4.09300
4.09184 16.47448 4.09184
4.09060 16.56868 4.09060
4.08927 16.66312 4.08927
4.08788 16.75779 4.08788
4.08644 16.85264 4.08644
4.08495 16.94766 4.08495
4.08341 17.04281 4.08341
4.08184 17.13809 4.08184
4.08025 17.23346 4.08025
4.07863 17.32890 4.07863
4.07700 17.42441 4.07700
4.07536 17.51995 4.07536
4.07371 17.61553 4.07371
4.07206 17.71112 4.07206
4.07041 17.80671 4.07041
4.06877 17.90229 4.06877
4.06714 17.99785 4.06714
4.06552 18.09338 4.06552
4.06391 18.18888 4.06391
4.06233 18.28433 4.06233
4.06076 18.37973 4.06076
4.05921 18.47507 4.05921
4.05768 18.57035 4.05768
4.05617 18.66556 4.05617
4.05470 18.76070 4.05469
4.05324 18.85576 4.05324
4.05181 18.95075 4.05181
4.05041 19.04566 4.05041
4.04903 19.14049 4.04903
4.04769 19.23523 4.04769
4.04637 19.32989 4.04637
4.04507 19.42446 4.04507
4.04381 19.51894 4.04381
4.04258 19.61334 4.04258
4.04137 19.70765 4.04137
4.04019 19.80188 4.04019
4.03904 19.89601 4.03904
4.03792 19.99006 4.03792
4.03682 20.08403 4.03682
4.03575 20.17791 4.03575
4.03471 20.27170 4.03471
4.03370 20.36541 4.03370
4.03271 20.45904 4.03271
4.03174 20.55258 4.03174
4.03081 20.64605 4.03081
4.02989 20.73943 4.02989
4.02901 20.83274 4.02901
4.02814 20.92597 4.02814
4.02730 21.01913 4.02730
4.02648 21.11221 4.02648
4.02569 21.20522 4.02569
4.02492 21.29816 4.02492
4.02416 21.39102 4.02416
4.02343 21.48383 4.02343
4.02272 21.57656 4.02272
4.02204 21.66923 4.02204
4.02137 21.76183 4.02137
4.02072 21.85438 4.02072
4.02008 21.94686 4.02008
4.01947 22.03928 4.01947
4.01888 22.13165 4.01888
4.01830 22.22396 4.01830
4.01774 22.31621 4.01774
4.01719 22.40841 4.01719
4.01666 22.50056 4.01666
4.01615 22.59266 4.01615
4.01565 22.68471 4.01565
4.01517 22.77671 4.01517
4.01470 22.86866 4.01470
4.01425 22.96057 4.01425
4.01381 23.05243 4.01381
4.01338 23.14426 4.01338
4.01296 23.23603 4.01296
4.01256 23.32777 4.01256
4.01217 23.41947 4.01217
4.01179 23.51113 4.01179
4.01143 23.60275 4.01143
4.01107 23.69434 4.01107
4.01073 23.78589 4.01073
4.01039 23.87740 4.01039
4.01007 23.96889 4.01007
4.00975 24.06034 4.00975
4.00945 24.15176 4.00945
4.00915 24.24314 4.00915
4.00887 24.33450 4.00887
4.00859 24.42583 4.00859
4.00832 24.51714 4.00832
4.00806 24.60841 4.00806
4.00781 24.69966 4.00781
4.00756 24.79088 4.00756
4.00733 24.88208 4.00733
4.00710 24.97326 4.00710
4.00687 25.06441 4.00687
4.00666 25.15554 4.00666
4.00645 25.24665 4.00645
4.00625 25.33774 4.00625
4.00605 25.42881 4.00605
4.00586 25.51985 4.00586
4.00567 25.61088 4.00567
4.00550 25.70189 4.00550
4.00532 25.79288 4.00532
4.00516 25.88386 4.00516
4.00499 25.97481 4.00499
4.00484 26.06575 4.00484
4.00468 26.15668 4.00468
4.00454 26.24759 4.00454
4.00439 26.33848 4.00439
4.00425 26.42936 4.00425
4.00412 26.52023 4.00412
4.00399 26.61108 4.00399
4.00386 26.70192 4.00386
4.00374 26.79275 4.00374
4.00362 26.88357 4.00362
4.00351 26.97437 4.00351
4.00340 27.06516 4.00340
4.00329 27.15594 4.00329
4.00319 27.24671 4.00319
4.00309 27.33747 4.00309
4.00299 27.42822 4.00299
4.00289 27.51896 4.00289
4.00280 27.60970 4.00280
4.00271 27.70042 4.00271
4.00263 27.79113 4.00263
4.00255 27.88184 4.00254
4.00246 27.97253 4.00247
4.00239 28.06322 4.00239
4.00231 28.15390 4.00232
4.00224 28.24458 4.00224
4.00216 28.33524 4.00217
4.00210 28.42590 4.00210
4.00203 28.51655 4.00204
4.00197 28.60720 4.00197
4.00190 28.69784 4.00191
4.00184 28.78847 4.00184
4.00178 28.87910 4.00179
4.00173 28.96972 4.00173
4.00167 29.06034 4.00168
4.00162 29.15095 4.00162
4.00157 29.24156 4.00157
4.00152 29.33216 4.00153
4.00147 29.42276 4.00147
4.00142 29.51335 4.00143
4.00138 29.60394 4.00139
4.00134 29.69453 4.00134
4.00129 29.78511 4.00130
4.00125 29.87568 4.00126
4.00121 29.96626 4.00121
4.00117 30.05682 4.00118
4.00114 30.14739 4.00114
4.00110 30.23794 4.00111
4.00107 30.32851 4.00107
4.00103 30.41906 4.00103
4.00100 30.50961 4.00100
4.00097 30.60016 4.00097
4.00094 30.69071 4.00094
4.00091 30.78125 4.00091
4.00088 30.87179 4.00088
4.00085 30.96233 4.00086

Angle 0.130249 3.708152

4.00000 7.03348 4.00000
4.00000 7.03348 4.00000
4.00000 7.03348 4.00000
4.00000 7.03348 4.00000
4.00000 7.03348 4.00000
4.00000 7.03348 4.00000
4.00000 7.03348 4.00000
4.00000 7.03348 4.00000
4.00000 7.03348 4.00000
4.00000 7.03348 4.00000
4.00000 7.03348 4.00000
4.00000 7.03348 4.00000
4.00000 7.03350 4.00000
4.00000 7.03348 4.00000
4.00000 7.03348 4.00000
4.00000 7.03348 4.00000
4.00000 7.03349 4.00000
4.00000 7.03348 4.00000
4.00000 7.03348 4.00000
4.00000 7.03348 4.00000
4.00000 7.03348 4.00000
4.00000 7.03347 4.00000
4.00000 7.03348 4.00000
4.00000 7.03337 4.00001
4.00000 7.03356 4.00000
4.00000 7.03348 4.00000
4.00000 7.03348 4.00000
4.00000 7.03351 4.00000
4.00000 7.03348 4.00000
4.00000 7.03347 4.00000
4.00000 7.03347 4.00000
4.00000 7.03345 4.00000
4.00000 7.03347 4.00000
4.00000 7.03348 4.00000
4.00000 7.03349 4.00000
4.00000 7.03349 4.00000
4.00000 7.03348 4.00000
4.00000 7.03348 4.00000
4.00000 7.03348 4.00000
4.00000 7.03348 4.00000
4.00000 7.03348 4.00000
4.00000 7.03348 4.00000
4.00000 7.03348 4.00000
4.00000 7.03352 4.00000
4.00000 7.03352 4.00000
4.00000 7.03352 4.00000
4.00000 7.03351 4.00000
4.00000 7.03348 4.00000
4.00000 7.03348 4.00000
4.00000 7.03348 4.00000
4.00000 7.03348 4.00000
4.00000 7.03348 4.00000
4.00000 7.03348 4.00000
4.00000 7.03348 4.00000
4.00000 7.03349 4.00000
4.00000 7.03348 4.00000
4.00000 7.03348 4.00000
4.00000 7.03348 4.00000
4.00000 7.03346 4.00000
4.00000 7.03348 4.00000
4.00000 7.03348 4.00000
4.00000 7.03348 4.00000
4.00000 7.03346 4.00000
4.00000 7.03346 4.00000
4.00000 7.03348 4.00000
4.00000 7.03349 4.00000
4.00000 7.03348 4.00000
4.00000 7.03348 4.00000
4.00000 7.03348 4.00000
4.00000 7.03348 4.00000
4.00000 7.03348 4.00000
4.00000 7.03348 4.00000
4.00000 7.03348 4.00000
4.00000 7.03348 4.00000
4.00000 7.03348 4.00000
4.00000 7.03348 4.00000
4.00000 7.03348 4.00000
4.00000 7.03348 4.00000
4.00000 7.03348 4.00000
4.00000 7.03348 4.00000
4.00000 7.03348 4.00000
4.00000 7.03348 4.00000
4.00000 7.03348 4.00000
4.00000 7.03348 4.00000
4.00000 7.03348 4.00000
4.00000 7.03348 4.00000
4.00000 7.03348 4.00000
4.00000 7.03348 4.00000
4.00000 7.03348 4.00000
4.00000 7.03348 4.00000
4.00000 7.03348 4.00000
4.00000 7.03348 4.00000
4.00000 7.03348 4.00000
4.00000 7.03348 4.00000
4.00000 7.03348 4.00000
4.00000 7.03348 4.00000
4.00000 7.03348 4.00000
4.00000 7.03348 4.00000
4.00000 7.03348 4.00000
4.00000 7.03348 4.00000
4.00000 7.03348 4.00000
4.00000 7.03348 4.00000
4.00000 7.03348 4.00000
4.00000 7.03348 4.00000
4.00000 7.03348 4.00000
4.00000 7.03348 4.00000
4.00000 7.03348 4.00000
4.00000 7.03348 4.00000
4.00000 7.03348 4.00000
4.00000 7.03348 4.00000
4.00000 7.03348 4.00000
4.00000 7.03348 4.00000
4.00000 7.03348 4.00000
4.00000 7.03348 4.00000
4.00000 7.03348 4.00000
4.00000 7.03348 4.00000
4.00000 7.03348 4.00000
4.00000 7.03348 4.00000
4.00000 7.03348 4.00000
4.00000 7.03348 4.00000
4.00000 7.03348 4.00000
4.00000 7.03348 4.00000
4.00000 7.03348 4.00000
4.00000 7.03348 4.00000
4.00000 7.03348 4.00000
4.00000 7.03348 4.00000
4.00000 7.03348 4.00000
4.00000 7.03348 4.00000
4.00000 7.03348 4.00000
4.00000 7.03348 4.00000
4.00000 7.03348 4.00000
4.00000 7.03348 4.00000
4.00000 7.03348 4.00000
4.00000 7.03348 4.00000
4.00000 7.03348 4.00000
4.00000 7.03348 4.00000
4.00000 7.03348 4.00000
4.00000 7.03348 4.00000
4.00000 7.03348 4.00000
4.00000 7.03348 4.00000
4.00000 7.03348 4.00000
4.00000 7.03348 4.00000
4.00000 7.03348 4.00000
4.00000 7.03348 4.00000
4.00000 7.03348 4.00000
4.00000 7.03348 4.00000
4.00000 7.03348 4.00000
4.00000 7.03348 4.00000
4.00000 7.03348 4.00000
4.00000 7.03348 4.00000
4.00000 7.03348 4.00000
4.00000 7.03348 4.00000
4.00000 7.03348 4.00000
4.00000 7.03348 4.00000
4.00000 7.03348 4.00000
4.00000 7.03348 4.00000
4.00000 7.03348 4.00000
4.00000 7.03348 4.00000
4.00000 7.03348 4.00000
4.00000 7.03348 4.00000
4.00000 7.03348 4.00000
4.00000 7.03348 4.00000
4.00000 7.03348 4.00000
4.00000 7.03348 4.00000
4.00000 7.03348 4.00000
4.00000 7.03348 4.00000
4.00000 7.03348 4.00000
4.00000 7.03348 4.00000
4.00000 7.03342 4.00000
4.00178 7.06852 4.00178
4.00562 7.14586 4.00562
4.00935 7.22361 4.00935
4.01300 7.30170 4.01300
4.01657 7.38009 4.01657
4.02008 7.45870 4.02008
4.02355 7.53751 4.02355
4.02699 7.61644 4.02699
4.03042 7.69545 4.03042
4.03385 7.77449 4.03385
4.03730 7.85350 4.03730
4.04079 7.93242 4.04079
4.04433 8.01120 4.04433
4.04796 8.08975 4.04796
4.05168 8.16802 4.05168
4.05554 8.24590 4.05554
4.05956 8.32330 4.05956
4.06378 8.40010 4.06378
4.06824 8.47618 4.06824
4.07300 8.55135 4.07300
4.07812 8.62542 4.07812
4.08368 8.69820 4.08368
4.08960 8.76990 4.08961
4.09589 8.84055 4.09589
4.10255 8.91016 4.10255
4.10958 8.97873 4.10958
4.11698 9.04631 4.11698
4.12473 9.11294 4.12473
4.13281 9.17871 4.13281
4.14119 9.24374 4.14119
4.14982 9.30820 4.14982
4.15863 9.37229 4.15863
4.16753 9.43628 4.16753
4.17641 9.50052 4.17641
4.18512 9.56542 4.18512
4.19347 9.63153 4.19347
4.20122 9.69948 4.20122
4.20809 9.77011 4.20809
4.21371 9.84440 4.21371
4.21766 9.92349 4.21766
4.21951 10.00863 4.21951
4.21891 10.10078 4.21891
4.21696 10.19676 4.21696
4.21436 10.29463 4.21436
4.21110 10.39441 4.21110
4.20714 10.49622 4.20714
4.20243 10.60025 4.20242
4.19684 10.70688 4.19684
4.19019 10.81664 4.19019
4.18222 10.93041 4.18222
4.17244 11.04967 4.17244
4.15999 11.17708 4.15999
4.14300 11.31860 4.14300
4.11533 11.49371 4.11533
4.00000 13.19120 4.00000
4.00000 13.19120 4.00000
4.00000 13.19120 4.00000
4.00000 13.19120 4.00000
4.00000 13.19120 4.00000
4.00000 13.19120 4.00000
4.00000 13.19120 4.00000
4.00000 13.19120 4.00000
4.00000 13.19120 4.00000
4.00000 13.19121 4.00000
4.00000 13.19120 4.00000
4.00000 13.19120 4.00000
4.00000 13.19120 4.00000
4.00000 13.19120 4.00000
4.00540 13.20824 4.00540
4.01831 13.25501 4.01831
4.02980 13.30695 4.02980
4.03971 13.36452 4.03971
4.04786 13.42817 4.04786
4.05406 13.49834 4.05406
4.05816 13.57546 4.05816
4.06056 13.65815 4.06056
4.06279 13.74142 4.06279
4.06495 13.82492 4.06495
4.06705 13.90863 4.06705
4.06910 13.99251 4.06910
4.07110 14.07655 4.07110
4.07307 14.16074 4.07307
4.07499 14.24506 4.07499
4.07688 14.32950 4.07688
4.07874 14.41405 4.07874
4.08057 14.49870 4.08057
4.08237 14.58343 4.08237
4.08416 14.66826 4.08416
4.08591 14.75316 4.08592
4.08765 14.83814 4.08765
4.08937 14.92318 4.08937
4.09108 15.00829 4.09108
4.09276 15.09346 4.09276
4.09426 15.17923 4.09426
4.09547 15.26591 4.09547
4.09641 15.35345 4.09641
4.09710 15.44179 4.09710
4.09754 15.53089 4.09754
4.09776 15.62070 4.09776
4.09778 15.71117 4.09778
4.09760 15.80224 4.09760
4.09724 15.89388 4.09724
4.09672 15.98604 4.09672
4.09604 16.07867 4.09604
4.09523 16.17173 4.09523
4.09430 16.26519 4.09430
4.09326 16.35900 4.09326
4.09211 16.45313 4.09211
4.09088 16.54754 4.09088
4.08957 16.64221 4.08957
4.08819 16.73710 4.08819
4.08676 16.83219 4.08676
4.08527 16.92744 4.08527
4.08374 17.02283 4.08374
4.08217 17.11835 4.08217
4.08057 17.21396 4.08058
4.07896 17.30965 4.07896
4.07732 17.40541 4.07732
4.07568 17.50120 4.07568
4.07403 17.59703 4.07403
4.07237 17.69287 4.07237
4.07072 17.78871 4.07072
4.06907 17.88455 4.06907
4.06744 17.98036 4.06744
4.06581 18.07615 4.06581
4.06420 18.17189 4.06420
4.06260 18.26759 4.06260
4.06103 18.36324 4.06103
4.05947 18.45883 4.05947
4.05793 18.55436 4.05793
4.05642 18.64981 4.05642
4.05493 18.74520 4.05493
4.05347 18.84051 4.05347
4.05203 18.93574 4.05203
4.05062 19.03089 4.05062
4.04924 19.12595 4.04924
4.04789 19.22093 4.04789
4.04656 19.31583 4.04656
4.04526 19.41063 4.04526
4.04399 19.50535 4.04399
4.04275 19.59998 4.04275
4.04154 19.69451 4.04154
4.04035 19.78896 4.04035
4.03919 19.88332 4.03919
4.03806 19.97760 4.03806
4.03696 20.07178 4.03696
4.03589 20.16588 4.03589
4.03484 20.25989 4.03484
4.03382 20.35381 4.03382
4.03283 20.44765 4.03283
4.03186 20.54141 4.03186
4.03092 20.63508 4.03092
4.03000 20.72867 4.03000
4.02911 20.82218 4.02911
4.02824 20.91562 4.02824
4.02739 21.00898 4.02739
4.02657 21.10226 4.02657
4.02577 21.19547 4.02577
4.02499 21.28860 4.02499
4.02424 21.38166 4.02424
4.02351 21.47466 4.02351
4.02279 21.56758 4.02279
4.02210 21.66044 4.02210
4.02143 21.75324 4.02143
4.02077 21.84597 4.02077
4.02014 21.93864 4.02014
4.01952 22.03124 4.01952
4.01893 22.12379 4.01893
4.01835 22.21628 4.01835
4.01778 22.30872 4.01778
4.01723 22.40109 4.01723
4.01670 22.49342 4.01670
4.01619 22.58569 4.01619
4.01569 22.67792 4.01569
4.01520 22.77009 4.01520
4.01473 22.86221 4.01473
4.01428 22.95429 4.01428
4.01383 23.04632 4.01383
4.01341 23.13831 4.01341
4.01299 23.23026 4.01299
4.01258 23.32216 4.01259
4.01219 23.41402 4.01219
4.01181 23.50584 4.01181
4.01145 23.59763 4.01145
4.01109 23.68937 4.01109
4.01074 23.78108 4.01074
4.01041 23.87276 4.01041
4.01008 23.96440 4.01008
4.00977 24.05600 4.00977
4.00946 24.14758 4.00946
4.00917 24.23912 4.00917
4.00888 24.33063 4.00888
4.00860 24.42211 4.00860
4.00833 24.51357 4.00833
4.00807 24.60499 4.00807
4.00782 24.69639 4.00782
4.00757 24.78776 4.00757
4.00733 24.87911 4.00733
4.00710 24.97043 4.00710
4.00688 25.06173 4.00688
4.00666 25.15300 4.00666
4.00645 25.24426 4.00645
4.00625 25.33548 4.00625
4.00605 25.42669 4.00605
4.00586 25.51788 4.00586
4.00568 25.60905 4.00568
4.00550 25.70020 4.00550
4.00533 25.79132 4.00533
4.00516 25.88244 4.00516
4.00500 25.97353 4.00500
4.00484 26.06461 4.00484
4.00468 26.15567 4.00468
4.00454 26.24671 4.00454
4.00439 26.33774 4.00439
4.00425 26.42875 4.00425
4.00412 26.51975 4.00412
4.00399 26.61073 4.00399
4.00386 26.70170 4.00386
4.00374 26.79266 4.00374
4.00362 26.88360 4.00362
4.00351 26.97453 4.00351
4.00340 27.06545 4.00340
4.00329 27.15636 4.00329
4.00319 27.24726 4.00319
4.00309 27.33814 4.00309
4.00299 27.42902 4.00299
4.00289 27.51988 4.00289
4.00280 27.61073 4.00280
4.00271 27.70158 4.00271
4.00263 27.79241 4.00263
4.00254 27.88324 4.00254

