Angle 0.709656 4.915908

4.00000 7.03348 4.00000
4.00000 7.03348 4.00000
4.00000 7.03348 4.00000
4.00000 7.03348 4.00000
4.00000 7.03348 4.00000
4.00000 7.03348 4.00000
4.00000 7.03348 4.00000
4.00000 7.03348 4.00000
4.00000 7.03348 4.00000
4.00000 7.03348 4.00000
4.00000 7.03348 4.00000
4.00000 7.03348 4.00000
4.00000 7.03348 4.00000
4.00000 7.03348 4.00000
4.00000 7.03348 4.00000
4.00000 7.03348 4.00000
4.00000 7.03348 4.00000
4.00000 7.03348 4.00000
4.00000 7.03348 4.00000
4.00000 7.03348 4.00000
4.00000 7.03348 4.00000
4.00000 7.03348 4.00000
4.00000 7.03348 4.00000
4.00000 7.03348 4.00000
4.00000 7.03348 4.00000
4.00000 7.03348 4.00000
4.00000 7.03348 4.00000
4.00000 7.03348 4.00000
4.00000 7.03347 4.00000
4.00000 7.03348 4.00000
4.00000 7.03348 4.00000
4.00000 7.03348 4.00000
4.00000 7.03348 4.00000
4.00000 7.03349 4.00000
4.00000 7.03348 4.00000
4.00000 7.03348 4.00000
4.00000 7.03348 4.00000
4.00000 7.03348 4.00000
4.00000 7.03348 4.00000
4.00000 7.03348 4.00000
4.00000 7.03348 4.00000
4.00000 7.03348 4.00000
4.00000 7.03348 4.00000
4.00000 7.03348 4.00000
4.00000 7.03348 4.00000
4.00000 7.03348 4.00000
4.00000 7.03348 4.00000
4.00000 7.03347 4.00000
4.00000 7.03348 4.00000
4.00000 7.03348 4.00000
4.00000 7.03348 4.00000
4.00000 7.03348 4.00000
4.00000 7.03348 4.00000
4.00000 7.03348 4.00000
4.00000 7.03348 4.00000
4.00000 7.03347 4.00000
4.00000 7.03348 4.00000
4.00000 7.03348 4.00000
4.00000 7.03349 4.00000
4.00000 7.03348 4.00000
4.00000 7.03348 4.00000
4.00000 7.03349 4.00000
4.00000 7.03348 4.00000
4.00000 7.03350 4.00000
4.00000 7.03348 4.00000
4.00000 7.03348 4.00000
4.00000 7.03349 4.00000
4.00000 7.03348 4.00000
4.00000 7.03348 4.00000
4.00000 7.03348 4.00000
4.00000 7.03348 4.00000
4.00000 7.03348 4.00000
4.00000 7.03348 4.00000
4.00000 7.03348 4.00000
4.00000 7.03348 4.00000
4.00000 7.03348 4.00000
4.00000 7.03348 4.00000
4.00000 7.03348 4.00000
4.00000 7.03348 4.00000
4.00000 7.03348 4.00000
4.00000 7.03348 4.00000
4.00000 7.03348 4.00000
4.00000 7.03348 4.00000
4.00000 7.03349 4.00000
4.00000 7.03348 4.00000
4.00000 7.03347 4.00000
4.00000 7.03347 4.00000
4.00000 7.03348 4.00000
4.00000 7.03348 4.00000
4.00000 7.03348 4.00000
4.00000 7.03348 4.00000
4.00000 7.03348 4.00000
4.00000 7.03348 4.00000
4.00000 7.03348 4.00000
4.00000 7.03347 4.00000
4.00000 7.03348 4.00000
4.00000 7.03348 4.00000
4.00000 7.03348 4.00000
4.00000 7.03348 4.00000
4.00000 7.03348 4.00000
4.00000 7.03348 4.00000
4.00000 7.03348 4.00000
4.00000 7.03346 4.00000
4.00000 7.03348 4.00000
4.00000 7.03348 4.00000
4.00000 7.03348 4.00000
4.00000 7.03349 4.00000
4.00000 7.03348 4.00000
4.00000 7.03348 4.00000
4.00000 7.03348 4.00000
4.00000 7.03348 4.00000
4.00000 7.03348 4.00000
4.00000 7.03348 4.00000
4.00000 7.03348 4.00000
4.00000 7.03348 4.00000
4.00000 7.03348 4.00000
4.00000 7.03348 4.00000
4.00000 7.03348 4.00000
4.00000 7.03348 4.00000
4.00000 7.03348 4.00000
4.00000 7.03348 4.00000
4.00000 7.03348 4.00000
4.00000 7.03348 4.00000
4.00000 7.03348 4.00000
4.00000 7.03348 4.00000
4.00000 7.03348 4.00000
4.00000 7.03348 4.00000
4.00000 7.03347 4.00000
4.00000 7.03348 4.00000
4.00000 7.03347 4.00000
4.00000 7.03348 4.00000
4.00000 7.03348 4.00000
4.00000 7.03348 4.00000
4.00000 7.03348 4.00000
4.00000 7.03348 4.00000
4.00000 7.03348 4.00000
4.00000 7.03348 4.00000
4.00000 7.03348 4.00000
4.00000 7.03348 4.00000
4.00000 7.03348 4.00000
4.00000 7.03348 4.00000
4.00000 7.03348 4.00000
4.00000 7.03348 4.00000
4.00000 7.03348 4.00000
4.00000 7.03348 4.00000
4.00000 7.03348 4.00000
4.00000 7.03348 4.00000
4.00000 7.03348 4.00000
4.00000 7.03348 4.00000
4.00000 7.03348 4.00000
4.00000 7.03348 4.00000
4.00000 7.03348 4.00000
4.00000 7.03348 4.00000
4.00000 7.03348 4.00000
4.00000 7.03348 4.00000
4.00000 7.03348 4.00000
4.00000 7.03348 4.00000
4.00000 7.03349 4.00000
4.00000 7.03348 4.00000
4.00000 7.03348 4.00000
4.00000 7.03348 4.00000
4.00000 7.03348 4.00000
4.00000 7.03348 4.00000
4.00000 7.03348 4.00000
4.00000 7.03348 4.00000
4.00000 7.03348 4.00000
4.00000 7.03348 4.00000
4.00000 7.03348 4.00000
4.00000 7.03348 4.00000
4.00000 7.03350 4.00000
4.00000 7.03348 4.00000
4.00000 7.03348 4.00000
4.00000 7.03350 4.00000
4.00000 7.03349 4.00000
4.00000 7.03348 4.00000
4.00317 7.09606 4.00317
4.00681 7.17032 4.00681
4.01036 7.24498 4.01036
4.01383 7.31998 4.01383
4.01725 7.39528 4.01725
4.02061 7.47083 4.02061
4.02394 7.54657 4.02394
4.02725 7.62248 4.02725
4.03055 7.69848 4.03055
4.03385 7.77455 4.03385
4.03718 7.85063 4.03717
4.04053 7.92667 4.04053
4.04395 8.00261 4.04394
4.04743 8.07838 4.04743
4.05100 8.15393 4.05100
4.05470 8.22917 4.05470
4.05854 8.30402 4.05854
4.06256 8.37837 4.06256
4.06679 8.45211 4.06679
4.07129 8.52509 4.07129
4.07611 8.59714 4.07611
4.08131 8.66806 4.08131
4.08690 8.73788 4.08690
4.09283 8.80675 4.09283
4.09910 8.87468 4.09910
4.10572 8.94165 4.10572
4.11269 9.00768 4.11269
4.12001 9.07282 4.12001
4.12765 9.13712 4.12765
4.13560 9.20067 4.13560
4.14382 9.26359 4.14382
4.15226 9.32605 4.15226
4.16084 9.38824 4.16084
4.16950 9.45044 4.16950
4.17811 9.51296 4.17811
4.18652 9.57623 4.18652
4.19457 9.64074 4.19457
4.20203 9.70712 4.20203
4.20861 9.77614 4.20861
4.21398 9.84874 4.21398
4.21775 9.92597 4.21775
4.21952 10.00900 4.21952
4.21894 10.09872 4.21894
4.21707 10.19218 4.21707
4.21457 10.28747 4.21457
4.21144 10.38459 4.21144
4.20766 10.48364 4.20766
4.20317 10.58482 4.20317
4.19786 10.68842 4.19786
4.19159 10.79492 4.19159
4.18410 10.90509 4.18410
4.17501 11.02011 4.17501
4.16364 11.14216 4.16364
4.14858 11.27561 4.14858
4.12600 11.43263 4.12600
4.00000 13.19120 4.00000
4.00000 13.19120 4.00000
4.00000 13.19120 4.00000
4.00000 13.19120 4.00000
4.00000 13.19120 4.00000
4.00000 13.19120 4.00000
4.00000 13.19120 4.00000
4.00000 13.19120 4.00000
4.00000 13.19120 4.00000
4.00000 13.19120 4.00000
4.00000 13.19120 4.00000
4.00000 13.19120 4.00000
4.00000 13.19120 4.00000
4.00000 13.19120 4.00000
4.00001 13.19122 4.00001
4.01007 13.22406 4.01007
4.02227 13.27160 4.02227
4.03307 13.32426 4.03307
4.04228 13.38248 4.04228
4.04975 13.44669 4.04975
4.05531 13.51730 4.05531
4.05881 13.59471 4.05881
4.06105 13.67624 4.06105
4.06322 13.75803 4.06322
4.06533 13.84006 4.06533
4.06739 13.92229 4.06739
4.06939 14.00470 4.06939
4.07136 14.08728 4.07135
4.07328 14.17000 4.07328
4.07517 14.25287 4.07517
4.07702 14.33587 4.07702
4.07885 14.41898 4.07885
4.08064 14.50220 4.08064
4.08242 14.58552 4.08242
4.08417 14.66893 4.08417
4.08590 14.75243 4.08590
4.08761 14.83601 4.08761
4.08930 14.91967 4.08930
4.09098 15.00340 4.09098
4.09264 15.08720 4.09264
4.09414 15.17154 4.09414
4.09536 15.25678 4.09536
4.09631 15.34286 4.09631
4.09702 15.42974 4.09702
4.09749 15.51737 4.09749
4.09774 15.60570 4.09774
4.09779 15.69470 4.09779
4.09765 15.78430 4.09765
4.09733 15.87447 4.09733
4.09685 15.96516 4.09685
4.09622 16.05633 4.09622
4.09545 16.14794 4.09545
4.09456 16.23995 4.09456
4.09356 16.33233 4.09356
4.09246 16.42504 4.09246
4.09128 16.51804 4.09128
4.09001 16.61131 4.09001
4.08867 16.70482 4.08867
4.08727 16.79853 4.08727
4.08582 16.89243 4.08582
4.08432 16.98649 4.08432
4.08279 17.08068 4.08279
4.08123 17.17498 4.08123
4.07964 17.26938 4.07964
4.07803 17.36385 4.07803
4.07641 17.45838 4.07641
4.07479 17.55296 4.07479
4.07316 17.64756 4.07315
4.07152 17.74218 4.07152
4.06990 17.83681 4.06989
4.06827 17.93143 4.06827
4.06666 18.02604 4.06666
4.06506 18.12062 4.06506
4.06348 18.21517 4.06348
4.06191 18.30969 4.06191
4.06036 18.40415 4.06036
4.05883 18.49857 4.05883
4.05732 18.59292 4.05732
4.05584 18.68722 4.05584
4.05437 18.78146 4.05437
4.05294 18.87563 4.05294
4.05153 18.96972 4.05153
4.05014 19.06374 4.05014
4.04879 19.15769 4.04879
4.04746 19.25157 4.04746
4.04615 19.34536 4.04615
4.04488 19.43908 4.04488
4.04363 19.53271 4.04363
4.04241 19.62627 4.04241
4.04122 19.71975 4.04122
4.04005 19.81314 4.04005
4.03891 19.90646 4.03891
4.03780 19.99970 4.03780
4.03672 20.09286 4.03672
4.03566 20.18594 4.03566
4.03463 20.27894 4.03463
4.03363 20.37186 4.03363
4.03265 20.46471 4.03265
4.03169 20.55748 4.03169
4.03077 20.65018 4.03077
4.02986 20.74281 4.02986
4.02898 20.83536 4.02898
4.02812 20.92785 4.02812
4.02729 21.02026 4.02729
4.02648 21.11261 4.02648
4.02569 21.20489 4.02569
4.02492 21.29711 4.02492
4.02418 21.38926 4.02418
4.02345 21.48135 4.02345
4.02275 21.57338 4.02275
4.02206 21.66534 4.02206
4.02140 21.75726 4.02140
4.02075 21.84911 4.02075
4.02012 21.94091 4.02012
4.01951 22.03265 4.01951
4.01892 22.12434 4.01892
4.01835 22.21598 4.01835
4.01779 22.30757 4.01779
4.01725 22.39911 4.01725
4.01672 22.49061 4.01672
4.01621 22.58206 4.01621
4.01571 22.67346 4.01571
4.01523 22.76482 4.01523
4.01476 22.85613 4.01476
4.01431 22.94741 4.01431
4.01387 23.03864 4.01387
4.01344 23.12984 4.01344
4.01303 23.22100 4.01303
4.01263 23.31212 4.01263
4.01224 23.40321 4.01224
4.01186 23.49426 4.01186
4.01149 23.58528 4.01149
4.01114 23.67627 4.01114
4.01079 23.76722 4.01079
4.01046 23.85815 4.01046
4.01014 23.94904 4.01014
4.00982 24.03991 4.00982
4.00952 24.13075 4.00952
4.00922 24.22156 4.00922
4.00894 24.31235 4.00894
4.00866 24.40311 4.00866
4.00839 24.49385 4.00839
4.00813 24.58456 4.00813
4.00787 24.67525 4.00787
4.00763 24.76592 4.00763
4.00739 24.85656 4.00739
4.00716 24.94719 4.00716
4.00694 25.03780 4.00694
4.00672 25.12839 4.00672
4.00651 25.21896 4.00651
4.00631 25.30951 4.00631
4.00611 25.40004 4.00611
4.00592 25.49056 4.00592
4.00573 25.58106 4.00573
4.00555 25.67154 4.00555
4.00538 25.76202 4.00538
4.00521 25.85247 4.00521
4.00505 25.94291 4.00505
4.00489 26.03334 4.00489
4.00474 26.12376 4.00474
4.00459 26.21416 4.00459
4.00445 26.30455 4.00445
4.00431 26.39493 4.00431
4.00417 26.48530 4.00417
4.00404 26.57566 4.00404
4.00391 26.66601 4.00391
4.00379 26.75634 4.00379
4.00367 26.84667 4.00367
4.00356 26.93699 4.00356
4.00344 27.02730 4.00344

Angle 0.172736 0.266798

4.00000 7.03348 4.00000
4.00000 7.03348 4.00000
4.00000 7.03347 4.00000
4.00000 7.03347 4.00000
4.00000 7.03348 4.00000
4.00000 7.03348 4.00000
4.00000 7.03348 4.00000
4.00000 7.03348 4.00000
4.00000 7.03348 4.00000
4.00000 7.03348 4.00000
4.00000 7.03348 4.00000
4.00000 7.03348 4.00000
4.00000 7.03348 4.00000
4.00000 7.03348 4.00000
4.00000 7.03348 4.00000
4.00000 7.03348 4.00000
4.00000 7.03348 4.00000
4.00000 7.03348 4.00000
4.00000 7.03348 4.00000
4.00000 7.03348 4.00000
4.00000 7.03348 4.00000
4.00000 7.03348 4.00000
4.00000 7.03348 4.00000
4.00000 7.03348 4.00000
4.00000 7.03348 4.00000
4.00000 7.03347 4.00000
4.00000 7.03348 4.00000
4.00000 7.03348 4.00000
4.00000 7.03348 4.00000
4.00000 7.03348 4.00000
4.00000 7.03348 4.00000
4.00000 7.03348 4.00000
4.00000 7.03348 4.00000
4.00000 7.03347 4.00000
4.00000 7.03348 4.00000
4.00000 7.03348 4.00000
4.00000 7.03348 4.00000
4.00000 7.03348 4.00000
4.00000 7.03348 4.00000
4.00000 7.03348 4.00000
4.00000 7.03348 4.00000
4.00000 7.03348 4.00000
4.00000 7.03348 4.00000
4.00000 7.03348 4.00000
4.00000 7.03348 4.00000
4.00000 7.03348 4.00000
4.00000 7.03348 4.00000
4.00000 7.03348 4.00000
4.00000 7.03348 4.00000
4.00000 7.03348 4.00000
4.00000 7.03348 4.00000
4.00000 7.03348 4.00000
4.00000 7.03348 4.00000
4.00000 7.03348 4.00000
4.00000 7.03348 4.00000
4.00000 7.03348 4.00000
4.00000 7.03348 4.00000
4.00000 7.03348 4.00000
4.00000 7.03348 4.00000
4.00000 7.03348 4.00000
4.00000 7.03349 4.00000
4.00000 7.03348 4.00000
4.00000 7.03348 4.00000
4.00000 7.03348 4.00000
4.00000 7.03348 4.00000
4.00000 7.03348 4.00000
4.00000 7.03348 4.00000
4.00000 7.03348 4.00000
4.00000 7.03348 4.00000
4.00000 7.03348 4.00000
4.00000 7.03348 4.00000
4.00000 7.03349 4.00000
4.00000 7.03348 4.00000
4.00000 7.03348 4.00000
4.00000 7.03349 4.00000
4.00000 7.03346 4.00000
4.00003 7.03399 4.00003
4.00368 7.10645 4.00368
4.00724 7.17936 4.00725
4.01072 7.25268 4.01072
4.01413 7.32633 4.01413
4.01747 7.40029 4.01748
4.02078 7.47450 4.02078
4.02405 7.54892 4.02405
4.02730 7.62350 4.02730
4.03054 7.69820 4.03054
4.03378 7.77298 4.03378
4.03705 7.84779 4.03705
4.04035 7.92258 4.04035
4.04370 7.99728 4.04370
4.04712 8.07186 4.04712
4.05063 8.14623 4.05063
4.05426 8.22033 4.05426
4.05802 8.29407 4.05802
4.06195 8.36736 4.06195
4.06608 8.44009 4.06608
4.07046 8.51211 4.07046
4.07515 8.58329 4.07515
4.08020 8.65342 4.08020
4.08563 8.72243 4.08563
4.09140 8.79054 4.09140
4.09750 8.85774 4.09750
4.10394 8.92402 4.10394
4.11072 8.98940 4.11072
4.11784 9.05390 4.11784
4.12529 9.11758 4.12529
4.13304 9.18051 4.13304
4.14107 9.24279 4.14107
4.14933 9.30457 4.14933
4.15776 9.36603 4.15776
4.16630 9.42741 4.16629
4.17483 9.48899 4.17483
4.18323 9.55113 4.18323
4.19135 9.61429 4.19135
4.19899 9.67902 4.19899
4.20590 9.74600 4.20590
4.21177 9.81607 4.21177
4.21626 9.89021 4.21626
4.21897 9.96949 4.21897
4.21951 10.05500 4.21951
4.21806 10.14624 4.21806
4.21590 10.23957 4.21590
4.21312 10.33469 4.21312
4.20972 10.43165 4.20972
4.20566 10.53059 4.20566
4.20086 10.63174 4.20086
4.19520 10.73546 4.19520
4.18850 10.84232 4.18850
4.18047 10.95322 4.18047
4.17064 11.06963 4.17064
4.15812 11.19429 4.15812
4.14099 11.33333 4.14099
4.11280 11.50728 4.11280
4.00000 13.19120 4.00000
4.00000 13.19120 4.00000
4.00000 13.19120 4.00000
4.00000 13.19120 4.00000
4.00000 13.19120 4.00000
4.00000 13.19120 4.00000
4.00000 13.19120 4.00000
4.00000 13.19120 4.00000
4.00000 13.19120 4.00000
4.00000 13.19120 4.00000
4.00000 13.19120 4.00000
4.00000 13.19120 4.00000
4.00000 13.19120 4.00000
4.00000 13.19120 4.00000
4.00004 13.19132 4.00004
4.01307 13.23486 4.01307
4.02486 13.28313 4.02486
4.03523 13.33654 4.03523
4.04401 13.39552 4.04401
4.05104 13.46048 4.05104
4.05616 13.53182 4.05615
4.05923 13.60989 4.05923
4.06144 13.69082 4.06144
4.06359 13.77201 4.06359
4.06567 13.85342 4.06567
4.06770 13.93504 4.06770
4.06968 14.01684 4.06968
4.07163 14.09880 4.07163
4.07353 14.18092 4.07353
4.07540 14.26318 4.07540
4.07724 14.34557 4.07723
4.07904 14.42807 4.07904
4.08083 14.51069 4.08083
4.08259 14.59341 4.08258
4.08432 14.67623 4.08432
4.08604 14.75914 4.08604
4.08774 14.84214 4.08774
4.08942 14.92521 4.08942
4.09108 15.00836 4.09108
4.09273 15.09159 4.09273
4.09420 15.17539 4.09420
4.09540 15.26008 4.09540
4.09634 15.34561 4.09634
4.09703 15.43193 4.09703
4.09750 15.51900 4.09750
4.09774 15.60676 4.09774
4.09779 15.69518 4.09779
4.09765 15.78420 4.09765
4.09733 15.87379 4.09733
4.09685 15.96389 4.09686
4.09623 16.05448 4.09623
4.09547 16.14551 4.09547
4.09460 16.23693 4.09460
4.09361 16.32873 4.09361
4.09252 16.42086 4.09252
4.09134 16.51328 4.09134
4.09008 16.60598 4.09008
4.08876 16.69891 4.08876
4.08737 16.79206 4.08737
4.08593 16.88539 4.08593
4.08445 16.97888 4.08445
4.08293 17.07251 4.08293
4.08137 17.16626 4.08137
4.07980 17.26011 4.07980
4.07820 17.35404 4.07820
4.07659 17.44804 4.07659
4.07497 17.54208 4.07497
4.07335 17.63616 4.07335
4.07173 17.73026 4.07173
4.07011 17.82437 4.07011
4.06849 17.91848 4.06849
4.06689 18.01258 4.06689
4.06530 18.10666 4.06530
4.06372 18.20072 4.06372
4.06215 18.29474 4.06215
4.06061 18.38872 4.06061
4.05908 18.48265 4.05908
4.05758 18.57654 4.05758
4.05610 18.67036 4.05610
4.05464 18.76413 4.05464
4.05321 18.85784 4.05321
4.05180 18.95148 4.05180
4.05042 19.04505 4.05042
4.04906 19.13855 4.04906
4.04773 19.23198 4.04773
4.04643 19.32533 4.04643
4.04515 19.41861 4.04515
4.04391 19.51182 4.04391
4.04268 19.60495 4.04268
4.04149 19.69800 4.04149
4.04033 19.79098 4.04033
4.03919 19.88388 4.03919
4.03807 19.97670 4.03808
4.03699 20.06946 4.03699
4.03593 20.16213 4.03593
4.03490 20.25473 4.03490
4.03389 20.34726 4.03389
4.03291 20.43971 4.03291
4.03195 20.53209 4.03195
4.03102 20.62440 4.03102
4.03011 20.71664 4.03011
4.02923 20.80881 4.02923
4.02837 20.90092 4.02837
4.02754 20.99295 4.02753
4.02672 21.08493 4.02672
4.02593 21.17684 4.02593
4.02516 21.26868 4.02516
4.02441 21.36047 4.02441
4.02368 21.45219 4.02368
4.02297 21.54386 4.02297
4.02228 21.63547 4.02228
4.02162 21.72703 4.02162
4.02097 21.81853 4.02097
4.02034 21.90997 4.02033
4.01972 22.00137 4.01972
4.01913 22.09271 4.01912
4.01855 22.18401 4.01855
4.01798 22.27526 4.01798
4.01744 22.36646 4.01744
4.01691 22.45762 4.01691
4.01639 22.54873 4.01639
4.01589 22.63980 4.01589
4.01541 22.73082 4.01541
4.01494 22.82181 4.01494
4.01448 22.91276 4.01448
4.01404 23.00367 4.01404
4.01361 23.09454 4.01361
4.01319 23.18538 4.01319
4.01279 23.27618 4.01279
4.01239 23.36695 4.01239
4.01201 23.45769 4.01201
4.01164 23.54839 4.01164
4.01128 23.63907 4.01128
4.01094 23.72971 4.01094
4.01060 23.82033 4.01060
4.01027 23.91092 4.01027
4.00995 24.00148 4.00995
4.00965 24.09201 4.00965
4.00935 24.18252 4.00935
4.00906 24.27301 4.00906
4.00878 24.36347 4.00878
4.00851 24.45391 4.00851
4.00824 24.54433 4.00824
4.00799 24.63473 4.00799
4.00774 24.72510 4.00774
4.00750 24.81546 4.00750
4.00726 24.90580 4.00726
4.00704 24.99612 4.00704
4.00682 25.08642 4.00682
4.00661 25.17671 4.00661
4.00640 25.26697 4.00640
4.00620 25.35722 4.00620
4.00601 25.44746 4.00601
4.00582 25.53768 4.00582
4.00564 25.62789 4.00564
4.00546 25.71809 4.00546
4.00529 25.80827 4.00529
4.00513 25.89845 4.00513
4.00497 25.98860 4.00497
4.00481 26.07874 4.00481
4.00466 26.16888 4.00466
4.00452 26.25901 4.00452
4.00438 26.34912 4.00438
4.00424 26.43922 4.00424
4.00411 26.52931 4.00411
4.00398 26.61940 4.00398
4.00385 26.70948 4.00385
4.00373 26.79955 4.00373
4.00362 26.88961 4.00362
4.00350 26.97966 4.00350
4.00339 27.06971 4.00339
4.00328 27.15976 4.00328
4.00318 27.24978 4.00318
4.00308 27.33981 4.00308
4.00299 27.42983 4.00298
4.00289 27.51984 4.00289
4.00280 27.60986 4.00280
4.00271 27.69986 4.00271
4.00263 27.78986 4.00263
4.00255 27.87985 4.00255
4.00247 27.96985 4.00247
4.00239 28.05983 4.00239
4.00231 28.14982 4.00231
4.00224 28.23979 4.00224
4.00217 28.32977 4.00217
4.00210 28.41974 4.00210
4.00204 28.50971 4.00204
4.00197 28.59968 4.00197
4.00191 28.68964 4.00191
4.00185 28.77961 4.00185
4.00179 28.86957 4.00179
4.00173 28.95952 4.00174
4.00168 29.04948 4.00168
4.00163 29.13943 4.00163
4.00157 29.22938 4.00158
4.00153 29.31933 4.00153
4.00148 29.40928 4.00148
4.00143 29.49923 4.00143
4.00139 29.58918 4.00139
4.00134 29.67912 4.00134
4.00130 29.76907 4.00130
4.00126 29.85901 4.00126
4.00122 29.94895 4.00122
4.00118 30.03889 4.00118
4.00115 30.12884 4.00115
4.00111 30.21878 4.00111
4.00107 30.30872 4.00107
4.00104 30.39866 4.00104
4.00101 30.48859 4.00101
4.00098 30.57855 4.00098
4.00095 30.66849 4.00095
4.00092 30.75843 4.00091
4.00089 30.84837 4.00089
4.00086 30.93831 4.00086
4.00083 31.02826 4.00083
4.00081 31.11820 4.00080
4.00078 31.20814 4.00078
4.00076 31.29809 4.00076
4.00073 31.38804 4.00073
4.00071 31.47798 4.00071
4.00069 31.56793 4.00069
4.00066 31.65788 4.00066
4.00064 31.74782 4.00064
4.00062 31.83777 4.00062
4.00060 31.92772 4.00060
4.00058 32.01768 4.00058
4.00057 32.10763 4.00057
4.00055 32.19758 4.00055
4.00053 32.28754 4.00053
4.00052 32.37749 4.00051
4.00050 32.46745 4.00050
4.00048 32.55741 4.00048
4.00047 32.64737 4.00046
4.00045 32.73734 4.00045
4.00044 32.82730 4.00043
4.00043 32.91727 4.00042
4.00041 33.00722 4.00041
4.00040 33.09718 4.00041
4.00039 33.18716 4.00039
4.00037 33.27713 4.00038
4.00036 33.36710 4.00037
4.00035 33.45707 4.00035
4.00034 33.54705 4.00034
4.00033 33.63703 4.00033
4.00032 33.72701 4.00032
4.00031 33.81699 4.00031
4.00030 33.90697 4.00030
4.00029 33.99695 4.00029
4.00028 34.08694 4.00028
4.00027 34.17692 4.00027
4.00026 34.26691 4.00026
4.00025 34.35690 4.00026
4.00025 34.44690 4.00025
4.00024 34.53689 4.00024
4.00023 34.62688 4.00023
4.00022 34.71688 4.00023
4.00022 34.80688 4.00022
4.00021 34.89688 4.00021
4.00020 34.98689 4.00020
4.00020 35.07689 4.00020
4.00019 35.16690 4.00019
4.00019 35.25691 4.00019
4.00018 35.34692 4.00018
4.00017 35.43693 4.00017
4.00017 35.52694 4.00017
4.00016 35.61696 4.00016
4.00016 35.70698 4.00016

Angle 0.571838 1.808353

4.00000 7.03348 4.00000
4.00000 7.03348 4.00000
4.00000 7.03349 4.00000
4.00000 7.03348 4.00000
4.00000 7.03348 4.00000
4.00000 7.03348 4.00000
4.00000 7.03348 4.00000
4.00000 7.03348 4.00000
4.00000 7.03348 4.00000
4.00000 7.03348 4.00000
4.00000 7.03348 4.00000
4.00000 7.03348 4.00000
4.00000 7.03348 4.00000
4.00000 7.03348 4.00000
4.00000 7.03347 4.00000
4.00000 7.03348 4.00000
4.00000 7.03348 4.00000
4.00000 7.03348 4.00000
4.00000 7.03348 4.00000
4.00000 7.03348 4.00000
4.00000 7.03348 4.00000
4.00000 7.03348 4.00000
4.00000 7.03348 4.00000
4.00000 7.03348 4.00000
4.00000 7.03348 4.00000
4.00000 7.03348 4.00000
4.00000 7.03348 4.00000
4.00000 7.03348 4.00000
4.00000 7.03348 4.00000
4.00000 7.03348 4.00000
4.00000 7.03348 4.00000
4.00000 7.03348 4.00000
4.00000 7.03348 4.00000
4.00000 7.03348 4.00000
4.00000 7.03348 4.00000
4.00000 7.03348 4.00000
4.00000 7.03348 4.00000
4.00000 7.03348 4.00000
4.00000 7.03348 4.00000
4.00000 7.03348 4.00000
4.00000 7.03348 4.00000
4.00000 7.03348 4.00000
4.00000 7.03348 4.00000
4.00000 7.03348 4.00000
4.00000 7.03348 4.00000
4.00000 7.03348 4.00000
4.00000 7.03347 4.00000
4.00000 7.03348 4.00000
4.00000 7.03348 4.00000
4.00000 7.03348 4.00000
4.00000 7.03348 4.00000
4.00000 7.03348 4.00000
4.00000 7.03348 4.00000
4.00000 7.03347 4.00000
4.00000 7.03348 4.00000
4.00000 7.03348 4.00000
4.00000 7.03348 4.00000
4.00000 7.03348 4.00000
4.00000 7.03348 4.00000
4.00000 7.03348 4.00000
4.00000 7.03348 4.00000
4.00000 7.03348 4.00000
4.00000 7.03348 4.00000
4.00000 7.03348 4.00000
4.00000 7.03348 4.00000
4.00000 7.03348 4.00000
4.00000 7.03348 4.00000
4.00000 7.03348 4.00000
4.00000 7.03348 4.00000
4.00000 7.03348 4.00000
4.00000 7.03348 4.00000
4.00000 7.03348 4.00000
4.00000 7.03348 4.00000
4.00000 7.03348 4.00000
4.00000 7.03348 4.00000
4.00000 7.03348 4.00000
4.00000 7.03348 4.00000
4.00000 7.03348 4.00000
4.00000 7.03348 4.00000
4.00000 7.03348 4.00000
4.00000 7.03348 4.00000
4.00000 7.03348 4.00000
4.00000 7.03348 4.00000
4.00000 7.03347 4.00000
4.00000 7.03347 4.00000
4.00000 7.03348 4.00000
4.00000 7.03348 4.00000
4.00000 7.03349 4.00000
4.00000 7.03348 4.00000
4.00000 7.03348 4.00000
4.00000 7.03348 4.00000
4.00000 7.03348 4.00000
4.00000 7.03348 4.00000
4.00000 7.03348 4.00000
4.00000 7.03348 4.00000
4.00000 7.03348 4.00000
4.00000 7.03347 4.00000
4.00000 7.03348 4.00000
4.00000 7.03348 4.00000
4.00000 7.03348 4.00000
4.00000 7.03348 4.00000
4.00000 7.03348 4.00000
4.00000 7.03348 4.00000
4.00000 7.03349 4.00000
4.00000 7.03348 4.00000
4.00000 7.03348 4.00000
4.00000 7.03348 4.00000
4.00000 7.03350 4.00000
4.00000 7.03348 4.00000
4.00000 7.03348 4.00000
4.00000 7.03348 4.00000
4.00000 7.03348 4.00000
4.00000 7.03350 4.00000
4.00000 7.03349 4.00000
4.00000 7.03349 4.00000
4.00041 7.04156 4.00041
4.00316 7.09580 4.00315
4.00585 7.15053 4.00585
4.00850 7.20572 4.00850
4.01112 7.26134 4.01112
4.01372 7.31737 4.01372
4.01628 7.37380 4.01628
4.01883 7.43059 4.01883
4.02136 7.48774 4.02136
4.02388 7.54521 4.02388
4.02641 7.60298 4.02640
4.02892 7.66104 4.02892
4.03145 7.71936 4.03145
4.03400 7.77790 4.03400
4.03656 7.83666 4.03656
4.03915 7.89559 4.03915
4.04178 7.95468 4.04178
4.04446 8.01388 4.04446
4.04719 8.07317 4.04718
4.04998 8.13252 4.04998
4.05285 8.19187 4.05285
4.05581 8.25118 4.05581
4.05887 8.31041 4.05887
4.06206 8.36949 4.06206
4.06540 8.42836 4.06540
4.06890 8.48694 4.06890
4.07259 8.54516 4.07259
4.07651 8.60290 4.07651
4.08070 8.66005 4.08070
4.08516 8.71660 4.08516
4.08985 8.77269 4.08985
4.09477 8.82829 4.09477
4.09994 8.88341 4.09994
4.10535 8.93802 4.10535
4.11101 8.99214 4.11101
4.11692 9.04578 4.11692
4.12307 9.09896 4.12307
4.12944 9.15171 4.12944
4.13604 9.20409 4.13604
4.14283 9.25617 4.14283
4.14980 9.30802 4.14980
4.15689 9.35976 4.15689
4.16408 9.41152 4.16408
4.17131 9.46346 4.17131
4.17849 9.51580 4.17849
4.18555 9.56877 4.18555
4.19239 9.62268 4.19239
4.19886 9.67788 4.19886
4.20483 9.73481 4.20483
4.21008 9.79398 4.21008
4.21442 9.85599 4.21442
4.21759 9.92154 4.21759
4.21934 9.99131 4.21934
4.21942 10.06599 4.21942
4.21809 10.14483 4.21809
4.21627 10.22526 4.21627
4.21398 10.30716 4.21398
4.21123 10.39055 4.21123
4.20800 10.47549 4.20800
4.20423 10.56213 4.20423
4.19988 10.65063 4.19988
4.19486 10.74128 4.19486
4.18902 10.83448 4.18902
4.18219 10.93081 4.18219
4.17406 11.03121 4.17406
4.16414 11.13720 4.16414
4.15152 11.25167 4.15152
4.13409 11.38127 4.13409
4.10438 11.54992 4.10438
4.00000 13.19120 4.00000
4.00000 13.19120 4.00000
4.00000 13.19120 4.00000
4.00000 13.19120 4.00000
4.00000 13.19120 4.00000
4.00000 13.19120 4.00000
4.00000 13.19120 4.00000
4.00000 13.19120 4.00000
4.00000 13.19120 4.00000
4.00000 13.19120 4.00000
4.00000 13.19121 4.00000
4.00000 13.19120 4.00000
4.00000 13.19119 4.00000
4.00000 13.19120 4.00000
4.00000 13.19120 4.00000
4.00000 13.19121 4.00000
4.00414 13.20414 4.00414
4.01558 13.24431 4.01558
4.02600 13.28839 4.02600
4.03526 13.33671 4.03526
4.04324 13.38960 4.04324
4.04982 13.44737 4.04982
4.05487 13.51033 4.05487
4.05828 13.57878 4.05828
4.06038 13.65162 4.06038
4.06235 13.72498 4.06235
4.06428 13.79861 4.06427
4.06615 13.87249 4.06615
4.06798 13.94659 4.06798
4.06978 14.02091 4.06978
4.07155 14.09543 4.07155
4.07328 14.17014 4.07328
4.07499 14.24503 4.07499
4.07667 14.32008 4.07667
4.07833 14.39531 4.07833
4.07997 14.47069 4.07997
4.08158 14.54621 4.08158
4.08319 14.62188 4.08318
4.08477 14.69769 4.08477
4.08634 14.77364 4.08634
4.08789 14.84971 4.08789
4.08943 14.92590 4.08943
4.09096 15.00222 4.09096
4.09247 15.07865 4.09247
4.09388 15.15551 4.09388
4.09505 15.23319 4.09505
4.09600 15.31164 4.09600
4.09673 15.39084 4.09673
4.09727 15.47074 4.09727
4.09761 15.55131 4.09761
4.09778 15.63252 4.09778
4.09777 15.71432 4.09777
4.09761 15.79669 4.09761
4.09730 15.87959 4.09731
4.09686 15.96298 4.09686
4.09629 16.04684 4.09629
4.09560 16.13112 4.09560
4.09481 16.21581 4.09481
4.09392 16.30088 4.09392
4.09294 16.38629 4.09294
4.09187 16.47202 4.09187
4.09074 16.55805 4.09074
4.08954 16.64434 4.08954
4.08829 16.73088 4.08829
4.08698 16.81764 4.08698
4.08563 16.90461 4.08563
4.08424 16.99176 4.08424
4.08282 17.07908 4.08282
4.08137 17.16655 4.08137
4.07990 17.25415 4.07990
4.07841 17.34187 4.07841
4.07691 17.42969 4.07691
4.07540 17.51760 4.07540
4.07388 17.60560 4.07388
4.07236 17.69365 4.07236
4.07084 17.78177 4.07084
4.06932 17.86993 4.06933
4.06782 17.95813 4.06782
4.06632 18.04636 4.06632
4.06482 18.13462 4.06482
4.06335 18.22289 4.06335
4.06188 18.31117 4.06188
4.06043 18.39946 4.06043
4.05900 18.48774 4.05900
4.05759 18.57602 4.05759
4.05619 18.66429 4.05619
4.05482 18.75255 4.05482
4.05347 18.84079 4.05347
4.05214 18.92901 4.05213
4.05083 19.01720 4.05083
4.04954 19.10538 4.04954
4.04828 19.19352 4.04828
4.04703 19.28164 4.04703
4.04582 19.36973 4.04582
4.04463 19.45779 4.04463
4.04346 19.54582 4.04346
4.04231 19.63381 4.04231
4.04119 19.72177 4.04119
4.04009 19.80969 4.04009
4.03902 19.89759 4.03902
4.03797 19.98544 4.03797
4.03694 20.07327 4.03694
4.03594 20.16106 4.03594
4.03496 20.24881 4.03496
4.03401 20.33653 4.03400
4.03307 20.42422 4.03307
4.03216 20.51187 4.03216
4.03127 20.59949 4.03127
4.03040 20.68707 4.03040
4.02956 20.77463 4.02956
4.02873 20.86215 4.02873
4.02793 20.94965 4.02793
4.02714 21.03712 4.02714
4.02638 21.12455 4.02638
4.02563 21.21196 4.02563
4.02491 21.29934 4.02491
4.02420 21.38670 4.02420
4.02351 21.47403 4.02351
4.02284 21.56133 4.02284
4.02219 21.64861 4.02219
4.02155 21.73587 4.02155
4.02094 21.82310 4.02093
4.02033 21.91032 4.02033
4.01975 21.99751 4.01975
4.01918 22.08469 4.01918
4.01862 22.17184 4.01862
4.01808 22.25898 4.01808
4.01756 22.34610 4.01756
4.01705 22.43320 4.01705
4.01655 22.52029 4.01655
4.01607 22.60736 4.01607
4.01560 22.69442 4.01560
4.01515 22.78147 4.01515
4.01470 22.86851 4.01470
4.01427 22.95553 4.01427
4.01385 23.04254 4.01385
4.01345 23.12955 4.01345
4.01305 23.21655 4.01305
4.01267 23.30353 4.01267
4.01229 23.39051 4.01229
4.01193 23.47747 4.01193
4.01158 23.56444 4.01158
4.01124 23.65140 4.01123
4.01090 23.73835 4.01090
4.01058 23.82530 4.01058
4.01027 23.91225 4.01027
4.00996 23.99919 4.00996
4.00967 24.08613 4.00967
4.00938 24.17306 4.00938
4.00910 24.26000 4.00910
4.00883 24.34693 4.00883
4.00857 24.43387 4.00856
4.00831 24.52080 4.00831
4.00806 24.60773 4.00806
4.00782 24.69467 4.00782
4.00759 24.78161 4.00759
4.00736 24.86854 4.00736
4.00714 24.95548 4.00714
4.00693 25.04243 4.00693
4.00672 25.12937 4.00672
4.00652 25.21632 4.00652
4.00632 25.30328 4.00632
4.00613 25.39023 4.00613
4.00595 25.47719 4.00595
4.00577 25.56416 4.00577
4.00559 25.65113 4.00559
4.00543 25.73811 4.00543
4.00526 25.82510 4.00526
4.00510 25.91209 4.00510
4.00495 25.99908 4.00495
4.00480 26.08609 4.00480
4.00466 26.17310 4.00466
4.00452 26.26011 4.00452
4.00438 26.34714 4.00438
4.00425 26.43417 4.00425
4.00412 26.52121 4.00412
4.00399 26.60826 4.00399
4.00387 26.69532 4.00387
4.00376 26.78238 4.00376
4.00364 26.86946 4.00364
4.00353 26.95654 4.00353
4.00342 27.04363 4.00342
4.00332 27.13074 4.00332
4.00322 27.21785 4.00322
4.00312 27.30497 4.00312
4.00303 27.39210 4.00303
4.00294 27.47924 4.00294
4.00285 27.56639 4.00285
4.00276 27.65354 4.00276
4.00268 27.74073 4.00268
4.00259 27.82791 4.00259
4.00252 27.91510 4.00252
4.00244 28.00230 4.00244
4.00236 28.08952 4.00236
4.00229 28.17674 4.00229
4.00222 28.26398 4.00222
4.00215 28.35122 4.00216
4.00209 28.43848 4.00209
4.00203 28.52575 4.00203
4.00196 28.61303 4.00196
4.00190 28.70031 4.00191
4.00185 28.78761 4.00185
4.00179 28.87494 4.00179
4.00174 28.96227 4.00173
4.00168 29.04960 4.00168
4.00163 29.13695 4.00163
4.00158 29.22431 4.00158
4.00153 29.31168 4.00153
4.00148 29.39906 4.00149
4.00144 29.48646 4.00144
4.00140 29.57385 4.00140
4.00135 29.66128 4.00135
4.00131 29.74871 4.00131
4.00127 29.83615 4.00127
4.00123 29.92360 4.00123
4.00120 30.01107 4.00119

Angle 0.650524 5.585170

4.00000 7.03348 4.00000
4.00000 7.03348 4.00000
4.00000 7.03348 4.00000
4.00000 7.03348 4.00000
4.00000 7.03348 4.00000
4.00000 7.03348 4.00000
4.00000 7.03348 4.00000
4.00000 7.03348 4.00000
4.00000 7.03348 4.00000
4.00000 7.03348 4.00000
4.00000 7.03348 4.00000
4.00000 7.03348 4.00000
4.00000 7.03348 4.00000
4.00000 7.03348 4.00000
4.00000 7.03348 4.00000
4.00000 7.03348 4.00000
4.00000 7.03348 4.00000
4.00000 7.03348 4.00000
4.00000 7.03348 4.00000
4.00000 7.03348 4.00000
4.00000 7.03348 4.00000
4.00000 7.03348 4.00000
4.00000 7.03348 4.00000
4.00000 7.03348 4.00000
4.00000 7.03348 4.00000
4.00000 7.03348 4.00000
4.00000 7.03348 4.00000
4.00000 7.03348 4.00000
4.00000 7.03349 4.00000
4.00000 7.03348 4.00000
4.00000 7.03348 4.00000
4.00000 7.03348 4.00000
4.00000 7.03348 4.00000
4.00000 7.03348 4.00000
4.00000 7.03348 4.00000
4.00000 7.03348 4.00000
4.00000 7.03348 4.00000
4.00000 7.03348 4.00000
4.00000 7.03347 4.00000
4.00000 7.03347 4.00000
4.00000 7.03348 4.00000
4.00000 7.03348 4.00000
4.00000 7.03348 4.00000
4.00000 7.03348 4.00000
4.00000 7.03348 4.00000
4.00000 7.03348 4.00000
4.00000 7.03348 4.00000
4.00000 7.03348 4.00000
4.00000 7.03348 4.00000
4.00000 7.03348 4.00000
4.00000 7.03348 4.00000
4.00000 7.03348 4.00000
4.00000 7.03348 4.00000
4.00000 7.03348 4.00000
4.00000 7.03348 4.00000
4.00000 7.03348 4.00000
4.00000 7.03348 4.00000
4.00000 7.03348 4.00000
4.00000 7.03349 4.00000
4.00000 7.03348 4.00000
4.00000 7.03348 4.00000
4.00000 7.03348 4.00000
4.00000 7.03347 4.00000
4.00000 7.03348 4.00000
4.00000 7.03348 4.00000
4.00000 7.03348 4.00000
4.00000 7.03348 4.00000
4.00000 7.03348 4.00000
4.00000 7.03348 4.00000
4.00000 7.03348 4.00000
4.00000 7.03348 4.00000
4.00000 7.03347 4.00000
4.00000 7.03348 4.00000
4.00000 7.03348 4.00000
4.00000 7.03348 4.00000
4.00000 7.03348 4.00000
4.00000 7.03348 4.00000
4.00000 7.03348 4.00000
4.00000 7.03348 4.00000
4.00000 7.03348 4.00000
4.00000 7.03348 4.00000
4.00000 7.03348 4.00000
4.00000 7.03348 4.00000
4.00000 7.03348 4.00000
4.00000 7.03349 4.00000
4.00000 7.03348 4.00000
4.00000 7.03348 4.00000
4.00000 7.03348 4.00000
4.00000 7.03348 4.00000
4.00000 7.03348 4.00000
4.00000 7.03348 4.00000
4.00000 7.03348 4.00000
4.00000 7.03348 4.00000
4.00000 7.03348 4.00000
4.00000 7.03348 4.00000
4.00000 7.03348 4.00000
4.00000 7.03348 4.00000
4.00000 7.03348 4.00000
4.00000 7.03348 4.00000
4.00000 7.03348 4.00000
4.00000 7.03348 4.00000
4.00000 7.03348 4.00000
4.00000 7.03348 4.00000
4.00000 7.03348 4.00000
4.00000 7.03349 4.00000
4.00000 7.03348 4.00000
4.00000 7.03349 4.00000
4.00000 7.03349 4.00000
4.00000 7.03348 4.00000
4.00000 7.03349 4.00000
4.00000 7.03348 4.00000
4.00000 7.03348 4.00000
4.00000 7.03348 4.00000
4.00000 7.03348 4.00000
4.00000 7.03348 4.00000
4.00000 7.03348 4.00000
4.00000 7.03348 4.00000
4.00000 7.03347 4.00000
4.00000 7.03346 4.00000
4.00000 7.03348 4.00000
4.00000 7.03348 4.00000
4.00000 7.03348 4.00000
4.00000 7.03348 4.00000
4.00000 7.03348 4.00000
4.00000 7.03347 4.00000
4.00238 7.08039 4.00238
4.00610 7.15564 4.00609
4.00971 7.23128 4.00972
4.01325 7.30727 4.01325
4.01672 7.38356 4.01672
4.02014 7.46009 4.02014
4.02352 7.53683 4.02352
4.02687 7.61372 4.02687
4.03021 7.69071 4.03021
4.03356 7.76775 4.03356
4.03692 7.84480 4.03692
4.04032 7.92179 4.04031
4.04377 7.99868 4.04377
4.04729 8.07538 4.04729
4.05091 8.15185 4.05091
4.05464 8.22800 4.05464
4.05852 8.30373 4.05852
4.06259 8.37895 4.06259
4.06687 8.45352 4.06687
4.07143 8.52730 4.07143
4.07632 8.60012 4.07632
4.08160 8.67176 4.08160
4.08727 8.74229 4.08727
4.09328 8.81184 4.09328
4.09965 8.88041 4.09965
4.10637 8.94800 4.10637
4.11345 9.01462 4.11345
4.12088 9.08033 4.12088
4.12864 9.14519 4.12864
4.13671 9.20929 4.13671
4.14504 9.27276 4.14504
4.15359 9.33577 4.15359
4.16228 9.39855 4.16228
4.17102 9.46137 4.17102
4.17968 9.52459 4.17968
4.18812 9.58864 4.18812
4.19615 9.65407 4.19615
4.20351 9.72155 4.20351
4.20992 9.79189 4.20992
4.21501 9.86610 4.21501
4.21837 9.94529 4.21837
4.21960 10.03063 4.21960
4.21852 10.12256 4.21852
4.21647 10.21730 4.21647
4.21378 10.31389 4.21378
4.21044 10.41236 4.21044
4.20643 10.51283 4.20643
4.20167 10.61551 4.20167
4.19605 10.72078 4.19605
4.18937 10.82920 4.18937
4.18136 10.94164 4.18136
4.17155 11.05958 4.17155
4.15906 11.18574 4.15906
4.14197 11.32618 4.14197
4.11399 11.50098 4.11398
4.00000 13.19120 4.00000
4.00000 13.19120 4.00000
4.00000 13.19120 4.00000
4.00000 13.19120 4.00000
4.00000 13.19120 4.00000
4.00000 13.19120 4.00000
4.00000 13.19120 4.00000
4.00000 13.19120 4.00000
4.00000 13.19120 4.00000
4.00000 13.19120 4.00000
4.00000 13.19120 4.00000
4.00000 13.19120 4.00000
4.00000 13.19120 4.00000
4.00000 13.19120 4.00000
4.00296 13.20037 4.00296
4.01593 13.24563 4.01593
4.02756 13.29584 4.02756
4.03769 13.35145 4.03769
4.04614 13.41289 4.04614
4.05273 13.48061 4.05273
4.05732 13.55500 4.05732
4.05995 13.63580 4.05995
4.06217 13.71798 4.06217
4.06432 13.80039 4.06432
4.06641 13.88302 4.06641
4.06845 13.96584 4.06845
4.07045 14.04883 4.07045
4.07240 14.13197 4.07240
4.07431 14.21526 4.07431
4.07619 14.29867 4.07619
4.07804 14.38220 4.07804
4.07986 14.46585 4.07986
4.08166 14.54959 4.08166
4.08343 14.63343 4.08343
4.08518 14.71735 4.08518
4.08690 14.80136 4.08690
4.08861 14.88544 4.08861
4.09031 14.96959 4.09031
4.09198 15.05381 4.09198
4.09358 15.13827 4.09358
4.09492 15.22361 4.09492
4.09598 15.30981 4.09598
4.09678 15.39684 4.09678
4.09734 15.48464 4.09734
4.09767 15.57317 4.09767
4.09780 15.66237 4.09780
4.09772 15.75220 4.09772
4.09746 15.84262 4.09746
4.09703 15.93358 4.09703
4.09645 16.02503 4.09645
4.09573 16.11693 4.09573
4.09487 16.20926 4.09487
4.09390 16.30196 4.09391
4.09283 16.39500 4.09283
4.09166 16.48834 4.09166
4.09041 16.58197 4.09041
4.08909 16.67583 4.08909
4.08770 16.76991 4.08770
4.08626 16.86418 4.08626
4.08477 16.95861 4.08477
4.08324 17.05318 4.08324
4.08168 17.14787 4.08168
4.08009 17.24266 4.08009
4.07848 17.33752 4.07848
4.07686 17.43245 4.07686
4.07523 17.52742 4.07523
4.07359 17.62242 4.07359
4.07195 17.71744 4.07195
4.07031 17.81246 4.07031
4.06868 17.90748 4.06868
4.06706 18.00248 4.06706
4.06545 18.09745 4.06545
4.06386 18.19240 4.06386
4.06228 18.28730 4.06228
4.06072 18.38216 4.06072
4.05918 18.47696 4.05918
4.05766 18.57170 4.05766
4.05616 18.66638 4.05616
4.05469 18.76100 4.05469
4.05324 18.85555 4.05324
4.05182 18.95002 4.05182
4.05043 19.04441 4.05043
4.04906 19.13874 4.04906
4.04772 19.23298 4.04772
4.04640 19.32714 4.04640
4.04512 19.42121 4.04512
4.04386 19.51521 4.04386
4.04263 19.60912 4.04263
4.04143 19.70295 4.04143
4.04025 19.79670 4.04025
4.03911 19.89036 4.03911
4.03799 19.98395 4.03799
4.03690 20.07745 4.03690
4.03583 20.17086 4.03583
4.03479 20.26420 4.03479
4.03378 20.35746 4.03378
4.03279 20.45064 4.03279
4.03183 20.54374 4.03183
4.03090 20.63676 4.03090
4.02999 20.72971 4.02999
4.02910 20.82258 4.02910
4.02824 20.91538 4.02824
4.02740 21.00811 4.02740
4.02658 21.10077 4.02658
4.02579 21.19336 4.02579
4.02502 21.28588 4.02502
4.02427 21.37834 4.02427
4.02354 21.47073 4.02354
4.02283 21.56305 4.02283
4.02214 21.65532 4.02214
4.02147 21.74752 4.02147
4.02082 21.83966 4.02082
4.02019 21.93175 4.02019
4.01957 22.02378 4.01957
4.01898 22.11576 4.01898
4.01840 22.20768 4.01840
4.01784 22.29955 4.01784
4.01729 22.39137 4.01729
4.01676 22.48314 4.01676
4.01625 22.57486 4.01625
4.01575 22.66653 4.01575
4.01527 22.75816 4.01527
4.01480 22.84975 4.01480
4.01434 22.94129 4.01434
4.01390 23.03279 4.01390
4.01347 23.12424 4.01347
4.01305 23.21566 4.01305
4.01265 23.30704 4.01265
4.01226 23.39839 4.01226
4.01188 23.48969 4.01188
4.01151 23.58096 4.01151
4.01116 23.67220 4.01116
4.01081 23.76340 4.01081
4.01047 23.85458 4.01047
4.01015 23.94572 4.01015
4.00983 24.03683 4.00983
4.00953 24.12791 4.00953
4.00923 24.21896 4.00923
4.00894 24.30999 4.00894
4.00866 24.40099 4.00866
4.00839 24.49196 4.00839
4.00813 24.58290 4.00813
4.00788 24.67383 4.00788
4.00763 24.76473 4.00763
4.00739 24.85561 4.00739
4.00716 24.94646 4.00716
4.00694 25.03730 4.00694
4.00672 25.12811 4.00672
4.00651 25.21890 4.00651
4.00631 25.30968 4.00631
4.00611 25.40043 4.00611
4.00592 25.49117 4.00592
4.00573 25.58189 4.00573
4.00555 25.67259 4.00555
4.00538 25.76328 4.00538
4.00521 25.85395 4.00521
4.00505 25.94461 4.00505
4.00489 26.03525 4.00489
4.00473 26.12588 4.00473
4.00459 26.21649 4.00459
4.00444 26.30709 4.00444
4.00430 26.39768 4.00430
4.00417 26.48825 4.00417
4.00404 26.57882 4.00404
4.00391 26.66937 4.00391
4.00379 26.75991 4.00379
4.00367 26.85044 4.00367
4.00355 26.94096 4.00355
4.00344 27.03147 4.00344
4.00333 27.12197 4.00333
4.00323 27.21246 4.00323
4.00312 27.30294 4.00313
4.00302 27.39342 4.00303
4.00293 27.48388 4.00293
4.00284 27.57434 4.00284
4.00275 27.66479 4.00275
4.00266 27.75523 4.00266
4.00258 27.84566 4.00258
4.00250 27.93609 4.00250
4.00242 28.02651 4.00242
4.00234 28.11693 4.00234
4.00227 28.20734 4.00227
4.00220 28.29774 4.00220
4.00213 28.38814 4.00213
4.00206 28.47853 4.00206
4.00199 28.56892 4.00199
4.00193 28.65930 4.00193
4.00187 28.74968 4.00187
4.00181 28.84006 4.00181
4.00175 28.93042 4.00175
4.00170 29.02079 4.00170
4.00164 29.11115 4.00165
4.00159 29.20151 4.00159
4.00154 29.29186 4.00154
4.00149 29.38221 4.00149
4.00145 29.47256 4.00145
4.00140 29.56290 4.00140
4.00136 29.65324 4.00136
4.00131 29.74358 4.00131
4.00127 29.83391 4.00127
4.00123 29.92424 4.00123
4.00119 30.01457 4.00119
4.00115 30.10490 4.00116
4.00112 30.19522 4.00112
4.00108 30.28555 4.00108
4.00105 30.37587 4.00105
4.00102 30.46619 4.00102
4.00098 30.55650 4.00098
4.00095 30.64682 4.00095
4.00092 30.73713 4.00092
4.00089 30.82744 4.00089
4.00086 30.91775 4.00087
4.00084 31.00806 4.00084
4.00081 31.09837 4.00081
4.00078 31.18868 4.00079
4.00076 31.27898 4.00076
4.00074 31.36929 4.00074
4.00071 31.45959 4.00071
4.00069 31.54989 4.00069
4.00067 31.64019 4.00067

Angle 0.182585 3.649448

4.00000 7.03348 4.00000
4.00000 7.03349 4.00000
4.00000 7.03348 4.00000
4.00000 7.03348 4.00000
4.00000 7.03348 4.00000
4.00000 7.03348 4.00000
4.00000 7.03348 4.00000
4.00000 7.03348 4.00000
4.00000 7.03348 4.00000
4.00000 7.03348 4.00000
4.00000 7.03348 4.00000
4.00000 7.03348 4.00000
4.00000 7.03348 4.00000
4.00000 7.03348 4.00000
4.00000 7.03347 4.00000
4.00000 7.03348 4.00000
4.00000 7.03349 4.00000
4.00000 7.03348 4.00000
4.00000 7.03348 4.00000
4.00000 7.03349 4.00000
4.00000 7.03348 4.00000
4.00000 7.03347 4.00000
4.00000 7.03349 4.00000
4.00000 7.03347 4.00000
4.00000 7.03348 4.00000
4.00000 7.03348 4.00000
4.00000 7.03348 4.00000
4.00000 7.03348 4.00000
4.00000 7.03348 4.00000
4.00000 7.03347 4.00000
4.00000 7.03348 4.00000
4.00000 7.03349 4.00000
4.00000 7.03347 4.00000
4.00000 7.03351 4.00000
4.00000 7.03348 4.00000
4.00000 7.03344 4.00000
4.00000 7.03348 4.00000
4.00000 7.03348 4.00000
4.00000 7.03348 4.00000
4.00000 7.03348 4.00000
4.00000 7.03348 4.00000
4.00000 7.03347 4.00000
4.00000 7.03348 4.00000
4.00000 7.03347 4.00000
4.00000 7.03348 4.00000
4.00000 7.03348 4.00000
4.00000 7.03348 4.00000
4.00000 7.03348 4.00000
4.00000 7.03348 4.00000
4.00000 7.03348 4.00000
4.00000 7.03348 4.00000
4.00000 7.03348 4.00000
4.00000 7.03348 4.00000
4.00000 7.03348 4.00000
4.00000 7.03346 4.00000
4.00000 7.03348 4.00000
4.00000 7.03348 4.00000
4.00000 7.03348 4.00000
4.00000 7.03348 4.00000
4.00000 7.03348 4.00000
4.00000 7.03347 4.00000
4.00000 7.03348 4.00000
4.00000 7.03348 4.00000
4.00000 7.03348 4.00000
4.00000 7.03348 4.00000
4.00000 7.03348 4.00000
4.00000 7.03348 4.00000
4.00000 7.03348 4.00000
4.00000 7.03348 4.00000
4.00000 7.03348 4.00000
4.00000 7.03348 4.00000
4.00000 7.03348 4.00000
4.00000 7.03348 4.00000
4.00000 7.03348 4.00000
4.00000 7.03348 4.00000
4.00000 7.03348 4.00000
4.00000 7.03348 4.00000
4.00000 7.03348 4.00000
4.00000 7.03348 4.00000
4.00000 7.03348 4.00000
4.00000 7.03348 4.00000
4.00000 7.03348 4.00000
4.00000 7.03348 4.00000
4.00000 7.03348 4.00000
4.00000 7.03348 4.00000
4.00000 7.03348 4.00000
4.00000 7.03348 4.00000
4.00000 7.03348 4.00000
4.00000 7.03348 4.00000
4.00000 7.03348 4.00000
4.00000 7.03348 4.00000
4.00000 7.03348 4.00000
4.00000 7.03348 4.00000
4.00000 7.03348 4.00000
4.00000 7.03348 4.00000
4.00000 7.03348 4.00000
4.00000 7.03348 4.00000
4.00000 7.03348 4.00000
4.00000 7.03348 4.00000
4.00000 7.03348 4.00000
4.00000 7.03348 4.00000
4.00000 7.03348 4.00000
4.00000 7.03348 4.00000
4.00000 7.03348 4.00000
4.00000 7.03349 4.00000
4.00000 7.03348 4.00000
4.00000 7.03348 4.00000
4.00000 7.03348 4.00000
4.00000 7.03348 4.00000
4.00000 7.03348 4.00000
4.00000 7.03348 4.00000
4.00000 7.03348 4.00000
4.00000 7.03348 4.00000
4.00000 7.03348 4.00000
4.00000 7.03348 4.00000
4.00000 7.03348 4.00000
4.00000 7.03348 4.00000
4.00000 7.03348 4.00000
4.00000 7.03348 4.00000
4.00000 7.03348 4.00000
4.00000 7.03348 4.00000
4.00000 7.03348 4.00000
4.00000 7.03348 4.00000
4.00000 7.03348 4.00000
4.00000 7.03347 4.00000
4.00000 7.03347 4.00000
4.00000 7.03348 4.00000
4.00000 7.03348 4.00000
4.00000 7.03348 4.00000
4.00000 7.03348 4.00000
4.00000 7.03348 4.00000
4.00000 7.03348 4.00000
4.00000 7.03348 4.00000
4.00000 7.03348 4.00000
4.00000 7.03348 4.00000
4.00000 7.03348 4.00000
4.00000 7.03348 4.00000
4.00000 7.03348 4.00000
4.00000 7.03348 4.00000
4.00000 7.03348 4.00000
4.00000 7.03348 4.00000
4.00000 7.03348 4.00000
4.00000 7.03348 4.00000
4.00000 7.03348 4.00000
4.00000 7.03348 4.00000
4.00000 7.03348 4.00000
4.00000 7.03348 4.00000
4.00000 7.03348 4.00000
4.00000 7.03348 4.00000
4.00000 7.03348 4.00000
4.00000 7.03348 4.00000
4.00000 7.03348 4.00000
4.00000 7.03348 4.00000
4.00000 7.03348 4.00000
4.00000 7.03348 4.00000
4.00000 7.03348 4.00000
4.00000 7.03348 4.00000
4.00000 7.03348 4.00000
4.00000 7.03348 4.00000
4.00000 7.03348 4.00000
4.00000 7.03348 4.00000
4.00000 7.03348 4.00000
4.00000 7.03348 4.00000
4.00000 7.03348 4.00000
4.00000 7.03348 4.00000
4.00000 7.03347 4.00000
4.00000 7.03347 4.00000
4.00000 7.03348 4.00000
4.00000 7.03348 4.00000
4.00000 7.03348 4.00000
4.00000 7.03348 4.00000
4.00000 7.03348 4.00000
4.00000 7.03347 4.00000
4.00000 7.03347 4.00000
4.00000 7.03348 4.00000
4.00000 7.03348 4.00000
4.00000 7.03347 4.00000
4.00000 7.03348 4.00000
4.00000 7.03348 4.00000
4.00000 7.03346 4.00000
4.00000 7.03348 4.00000
4.00000 7.03349 4.00000
4.00000 7.03344 4.00000
4.00000 7.03348 4.00000
4.00000 7.03348 4.00000
4.00000 7.03348 4.00000
4.00000 7.03345 4.00000
4.00000 7.03347 4.00000
4.00306 7.09401 4.00306
4.00681 7.17028 4.00681
4.01045 7.24694 4.01045
4.01402 7.32393 4.01402
4.01751 7.40121 4.01751
4.02096 7.47871 4.02096
4.02437 7.55639 4.02437
4.02776 7.63421 4.02776
4.03114 7.71210 4.03114
4.03453 7.79002 4.03453
4.03793 7.86792 4.03793
4.04138 7.94574 4.04138
4.04489 8.02342 4.04489
4.04848 8.10088 4.04848
4.05217 8.17806 4.05217
4.05600 8.25487 4.05600
4.05998 8.33121 4.05998
4.06417 8.40697 4.06417
4.06859 8.48202 4.06859
4.07332 8.55618 4.07332
4.07840 8.62927 4.07840
4.08391 8.70111 4.08391
4.08978 8.77190 4.08978
4.09600 8.84169 4.09600
4.10258 8.91047 4.10258
4.10953 8.97825 4.10953
4.11684 9.04506 4.11684
4.12449 9.11095 4.12449
4.13247 9.17602 4.13247
4.14075 9.24036 4.14075
4.14927 9.30413 4.14927
4.15797 9.36754 4.15797
4.16677 9.43084 4.16677
4.17557 9.49435 4.17557
4.18421 9.55849 4.18421
4.19252 9.62374 4.19252
4.20028 9.69073 4.20028
4.20721 9.76024 4.20721
4.21297 9.83320 4.21297
4.21717 9.91070 4.21717
4.21937 9.99394 4.21937
4.21918 10.08402 4.21918
4.21737 10.17872 4.21738
4.21492 10.27530 4.21492
4.21182 10.37376 4.21182
4.20805 10.47417 4.20805
4.20355 10.57674 4.20355
4.19823 10.68175 4.19823
4.19191 10.78971 4.19191
4.18437 10.90138 4.18437
4.17519 11.01799 4.17519
4.16368 11.14176 4.16368
4.14837 11.27725 4.14837
4.12522 11.43733 4.12522
4.00000 13.19120 4.00000
4.00000 13.19120 4.00000
4.00000 13.19120 4.00000
4.00000 13.19120 4.00000
4.00000 13.19120 4.00000
4.00000 13.19120 4.00000
4.00000 13.19120 4.00000
4.00000 13.19120 4.00000
4.00000 13.19120 4.00000
4.00000 13.19120 4.00000
4.00000 13.19120 4.00000
4.00000 13.19120 4.00000
4.00000 13.19120 4.00000
4.00000 13.19120 4.00000
4.00000 13.19120 4.00000
4.01312 13.23505 4.01312
4.02514 13.28441 4.02514
4.03567 13.33913 4.03567
4.04454 13.39966 4.04454
4.05156 13.46643 4.05156
4.05658 13.53987 4.05658
4.05952 13.62017 4.05952
4.06176 13.70275 4.06176
4.06394 13.78557 4.06394
4.06605 13.86861 4.06605
4.06811 13.95184 4.06811
4.07012 14.03524 4.07012
4.07209 14.11880 4.07209
4.07402 14.20250 4.07402
4.07592 14.28632 4.07592
4.07778 14.37027 4.07778
4.07961 14.45432 4.07961
4.08142 14.53847 4.08142
4.08320 14.62271 4.08320
4.08496 14.70704 4.08496
4.08670 14.79145 4.08670
4.08842 14.87593 4.08842
4.09012 14.96048 4.09012
4.09181 15.04510 4.09181
4.09344 15.12990 4.09344
4.09480 15.21555 4.09480
4.09589 15.30208 4.09589
4.09672 15.38944 4.09672
4.09730 15.47758 4.09730
4.09766 15.56646 4.09766
4.09779 15.65601 4.09779
4.09773 15.74621 4.09773
4.09748 15.83699 4.09748
4.09706 15.92831 4.09706
4.09648 16.02013 4.09648
4.09576 16.11242 4.09576
4.09491 16.20512 4.09491
4.09395 16.29820 4.09395
4.09287 16.39162 4.09287
4.09170 16.48535 4.09170
4.09045 16.57935 4.09045
4.08912 16.67360 4.08912
4.08773 16.76806 4.08773
4.08628 16.86271 4.08628
4.08479 16.95752 4.08479
4.08325 17.05247 4.08325
4.08169 17.14753 4.08169
4.08009 17.24269 4.08009
4.07848 17.33792 4.07848
4.07685 17.43322 4.07685
4.07521 17.52855 4.07521
4.07356 17.62392 4.07356
4.07192 17.71930 4.07192
4.07027 17.81468 4.07027
4.06864 17.91005 4.06864
4.06701 18.00540 4.06701
4.06540 18.10073 4.06540
4.06380 18.19602 4.06379
4.06221 18.29126 4.06221
4.06065 18.38646 4.06065
4.05910 18.48160 4.05910
4.05758 18.57668 4.05758
4.05608 18.67169 4.05608
4.05460 18.76663 4.05460
4.05315 18.86150 4.05315
4.05173 18.95629 4.05173
4.05033 19.05101 4.05033
4.04896 19.14564 4.04896
4.04762 19.24020 4.04762
4.04630 19.33467 4.04630
4.04501 19.42905 4.04501
4.04375 19.52335 4.04375
4.04252 19.61756 4.04252
4.04132 19.71169 4.04132
4.04014 19.80574 4.04014
4.03899 19.89969 4.03899
4.03787 19.99357 4.03787
4.03678 20.08735 4.03678
4.03572 20.18106 4.03572
4.03468 20.27468 4.03468
4.03367 20.36821 4.03367
4.03268 20.46167 4.03268
4.03172 20.55505 4.03172
4.03078 20.64835 4.03078
4.02987 20.74156 4.02987
4.02899 20.83471 4.02899
4.02813 20.92778 4.02813
4.02729 21.02077 4.02729
4.02647 21.11369 4.02647
4.02568 21.20654 4.02568
4.02491 21.29932 4.02491
4.02416 21.39203 4.02416
4.02343 21.48468 4.02343
4.02272 21.57726 4.02272
4.02203 21.66978 4.02203
4.02136 21.76223 4.02136
4.02071 21.85462 4.02071
4.02008 21.94695 4.02008
4.01947 22.03923 4.01947
4.01888 22.13145 4.01888
4.01830 22.22361 4.01830
4.01774 22.31572 4.01774
4.01720 22.40778 4.01720
4.01667 22.49978 4.01667
4.01616 22.59174 4.01616
4.01566 22.68365 4.01566
4.01518 22.77551 4.01518
4.01471 22.86732 4.01471
4.01425 22.95909 4.01425
4.01381 23.05082 4.01381
4.01339 23.14251 4.01339
4.01297 23.23415 4.01297
4.01257 23.32575 4.01257
4.01218 23.41731 4.01218
4.01180 23.50884 4.01180
4.01144 23.60033 4.01144
4.01108 23.69179 4.01108
4.01074 23.78321 4.01074
4.01040 23.87460 4.01040
4.01008 23.96595 4.01008
4.00976 24.05727 4.00976
4.00946 24.14857 4.00946
4.00916 24.23983 4.00916
4.00888 24.33106 4.00888
4.00860 24.42227 4.00860
4.00833 24.51345 4.00833
4.00807 24.60460 4.00807
4.00782 24.69573 4.00782
4.00757 24.78683 4.00757
4.00734 24.87791 4.00734
4.00711 24.96897 4.00711
4.00688 25.06000 4.00688
4.00667 25.15102 4.00667
4.00646 25.24201 4.00646
4.00626 25.33298 4.00626
4.00606 25.42393 4.00606
4.00587 25.51486 4.00587
4.00568 25.60577 4.00568
4.00551 25.69667 4.00551
4.00533 25.78755 4.00533
4.00517 25.87841 4.00517
4.00500 25.96926 4.00500
4.00485 26.06008 4.00485

Angle 0.613855 0.740653

4.00000 7.03348 4.00000
4.00000 7.03348 4.00000
4.00000 7.03348 4.00000
4.00000 7.03348 4.00000
4.00000 7.03348 4.00000
4.00000 7.03348 4.00000
4.00000 7.03348 4.00000
4.00000 7.03349 4.00000
4.00000 7.03347 4.00000
4.00000 7.03348 4.00000
4.00000 7.03348 4.00000
4.00000 7.03348 4.00000
4.00000 7.03348 4.00000
4.00000 7.03348 4.00000
4.00000 7.03348 4.00000
4.00000 7.03348 4.00000
4.00000 7.03348 4.00000
4.00000 7.03348 4.00000
4.00000 7.03348 4.00000
4.00000 7.03348 4.00000
4.00000 7.03348 4.00000
4.00000 7.03348 4.00000
4.00000 7.03348 4.00000
4.00000 7.03348 4.00000
4.00000 7.03348 4.00000
4.00000 7.03348 4.00000
4.00000 7.03348 4.00000
4.00000 7.03348 4.00000
4.00000 7.03348 4.00000
4.00000 7.03348 4.00000
4.00000 7.03348 4.00000
4.00000 7.03348 4.00000
4.00000 7.03348 4.00000
4.00000 7.03348 4.00000
4.00000 7.03348 4.00000
4.00000 7.03348 4.00000
4.00000 7.03348 4.00000
4.00000 7.03348 4.00000
4.00000 7.03348 4.00000
4.00000 7.03348 4.00000
4.00000 7.03348 4.00000
4.00000 7.03348 4.00000
4.00000 7.03348 4.00000
4.00000 7.03348 4.00000
4.00000 7.03348 4.00000
4.00000 7.03348 4.00000
4.00000 7.03348 4.00000
4.00000 7.03348 4.00000
4.00000 7.03348 4.00000
4.00000 7.03348 4.00000
4.00000 7.03348 4.00000
4.00000 7.03348 4.00000
4.00000 7.03348 4.00000
4.00000 7.03348 4.00000
4.00000 7.03348 4.00000
4.00000 7.03348 4.00000
4.00000 7.03348 4.00000
4.00000 7.03348 4.00000
4.00000 7.03348 4.00000
4.00000 7.03348 4.00000
4.00000 7.03348 4.00000
4.00000 7.03348 4.00000
4.00000 7.03348 4.00000
4.00000 7.03348 4.00000
4.00000 7.03348 4.00000
4.00000 7.03348 4.00000
4.00000 7.03348 4.00000
4.00000 7.03348 4.00000
4.00000 7.03348 4.00000
4.00000 7.03348 4.00000
4.00000 7.03348 4.00000
4.00000 7.03348 4.00000
4.00000 7.03348 4.00000
4.00000 7.03348 4.00000
4.00000 7.03348 4.00000
4.00000 7.03348 4.00000
4.00000 7.03348 4.00000
4.00000 7.03351 4.00000
4.00000 7.03349 4.00000
4.00000 7.03349 4.00000
4.00000 7.03348 4.00000
4.00000 7.03347 4.00000
4.00000 7.03348 4.00000
4.00000 7.03348 4.00000
4.00000 7.03348 4.00000
4.00000 7.03348 4.00000
4.00000 7.03348 4.00000
4.00113 7.05559 4.00113
4.00483 7.12960 4.00483
4.00842 7.20403 4.00842
4.01194 7.27884 4.01194
4.01538 7.35396 4.01538
4.01877 7.42937 4.01877
4.02212 7.50499 4.02212
4.02544 7.58080 4.02544
4.02874 7.65674 4.02874
4.03204 7.73276 4.03204
4.03534 7.80882 4.03535
4.03868 7.88488 4.03868
4.04206 7.96086 4.04206
4.04550 8.03672 4.04550
4.04902 8.11239 4.04902
4.05265 8.18780 4.05265
4.05640 8.26286 4.05640
4.06032 8.33749 4.06032
4.06443 8.41156 4.06443
4.06877 8.48497 4.06877
4.07341 8.55754 4.07341
4.07839 8.62910 4.07839
4.08378 8.69947 4.08378
4.08952 8.76886 4.08952
4.09559 8.83729 4.09559
4.10202 8.90478 4.10202
4.10880 8.97132 4.10880
4.11593 9.03693 4.11593
4.12339 9.10168 4.12339
4.13117 9.16562 4.13117
4.13924 9.22886 4.13924
4.14757 9.29154 4.14756
4.15608 9.35384 4.15608
4.16471 9.41599 4.16471
4.17336 9.47828 4.17335
4.18190 9.54107 4.18190
4.19017 9.60481 4.19017
4.19799 9.67006 4.19799
4.20509 9.73751 4.20509
4.21117 9.80799 4.21117
4.21588 9.88250 4.21588
4.21881 9.96216 4.21881
4.21956 10.04809 4.21956
4.21819 10.14009 4.21819
4.21603 10.23435 4.21603
4.21326 10.33043 4.21326
4.20985 10.42839 4.20985
4.20576 10.52834 4.20576
4.20092 10.63053 4.20092
4.19520 10.73534 4.19520
4.18843 10.84334 4.18843
4.18029 10.95546 4.18029
4.17030 11.07324 4.17030
4.15754 11.19955 4.15754
4.13993 11.34094 4.13993
4.11029 11.52035 4.11029
4.00000 13.19120 4.00000
4.00000 13.19120 4.00000
4.00000 13.19120 4.00000
4.00000 13.19120 4.00000
4.00000 13.19120 4.00000
4.00000 13.19120 4.00000
4.00000 13.19120 4.00000
4.00000 13.19120 4.00000
4.00000 13.19120 4.00000
4.00000 13.19120 4.00000
4.00000 13.19120 4.00000
4.00000 13.19120 4.00000
4.00000 13.19120 4.00000
4.00000 13.19120 4.00000
4.00271 13.19958 4.00272
4.01562 13.24446 4.01562
4.02722 13.29420 4.02722
4.03734 13.34925 4.03734
4.04580 13.41006 4.04581
4.05245 13.47704 4.05245
4.05711 13.55059 4.05711
4.05981 13.63063 4.05981
4.06202 13.71228 4.06202
4.06416 13.79418 4.06416
4.06624 13.87629 4.06625
4.06828 13.95859 4.06828
4.07026 14.04107 4.07026
4.07221 14.12371 4.07221
4.07411 14.20649 4.07411
4.07599 14.28941 4.07599
4.07783 14.37245 4.07783
4.07964 14.45559 4.07964
4.08143 14.53885 4.08143
4.08319 14.62221 4.08319
4.08493 14.70565 4.08493
4.08665 14.78918 4.08665
4.08836 14.87279 4.08836
4.09004 14.95648 4.09004
4.09171 15.04023 4.09171
4.09334 15.12416 4.09334
4.09471 15.20889 4.09471
4.09581 15.29449 4.09581
4.09665 15.38093 4.09665
4.09725 15.46814 4.09725
4.09763 15.55608 4.09763
4.09779 15.64470 4.09779
4.09775 15.73395 4.09775
4.09753 15.82380 4.09753
4.09714 15.91420 4.09714
4.09659 16.00510 4.09659
4.09590 16.09646 4.09590
4.09508 16.18825 4.09508
4.09414 16.28042 4.09414
4.09309 16.37294 4.09309
4.09195 16.46577 4.09195
4.09073 16.55889 4.09073
4.08943 16.65226 4.08943
4.08806 16.74586 4.08806
4.08664 16.83965 4.08664
4.08517 16.93361 4.08517
4.08365 17.02772 4.08366
4.08211 17.12196 4.08211
4.08053 17.21630 4.08053
4.07894 17.31072 4.07894
4.07733 17.40521 4.07733
4.07570 17.49976 4.07570
4.07407 17.59435 4.07407
4.07244 17.68896 4.07244
4.07081 17.78357 4.07081
4.06918 17.87819 4.06918
4.06757 17.97280 4.06757
4.06596 18.06739 4.06596
4.06437 18.16196 4.06437
4.06279 18.25649 4.06279
4.06123 18.35097 4.06123
4.05969 18.44541 4.05969
4.05817 18.53980 4.05817
4.05667 18.63412 4.05667
4.05519 18.72839 4.05519
4.05375 18.82259 4.05374
4.05232 18.91672 4.05232
4.05092 19.01077 4.05092
4.04955 19.10476 4.04955
4.04820 19.19867 4.04820
4.04688 19.29250 4.04688
4.04559 19.38626 4.04559
4.04433 19.47994 4.04433
4.04309 19.57353 4.04309
4.04189 19.66705 4.04189
4.04070 19.76049 4.04070
4.03955 19.85385 4.03955
4.03843 19.94712 4.03843
4.03733 20.04032 4.03733
4.03626 20.13344 4.03626
4.03521 20.22648 4.03521
4.03419 20.31944 4.03419
4.03320 20.41233 4.03320
4.03223 20.50514 4.03223
4.03129 20.59787 4.03129
4.03037 20.69054 4.03037
4.02948 20.78313 4.02948
4.02861 20.87565 4.02861
4.02776 20.96809 4.02776
4.02694 21.06048 4.02693
4.02613 21.15279 4.02613
4.02535 21.24504 4.02535
4.02460 21.33722 4.02460
4.02386 21.42934 4.02386
4.02314 21.52140 4.02314
4.02245 21.61340 4.02245
4.02177 21.70534 4.02177
4.02112 21.79722 4.02111
4.02048 21.88904 4.02048
4.01986 21.98081 4.01986
4.01925 22.07253 4.01925
4.01867 22.16419 4.01867
4.01810 22.25580 4.01810
4.01755 22.34737 4.01755
4.01702 22.43888 4.01702
4.01650 22.53035 4.01650
4.01599 22.62178 4.01599
4.01550 22.71316 4.01550
4.01503 22.80449 4.01503
4.01457 22.89579 4.01457
4.01412 22.98704 4.01412
4.01368 23.07826 4.01368
4.01326 23.16943 4.01326
4.01285 23.26057 4.01285
4.01246 23.35168 4.01246
4.01207 23.44274 4.01207
4.01170 23.53378 4.01170
4.01134 23.62478 4.01134
4.01099 23.71575 4.01099
4.01065 23.80668 4.01065
4.01032 23.89759 4.01032
4.01000 23.98847 4.01000
4.00969 24.07932 4.00969
4.00939 24.17014 4.00939
4.00910 24.26094 4.00910
4.00881 24.35171 4.00881
4.00854 24.44246 4.00854
4.00827 24.53318 4.00827
4.00802 24.62388 4.00802
4.00777 24.71456 4.00777
4.00752 24.80522 4.00752
4.00729 24.89585 4.00729
4.00706 24.98646 4.00706
4.00684 25.07706 4.00684
4.00663 25.16764 4.00663
4.00642 25.25819 4.00642
4.00622 25.34873 4.00622
4.00603 25.43926 4.00603
4.00584 25.52976 4.00584
4.00566 25.62025 4.00566
4.00548 25.71073 4.00548
4.00531 25.80119 4.00531
4.00514 25.89164 4.00514
4.00498 25.98207 4.00498
4.00482 26.07249 4.00482
4.00467 26.16290 4.00467
4.00453 26.25329 4.00453
4.00438 26.34368 4.00438
4.00425 26.43405 4.00425
4.00411 26.52441 4.00411
4.00398 26.61476 4.00398
4.00386 26.70510 4.00386
4.00374 26.79543 4.00374
4.00362 26.88575 4.00362
4.00351 26.97606 4.00351
4.00340 27.06636 4.00340
4.00329 27.15666 4.00329
4.00319 27.24695 4.00319
4.00309 27.33723 4.00309
4.00299 27.42750 4.00299
4.00290 27.51776 4.00290
4.00280 27.60802 4.00280
4.00272 27.69827 4.00272
4.00263 27.78852 4.00263
4.00255 27.87876 4.00255
4.00247 27.96899 4.00247
4.00239 28.05922 4.00239
4.00231 28.14944 4.00231
4.00224 28.23966 4.00224
4.00217 28.32988 4.00217
4.00210 28.42009 4.00210
4.00204 28.51029 4.00204
4.00197 28.60049 4.00197
4.00191 28.69069 4.00191
4.00185 28.78088 4.00185
4.00179 28.87107 4.00179
4.00174 28.96126 4.00174
4.00168 29.05144 4.00168
4.00163 29.14162 4.00163
4.00158 29.23180 4.00158
4.00153 29.32197 4.00153
4.00148 29.41215 4.00148
4.00143 29.50232 4.00143
4.00138 29.59248 4.00139
4.00134 29.68265 4.00134
4.00130 29.77281 4.00131
4.00126 29.86297 4.00126
4.00122 29.95313 4.00123
4.00118 30.04329 4.00118
4.00114 30.13344 4.00115
4.00111 30.22360 4.00111
4.00107 30.31375 4.00108
4.00104 30.40391 4.00104
4.00100 30.49406 4.00101
4.00097 30.58421 4.00097
4.00094 30.67436 4.00095
4.00091 30.76451 4.00091
4.00088 30.85466 4.00089
4.00086 30.94481 4.00086
4.00083 31.03495 4.00083
4.00080 31.12510 4.00080
4.00078 31.21525 4.00078
4.00075 31.30540 4.00075
4.00073 31.39554 4.00073
4.00071 31.48568 4.00071
4.00068 31.57583 4.00069
4.00066 31.66598 4.00066
4.00064 31.75612 4.00064
4.00062 31.84626 4.00063
4.00060 31.93641 4.00060
4.00058 32.02656 4.00058
4.00056 32.11670 4.00057
4.00055 32.20685 4.00055
4.00053 32.29700 4.00053
4.00051 32.38714 4.00052
4.00049 32.47728 4.00050
4.00048 32.56744 4.00048
4.00046 32.65758 4.00047
4.00045 32.74773 4.00045
4.00043 32.83788 4.00044
4.00042 32.92803 4.00042
4.00041 33.01818 4.00041
4.00040 33.10833 4.00040
4.00038 33.19848 4.00039
4.00037 33.28863 4.00038
4.00036 33.37879 4.00036
4.00035 33.46894 4.00035
4.00034 33.55910 4.00034
4.00033 33.64925 4.00033
4.00032 33.73941 4.00032
4.00031 33.82957 4.00031
4.00030 33.91973 4.00030
4.00029 34.00989 4.00029
4.00028 34.10005 4.00028
4.00027 34.19021 4.00027
4.00026 34.28037 4.00026
4.00025 34.37053 4.00025
4.00024 34.46070 4.00024
4.00024 34.55086 4.00024
4.00023 34.64103 4.00023
4.00022 34.73120 4.00022
4.00021 34.82137 4.00022
4.00021 34.91154 4.00021

Angle 0.157165 5.865655

4.00000 7.03348 4.00000
4.00000 7.03348 4.00000
4.00000 7.03348 4.00000
4.00000 7.03348 4.00000
4.00000 7.03348 4.00000
4.00000 7.03348 4.00000
4.00000 7.03348 4.00000
4.00000 7.03348 4.00000
4.00000 7.03348 4.00000
4.00000 7.03348 4.00000
4.00000 7.03347 4.00000
4.00000 7.03349 4.00000
4.00000 7.03348 4.00000
4.00000 7.03348 4.00000
4.00000 7.03348 4.00000
4.00000 7.03348 4.00000
4.00000 7.03348 4.00000
4.00000 7.03348 4.00000
4.00000 7.03348 4.00000
4.00000 7.03348 4.00000
4.00000 7.03348 4.00000
4.00000 7.03348 4.00000
4.00000 7.03348 4.00000
4.00000 7.03348 4.00000
4.00000 7.03348 4.00000
4.00000 7.03348 4.00000
4.00000 7.03348 4.00000
4.00000 7.03348 4.00000
4.00000 7.03348 4.00000
4.00000 7.03348 4.00000
4.00000 7.03348 4.00000
4.00000 7.03348 4.00000
4.00000 7.03348 4.00000
4.00000 7.03348 4.00000
4.00000 7.03348 4.00000
4.00000 7.03348 4.00000
4.00000 7.03348 4.00000
4.00000 7.03348 4.00000
4.00000 7.03348 4.00000
4.00000 7.03348 4.00000
4.00000 7.03348 4.00000
4.00000 7.03348 4.00000
4.00000 7.03348 4.00000
4.00000 7.03348 4.00000
4.00000 7.03348 4.00000
4.00000 7.03348 4.00000
4.00000 7.03347 4.00000
4.00000 7.03347 4.00000
4.00000 7.03348 4.00000
4.00000 7.03348 4.00000
4.00000 7.03348 4.00000
4.00000 7.03348 4.00000
4.00000 7.03348 4.00000
4.00000 7.03348 4.00000
4.00000 7.03348 4.00000
4.00000 7.03348 4.00000
4.00000 7.03348 4.00000
4.00000 7.03348 4.00000
4.00000 7.03348 4.00000
4.00000 7.03348 4.00000
4.00000 7.03348 4.00000
4.00000 7.03348 4.00000
4.00000 7.03348 4.00000
4.00000 7.03348 4.00000
4.00000 7.03348 4.00000
4.00000 7.03349 4.00000
4.00000 7.03348 4.00000
4.00000 7.03344 4.00000
4.00000 7.03348 4.00000
4.00000 7.03347 4.00000
4.00000 7.03348 4.00000
4.00000 7.03348 4.00000
4.00000 7.03345 4.00000
4.00000 7.03358 4.00000
4.00000 7.03348 4.00000
4.00002 7.03385 4.00002
4.00381 7.10908 4.00381
4.00752 7.18504 4.00752
4.01113 7.26137 4.01113
4.01466 7.33802 4.01466
4.01813 7.41496 4.01813
4.02155 7.49211 4.02155
4.02494 7.56944 4.02494
4.02831 7.64689 4.02831
4.03167 7.72442 4.03167
4.03505 7.80198 4.03505
4.03844 7.87951 4.03844
4.04189 7.95695 4.04188
4.04539 8.03425 4.04539
4.04897 8.11133 4.04897
4.05266 8.18813 4.05266
4.05649 8.26455 4.05649
4.06048 8.34049 4.06048
4.06467 8.41585 4.06467
4.06911 8.49049 4.06911
4.07386 8.56423 4.07386
4.07896 8.63689 4.07896
4.08449 8.70832 4.08449
4.09037 8.77873 4.09037
4.09660 8.84815 4.09660
4.10319 8.91657 4.10319
4.11014 8.98400 4.11014
4.11745 9.05047 4.11745
4.12510 9.11605 4.12510
4.13308 9.18081 4.13308
4.14134 9.24486 4.14134
4.14984 9.30837 4.14984
4.15852 9.37154 4.15853
4.16730 9.43461 4.16730
4.17605 9.49793 4.17605
4.18465 9.56188 4.18465
4.19291 9.62698 4.19291
4.20062 9.69384 4.20062
4.20748 9.76324 4.20748
4.21317 9.83612 4.21317
4.21729 9.91355 4.21729
4.21940 9.99674 4.21940
4.21914 10.08674 4.21914
4.21732 10.18119 4.21732
4.21486 10.27751 4.21486
4.21175 10.37569 4.21175
4.20798 10.47583 4.20798
4.20349 10.57811 4.20349
4.19817 10.68284 4.19817
4.19186 10.79050 4.19186
4.18433 10.90186 4.18433
4.17518 11.01814 4.17518
4.16370 11.14155 4.16370
4.14845 11.27659 4.14845
4.12545 11.43597 4.12545
4.00000 13.19120 4.00000
4.00000 13.19120 4.00000
4.00000 13.19120 4.00000
4.00000 13.19120 4.00000
4.00000 13.19120 4.00000
4.00000 13.19120 4.00000
4.00000 13.19120 4.00000
4.00000 13.19120 4.00000
3.99999 13.19119 4.00000
4.00000 13.19120 4.00000
4.00000 13.19120 4.00000
4.00000 13.19120 4.00000
4.00000 13.19120 4.00000
4.00000 13.19120 4.00000
4.00000 13.19121 4.00000
4.01249 13.23273 4.01249
4.02455 13.28171 4.02455
4.03514 13.33600 4.03514
4.04408 13.39604 4.04408
4.05120 13.46228 4.05120
4.05634 13.53514 4.05634
4.05937 13.61490 4.05937
4.06161 13.69727 4.06162
4.06379 13.77989 4.06379
4.06590 13.86272 4.06590
4.06796 13.94575 4.06796
4.06997 14.02895 4.06997
4.07194 14.11232 4.07194
4.07387 14.19582 4.07387
4.07576 14.27945 4.07576
4.07762 14.36321 4.07762
4.07946 14.44707 4.07946
4.08126 14.53104 4.08126
4.08304 14.61510 4.08304
4.08480 14.69924 4.08480
4.08654 14.78347 4.08654
4.08826 14.86777 4.08826
4.08996 14.95214 4.08996
4.09164 15.03658 4.09164
4.09328 15.12117 4.09328
4.09467 15.20655 4.09467
4.09579 15.29282 4.09579
4.09664 15.37993 4.09664
4.09725 15.46782 4.09725
4.09763 15.55644 4.09763
4.09779 15.64575 4.09779
4.09775 15.73570 4.09775
4.09752 15.82625 4.09752
4.09712 15.91734 4.09712
4.09656 16.00894 4.09656
4.09586 16.10101 4.09586
4.09503 16.19349 4.09503
4.09408 16.28635 4.09408
4.09301 16.37956 4.09302
4.09186 16.47309 4.09186
4.09062 16.56689 4.09062
4.08930 16.66095 4.08930
4.08792 16.75522 4.08792
4.08649 16.84968 4.08649
4.08500 16.94431 4.08500
4.08347 17.03908 4.08347
4.08191 17.13397 4.08191
4.08032 17.22896 4.08032
4.07871 17.32403 4.07871
4.07709 17.41916 4.07709
4.07545 17.51433 4.07545
4.07381 17.60954 4.07381
4.07217 17.70477 4.07217
4.07053 17.80000 4.07053
4.06889 17.89522 4.06889
4.06727 17.99043 4.06727
4.06565 18.08561 4.06565
4.06405 18.18076 4.06405
4.06247 18.27587 4.06247
4.06090 18.37093 4.06090
4.05935 18.46593 4.05935
4.05783 18.56088 4.05783
4.05633 18.65576 4.05633
4.05485 18.75058 4.05485
4.05340 18.84532 4.05340
4.05197 18.93999 4.05197
4.05057 19.03458 4.05057
4.04920 19.12909 4.04920
4.04785 19.22353 4.04785
4.04653 19.31788 4.04653
4.04524 19.41214 4.04524
4.04398 19.50633 4.04398
4.04274 19.60043 4.04274
4.04154 19.69444 4.04154
4.04036 19.78837 4.04036
4.03921 19.88222 4.03921
4.03808 19.97598 4.03808
4.03699 20.06966 4.03699
4.03592 20.16325 4.03592
4.03487 20.25677 4.03487
4.03386 20.35020 4.03386
4.03287 20.44355 4.03287
4.03190 20.53682 4.03190
4.03097 20.63001 4.03097
4.03005 20.72313 4.03005
4.02916 20.81617 4.02916
4.02830 20.90913 4.02830
4.02745 21.00203 4.02745
4.02663 21.09485 4.02663
4.02584 21.18760 4.02584
4.02506 21.28028 4.02506
4.02431 21.37289 4.02431
4.02358 21.46544 4.02358
4.02287 21.55792 4.02287
4.02217 21.65034 4.02217
4.02150 21.74270 4.02150
4.02085 21.83499 4.02085
4.02022 21.92723 4.02022
4.01960 22.01941 4.01960
4.01900 22.11154 4.01900
4.01842 22.20361 4.01842
4.01786 22.29562 4.01786
4.01731 22.38758 4.01731
4.01678 22.47950 4.01678
4.01627 22.57136 4.01627
4.01577 22.66318 4.01577
4.01528 22.75495 4.01528
4.01481 22.84667 4.01481
4.01435 22.93835 4.01436
4.01391 23.02999 4.01391
4.01348 23.12158 4.01348
4.01307 23.21314 4.01307
4.01266 23.30465 4.01266
4.01227 23.39613 4.01227
4.01189 23.48757 4.01189
4.01152 23.57897 4.01152
4.01116 23.67034 4.01116
4.01082 23.76167 4.01082
4.01048 23.85297 4.01048
4.01015 23.94425 4.01015
4.00984 24.03548 4.00984
4.00953 24.12669 4.00953
4.00923 24.21787 4.00923
4.00895 24.30902 4.00895
4.00867 24.40014 4.00867
4.00840 24.49124 4.00840
4.00813 24.58231 4.00813
4.00788 24.67335 4.00788
4.00763 24.76437 4.00763
4.00739 24.85537 4.00739
4.00716 24.94634 4.00716
4.00694 25.03730 4.00694
4.00672 25.12823 4.00672
4.00651 25.21914 4.00651
4.00631 25.31003 4.00631
4.00611 25.40090 4.00611
4.00592 25.49175 4.00592
4.00573 25.58259 4.00573
4.00555 25.67341 4.00555
4.00538 25.76421 4.00538
4.00521 25.85499 4.00521
4.00504 25.94576 4.00504
4.00489 26.03651 4.00489
4.00473 26.12725 4.00473
4.00458 26.21797 4.00458
4.00444 26.30868 4.00444
4.00430 26.39937 4.00430
4.00416 26.49006 4.00416
4.00403 26.58073 4.00403
4.00391 26.67139 4.00391
4.00378 26.76203 4.00378
4.00366 26.85267 4.00366
4.00355 26.94329 4.00355
4.00344 27.03391 4.00344
4.00333 27.12451 4.00333
4.00322 27.21510 4.00322
4.00312 27.30569 4.00312
4.00302 27.39626 4.00302
4.00293 27.48683 4.00293
4.00283 27.57739 4.00283
4.00275 27.66794 4.00275
4.00266 27.75848 4.00266
4.00257 27.84902 4.00257
4.00249 27.93954 4.00249
4.00242 28.03006 4.00242
4.00234 28.12057 4.00234
4.00227 28.21108 4.00226
4.00219 28.30158 4.00219
4.00213 28.39207 4.00213
4.00206 28.48257 4.00206
4.00199 28.57304 4.00199
4.00193 28.66352 4.00193
4.00187 28.75400 4.00187
4.00181 28.84446 4.00181
4.00175 28.93492 4.00175
4.00170 29.02538 4.00170
4.00164 29.11584 4.00164
4.00159 29.20628 4.00159
4.00154 29.29673 4.00154
4.00149 29.38717 4.00149
4.00144 29.47761 4.00144
4.00140 29.56804 4.00140
4.00135 29.65847 4.00135
4.00131 29.74890 4.00131
4.00127 29.83932 4.00127
4.00123 29.92974 4.00123
4.00119 30.02016 4.00119
4.00115 30.11057 4.00115
4.00112 30.20098 4.00111
4.00108 30.29139 4.00108
4.00105 30.38180 4.00105
4.00101 30.47220 4.00101
4.00098 30.56260 4.00098
4.00095 30.65300 4.00095
4.00092 30.74340 4.00092
4.00089 30.83379 4.00089
4.00086 30.92419 4.00086
4.00084 31.01458 4.00084
4.00081 31.10497 4.00081
4.00078 31.19536 4.00078
4.00076 31.28575 4.00076
4.00073 31.37613 4.00073
4.00071 31.46652 4.00071
4.00069 31.55690 4.00069
4.00067 31.64729 4.00067
4.00065 31.73766 4.00064
4.00063 31.82803 4.00063
4.00061 31.91841 4.00061
4.00059 32.00879 4.00059
4.00057 32.09917 4.00057
4.00055 32.18954 4.00055
4.00054 32.27992 4.00053
4.00052 32.37030 4.00052
4.00050 32.46067 4.00050
4.00049 32.55104 4.00048
4.00047 32.64142 4.00047
4.00046 32.73179 4.00045
4.00044 32.82216 4.00044
4.00043 32.91253 4.00043
4.00041 33.00291 4.00041
4.00040 33.09328 4.00040
4.00039 33.18365 4.00039
4.00038 33.27402 4.00037
4.00036 33.36439 4.00036
4.00035 33.45476 4.00035
4.00034 33.54513 4.00034
4.00033 33.63550 4.00033
4.00032 33.72587 4.00032
4.00031 33.81623 4.00031
4.00030 33.90660 4.00030
4.00029 33.99697 4.00029
4.00028 34.08734 4.00028
4.00027 34.17771 4.00027
4.00026 34.26808 4.00026
4.00026 34.35845 4.00025
4.00025 34.44882 4.00025
4.00024 34.53919 4.00024
4.00023 34.62956 4.00023
4.00022 34.71992 4.00022
4.00022 34.81029 4.00022
4.00021 34.90066 4.00021
4.00020 34.99103 4.00020
4.00020 35.08140 4.00020
4.00019 35.17177 4.00019
4.00019 35.26214 4.00018
4.00018 35.35252 4.00018
4.00017 35.44289 4.00017
4.00017 35.53326 4.00017
4.00016 35.62363 4.00016
4.00016 35.71400 4.00016
4.00015 35.80437 4.00015
4.00015 35.89475 4.00015
4.00014 35.98512 4.00014
4.00014 36.07549 4.00014
4.00013 36.16587 4.00013

Angle 0.005507 4.657419

4.00000 7.03349 4.00000
4.00000 7.03346 4.00000
4.00000 7.03348 4.00000
4.00000 7.03346 4.00000
4.00000 7.03348 4.00000
4.00000 7.03348 4.00000
4.00000 7.03349 4.00000
4.00000 7.03347 4.00000
4.00000 7.03348 4.00000
4.00000 7.03349 4.00000
4.00000 7.03348 4.00000
4.00000 7.03348 4.00000
4.00000 7.03348 4.00000
4.00000 7.03348 4.00000
4.00000 7.03348 4.00000
4.00000 7.03349 4.00000
4.00000 7.03348 4.00000
4.00000 7.03348 4.00000
4.00000 7.03349 4.00000
4.00000 7.03348 4.00000
4.00000 7.03350 4.00000
4.00000 7.03348 4.00000
4.00000 7.03348 4.00000
4.00000 7.03348 4.00000
4.00000 7.03348 4.00000
4.00000 7.03348 4.00000
4.00000 7.03348 4.00000
4.00000 7.03348 4.00000
4.00000 7.03348 4.00000
4.00000 7.03348 4.00000
4.00000 7.03348 4.00000
4.00000 7.03348 4.00000
4.00000 7.03348 4.00000
4.00000 7.03348 4.00000
4.00000 7.03348 4.00000
4.00000 7.03348 4.00000
4.00000 7.03348 4.00000
4.00000 7.03349 4.00000
4.00000 7.03350 4.00000
4.00000 7.03349 4.00000
4.00000 7.03347 4.00000
4.00000 7.03347 4.00000
4.00000 7.03347 4.00000
4.00000 7.03347 4.00000
4.00000 7.03345 4.00000
4.00000 7.03348 4.00000
4.00000 7.03348 4.00000
4.00000 7.03348 4.00000
4.00000 7.03348 4.00000
4.00000 7.03348 4.00000
4.00000 7.03348 4.00000
4.00000 7.03348 4.00000
4.00000 7.03348 4.00000
4.00000 7.03348 4.00000
4.00000 7.03348 4.00000
4.00000 7.03348 4.00000
4.00000 7.03348 4.00000
4.00000 7.03348 4.00000
4.00000 7.03348 4.00000
4.00000 7.03348 4.00000
4.00000 7.03348 4.00000
4.00000 7.03347 4.00000
4.00000 7.03348 4.00000
4.00000 7.03348 4.00000
4.00000 7.03347 4.00000
4.00000 7.03348 4.00000
4.00000 7.03348 4.00000
4.00000 7.03348 4.00000
4.00000 7.03348 4.00000
4.00000 7.03348 4.00000
4.00000 7.03348 4.00000
4.00000 7.03348 4.00000
4.00000 7.03348 4.00000
4.00000 7.03348 4.00000
4.00000 7.03348 4.00000
4.00000 7.03348 4.00000
4.00000 7.03348 4.00000
4.00000 7.03348 4.00000
4.00000 7.03348 4.00000
4.00000 7.03348 4.00000
4.00000 7.03348 4.00000
4.00000 7.03348 4.00000
4.00000 7.03348 4.00000
4.00000 7.03348 4.00000
4.00000 7.03348 4.00000
4.00000 7.03348 4.00000
4.00000 7.03348 4.00000
4.00000 7.03345 4.00000
4.00000 7.03348 4.00000
4.00000 7.03348 4.00000
4.00000 7.03348 4.00000
4.00000 7.03348 4.00000
4.00000 7.03348 4.00000
4.00000 7.03348 4.00000
4.00000 7.03348 4.00000
4.00000 7.03348 4.00000
4.00000 7.03348 4.00000
4.00000 7.03348 4.00000
4.00000 7.03348 4.00000
4.00000 7.03348 4.00000
4.00000 7.03348 4.00000
4.00000 7.03348 4.00000
4.00000 7.03348 4.00000
4.00000 7.03348 4.00000
4.00000 7.03348 4.00000
4.00000 7.03348 4.00000
4.00000 7.03348 4.00000
4.00000 7.03348 4.00000
4.00000 7.03348 4.00000
4.00000 7.03348 4.00000
4.00000 7.03348 4.00000
4.00000 7.03348 4.00000
4.00000 7.03348 4.00000
4.00000 7.03348 4.00000
4.00000 7.03349 4.00000
4.00000 7.03348 4.00000
4.00000 7.03348 4.00000
4.00000 7.03348 4.00000
4.00000 7.03349 4.00000
4.00000 7.03348 4.00000
4.00000 7.03348 4.00000
4.00000 7.03348 4.00000
4.00000 7.03348 4.00000
4.00000 7.03348 4.00000
4.00000 7.03348 4.00000
4.00000 7.03348 4.00000
4.00000 7.03348 4.00000
4.00000 7.03348 4.00000
4.00000 7.03348 4.00000
4.00000 7.03349 4.00000
4.00000 7.03348 4.00000
4.00000 7.03348 4.00000
4.00000 7.03348 4.00000
4.00000 7.03347 4.00000
4.00000 7.03348 4.00000
4.00000 7.03348 4.00000
4.00000 7.03348 4.00000
4.00000 7.03348 4.00000
4.00000 7.03348 4.00000
4.00000 7.03348 4.00000
4.00000 7.03348 4.00000
4.00000 7.03348 4.00000
4.00000 7.03348 4.00000
4.00000 7.03347 4.00000
4.00000 7.03348 4.00000
4.00000 7.03349 4.00000
4.00000 7.03349 4.00000
4.00000 7.03348 4.00000
4.00000 7.03348 4.00000
4.00000 7.03344 4.00000
4.00209 7.07463 4.00209
4.00503 7.13381 4.00503
4.00792 7.19344 4.00792
4.01076 7.25350 4.01076
4.01356 7.31396 4.01356
4.01633 7.37479 4.01633
4.01907 7.43597 4.01907
4.02179 7.49748 4.02179
4.02450 7.55927 4.02450
4.02720 7.62133 4.02720
4.02991 7.68363 4.02990
4.03262 7.74614 4.03262
4.03535 7.80884 4.03535
4.03810 7.87168 4.03810
4.04089 7.93464 4.04089
4.04372 7.99768 4.04372
4.04661 8.06077 4.04661
4.04957 8.12385 4.04957
4.05260 8.18689 4.05261
4.05574 8.24984 4.05574
4.05899 8.31262 4.05899
4.06238 8.37519 4.06238
4.06593 8.43745 4.06593
4.06966 8.49933 4.06966
4.07362 8.56072 4.07362
4.07784 8.62150 4.07784
4.08236 8.68153 4.08236
4.08716 8.74093 4.08716
4.09221 8.79976 4.09221
4.09752 8.85800 4.09752
4.10310 8.91565 4.10310
4.10895 8.97271 4.10895
4.11506 9.02919 4.11506
4.12144 9.08512 4.12144
4.12807 9.14054 4.12807
4.13494 9.19549 4.13494
4.14203 9.25006 4.14203
4.14930 9.30434 4.14930
4.15671 9.35845 4.15671
4.16423 9.41254 4.16423
4.17177 9.46681 4.17177
4.17926 9.52149 4.17926
4.18661 9.57687 4.18661
4.19368 9.63328 4.19368
4.20033 9.69116 4.20033
4.20637 9.75100 4.20637
4.21158 9.81342 4.21158
4.21571 9.87910 4.21571
4.21847 9.94885 4.21847
4.21959 10.02344 4.21959
4.21886 10.10342 4.21886
4.21721 10.18617 4.21721
4.21506 10.27046 4.21506
4.21241 10.35630 4.21241
4.20926 10.44375 4.20926
4.20556 10.53291 4.20556
4.20125 10.62397 4.20125
4.19625 10.71719 4.19625
4.19043 10.81297 4.19043
4.18360 10.91191 4.18360
4.17545 11.01493 4.17545
4.16550 11.12357 4.16550
4.15282 11.24072 4.15282
4.13531 11.37305 4.13531
4.10550 11.54445 4.10550
4.00000 13.19120 4.00000
4.00000 13.19120 4.00000
4.00000 13.19120 4.00000
4.00000 13.19120 4.00000
4.00000 13.19120 4.00000
4.00000 13.19120 4.00000
4.00000 13.19120 4.00000
4.00000 13.19120 4.00000
4.00000 13.19121 4.00000
4.00000 13.19120 4.00000
4.00000 13.19120 4.00000
4.00000 13.19120 4.00000
4.00000 13.19120 4.00000
4.00000 13.19121 4.00000
4.00000 13.19120 4.00000
4.00001 13.19123 4.00001
4.00972 13.22285 4.00972
4.02097 13.26602 4.02097
4.03106 13.31348 4.03106
4.03987 13.36557 4.03987
4.04725 13.42265 4.04725
4.05308 13.48503 4.05308
4.05723 13.55305 4.05723
4.05970 13.62665 4.05970
4.06174 13.70175 4.06174
4.06372 13.77711 4.06372
4.06565 13.85272 4.06565
4.06754 13.92855 4.06754
4.06939 14.00460 4.06939
4.07120 14.08083 4.07120
4.07298 14.15726 4.07298
4.07474 14.23385 4.07474
4.07646 14.31061 4.07646
4.07816 14.38752 4.07816
4.07984 14.46458 4.07984
4.08149 14.54178 4.08149
4.08313 14.61912 4.08313
4.08474 14.69658 4.08475
4.08635 14.77417 4.08635
4.08793 14.85187 4.08793
4.08951 14.92969 4.08951
4.09107 15.00762 4.09106
4.09261 15.08566 4.09261
4.09402 15.16419 4.09402
4.09519 15.24356 4.09519
4.09612 15.32372 4.09612
4.09684 15.40462 4.09684
4.09735 15.48624 4.09735
4.09766 15.56854 4.09766
4.09779 15.65147 4.09779
4.09775 15.73500 4.09775
4.09754 15.81909 4.09754
4.09719 15.90371 4.09719
4.09670 15.98882 4.09670
4.09608 16.07439 4.09608
4.09534 16.16039 4.09534
4.09449 16.24677 4.09449
4.09355 16.33352 4.09355
4.09252 16.42061 4.09252
4.09141 16.50800 4.09141
4.09022 16.59567 4.09022
4.08898 16.68359 4.08898
4.08768 16.77175 4.08768
4.08632 16.86012 4.08632
4.08493 16.94867 4.08493
4.08350 17.03740 4.08350
4.08204 17.12627 4.08204
4.08055 17.21528 4.08055
4.07905 17.30440 4.07905
4.07753 17.39362 4.07753
4.07599 17.48294 4.07599
4.07445 17.57232 4.07445
4.07291 17.66177 4.07291
4.07137 17.75127 4.07137
4.06983 17.84081 4.06983
4.06829 17.93038 4.06829
4.06676 18.01997 4.06676
4.06525 18.10958 4.06525
4.06374 18.19920 4.06374
4.06225 18.28881 4.06225
4.06078 18.37843 4.06078
4.05932 18.46803 4.05932
4.05788 18.55762 4.05788
4.05646 18.64719 4.05646
4.05506 18.73673 4.05506
4.05369 18.82625 4.05369
4.05233 18.91574 4.05233
4.05100 19.00520 4.05100
4.04969 19.09462 4.04969
4.04841 19.18401 4.04841
4.04715 19.27336 4.04715
4.04592 19.36267 4.04591
4.04470 19.45194 4.04470
4.04352 19.54116 4.04352
4.04235 19.63035 4.04235
4.04122 19.71949 4.04122
4.04011 19.80859 4.04010
4.03902 19.89764 4.03902
4.03796 19.98665 4.03796
4.03692 20.07561 4.03692
4.03590 20.16453 4.03590
4.03491 20.25341 4.03491
4.03394 20.34225 4.03394
4.03300 20.43104 4.03300
4.03208 20.51979 4.03208
4.03118 20.60850 4.03118
4.03030 20.69717 4.03030
4.02945 20.78580 4.02945
4.02862 20.87439 4.02862
4.02781 20.96294 4.02781
4.02701 21.05145 4.02701
4.02624 21.13993 4.02624
4.02549 21.22837 4.02549
4.02476 21.31677 4.02476
4.02405 21.40514 4.02405
4.02336 21.49348 4.02336
4.02268 21.58179 4.02269
4.02203 21.67006 4.02203
4.02139 21.75831 4.02139
4.02077 21.84652 4.02077
4.02017 21.93471 4.02017
4.01958 22.02287 4.01958
4.01901 22.11100 4.01901
4.01845 22.19911 4.01845
4.01791 22.28719 4.01791
4.01739 22.37525 4.01739
4.01688 22.46329 4.01688
4.01638 22.55130 4.01638
4.01590 22.63930 4.01590
4.01543 22.72727 4.01543
4.01497 22.81523 4.01497
4.01453 22.90317 4.01453
4.01410 22.99109 4.01410
4.01368 23.07899 4.01369
4.01327 23.16688 4.01327
4.01288 23.25475 4.01288
4.01250 23.34261 4.01250
4.01213 23.43046 4.01213
4.01176 23.51829 4.01176
4.01141 23.60612 4.01141
4.01107 23.69393 4.01107
4.01074 23.78173 4.01074
4.01042 23.86952 4.01042
4.01011 23.95730 4.01011
4.00980 24.04508 4.00980
4.00951 24.13284 4.00951
4.00923 24.22060 4.00922
4.00895 24.30836 4.00895
4.00868 24.39610 4.00868
4.00842 24.48384 4.00842
4.00816 24.57158 4.00816
4.00792 24.65931 4.00792
4.00768 24.74704 4.00768
4.00745 24.83477 4.00745
4.00722 24.92249 4.00722
4.00700 25.01021 4.00701
4.00679 25.09793 4.00679
4.00659 25.18565 4.00659
4.00638 25.27337 4.00639
4.00619 25.36108 4.00619
4.00601 25.44880 4.00601
4.00582 25.53652 4.00582
4.00565 25.62424 4.00565
4.00548 25.71195 4.00548
4.00531 25.79968 4.00531
4.00515 25.88740 4.00515
4.00499 25.97512 4.00499
4.00484 26.06285 4.00484
4.00469 26.15058 4.00469
4.00455 26.23831 4.00455
4.00441 26.32605 4.00441
4.00428 26.41379 4.00428
4.00415 26.50153 4.00415
4.00402 26.58928 4.00402
4.00390 26.67704 4.00390
4.00378 26.76479 4.00378
4.00366 26.85256 4.00366
4.00355 26.94032 4.00355
4.00344 27.02810 4.00344
4.00334 27.11587 4.00334
4.00324 27.20365 4.00324
4.00314 27.29144 4.00314
4.00305 27.37924 4.00304
4.00295 27.46704 4.00295
4.00286 27.55485 4.00286

