Angle 0.636709 4.299027

4.00000 7.03348 4.00000
4.00000 7.03348 4.00000
4.00000 7.03348 4.00000
4.00000 7.03348 4.00000
4.00000 7.03348 4.00000
4.00000 7.03348 4.00000
4.00000 7.03347 4.00000
4.00000 7.03348 4.00000
4.00000 7.03348 4.00000
4.00000 7.03348 4.00000
4.00000 7.03348 4.00000
4.00000 7.03348 4.00000
4.00000 7.03348 4.00000
4.00000 7.03347 4.00000
4.00000 7.03348 4.00000
4.00000 7.03348 4.00000
4.00000 7.03348 4.00000
4.00000 7.03348 4.00000
4.00000 7.03348 4.00000
4.00000 7.03348 4.00000
4.00000 7.03348 4.00000
4.00000 7.03347 4.00000
4.00000 7.03347 4.00000
4.00000 7.03347 4.00000
4.00000 7.03348 4.00000
4.00000 7.03348 4.00000
4.00000 7.03348 4.00000
4.00000 7.03348 4.00000
4.00000 7.03348 4.00000
4.00000 7.03347 4.00000
4.00000 7.03348 4.00000
4.00000 7.03348 4.00000
4.00000 7.03348 4.00000
4.00000 7.03348 4.00000
4.00000 7.03348 4.00000
4.00000 7.03348 4.00000
4.00000 7.03348 4.00000
4.00000 7.03348 4.00000
4.00000 7.03348 4.00000
4.00000 7.03348 4.00000
4.00000 7.03348 4.00000
4.00000 7.03348 4.00000
4.00000 7.03348 4.00000
4.00000 7.03348 4.00000
4.00000 7.03348 4.00000
4.00000 7.03348 4.00000
4.00000 7.03348 4.00000
4.00000 7.03348 4.00000
4.00000 7.03348 4.00000
4.00000 7.03348 4.00000
4.00000 7.03346 4.00000
4.00000 7.03346 4.00000
4.00000 7.03346 4.00000
4.00000 7.03347 4.00000
4.00000 7.03347 4.00000
4.00000 7.03347 4.00000
4.00000 7.03347 4.00000
4.00000 7.03347 4.00000
4.00000 7.03347 4.00000
4.00000 7.03348 4.00000
4.00000 7.03348 4.00000
4.00000 7.03348 4.00000
4.00000 7.03348 4.00000
4.00000 7.03348 4.00000
4.00000 7.03348 4.00000
4.00000 7.03348 4.00000
4.00000 7.03348 4.00000
4.00000 7.03348 4.00000
4.00000 7.03348 4.00000
4.00000 7.03349 4.00000
4.00000 7.03348 4.00000
4.00000 7.03348 4.00000
4.00000 7.03348 4.00000
4.00000 7.03348 4.00000
4.00000 7.03347 4.00000
4.00000 7.03348 4.00000
4.00000 7.03348 4.00000
4.00000 7.03348 4.00000
4.00000 7.03348 4.00000
4.00000 7.03348 4.00000
4.00000 7.03348 4.00000
4.00000 7.03348 4.00000
4.00000 7.03347 4.00000
4.00000 7.03350 4.00000
4.00000 7.03348 4.00000
4.00000 7.03349 4.00000
4.00000 7.03348 4.00000
4.00000 7.03348 4.00000
4.00000 7.03348 4.00000
4.00000 7.03348 4.00000
4.00000 7.03348 4.00000
4.00000 7.03348 4.00000
4.00000 7.03348 4.00000
4.00000 7.03348 4.00000
4.00000 7.03347 4.00000
4.00000 7.03348 4.00000
4.00000 7.03348 4.00000
4.00000 7.03348 4.00000
4.00000 7.03349 4.00000
4.00000 7.03349 4.00000
4.00000 7.03348 4.00000
4.00000 7.03348 4.00000
4.00000 7.03348 4.00000
4.00000 7.03348 4.00000
4.00000 7.03348 4.00000
4.00000 7.03348 4.00000
4.00000 7.03348 4.00000
4.00000 7.03348 4.00000
4.00000 7.03348 4.00000
4.00000 7.03348 4.00000
4.00000 7.03348 4.00000
4.00000 7.03348 4.00000
4.00000 7.03348 4.00000
4.00000 7.03348 4.00000
4.00000 7.03348 4.00000
4.00000 7.03348 4.00000
4.00000 7.03348 4.00000
4.00000 7.03348 4.00000
4.00000 7.03348 4.00000
4.00000 7.03348 4.00000
4.00000 7.03347 4.00000
4.00000 7.03348 4.00000
4.00000 7.03348 4.00000
4.00000 7.03348 4.00000
4.00000 7.03348 4.00000
4.00000 7.03348 4.00000
4.00000 7.03348 4.00000
4.00000 7.03348 4.00000
4.00000 7.03348 4.00000
4.00000 7.03348 4.00000
4.00000 7.03348 4.00000
4.00000 7.03347 4.00000
4.00000 7.03348 4.00000
4.00000 7.03348 4.00000
4.00000 7.03348 4.00000
4.00000 7.03348 4.00000
4.00000 7.03348 4.00000
4.00000 7.03348 4.00000
4.00000 7.03348 4.00000
4.00000 7.03347 4.00000
4.00000 7.03347 4.00000
4.00000 7.03347 4.00000
4.00000 7.03347 4.00000
4.00000 7.03348 4.00000
4.00000 7.03348 4.00000
4.00000 7.03348 4.00000
4.00000 7.03348 4.00000
4.00000 7.03348 4.00000
4.00000 7.03348 4.00000
4.00000 7.03349 4.00000
4.00000 7.03348 4.00000
4.00000 7.03348 4.00000
4.00000 7.03348 4.00000
4.00000 7.03348 4.00000
4.00000 7.03348 4.00000
4.00000 7.03348 4.00000
4.00000 7.03348 4.00000
4.00000 7.03348 4.00000
4.00000 7.03348 4.00000
4.00000 7.03348 4.00000
4.00000 7.03348 4.00000
4.00000 7.03348 4.00000
4.00000 7.03348 4.00000
4.00000 7.03348 4.00000
4.00000 7.03348 4.00000
4.00000 7.03348 4.00000
4.00000 7.03348 4.00000
4.00000 7.03348 4.00000
4.00000 7.03348 4.00000
4.00000 7.03348 4.00000
4.00000 7.03348 4.00000
4.00000 7.03348 4.00000
4.00000 7.03348 4.00000
4.00000 7.03348 4.00000
4.00000 7.03348 4.00000
4.00000 7.03348 4.00000
4.00000 7.03348 4.00000
4.00000 7.03349 4.00000
4.00000 7.03348 4.00000
4.00000 7.03348 4.00000
4.00000 7.03348 4.00000
4.00000 7.03348 4.00000
4.00000 7.03348 4.00000
4.00000 7.03347 4.00000
4.00000 7.03348 4.00000
4.00000 7.03348 4.00000
4.00000 7.03348 4.00000
4.00000 7.03348 4.00000
4.00000 7.03348 4.00000
4.00000 7.03348 4.00000
4.00000 7.03348 4.00000
4.00000 7.03348 4.00000
4.00000 7.03348 4.00000
4.00000 7.03348 4.00000
4.00000 7.03348 4.00000
4.00000 7.03348 4.00000
4.00000 7.03348 4.00000
4.00000 7.03348 4.00000
4.00000 7.03348 4.00000
4.00000 7.03348 4.00000
4.00000 7.03348 4.00000
4.00000 7.03348 4.00000
4.00000 7.03348 4.00000
4.00000 7.03348 4.00000
4.00000 7.03348 4.00000
4.00000 7.03348 4.00000
4.00000 7.03348 4.00000
4.00000 7.03348 4.00000
4.00000 7.03348 4.00000
4.00000 7.03348 4.00000
4.00000 7.03348 4.00000
4.00000 7.03348 4.00000
4.00000 7.03348 4.00000
4.00000 7.03348 4.00000
4.00000 7.03348 4.00000
4.00000 7.03348 4.00000
4.00000 7.03348 4.00000
4.00000 7.03348 4.00000
4.00000 7.03348 4.00000
4.00000 7.03348 4.00000
4.00000 7.03348 4.00000
4.00000 7.03348 4.00000
4.00000 7.03348 4.00000
4.00000 7.03348 4.00000
4.00000 7.03348 4.00000
4.00000 7.03348 4.00000
4.00000 7.03347 4.00000
4.00000 7.03348 4.00000
4.00000 7.03348 4.00000
4.00000 7.03348 4.00000
4.00000 7.03348 4.00000
4.00000 7.03350 4.00000
4.00000 7.03348 4.00000
4.00000 7.03349 4.00000
4.00000 7.03348 4.00000
4.00000 7.03348 4.00000
4.00000 7.03348 4.00000
4.00000 7.03348 4.00000
4.00000 7.03348 4.00000
4.00000 7.03350 4.00000
4.00000 7.03348 4.00000
4.00000 7.03348 4.00000
4.00000 7.03348 4.00000
4.00000 7.03346 4.00000
4.00000 7.03348 4.00000
4.00000 7.03348 4.00000
4.00000 7.03346 4.00000
4.00000 7.03347 4.00000
4.00022 7.03770 4.00022
4.00388 7.11047 4.00388
4.00745 7.18369 4.00745
4.01094 7.25729 4.01093
4.01435 7.33124 4.01435
4.01771 7.40548 4.01771
4.02102 7.47997 4.02102
4.02430 7.55466 4.02430
4.02756 7.62952 4.02756
4.03081 7.70449 4.03081
4.03407 7.77952 4.03407
4.03735 7.85458 4.03735
4.04066 7.92961 4.04066
4.04403 8.00454 4.04403
4.04747 8.07934 4.04747
4.05100 8.15392 4.05100
4.05465 8.22822 4.05465
4.05844 8.30215 4.05844
4.06240 8.37560 4.06240
4.06658 8.44847 4.06658
4.07100 8.52062 4.07100
4.07574 8.59189 4.07574
4.08086 8.66207 4.08085
4.08635 8.73117 4.08635
4.09217 8.79935 4.09218
4.09833 8.86662 4.09833
4.10484 8.93296 4.10484
4.11169 8.99839 4.11169
4.11887 9.06295 4.11887
4.12638 9.12668 4.12638
4.13420 9.18967 4.13420
4.14229 9.25203 4.14229
4.15060 9.31392 4.15060
4.15908 9.37550 4.15908
4.16764 9.43704 4.16763
4.17618 9.49884 4.17618
4.18457 9.56126 4.18457
4.19265 9.62479 4.19265
4.20020 9.69000 4.20020
4.20697 9.75760 4.20697
4.21265 9.82845 4.21265
4.21687 9.90356 4.21687
4.21923 9.98405 4.21923
4.21936 10.07095 4.21936
4.21772 10.16294 4.21772
4.21544 10.25680 4.21544
4.21254 10.35246 4.21254
4.20902 10.44999 4.20902
4.20481 10.54953 4.20481
4.19985 10.65135 4.19985
4.19399 10.75584 4.19399
4.18704 10.86363 4.18704
4.17869 10.97570 4.17869
4.16839 11.09371 4.16839
4.15514 11.22084 4.15514
4.13656 11.36460 4.13656
4.10349 11.55427 4.10349
4.00000 13.19120 4.00000
4.00000 13.19120 4.00000
4.00000 13.19120 4.00000
4.00000 13.19120 4.00000
4.00000 13.19120 4.00000
4.00000 13.19120 4.00000
4.00000 13.19120 4.00000
4.00000 13.19120 4.00000
4.00000 13.19121 4.00000
4.00000 13.19120 4.00000
4.00000 13.19120 4.00000
4.00000 13.19120 4.00000
4.00000 13.19120 4.00000
4.00000 13.19121 4.00000
4.00317 13.20103 4.00317
4.01596 13.24573 4.01596
4.02744 13.29526 4.02744
4.03747 13.35005 4.03747
4.04586 13.41051 4.04586
4.05245 13.47708 4.05245
4.05709 13.55014 4.05709
4.05978 13.62963 4.05978
4.06198 13.71076 4.06198
4.06411 13.79213 4.06411
4.06618 13.87372 4.06618
4.06820 13.95551 4.06820
4.07018 14.03748 4.07018
4.07211 14.11961 4.07211
4.07401 14.20189 4.07401
4.07587 14.28430 4.07587
4.07770 14.36684 4.07770
4.07951 14.44950 4.07951
4.08129 14.53226 4.08129
4.08304 14.61513 4.08304
4.08478 14.69809 4.08478
4.08649 14.78114 4.08649
4.08818 14.86427 4.08818
4.08986 14.94748 4.08986
4.09153 15.03077 4.09152
4.09315 15.11418 4.09315
4.09455 15.19834 4.09455
4.09568 15.28338 4.09568
4.09655 15.36924 4.09655
4.09718 15.45589 4.09718
4.09759 15.54326 4.09759
4.09778 15.63133 4.09778
4.09777 15.72003 4.09777
4.09758 15.80933 4.09757
4.09721 15.89918 4.09721
4.09669 15.98954 4.09669
4.09603 16.08036 4.09603
4.09524 16.17162 4.09524
4.09432 16.26327 4.09432
4.09330 16.35528 4.09330
4.09218 16.44760 4.09218
4.09098 16.54022 4.09098
4.08970 16.63310 4.08970
4.08835 16.72621 4.08835
4.08695 16.81952 4.08695
4.08550 16.91301 4.08550
4.08400 17.00665 4.08400
4.08247 17.10043 4.08247
4.08090 17.19432 4.08090
4.07932 17.28830 4.07932
4.07772 17.38235 4.07772
4.07610 17.47647 4.07610
4.07448 17.57062 4.07448
4.07286 17.66481 4.07286
4.07123 17.75902 4.07123
4.06961 17.85323 4.06961
4.06800 17.94744 4.06800
4.06640 18.04163 4.06640
4.06480 18.13581 4.06480
4.06323 18.22995 4.06323
4.06167 18.32405 4.06167
4.06013 18.41812 4.06013
4.05861 18.51213 4.05861
4.05711 18.60609 4.05711
4.05564 18.70000 4.05563
4.05419 18.79384 4.05418
4.05276 18.88761 4.05276
4.05136 18.98132 4.05136
4.04998 19.07496 4.04998
4.04863 19.16853 4.04863
4.04731 19.26203 4.04731
4.04601 19.35544 4.04602
4.04475 19.44878 4.04475
4.04351 19.54205 4.04351
4.04230 19.63524 4.04230
4.04111 19.72835 4.04111
4.03995 19.82139 4.03995
4.03882 19.91435 4.03882
4.03772 20.00724 4.03772
4.03664 20.10005 4.03664
4.03559 20.19279 4.03558

Angle 0.427600 3.801134

4.00000 7.03348 4.00000
4.00000 7.03348 4.00000
4.00000 7.03348 4.00000
4.00000 7.03348 4.00000
4.00000 7.03348 4.00000
4.00000 7.03348 4.00000
4.00000 7.03348 4.00000
4.00000 7.03348 4.00000
4.00000 7.03348 4.00000
4.00000 7.03348 4.00000
4.00000 7.03348 4.00000
4.00000 7.03348 4.00000
4.00000 7.03348 4.00000
4.00000 7.03349 4.00000
4.00000 7.03348 4.00000
4.00000 7.03348 4.00000
4.00000 7.03348 4.00000
4.00000 7.03348 4.00000
4.00000 7.03348 4.00000
4.00000 7.03348 4.00000
4.00000 7.03348 4.00000
4.00000 7.03348 4.00000
4.00000 7.03348 4.00000
4.00000 7.03348 4.00000
4.00000 7.03349 4.00000
4.00000 7.03349 4.00000
4.00000 7.03348 4.00000
4.00000 7.03348 4.00000
4.00000 7.03348 4.00000
4.00000 7.03348 4.00000
4.00000 7.03348 4.00000
4.00000 7.03348 4.00000
4.00000 7.03348 4.00000
4.00000 7.03348 4.00000
4.00000 7.03348 4.00000
4.00000 7.03348 4.00000
4.00000 7.03348 4.00000
4.00000 7.03348 4.00000
4.00000 7.03348 4.00000
4.00000 7.03348 4.00000
4.00000 7.03348 4.00000
4.00000 7.03348 4.00000
4.00000 7.03348 4.00000
4.00000 7.03348 4.00000
4.00000 7.03348 4.00000
4.00000 7.03348 4.00000
4.00000 7.03348 4.00000
4.00000 7.03348 4.00000
4.00000 7.03347 4.00000
4.00000 7.03348 4.00000
4.00000 7.03348 4.00000
4.00000 7.03348 4.00000
4.00000 7.03348 4.00000
4.00000 7.03348 4.00000
4.00000 7.03347 4.00000
4.00000 7.03348 4.00000
4.00000 7.03348 4.00000
4.00000 7.03348 4.00000
4.00000 7.03348 4.00000
4.00000 7.03348 4.00000
4.00000 7.03346 4.00000
4.00000 7.03346 4.00000
4.00000 7.03347 4.00000
4.00000 7.03347 4.00000
4.00000 7.03348 4.00000
4.00000 7.03348 4.00000
4.00000 7.03341 4.00000
4.00000 7.03355 4.00000
4.00000 7.03348 4.00000
4.00084 7.01702 4.00086
4.00380 6.96072 4.00380
4.00642 6.91214 4.00642
4.00848 6.87478 4.00848
4.00972 6.85269 4.00972
4.00992 6.84925 4.00992
4.00903 6.86505 4.00903
4.00722 6.89751 4.00722
4.00477 6.94257 4.00477
4.00192 6.99646 4.00190
4.00000 7.03348 4.00000
4.00000 7.03348 4.00000
4.00000 7.03353 4.00000
4.00000 7.03349 4.00000
4.00000 7.03348 4.00000
4.00000 7.03350 4.00000
4.00000 7.03348 4.00000
4.00000 7.03348 4.00000
4.00000 7.03348 4.00000
4.00000 7.03348 4.00000
4.00000 7.03348 4.00000
4.00000 7.03348 4.00000
4.00000 7.03350 4.00000
4.00000 7.03348 4.00000
4.00000 7.03349 4.00000
4.00000 7.03348 4.00000
4.00000 7.03348 4.00000
4.00000 7.03348 4.00000
4.00000 7.03348 4.00000
4.00000 7.03348 4.00000
4.00000 7.03347 4.00000
4.00000 7.03348 4.00000
4.00000 7.03348 4.00000
4.00000 7.03347 4.00000
4.00000 7.03348 4.00000
4.00000 7.03348 4.00000
4.00000 7.03348 4.00000
4.00000 7.03348 4.00000
4.00000 7.03348 4.00000
4.00000 7.03348 4.00000
4.00000 7.03348 4.00000
4.00000 7.03348 4.00000
4.00000 7.03348 4.00000
4.00000 7.03348 4.00000
4.00000 7.03348 4.00000
4.00000 7.03347 4.00000
4.00000 7.03347 4.00000
4.00000 7.03348 4.00000
4.00000 7.03349 4.00000
4.00000 7.03348 4.00000
4.00000 7.03348 4.00000
4.00000 7.03348 4.00000
4.00000 7.03348 4.00000
4.00000 7.03348 4.00000
4.00000 7.03348 4.00000
4.00000 7.03348 4.00000
4.00000 7.03348 4.00000
4.00000 7.03348 4.00000
4.00000 7.03348 4.00000
4.00000 7.03348 4.00000
4.00000 7.03348 4.00000
4.00000 7.03347 4.00000
4.00000 7.03347 4.00000
4.00000 7.03348 4.00000
4.00000 7.03348 4.00000
4.00000 7.03348 4.00000
4.00000 7.03348 4.00000
4.00000 7.03348 4.00000
4.00000 7.03348 4.00000
4.00000 7.03348 4.00000
4.00000 7.03348 4.00000
4.00000 7.03348 4.00000
4.00000 7.03348 4.00000
4.00000 7.03348 4.00000
4.00000 7.03348 4.00000
4.00000 7.03348 4.00000
4.00000 7.03348 4.00000
4.00000 7.03348 4.00000
4.00000 7.03348 4.00000
4.00000 7.03348 4.00000
4.00000 7.03348 4.00000
4.00000 7.03348 4.00000
4.00000 7.03348 4.00000
4.00000 7.03348 4.00000
4.00000 7.03348 4.00000
4.00000 7.03348 4.00000
4.00000 7.03348 4.00000
4.00000 7.03348 4.00000
4.00000 7.03348 4.00000
4.00000 7.03348 4.00000
4.00000 7.03348 4.00000
4.00000 7.03346 4.00000
4.00000 7.03346 4.00000
4.00000 7.03348 4.00000
4.00000 7.03348 4.00000
4.00000 7.03348 4.00000
4.00000 7.03348 4.00000
4.00000 7.03348 4.00000
4.00000 7.03348 4.00000
4.00000 7.03348 4.00000
4.00000 7.03348 4.00000
4.00000 7.03348 4.00000
4.00000 7.03348 4.00000
4.00000 7.03348 4.00000
4.00000 7.03348 4.00000
4.00000 7.03348 4.00000
4.00000 7.03348 4.00000
4.00000 7.03348 4.00000
4.00000 7.03348 4.00000
4.00000 7.03348 4.00000
4.00000 7.03348 4.00000
4.00000 7.03348 4.00000
4.00000 7.03348 4.00000
4.00000 7.03348 4.00000
4.00000 7.03348 4.00000
4.00000 7.03348 4.00000
4.00000 7.03348 4.00000
4.00000 7.03348 4.00000
4.00000 7.03348 4.00000
4.00000 7.03348 4.00000
4.00000 7.03348 4.00000
4.00000 7.03348 4.00000
4.00000 7.03348 4.00000
4.00000 7.03348 4.00000
4.00000 7.03348 4.00000
4.00000 7.03348 4.00000
4.00000 7.03348 4.00000
4.00000 7.03348 4.00000
4.00000 7.03348 4.00000
4.00000 7.03348 4.00000
4.00000 7.03348 4.00000
4.00000 7.03348 4.00000
4.00000 7.03348 4.00000
4.00000 7.03348 4.00000
4.00000 7.03348 4.00000
4.00000 7.03349 4.00000
4.00000 7.03348 4.00000
4.00000 7.03348 4.00000
4.00000 7.03348 4.00000
4.00000 7.03348 4.00000
4.00000 7.03349 4.00000
4.00000 7.03349 4.00000
4.00000 7.03350 4.00000
4.00000 7.03352 4.00000
4.00000 7.03348 4.00000
4.00000 7.03348 4.00000
4.00000 7.03348 4.00000
4.00000 7.03348 4.00000
4.00000 7.03344 4.00000
4.00000 7.03348 4.00000
4.00000 7.03349 4.00000
4.00000 7.03348 4.00000
4.00000 7.03348 4.00000
4.00000 7.03348 4.00000
4.00122 7.05733 4.00122
4.00508 7.13470 4.00508
4.00882 7.21248 4.00883
4.01248 7.29061 4.01249
4.01607 7.36904 4.01607
4.01959 7.44772 4.01959
4.02307 7.52658 4.02307
4.02652 7.60557 4.02652
4.02995 7.68466 4.02995
4.03338 7.76378 4.03338
4.03683 7.84287 4.03683
4.04032 7.92188 4.04032
4.04386 8.00076 4.04386
4.04748 8.07943 4.04748
4.05119 8.15781 4.05119
4.05503 8.23582 4.05503
4.05903 8.31336 4.05903
4.06322 8.39031 4.06322
4.06766 8.46655 4.06766
4.07238 8.54192 4.07238
4.07746 8.61621 4.07746
4.08296 8.68921 4.08296
4.08885 8.76109 4.08885
4.09510 8.83193 4.09510
4.10172 8.90173 4.10172
4.10871 8.97049 4.10871
4.11607 9.03823 4.11607
4.12379 9.10503 4.12379
4.13184 9.17095 4.13184
4.14019 9.23611 4.14019
4.14880 9.30068 4.14880
4.15760 9.36485 4.15760
4.16650 9.42888 4.16650
4.17540 9.49312 4.17540
4.18414 9.55797 4.18414
4.19255 9.62396 4.19255
4.20039 9.69172 4.20039
4.20737 9.76205 4.20737
4.21316 9.83593 4.21316
4.21732 9.91449 4.21732
4.21943 9.99895 4.21943
4.21908 10.09044 4.21908
4.21720 10.18627 4.21720
4.21467 10.28400 4.21467
4.21148 10.38364 4.21148
4.20760 10.48529 4.20760
4.20296 10.58914 4.20296
4.19747 10.69554 4.19747
4.19094 10.80501 4.19094
4.18312 10.91839 4.18312
4.17355 11.03705 4.17355
4.16143 11.16352 4.16143
4.14504 11.30320 4.14504
4.11910 11.47290 4.11910
4.00000 13.19120 4.00000
4.00000 13.19120 4.00000
4.00000 13.19120 4.00000
4.00000 13.19120 4.00000
4.00000 13.19120 4.00000
4.00000 13.19120 4.00000
4.00000 13.19120 4.00000
4.00000 13.19120 4.00000
4.00000 13.19120 4.00000
4.00000 13.19120 4.00000
4.00000 13.19120 4.00000
4.00000 13.19120 4.00000
4.00000 13.19120 4.00000
4.00000 13.19120 4.00000
4.00414 13.20414 4.00414
4.01717 13.25049 4.01717
4.02881 13.30196 4.02881
4.03888 13.35903 4.03888
4.04719 13.42214 4.04719
4.05358 13.49174 4.05358
4.05788 13.56825 4.05788
4.06036 13.65074 4.06036
4.06259 13.73403 4.06259
4.06476 13.81755 4.06476
4.06687 13.90128 4.06687
4.06892 13.98519 4.06892
4.07093 14.06926 4.07093
4.07290 14.15347 4.07290
4.07483 14.23782 4.07483
4.07672 14.32229 4.07672
4.07858 14.40687 4.07858
4.08042 14.49154 4.08042
4.08222 14.57632 4.08222
4.08401 14.66117 4.08401
4.08577 14.74611 4.08577
4.08751 14.83111 4.08751
4.08923 14.91619 4.08923
4.09094 15.00132 4.09094
4.09263 15.08652 4.09263
4.09415 15.17225 4.09415
4.09538 15.25890 4.09538
4.09635 15.34641 4.09635
4.09705 15.43473 4.09705
4.09752 15.52381 4.09752
4.09775 15.61360 4.09775
4.09778 15.70405 4.09778
4.09762 15.79512 4.09762
4.09727 15.88675 4.09727
4.09676 15.97890 4.09676
4.09610 16.07153 4.09610
4.09530 16.16460 4.09530
4.09438 16.25807 4.09438
4.09334 16.35189 4.09334
4.09220 16.44603 4.09220
4.09098 16.54046 4.09098
4.08967 16.63515 4.08967
4.08830 16.73006 4.08830
4.08686 16.82516 4.08686
4.08538 16.92044 4.08538
4.08385 17.01586 4.08385
4.08228 17.11140 4.08228
4.08069 17.20704 4.08069
4.07907 17.30276 4.07907
4.07744 17.39854 4.07744
4.07580 17.49437 4.07580
4.07414 17.59023 4.07414
4.07249 17.68610 4.07249
4.07084 17.78198 4.07084
4.06919 17.87785 4.06919
4.06755 17.97369 4.06755
4.06592 18.06951 4.06592
4.06431 18.16530 4.06431
4.06271 18.26103 4.06271
4.06113 18.35672 4.06113
4.05957 18.45234 4.05957
4.05804 18.54790 4.05804
4.05652 18.64340 4.05652
4.05503 18.73882 4.05503
4.05357 18.83416 4.05357
4.05213 18.92943 4.05213
4.05072 19.02461 4.05072
4.04933 19.11971 4.04933
4.04797 19.21472 4.04797
4.04665 19.30965 4.04665
4.04534 19.40449 4.04534
4.04407 19.49924 4.04407
4.04283 19.59390 4.04283
4.04161 19.68848 4.04161
4.04042 19.78296 4.04042
4.03927 19.87735 4.03927
4.03813 19.97166 4.03813
4.03703 20.06587 4.03703
4.03595 20.16000 4.03595
4.03490 20.25405 4.03490
4.03388 20.34800 4.03388
4.03289 20.44187 4.03289
4.03192 20.53566 4.03192
4.03097 20.62936 4.03097
4.03005 20.72299 4.03005
4.02916 20.81653 4.02916
4.02829 20.91000 4.02829
4.02744 21.00338 4.02744
4.02662 21.09669 4.02662
4.02582 21.18993 4.02582
4.02504 21.28309 4.02504
4.02428 21.37619 4.02428
4.02355 21.46921 4.02355
4.02283 21.56216 4.02283
4.02214 21.65505 4.02214
4.02147 21.74787 4.02147
4.02081 21.84063 4.02081
4.02018 21.93332 4.02018
4.01956 22.02596 4.01956
4.01896 22.11853 4.01896
4.01838 22.21105 4.01838
4.01781 22.30351 4.01781
4.01726 22.39591 4.01726
4.01673 22.48827 4.01673
4.01622 22.58056 4.01622
4.01572 22.67281 4.01572
4.01523 22.76501 4.01523
4.01476 22.85716 4.01476
4.01430 22.94926 4.01430

Angle 0.552780 0.069528

4.00000 7.03348 4.00000
4.00000 7.03349 4.00000
4.00000 7.03350 4.00000
4.00000 7.03348 4.00000
4.00000 7.03348 4.00000
4.00000 7.03348 4.00000
4.00000 7.03348 4.00000
4.00000 7.03348 4.00000
4.00000 7.03348 4.00000
4.00000 7.03348 4.00000
4.00000 7.03348 4.00000
4.00000 7.03348 4.00000
4.00000 7.03348 4.00000
4.00000 7.03348 4.00000
4.00000 7.03348 4.00000
4.00000 7.03348 4.00000
4.00000 7.03348 4.00000
4.00000 7.03348 4.00000
4.00000 7.03348 4.00000
4.00000 7.03348 4.00000
4.00000 7.03348 4.00000
4.00000 7.03348 4.00000
4.00000 7.03348 4.00000
4.00000 7.03348 4.00000
4.00000 7.03348 4.00000
4.00000 7.03348 4.00000
4.00000 7.03348 4.00000
4.00000 7.03349 4.00000
4.00000 7.03348 4.00000
4.00000 7.03348 4.00000
4.00000 7.03348 4.00000
4.00000 7.03348 4.00000
4.00000 7.03349 4.00000
4.00000 7.03348 4.00000
4.00000 7.03348 4.00000
4.00000 7.03348 4.00000
4.00000 7.03348 4.00000
4.00000 7.03348 4.00000
4.00000 7.03348 4.00000
4.00000 7.03348 4.00000
4.00000 7.03348 4.00000
4.00000 7.03348 4.00000
4.00000 7.03348 4.00000
4.00000 7.03348 4.00000
4.00000 7.03348 4.00000
4.00000 7.03348 4.00000
4.00000 7.03347 4.00000
4.00000 7.03348 4.00000
4.00000 7.03348 4.00000
4.00000 7.03348 4.00000
4.00000 7.03348 4.00000
4.00000 7.03348 4.00000
4.00000 7.03347 4.00000
4.00000 7.03347 4.00000
4.00000 7.03348 4.00000
4.00000 7.03348 4.00000
4.00000 7.03348 4.00000
4.00000 7.03348 4.00000
4.00000 7.03349 4.00000
4.00000 7.03348 4.00000
4.00000 7.03348 4.00000
4.00000 7.03347 4.00000
4.00000 7.03348 4.00000
4.00000 7.03348 4.00000
4.00000 7.03348 4.00000
4.00000 7.03348 4.00000
4.00000 7.03348 4.00000
4.00000 7.03348 4.00000
4.00000 7.03348 4.00000
4.00000 7.03348 4.00000
4.00000 7.03348 4.00000
4.00000 7.03346 4.00000
4.00000 7.03348 4.00000
4.00000 7.03347 4.00000
4.00000 7.03348 4.00000
4.00000 7.03348 4.00000
4.00000 7.03348 4.00000
4.00000 7.03348 4.00000
4.00000 7.03348 4.00000
4.00000 7.03348 4.00000
4.00000 7.03348 4.00000
4.00000 7.03348 4.00000
4.00000 7.03348 4.00000
4.00000 7.03347 4.00000
4.00000 7.03347 4.00000
4.00000 7.03350 4.00000
4.00000 7.03348 4.00000
4.00000 7.03354 4.00000
4.00000 7.03349 4.00000
4.00000 7.03348 4.00000
4.00038 7.04094 4.00038
4.00384 7.10959 4.00384
4.00721 7.17871 4.00721
4.01051 7.24821 4.01051
4.01375 7.31809 4.01375
4.01693 7.38829 4.01694
4.02008 7.45878 4.02008
4.02320 7.52951 4.02320
4.02629 7.60045 4.02629
4.02938 7.67156 4.02938
4.03247 7.74280 4.03247
4.03558 7.81413 4.03558
4.03871 7.88551 4.03871
4.04188 7.95688 4.04188
4.04511 8.02820 4.04511
4.04841 8.09942 4.04841
4.05180 8.17047 4.05180
4.05531 8.24129 4.05531
4.05895 8.31180 4.05895
4.06275 8.38191 4.06275
4.06676 8.45152 4.06676
4.07100 8.52049 4.07100
4.07552 8.58870 4.07552
4.08039 8.65597 4.08039
4.08562 8.72225 4.08562
4.09115 8.78773 4.09115
4.09699 8.85239 4.09699
4.10316 8.91624 4.10316
4.10964 8.97927 4.10964
4.11644 9.04152 4.11644
4.12355 9.10302 4.12355
4.13095 9.16384 4.13095
4.13862 9.22405 4.13862
4.14652 9.28378 4.14652
4.15461 9.34317 4.15461
4.16282 9.40242 4.16282
4.17107 9.46177 4.17107
4.17926 9.52150 4.17926
4.18727 9.58200 4.18727
4.19493 9.64371 4.19493
4.20203 9.70719 4.20203
4.20835 9.77312 4.20835
4.21357 9.84230 4.21357
4.21737 9.91568 4.21737
4.21937 9.99427 4.21937
4.21925 10.07898 4.21925
4.21761 10.16811 4.21761
4.21537 10.25899 4.21538
4.21257 10.35158 4.21257
4.20917 10.44596 4.20917
4.20514 10.54225 4.20514
4.20040 10.64069 4.20040
4.19484 10.74163 4.19483
4.18828 10.84559 4.18828
4.18045 10.95342 4.18045
4.17092 11.06650 4.17092
4.15889 11.18731 4.15889
4.14264 11.32123 4.14264
4.11692 11.48503 4.11693
4.00000 13.19120 4.00000
4.00000 13.19120 4.00000
4.00000 13.19120 4.00000
4.00000 13.19120 4.00000
4.00000 13.19120 4.00000
4.00000 13.19120 4.00000
4.00000 13.19120 4.00000
4.00000 13.19120 4.00000
4.00000 13.19120 4.00000
4.00000 13.19120 4.00000
4.00000 13.19120 4.00000
4.00000 13.19120 4.00000
4.00000 13.19119 4.00000
4.00000 13.19120 4.00000
4.00000 13.19121 4.00000
4.00660 13.21219 4.00660
4.01878 13.25692 4.01878
4.02968 13.30634 4.02968
4.03916 13.36087 4.03916
4.04706 13.42089 4.04706
4.05322 13.48681 4.05322
4.05749 13.55899 4.05750
4.05999 13.63707 4.05999
4.06213 13.71635 4.06213
4.06420 13.79587 4.06421
4.06623 13.87562 4.06623
4.06820 13.95558 4.06820
4.07014 14.03571 4.07014
4.07203 14.11602 4.07203
4.07389 14.19649 4.07389
4.07571 14.27711 4.07571
4.07751 14.35786 4.07751
4.07928 14.43875 4.07928
4.08102 14.51975 4.08102
4.08274 14.60086 4.08274
4.08444 14.68208 4.08444
4.08613 14.76341 4.08613
4.08779 14.84482 4.08779
4.08944 14.92633 4.08944
4.09107 15.00793 4.09107
4.09269 15.08960 4.09269
4.09414 15.17183 4.09415
4.09533 15.25493 4.09534
4.09627 15.33885 4.09628
4.09698 15.42356 4.09698
4.09745 15.50900 4.09746
4.09772 15.59513 4.09772
4.09780 15.68191 4.09779
4.09768 15.76930 4.09768
4.09740 15.85724 4.09740
4.09696 15.94571 4.09696
4.09638 16.03467 4.09638
4.09566 16.12407 4.09566
4.09483 16.21388 4.09483
4.09388 16.30406 4.09388
4.09284 16.39459 4.09284
4.09170 16.48543 4.09170
4.09049 16.57655 4.09049
4.08920 16.66791 4.08920
4.08786 16.75951 4.08786
4.08646 16.85130 4.08646
4.08502 16.94328 4.08502
4.08353 17.03540 4.08353
4.08202 17.12766 4.08202
4.08047 17.22003 4.08047
4.07891 17.31250 4.07891
4.07733 17.40505 4.07733
4.07574 17.49767 4.07574
4.07414 17.59034 4.07414
4.07254 17.68304 4.07254
4.07094 17.77577 4.07094
4.06935 17.86851 4.06935
4.06776 17.96126 4.06776
4.06619 18.05401 4.06619
4.06462 18.14674 4.06462
4.06307 18.23946 4.06307
4.06154 18.33215 4.06154
4.06002 18.42481 4.06002
4.05852 18.51743 4.05852
4.05705 18.61000 4.05705
4.05560 18.70254 4.05560
4.05417 18.79502 4.05417
4.05276 18.88745 4.05276
4.05138 18.97982 4.05138
4.05002 19.07213 4.05002
4.04869 19.16439 4.04869
4.04738 19.25659 4.04739
4.04611 19.34871 4.04611
4.04485 19.44078 4.04485
4.04363 19.53278 4.04363
4.04243 19.62472 4.04243
4.04126 19.71658 4.04126
4.04011 19.80839 4.04011
4.03899 19.90012 4.03899
4.03789 19.99179 4.03790
4.03683 20.08339 4.03683
4.03579 20.17493 4.03579
4.03477 20.26640 4.03477
4.03378 20.35781 4.03378
4.03281 20.44916 4.03281
4.03187 20.54044 4.03187
4.03095 20.63166 4.03095
4.03005 20.72282 4.03005
4.02918 20.81392 4.02918
4.02833 20.90496 4.02833
4.02751 20.99595 4.02751
4.02670 21.08687 4.02670
4.02592 21.17774 4.02592
4.02516 21.26856 4.02516
4.02442 21.35932 4.02442
4.02370 21.45003 4.02370
4.02300 21.54070 4.02300
4.02231 21.63131 4.02232
4.02165 21.72187 4.02165
4.02101 21.81239 4.02101
4.02038 21.90286 4.02038
4.01977 21.99329 4.01977
4.01918 22.08367 4.01918
4.01861 22.17401 4.01861
4.01805 22.26431 4.01805
4.01751 22.35457 4.01751
4.01698 22.44480 4.01698
4.01647 22.53498 4.01647
4.01597 22.62513 4.01597
4.01549 22.71524 4.01549
4.01502 22.80532 4.01502
4.01457 22.89537 4.01457
4.01413 22.98538 4.01413
4.01370 23.07537 4.01370
4.01328 23.16532 4.01328
4.01288 23.25525 4.01288
4.01249 23.34515 4.01249
4.01211 23.43502 4.01211
4.01174 23.52486 4.01174
4.01138 23.61468 4.01138
4.01103 23.70448 4.01103
4.01069 23.79425 4.01069
4.01037 23.88400 4.01037
4.01005 23.97373 4.01005
4.00974 24.06343 4.00974
4.00944 24.15312 4.00944
4.00915 24.24279 4.00915
4.00887 24.33244 4.00887
4.00860 24.42207 4.00860
4.00834 24.51169 4.00834
4.00808 24.60129 4.00808
4.00783 24.69087 4.00783
4.00759 24.78044 4.00759
4.00736 24.87000 4.00736
4.00713 24.95954 4.00713
4.00691 25.04906 4.00691
4.00670 25.13858 4.00670
4.00649 25.22808 4.00649
4.00629 25.31758 4.00629
4.00610 25.40706 4.00610
4.00591 25.49653 4.00591
4.00572 25.58599 4.00573
4.00555 25.67544 4.00555
4.00538 25.76488 4.00538
4.00521 25.85432 4.00521
4.00505 25.94375 4.00505
4.00489 26.03316 4.00489
4.00474 26.12258 4.00474
4.00459 26.21198 4.00459
4.00445 26.30138 4.00445
4.00431 26.39078 4.00431
4.00418 26.48016 4.00418
4.00405 26.56956 4.00405
4.00392 26.65892 4.00392
4.00380 26.74831 4.00380
4.00368 26.83767 4.00368
4.00357 26.92704 4.00357
4.00346 27.01639 4.00346
4.00335 27.10576 4.00335
4.00325 27.19511 4.00325
4.00314 27.28447 4.00314
4.00305 27.37382 4.00305
4.00295 27.46317 4.00295
4.00286 27.55251 4.00286
4.00277 27.64186 4.00277
4.00268 27.73120 4.00269
4.00260 27.82055 4.00260
4.00252 27.90988 4.00252
4.00244 27.99923 4.00244
4.00237 28.08856 4.00237
4.00229 28.17791 4.00229
4.00222 28.26725 4.00222
4.00215 28.35659 4.00215
4.00209 28.44592 4.00208
4.00202 28.53527 4.00202
4.00195 28.62461 4.00196
4.00189 28.71395 4.00189
4.00183 28.80330 4.00184
4.00178 28.89264 4.00178
4.00172 28.98198 4.00172
4.00167 29.07133 4.00167
4.00162 29.16067 4.00162
4.00156 29.25003 4.00157
4.00152 29.33938 4.00152
4.00147 29.42873 4.00147
4.00142 29.51808 4.00142
4.00138 29.60744 4.00138
4.00134 29.69679 4.00134
4.00129 29.78615 4.00129
4.00125 29.87552 4.00125
4.00121 29.96488 4.00122
4.00118 30.05425 4.00118
4.00114 30.14362 4.00114
4.00110 30.23299 4.00110
4.00107 30.32236 4.00107
4.00104 30.41174 4.00104
4.00100 30.50112 4.00100
4.00097 30.59050 4.00097
4.00094 30.67989 4.00094
4.00091 30.76927 4.00091
4.00088 30.85867 4.00088
4.00086 30.94806 4.00086
4.00083 31.03746 4.00083
4.00080 31.12686 4.00080
4.00078 31.21626 4.00078
4.00075 31.30567 4.00075
4.00073 31.39508 4.00073
4.00071 31.48449 4.00071
4.00068 31.57391 4.00068
4.00066 31.66333 4.00066
4.00064 31.75275 4.00064
4.00062 31.84218 4.00063
4.00060 31.93161 4.00060
4.00058 32.02105 4.00058
4.00057 32.11048 4.00057
4.00055 32.19992 4.00055
4.00053 32.28937 4.00053
4.00051 32.37882 4.00051
4.00050 32.46827 4.00050
4.00048 32.55773 4.00048
4.00047 32.64719 4.00047
4.00045 32.73665 4.00045
4.00044 32.82612 4.00044
4.00042 32.91559 4.00042
4.00041 33.00506 4.00041
4.00040 33.09454 4.00040
4.00039 33.18402 4.00039
4.00037 33.27351 4.00037
4.00036 33.36300 4.00036
4.00035 33.45249 4.00035
4.00034 33.54198 4.00034
4.00033 33.63149 4.00033
4.00032 33.72099 4.00032
4.00031 33.81050 4.00031
4.00030 33.90001 4.00030
4.00029 33.98953 4.00029

Angle 0.467613 3.025155

4.00000 7.03348 4.00000
4.00000 7.03348 4.00000
4.00000 7.03348 4.00000
4.00000 7.03348 4.00000
4.00000 7.03348 4.00000
4.00000 7.03347 4.00000
4.00000 7.03348 4.00000
4.00000 7.03348 4.00000
4.00000 7.03348 4.00000
4.00000 7.03348 4.00000
4.00000 7.03348 4.00000
4.00000 7.03348 4.00000
4.00000 7.03348 4.00000
4.00000 7.03348 4.00000
4.00000 7.03348 4.00000
4.00000 7.03348 4.00000
4.00000 7.03348 4.00000
4.00000 7.03348 4.00000
4.00000 7.03348 4.00000
4.00000 7.03347 4.00000
4.00000 7.03348 4.00000
4.00000 7.03348 4.00000
4.00000 7.03348 4.00000
4.00000 7.03348 4.00000
4.00000 7.03348 4.00000
4.00000 7.03348 4.00000
4.00000 7.03348 4.00000
4.00000 7.03349 4.00000
4.00000 7.03348 4.00000
4.00000 7.03348 4.00000
4.00000 7.03348 4.00000
4.00000 7.03348 4.00000
4.00000 7.03352 4.00000
4.00000 7.03345 4.00000
4.00000 7.03347 4.00000
4.00000 7.03348 4.00000
4.00000 7.03348 4.00000
4.00000 7.03348 4.00000
4.00000 7.03347 4.00000
4.00000 7.03347 4.00000
4.00000 7.03347 4.00000
4.00000 7.03348 4.00000
4.00000 7.03349 4.00000
4.00000 7.03349 4.00000
4.00000 7.03348 4.00000
4.00000 7.03348 4.00000
4.00000 7.03348 4.00000
4.00000 7.03348 4.00000
4.00000 7.03348 4.00000
4.00000 7.03348 4.00000
4.00000 7.03348 4.00000
4.00000 7.03348 4.00000
4.00000 7.03348 4.00000
4.00000 7.03348 4.00000
4.00000 7.03348 4.00000
4.00000 7.03348 4.00000
4.00000 7.03348 4.00000
4.00000 7.03348 4.00000
4.00000 7.03348 4.00000
4.00000 7.03348 4.00000
4.00000 7.03348 4.00000
4.00000 7.03348 4.00000
4.00000 7.03348 4.00000
4.00000 7.03348 4.00000
4.00000 7.03348 4.00000
4.00000 7.03348 4.00000
4.00000 7.03348 4.00000
4.00000 7.03348 4.00000
4.00000 7.03348 4.00000
4.00000 7.03348 4.00000
4.00000 7.03348 4.00000
4.00000 7.03348 4.00000
4.00000 7.03348 4.00000
4.00000 7.03348 4.00000
4.00000 7.03348 4.00000
4.00000 7.03348 4.00000
4.00000 7.03348 4.00000
4.00000 7.03348 4.00000
4.00000 7.03348 4.00000
4.00000 7.03348 4.00000
4.00000 7.03348 4.00000
4.00000 7.03348 4.00000
4.00000 7.03348 4.00000
4.00000 7.03348 4.00000
4.00000 7.03348 4.00000
4.00000 7.03348 4.00000
4.00000 7.03348 4.00000
4.00000 7.03348 4.00000
4.00000 7.03348 4.00000
4.00000 7.03348 4.00000
4.00000 7.03348 4.00000
4.00000 7.03348 4.00000
4.00000 7.03348 4.00000
4.00000 7.03348 4.00000
4.00000 7.03348 4.00000
4.00000 7.03348 4.00000
4.00000 7.03348 4.00000
4.00000 7.03348 4.00000
4.00000 7.03348 4.00000
4.00000 7.03347 4.00000
4.00000 7.03347 4.00000
4.00000 7.03348 4.00000
4.00000 7.03348 4.00000
4.00000 7.03347 4.00000
4.00000 7.03347 4.00000
4.00000 7.03348 4.00000
4.00000 7.03348 4.00000
4.00000 7.03348 4.00000
4.00000 7.03348 4.00000
4.00000 7.03348 4.00000
4.00000 7.03348 4.00000
4.00000 7.03348 4.00000
4.00000 7.03348 4.00000
4.00000 7.03348 4.00000
4.00000 7.03348 4.00000
4.00000 7.03348 4.00000
4.00000 7.03348 4.00000
4.00000 7.03348 4.00000
4.00000 7.03348 4.00000
4.00000 7.03348 4.00000
4.00000 7.03348 4.00000
4.00000 7.03348 4.00000
4.00000 7.03348 4.00000
4.00000 7.03348 4.00000
4.00000 7.03348 4.00000
4.00000 7.03348 4.00000
4.00000 7.03348 4.00000
4.00000 7.03348 4.00000
4.00000 7.03348 4.00000
4.00000 7.03348 4.00000
4.00000 7.03348 4.00000
4.00000 7.03348 4.00000
4.00000 7.03348 4.00000
4.00000 7.03348 4.00000
4.00000 7.03348 4.00000
4.00000 7.03348 4.00000
4.00000 7.03348 4.00000
4.00000 7.03348 4.00000
4.00000 7.03348 4.00000
4.00000 7.03348 4.00000
4.00000 7.03348 4.00000
4.00000 7.03348 4.00000
4.00000 7.03348 4.00000
4.00000 7.03348 4.00000
4.00000 7.03348 4.00000
4.00000 7.03348 4.00000
4.00000 7.03348 4.00000
4.00000 7.03348 4.00000
4.00000 7.03348 4.00000
4.00000 7.03348 4.00000
4.00000 7.03348 4.00000
4.00000 7.03348 4.00000
4.00000 7.03348 4.00000
4.00000 7.03348 4.00000
4.00000 7.03348 4.00000
4.00000 7.03348 4.00000
4.00000 7.03348 4.00000
4.00000 7.03348 4.00000
4.00000 7.03348 4.00000
4.00000 7.03348 4.00000
4.00000 7.03348 4.00000
4.00000 7.03349 4.00000
4.00000 7.03348 4.00000
4.00000 7.03347 4.00000
4.00000 7.03347 4.00000
4.00000 7.03348 4.00000
4.00000 7.03348 4.00000
4.00000 7.03348 4.00000
4.00000 7.03348 4.00000
4.00000 7.03347 4.00000
4.00000 7.03350 4.00000
4.00052 7.04354 4.00052
4.00437 7.12039 4.00437
4.00812 7.19766 4.00812
4.01177 7.27530 4.01177
4.01535 7.35325 4.01535
4.01887 7.43146 4.01887
4.02233 7.50987 4.02234
4.02577 7.58843 4.02577
4.02919 7.66710 4.02919
4.03260 7.74581 4.03260
4.03603 7.82452 4.03603
4.03949 7.90317 4.03949
4.04300 7.98169 4.04300
4.04658 8.06004 4.04658
4.05025 8.13812 4.05025
4.05403 8.21586 4.05403
4.05797 8.29318 4.05797
4.06209 8.36994 4.06209
4.06643 8.44604 4.06643
4.07105 8.52132 4.07105
4.07600 8.59560 4.07600
4.08136 8.66865 4.08136
4.08712 8.74052 4.08712
4.09324 8.81135 4.09324
4.09972 8.88116 4.09972
4.10657 8.94994 4.10657
4.11379 9.01771 4.11379
4.12137 9.08451 4.12137
4.12929 9.15042 4.12929
4.13752 9.21555 4.13752
4.14602 9.28003 4.14602
4.15473 9.34405 4.15473
4.16357 9.40785 4.16357
4.17245 9.47173 4.17245
4.18123 9.53608 4.18123
4.18974 9.60137 4.18974
4.19777 9.66819 4.19777
4.20507 9.73728 4.20507
4.21129 9.80954 4.21129
4.21606 9.88604 4.21606
4.21894 9.96797 4.21894
4.21950 10.05652 4.21950
4.21796 10.15107 4.21797
4.21568 10.24778 4.21568
4.21274 10.34638 4.21274
4.20914 10.44692 4.20913
4.20481 10.54957 4.20481
4.19968 10.65460 4.19968
4.19359 10.76246 4.19359
4.18633 10.87383 4.18633
4.17754 10.98985 4.17754
4.16659 11.11244 4.16659
4.15226 11.24546 4.15226
4.13140 11.39886 4.13140
4.08778 11.62483 4.08778
4.00000 13.19120 4.00000
4.00000 13.19120 4.00000
4.00000 13.19120 4.00000
4.00000 13.19120 4.00000
4.00000 13.19120 4.00000
4.00000 13.19120 4.00000
4.00000 13.19120 4.00000
4.00000 13.19120 4.00000
4.00000 13.19120 4.00000
4.00000 13.19120 4.00000
4.00000 13.19120 4.00000
4.00000 13.19120 4.00000
4.00000 13.19121 4.00000
4.00000 13.19120 4.00000
4.01151 13.22918 4.01151
4.02376 13.27817 4.02376
4.03454 13.33252 4.03454
4.04364 13.39267 4.04364
4.05091 13.45909 4.05091
4.05618 13.53220 4.05618
4.05930 13.61233 4.05930
4.06156 13.69530 4.06156
4.06376 13.77851 4.06376
4.06589 13.86194 4.06589
4.06796 13.94556 4.06796
4.06998 14.02935 4.06998
4.07196 14.11330 4.07196
4.07391 14.19738 4.07391
4.07581 14.28160 4.07581
4.07768 14.36593 4.07768
4.07953 14.45036 4.07953
4.08134 14.53489 4.08134
4.08314 14.61952 4.08314
4.08490 14.70422 4.08490
4.08665 14.78900 4.08665
4.08838 14.87385 4.08838
4.09009 14.95878 4.09009
4.09178 15.04376 4.09178
4.09342 15.12892 4.09342
4.09480 15.21493 4.09479
4.09589 15.30182 4.09589
4.09672 15.38955 4.09672
4.09731 15.47806 4.09731
4.09766 15.56731 4.09766
4.09779 15.65724 4.09779
4.09773 15.74781 4.09773
4.09747 15.83897 4.09747
4.09705 15.93067 4.09705
4.09647 16.02287 4.09646
4.09574 16.11553 4.09574
4.09488 16.20861 4.09488
4.09390 16.30206 4.09390
4.09282 16.39586 4.09282
4.09164 16.48996 4.09164
4.09038 16.58433 4.09038
4.08905 16.67895 4.08905
4.08765 16.77377 4.08765
4.08619 16.86878 4.08619
4.08469 16.96395 4.08469
4.08314 17.05925 4.08314
4.08157 17.15467 4.08157
4.07997 17.25017 4.07997
4.07834 17.34576 4.07834
4.07671 17.44139 4.07671
4.07506 17.53707 4.07506
4.07341 17.63276 4.07341
4.07176 17.72847 4.07176
4.07011 17.82418 4.07011
4.06847 17.91988 4.06847
4.06684 18.01555 4.06684
4.06522 18.11119 4.06522
4.06362 18.20680 4.06361
4.06203 18.30235 4.06203
4.06046 18.39785 4.06046
4.05891 18.49329 4.05891
4.05739 18.58867 4.05739
4.05589 18.68398 4.05589
4.05441 18.77922 4.05441
4.05296 18.87438 4.05296
4.05153 18.96946 4.05153
4.05013 19.06446 4.05013
4.04876 19.15937 4.04876
4.04742 19.25421 4.04742
4.04610 19.34895 4.04610
4.04482 19.44361 4.04482
4.04356 19.53818 4.04356
4.04233 19.63266 4.04233
4.04112 19.72706 4.04112
4.03995 19.82136 4.03995
4.03880 19.91558 4.03880
4.03768 20.00971 4.03768
4.03659 20.10376 4.03659
4.03553 20.19771 4.03553
4.03449 20.29159 4.03449
4.03348 20.38537 4.03348
4.03250 20.47908 4.03250
4.03154 20.57270 4.03154
4.03061 20.66624 4.03061
4.02970 20.75971 4.02970
4.02882 20.85309 4.02882
4.02796 20.94640 4.02796
4.02712 21.03963 4.02712
4.02631 21.13278 4.02631
4.02551 21.22587 4.02552
4.02475 21.31888 4.02475
4.02400 21.41182 4.02400
4.02327 21.50469 4.02327
4.02257 21.59750 4.02257
4.02188 21.69024 4.02188
4.02122 21.78292 4.02122
4.02057 21.87553 4.02057
4.01994 21.96809 4.01994
4.01933 22.06058 4.01933
4.01874 22.15302 4.01874
4.01817 22.24540 4.01817
4.01761 22.33772 4.01761
4.01707 22.42999 4.01707
4.01654 22.52221 4.01654
4.01603 22.61438 4.01603
4.01554 22.70649 4.01554
4.01506 22.79856 4.01506
4.01459 22.89058 4.01459
4.01414 22.98256 4.01414
4.01370 23.07449 4.01370
4.01328 23.16638 4.01328
4.01286 23.25822 4.01286
4.01247 23.35003 4.01247
4.01208 23.44179 4.01208
4.01170 23.53352 4.01170
4.01134 23.62521 4.01134
4.01098 23.71686 4.01098
4.01064 23.80847 4.01064
4.01031 23.90006 4.01031
4.00999 23.99160 4.00999
4.00968 24.08312 4.00968
4.00937 24.17460 4.00937
4.00908 24.26606 4.00908
4.00880 24.35748 4.00880
4.00852 24.44887 4.00852
4.00825 24.54024 4.00825
4.00800 24.63158 4.00799
4.00774 24.72289 4.00774
4.00750 24.81418 4.00750
4.00727 24.90544 4.00727
4.00704 24.99668 4.00704
4.00682 25.08789 4.00682
4.00660 25.17909 4.00660
4.00639 25.27026 4.00639
4.00619 25.36141 4.00619
4.00600 25.45253 4.00600
4.00581 25.54364 4.00581
4.00563 25.63473 4.00563
4.00545 25.72580 4.00545
4.00528 25.81685 4.00528
4.00511 25.90789 4.00511
4.00495 25.99890 4.00495
4.00479 26.08990 4.00479
4.00464 26.18089 4.00464
4.00450 26.27186 4.00450
4.00436 26.36281 4.00436
4.00422 26.45375 4.00422
4.00408 26.54468 4.00408
4.00396 26.63559 4.00396
4.00383 26.72648 4.00383
4.00371 26.81737 4.00371
4.00359 26.90824 4.00359
4.00348 26.99910 4.00348
4.00337 27.08995 4.00337
4.00326 27.18079 4.00326
4.00316 27.27162 4.00316
4.00306 27.36243 4.00306
4.00296 27.45324 4.00296
4.00287 27.54404 4.00287
4.00278 27.63482 4.00278

Angle 0.178102 4.512340

4.00000 7.03348 4.00000
4.00000 7.03349 4.00000
4.00000 7.03348 4.00000
4.00000 7.03350 4.00000
4.00000 7.03351 4.00000
4.00000 7.03348 4.00000
4.00000 7.03346 4.00000
4.00000 7.03348 4.00000
4.00000 7.03348 4.00000
4.00000 7.03346 4.00000
4.00000 7.03348 4.00000
4.00000 7.03347 4.00000
4.00000 7.03348 4.00000
4.00000 7.03348 4.00000
4.00000 7.03348 4.00000
4.00000 7.03348 4.00000
4.00000 7.03348 4.00000
4.00000 7.03348 4.00000
4.00000 7.03348 4.00000
4.00000 7.03348 4.00000
4.00000 7.03348 4.00000
4.00000 7.03347 4.00000
4.00000 7.03347 4.00000
4.00000 7.03348 4.00000
4.00000 7.03348 4.00000
4.00000 7.03348 4.00000
4.00000 7.03348 4.00000
4.00000 7.03348 4.00000
4.00000 7.03348 4.00000
4.00000 7.03348 4.00000
4.00000 7.03348 4.00000
4.00000 7.03348 4.00000
4.00000 7.03348 4.00000
4.00000 7.03348 4.00000
4.00000 7.03347 4.00000
4.00000 7.03348 4.00000
4.00000 7.03348 4.00000
4.00000 7.03348 4.00000
4.00000 7.03348 4.00000
4.00000 7.03348 4.00000
4.00000 7.03348 4.00000
4.00000 7.03348 4.00000
4.00000 7.03348 4.00000
4.00000 7.03348 4.00000
4.00000 7.03348 4.00000
4.00000 7.03348 4.00000
4.00000 7.03348 4.00000
4.00000 7.03348 4.00000
4.00000 7.03348 4.00000
4.00000 7.03348 4.00000
4.00000 7.03348 4.00000
4.00000 7.03348 4.00000
4.00000 7.03348 4.00000
4.00000 7.03348 4.00000
4.00000 7.03348 4.00000
4.00000 7.03348 4.00000
4.00000 7.03348 4.00000
4.00000 7.03348 4.00000
4.00000 7.03347 4.00000
4.00000 7.03348 4.00000
4.00000 7.03348 4.00000
4.00000 7.03348 4.00000
4.00000 7.03348 4.00000
4.00000 7.03348 4.00000
4.00000 7.03348 4.00000
4.00000 7.03348 4.00000
4.00000 7.03348 4.00000
4.00000 7.03348 4.00000
4.00000 7.03348 4.00000
4.00000 7.03348 4.00000
4.00000 7.03348 4.00000
4.00000 7.03348 4.00000
4.00000 7.03348 4.00000
4.00000 7.03348 4.00000
4.00000 7.03348 4.00000
4.00000 7.03348 4.00000
4.00000 7.03348 4.00000
4.00000 7.03348 4.00000
4.00000 7.03348 4.00000
4.00000 7.03348 4.00000
4.00000 7.03348 4.00000
4.00000 7.03348 4.00000
4.00000 7.03348 4.00000
4.00000 7.03348 4.00000
4.00000 7.03348 4.00000
4.00000 7.03348 4.00000
4.00000 7.03348 4.00000
4.00000 7.03349 4.00000
4.00000 7.03348 4.00000
4.00000 7.03348 4.00000
4.00000 7.03348 4.00000
4.00000 7.03348 4.00000
4.00000 7.03348 4.00000
4.00000 7.03348 4.00000
4.00000 7.03348 4.00000
4.00000 7.03348 4.00000
4.00000 7.03348 4.00000
4.00000 7.03349 4.00000
4.00000 7.03348 4.00000
4.00000 7.03348 4.00000
4.00000 7.03348 4.00000
4.00000 7.03348 4.00000
4.00000 7.03348 4.00000
4.00000 7.03348 4.00000
4.00000 7.03348 4.00000
4.00000 7.03348 4.00000
4.00000 7.03348 4.00000
4.00000 7.03348 4.00000
4.00000 7.03348 4.00000
4.00000 7.03348 4.00000
4.00000 7.03348 4.00000
4.00000 7.03348 4.00000
4.00000 7.03348 4.00000
4.00000 7.03347 4.00000
4.00000 7.03347 4.00000
4.00000 7.03348 4.00000
4.00000 7.03348 4.00000
4.00000 7.03348 4.00000
4.00000 7.03348 4.00000
4.00000 7.03348 4.00000
4.00000 7.03348 4.00000
4.00000 7.03348 4.00000
4.00000 7.03348 4.00000
4.00000 7.03348 4.00000
4.00000 7.03348 4.00000
4.00000 7.03348 4.00000
4.00000 7.03348 4.00000
4.00000 7.03348 4.00000
4.00000 7.03348 4.00000
4.00000 7.03348 4.00000
4.00000 7.03348 4.00000
4.00000 7.03348 4.00000
4.00000 7.03348 4.00000
4.00000 7.03348 4.00000
4.00000 7.03348 4.00000
4.00000 7.03348 4.00000
4.00000 7.03348 4.00000
4.00000 7.03348 4.00000
4.00000 7.03348 4.00000
4.00000 7.03348 4.00000
4.00000 7.03348 4.00000
4.00000 7.03348 4.00000
4.00000 7.03348 4.00000
4.00000 7.03348 4.00000
4.00000 7.03348 4.00000
4.00000 7.03348 4.00000
4.00000 7.03348 4.00000
4.00000 7.03348 4.00000
4.00000 7.03348 4.00000
4.00000 7.03350 4.00000
4.00000 7.03348 4.00000
4.00000 7.03348 4.00000
4.00000 7.03348 4.00000
4.00000 7.03348 4.00000
4.00000 7.03349 4.00000
4.00001 7.03360 4.00000
4.00195 7.07171 4.00195
4.00529 7.13918 4.00530
4.00857 7.20708 4.00857
4.01178 7.27538 4.01178
4.01493 7.34403 4.01493
4.01804 7.41300 4.01804
4.02112 7.48224 4.02112
4.02417 7.55174 4.02417
4.02721 7.62144 4.02721
4.03024 7.69131 4.03024
4.03328 7.76131 4.03328
4.03633 7.83141 4.03633
4.03942 7.90156 4.03942
4.04255 7.97171 4.04255
4.04574 8.04182 4.04574
4.04900 8.11183 4.04900
4.05235 8.18169 4.05235
4.05582 8.25132 4.05582
4.05942 8.32066 4.05942
4.06319 8.38961 4.06318
4.06715 8.45808 4.06715
4.07135 8.52594 4.07135
4.07582 8.59306 4.07582
4.08064 8.65927 4.08064
4.08580 8.72453 4.08580
4.09126 8.78904 4.09126
4.09703 8.85276 4.09703
4.10310 8.91570 4.10310
4.10949 8.97787 4.10949
4.11619 9.03928 4.11619
4.12319 9.09997 4.12319
4.13047 9.16000 4.13047
4.13802 9.21945 4.13802
4.14580 9.27842 4.14580
4.15377 9.33707 4.15377
4.16186 9.39556 4.16186
4.17001 9.45412 4.17001
4.17812 9.51304 4.17812
4.18606 9.57265 4.18606
4.19369 9.63337 4.19369
4.20082 9.69574 4.20082
4.20722 9.76037 4.20722
4.21262 9.82804 4.21262
4.21670 9.89961 4.21670
4.21910 9.97607 4.21910
4.21949 10.05834 4.21949
4.21807 10.14585 4.21807
4.21601 10.23528 4.21601
4.21339 10.32639 4.21339
4.21019 10.41924 4.21019
4.20639 10.51393 4.20639
4.20192 10.61065 4.20192
4.19668 10.70970 4.19668
4.19052 10.81155 4.19052
4.18323 10.91688 4.18323
4.17444 11.02683 4.17444
4.16352 11.14334 4.16352
4.14924 11.27027 4.14924
4.12842 11.41776 4.12842
4.08363 11.64185 4.08363
4.00000 13.19120 4.00000
4.00000 13.19120 4.00000
4.00000 13.19120 4.00000
4.00000 13.19120 4.00000
4.00000 13.19120 4.00000
4.00000 13.19120 4.00000
4.00000 13.19120 4.00000
4.00000 13.19120 4.00000
4.00000 13.19120 4.00000
4.00000 13.19120 4.00000
4.00000 13.19120 4.00000
4.00000 13.19120 4.00000
4.00000 13.19120 4.00000
4.00000 13.19120 4.00000
4.00000 13.19120 4.00000
4.01248 13.23269 4.01248
4.02399 13.27917 4.02399
4.03417 13.33046 4.03417
4.04289 13.38695 4.04289
4.04998 13.44902 4.04998
4.05529 13.51706 4.05529
4.05871 13.59143 4.05871
4.06088 13.66988 4.06088
4.06298 13.74865 4.06298
4.06502 13.82765 4.06502
4.06701 13.90687 4.06701
4.06895 13.98630 4.06895
4.07085 14.06590 4.07085
4.07272 14.14568 4.07272
4.07455 14.22561 4.07455
4.07635 14.30569 4.07635
4.07812 14.38591 4.07812
4.07987 14.46625 4.07987
4.08159 14.54672 4.08159
4.08330 14.62730 4.08330
4.08498 14.70798 4.08498
4.08664 14.78877 4.08665
4.08829 14.86966 4.08829
4.08993 14.95064 4.08993
4.09154 15.03171 4.09154
4.09313 15.11292 4.09313
4.09450 15.19485 4.09450
4.09561 15.27764 4.09561
4.09648 15.36123 4.09648
4.09712 15.44558 4.09712
4.09754 15.53065 4.09754
4.09776 15.61640 4.09776
4.09778 15.70278 4.09778
4.09763 15.78975 4.09763
4.09732 15.87728 4.09732
4.09685 15.96532 4.09685
4.09624 16.05383 4.09624
4.09550 16.14278 4.09550
4.09464 16.23214 4.09464
4.09368 16.32186 4.09368
4.09263 16.41191 4.09263
4.09148 16.50227 4.09148
4.09026 16.59291 4.09026
4.08898 16.68380 4.08897
4.08763 16.77490 4.08763
4.08623 16.86621 4.08623
4.08479 16.95769 4.08479
4.08330 17.04933 4.08330
4.08179 17.14109 4.08179
4.08025 17.23297 4.08025
4.07870 17.32495 4.07870
4.07712 17.41701 4.07712
4.07554 17.50914 4.07554
4.07395 17.60132 4.07395
4.07236 17.69354 4.07236
4.07077 17.78578 4.07077
4.06919 17.87805 4.06919
4.06761 17.97032 4.06761
4.06604 18.06259 4.06604
4.06449 18.15485 4.06448
4.06294 18.24710 4.06294
4.06142 18.33932 4.06142
4.05991 18.43152 4.05991
4.05843 18.52368 4.05842
4.05696 18.61580 4.05696
4.05551 18.70788 4.05551
4.05409 18.79991 4.05409
4.05269 18.89190 4.05269
4.05132 18.98383 4.05132
4.04997 19.07571 4.04997
4.04865 19.16752 4.04865
4.04735 19.25929 4.04735
4.04608 19.35099 4.04607
4.04483 19.44263 4.04483
4.04361 19.53421 4.04361
4.04242 19.62573 4.04242
4.04125 19.71718 4.04125
4.04011 19.80858 4.04011
4.03899 19.89991 4.03899
4.03790 19.99117 4.03790
4.03684 20.08238 4.03684
4.03580 20.17352 4.03580
4.03478 20.26461 4.03479
4.03380 20.35562 4.03380
4.03284 20.44658 4.03284
4.03190 20.53748 4.03190
4.03098 20.62832 4.03098
4.03009 20.71910 4.03009
4.02922 20.80983 4.02922
4.02838 20.90050 4.02838
4.02755 20.99112 4.02755
4.02675 21.08168 4.02675
4.02597 21.17219 4.02597
4.02521 21.26264 4.02521
4.02447 21.35305 4.02447
4.02375 21.44341 4.02375
4.02305 21.53372 4.02305
4.02237 21.62399 4.02237
4.02171 21.71420 4.02171
4.02106 21.80438 4.02106
4.02044 21.89451 4.02044
4.01983 21.98460 4.01983
4.01924 22.07465 4.01924
4.01867 22.16465 4.01867
4.01811 22.25462 4.01811
4.01757 22.34456 4.01757
4.01704 22.43445 4.01704
4.01653 22.52431 4.01653
4.01603 22.61414 4.01603
4.01555 22.70393 4.01555
4.01508 22.79370 4.01508
4.01463 22.88343 4.01463
4.01419 22.97313 4.01419
4.01376 23.06280 4.01376
4.01334 23.15245 4.01334
4.01294 23.24206 4.01294
4.01254 23.33166 4.01254
4.01216 23.42122 4.01216
4.01179 23.51077 4.01179
4.01144 23.60029 4.01144
4.01109 23.68979 4.01109
4.01075 23.77926 4.01075
4.01042 23.86872 4.01042
4.01010 23.95815 4.01010
4.00980 24.04757 4.00980
4.00950 24.13697 4.00950
4.00921 24.22635 4.00921
4.00892 24.31572 4.00892
4.00865 24.40507 4.00865
4.00839 24.49440 4.00839
4.00813 24.58372 4.00813
4.00788 24.67303 4.00788
4.00764 24.76232 4.00764
4.00740 24.85160 4.00740
4.00718 24.94086 4.00718
4.00696 25.03012 4.00696
4.00674 25.11936 4.00674
4.00653 25.20860 4.00653
4.00633 25.29782 4.00633
4.00614 25.38704 4.00614
4.00595 25.47625 4.00595
4.00577 25.56544 4.00577
4.00559 25.65463 4.00559
4.00542 25.74382 4.00542
4.00525 25.83299 4.00525
4.00509 25.92216 4.00509
4.00493 26.01133 4.00493
4.00478 26.10048 4.00478
4.00463 26.18964 4.00463
4.00449 26.27878 4.00449
4.00435 26.36793 4.00435
4.00421 26.45707 4.00421
4.00408 26.54620 4.00408
4.00396 26.63533 4.00396
4.00383 26.72446 4.00383
4.00371 26.81359 4.00371
4.00360 26.90271 4.00360
4.00349 26.99183 4.00349
4.00338 27.08095 4.00338
4.00327 27.17007 4.00327
4.00317 27.25919 4.00317
4.00307 27.34830 4.00307
4.00298 27.43742 4.00298
4.00289 27.52653 4.00289
4.00280 27.61564 4.00280
4.00271 27.70475 4.00271
4.00263 27.79387 4.00263
4.00254 27.88298 4.00254
4.00247 27.97209 4.00246

Angle 0.107350 6.003574

4.00000 7.03348 4.00000
4.00000 7.03348 4.00000
4.00000 7.03348 4.00000
4.00000 7.03348 4.00000
4.00000 7.03348 4.00000
4.00000 7.03348 4.00000
4.00000 7.03348 4.00000
4.00000 7.03348 4.00000
4.00000 7.03348 4.00000
4.00000 7.03347 4.00000
4.00000 7.03344 4.00000
4.00000 7.03348 4.00000
4.00000 7.03348 4.00000
4.00000 7.03348 4.00000
4.00000 7.03348 4.00000
4.00000 7.03348 4.00000
4.00000 7.03348 4.00000
4.00000 7.03349 4.00000
4.00000 7.03348 4.00000
4.00000 7.03348 4.00000
4.00000 7.03348 4.00000
4.00000 7.03348 4.00000
4.00000 7.03350 4.00000
4.00000 7.03349 4.00000
4.00000 7.03349 4.00000
4.00000 7.03348 4.00000
4.00000 7.03348 4.00000
4.00000 7.03348 4.00000
4.00000 7.03350 4.00000
4.00000 7.03348 4.00000
4.00000 7.03348 4.00000
4.00000 7.03349 4.00000
4.00000 7.03348 4.00000
4.00000 7.03348 4.00000
4.00000 7.03348 4.00000
4.00000 7.03348 4.00000
4.00000 7.03348 4.00000
4.00000 7.03348 4.00000
4.00000 7.03348 4.00000
4.00000 7.03348 4.00000
4.00000 7.03348 4.00000
4.00000 7.03348 4.00000
4.00000 7.03348 4.00000
4.00000 7.03348 4.00000
4.00000 7.03348 4.00000
4.00000 7.03348 4.00000
4.00000 7.03348 4.00000
4.00000 7.03348 4.00000
4.00000 7.03348 4.00000
4.00000 7.03348 4.00000
4.00000 7.03348 4.00000
4.00000 7.03348 4.00000
4.00000 7.03348 4.00000
4.00000 7.03348 4.00000
4.00000 7.03348 4.00000
4.00000 7.03348 4.00000
4.00000 7.03348 4.00000
4.00000 7.03348 4.00000
4.00000 7.03348 4.00000
4.00000 7.03348 4.00000
4.00000 7.03348 4.00000
4.00000 7.03348 4.00000
4.00000 7.03348 4.00000
4.00000 7.03348 4.00000
4.00000 7.03349 4.00000
4.00000 7.03348 4.00000
4.00000 7.03348 4.00000
4.00000 7.03350 4.00000
4.00000 7.03348 4.00000
4.00000 7.03348 4.00000
4.00000 7.03348 4.00000
4.00000 7.03348 4.00000
4.00000 7.03348 4.00000
4.00000 7.03348 4.00000
4.00000 7.03348 4.00000
4.00000 7.03348 4.00000
4.00000 7.03348 4.00000
4.00000 7.03348 4.00000
4.00000 7.03348 4.00000
4.00000 7.03348 4.00000
4.00276 7.08786 4.00276
4.00650 7.16397 4.00650
4.01015 7.24048 4.01014
4.01371 7.31732 4.01371
4.01721 7.39445 4.01721
4.02066 7.47181 4.02066
4.02407 7.54936 4.02407
4.02745 7.62705 4.02745
4.03082 7.70482 4.03082
4.03420 7.78263 4.03420
4.03760 7.86042 4.03760
4.04104 7.93813 4.04104
4.04454 8.01571 4.04454
4.04812 8.09309 4.04812
4.05179 8.17020 4.05179
4.05559 8.24695 4.05559
4.05956 8.32324 4.05955
4.06371 8.39896 4.06371
4.06810 8.47399 4.06810
4.07279 8.54816 4.07279
4.07782 8.62128 4.07782
4.08328 8.69316 4.08328
4.08910 8.76398 4.08910
4.09527 8.83380 4.09527
4.10181 8.90261 4.10181
4.10871 8.97042 4.10871
4.11596 9.03726 4.11596
4.12357 9.10318 4.12357
4.13150 9.16826 4.13150
4.13973 9.23260 4.13973
4.14822 9.29636 4.14822
4.15689 9.35973 4.15689
4.16568 9.42296 4.16568
4.17447 9.48635 4.17447
4.18313 9.55031 4.18313
4.19148 9.61532 4.19148
4.19932 9.68198 4.19932
4.20637 9.75104 4.20637
4.21230 9.82341 4.21230
4.21672 9.90017 4.21672
4.21921 9.98250 4.21921
4.21935 10.07152 4.21935
4.21766 10.16582 4.21766
4.21529 10.26205 4.21529
4.21228 10.36015 4.21228
4.20861 10.46019 4.20861
4.20422 10.56234 4.20423
4.19903 10.66689 4.19902
4.19287 10.77430 4.19287
4.18553 10.88527 4.18553
4.17663 11.00097 4.17663
4.16552 11.12340 4.16552
4.15092 11.25661 4.15092
4.12945 11.41132 4.12945
4.08119 11.65161 4.08119
4.00000 13.19120 4.00000
4.00000 13.19120 4.00000
4.00000 13.19120 4.00000
4.00000 13.19120 4.00000
4.00000 13.19120 4.00000
4.00000 13.19120 4.00000
4.00000 13.19120 4.00000
4.00000 13.19120 4.00000
4.00000 13.19120 4.00000
4.00000 13.19120 4.00000
4.00000 13.19120 4.00000
4.00000 13.19120 4.00000
4.00000 13.19120 4.00000
4.00000 13.19120 4.00000
4.01109 13.22767 4.01109
4.02332 13.27619 4.02332
4.03409 13.32998 4.03409
4.04323 13.38950 4.04323
4.05056 13.45518 4.05056
4.05591 13.52746 4.05591
4.05915 13.60672 4.05915
4.06140 13.68919 4.06140
4.06358 13.77191 4.06359
4.06571 13.85486 4.06571
4.06777 13.93800 4.06777
4.06979 14.02132 4.06979
4.07177 14.10479 4.07177
4.07370 14.18841 4.07370
4.07560 14.27216 4.07560
4.07747 14.35603 4.07747
4.07930 14.44000 4.07930
4.08111 14.52408 4.08111
4.08290 14.60826 4.08290
4.08466 14.69252 4.08466
4.08640 14.77685 4.08640
4.08813 14.86127 4.08813
4.08983 14.94575 4.08983
4.09152 15.03030 4.09152
4.09317 15.11498 4.09317
4.09458 15.20041 4.09458
4.09572 15.28674 4.09572
4.09659 15.37390 4.09659
4.09722 15.46185 4.09722
4.09761 15.55055 4.09761
4.09778 15.63993 4.09778
4.09776 15.72996 4.09776
4.09754 15.82059 4.09754
4.09715 15.91176 4.09715
4.09660 16.00345 4.09660
4.09591 16.09560 4.09591
4.09508 16.18817 4.09508
4.09413 16.28113 4.09413
4.09308 16.37444 4.09308
4.09192 16.46806 4.09192
4.09069 16.56196 4.09069
4.08937 16.65612 4.08937
4.08799 16.75049 4.08799
4.08656 16.84506 4.08656
4.08507 16.93979 4.08507
4.08354 17.03466 4.08354
4.08198 17.12965 4.08198
4.08039 17.22475 4.08039
4.07878 17.31992 4.07878
4.07716 17.41516 4.07716
4.07552 17.51044 4.07552
4.07388 17.60575 4.07388
4.07223 17.70108 4.07223
4.07059 17.79641 4.07059
4.06895 17.89174 4.06895
4.06732 17.98705 4.06732
4.06571 18.08234 4.06571
4.06410 18.17759 4.06410
4.06252 18.27280 4.06252
4.06095 18.36796 4.06095
4.05940 18.46306 4.05940
4.05788 18.55810 4.05788
4.05637 18.65308 4.05637
4.05489 18.74800 4.05489
4.05344 18.84284 4.05344
4.05201 18.93760 4.05201
4.05061 19.03229 4.05060
4.04923 19.12690 4.04923
4.04788 19.22143 4.04788
4.04656 19.31587 4.04656
4.04527 19.41023 4.04527
4.04400 19.50451 4.04400
4.04277 19.59870 4.04277
4.04156 19.69281 4.04156
4.04038 19.78683 4.04038
4.03922 19.88076 4.03922
4.03810 19.97461 4.03810
4.03700 20.06837 4.03700
4.03593 20.16206 4.03593
4.03489 20.25565 4.03489
4.03387 20.34917 4.03387
4.03288 20.44261 4.03288
4.03191 20.53596 4.03191
4.03097 20.62924 4.03097
4.03006 20.72243 4.03006
4.02917 20.81556 4.02917
4.02830 20.90860 4.02830
4.02746 21.00158 4.02746
4.02664 21.09448 4.02664
4.02584 21.18730 4.02584
4.02506 21.28006 4.02506
4.02431 21.37275 4.02431
4.02358 21.46538 4.02358
4.02287 21.55794 4.02287
4.02217 21.65043 4.02217
4.02150 21.74286 4.02150
4.02085 21.83523 4.02085
4.02021 21.92755 4.02021
4.01960 22.01980 4.01960
4.01900 22.11200 4.01900
4.01842 22.20414 4.01842
4.01786 22.29623 4.01786
4.01731 22.38826 4.01731
4.01678 22.48025 4.01678
4.01626 22.57218 4.01626
4.01576 22.66407 4.01576
4.01528 22.75590 4.01528
4.01481 22.84770 4.01481
4.01435 22.93944 4.01435
4.01391 23.03115 4.01391
4.01348 23.12281 4.01348
4.01306 23.21443 4.01306
4.01266 23.30601 4.01266
4.01226 23.39756 4.01226
4.01188 23.48906 4.01188
4.01151 23.58053 4.01151
4.01116 23.67196 4.01116
4.01081 23.76336 4.01081
4.01047 23.85473 4.01047
4.01015 23.94606 4.01015
4.00983 24.03736 4.00983
4.00952 24.12863 4.00952
4.00923 24.21987 4.00923
4.00894 24.31108 4.00894
4.00866 24.40227 4.00866
4.00839 24.49342 4.00839
4.00813 24.58455 4.00813
4.00787 24.67566 4.00787
4.00763 24.76674 4.00763
4.00739 24.85780 4.00739
4.00716 24.94883 4.00716
4.00693 25.03984 4.00693
4.00671 25.13083 4.00671
4.00650 25.22180 4.00650
4.00630 25.31275 4.00630
4.00610 25.40368 4.00610
4.00591 25.49459 4.00591
4.00573 25.58548 4.00573
4.00555 25.67635 4.00555
4.00537 25.76721 4.00537
4.00520 25.85805 4.00520
4.00504 25.94887 4.00504
4.00488 26.03968 4.00488
4.00473 26.13047 4.00473
4.00458 26.22125 4.00458
4.00443 26.31201 4.00443
4.00429 26.40276 4.00429
4.00416 26.49350 4.00416
4.00403 26.58422 4.00403
4.00390 26.67493 4.00390
4.00378 26.76563 4.00378
4.00366 26.85632 4.00366
4.00354 26.94700 4.00354
4.00343 27.03766 4.00343
4.00332 27.12832 4.00332
4.00322 27.21897 4.00322
4.00312 27.30960 4.00312
4.00302 27.40023 4.00302
4.00292 27.49085 4.00292
4.00283 27.58145 4.00283
4.00274 27.67205 4.00274
4.00266 27.76265 4.00266
4.00257 27.85323 4.00257
4.00249 27.94381 4.00249
4.00241 28.03437 4.00241
4.00233 28.12494 4.00234
4.00226 28.21549 4.00226
4.00219 28.30604 4.00219
4.00212 28.39658 4.00212
4.00205 28.48712 4.00205
4.00199 28.57765 4.00199
4.00193 28.66817 4.00193
4.00186 28.75869 4.00186
4.00181 28.84921 4.00181
4.00175 28.93971 4.00175
4.00169 29.03022 4.00169
4.00164 29.12072 4.00164
4.00159 29.21121 4.00159
4.00154 29.30170 4.00154
4.00149 29.39219 4.00149
4.00144 29.48267 4.00144
4.00140 29.57315 4.00140
4.00135 29.66362 4.00135
4.00131 29.75409 4.00131
4.00127 29.84456 4.00127
4.00123 29.93502 4.00123
4.00119 30.02549 4.00119
4.00115 30.11595 4.00115
4.00111 30.20640 4.00111
4.00108 30.29685 4.00108
4.00104 30.38730 4.00105
4.00101 30.47775 4.00101
4.00098 30.56819 4.00098
4.00095 30.65864 4.00095
4.00092 30.74908 4.00092
4.00089 30.83951 4.00089
4.00086 30.92995 4.00086
4.00083 31.02038 4.00083
4.00081 31.11081 4.00081
4.00078 31.20124 4.00078
4.00076 31.29167 4.00076
4.00073 31.38210 4.00073
4.00071 31.47253 4.00071
4.00069 31.56296 4.00069
4.00067 31.65339 4.00067
4.00064 31.74381 4.00065
4.00062 31.83423 4.00063
4.00060 31.92466 4.00061
4.00058 32.01504 4.00059
4.00057 32.10546 4.00057
4.00055 32.19587 4.00055
4.00053 32.28629 4.00053
4.00051 32.37670 4.00051
4.00050 32.46711 4.00050
4.00048 32.55752 4.00048
4.00047 32.64793 4.00047
4.00045 32.73834 4.00045
4.00044 32.82875 4.00044
4.00042 32.91916 4.00042
4.00041 33.00957 4.00041
4.00040 33.09998 4.00040
4.00038 33.19038 4.00038
4.00037 33.28079 4.00037
4.00036 33.37120 4.00036
4.00035 33.46160 4.00035
4.00034 33.55201 4.00034
4.00033 33.64241 4.00033
4.00032 33.73282 4.00032
4.00031 33.82322 4.00031
4.00030 33.91362 4.00030
4.00029 34.00403 4.00029
4.00028 34.09443 4.00028
4.00027 34.18484 4.00027
4.00026 34.27524 4.00026
4.00025 34.36564 4.00025
4.00025 34.45605 4.00024
4.00024 34.54645 4.00024
4.00023 34.63685 4.00023
4.00022 34.72726 4.00022
4.00022 34.81766 4.00022
4.00021 34.90806 4.00021
4.00020 34.99847 4.00020
4.00020 35.08887 4.00020
4.00019 35.17927 4.00019
4.00018 35.26968 4.00018
4.00018 35.36008 4.00018
4.00017 35.45048 4.00017
4.00017 35.54089 4.00017
4.00016 35.63129 4.00016
4.00016 35.72170 4.00016
4.00015 35.81210 4.00015

Angle 0.154087 1.196166

4.00000 7.03348 4.00000
4.00000 7.03348 4.00000
4.00000 7.03348 4.00000
4.00000 7.03348 4.00000
4.00000 7.03348 4.00000
4.00000 7.03348 4.00000
4.00000 7.03348 4.00000
4.00000 7.03348 4.00000
4.00000 7.03348 4.00000
4.00000 7.03348 4.00000
4.00000 7.03347 4.00000
4.00000 7.03348 4.00000
4.00000 7.03348 4.00000
4.00000 7.03348 4.00000
4.00000 7.03348 4.00000
4.00000 7.03348 4.00000
4.00000 7.03347 4.00000
4.00000 7.03346 4.00000
4.00000 7.03348 4.00000
4.00000 7.03348 4.00000
4.00000 7.03348 4.00000
4.00000 7.03348 4.00000
4.00000 7.03348 4.00000
4.00000 7.03348 4.00000
4.00000 7.03348 4.00000
4.00000 7.03348 4.00000
4.00000 7.03348 4.00000
4.00000 7.03348 4.00000
4.00000 7.03348 4.00000
4.00000 7.03348 4.00000
4.00000 7.03348 4.00000
4.00000 7.03348 4.00000
4.00000 7.03348 4.00000
4.00000 7.03348 4.00000
4.00000 7.03348 4.00000
4.00000 7.03348 4.00000
4.00000 7.03348 4.00000
4.00000 7.03348 4.00000
4.00000 7.03348 4.00000
4.00000 7.03348 4.00000
4.00000 7.03348 4.00000
4.00000 7.03348 4.00000
4.00000 7.03348 4.00000
4.00000 7.03348 4.00000
4.00000 7.03348 4.00000
4.00000 7.03348 4.00000
4.00000 7.03348 4.00000
4.00000 7.03348 4.00000
4.00000 7.03348 4.00000
4.00000 7.03348 4.00000
4.00000 7.03348 4.00000
4.00000 7.03348 4.00000
4.00000 7.03348 4.00000
4.00000 7.03348 4.00000
4.00000 7.03348 4.00000
4.00000 7.03348 4.00000
4.00000 7.03348 4.00000
4.00000 7.03348 4.00000
4.00000 7.03348 4.00000
4.00000 7.03348 4.00000
4.00000 7.03348 4.00000
4.00000 7.03348 4.00000
4.00000 7.03348 4.00000
4.00000 7.03348 4.00000
4.00000 7.03348 4.00000
4.00000 7.03349 4.00000
4.00000 7.03348 4.00000
4.00000 7.03348 4.00000
4.00000 7.03348 4.00000
4.00000 7.03348 4.00000
4.00000 7.03348 4.00000
4.00000 7.03348 4.00000
4.00000 7.03348 4.00000
4.00000 7.03348 4.00000
4.00000 7.03348 4.00000
4.00000 7.03348 4.00000
4.00000 7.03348 4.00000
4.00000 7.03348 4.00000
4.00000 7.03348 4.00000
4.00000 7.03348 4.00000
4.00000 7.03348 4.00000
4.00000 7.03348 4.00000
4.00000 7.03348 4.00000
4.00000 7.03348 4.00000
4.00000 7.03348 4.00000
4.00000 7.03348 4.00000
4.00000 7.03348 4.00000
4.00000 7.03348 4.00000
4.00000 7.03348 4.00000
4.00000 7.03348 4.00000
4.00000 7.03348 4.00000
4.00000 7.03348 4.00000
4.00000 7.03348 4.00000
4.00000 7.03348 4.00000
4.00000 7.03348 4.00000
4.00000 7.03348 4.00000
4.00000 7.03348 4.00000
4.00000 7.03348 4.00000
4.00000 7.03348 4.00000
4.00000 7.03349 4.00000
4.00000 7.03348 4.00000
4.00000 7.03348 4.00000
4.00000 7.03348 4.00000
4.00000 7.03348 4.00000
4.00000 7.03348 4.00000
4.00000 7.03348 4.00000
4.00000 7.03348 4.00000
4.00000 7.03349 4.00000
4.00000 7.03348 4.00000
4.00000 7.03348 4.00000
4.00000 7.03348 4.00000
4.00000 7.03347 4.00000
4.00000 7.03348 4.00000
4.00000 7.03344 4.00000
4.00000 7.03351 4.00000
4.00000 7.03354 4.00000
4.00320 7.09673 4.00320
4.00663 7.16670 4.00663
4.00999 7.23706 4.00999
4.01328 7.30780 4.01328
4.01651 7.37886 4.01651
4.01970 7.45020 4.01970
4.02286 7.52179 4.02286
4.02599 7.59359 4.02599
4.02912 7.66555 4.02912
4.03225 7.73763 4.03225
4.03539 7.80980 4.03539
4.03855 7.88200 4.03855
4.04176 7.95420 4.04176
4.04502 8.02633 4.04503
4.04836 8.09834 4.04836
4.05179 8.17018 4.05179
4.05533 8.24177 4.05533
4.05901 8.31303 4.05901
4.06286 8.38387 4.06286
4.06691 8.45418 4.06691
4.07121 8.52384 4.07121
4.07580 8.59269 4.07580
4.08074 8.66057 4.08074
4.08604 8.72744 4.08604
4.09165 8.79349 4.09165
4.09759 8.85870 4.09759
4.10384 8.92307 4.10384
4.11042 8.98661 4.11042
4.11732 9.04934 4.11732
4.12454 9.11131 4.12454
4.13204 9.17259 4.13204
4.13982 9.23326 4.13982
4.14782 9.29345 4.14782
4.15601 9.35332 4.15601
4.16430 9.41308 4.16430
4.17262 9.47298 4.17262
4.18086 9.53334 4.18086
4.18888 9.59455 4.18888
4.19650 9.65709 4.19650
4.20351 9.72156 4.20351
4.20966 9.78869 4.20966
4.21462 9.85932 4.21462
4.21804 9.93445 4.21804
4.21956 10.01510 4.21956
4.21888 10.10205 4.21888
4.21706 10.19234 4.21706
4.21466 10.28437 4.21466
4.21167 10.37815 4.21167
4.20807 10.47376 4.20807
4.20381 10.57135 4.20381
4.19880 10.67121 4.19880
4.19290 10.77374 4.19290
4.18593 10.87956 4.18593
4.17756 10.98966 4.17756
4.16724 11.10572 4.16724
4.15397 11.23094 4.15397
4.13533 11.37294 4.13533
4.10189 11.56191 4.10189
4.00000 13.19120 4.00000
4.00000 13.19120 4.00000
4.00000 13.19120 4.00000
4.00000 13.19120 4.00000
4.00000 13.19120 4.00000
4.00000 13.19120 4.00000
4.00000 13.19120 4.00000
4.00000 13.19120 4.00000
4.00000 13.19120 4.00000
4.00000 13.19120 4.00000
4.00000 13.19120 4.00000
4.00000 13.19120 4.00000
4.00000 13.19120 4.00000
4.00000 13.19120 4.00000
4.00000 13.19120 4.00000
4.01224 13.23182 4.01224
4.02393 13.27889 4.02393
4.03425 13.33090 4.03425
4.04306 13.38825 4.04306
4.05020 13.45134 4.05020
4.05551 13.52057 4.05551
4.05885 13.59630 4.05885
4.06104 13.67584 4.06104
4.06316 13.75566 4.06316
4.06522 13.83571 4.06522
4.06723 13.91598 4.06723
4.06919 13.99644 4.06919
4.07112 14.07707 4.07112
4.07300 14.15787 4.07300
4.07485 14.23882 4.07485
4.07667 14.31991 4.07667
4.07846 14.40113 4.07846
4.08022 14.48247 4.08022
4.08196 14.56392 4.08196
4.08368 14.64548 4.08368
4.08538 14.72714 4.08538
4.08706 14.80889 4.08706
4.08872 14.89074 4.08872
4.09037 14.97267 4.09037
4.09200 15.05468 4.09200
4.09356 15.13695 4.09356
4.09487 15.22006 4.09487
4.09591 15.30402 4.09591
4.09672 15.38878 4.09672
4.09729 15.47429 4.09729
4.09764 15.56052 4.09764
4.09779 15.64742 4.09779
4.09775 15.73494 4.09775
4.09753 15.82304 4.09753
4.09715 15.91168 4.09715
4.09662 16.00082 4.09662
4.09595 16.09042 4.09595
4.09515 16.18045 4.09515
4.09424 16.27087 4.09424
4.09323 16.36163 4.09323
4.09212 16.45272 4.09212
4.09093 16.54410 4.09093
4.08966 16.63574 4.08966
4.08833 16.72762 4.08833
4.08695 16.81970 4.08695
4.08551 16.91196 4.08551
4.08403 17.00439 4.08403
4.08252 17.09695 4.08252
4.08098 17.18963 4.08098
4.07942 17.28242 4.07942
4.07784 17.37528 4.07784
4.07625 17.46822 4.07625
4.07464 17.56120 4.07464
4.07304 17.65423 4.07304
4.07143 17.74728 4.07143
4.06983 17.84035 4.06983
4.06824 17.93342 4.06824
4.06665 18.02649 4.06665
4.06508 18.11955 4.06508
4.06352 18.21259 4.06352
4.06197 18.30560 4.06197
4.06045 18.39858 4.06045
4.05894 18.49153 4.05894
4.05745 18.58442 4.05746
4.05599 18.67727 4.05599
4.05455 18.77007 4.05455
4.05313 18.86282 4.05313
4.05174 18.95551 4.05174
4.05037 19.04813 4.05037
4.04903 19.14069 4.04903
4.04771 19.23319 4.04771
4.04642 19.32563 4.04642
4.04516 19.41800 4.04516
4.04393 19.51030 4.04393
4.04272 19.60253 4.04272
4.04153 19.69469 4.04153
4.04038 19.78679 4.04038
4.03925 19.87881 4.03925
4.03814 19.97077 4.03814
4.03707 20.06266 4.03707
4.03602 20.15448 4.03602
4.03499 20.24624 4.03499
4.03399 20.33793 4.03399
4.03301 20.42955 4.03302
4.03207 20.52110 4.03207
4.03114 20.61260 4.03114
4.03024 20.70403 4.03024
4.02936 20.79539 4.02936
4.02850 20.88670 4.02850
4.02767 20.97795 4.02767
4.02686 21.06913 4.02686
4.02607 21.16026 4.02607
4.02530 21.25134 4.02530
4.02456 21.34236 4.02456
4.02383 21.43332 4.02383
4.02312 21.52423 4.02312
4.02244 21.61509 4.02244
4.02177 21.70590 4.02177
4.02112 21.79666 4.02112
4.02049 21.88738 4.02049
4.01988 21.97804 4.01988
4.01928 22.06866 4.01928
4.01870 22.15924 4.01870
4.01814 22.24978 4.01814
4.01759 22.34027 4.01759
4.01706 22.43072 4.01706
4.01655 22.52114 4.01655
4.01605 22.61151 4.01605
4.01556 22.70185 4.01556
4.01509 22.79216 4.01509
4.01463 22.88242 4.01463
4.01419 22.97266 4.01419
4.01376 23.06286 4.01376
4.01334 23.15303 4.01334
4.01293 23.24317 4.01293
4.01254 23.33328 4.01254
4.01215 23.42337 4.01215
4.01178 23.51342 4.01178
4.01142 23.60345 4.01142
4.01107 23.69346 4.01107
4.01073 23.78343 4.01073
4.01041 23.87339 4.01041
4.01009 23.96332 4.01009
4.00978 24.05323 4.00978
4.00948 24.14312 4.00948
4.00919 24.23299 4.00919
4.00890 24.32283 4.00890
4.00863 24.41266 4.00863
4.00836 24.50247 4.00836
4.00811 24.59227 4.00811
4.00786 24.68204 4.00786
4.00761 24.77180 4.00761
4.00738 24.86155 4.00738
4.00715 24.95128 4.00715
4.00693 25.04099 4.00693
4.00672 25.13069 4.00672
4.00651 25.22038 4.00651
4.00631 25.31006 4.00631
4.00611 25.39972 4.00611
4.00592 25.48938 4.00592
4.00574 25.57902 4.00574
4.00556 25.66865 4.00556
4.00539 25.75827 4.00539
4.00522 25.84788 4.00522
4.00506 25.93749 4.00506
4.00490 26.02708 4.00490
4.00475 26.11667 4.00475
4.00460 26.20624 4.00460
4.00446 26.29582 4.00446
4.00432 26.38538 4.00432
4.00419 26.47494 4.00419
4.00406 26.56449 4.00406
4.00393 26.65404 4.00393
4.00381 26.74358 4.00381
4.00369 26.83312 4.00369
4.00357 26.92265 4.00357
4.00346 27.01217 4.00346
4.00335 27.10170 4.00335
4.00325 27.19122 4.00325
4.00315 27.28073 4.00315
4.00305 27.37024 4.00305
4.00296 27.45975 4.00296
4.00286 27.54925 4.00286
4.00277 27.63876 4.00277
4.00269 27.72826 4.00269
4.00261 27.81775 4.00260
4.00252 27.90726 4.00252
4.00244 27.99675 4.00244
4.00237 28.08625 4.00237
4.00229 28.17575 4.00229
4.00222 28.26523 4.00222
4.00215 28.35473 4.00215
4.00208 28.44421 4.00208
4.00202 28.53371 4.00202
4.00196 28.62319 4.00196
4.00190 28.71269 4.00189
4.00184 28.80217 4.00184
4.00178 28.89167 4.00178
4.00172 28.98116 4.00172
4.00167 29.07065 4.00167
4.00162 29.16014 4.00162
4.00157 29.24963 4.00157
4.00152 29.33912 4.00152
4.00147 29.42862 4.00147
4.00142 29.51811 4.00142
4.00138 29.60761 4.00138
4.00134 29.69711 4.00134
4.00129 29.78661 4.00129
4.00125 29.87611 4.00125
4.00121 29.96561 4.00121
4.00118 30.05512 4.00118
4.00114 30.14462 4.00114
4.00110 30.23412 4.00111
4.00107 30.32364 4.00107
4.00104 30.41315 4.00103
4.00100 30.50266 4.00100
4.00097 30.59218 4.00097
4.00094 30.68170 4.00094
4.00091 30.77122 4.00091
4.00088 30.86074 4.00089
4.00086 30.95026 4.00085
4.00083 31.03980 4.00083
4.00080 31.12933 4.00080
4.00078 31.21887 4.00078
4.00075 31.30839 4.00075
4.00073 31.39793 4.00073
4.00071 31.48747 4.00071
4.00068 31.57702 4.00068
4.00066 31.66657 4.00066
4.00064 31.75613 4.00064
4.00062 31.84566 4.00062

Angle 0.356115 0.234991

4.00000 7.03348 4.00000
4.00000 7.03348 4.00000
4.00000 7.03348 4.00000
4.00000 7.03348 4.00000
4.00000 7.03348 4.00000
4.00000 7.03348 4.00000
4.00000 7.03348 4.00000
4.00000 7.03348 4.00000
4.00000 7.03349 4.00000
4.00000 7.03348 4.00000
4.00000 7.03348 4.00000
4.00000 7.03348 4.00000
4.00000 7.03348 4.00000
4.00000 7.03348 4.00000
4.00000 7.03348 4.00000
4.00000 7.03348 4.00000
4.00000 7.03348 4.00000
4.00000 7.03348 4.00000
4.00000 7.03348 4.00000
4.00000 7.03348 4.00000
4.00000 7.03348 4.00000
4.00000 7.03348 4.00000
4.00000 7.03348 4.00000
4.00000 7.03348 4.00000
4.00000 7.03348 4.00000
4.00000 7.03348 4.00000
4.00000 7.03348 4.00000
4.00000 7.03348 4.00000
4.00000 7.03348 4.00000
4.00000 7.03348 4.00000
4.00000 7.03348 4.00000
4.00000 7.03348 4.00000
4.00000 7.03348 4.00000
4.00000 7.03349 4.00000
4.00000 7.03348 4.00000
4.00000 7.03348 4.00000
4.00000 7.03347 4.00000
4.00000 7.03347 4.00000
4.00000 7.03348 4.00000
4.00000 7.03346 4.00000
4.00000 7.03347 4.00000
4.00000 7.03348 4.00000
4.00000 7.03349 4.00000
4.00000 7.03348 4.00000
4.00000 7.03348 4.00000
4.00000 7.03348 4.00000
4.00000 7.03348 4.00000
4.00000 7.03348 4.00000
4.00000 7.03348 4.00000
4.00000 7.03348 4.00000
4.00000 7.03348 4.00000
4.00000 7.03348 4.00000
4.00000 7.03348 4.00000
4.00000 7.03350 4.00000
4.00000 7.03348 4.00000
4.00000 7.03348 4.00000
4.00000 7.03348 4.00000
4.00000 7.03348 4.00000
4.00000 7.03348 4.00000
4.00000 7.03349 4.00000
4.00000 7.03349 4.00000
4.00000 7.03351 4.00000
4.00000 7.03348 4.00000
4.00000 7.03347 4.00000
4.00000 7.03345 4.00000
4.00000 7.03348 4.00000
4.00000 7.03348 4.00000
4.00000 7.03349 4.00000
4.00000 7.03348 4.00000
4.00000 7.03348 4.00000
4.00000 7.03348 4.00000
4.00244 7.08146 4.00244
4.00625 7.15875 4.00625
4.00996 7.23643 4.00996
4.01358 7.31445 4.01358
4.01714 7.39275 4.01714
4.02063 7.47128 4.02063
4.02409 7.54998 4.02409
4.02753 7.62881 4.02752
4.03095 7.70771 4.03095
4.03438 7.78663 4.03438
4.03783 7.86551 4.03783
4.04132 7.94430 4.04132
4.04487 8.02294 4.04487
4.04850 8.10134 4.04850
4.05224 8.17945 4.05224
4.05611 8.25716 4.05611
4.06015 8.33437 4.06015
4.06439 8.41098 4.06439
4.06889 8.48683 4.06889
4.07369 8.56176 4.07369
4.07887 8.63557 4.07886
4.08447 8.70809 4.08447
4.09044 8.77955 4.09044
4.09677 8.84997 4.09677
4.10347 8.91936 4.10347
4.11054 8.98771 4.11054
4.11797 9.05508 4.11797
4.12576 9.12151 4.12576
4.13387 9.18710 4.13387
4.14228 9.25198 4.14228
4.15092 9.31630 4.15092
4.15974 9.38029 4.15974
4.16863 9.44422 4.16863
4.17749 9.50844 4.17749
4.18616 9.57338 4.18616
4.19444 9.63960 4.19444
4.20210 9.70776 4.20209
4.20883 9.77869 4.20883
4.21427 9.85340 4.21427
4.21800 9.93306 4.21800
4.21957 10.01887 4.21957
4.21872 10.11164 4.21872
4.21670 10.20773 4.21670
4.21402 10.30572 4.21403
4.21069 10.40562 4.21069
4.20666 10.50756 4.20666
4.20186 10.61176 4.20186
4.19617 10.71859 4.19617
4.18941 10.82862 4.18941
4.18127 10.94279 4.18127
4.17127 11.06263 4.17127
4.15848 11.19104 4.15848
4.14082 11.33454 4.14082
4.11112 11.51605 4.11112
4.00000 13.19120 4.00000
4.00000 13.19120 4.00000
4.00000 13.19120 4.00000
4.00000 13.19120 4.00000
4.00000 13.19120 4.00000
4.00000 13.19120 4.00000
4.00000 13.19120 4.00000
4.00000 13.19120 4.00000
4.00000 13.19120 4.00000
4.00000 13.19120 4.00000
4.00000 13.19120 4.00000
4.00000 13.19120 4.00000
4.00000 13.19120 4.00000
4.00000 13.19120 4.00000
4.00662 13.21224 4.00662
4.01939 13.25942 4.01939
4.03074 13.31180 4.03074
4.04050 13.36984 4.04050
4.04847 13.43400 4.04847
4.05450 13.50470 4.05450
4.05841 13.58237 4.05841
4.06075 13.66518 4.06075
4.06297 13.74841 4.06297
4.06513 13.83187 4.06512
4.06722 13.91553 4.06722
4.06927 13.99937 4.06926
4.07126 14.08336 4.07126
4.07322 14.16750 4.07322
4.07514 14.25177 4.07514
4.07703 14.33616 4.07703
4.07888 14.42066 4.07888
4.08071 14.50526 4.08071
4.08251 14.58995 4.08251
4.08429 14.67472 4.08429
4.08605 14.75957 4.08605
4.08778 14.84450 4.08778
4.08950 14.92949 4.08950
4.09120 15.01454 4.09120
4.09288 15.09967 4.09288
4.09436 15.18546 4.09436
4.09555 15.27215 4.09555
4.09647 15.35969 4.09647
4.09714 15.44804 4.09714
4.09757 15.53713 4.09757
4.09777 15.62694 4.09777
4.09777 15.71739 4.09777
4.09758 15.80845 4.09758
4.09721 15.90007 4.09721
4.09668 15.99220 4.09668
4.09599 16.08481 4.09599
4.09518 16.17785 4.09518
4.09424 16.27127 4.09424
4.09319 16.36505 4.09319
4.09204 16.45915 4.09204
4.09080 16.55353 4.09080
4.08949 16.64816 4.08949
4.08811 16.74301 4.08811
4.08667 16.83805 4.08667
4.08517 16.93326 4.08517
4.08364 17.02861 4.08364
4.08207 17.12408 4.08207
4.08048 17.21965 4.08048
4.07886 17.31530 4.07886
4.07723 17.41100 4.07723
4.07558 17.50675 4.07558
4.07393 17.60253 4.07393
4.07228 17.69832 4.07228
4.07063 17.79411 4.07063
4.06898 17.88990 4.06898
4.06735 17.98566 4.06735
4.06572 18.08140 4.06572
4.06412 18.17709 4.06411
4.06252 18.27274 4.06252
4.06095 18.36834 4.06094
4.05939 18.46388 4.05939
4.05786 18.55936 4.05785
4.05635 18.65476 4.05634
4.05486 18.75010 4.05486
4.05339 18.84537 4.05340
4.05196 18.94054 4.05196
4.05055 19.03564 4.05055
4.04917 19.13066 4.04917
4.04782 19.22560 4.04782
4.04650 19.32044 4.04650
4.04520 19.41520 4.04520
4.04393 19.50987 4.04393
4.04269 19.60445 4.04269
4.04148 19.69894 4.04148
4.04030 19.79335 4.04030
4.03914 19.88766 4.03914
4.03801 19.98189 4.03801
4.03691 20.07603 4.03691
4.03584 20.17008 4.03584
4.03479 20.26405 4.03479
4.03378 20.35793 4.03378
4.03278 20.45172 4.03278
4.03182 20.54544 4.03182
4.03088 20.63907 4.03088
4.02996 20.73262 4.02996
4.02907 20.82609 4.02907
4.02820 20.91948 4.02820
4.02736 21.01280 4.02736
4.02654 21.10604 4.02654
4.02574 21.19921 4.02574
4.02496 21.29230 4.02496
4.02421 21.38533 4.02421
4.02348 21.47828 4.02348
4.02277 21.57117 4.02277
4.02207 21.66399 4.02207
4.02140 21.75675 4.02140
4.02075 21.84944 4.02075
4.02012 21.94207 4.02012
4.01950 22.03464 4.01950
4.01890 22.12715 4.01890
4.01832 22.21961 4.01832
4.01776 22.31201 4.01776
4.01722 22.40435 4.01722
4.01669 22.49664 4.01669
4.01617 22.58888 4.01617
4.01567 22.68106 4.01567
4.01519 22.77320 4.01519
4.01472 22.86529 4.01472
4.01426 22.95734 4.01426
4.01382 23.04934 4.01382
4.01339 23.14129 4.01339
4.01298 23.23320 4.01298
4.01257 23.32507 4.01257
4.01218 23.41690 4.01218
4.01180 23.50869 4.01180
4.01143 23.60044 4.01143
4.01108 23.69216 4.01108
4.01073 23.78383 4.01073
4.01040 23.87548 4.01040
4.01007 23.96708 4.01007
4.00976 24.05866 4.00976
4.00945 24.15020 4.00945
4.00916 24.24172 4.00916
4.00887 24.33320 4.00887
4.00859 24.42465 4.00859
4.00832 24.51607 4.00832
4.00806 24.60747 4.00806
4.00781 24.69884 4.00781
4.00756 24.79018 4.00756
4.00733 24.88150 4.00733
4.00710 24.97279 4.00710
4.00687 25.06406 4.00687
4.00666 25.15530 4.00666
4.00645 25.24653 4.00645
4.00625 25.33773 4.00625
4.00605 25.42891 4.00605
4.00586 25.52007 4.00586
4.00567 25.61121 4.00567
4.00550 25.70233 4.00549
4.00532 25.79343 4.00532
4.00515 25.88452 4.00515
4.00499 25.97558 4.00499
4.00483 26.06663 4.00483
4.00468 26.15767 4.00468
4.00453 26.24868 4.00453
4.00439 26.33969 4.00439
4.00425 26.43067 4.00425
4.00412 26.52165 4.00412
4.00399 26.61260 4.00399
4.00386 26.70355 4.00386
4.00374 26.79448 4.00374
4.00362 26.88540 4.00362
4.00351 26.97631 4.00351
4.00340 27.06720 4.00340
4.00329 27.15808 4.00329
4.00318 27.24895 4.00318
4.00308 27.33981 4.00309
4.00299 27.43066 4.00299
4.00289 27.52150 4.00289
4.00280 27.61233 4.00280
4.00271 27.70315 4.00271
4.00263 27.79396 4.00262
4.00254 27.88477 4.00254
4.00246 27.97556 4.00246
4.00238 28.06634 4.00238
4.00231 28.15712 4.00231
4.00224 28.24789 4.00224
4.00216 28.33865 4.00216
4.00210 28.42940 4.00210
4.00203 28.52015 4.00203
4.00197 28.61089 4.00197
4.00190 28.70162 4.00190
4.00184 28.79235 4.00184
4.00178 28.88307 4.00179
4.00173 28.97378 4.00173
4.00167 29.06449 4.00167
4.00162 29.15519 4.00162
4.00157 29.24589 4.00157
4.00152 29.33658 4.00152
4.00147 29.42727 4.00147
4.00142 29.51795 4.00142
4.00138 29.60863 4.00138
4.00133 29.69930 4.00134
4.00129 29.78996 4.00129
4.00125 29.88063 4.00125
4.00121 29.97129 4.00121
4.00117 30.06194 4.00117
4.00114 30.15259 4.00114
4.00110 30.24324 4.00110
4.00106 30.33388 4.00107
4.00103 30.42452 4.00103
4.00100 30.51516 4.00100
4.00097 30.60579 4.00097
4.00094 30.69642 4.00094
4.00091 30.78705 4.00091
4.00088 30.87767 4.00088
4.00085 30.96829 4.00085
4.00082 31.05890 4.00082
4.00080 31.14952 4.00080
4.00077 31.24013 4.00077
4.00075 31.33074 4.00075
4.00072 31.42135 4.00072
4.00070 31.51196 4.00070
4.00068 31.60255 4.00068
4.00066 31.69315 4.00066
4.00064 31.78375 4.00064
4.00062 31.87434 4.00062
4.00060 31.96494 4.00060
4.00058 32.05553 4.00058
4.00056 32.14612 4.00056
4.00054 32.23671 4.00054
4.00052 32.32729 4.00052
4.00051 32.41788 4.00051
4.00049 32.50846 4.00049
4.00048 32.59904 4.00048
4.00046 32.68962 4.00046
4.00045 32.78020 4.00045
4.00043 32.87078 4.00043
4.00042 32.96135 4.00042
4.00040 33.05193 4.00040
4.00039 33.14250 4.00039
4.00038 33.23307 4.00038
4.00037 33.32364 4.00037
4.00036 33.41421 4.00036
4.00034 33.50478 4.00034
4.00033 33.59534 4.00033
4.00032 33.68591 4.00032
4.00031 33.77648 4.00031
4.00030 33.86704 4.00030
4.00029 33.95760 4.00029
4.00028 34.04816 4.00028
4.00027 34.13873 4.00027
4.00027 34.22929 4.00027
4.00026 34.31984 4.00026
4.00025 34.41040 4.00025
4.00024 34.50096 4.00024
4.00023 34.59152 4.00023
4.00023 34.68207 4.00023
4.00022 34.77263 4.00022
4.00021 34.86319 4.00021
4.00021 34.95374 4.00021
4.00020 35.04429 4.00020
4.00019 35.13485 4.00019
4.00019 35.22540 4.00019
4.00018 35.31595 4.00018
4.00018 35.40650 4.00017
4.00017 35.49706 4.00017
4.00016 35.58761 4.00016
4.00016 35.67816 4.00016
4.00015 35.76871 4.00015
4.00015 35.85926 4.00015
4.00014 35.94981 4.00014
4.00014 36.04036 4.00014
4.00013 36.13090 4.00013
4.00013 36.22145 4.00013
4.00013 36.31200 4.00013
4.00012 36.40255 4.00012
4.00012 36.49309 4.00012
4.00011 36.58364 4.00011
4.00011 36.67419 4.00011
4.00011 36.76473 4.00011

