Angle 0.608530 0.237481

4.00000 7.03348 4.00000
4.00000 7.03348 4.00000
4.00000 7.03348 4.00000
4.00000 7.03348 4.00000
4.00000 7.03348 4.00000
4.00000 7.03348 4.00000
4.00000 7.03348 4.00000
4.00000 7.03347 4.00000
4.00000 7.03348 4.00000
4.00000 7.03348 4.00000
4.00000 7.03348 4.00000
4.00000 7.03348 4.00000
4.00000 7.03348 4.00000
4.00000 7.03348 4.00000
4.00000 7.03348 4.00000
4.00000 7.03348 4.00000
4.00000 7.03347 4.00000
4.00000 7.03348 4.00000
4.00002 7.03391 4.00002
4.00380 7.10888 4.00380
4.00748 7.18438 4.00748
4.01107 7.26026 4.01107
4.01459 7.33647 4.01459
4.01804 7.41295 4.01804
4.02145 7.48967 4.02145
4.02482 7.56656 4.02482
4.02817 7.64359 4.02817
4.03151 7.72069 4.03151
4.03487 7.79783 4.03487
4.03824 7.87496 4.03824
4.04166 7.95200 4.04166
4.04514 8.02891 4.04514
4.04870 8.10562 4.04870
4.05237 8.18206 4.05237
4.05616 8.25813 4.05616
4.06012 8.33375 4.06012
4.06427 8.40881 4.06427
4.06866 8.48316 4.06866
4.07335 8.55665 4.07335
4.07839 8.62910 4.07839
4.08385 8.70033 4.08385
4.08966 8.77053 4.08966
4.09582 8.83975 4.09582
4.10234 8.90799 4.10234
4.10921 8.97525 4.10921
4.11644 9.04156 4.11644
4.12402 9.10697 4.12402
4.13191 9.17156 4.13191
4.14010 9.23544 4.14010
4.14854 9.29875 4.14854
4.15716 9.36170 4.15716
4.16589 9.42451 4.16589
4.17463 9.48751 4.17462
4.18323 9.55107 4.18323
4.19153 9.61568 4.19153
4.19931 9.68192 4.19931
4.20632 9.75055 4.20632
4.21223 9.82244 4.21223
4.21666 9.89865 4.21666
4.21917 9.98036 4.21917
4.21939 10.06866 4.21939
4.21773 10.16231 4.21773
4.21540 10.25792 4.21541
4.21244 10.35537 4.21245
4.20883 10.45474 4.20883
4.20451 10.55619 4.20451
4.19939 10.66000 4.19939
4.19334 10.76660 4.19334
4.18613 10.87668 4.18613
4.17742 10.99133 4.17742
4.16659 11.11244 4.16659
4.15247 11.24372 4.15247
4.13206 11.39464 4.13206
4.09087 11.61172 4.09087
4.00000 13.19120 4.00000
4.00000 13.19120 4.00000
4.00000 13.19120 4.00000
4.00000 13.19120 4.00000
4.00000 13.19120 4.00000
4.00000 13.19120 4.00000
4.00000 13.19120 4.00000
4.00000 13.19120 4.00000
4.00000 13.19120 4.00000
4.00000 13.19120 4.00000
4.00000 13.19120 4.00000
4.00000 13.19120 4.00000
4.00000 13.19120 4.00000
4.00000 13.19119 4.00000
4.00883 13.21973 4.00883
4.02124 13.26715 4.02124
4.03224 13.31972 4.03224
4.04165 13.37789 4.04165
4.04930 13.44209 4.04930
4.05502 13.51276 4.05502
4.05867 13.59029 4.05867
4.06095 13.67231 4.06095
4.06313 13.75465 4.06313
4.06526 13.83720 4.06526
4.06733 13.91996 4.06733
4.06935 14.00291 4.06935
4.07133 14.08601 4.07133
4.07326 14.16926 4.07326
4.07516 14.25265 4.07516
4.07703 14.33617 4.07703
4.07886 14.41979 4.07887
4.08067 14.50353 4.08067
4.08246 14.58736 4.08246
4.08422 14.67128 4.08422
4.08596 14.75528 4.08596
4.08768 14.83936 4.08768
4.08938 14.92352 4.08938
4.09107 15.00774 4.09107
4.09274 15.09204 4.09274
4.09422 15.17691 4.09422
4.09543 15.26269 4.09543
4.09637 15.34932 4.09637
4.09706 15.43675 4.09707
4.09752 15.52493 4.09752
4.09775 15.61381 4.09775
4.09778 15.70334 4.09778
4.09762 15.79349 4.09762
4.09728 15.88420 4.09728
4.09678 15.97543 4.09678
4.09613 16.06714 4.09613
4.09535 16.15928 4.09535
4.09444 16.25182 4.09444
4.09342 16.34472 4.09342
4.09230 16.43795 4.09230
4.09110 16.53146 4.09110
4.08981 16.62524 4.08981
4.08846 16.71925 4.08846
4.08704 16.81346 4.08704
4.08558 16.90785 4.08558
4.08407 17.00238 4.08407
4.08252 17.09705 4.08252
4.08095 17.19183 4.08095
4.07935 17.28669 4.07935
4.07773 17.38162 4.07773
4.07610 17.47661 4.07610
4.07446 17.57163 4.07446
4.07282 17.66668 4.07282
4.07119 17.76174 4.07119
4.06955 17.85680 4.06955
4.06792 17.95184 4.06792
4.06631 18.04687 4.06631
4.06470 18.14187 4.06470
4.06311 18.23683 4.06311
4.06154 18.33175 4.06154
4.05999 18.42661 4.05999
4.05846 18.52142 4.05846
4.05695 18.61617 4.05695
4.05547 18.71086 4.05547
4.05401 18.80548 4.05401
4.05257 18.90002 4.05257
4.05116 18.99449 4.05116
4.04978 19.08889 4.04978
4.04842 19.18320 4.04842
4.04709 19.27744 4.04709
4.04579 19.37159 4.04579
4.04452 19.46566 4.04452
4.04327 19.55965 4.04327
4.04206 19.65356 4.04206
4.04087 19.74738 4.04087
4.03971 19.84112 4.03971
4.03857 19.93477 4.03857
4.03747 20.02835 4.03747
4.03639 20.12184 4.03639
4.03533 20.21525 4.03533
4.03431 20.30858 4.03431
4.03331 20.40183 4.03331
4.03233 20.49500 4.03233
4.03139 20.58809 4.03139
4.03046 20.68111 4.03046
4.02956 20.77405 4.02956
4.02869 20.86691 4.02869
4.02783 20.95971 4.02783
4.02701 21.05243 4.02701
4.02620 21.14508 4.02620
4.02542 21.23767 4.02542
4.02465 21.33018 4.02465
4.02391 21.42264 4.02391
4.02319 21.51502 4.02319
4.02249 21.60735 4.02249
4.02181 21.69961 4.02181
4.02115 21.79181 4.02115
4.02051 21.88395 4.02051
4.01989 21.97604 4.01989
4.01928 22.06807 4.01928
4.01870 22.16004 4.01870
4.01813 22.25197 4.01813
4.01757 22.34384 4.01757
4.01703 22.43566 4.01703
4.01651 22.52743 4.01651
4.01601 22.61915 4.01601
4.01551 22.71083 4.01551
4.01504 22.80246 4.01504
4.01457 22.89405 4.01457
4.01413 22.98559 4.01413
4.01369 23.07710 4.01369
4.01327 23.16856 4.01327
4.01286 23.25998 4.01286
4.01246 23.35137 4.01246
4.01207 23.44272 4.01207
4.01170 23.53403 4.01170
4.01134 23.62531 4.01134
4.01099 23.71655 4.01099
4.01064 23.80776 4.01064
4.01031 23.89894 4.01031
4.00999 23.99009 4.00999
4.00968 24.08121 4.00968
4.00938 24.17230 4.00938
4.00909 24.26336 4.00909
4.00881 24.35439 4.00881
4.00853 24.44540 4.00853
4.00826 24.53638 4.00826
4.00801 24.62734 4.00801
4.00776 24.71828 4.00776
4.00751 24.80919 4.00751
4.00728 24.90007 4.00728
4.00705 24.99094 4.00705
4.00683 25.08179 4.00683
4.00662 25.17261 4.00662
4.00641 25.26341 4.00641
4.00621 25.35420 4.00621
4.00601 25.44497 4.00602
4.00583 25.53572 4.00583
4.00564 25.62645 4.00564
4.00547 25.71716 4.00547
4.00529 25.80786 4.00529
4.00513 25.89855 4.00513
4.00497 25.98921 4.00497
4.00481 26.07987 4.00481
4.00466 26.17051 4.00466
4.00451 26.26113 4.00451
4.00437 26.35175 4.00437
4.00423 26.44235 4.00423
4.00410 26.53294 4.00410
4.00397 26.62351 4.00397
4.00385 26.71408 4.00385
4.00373 26.80463 4.00373
4.00361 26.89518 4.00361
4.00350 26.98571 4.00350
4.00338 27.07623 4.00338
4.00328 27.16675 4.00328
4.00318 27.25725 4.00317
4.00308 27.34775 4.00307
4.00298 27.43824 4.00298
4.00288 27.52872 4.00288
4.00279 27.61919 4.00279
4.00271 27.70965 4.00270
4.00262 27.80010 4.00262
4.00254 27.89056 4.00254
4.00245 27.98101 4.00245
4.00238 28.07143 4.00238
4.00230 28.16187 4.00230
4.00223 28.25229 4.00223
4.00216 28.34271 4.00216
4.00209 28.43312 4.00209
4.00203 28.52353 4.00202
4.00196 28.61393 4.00196
4.00190 28.70433 4.00190
4.00184 28.79472 4.00184
4.00178 28.88511 4.00178
4.00172 28.97549 4.00173
4.00167 29.06587 4.00167
4.00162 29.15624 4.00162
4.00157 29.24661 4.00157
4.00152 29.33698 4.00152
4.00147 29.42735 4.00147
4.00142 29.51771 4.00142
4.00138 29.60806 4.00137
4.00134 29.69842 4.00134
4.00129 29.78877 4.00129
4.00126 29.87912 4.00125
4.00121 29.96946 4.00121
4.00117 30.05981 4.00117
4.00114 30.15015 4.00114
4.00110 30.24049 4.00110
4.00107 30.33083 4.00107
4.00103 30.42116 4.00103
4.00100 30.51149 4.00100
4.00097 30.60182 4.00097
4.00094 30.69215 4.00094
4.00091 30.78248 4.00091
4.00088 30.87281 4.00088
4.00085 30.96313 4.00085
4.00082 31.05345 4.00082
4.00080 31.14378 4.00080
4.00077 31.23410 4.00077
4.00075 31.32442 4.00075
4.00072 31.41473 4.00072
4.00070 31.50505 4.00070
4.00068 31.59537 4.00068
4.00066 31.68568 4.00066
4.00064 31.77600 4.00064
4.00062 31.86631 4.00062
4.00060 31.95662 4.00060
4.00058 32.04694 4.00058
4.00056 32.13725 4.00056
4.00054 32.22756 4.00054
4.00053 32.31787 4.00053
4.00051 32.40818 4.00051
4.00049 32.49849 4.00049
4.00048 32.58880 4.00048
4.00046 32.67911 4.00046
4.00045 32.76942 4.00045
4.00043 32.85973 4.00043
4.00042 32.95004 4.00042
4.00041 33.04035 4.00041
4.00039 33.13066 4.00039
4.00038 33.22097 4.00038
4.00037 33.31128 4.00037
4.00036 33.40159 4.00036
4.00035 33.49190 4.00035
4.00034 33.58221 4.00034
4.00033 33.67251 4.00033
4.00031 33.76282 4.00031
4.00030 33.85313 4.00030
4.00030 33.94344 4.00030
4.00029 34.03375 4.00029
4.00028 34.12406 4.00028
4.00027 34.21437 4.00027
4.00026 34.30469 4.00026
4.00025 34.39500 4.00025
4.00024 34.48531 4.00024
4.00023 34.57562 4.00023
4.00023 34.66593 4.00023
4.00022 34.75624 4.00022
4.00021 34.84656 4.00021
4.00021 34.93687 4.00021
4.00020 35.02718 4.00020
4.00019 35.11750 4.00019
4.00019 35.20781 4.00019
4.00018 35.29813 4.00018
4.00018 35.38845 4.00018
4.00017 35.47876 4.00017
4.00017 35.56908 4.00017
4.00016 35.65940 4.00016
4.00015 35.74972 4.00015
4.00015 35.84004 4.00015
4.00014 35.93036 4.00014
4.00014 36.02068 4.00014
4.00014 36.11100 4.00014
4.00013 36.20132 4.00013
4.00013 36.29164 4.00013
4.00012 36.38196 4.00012
4.00012 36.47229 4.00012
4.00012 36.56261 4.00012
4.00011 36.65294 4.00011
4.00011 36.74326 4.00011
4.00010 36.83359 4.00010
4.00010 36.92391 4.00010
4.00010 37.01424 4.00010
4.00010 37.10457 4.00010
4.00009 37.19490 4.00009
4.00009 37.28523 4.00009
4.00009 37.37556 4.00009
4.00008 37.46589 4.00008
4.00008 37.55622 4.00008
4.00008 37.64655 4.00008
4.00008 37.73689 4.00008
4.00007 37.82722 4.00007
4.00007 37.91756 4.00007
4.00007 38.00789 4.00007
4.00007 38.09823 4.00007
4.00006 38.18856 4.00006
4.00006 38.27890 4.00006
4.00006 38.36924 4.00006
4.00006 38.45958 4.00006
4.00006 38.54992 4.00006
4.00006 38.64026 4.00006
4.00005 38.73060 4.00005
4.00005 38.82094 4.00005
4.00005 38.91128 4.00005
4.00005 39.00163 4.00005
4.00005 39.09197 4.00005
4.00005 39.18231 4.00005
4.00004 39.27266 4.00004
4.00004 39.36301 4.00004
4.00004 39.45335 4.00004
4.00004 39.54370 4.00004
4.00004 39.63405 4.00004
4.00004 39.72440 4.00004
4.00004 39.81475 4.00004
4.00004 39.90510 4.00004
4.00003 39.99545 4.00003
4.00003 40.08580 4.00003
4.00003 40.17615 4.00003
4.00003 40.26651 4.00003
4.00003 40.35686 4.00003
4.00003 40.44722 4.00003
4.00003 40.53757 4.00003
4.00003 40.62793 4.00003
4.00003 40.71829 4.00003
4.00003 40.80864 4.00003
4.00002 40.89900 4.00002
4.00002 40.98936 4.00002
4.00002 41.07972 4.00002
4.00002 41.17008 4.00002
4.00002 41.26044 4.00002

Angle 0.250925 2.806830

4.00000 7.03348 4.00000
4.00000 7.03348 4.00000
4.00000 7.03348 4.00000
4.00000 7.03348 4.00000
4.00000 7.03348 4.00000
4.00000 7.03348 4.00000
4.00000 7.03348 4.00000
4.00000 7.03348 4.00000
4.00000 7.03348 4.00000
4.00000 7.03348 4.00000
4.00000 7.03348 4.00000
4.00000 7.03348 4.00000
4.00000 7.03347 4.00000
4.00000 7.03348 4.00000
4.00000 7.03348 4.00000
4.00000 7.03348 4.00000
4.00000 7.03348 4.00000
4.00000 7.03348 4.00000
4.00000 7.03348 4.00000
4.00000 7.03348 4.00000
4.00000 7.03348 4.00000
4.00000 7.03348 4.00000
4.00000 7.03348 4.00000
4.00000 7.03348 4.00000
4.00000 7.03348 4.00000
4.00000 7.03348 4.00000
4.00000 7.03348 4.00000
4.00000 7.03348 4.00000
4.00000 7.03348 4.00000
4.00000 7.03348 4.00000
4.00000 7.03348 4.00000
4.00000 7.03348 4.00000
4.00000 7.03348 4.00000
4.00000 7.03348 4.00000
4.00000 7.03348 4.00000
4.00000 7.03348 4.00000
4.00000 7.03348 4.00000
4.00000 7.03348 4.00000
4.00000 7.03348 4.00000
4.00000 7.03348 4.00000
4.00000 7.03348 4.00000
4.00000 7.03348 4.00000
4.00000 7.03348 4.00000
4.00000 7.03348 4.00000
4.00000 7.03348 4.00000
4.00000 7.03348 4.00000
4.00000 7.03348 4.00000
4.00000 7.03348 4.00000
4.00000 7.03347 4.00000
4.00000 7.03348 4.00000
4.00000 7.03348 4.00000
4.00000 7.03348 4.00000
4.00000 7.03348 4.00000
4.00000 7.03348 4.00000
4.00000 7.03348 4.00000
4.00000 7.03348 4.00000
4.00000 7.03348 4.00000
4.00000 7.03348 4.00000
4.00000 7.03348 4.00000
4.00000 7.03348 4.00000
4.00000 7.03348 4.00000
4.00000 7.03348 4.00000
4.00000 7.03348 4.00000
4.00000 7.03348 4.00000
4.00000 7.03348 4.00000
4.00000 7.03348 4.00000
4.00000 7.03348 4.00000
4.00000 7.03348 4.00000
4.00000 7.03348 4.00000
4.00000 7.03348 4.00000
4.00000 7.03348 4.00000
4.00000 7.03348 4.00000
4.00000 7.03348 4.00000
4.00000 7.03349 4.00000
4.00000 7.03348 4.00000
4.00000 7.03348 4.00000
4.00000 7.03348 4.00000
4.00000 7.03348 4.00000
4.00000 7.03348 4.00000
4.00000 7.03348 4.00000
4.00000 7.03348 4.00000
4.00000 7.03348 4.00000
4.00000 7.03348 4.00000
4.00000 7.03348 4.00000
4.00000 7.03348 4.00000
4.00000 7.03348 4.00000
4.00000 7.03348 4.00000
4.00000 7.03348 4.00000
4.00000 7.03348 4.00000
4.00000 7.03348 4.00000
4.00000 7.03348 4.00000
4.00000 7.03348 4.00000
4.00000 7.03348 4.00000
4.00000 7.03348 4.00000
4.00000 7.03348 4.00000
4.00000 7.03348 4.00000
4.00000 7.03348 4.00000
4.00000 7.03348 4.00000
4.00000 7.03348 4.00000
4.00000 7.03348 4.00000
4.00000 7.03348 4.00000
4.00000 7.03348 4.00000
4.00000 7.03347 4.00000
4.00000 7.03348 4.00000
4.00000 7.03348 4.00000
4.00000 7.03348 4.00000
4.00000 7.03348 4.00000
4.00000 7.03348 4.00000
4.00000 7.03348 4.00000
4.00000 7.03348 4.00000
4.00000 7.03348 4.00000
4.00000 7.03348 4.00000
4.00000 7.03348 4.00000
4.00000 7.03348 4.00000
4.00000 7.03348 4.00000
4.00000 7.03348 4.00000
4.00000 7.03348 4.00000
4.00000 7.03348 4.00000
4.00000 7.03348 4.00000
4.00000 7.03348 4.00000
4.00000 7.03348 4.00000
4.00000 7.03348 4.00000
4.00000 7.03348 4.00000
4.00000 7.03348 4.00000
4.00000 7.03348 4.00000
4.00000 7.03348 4.00000
4.00000 7.03348 4.00000
4.00000 7.03348 4.00000
4.00000 7.03348 4.00000
4.00000 7.03348 4.00000
4.00000 7.03348 4.00000
4.00000 7.03347 4.00000
4.00000 7.03348 4.00000
4.00000 7.03347 4.00000
4.00000 7.03347 4.00000
4.00000 7.03348 4.00000
4.00000 7.03348 4.00000
4.00000 7.03348 4.00000
4.00000 7.03348 4.00000
4.00000 7.03348 4.00000
4.00000 7.03348 4.00000
4.00000 7.03348 4.00000
4.00000 7.03348 4.00000
4.00000 7.03348 4.00000
4.00000 7.03348 4.00000
4.00000 7.03348 4.00000
4.00000 7.03348 4.00000
4.00000 7.03348 4.00000
4.00000 7.03348 4.00000
4.00000 7.03348 4.00000
4.00000 7.03348 4.00000
4.00000 7.03348 4.00000
4.00000 7.03348 4.00000
4.00000 7.03348 4.00000
4.00000 7.03348 4.00000
4.00000 7.03348 4.00000
4.00000 7.03347 4.00000
4.00000 7.03348 4.00000
4.00000 7.03348 4.00000
4.00000 7.03348 4.00000
4.00000 7.03349 4.00000
4.00000 7.03348 4.00000
4.00000 7.03348 4.00000
4.00000 7.03348 4.00000
4.00000 7.03348 4.00000
4.00000 7.03348 4.00000
4.00000 7.03348 4.00000
4.00000 7.03348 4.00000
4.00000 7.03348 4.00000
4.00000 7.03348 4.00000
4.00000 7.03348 4.00000
4.00000 7.03348 4.00000
4.00000 7.03348 4.00000
4.00000 7.03348 4.00000
4.00000 7.03347 4.00000
4.00000 7.03348 4.00000
4.00000 7.03348 4.00000
4.00000 7.03348 4.00000
4.00000 7.03348 4.00000
4.00000 7.03348 4.00000
4.00000 7.03346 4.00000
4.00000 7.03348 4.00000
4.00000 7.03349 4.00000
4.00000 7.03348 4.00000
4.00000 7.03347 4.00000
4.00000 7.03348 4.00000
4.00000 7.03347 4.00000
4.00000 7.03348 4.00000
4.00000 7.03348 4.00000
4.00000 7.03348 4.00000
4.00000 7.03348 4.00000
4.00000 7.03348 4.00000
4.00000 7.03345 4.00000
4.00000 7.03348 4.00000
4.00000 7.03349 4.00000
4.00000 7.03348 4.00000
4.00000 7.03348 4.00000
4.00000 7.03348 4.00000
4.00000 7.03348 4.00000
4.00000 7.03348 4.00000
4.00000 7.03348 4.00000
4.00000 7.03348 4.00000
4.00000 7.03348 4.00000
4.00000 7.03348 4.00000
4.00000 7.03348 4.00000
4.00000 7.03348 4.00000
4.00000 7.03348 4.00000
4.00000 7.03350 4.00000
4.00000 7.03348 4.00000
4.00000 7.03347 4.00000
4.00000 7.03348 4.00000
4.00000 7.03348 4.00000
4.00000 7.03344 4.00000
4.00000 7.03348 4.00000
4.00000 7.03348 4.00000
4.00000 7.03351 4.00000
4.00293 7.09131 4.00293
4.00623 7.15843 4.00623
4.00946 7.22597 4.00946
4.01264 7.29390 4.01264
4.01576 7.36218 4.01576
4.01884 7.43078 4.01883
4.02188 7.49963 4.02189
4.02491 7.56874 4.02491
4.02793 7.63804 4.02793
4.03094 7.70751 4.03094
4.03396 7.77711 4.03396
4.03701 7.84679 4.03701
4.04008 7.91652 4.04008
4.04320 7.98626 4.04320
4.04639 8.05594 4.04639
4.04964 8.12553 4.04965
4.05300 8.19496 4.05300
4.05647 8.26415 4.05647
4.06008 8.33305 4.06008
4.06386 8.40155 4.06386
4.06784 8.46956 4.06783
4.07205 8.53695 4.07205
4.07656 8.60358 4.07656
4.08141 8.66929 4.08141
4.08659 8.73411 4.08659
4.09207 8.79817 4.09207
4.09785 8.86147 4.09785
4.10393 8.92400 4.10393
4.11033 8.98577 4.11033
4.11703 9.04679 4.11703
4.12403 9.10712 4.12403
4.13132 9.16679 4.13132
4.13886 9.22591 4.13886
4.14663 9.28457 4.14663
4.15457 9.34293 4.15457
4.16264 9.40116 4.16264
4.17075 9.45949 4.17075
4.17882 9.51819 4.17882
4.18671 9.57763 4.18671
4.19427 9.63821 4.19427
4.20133 9.70046 4.20132
4.20764 9.76502 4.20764
4.21294 9.83264 4.21294
4.21690 9.90421 4.21690
4.21918 9.98069 4.21918
4.21945 10.06299 4.21945
4.21798 10.15031 4.21798
4.21590 10.23947 4.21590
4.21326 10.33032 4.21326
4.21005 10.42289 4.21005
4.20624 10.51730 4.20624
4.20176 10.61373 4.20176
4.19652 10.71250 4.19652
4.19036 10.81406 4.19036
4.18307 10.91911 4.18307
4.17427 11.02877 4.17427
4.16335 11.14500 4.16335
4.14907 11.27165 4.14907
4.12824 11.41890 4.12823
4.08329 11.64324 4.08329
4.00000 13.19120 4.00000
4.00000 13.19120 4.00000
4.00000 13.19120 4.00000
4.00000 13.19120 4.00000
4.00000 13.19120 4.00000
4.00000 13.19120 4.00000
4.00000 13.19120 4.00000
4.00000 13.19120 4.00000
4.00000 13.19120 4.00000
4.00000 13.19120 4.00000
4.00000 13.19120 4.00000
4.00000 13.19120 4.00000
4.00000 13.19119 3.99999
4.00000 13.19120 4.00000
4.00001 13.19124 4.00001
4.01192 13.23066 4.01192
4.02345 13.27679 4.02345
4.03368 13.32768 4.03368
4.04245 13.38373 4.04245
4.04962 13.44531 4.04962
4.05503 13.51280 4.05503
4.05855 13.58657 4.05855
4.06074 13.66474 4.06074
4.06284 13.74328 4.06284
4.06488 13.82206 4.06487
4.06686 13.90106 4.06686
4.06880 13.98026 4.06880
4.07070 14.05965 4.07070
4.07257 14.13921 4.07257
4.07440 14.21893 4.07440
4.07620 14.29880 4.07620
4.07797 14.37880 4.07797
4.07971 14.45894 4.07971
4.08144 14.53920 4.08144
4.08314 14.61958 4.08314
4.08482 14.70006 4.08482
4.08648 14.78065 4.08648
4.08812 14.86134 4.08812
4.08976 14.94212 4.08976
4.09137 15.02299 4.09137
4.09296 15.10399 4.09296
4.09436 15.18563 4.09436
4.09550 15.26814 4.09550
4.09639 15.35145 4.09639
4.09706 15.43553 4.09706
4.09750 15.52033 4.09750
4.09774 15.60582 4.09774
4.09779 15.69194 4.09779
4.09766 15.77865 4.09766
4.09737 15.86593 4.09737
4.09692 15.95372 4.09692
4.09633 16.04199 4.09633
4.09561 16.13070 4.09561
4.09477 16.21981 4.09477
4.09382 16.30930 4.09382
4.09278 16.39913 4.09278
4.09165 16.48927 4.09165
4.09045 16.57969 4.09045
4.08917 16.67036 4.08917
4.08783 16.76126 4.08783
4.08644 16.85236 4.08644
4.08501 16.94364 4.08501
4.08354 17.03508 4.08354
4.08203 17.12666 4.08203
4.08050 17.21835 4.08050
4.07895 17.31014 4.07895
4.07738 17.40202 4.07738
4.07580 17.49397 4.07580
4.07422 17.58598 4.07422
4.07263 17.67802 4.07263
4.07104 17.77010 4.07104
4.06946 17.86220 4.06946
4.06788 17.95431 4.06788
4.06631 18.04642 4.06631
4.06476 18.13852 4.06476
4.06322 18.23062 4.06322
4.06169 18.32269 4.06169
4.06018 18.41473 4.06018
4.05870 18.50674 4.05870
4.05723 18.59872 4.05723
4.05578 18.69065 4.05578
4.05436 18.78255 4.05436
4.05296 18.87439 4.05296
4.05158 18.96618 4.05158
4.05023 19.05792 4.05023
4.04890 19.14961 4.04890
4.04760 19.24124 4.04760
4.04633 19.33281 4.04633
4.04508 19.42432 4.04508
4.04385 19.51577 4.04385
4.04266 19.60716 4.04266
4.04148 19.69849 4.04148
4.04034 19.78975 4.04034
4.03922 19.88096 4.03922
4.03813 19.97210 4.03813
4.03706 20.06319 4.03706
4.03602 20.15421 4.03602
4.03500 20.24517 4.03500
4.03401 20.33607 4.03401
4.03304 20.42691 4.03304
4.03210 20.51769 4.03210
4.03118 20.60842 4.03118
4.03028 20.69909 4.03029
4.02941 20.78970 4.02941
4.02856 20.88025 4.02856
4.02773 20.97075 4.02773
4.02693 21.06120 4.02693
4.02614 21.15160 4.02614
4.02538 21.24194 4.02538
4.02464 21.33224 4.02464
4.02391 21.42249 4.02391
4.02321 21.51269 4.02321
4.02253 21.60285 4.02253
4.02186 21.69296 4.02186
4.02122 21.78302 4.02122
4.02059 21.87305 4.02059
4.01998 21.96303 4.01998
4.01938 22.05297 4.01938
4.01881 22.14288 4.01880
4.01824 22.23274 4.01824
4.01770 22.32257 4.01770
4.01717 22.41236 4.01717
4.01666 22.50212 4.01665
4.01615 22.59185 4.01615

Angle 0.310385 1.245261

4.00000 7.03348 4.00000
4.00000 7.03347 4.00000
4.00000 7.03348 4.00000
4.00000 7.03348 4.00000
4.00000 7.03348 4.00000
4.00000 7.03348 4.00000
4.00000 7.03347 4.00000
4.00000 7.03348 4.00000
4.00000 7.03348 4.00000
4.00000 7.03348 4.00000
4.00000 7.03348 4.00000
4.00000 7.03348 4.00000
4.00000 7.03346 4.00000
4.00000 7.03348 4.00000
4.00000 7.03348 4.00000
4.00000 7.03348 4.00000
4.00000 7.03348 4.00000
4.00000 7.03348 4.00000
4.00000 7.03348 4.00000
4.00000 7.03348 4.00000
4.00000 7.03348 4.00000
4.00000 7.03348 4.00000
4.00000 7.03348 4.00000
4.00000 7.03348 4.00000
4.00000 7.03348 4.00000
4.00000 7.03348 4.00000
4.00000 7.03348 4.00000
4.00000 7.03348 4.00000
4.00000 7.03348 4.00000
4.00000 7.03348 4.00000
4.00000 7.03348 4.00000
4.00000 7.03348 4.00000
4.00000 7.03348 4.00000
4.00000 7.03348 4.00000
4.00000 7.03348 4.00000
4.00000 7.03348 4.00000
4.00000 7.03348 4.00000
4.00000 7.03348 4.00000
4.00000 7.03348 4.00000
4.00000 7.03349 4.00000
4.00000 7.03348 4.00000
4.00000 7.03348 4.00000
4.00000 7.03348 4.00000
4.00000 7.03348 4.00000
4.00000 7.03348 4.00000
4.00000 7.03348 4.00000
4.00000 7.03348 4.00000
4.00000 7.03348 4.00000
4.00000 7.03348 4.00000
4.00000 7.03348 4.00000
4.00000 7.03348 4.00000
4.00000 7.03348 4.00000
4.00000 7.03348 4.00000
4.00000 7.03348 4.00000
4.00000 7.03348 4.00000
4.00000 7.03348 4.00000
4.00000 7.03348 4.00000
4.00000 7.03348 4.00000
4.00000 7.03348 4.00000
4.00000 7.03349 4.00000
4.00000 7.03349 4.00000
4.00000 7.03349 4.00000
4.00000 7.03348 4.00000
4.00000 7.03348 4.00000
4.00000 7.03348 4.00000
4.00000 7.03348 4.00000
4.00000 7.03348 4.00000
4.00000 7.03348 4.00000
4.00000 7.03348 4.00000
4.00000 7.03348 4.00000
4.00000 7.03348 4.00000
4.00000 7.03348 4.00000
4.00000 7.03348 4.00000
4.00000 7.03348 4.00000
4.00000 7.03347 4.00000
4.00000 7.03347 4.00000
4.00000 7.03348 4.00000
4.00000 7.03348 4.00000
4.00000 7.03348 4.00000
4.00000 7.03348 4.00000
4.00000 7.03348 4.00000
4.00000 7.03348 4.00000
4.00000 7.03348 4.00000
4.00000 7.03348 4.00000
4.00000 7.03348 4.00000
4.00000 7.03348 4.00000
4.00000 7.03348 4.00000
4.00000 7.03348 4.00000
4.00000 7.03348 4.00000
4.00000 7.03348 4.00000
4.00000 7.03348 4.00000
4.00000 7.03348 4.00000
4.00000 7.03348 4.00000
4.00000 7.03346 4.00000
4.00000 7.03348 4.00000
4.00000 7.03348 4.00000
4.00000 7.03346 4.00000
4.00000 7.03348 4.00000
4.00084 7.04983 4.00084
4.00423 7.11741 4.00423
4.00753 7.18545 4.00753
4.01077 7.25388 4.01078
4.01396 7.32269 4.01396
4.01709 7.39182 4.01709
4.02019 7.46124 4.02019
4.02326 7.53092 4.02326
4.02631 7.60081 4.02631
4.02935 7.67088 4.02935
4.03240 7.74109 4.03240
4.03546 7.81141 4.03546
4.03855 7.88178 4.03854
4.04167 7.95217 4.04167
4.04485 8.02253 4.04485
4.04810 8.09280 4.04810
4.05144 8.16293 4.05144
4.05488 8.23285 4.05488
4.05846 8.30249 4.05846
4.06219 8.37176 4.06219
4.06611 8.44057 4.06611
4.07026 8.50881 4.07026
4.07467 8.57632 4.07467
4.07941 8.64297 4.07941
4.08451 8.70863 4.08451
4.08991 8.77350 4.08992
4.09562 8.83759 4.09562
4.10164 8.90089 4.10164
4.10797 8.96341 4.10797
4.11461 9.02516 4.11461
4.12156 9.08617 4.12156
4.12880 9.14650 4.12880
4.13631 9.20623 4.13631
4.14407 9.26545 4.14407
4.15202 9.32430 4.15202
4.16011 9.38295 4.16011
4.16827 9.44162 4.16827
4.17642 9.50058 4.17642
4.18443 9.56016 4.18443
4.19215 9.62076 4.19215
4.19942 9.68288 4.19942
4.20601 9.74715 4.20601
4.21164 9.81430 4.21164
4.21602 9.88518 4.21602
4.21878 9.96078 4.21878
4.21958 10.04204 4.21958
4.21840 10.12905 4.21840
4.21644 10.21835 4.21644
4.21392 10.30935 4.21392
4.21082 10.40206 4.21082
4.20712 10.49660 4.20712
4.20277 10.59314 4.20277
4.19767 10.69195 4.19767
4.19168 10.79346 4.19168
4.18459 10.89834 4.18459
4.17607 11.00760 4.17607
4.16556 11.12302 4.16556
4.15196 11.24801 4.15196
4.13262 11.39098 4.13262
4.09616 11.58842 4.09616
4.00000 13.19120 4.00000
4.00000 13.19120 4.00000
4.00000 13.19120 4.00000
4.00000 13.19120 4.00000
4.00000 13.19120 4.00000
4.00000 13.19120 4.00000
4.00000 13.19120 4.00000
4.00000 13.19120 4.00000
4.00000 13.19120 4.00000
4.00000 13.19120 4.00000
4.00000 13.19120 4.00000
4.00000 13.19120 4.00000
4.00000 13.19119 4.00000
4.00000 13.19120 4.00000
4.00000 13.19120 4.00000
4.01083 13.22673 4.01083
4.02252 13.27267 4.02252
4.03291 13.32337 4.03291
4.04184 13.37924 4.04184
4.04916 13.44066 4.04916
4.05472 13.50802 4.05472
4.05838 13.58167 4.05838
4.06061 13.66007 4.06061
4.06272 13.73892 4.06272
4.06477 13.81801 4.06477
4.06677 13.89733 4.06677
4.06872 13.97684 4.06872
4.07063 14.05654 4.07063
4.07250 14.13641 4.07250
4.07434 14.21644 4.07434
4.07615 14.29661 4.07615
4.07793 14.37692 4.07793
4.07968 14.45737 4.07968
4.08141 14.53793 4.08141
4.08312 14.61860 4.08312
4.08480 14.69939 4.08480
4.08647 14.78028 4.08647
4.08812 14.86126 4.08812
4.08976 14.94234 4.08976
4.09138 15.02350 4.09138
4.09298 15.10478 4.09298
4.09438 15.18673 4.09438
4.09552 15.26954 4.09552
4.09641 15.35315 4.09641
4.09707 15.43754 4.09707
4.09751 15.52265 4.09751
4.09775 15.60844 4.09775
4.09779 15.69487 4.09779
4.09765 15.78190 4.09765
4.09735 15.86948 4.09735
4.09689 15.95758 4.09689
4.09630 16.04616 4.09630
4.09557 16.13517 4.09557
4.09472 16.22460 4.09472
4.09377 16.31439 4.09377
4.09272 16.40452 4.09272
4.09158 16.49496 4.09158
4.09036 16.58567 4.09036
4.08908 16.67664 4.08908
4.08773 16.76783 4.08773
4.08633 16.85923 4.08634
4.08489 16.95080 4.08490
4.08341 17.04252 4.08342
4.08190 17.13437 4.08190
4.08036 17.22634 4.08037
4.07881 17.31841 4.07881
4.07723 17.41056 4.07724
4.07565 17.50278 4.07565
4.07406 17.59504 4.07406
4.07247 17.68735 4.07247
4.07088 17.77969 4.07088
4.06929 17.87205 4.06929
4.06771 17.96441 4.06771
4.06614 18.05677 4.06614
4.06458 18.14912 4.06458
4.06304 18.24146 4.06304
4.06151 18.33377 4.06151
4.06000 18.42605 4.06000
4.05851 18.51830 4.05851
4.05704 18.61051 4.05704
4.05559 18.70268 4.05559
4.05417 18.79480 4.05417
4.05277 18.88687 4.05277
4.05139 18.97889 4.05139
4.05004 19.07085 4.05004
4.04871 19.16276 4.04871
4.04741 19.25461 4.04741
4.04614 19.34639 4.04614
4.04489 19.43812 4.04489
4.04367 19.52979 4.04367
4.04247 19.62139 4.04247
4.04130 19.71292 4.04130
4.04016 19.80439 4.04016
4.03904 19.89580 4.03904
4.03795 19.98715 4.03795
4.03689 20.07843 4.03688
4.03585 20.16965 4.03584
4.03483 20.26081 4.03483
4.03384 20.35191 4.03384
4.03288 20.44294 4.03288
4.03193 20.53392 4.03193
4.03102 20.62483 4.03102
4.03012 20.71569 4.03012
4.02925 20.80649 4.02925
4.02841 20.89723 4.02841
4.02758 20.98792 4.02758
4.02678 21.07855 4.02678
4.02599 21.16914 4.02599
4.02523 21.25966 4.02523
4.02449 21.35014 4.02449
4.02377 21.44057 4.02377
4.02307 21.53095 4.02307
4.02239 21.62128 4.02239
4.02173 21.71157 4.02173
4.02108 21.80181 4.02108
4.02046 21.89201 4.02046
4.01985 21.98216 4.01985
4.01926 22.07228 4.01926
4.01868 22.16235 4.01868
4.01812 22.25238 4.01812
4.01758 22.34238 4.01758
4.01705 22.43234 4.01705
4.01654 22.52226 4.01654
4.01604 22.61215 4.01604
4.01556 22.70201 4.01556
4.01509 22.79183 4.01509
4.01464 22.88163 4.01464
4.01419 22.97139 4.01419
4.01376 23.06112 4.01376
4.01335 23.15083 4.01335
4.01294 23.24051 4.01294
4.01255 23.33016 4.01255
4.01217 23.41978 4.01217
4.01180 23.50939 4.01180
4.01144 23.59896 4.01144
4.01109 23.68852 4.01109
4.01075 23.77805 4.01075
4.01043 23.86757 4.01043
4.01011 23.95706 4.01011
4.00980 24.04653 4.00980
4.00950 24.13599 4.00950
4.00921 24.22543 4.00921
4.00893 24.31485 4.00893
4.00865 24.40425 4.00865
4.00839 24.49364 4.00839
4.00813 24.58301 4.00813
4.00788 24.67237 4.00788
4.00764 24.76172 4.00764
4.00741 24.85105 4.00741
4.00718 24.94037 4.00718
4.00696 25.02967 4.00696
4.00674 25.11897 4.00674
4.00653 25.20826 4.00654
4.00633 25.29753 4.00633
4.00614 25.38680 4.00614
4.00595 25.47606 4.00595
4.00577 25.56531 4.00577
4.00559 25.65455 4.00559
4.00541 25.74378 4.00542
4.00525 25.83301 4.00525
4.00509 25.92223 4.00508
4.00493 26.01143 4.00493
4.00478 26.10064 4.00478
4.00463 26.18984 4.00463
4.00449 26.27904 4.00449
4.00435 26.36823 4.00435
4.00421 26.45742 4.00421
4.00408 26.54660 4.00408
4.00396 26.63578 4.00395
4.00383 26.72496 4.00383
4.00372 26.81412 4.00371
4.00360 26.90330 4.00360
4.00349 26.99246 4.00349
4.00338 27.08163 4.00338
4.00327 27.17079 4.00327
4.00317 27.25995 4.00317
4.00307 27.34911 4.00307
4.00298 27.43827 4.00298
4.00289 27.52743 4.00289
4.00280 27.61659 4.00280
4.00271 27.70574 4.00271
4.00262 27.79490 4.00262
4.00254 27.88406 4.00254
4.00246 27.97321 4.00246
4.00239 28.06237 4.00239
4.00231 28.15153 4.00231
4.00224 28.24069 4.00224
4.00217 28.32985 4.00217
4.00210 28.41901 4.00210
4.00204 28.50817 4.00204
4.00197 28.59733 4.00197
4.00191 28.68650 4.00191
4.00185 28.77566 4.00185
4.00180 28.86483 4.00179
4.00174 28.95400 4.00174
4.00168 29.04317 4.00169
4.00163 29.13235 4.00163
4.00158 29.22152 4.00158
4.00153 29.31070 4.00153
4.00148 29.39988 4.00148
4.00144 29.48907 4.00144
4.00139 29.57826 4.00139
4.00135 29.66745 4.00135
4.00131 29.75664 4.00131
4.00127 29.84583 4.00127
4.00123 29.93503 4.00123
4.00119 30.02424 4.00119
4.00115 30.11344 4.00115
4.00112 30.20265 4.00112
4.00108 30.29186 4.00108
4.00105 30.38108 4.00105
4.00101 30.47029 4.00101
4.00098 30.55952 4.00098
4.00095 30.64874 4.00095
4.00092 30.73797 4.00092
4.00089 30.82721 4.00089
4.00087 30.91644 4.00087
4.00084 31.00568 4.00084
4.00081 31.09493 4.00081
4.00079 31.18418 4.00079
4.00076 31.27343 4.00076
4.00074 31.36269 4.00074
4.00072 31.45195 4.00071
4.00069 31.54121 4.00069
4.00067 31.63049 4.00067
4.00065 31.71976 4.00065
4.00063 31.80903 4.00063
4.00061 31.89832 4.00061
4.00059 31.98760 4.00059
4.00057 32.07689 4.00057
4.00055 32.16618 4.00055
4.00054 32.25549 4.00054
4.00052 32.34479 4.00052
4.00051 32.43409 4.00050
4.00049 32.52340 4.00049
4.00047 32.61272 4.00047
4.00046 32.70204 4.00046
4.00044 32.79136 4.00044
4.00043 32.88070 4.00043
4.00042 32.97003 4.00042
4.00040 33.05936 4.00040
4.00039 33.14871 4.00039

Angle 0.422852 4.427852

4.00000 7.03347 4.00000
4.00000 7.03349 4.00000
4.00000 7.03348 4.00000
4.00000 7.03348 4.00000
4.00000 7.03348 4.00000
4.00000 7.03349 4.00000
4.00000 7.03348 4.00000
4.00000 7.03348 4.00000
4.00000 7.03348 4.00000
4.00000 7.03348 4.00000
4.00000 7.03348 4.00000
4.00000 7.03348 4.00000
4.00000 7.03348 4.00000
4.00000 7.03349 4.00000
4.00000 7.03348 4.00000
4.00000 7.03348 4.00000
4.00000 7.03349 4.00000
4.00000 7.03348 4.00000
4.00000 7.03348 4.00000
4.00000 7.03348 4.00000
4.00000 7.03348 4.00000
4.00000 7.03348 4.00000
4.00000 7.03348 4.00000
4.00000 7.03348 4.00000
4.00000 7.03347 4.00000
4.00000 7.03347 4.00000
4.00000 7.03348 4.00000
4.00000 7.03347 4.00000
4.00000 7.03347 4.00000
4.00000 7.03345 4.00000
4.00000 7.03346 4.00000
4.00000 7.03348 4.00000
4.00000 7.03348 4.00000
4.00000 7.03348 4.00000
4.00000 7.03347 4.00000
4.00000 7.03348 4.00000
4.00000 7.03348 4.00000
4.00000 7.03348 4.00000
4.00000 7.03348 4.00000
4.00000 7.03348 4.00000
4.00000 7.03349 4.00000
4.00000 7.03349 4.00000
4.00000 7.03349 4.00000
4.00000 7.03349 4.00000
4.00000 7.03349 4.00000
4.00000 7.03348 4.00000
4.00000 7.03348 4.00000
4.00000 7.03348 4.00000
4.00000 7.03348 4.00000
4.00000 7.03348 4.00000
4.00000 7.03348 4.00000
4.00000 7.03348 4.00000
4.00000 7.03348 4.00000
4.00000 7.03348 4.00000
4.00000 7.03348 4.00000
4.00000 7.03348 4.00000
4.00000 7.03348 4.00000
4.00000 7.03348 4.00000
4.00000 7.03348 4.00000
4.00000 7.03348 4.00000
4.00000 7.03348 4.00000
4.00000 7.03348 4.00000
4.00000 7.03348 4.00000
4.00000 7.03348 4.00000
4.00000 7.03348 4.00000
4.00000 7.03348 4.00000
4.00000 7.03347 4.00000
4.00000 7.03346 4.00000
4.00000 7.03348 4.00000
4.00000 7.03351 4.00000
4.00050 7.04318 4.00050
4.00191 7.07101 4.00191
4.00333 7.09936 4.00333
4.00476 7.12821 4.00476
4.00619 7.15757 4.00619
4.00763 7.18742 4.00763
4.00908 7.21776 4.00908
4.01053 7.24860 4.01053
4.01199 7.27992 4.01199
4.01346 7.31172 4.01346
4.01493 7.34399 4.01493
4.01641 7.37674 4.01641
4.01791 7.40994 4.01791
4.01941 7.44361 4.01941
4.02092 7.47772 4.02092
4.02244 7.51229 4.02244
4.02397 7.54729 4.02397
4.02552 7.58272 4.02552
4.02708 7.61857 4.02708
4.02866 7.65485 4.02866
4.03025 7.69153 4.03025
4.03186 7.72861 4.03186
4.03348 7.76608 4.03348
4.03513 7.80393 4.03513
4.03680 7.84215 4.03680
4.03850 7.88073 4.03850
4.04022 7.91966 4.04022
4.04197 7.95893 4.04197
4.04376 7.99853 4.04376
4.04558 8.03843 4.04558
4.04744 8.07864 4.04744
4.04934 8.11912 4.04934
4.05129 8.15987 4.05129
4.05329 8.20087 4.05329
4.05535 8.24209 4.05535
4.05747 8.28351 4.05747
4.05965 8.32512 4.05966
4.06192 8.36688 4.06192
4.06427 8.40877 4.06427
4.06671 8.45075 4.06671
4.06926 8.49280 4.06926
4.07192 8.53485 4.07192
4.07471 8.57689 4.07471
4.07765 8.61885 4.07765
4.08075 8.66068 4.08075
4.08401 8.70237 4.08401
4.08741 8.74400 4.08741
4.09096 8.78556 4.09096
4.09466 8.82704 4.09466
4.09851 8.86842 4.09850
4.10251 8.90970 4.10251
4.10667 8.95086 4.10667
4.11099 8.99191 4.11099
4.11547 9.03284 4.11547
4.12011 9.07367 4.12011
4.12490 9.11438 4.12490
4.12985 9.15501 4.12985
4.13495 9.19557 4.13495
4.14019 9.23608 4.14019
4.14555 9.27657 4.14555
4.15103 9.31710 4.15103
4.15661 9.35770 4.15661
4.16227 9.39846 4.16227
4.16797 9.43943 4.16797
4.17369 9.48071 4.17369
4.17939 9.52242 4.17939
4.18502 9.56469 4.18502
4.19053 9.60766 4.19053
4.19585 9.65153 4.19585
4.20090 9.69649 4.20090
4.20560 9.74282 4.20560
4.20983 9.79079 4.20983
4.21347 9.84074 4.21347
4.21640 9.89305 4.21640
4.21845 9.94811 4.21845
4.21950 10.00633 4.21950
4.21939 10.06808 4.21939
4.21833 10.13284 4.21833
4.21691 10.19884 4.21691
4.21518 10.26601 4.21518
4.21313 10.33435 4.21313
4.21075 10.40389 4.21075
4.20803 10.47468 4.20803
4.20494 10.54679 4.20494
4.20143 10.62034 4.20143
4.19747 10.69549 4.19747
4.19299 10.77243 4.19299
4.18788 10.85145 4.18788
4.18203 10.93295 4.18203
4.17523 11.01752 4.17523
4.16721 11.10608 4.16721
4.15748 11.20010 4.15748
4.14514 11.30243 4.14514
4.12810 11.41972 4.12810
4.09887 11.57605 4.09887
4.00000 13.19120 4.00000
4.00000 13.19120 4.00000
4.00000 13.19120 4.00000
4.00000 13.19120 4.00000
4.00000 13.19120 4.00000
4.00000 13.19120 4.00000
4.00000 13.19120 4.00000
4.00000 13.19120 4.00000
4.00000 13.19120 4.00000
4.00000 13.19120 4.00000
4.00000 13.19120 4.00000
4.00000 13.19120 4.00000
4.00000 13.19120 4.00000
4.00000 13.19120 4.00000
4.00000 13.19120 4.00000
4.00000 13.19120 4.00000
4.00000 13.19120 4.00000
4.00000 13.19120 4.00000
4.00001 13.19123 4.00001
4.00970 13.22277 4.00970
4.01943 13.25958 4.01943
4.02833 13.29957 4.02833
4.03632 13.34299 4.03632
4.04330 13.39007 4.04330
4.04919 13.44105 4.04919
4.05390 13.49614 4.05390
4.05734 13.55558 4.05734
4.05950 13.61940 4.05950
4.06128 13.68461 4.06128
4.06302 13.75010 4.06302
4.06472 13.81588 4.06472
4.06639 13.88193 4.06639
4.06802 13.94823 4.06802
4.06964 14.01478 4.06964
4.07122 14.08156 4.07122
4.07278 14.14857 4.07278
4.07433 14.21579 4.07433
4.07585 14.28323 4.07585
4.07735 14.35087 4.07735
4.07884 14.41871 4.07884
4.08031 14.48674 4.08031
4.08177 14.55496 4.08177
4.08322 14.62337 4.08322
4.08465 14.69195 4.08465
4.08607 14.76070 4.08607
4.08748 14.82963 4.08748
4.08888 14.89872 4.08888
4.09027 14.96797 4.09027
4.09166 15.03739 4.09166
4.09302 15.10699 4.09302
4.09423 15.17722 4.09423
4.09525 15.24817 4.09525
4.09608 15.31982 4.09608
4.09674 15.39215 4.09674
4.09724 15.46513 4.09724
4.09757 15.53873 4.09757
4.09775 15.61292 4.09775
4.09779 15.68767 4.09779
4.09770 15.76297 4.09770
4.09747 15.83879 4.09747
4.09713 15.91509 4.09713
4.09668 15.99186 4.09668
4.09612 16.06907 4.09612
4.09546 16.14669 4.09546
4.09472 16.22471 4.09472
4.09389 16.30310 4.09389
4.09299 16.38184 4.09299
4.09202 16.46090 4.09202
4.09098 16.54027 4.09098
4.08989 16.61993 4.08989
4.08874 16.69986 4.08874
4.08755 16.78004 4.08755
4.08632 16.86045 4.08632
4.08505 16.94108 4.08505
4.08375 17.02192 4.08375
4.08242 17.10294 4.08242
4.08107 17.18414 4.08107
4.07971 17.26550 4.07971
4.07832 17.34702 4.07832
4.07692 17.42867 4.07692
4.07552 17.51044 4.07552
4.07411 17.59234 4.07411
4.07269 17.67434 4.07269
4.07128 17.75643 4.07128
4.06986 17.83863 4.06986
4.06845 17.92089 4.06845
4.06705 18.00324 4.06705
4.06565 18.08566 4.06565
4.06426 18.16813 4.06426
4.06288 18.25066 4.06288
4.06152 18.33325 4.06152
4.06017 18.41588 4.06017
4.05883 18.49855 4.05883
4.05751 18.58125 4.05751
4.05620 18.66399 4.05620
4.05491 18.74676 4.05491
4.05364 18.82956 4.05364
4.05238 18.91238 4.05238
4.05115 18.99522 4.05115
4.04993 19.07808 4.04993
4.04874 19.16095 4.04874
4.04756 19.24384 4.04756
4.04641 19.32674 4.04641
4.04527 19.40966 4.04528
4.04416 19.49258 4.04416
4.04307 19.57551 4.04307
4.04200 19.65845 4.04200
4.04094 19.74139 4.04094
4.03991 19.82434 4.03991
4.03890 19.90729 4.03890
4.03791 19.99026 4.03791
4.03695 20.07322 4.03695
4.03600 20.15618 4.03600
4.03507 20.23915 4.03507
4.03416 20.32212 4.03416
4.03327 20.40510 4.03327
4.03241 20.48808 4.03241
4.03156 20.57106 4.03156
4.03073 20.65405 4.03073
4.02992 20.73703 4.02992
4.02913 20.82003 4.02913
4.02835 20.90302 4.02835
4.02760 20.98602 4.02760
4.02686 21.06902 4.02686
4.02614 21.15203 4.02614
4.02544 21.23504 4.02544
4.02475 21.31806 4.02475
4.02408 21.40108 4.02408
4.02343 21.48411 4.02343
4.02280 21.56715 4.02280
4.02218 21.65019 4.02218
4.02157 21.73324 4.02157
4.02098 21.81630 4.02098
4.02041 21.89936 4.02041
4.01985 21.98243 4.01985
4.01930 22.06552 4.01930
4.01877 22.14861 4.01877
4.01825 22.23172 4.01825
4.01775 22.31483 4.01775
4.01725 22.39796 4.01725
4.01677 22.48109 4.01678
4.01631 22.56424 4.01631
4.01585 22.64740 4.01585
4.01541 22.73058 4.01541
4.01498 22.81376 4.01498
4.01456 22.89697 4.01456
4.01415 22.98018 4.01415
4.01375 23.06340 4.01375
4.01337 23.14666 4.01336
4.01299 23.22991 4.01299
4.01262 23.31318 4.01262
4.01227 23.39647 4.01227
4.01192 23.47978 4.01192
4.01158 23.56311 4.01158
4.01126 23.64645 4.01125
4.01094 23.72981 4.01094
4.01062 23.81319 4.01062
4.01032 23.89658 4.01032
4.01003 23.98000 4.01003
4.00974 24.06343 4.00974
4.00947 24.14688 4.00947
4.00919 24.23036 4.00919
4.00893 24.31385 4.00893
4.00867 24.39736 4.00867
4.00843 24.48090 4.00842
4.00818 24.56445 4.00819
4.00795 24.64802 4.00795
4.00772 24.73162 4.00772
4.00750 24.81524 4.00750
4.00728 24.89888 4.00728
4.00707 24.98254 4.00707
4.00687 25.06622 4.00687
4.00667 25.14992 4.00667
4.00648 25.23365 4.00648
4.00629 25.31740 4.00629
4.00611 25.40117 4.00611
4.00593 25.48497 4.00593
4.00576 25.56879 4.00576
4.00559 25.65263 4.00559
4.00543 25.73649 4.00543
4.00527 25.82038 4.00527
4.00512 25.90429 4.00512
4.00497 25.98823 4.00497
4.00482 26.07219 4.00483
4.00468 26.15617 4.00468
4.00455 26.24018 4.00455
4.00441 26.32421 4.00441
4.00429 26.40827 4.00429
4.00416 26.49235 4.00416
4.00404 26.57645 4.00404
4.00392 26.66058 4.00392
4.00381 26.74472 4.00381
4.00369 26.82890 4.00369
4.00359 26.91310 4.00359
4.00348 26.99732 4.00348
4.00338 27.08157 4.00338
4.00328 27.16585 4.00328
4.00318 27.25015 4.00318
4.00309 27.33447 4.00309
4.00300 27.41882 4.00300
4.00291 27.50319 4.00291
4.00283 27.58759 4.00283
4.00274 27.67201 4.00274
4.00266 27.75645 4.00266
4.00258 27.84093 4.00258
4.00251 27.92542 4.00251
4.00243 28.00994 4.00243
4.00236 28.09449 4.00236
4.00229 28.17906 4.00229
4.00222 28.26365 4.00222
4.00216 28.34827 4.00216
4.00209 28.43291 4.00209
4.00203 28.51757 4.00203
4.00197 28.60227 4.00197
4.00191 28.68698 4.00191
4.00186 28.77172 4.00186
4.00180 28.85648 4.00180
4.00175 28.94127 4.00175
4.00169 29.02608 4.00170
4.00165 29.11092 4.00165
4.00160 29.19577 4.00159
4.00155 29.28066 4.00155
4.00150 29.36557 4.00150
4.00146 29.45049 4.00146
4.00141 29.53546 4.00141
4.00137 29.62043 4.00137
4.00133 29.70543 4.00133
4.00129 29.79046 4.00129
4.00125 29.87551 4.00125
4.00122 29.96058 4.00122
4.00118 30.04567 4.00118
4.00114 30.13079 4.00114
4.00111 30.21594 4.00111
4.00108 30.30110 4.00108
4.00104 30.38629 4.00105

Angle 0.559122 2.439231

4.00000 7.03348 4.00000
4.00000 7.03348 4.00000
4.00000 7.03348 4.00000
4.00000 7.03348 4.00000
4.00000 7.03348 4.00000
4.00000 7.03348 4.00000
4.00000 7.03348 4.00000
4.00000 7.03348 4.00000
4.00000 7.03348 4.00000
4.00000 7.03348 4.00000
4.00000 7.03348 4.00000
4.00000 7.03348 4.00000
4.00000 7.03348 4.00000
4.00000 7.03348 4.00000
4.00000 7.03348 4.00000
4.00000 7.03348 4.00000
4.00000 7.03348 4.00000
4.00000 7.03348 4.00000
4.00000 7.03348 4.00000
4.00000 7.03348 4.00000
4.00000 7.03348 4.00000
4.00000 7.03348 4.00000
4.00000 7.03348 4.00000
4.00000 7.03348 4.00000
4.00000 7.03348 4.00000
4.00000 7.03348 4.00000
4.00000 7.03348 4.00000
4.00000 7.03348 4.00000
4.00000 7.03348 4.00000
4.00000 7.03348 4.00000
4.00000 7.03348 4.00000
4.00000 7.03348 4.00000
4.00000 7.03348 4.00000
4.00000 7.03348 4.00000
4.00000 7.03348 4.00000
4.00000 7.03348 4.00000
4.00000 7.03348 4.00000
4.00000 7.03348 4.00000
4.00000 7.03348 4.00000
4.00000 7.03348 4.00000
4.00000 7.03348 4.00000
4.00000 7.03348 4.00000
4.00000 7.03348 4.00000
4.00000 7.03348 4.00000
4.00000 7.03348 4.00000
4.00000 7.03348 4.00000
4.00000 7.03348 4.00000
4.00000 7.03348 4.00000
4.00000 7.03348 4.00000
4.00000 7.03348 4.00000
4.00000 7.03348 4.00000
4.00000 7.03349 4.00000
4.00000 7.03348 4.00000
4.00000 7.03348 4.00000
4.00000 7.03348 4.00000
4.00000 7.03348 4.00000
4.00000 7.03348 4.00000
4.00000 7.03348 4.00000
4.00000 7.03348 4.00000
4.00000 7.03348 4.00000
4.00000 7.03348 4.00000
4.00000 7.03348 4.00000
4.00000 7.03348 4.00000
4.00000 7.03348 4.00000
4.00000 7.03348 4.00000
4.00000 7.03348 4.00000
4.00000 7.03348 4.00000
4.00000 7.03348 4.00000
4.00000 7.03348 4.00000
4.00000 7.03348 4.00000
4.00000 7.03348 4.00000
4.00000 7.03348 4.00000
4.00000 7.03348 4.00000
4.00000 7.03348 4.00000
4.00000 7.03348 4.00000
4.00000 7.03348 4.00000
4.00000 7.03348 4.00000
4.00000 7.03348 4.00000
4.00000 7.03348 4.00000
4.00000 7.03348 4.00000
4.00000 7.03348 4.00000
4.00000 7.03348 4.00000
4.00000 7.03349 4.00000
4.00000 7.03348 4.00000
4.00000 7.03348 4.00000
4.00000 7.03348 4.00000
4.00000 7.03348 4.00000
4.00000 7.03348 4.00000
4.00000 7.03348 4.00000
4.00000 7.03348 4.00000
4.00000 7.03349 4.00000
4.00000 7.03348 4.00000
4.00000 7.03348 4.00000
4.00000 7.03348 4.00000
4.00000 7.03348 4.00000
4.00000 7.03348 4.00000
4.00000 7.03348 4.00000
4.00000 7.03348 4.00000
4.00000 7.03348 4.00000
4.00000 7.03348 4.00000
4.00000 7.03348 4.00000
4.00000 7.03348 4.00000
4.00000 7.03348 4.00000
4.00000 7.03352 4.00000
4.00000 7.03345 3.99999
4.00120 7.05703 4.00120
4.00337 7.10007 4.00337
4.00551 7.14362 4.00551
4.00764 7.18764 4.00764
4.00975 7.23214 4.00975
4.01186 7.27708 4.01186
4.01395 7.32248 4.01395
4.01603 7.36830 4.01603
4.01811 7.41455 4.01811
4.02019 7.46120 4.02019
4.02226 7.50824 4.02226
4.02434 7.55567 4.02434
4.02642 7.60346 4.02642
4.02852 7.65160 4.02851
4.03062 7.70009 4.03062
4.03274 7.74889 4.03274
4.03487 7.79799 4.03487
4.03703 7.84738 4.03703
4.03922 7.89704 4.03922
4.04144 7.94696 4.04144
4.04369 7.99709 4.04370
4.04599 8.04744 4.04599
4.04834 8.09797 4.04834
4.05075 8.14865 4.05075
4.05322 8.19946 4.05322
4.05577 8.25036 4.05577
4.05840 8.30133 4.05840
4.06112 8.35231 4.06112
4.06396 8.40327 4.06396
4.06691 8.45416 4.06691
4.07001 8.50492 4.07001
4.07327 8.55548 4.07327
4.07672 8.60578 4.07672
4.08037 8.65573 4.08037
4.08425 8.70531 4.08425
4.08830 8.75462 4.08831
4.09255 8.80366 4.09255
4.09700 8.85242 4.09700
4.10164 8.90088 4.10164
4.10648 8.94904 4.10648
4.11153 8.99691 4.11153
4.11677 9.04447 4.11677
4.12222 9.09176 4.12222
4.12786 9.13879 4.12786
4.13368 9.18558 4.13368
4.13968 9.23218 4.13968
4.14583 9.27865 4.14583
4.15212 9.32504 4.15212
4.15851 9.37145 4.15851
4.16498 9.41797 4.16498
4.17148 9.46473 4.17148
4.17796 9.51187 4.17796
4.18435 9.55958 4.18435
4.19058 9.60807 4.19058
4.19656 9.65761 4.19656
4.20217 9.70848 4.20217
4.20729 9.76106 4.20729
4.21175 9.81577 4.21175
4.21539 9.87310 4.21539
4.21801 9.93356 4.21801
4.21941 9.99773 4.21941
4.21942 10.06611 4.21942
4.21823 10.13808 4.21823
4.21661 10.21149 4.21661
4.21461 10.28620 4.21461
4.21221 10.36224 4.21221
4.20942 10.43965 4.20942
4.20619 10.51851 4.20619
4.20249 10.59895 4.20249
4.19826 10.68114 4.19826
4.19342 10.76533 4.19342
4.18785 10.85189 4.18785
4.18139 10.94131 4.18139
4.17378 11.03439 4.17378
4.16462 11.13239 4.16462
4.15320 11.23756 4.15320
4.13799 11.35470 4.13799
4.11454 11.49801 4.11454
4.00000 13.19120 4.00000
4.00000 13.19120 4.00000
4.00000 13.19120 4.00000
4.00000 13.19120 4.00000
4.00000 13.19120 4.00000
4.00000 13.19120 4.00000
4.00000 13.19120 4.00000
4.00000 13.19120 4.00000
4.00000 13.19120 4.00000
4.00000 13.19120 4.00000
4.00000 13.19120 4.00000
4.00000 13.19120 4.00000
4.00000 13.19120 4.00000
4.00000 13.19120 4.00000
4.00000 13.19120 4.00000
4.00000 13.19120 4.00000
4.00000 13.19121 4.00000
4.00000 13.19121 4.00000
4.00998 13.22375 4.00998
4.02032 13.26326 4.02031
4.02969 13.30640 4.02969
4.03801 13.35344 4.03801
4.04516 13.40467 4.04515
4.05103 13.46035 4.05103
4.05552 13.52074 4.05552
4.05854 13.58612 4.05854
4.06048 13.65514 4.06048
4.06234 13.72455 4.06234
4.06416 13.79423 4.06416
4.06594 13.86418 4.06594
4.06768 13.93437 4.06769
4.06940 14.00479 4.06940
4.07108 14.07543 4.07108
4.07273 14.14628 4.07273
4.07436 14.21733 4.07436
4.07597 14.28858 4.07597
4.07755 14.36001 4.07755
4.07912 14.43162 4.07912
4.08067 14.50341 4.08067
4.08220 14.57535 4.08220
4.08372 14.64746 4.08372
4.08523 14.71973 4.08522
4.08672 14.79215 4.08672
4.08819 14.86472 4.08819
4.08966 14.93743 4.08966
4.09112 15.01029 4.09112
4.09257 15.08328 4.09256
4.09390 15.15674 4.09390
4.09502 15.23097 4.09502
4.09594 15.30594 4.09594
4.09666 15.38162 4.09666
4.09720 15.45798 4.09720
4.09756 15.53499 4.09756
4.09775 15.61262 4.09775
4.09779 15.69084 4.09779
4.09768 15.76961 4.09768
4.09744 15.84891 4.09744
4.09706 15.92871 4.09706
4.09656 16.00897 4.09656
4.09595 16.08968 4.09595
4.09524 16.17079 4.09524
4.09444 16.25230 4.09444
4.09354 16.33417 4.09354
4.09257 16.41637 4.09257
4.09153 16.49889 4.09153
4.09041 16.58171 4.09042
4.08925 16.66479 4.08925
4.08803 16.74812 4.08803
4.08676 16.83169 4.08676
4.08546 16.91546 4.08546
4.08412 16.99943 4.08412
4.08274 17.08358 4.08274
4.08135 17.16790 4.08135
4.07993 17.25236 4.07993
4.07849 17.33696 4.07849
4.07704 17.42168 4.07704
4.07559 17.50651 4.07559
4.07412 17.59144 4.07412
4.07266 17.67646 4.07266
4.07119 17.76156 4.07119
4.06972 17.84672 4.06972
4.06826 17.93195 4.06826
4.06681 18.01723 4.06681
4.06536 18.10256 4.06536
4.06393 18.18793 4.06393
4.06251 18.27334 4.06250
4.06110 18.35877 4.06110
4.05971 18.44422 4.05971
4.05833 18.52970 4.05833
4.05697 18.61518 4.05697
4.05562 18.70069 4.05562
4.05430 18.78619 4.05430
4.05300 18.87170 4.05300
4.05171 18.95721 4.05171
4.05045 19.04272 4.05045
4.04921 19.12823 4.04921
4.04799 19.21373 4.04799
4.04679 19.29922 4.04679
4.04561 19.38470 4.04561
4.04446 19.47018 4.04446
4.04333 19.55564 4.04333
4.04222 19.64109 4.04222
4.04113 19.72653 4.04113
4.04007 19.81195 4.04007
4.03902 19.89736 4.03902
4.03800 19.98276 4.03800
4.03700 20.06814 4.03700
4.03603 20.15350 4.03603
4.03507 20.23885 4.03507
4.03414 20.32419 4.03414
4.03323 20.40951 4.03323
4.03234 20.49481 4.03234
4.03147 20.58010 4.03147
4.03062 20.66538 4.03062
4.02979 20.75064 4.02979
4.02897 20.83589 4.02898
4.02818 20.92113 4.02819
4.02741 21.00635 4.02742
4.02666 21.09156 4.02666
4.02593 21.17676 4.02593
4.02521 21.26194 4.02522
4.02452 21.34712 4.02452
4.02384 21.43229 4.02384
4.02317 21.51745 4.02317
4.02253 21.60260 4.02253
4.02190 21.68774 4.02190
4.02129 21.77288 4.02129
4.02069 21.85801 4.02069
4.02011 21.94313 4.02011
4.01954 22.02824 4.01954
4.01899 22.11336 4.01899
4.01846 22.19846 4.01845
4.01793 22.28356 4.01794
4.01742 22.36867 4.01743
4.01693 22.45377 4.01693
4.01645 22.53887 4.01645
4.01598 22.62397 4.01598
4.01552 22.70907 4.01552
4.01508 22.79416 4.01508
4.01465 22.87926 4.01465
4.01423 22.96436 4.01423
4.01382 23.04947 4.01382
4.01342 23.13457 4.01342
4.01304 23.21968 4.01304
4.01266 23.30479 4.01266
4.01230 23.38991 4.01229
4.01194 23.47503 4.01194
4.01160 23.56016 4.01160
4.01126 23.64530 4.01126
4.01093 23.73044 4.01093
4.01062 23.81558 4.01062
4.01031 23.90074 4.01031
4.01001 23.98590 4.01001
4.00971 24.07107 4.00972
4.00943 24.15625 4.00943
4.00916 24.24144 4.00916
4.00889 24.32664 4.00889
4.00863 24.41184 4.00863
4.00838 24.49706 4.00838
4.00813 24.58229 4.00813
4.00790 24.66753 4.00790
4.00766 24.75278 4.00766
4.00744 24.83805 4.00743
4.00722 24.92332 4.00722
4.00701 25.00861 4.00701
4.00681 25.09391 4.00680
4.00661 25.17922 4.00660
4.00641 25.26455 4.00641
4.00622 25.34989 4.00622
4.00603 25.43524 4.00604
4.00586 25.52061 4.00586
4.00568 25.60600 4.00568
4.00552 25.69139 4.00552
4.00535 25.77681 4.00535
4.00519 25.86223 4.00519
4.00504 25.94767 4.00504
4.00489 26.03313 4.00489
4.00475 26.11860 4.00474
4.00461 26.20409 4.00461
4.00447 26.28960 4.00447
4.00434 26.37511 4.00434
4.00421 26.46065 4.00421
4.00408 26.54620 4.00408
4.00396 26.63177 4.00396
4.00384 26.71736 4.00384
4.00373 26.80296 4.00373
4.00362 26.88858 4.00362
4.00351 26.97421 4.00351
4.00340 27.05987 4.00341
4.00330 27.14554 4.00330
4.00320 27.23122 4.00320
4.00311 27.31693 4.00311
4.00302 27.40265 4.00302
4.00293 27.48839 4.00293
4.00284 27.57414 4.00284
4.00275 27.65992 4.00275
4.00267 27.74571 4.00267
4.00259 27.83152 4.00259
4.00251 27.91734 4.00251
4.00244 28.00319 4.00244
4.00236 28.08905 4.00236
4.00229 28.17493 4.00229
4.00223 28.26083 4.00222
4.00216 28.34674 4.00216
4.00209 28.43268 4.00209
4.00203 28.51863 4.00203
4.00197 28.60460 4.00197
4.00191 28.69059 4.00191
4.00185 28.77659 4.00185
4.00180 28.86261 4.00180
4.00174 28.94865 4.00174
4.00169 29.03471 4.00169
4.00164 29.12079 4.00164
4.00159 29.20688 4.00159
4.00154 29.29300 4.00154
4.00150 29.37913 4.00150
4.00145 29.46527 4.00145

Angle 0.393180 4.030670

4.00000 7.03349 4.00000
4.00000 7.03348 4.00000
4.00000 7.03348 4.00000
4.00000 7.03348 4.00000
4.00000 7.03348 4.00000
4.00000 7.03348 4.00000
4.00000 7.03348 4.00000
4.00000 7.03348 4.00000
4.00000 7.03348 4.00000
4.00000 7.03348 4.00000
4.00000 7.03348 4.00000
4.00000 7.03348 4.00000
4.00000 7.03349 4.00000
4.00000 7.03348 4.00000
4.00000 7.03348 4.00000
4.00000 7.03348 4.00000
4.00000 7.03348 4.00000
4.00000 7.03348 4.00000
4.00000 7.03348 4.00000
4.00000 7.03347 4.00000
4.00000 7.03348 4.00000
4.00000 7.03348 4.00000
4.00000 7.03348 4.00000
4.00000 7.03348 4.00000
4.00000 7.03348 4.00000
4.00000 7.03348 4.00000
4.00000 7.03348 4.00000
4.00000 7.03348 4.00000
4.00000 7.03348 4.00000
4.00000 7.03348 4.00000
4.00000 7.03348 4.00000
4.00000 7.03348 4.00000
4.00000 7.03348 4.00000
4.00000 7.03348 4.00000
4.00000 7.03348 4.00000
4.00000 7.03348 4.00000
4.00000 7.03348 4.00000
4.00000 7.03348 4.00000
4.00000 7.03348 4.00000
4.00000 7.03348 4.00000
4.00000 7.03348 4.00000
4.00000 7.03348 4.00000
4.00000 7.03347 4.00000
4.00000 7.03347 4.00000
4.00000 7.03348 4.00000
4.00000 7.03348 4.00000
4.00000 7.03348 4.00000
4.00000 7.03348 4.00000
4.00000 7.03348 4.00000
4.00000 7.03348 4.00000
4.00000 7.03348 4.00000
4.00000 7.03348 4.00000
4.00000 7.03348 4.00000
4.00000 7.03348 4.00000
4.00000 7.03348 4.00000
4.00000 7.03348 4.00000
4.00000 7.03348 4.00000
4.00000 7.03348 4.00000
4.00000 7.03348 4.00000
4.00000 7.03348 4.00000
4.00000 7.03348 4.00000
4.00000 7.03348 4.00000
4.00000 7.03348 4.00000
4.00000 7.03348 4.00000
4.00000 7.03348 4.00000
4.00000 7.03348 4.00000
4.00000 7.03348 4.00000
4.00000 7.03348 4.00000
4.00000 7.03348 4.00000
4.00000 7.03348 4.00000
4.00000 7.03348 4.00000
4.00000 7.03348 4.00000
4.00000 7.03348 4.00000
4.00000 7.03348 4.00000
4.00000 7.03348 4.00000
4.00000 7.03348 4.00000
4.00000 7.03348 4.00000
4.00000 7.03348 4.00000
4.00000 7.03348 4.00000
4.00000 7.03348 4.00000
4.00000 7.03347 4.00000
4.00000 7.03348 4.00000
4.00000 7.03348 4.00000
4.00000 7.03348 4.00000
4.00000 7.03348 4.00000
4.00000 7.03348 4.00000
4.00000 7.03348 4.00000
4.00000 7.03348 4.00000
4.00000 7.03348 4.00000
4.00000 7.03348 4.00000
4.00000 7.03348 4.00000
4.00000 7.03348 4.00000
4.00000 7.03348 4.00000
4.00000 7.03348 4.00000
4.00000 7.03348 4.00000
4.00000 7.03348 4.00000
4.00000 7.03348 4.00000
4.00000 7.03348 4.00000
4.00000 7.03348 4.00000
4.00000 7.03348 4.00000
4.00000 7.03348 4.00000
4.00000 7.03348 4.00000
4.00000 7.03348 4.00000
4.00000 7.03348 4.00000
4.00000 7.03348 4.00000
4.00000 7.03348 4.00000
4.00000 7.03348 4.00000
4.00000 7.03348 4.00000
4.00000 7.03348 4.00000
4.00000 7.03348 4.00000
4.00000 7.03348 4.00000
4.00000 7.03348 4.00000
4.00000 7.03348 4.00000
4.00000 7.03348 4.00000
4.00000 7.03348 4.00000
4.00000 7.03348 4.00000
4.00000 7.03348 4.00000
4.00000 7.03348 4.00000
4.00000 7.03348 4.00000
4.00000 7.03348 4.00000
4.00000 7.03348 4.00000
4.00000 7.03348 4.00000
4.00000 7.03348 4.00000
4.00000 7.03348 4.00000
4.00000 7.03348 4.00000
4.00000 7.03348 4.00000
4.00000 7.03348 4.00000
4.00000 7.03348 4.00000
4.00000 7.03348 4.00000
4.00000 7.03348 4.00000
4.00000 7.03348 4.00000
4.00000 7.03348 4.00000
4.00000 7.03348 4.00000
4.00000 7.03347 4.00000
4.00000 7.03347 4.00000
4.00000 7.03348 4.00000
4.00000 7.03348 4.00000
4.00000 7.03348 4.00000
4.00000 7.03348 4.00000
4.00000 7.03348 4.00000
4.00000 7.03348 4.00000
4.00000 7.03347 4.00000
4.00000 7.03348 4.00000
4.00000 7.03348 4.00000
4.00000 7.03348 4.00000
4.00000 7.03348 4.00000
4.00000 7.03348 4.00000
4.00000 7.03348 4.00000
4.00000 7.03348 4.00000
4.00000 7.03348 4.00000
4.00000 7.03348 4.00000
4.00000 7.03348 4.00000
4.00000 7.03348 4.00000
4.00000 7.03348 4.00000
4.00000 7.03348 4.00000
4.00000 7.03348 4.00000
4.00000 7.03348 4.00000
4.00000 7.03348 4.00000
4.00000 7.03348 4.00000
4.00000 7.03348 4.00000
4.00000 7.03348 4.00000
4.00000 7.03348 4.00000
4.00000 7.03348 4.00000
4.00000 7.03348 4.00000
4.00000 7.03348 4.00000
4.00000 7.03348 4.00000
4.00000 7.03348 4.00000
4.00000 7.03348 4.00000
4.00000 7.03348 4.00000
4.00000 7.03348 4.00000
4.00000 7.03348 4.00000
4.00000 7.03348 4.00000
4.00000 7.03348 4.00000
4.00000 7.03348 4.00000
4.00000 7.03347 4.00000
4.00000 7.03348 4.00000
4.00000 7.03348 4.00000
4.00000 7.03348 4.00000
4.00000 7.03348 4.00000
4.00000 7.03348 4.00000
4.00235 7.07976 4.00235
4.00589 7.15143 4.00589
4.00935 7.22350 4.00935
4.01273 7.29595 4.01273
4.01605 7.36872 4.01605
4.01933 7.44177 4.01933
4.02256 7.51505 4.02256
4.02577 7.58854 4.02577
4.02897 7.66217 4.02897
4.03217 7.73591 4.03217
4.03538 7.80971 4.03538
4.03862 7.88353 4.03862
4.04190 7.95732 4.04190
4.04524 8.03102 4.04524
4.04865 8.10457 4.04865
4.05217 8.17791 4.05217
4.05580 8.25096 4.05580
4.05958 8.32363 4.05958
4.06353 8.39584 4.06353
4.06771 8.46745 4.06771
4.07215 8.53834 4.07215
4.07690 8.60834 4.07690
4.08203 8.67726 4.08203
4.08751 8.74519 4.08751
4.09332 8.81225 4.09332
4.09946 8.87842 4.09946
4.10593 8.94371 4.10593
4.11274 9.00812 4.11274
4.11988 9.07170 4.11988
4.12733 9.13450 4.12733
4.13508 9.19660 4.13508
4.14309 9.25810 4.14309
4.15131 9.31916 4.15131
4.15969 9.37997 4.15970
4.16815 9.44075 4.16815
4.17659 9.50181 4.17659
4.18487 9.56352 4.18487
4.19283 9.62632 4.19284
4.20029 9.69080 4.20029
4.20697 9.75762 4.20697
4.21259 9.82763 4.21260
4.21679 9.90181 4.21679
4.21919 9.98122 4.21919
4.21940 10.06688 4.21941
4.21783 10.15771 4.21783
4.21561 10.25044 4.21561
4.21279 10.34493 4.21279
4.20935 10.44125 4.20936
4.20526 10.53955 4.20526
4.20043 10.64004 4.20043
4.19475 10.74312 4.19475
4.18802 10.84935 4.18802
4.17997 10.95962 4.17997
4.17010 11.07544 4.17010
4.15754 11.19957 4.15754
4.14031 11.33824 4.14031
4.11179 11.51258 4.11179
4.00000 13.19120 4.00000
4.00000 13.19120 4.00000
4.00000 13.19120 4.00000
4.00000 13.19120 4.00000
4.00000 13.19120 4.00000
4.00000 13.19120 4.00000
4.00000 13.19120 4.00000
4.00000 13.19120 4.00000
4.00000 13.19120 4.00000
4.00000 13.19120 4.00000
4.00000 13.19120 4.00000
4.00000 13.19120 4.00000
4.00000 13.19120 4.00000
4.00000 13.19121 4.00000
4.00000 13.19120 4.00000
4.01195 13.23074 4.01194
4.02378 13.27824 4.02378
4.03423 13.33077 4.03423
4.04313 13.38876 4.04313
4.05032 13.45261 4.05032
4.05564 13.52272 4.05564
4.05894 13.59948 4.05894
4.06115 13.67987 4.06115
4.06329 13.76052 4.06329
4.06537 13.84140 4.06537
4.06739 13.92249 4.06739
4.06937 14.00377 4.06937
4.07131 14.08522 4.07131
4.07321 14.16682 4.07320
4.07507 14.24858 4.07507
4.07690 14.33046 4.07690
4.07870 14.41247 4.07870
4.08048 14.49460 4.08048
4.08223 14.57683 4.08223
4.08397 14.65916 4.08397
4.08568 14.74159 4.08568
4.08737 14.82411 4.08737
4.08904 14.90672 4.08904
4.09070 14.98940 4.09070
4.09235 15.07216 4.09235
4.09387 15.15530 4.09387
4.09513 15.23934 4.09513
4.09613 15.32422 4.09613
4.09688 15.40990 4.09688
4.09740 15.49632 4.09740
4.09770 15.58346 4.09770
4.09780 15.67126 4.09780
4.09770 15.75967 4.09770
4.09744 15.84866 4.09744
4.09701 15.93818 4.09701
4.09643 16.02818 4.09643
4.09571 16.11864 4.09571
4.09487 16.20952 4.09487
4.09392 16.30076 4.09392
4.09286 16.39235 4.09286
4.09172 16.48426 4.09172
4.09049 16.57644 4.09049
4.08919 16.66887 4.08919
4.08783 16.76152 4.08783
4.08641 16.85436 4.08641
4.08495 16.94738 4.08495
4.08345 17.04055 4.08345
4.08191 17.13384 4.08191
4.08035 17.22724 4.08035
4.07877 17.32073 4.07877
4.07717 17.41429 4.07717
4.07556 17.50791 4.07556
4.07395 17.60158 4.07395
4.07233 17.69527 4.07233
4.07072 17.78898 4.07072
4.06911 17.88269 4.06911
4.06750 17.97641 4.06750
4.06591 18.07011 4.06591
4.06433 18.16379 4.06433
4.06277 18.25744 4.06277
4.06123 18.35105 4.06123
4.05970 18.44463 4.05970
4.05819 18.53816 4.05819
4.05671 18.63164 4.05671
4.05525 18.72506 4.05525
4.05381 18.81843 4.05381
4.05239 18.91173 4.05239
4.05101 19.00497 4.05101
4.04964 19.09814 4.04964
4.04831 19.19125 4.04831
4.04700 19.28429 4.04700
4.04572 19.37725 4.04572
4.04446 19.47015 4.04446
4.04323 19.56296 4.04323
4.04203 19.65571 4.04203
4.04086 19.74838 4.04086
4.03971 19.84099 4.03971
4.03859 19.93351 4.03859
4.03749 20.02597 4.03749
4.03643 20.11835 4.03643
4.03539 20.21066 4.03539
4.03437 20.30290 4.03437
4.03338 20.39506 4.03338
4.03242 20.48716 4.03242
4.03148 20.57919 4.03147
4.03056 20.67115 4.03056
4.02967 20.76305 4.02967
4.02880 20.85487 4.02880
4.02795 20.94664 4.02795
4.02713 21.03834 4.02713
4.02633 21.12998 4.02633
4.02555 21.22156 4.02555
4.02479 21.31308 4.02479
4.02406 21.40454 4.02406
4.02334 21.49594 4.02334
4.02264 21.58729 4.02264
4.02197 21.67859 4.02197
4.02131 21.76983 4.02131
4.02067 21.86102 4.02067
4.02005 21.95216 4.02005
4.01945 22.04325 4.01945
4.01886 22.13429 4.01886
4.01829 22.22529 4.01829
4.01774 22.31624 4.01774
4.01720 22.40715 4.01720
4.01668 22.49801 4.01668
4.01617 22.58883 4.01617
4.01568 22.67962 4.01568
4.01520 22.77036 4.01520
4.01474 22.86107 4.01474
4.01429 22.95174 4.01429
4.01385 23.04237 4.01385
4.01343 23.13297 4.01343
4.01302 23.22353 4.01302
4.01262 23.31407 4.01262
4.01223 23.40457 4.01223
4.01186 23.49504 4.01186
4.01149 23.58548 4.01149
4.01114 23.67589 4.01114
4.01080 23.76628 4.01080
4.01047 23.85664 4.01047
4.01014 23.94697 4.01014
4.00983 24.03728 4.00983
4.00953 24.12756 4.00953
4.00923 24.21782 4.00923
4.00895 24.30806 4.00895
4.00867 24.39828 4.00867
4.00840 24.48847 4.00840
4.00814 24.57865 4.00814
4.00789 24.66880 4.00789
4.00765 24.75894 4.00765
4.00741 24.84906 4.00741
4.00718 24.93916 4.00718
4.00696 25.02925 4.00696
4.00674 25.11932 4.00674
4.00653 25.20937 4.00653
4.00633 25.29941 4.00633
4.00613 25.38944 4.00613
4.00594 25.47945 4.00594
4.00576 25.56945 4.00576
4.00558 25.65943 4.00558
4.00540 25.74941 4.00540
4.00524 25.83937 4.00524
4.00507 25.92932 4.00507
4.00492 26.01926 4.00492
4.00476 26.10919 4.00476
4.00461 26.19911 4.00461
4.00447 26.28902 4.00447

Angle 0.185061 4.483511

4.00000 7.03348 4.00000
4.00000 7.03349 4.00000
4.00000 7.03349 4.00000
4.00000 7.03348 4.00000
4.00000 7.03348 4.00000
4.00000 7.03348 4.00000
4.00000 7.03348 4.00000
4.00000 7.03348 4.00000
4.00000 7.03347 4.00000
4.00000 7.03347 4.00000
4.00000 7.03348 4.00000
4.00000 7.03348 4.00000
4.00000 7.03348 4.00000
4.00000 7.03348 4.00000
4.00000 7.03348 4.00000
4.00000 7.03348 4.00000
4.00000 7.03348 4.00000
4.00000 7.03348 4.00000
4.00000 7.03348 4.00000
4.00000 7.03348 4.00000
4.00000 7.03348 4.00000
4.00000 7.03348 4.00000
4.00000 7.03348 4.00000
4.00000 7.03348 4.00000
4.00000 7.03348 4.00000
4.00000 7.03348 4.00000
4.00000 7.03348 4.00000
4.00000 7.03348 4.00000
4.00000 7.03348 4.00000
4.00000 7.03348 4.00000
4.00000 7.03348 4.00000
4.00000 7.03348 4.00000
4.00000 7.03348 4.00000
4.00000 7.03348 4.00000
4.00000 7.03348 4.00000
4.00000 7.03348 4.00000
4.00000 7.03348 4.00000
4.00000 7.03348 4.00000
4.00000 7.03348 4.00000
4.00000 7.03348 4.00000
4.00000 7.03347 4.00000
4.00000 7.03348 4.00000
4.00000 7.03348 4.00000
4.00000 7.03348 4.00000
4.00000 7.03348 4.00000
4.00000 7.03348 4.00000
4.00000 7.03348 4.00000
4.00000 7.03348 4.00000
4.00000 7.03348 4.00000
4.00000 7.03348 4.00000
4.00000 7.03348 4.00000
4.00000 7.03348 4.00000
4.00000 7.03348 4.00000
4.00000 7.03348 4.00000
4.00000 7.03348 4.00000
4.00000 7.03348 4.00000
4.00000 7.03348 4.00000
4.00000 7.03348 4.00000
4.00000 7.03348 4.00000
4.00000 7.03348 4.00000
4.00000 7.03348 4.00000
4.00000 7.03347 4.00000
4.00000 7.03348 4.00000
4.00000 7.03348 4.00000
4.00000 7.03348 4.00000
4.00000 7.03348 4.00000
4.00000 7.03348 4.00000
4.00000 7.03348 4.00000
4.00000 7.03348 4.00000
4.00000 7.03348 4.00000
4.00000 7.03348 4.00000
4.00000 7.03348 4.00000
4.00000 7.03348 4.00000
4.00000 7.03348 4.00000
4.00000 7.03348 4.00000
4.00000 7.03348 4.00000
4.00000 7.03348 4.00000
4.00000 7.03348 4.00000
4.00000 7.03348 4.00000
4.00000 7.03348 4.00000
4.00000 7.03348 4.00000
4.00000 7.03348 4.00000
4.00000 7.03348 4.00000
4.00000 7.03348 4.00000
4.00000 7.03348 4.00000
4.00000 7.03348 4.00000
4.00000 7.03348 4.00000
4.00000 7.03348 4.00000
4.00000 7.03348 4.00000
4.00000 7.03348 4.00000
4.00000 7.03348 4.00000
4.00000 7.03348 4.00000
4.00000 7.03348 4.00000
4.00000 7.03348 4.00000
4.00000 7.03348 4.00000
4.00000 7.03348 4.00000
4.00000 7.03348 4.00000
4.00000 7.03348 4.00000
4.00000 7.03348 4.00000
4.00000 7.03348 4.00000
4.00000 7.03348 4.00000
4.00000 7.03348 4.00000
4.00000 7.03348 4.00000
4.00000 7.03348 4.00000
4.00000 7.03348 4.00000
4.00000 7.03348 4.00000
4.00000 7.03348 4.00000
4.00000 7.03348 4.00000
4.00000 7.03348 4.00000
4.00000 7.03348 4.00000
4.00000 7.03348 4.00000
4.00000 7.03348 4.00000
4.00000 7.03348 4.00000
4.00000 7.03348 4.00000
4.00000 7.03348 4.00000
4.00000 7.03348 4.00000
4.00000 7.03348 4.00000
4.00000 7.03348 4.00000
4.00000 7.03347 4.00000
4.00000 7.03348 4.00000
4.00000 7.03348 4.00000
4.00000 7.03348 4.00000
4.00000 7.03348 4.00000
4.00000 7.03348 4.00000
4.00000 7.03348 4.00000
4.00000 7.03348 4.00000
4.00000 7.03348 4.00000
4.00000 7.03348 4.00000
4.00000 7.03348 4.00000
4.00000 7.03348 4.00000
4.00000 7.03349 4.00000
4.00000 7.03348 4.00000
4.00000 7.03348 4.00000
4.00000 7.03348 4.00000
4.00000 7.03348 4.00000
4.00000 7.03348 4.00000
4.00000 7.03344 4.00000
4.00000 7.03349 4.00000
4.00000 7.03347 4.00000
4.00000 7.03347 4.00000
4.00000 7.03349 4.00000
4.00000 7.03348 4.00000
4.00000 7.03348 4.00000
4.00000 7.03348 4.00000
4.00000 7.03349 4.00000
4.00000 7.03348 4.00000
4.00000 7.03348 4.00000
4.00000 7.03348 4.00000
4.00000 7.03348 4.00000
4.00000 7.03348 4.00000
4.00000 7.03347 4.00000
4.00000 7.03348 4.00000
4.00000 7.03348 4.00000
4.00000 7.03348 4.00000
4.00000 7.03348 4.00000
4.00000 7.03348 4.00000
4.00000 7.03348 4.00000
4.00000 7.03348 4.00000
4.00000 7.03348 4.00000
4.00000 7.03348 4.00000
4.00000 7.03348 4.00000
4.00000 7.03347 4.00000
4.00000 7.03348 4.00000
4.00000 7.03346 4.00000
4.00000 7.03348 4.00000
4.00000 7.03348 4.00000
4.00000 7.03348 4.00000
4.00000 7.03348 4.00000
4.00000 7.03348 4.00000
4.00000 7.03348 4.00000
4.00000 7.03348 4.00000
4.00000 7.03348 4.00000
4.00000 7.03348 4.00000
4.00000 7.03348 4.00000
4.00000 7.03348 4.00000
4.00000 7.03348 4.00000
4.00000 7.03348 4.00000
4.00000 7.03348 4.00000
4.00000 7.03347 4.00000
4.00000 7.03348 4.00000
4.00000 7.03348 4.00000
4.00000 7.03348 4.00000
4.00000 7.03348 4.00000
4.00000 7.03348 4.00000
4.00000 7.03348 4.00000
4.00000 7.03348 4.00000
4.00000 7.03348 4.00000
4.00000 7.03348 4.00000
4.00000 7.03348 4.00000
4.00000 7.03348 4.00000
4.00000 7.03348 4.00000
4.00000 7.03348 4.00000
4.00000 7.03348 4.00000
4.00000 7.03348 4.00000
4.00000 7.03348 4.00000
4.00000 7.03349 4.00000
4.00000 7.03348 4.00000
4.00000 7.03348 4.00000
4.00000 7.03347 4.00000
4.00000 7.03347 4.00000
4.00000 7.03347 4.00000
4.00000 7.03347 4.00000
4.00000 7.03348 4.00000
4.00000 7.03348 4.00000
4.00000 7.03347 4.00000
4.00000 7.03348 4.00000
4.00000 7.03347 4.00000
4.00000 7.03348 4.00000
4.00000 7.03348 4.00000
4.00000 7.03348 4.00000
4.00000 7.03348 4.00000
4.00000 7.03348 4.00000
4.00000 7.03348 4.00000
4.00000 7.03348 4.00000
4.00000 7.03348 4.00000
4.00000 7.03348 4.00000
4.00000 7.03348 4.00000
4.00000 7.03349 4.00000
4.00000 7.03350 4.00000
4.00000 7.03348 4.00000
4.00000 7.03350 4.00000
4.00000 7.03347 4.00000
4.00000 7.03348 4.00000
4.00000 7.03348 4.00000
4.00000 7.03348 4.00000
4.00000 7.03348 4.00000
4.00000 7.03348 4.00000
4.00317 7.09604 4.00317
4.00692 7.17263 4.00692
4.01058 7.24961 4.01058
4.01415 7.32691 4.01415
4.01766 7.40450 4.01766
4.02112 7.48231 4.02112
4.02454 7.56029 4.02454
4.02794 7.63840 4.02794
4.03133 7.71659 4.03133
4.03473 7.79479 4.03473
4.03816 7.87297 4.03816
4.04162 7.95105 4.04162
4.04515 8.02899 4.04515
4.04875 8.10670 4.04876
4.05247 8.18412 4.05247
4.05632 8.26115 4.05632
4.06033 8.33771 4.06033
4.06455 8.41366 4.06455
4.06901 8.48887 4.06901
4.07378 8.56318 4.07378
4.07892 8.63638 4.07892
4.08449 8.70833 4.08449
4.09041 8.77924 4.09041
4.09669 8.84914 4.09669
4.10333 8.91801 4.10333
4.11034 8.98588 4.11034
4.11771 9.05278 4.11771
4.12543 9.11876 4.12543
4.13347 9.18392 4.13347
4.14180 9.24836 4.14180
4.15037 9.31226 4.15037
4.15912 9.37581 4.15912
4.16795 9.43930 4.16795
4.17676 9.50304 4.17676
4.18539 9.56747 4.18538
4.19366 9.63310 4.19366
4.20134 9.70058 4.20134
4.20814 9.77071 4.20814
4.21371 9.84446 4.21371
4.21764 9.92295 4.21764
4.21951 10.00739 4.21950
4.21894 10.09876 4.21894
4.21703 10.19399 4.21703
4.21446 10.29111 4.21446
4.21125 10.39011 4.21125
4.20735 10.49111 4.20735
4.20271 10.59430 4.20271
4.19722 10.70003 4.19722
4.19070 10.80881 4.19070
4.18289 10.92149 4.18289
4.17334 11.03944 4.17334
4.16126 11.16515 4.16126
4.14494 11.30399 4.14494
4.11916 11.47255 4.11916
4.00000 13.19120 4.00000
4.00000 13.19120 4.00000
4.00000 13.19120 4.00000
4.00000 13.19120 4.00000
4.00000 13.19120 4.00000
4.00000 13.19120 4.00000
4.00000 13.19120 4.00000
4.00000 13.19120 4.00000
4.00000 13.19120 4.00000
4.00000 13.19120 4.00000
4.00000 13.19120 4.00000
4.00000 13.19120 4.00000
4.00000 13.19120 4.00000
4.00000 13.19120 4.00000
4.00277 13.19978 4.00277
4.01586 13.24535 4.01586
4.02758 13.29594 4.02758
4.03778 13.35200 4.03778
4.04627 13.41399 4.04627
4.05287 13.48235 4.05287
4.05743 13.55748 4.05743
4.06004 13.63902 4.06004
4.06227 13.72180 4.06227
4.06443 13.80482 4.06443
4.06654 13.88805 4.06654
4.06859 13.97146 4.06859
4.07059 14.05504 4.07060
4.07256 14.13878 4.07256
4.07448 14.22265 4.07448
4.07637 14.30664 4.07637
4.07823 14.39075 4.07823
4.08006 14.47497 4.08006
4.08186 14.55928 4.08186
4.08364 14.64368 4.08364
4.08540 14.72816 4.08540
4.08714 14.81273 4.08714
4.08885 14.89736 4.08885
4.09056 14.98206 4.09055
4.09224 15.06682 4.09224
4.09382 15.15192 4.09382
4.09511 15.23793 4.09511
4.09613 15.32482 4.09613
4.09690 15.41252 4.09690
4.09742 15.50099 4.09742
4.09771 15.59018 4.09771
4.09780 15.68004 4.09780
4.09768 15.77052 4.09768
4.09738 15.86158 4.09738
4.09692 15.95318 4.09692
4.09630 16.04526 4.09630
4.09554 16.13779 4.09554
4.09466 16.23073 4.09466
4.09366 16.32403 4.09366
4.09256 16.41767 4.09256
4.09136 16.51161 4.09136
4.09008 16.60581 4.09008
4.08874 16.70024 4.08874
4.08733 16.79489 4.08733
4.08586 16.88971 4.08586
4.08435 16.98468 4.08435
4.08281 17.07979 4.08281
4.08123 17.17501 4.08123
4.07962 17.27031 4.07962
4.07800 17.36568 4.07800
4.07637 17.46111 4.07637
4.07472 17.55658 4.07472
4.07308 17.65207 4.07308
4.07143 17.74756 4.07143
4.06979 17.84306 4.06979
4.06815 17.93854 4.06815
4.06652 18.03400 4.06652
4.06491 18.12943 4.06491
4.06331 18.22482 4.06331
4.06173 18.32016 4.06173
4.06017 18.41545 4.06017
4.05863 18.51069 4.05863
4.05712 18.60585 4.05712
4.05562 18.70095 4.05562
4.05415 18.79598 4.05415
4.05271 18.89093 4.05271
4.05129 18.98581 4.05129
4.04990 19.08060 4.04990
4.04853 19.17532 4.04853
4.04720 19.26995 4.04720
4.04589 19.36449 4.04589
4.04461 19.45895 4.04461
4.04336 19.55332 4.04336
4.04213 19.64761 4.04213
4.04094 19.74181 4.04094
4.03977 19.83593 4.03977
4.03863 19.92995 4.03863
4.03752 20.02389 4.03752
4.03643 20.11775 4.03643
4.03538 20.21152 4.03538
4.03435 20.30521 4.03435
4.03334 20.39881 4.03334
4.03236 20.49234 4.03236
4.03141 20.58578 4.03141
4.03048 20.67914 4.03049
4.02958 20.77244 4.02957
4.02870 20.86564 4.02870
4.02784 20.95877 4.02784
4.02701 21.05183 4.02701
4.02620 21.14482 4.02620
4.02542 21.23773 4.02542
4.02465 21.33058 4.02465
4.02391 21.42336 4.02391
4.02319 21.51606 4.02319
4.02248 21.60871 4.02248
4.02180 21.70129 4.02180
4.02114 21.79380 4.02114
4.02050 21.88626 4.02050
4.01987 21.97866 4.01987
4.01926 22.07099 4.01926
4.01868 22.16328 4.01868
4.01810 22.25550 4.01810
4.01755 22.34767 4.01755
4.01701 22.43979 4.01701
4.01649 22.53186 4.01649

Angle 0.276173 3.243871

4.00000 7.03348 4.00000
4.00000 7.03347 4.00000
4.00000 7.03348 4.00000
4.00000 7.03348 4.00000
4.00000 7.03348 4.00000
4.00000 7.03348 4.00000
4.00000 7.03348 4.00000
4.00000 7.03349 4.00000
4.00000 7.03348 4.00000
4.00000 7.03348 4.00000
4.00000 7.03348 4.00000
4.00000 7.03348 4.00000
4.00000 7.03348 4.00000
4.00000 7.03348 4.00000
4.00000 7.03348 4.00000
4.00000 7.03349 4.00000
4.00000 7.03348 4.00000
4.00000 7.03348 4.00000
4.00000 7.03348 4.00000
4.00000 7.03348 4.00000
4.00000 7.03348 4.00000
4.00000 7.03348 4.00000
4.00000 7.03348 4.00000
4.00000 7.03348 4.00000
4.00000 7.03348 4.00000
4.00000 7.03348 4.00000
4.00000 7.03348 4.00000
4.00000 7.03348 4.00000
4.00000 7.03348 4.00000
4.00000 7.03348 4.00000
4.00000 7.03348 4.00000
4.00000 7.03348 4.00000
4.00000 7.03348 4.00000
4.00000 7.03348 4.00000
4.00000 7.03348 4.00000
4.00000 7.03348 4.00000
4.00000 7.03348 4.00000
4.00000 7.03348 4.00000
4.00000 7.03348 4.00000
4.00000 7.03348 4.00000
4.00000 7.03348 4.00000
4.00000 7.03348 4.00000
4.00000 7.03348 4.00000
4.00000 7.03348 4.00000
4.00000 7.03348 4.00000
4.00000 7.03347 4.00000
4.00000 7.03348 4.00000
4.00000 7.03348 4.00000
4.00000 7.03348 4.00000
4.00000 7.03348 4.00000
4.00000 7.03348 4.00000
4.00000 7.03348 4.00000
4.00000 7.03348 4.00000
4.00000 7.03348 4.00000
4.00000 7.03348 4.00000
4.00000 7.03348 4.00000
4.00000 7.03348 4.00000
4.00000 7.03348 4.00000
4.00000 7.03348 4.00000
4.00000 7.03348 4.00000
4.00000 7.03348 4.00000
4.00000 7.03348 4.00000
4.00000 7.03348 4.00000
4.00000 7.03348 4.00000
4.00000 7.03348 4.00000
4.00000 7.03348 4.00000
4.00000 7.03348 4.00000
4.00000 7.03348 4.00000
4.00000 7.03348 4.00000
4.00000 7.03348 4.00000
4.00000 7.03348 4.00000
4.00000 7.03348 4.00000
4.00000 7.03348 4.00000
4.00000 7.03348 4.00000
4.00000 7.03348 4.00000
4.00000 7.03348 4.00000
4.00000 7.03348 4.00000
4.00000 7.03348 4.00000
4.00000 7.03348 4.00000
4.00000 7.03348 4.00000
4.00000 7.03348 4.00000
4.00000 7.03348 4.00000
4.00000 7.03348 4.00000
4.00000 7.03348 4.00000
4.00000 7.03348 4.00000
4.00000 7.03348 4.00000
4.00000 7.03348 4.00000
4.00000 7.03348 4.00000
4.00000 7.03348 4.00000
4.00000 7.03348 4.00000
4.00000 7.03348 4.00000
4.00000 7.03348 4.00000
4.00000 7.03348 4.00000
4.00000 7.03348 4.00000
4.00000 7.03348 4.00000
4.00000 7.03348 4.00000
4.00000 7.03348 4.00000
4.00000 7.03348 4.00000
4.00000 7.03348 4.00000
4.00000 7.03348 4.00000
4.00000 7.03348 4.00000
4.00000 7.03348 4.00000
4.00000 7.03348 4.00000
4.00000 7.03348 4.00000
4.00000 7.03348 4.00000
4.00000 7.03348 4.00000
4.00000 7.03348 4.00000
4.00000 7.03348 4.00000
4.00000 7.03348 4.00000
4.00000 7.03348 4.00000
4.00000 7.03348 4.00000
4.00000 7.03348 4.00000
4.00000 7.03348 4.00000
4.00000 7.03348 4.00000
4.00000 7.03349 4.00000
4.00000 7.03349 4.00000
4.00000 7.03348 4.00000
4.00000 7.03348 4.00000
4.00000 7.03347 4.00000
4.00000 7.03347 4.00000
4.00000 7.03347 4.00000
4.00000 7.03348 4.00000
4.00000 7.03348 4.00000
4.00000 7.03347 4.00000
4.00000 7.03348 4.00000
4.00000 7.03347 4.00000
4.00000 7.03347 4.00000
4.00000 7.03348 4.00000
4.00000 7.03347 4.00000
4.00000 7.03347 4.00000
4.00000 7.03348 4.00000
4.00000 7.03348 4.00000
4.00000 7.03348 4.00000
4.00000 7.03348 4.00000
4.00000 7.03347 4.00000
4.00000 7.03348 4.00000
4.00000 7.03348 4.00000
4.00000 7.03348 4.00000
4.00000 7.03348 4.00000
4.00000 7.03348 4.00000
4.00000 7.03348 4.00000
4.00000 7.03348 4.00000
4.00000 7.03348 4.00000
4.00000 7.03348 4.00000
4.00000 7.03348 4.00000
4.00000 7.03348 4.00000
4.00000 7.03348 4.00000
4.00000 7.03348 4.00000
4.00000 7.03348 4.00000
4.00000 7.03348 4.00000
4.00000 7.03348 4.00000
4.00000 7.03348 4.00000
4.00000 7.03348 4.00000
4.00000 7.03348 4.00000
4.00000 7.03348 4.00000
4.00000 7.03348 4.00000
4.00000 7.03348 4.00000
4.00000 7.03348 4.00000
4.00000 7.03348 4.00000
4.00000 7.03348 4.00000
4.00000 7.03348 4.00000
4.00000 7.03348 4.00000
4.00000 7.03348 4.00000
4.00000 7.03348 4.00000
4.00000 7.03347 4.00000
4.00000 7.03348 4.00000
4.00000 7.03348 4.00000
4.00000 7.03348 4.00000
4.00000 7.03348 4.00000
4.00000 7.03348 4.00000
4.00000 7.03348 4.00000
4.00000 7.03348 4.00000
4.00000 7.03348 4.00000
4.00000 7.03348 4.00000
4.00000 7.03348 4.00000
4.00000 7.03348 4.00000
4.00000 7.03348 4.00000
4.00000 7.03348 4.00000
4.00000 7.03348 4.00000
4.00000 7.03348 4.00000
4.00000 7.03348 4.00000
4.00000 7.03348 4.00000
4.00000 7.03348 4.00000
4.00000 7.03348 4.00000
4.00000 7.03348 4.00000
4.00000 7.03348 4.00000
4.00000 7.03348 4.00000
4.00000 7.03348 4.00000
4.00000 7.03348 4.00000
4.00000 7.03348 4.00000
4.00000 7.03347 4.00000
4.00000 7.03347 4.00000
4.00000 7.03348 4.00000
4.00000 7.03348 4.00000
4.00000 7.03348 4.00000
4.00000 7.03348 4.00000
4.00000 7.03348 4.00000
4.00000 7.03348 4.00000
4.00000 7.03348 4.00000
4.00000 7.03348 4.00000
4.00000 7.03348 4.00000
4.00000 7.03348 4.00000
4.00000 7.03348 4.00000
4.00000 7.03348 4.00000
4.00000 7.03348 4.00000
4.00000 7.03348 4.00000
4.00000 7.03348 4.00000
4.00000 7.03348 4.00000
4.00000 7.03348 4.00000
4.00000 7.03348 4.00000
4.00000 7.03348 4.00000
4.00000 7.03348 4.00000
4.00000 7.03348 4.00000
4.00000 7.03348 4.00000
4.00000 7.03348 4.00000
4.00000 7.03348 4.00000
4.00000 7.03348 4.00000
4.00000 7.03348 4.00000
4.00000 7.03348 4.00000
4.00000 7.03348 4.00000
4.00000 7.03348 4.00000
4.00000 7.03348 4.00000
4.00000 7.03348 4.00000
4.00000 7.03348 4.00000
4.00000 7.03347 4.00000
4.00000 7.03348 4.00000
4.00000 7.03348 4.00000
4.00000 7.03348 4.00000
4.00000 7.03348 4.00000
4.00000 7.03348 4.00000
4.00000 7.03348 4.00000
4.00000 7.03348 4.00000
4.00000 7.03348 4.00000
4.00000 7.03348 4.00000
4.00000 7.03348 4.00000
4.00000 7.03347 4.00000
4.00000 7.03348 4.00000
4.00000 7.03348 4.00000
4.00000 7.03348 4.00000
4.00000 7.03349 4.00000
4.00000 7.03349 4.00000
4.00000 7.03348 4.00000
4.00000 7.03348 4.00000
4.00000 7.03348 4.00000
4.00000 7.03348 4.00000
4.00000 7.03348 4.00000
4.00000 7.03348 4.00000
4.00000 7.03348 4.00000
4.00000 7.03348 4.00000
4.00000 7.03348 4.00000
4.00000 7.03348 4.00000
4.00000 7.03348 4.00000
4.00000 7.03348 4.00000
4.00000 7.03348 4.00000
4.00000 7.03348 4.00000
4.00000 7.03348 4.00000
4.00000 7.03347 4.00000
4.00000 7.03348 4.00000
4.00000 7.03348 4.00000
4.00000 7.03348 4.00000
4.00000 7.03348 4.00000
4.00000 7.03348 4.00000
4.00044 7.04205 4.00044
4.00415 7.11595 4.00415
4.00777 7.19028 4.00777
4.01129 7.26499 4.01129
4.01475 7.34003 4.01475
4.01815 7.41535 4.01815
4.02150 7.49091 4.02150
4.02482 7.56666 4.02482
4.02812 7.64255 4.02812
4.03142 7.71853 4.03142
4.03472 7.79457 4.03472
4.03805 7.87060 4.03805
4.04142 7.94657 4.04142
4.04485 8.02244 4.04485
4.04835 8.09812 4.04835
4.05195 8.17356 4.05195
4.05568 8.24867 4.05568
4.05956 8.32336 4.05956
4.06363 8.39753 4.06363
4.06793 8.47104 4.06793
4.07250 8.54376 4.07250
4.07741 8.61551 4.07741
4.08272 8.68608 4.08272
4.08839 8.75563 4.08839
4.09440 8.82423 4.09440
4.10076 8.89187 4.10076
4.10747 8.95857 4.10747
4.11452 9.02435 4.11452
4.12192 9.08923 4.12192
4.12964 9.15330 4.12964
4.13766 9.21666 4.13766
4.14593 9.27942 4.14593
4.15441 9.34176 4.15441
4.16302 9.40390 4.16302
4.17167 9.46612 4.17167
4.18025 9.52876 4.18024
4.18859 9.59226 4.18859
4.19650 9.65715 4.19650
4.20377 9.72409 4.20377
4.21008 9.79388 4.21008
4.21509 9.86750 4.21509
4.21840 9.94604 4.21840
4.21960 10.03063 4.21960
4.21854 10.12172 4.21853
4.21651 10.21560 4.21651
4.21386 10.31130 4.21385
4.21057 10.40886 4.21057
4.20663 10.50838 4.20663
4.20195 10.61007 4.20194
4.19642 10.71430 4.19642
4.18987 10.82158 4.18987
4.18204 10.93276 4.18204
4.17248 11.04922 4.17248
4.16038 11.17346 4.16038
4.14403 11.31091 4.14402
4.11811 11.47845 4.11811
4.00000 13.19120 4.00000
4.00000 13.19120 4.00000
4.00000 13.19120 4.00000
4.00000 13.19120 4.00000
4.00000 13.19120 4.00000
4.00000 13.19120 4.00000
4.00000 13.19120 4.00000
4.00000 13.19120 4.00000
4.00000 13.19120 4.00000
4.00000 13.19120 4.00000
4.00000 13.19120 4.00000
4.00000 13.19120 4.00000
4.00000 13.19120 4.00000
4.00000 13.19120 4.00000
4.00006 13.19138 4.00006
4.01310 13.23497 4.01310
4.02498 13.28368 4.02498
4.03541 13.33761 4.03541
4.04422 13.39720 4.04422
4.05125 13.46288 4.05125
4.05633 13.53505 4.05633
4.05935 13.61401 4.05935
4.06157 13.69559 4.06157
4.06373 13.77742 4.06373
4.06582 13.85947 4.06582
4.06787 13.94173 4.06787
4.06986 14.02416 4.06986
4.07181 14.10675 4.07181
4.07373 14.18949 4.07373
4.07560 14.27237 4.07560
4.07745 14.35537 4.07745
4.07927 14.43849 4.07927
4.08106 14.52171 4.08106
4.08283 14.60503 4.08283
4.08458 14.68845 4.08458
4.08630 14.77195 4.08630
4.08801 14.85553 4.08801
4.08970 14.93918 4.08970
4.09137 15.02291 4.09137
4.09302 15.10674 4.09302
4.09445 15.19127 4.09445
4.09560 15.27669 4.09560
4.09650 15.36294 4.09650
4.09715 15.44998 4.09715
4.09757 15.53776 4.09757
4.09777 15.62623 4.09777
4.09777 15.71535 4.09777
4.09759 15.80507 4.09759
4.09723 15.89534 4.09723
4.09672 15.98612 4.09672
4.09605 16.07738 4.09605
4.09526 16.16907 4.09526
4.09434 16.26115 4.09434
4.09332 16.35359 4.09332
4.09220 16.44635 4.09220
4.09099 16.53940 4.09099
4.08971 16.63271 4.08970
4.08835 16.72625 4.08835
4.08694 16.81999 4.08694
4.08548 16.91390 4.08548
4.08398 17.00797 4.08398
4.08244 17.10217 4.08244
4.08087 17.19648 4.08087
4.07928 17.29088 4.07928
4.07767 17.38535 4.07767
4.07605 17.47987 4.07605
4.07442 17.57444 4.07442
4.07278 17.66903 4.07278
4.07115 17.76364 4.07115
4.06953 17.85825 4.06953
4.06791 17.95285 4.06791
4.06630 18.04744 4.06630
4.06470 18.14199 4.06470
4.06312 18.23652 4.06312
4.06156 18.33100 4.06156
4.06001 18.42544 4.06001
4.05849 18.51983 4.05849
4.05698 18.61416 4.05698
4.05550 18.70843 4.05550
4.05405 18.80263 4.05405
4.05262 18.89677 4.05262
4.05121 18.99083 4.05122

