Angle 0.678885 0.025204

4.00000 7.03348 4.00000
4.00000 7.03348 4.00000
4.00000 7.03348 4.00000
4.00000 7.03348 4.00000
4.00000 7.03348 4.00000
4.00000 7.03348 4.00000
4.00000 7.03348 4.00000
4.00000 7.03348 4.00000
4.00000 7.03348 4.00000
4.00000 7.03349 4.00000
4.00000 7.03348 4.00000
4.00000 7.03348 4.00000
4.00000 7.03348 4.00000
4.00000 7.03348 4.00000
4.00000 7.03348 4.00000
4.00000 7.03347 4.00000
4.00000 7.03348 4.00000
4.00000 7.03344 4.00000
4.00000 7.03348 4.00000
4.00000 7.03348 4.00000
4.00000 7.03352 4.00000
4.00000 7.03348 4.00000
4.00000 7.03348 4.00000
4.00000 7.03349 4.00000
4.00299 7.09263 4.00299
4.00658 7.16563 4.00658
4.01008 7.23904 4.01008
4.01351 7.31280 4.01351
4.01687 7.38687 4.01687
4.02019 7.46120 4.02019
4.02347 7.53574 4.02347
4.02673 7.61045 4.02673
4.02998 7.68530 4.02998
4.03323 7.76022 4.03323
4.03650 7.83518 4.03650
4.03980 7.91012 4.03980
4.04315 7.98500 4.04315
4.04656 8.05974 4.04656
4.05006 8.13429 4.05006
4.05367 8.20858 4.05367
4.05742 8.28253 4.05742
4.06132 8.35603 4.06132
4.06543 8.42899 4.06543
4.06978 8.50126 4.06978
4.07443 8.57270 4.07442
4.07942 8.64312 4.07942
4.08482 8.71241 4.08482
4.09054 8.78077 4.09054
4.09660 8.84821 4.09660
4.10301 8.91473 4.10301
4.10975 8.98034 4.10975
4.11684 9.04507 4.11684
4.12425 9.10896 4.12425
4.13198 9.17208 4.13198
4.13999 9.23455 4.13999
4.14823 9.29648 4.14823
4.15666 9.35807 4.15666
4.16520 9.41953 4.16520
4.17375 9.48116 4.17375
4.18219 9.54330 4.18219
4.19037 9.60640 4.19037
4.19809 9.67100 4.19809
4.20511 9.73776 4.20511
4.21114 9.80751 4.21114
4.21582 9.88121 4.21582
4.21876 9.95995 4.21876
4.21957 10.04480 4.21957
4.21827 10.13573 4.21827
4.21617 10.22898 4.21617
4.21346 10.32402 4.21346
4.21013 10.42091 4.21013
4.20613 10.51975 4.20613
4.20141 10.62077 4.20141
4.19584 10.72433 4.19584
4.18925 10.83096 4.18925
4.18137 10.94152 4.18137
4.17174 11.05741 4.17174
4.15955 11.18120 4.15955
4.14301 11.31848 4.14301
4.11657 11.48697 4.11657
4.00000 13.19120 4.00000
4.00000 13.19120 4.00000
4.00000 13.19120 4.00000
4.00000 13.19120 4.00000
4.00000 13.19120 4.00000
4.00000 13.19120 4.00000
4.00000 13.19120 4.00000
4.00000 13.19120 4.00000
4.00000 13.19120 4.00000
4.00000 13.19120 4.00000
4.00000 13.19120 4.00000
4.00000 13.19121 4.00000
4.00000 13.19120 4.00000
4.00000 13.19119 4.00000
4.00000 13.19120 4.00000
4.01206 13.23117 4.01206
4.02397 13.27910 4.02397
4.03447 13.33214 4.03447
4.04339 13.39072 4.04339
4.05056 13.45527 4.05056
4.05584 13.52618 4.05584
4.05907 13.60385 4.05907
4.06128 13.68484 4.06128
4.06343 13.76608 4.06343
4.06552 13.84756 4.06552
4.06756 13.92924 4.06756
4.06955 14.01110 4.06955
4.07149 14.09313 4.07149
4.07340 14.17531 4.07340
4.07527 14.25764 4.07527
4.07711 14.34009 4.07711
4.07893 14.42266 4.07893
4.08071 14.50534 4.08071
4.08247 14.58813 4.08247
4.08421 14.67102 4.08421
4.08593 14.75399 4.08593
4.08763 14.83705 4.08763
4.08931 14.92019 4.08931
4.09098 15.00341 4.09098
4.09263 15.08670 4.09263
4.09412 15.17052 4.09412
4.09534 15.25523 4.09534
4.09629 15.34078 4.09629
4.09700 15.42713 4.09700
4.09748 15.51422 4.09748
4.09774 15.60201 4.09774
4.09779 15.69047 4.09779
4.09766 15.77953 4.09766
4.09735 15.86915 4.09735
4.09688 15.95930 4.09688
4.09627 16.04993 4.09627
4.09552 16.14101 4.09552
4.09464 16.23249 4.09464
4.09366 16.32433 4.09366
4.09257 16.41651 4.09257
4.09140 16.50899 4.09139
4.09014 16.60174 4.09014
4.08882 16.69473 4.08882
4.08743 16.78794 4.08743
4.08599 16.88133 4.08599
4.08451 16.97488 4.08451
4.08299 17.06857 4.08299
4.08144 17.16238 4.08144
4.07986 17.25629 4.07986
4.07827 17.35028 4.07827
4.07666 17.44434 4.07666
4.07504 17.53844 4.07504
4.07341 17.63258 4.07341
4.07179 17.72675 4.07179
4.07017 17.82091 4.07017
4.06855 17.91508 4.06855
4.06695 18.00925 4.06695
4.06535 18.10339 4.06535
4.06377 18.19751 4.06377
4.06221 18.29159 4.06221
4.06066 18.38563 4.06066
4.05913 18.47962 4.05913
4.05763 18.57356 4.05763
4.05615 18.66745 4.05614
4.05468 18.76128 4.05469
4.05325 18.85504 4.05325
4.05184 18.94874 4.05184
4.05046 19.04236 4.05046
4.04910 19.13592 4.04910
4.04777 19.22941 4.04777
4.04646 19.32282 4.04646
4.04519 19.41616 4.04519
4.04394 19.50942 4.04394
4.04272 19.60260 4.04272
4.04152 19.69571 4.04152
4.04035 19.78874 4.04035
4.03921 19.88169 4.03921
4.03810 19.97457 4.03810
4.03701 20.06737 4.03701
4.03595 20.16010 4.03595
4.03492 20.25275 4.03492
4.03391 20.34533 4.03391
4.03293 20.43783 4.03293
4.03197 20.53027 4.03197
4.03104 20.62263 4.03104
4.03013 20.71492 4.03013
4.02925 20.80714 4.02925
4.02839 20.89929 4.02839
4.02755 20.99138 4.02755
4.02673 21.08340 4.02673
4.02594 21.17536 4.02594
4.02517 21.26725 4.02517
4.02442 21.35908 4.02442
4.02369 21.45085 4.02369
4.02298 21.54257 4.02298
4.02229 21.63422 4.02229
4.02162 21.72582 4.02162
4.02097 21.81737 4.02097
4.02034 21.90886 4.02034
4.01973 22.00030 4.01973
4.01913 22.09169 4.01913
4.01855 22.18303 4.01855
4.01799 22.27432 4.01799
4.01744 22.36556 4.01744
4.01691 22.45676 4.01691
4.01640 22.54791 4.01640
4.01590 22.63903 4.01590
4.01541 22.73009 4.01541
4.01494 22.82112 4.01494
4.01448 22.91211 4.01448
4.01404 23.00306 4.01404
4.01361 23.09398 4.01361
4.01319 23.18485 4.01319
4.01279 23.27570 4.01279
4.01239 23.36651 4.01240
4.01201 23.45728 4.01201
4.01164 23.54803 4.01164
4.01128 23.63874 4.01128
4.01094 23.72942 4.01094
4.01060 23.82008 4.01060
4.01027 23.91070 4.01027
4.00996 24.00130 4.00996
4.00965 24.09187 4.00965
4.00935 24.18242 4.00935
4.00906 24.27294 4.00906
4.00878 24.36344 4.00878
4.00851 24.45392 4.00851
4.00824 24.54437 4.00824
4.00799 24.63481 4.00799
4.00774 24.72522 4.00774
4.00750 24.81561 4.00750
4.00726 24.90598 4.00726
4.00704 24.99634 4.00704
4.00682 25.08668 4.00682
4.00661 25.17700 4.00661
4.00640 25.26730 4.00640
4.00620 25.35758 4.00620
4.00601 25.44785 4.00601
4.00582 25.53811 4.00582
4.00564 25.62835 4.00564
4.00546 25.71858 4.00546
4.00529 25.80880 4.00529
4.00513 25.89900 4.00513
4.00497 25.98919 4.00497
4.00481 26.07937 4.00481
4.00466 26.16954 4.00466
4.00452 26.25970 4.00452
4.00437 26.34984 4.00437
4.00424 26.43998 4.00424
4.00411 26.53010 4.00411
4.00398 26.62022 4.00398
4.00385 26.71033 4.00385
4.00373 26.80043 4.00373
4.00361 26.89052 4.00361
4.00350 26.98061 4.00350
4.00339 27.07068 4.00339
4.00329 27.16076 4.00329
4.00318 27.25082 4.00318
4.00308 27.34087 4.00308
4.00299 27.43092 4.00299
4.00289 27.52097 4.00289
4.00280 27.61101 4.00280
4.00271 27.70105 4.00271
4.00263 27.79108 4.00263
4.00255 27.88110 4.00255
4.00247 27.97112 4.00247
4.00239 28.06114 4.00239
4.00231 28.15115 4.00231
4.00224 28.24116 4.00224
4.00217 28.33116 4.00217
4.00210 28.42116 4.00210
4.00204 28.51116 4.00204
4.00197 28.60115 4.00197
4.00191 28.69115 4.00191
4.00185 28.78113 4.00185
4.00179 28.87112 4.00179
4.00173 28.96111 4.00173
4.00168 29.05109 4.00168
4.00163 29.14108 4.00163
4.00158 29.23105 4.00158
4.00153 29.32103 4.00153
4.00148 29.41100 4.00148
4.00143 29.50099 4.00143
4.00139 29.59095 4.00139
4.00134 29.68092 4.00134
4.00130 29.77089 4.00130
4.00126 29.86086 4.00126
4.00122 29.95083 4.00122
4.00118 30.04080 4.00118
4.00114 30.13077 4.00115
4.00111 30.22074 4.00111
4.00107 30.31070 4.00107
4.00103 30.40068 4.00103
4.00101 30.49064 4.00101
4.00098 30.58060 4.00098
4.00094 30.67057 4.00095
4.00091 30.76054 4.00092
4.00089 30.85051 4.00089
4.00086 30.94048 4.00086
4.00083 31.03045 4.00083
4.00080 31.12043 4.00080
4.00078 31.21040 4.00078
4.00075 31.30037 4.00075
4.00073 31.39031 4.00073
4.00071 31.48028 4.00071
4.00069 31.57025 4.00069
4.00066 31.66022 4.00067
4.00064 31.75020 4.00064
4.00062 31.84017 4.00062
4.00060 31.93015 4.00060
4.00058 32.02012 4.00059
4.00057 32.11010 4.00057
4.00055 32.20008 4.00055
4.00053 32.29006 4.00053
4.00051 32.38003 4.00051
4.00050 32.47001 4.00050
4.00048 32.55999 4.00048
4.00047 32.64997 4.00047
4.00045 32.73996 4.00045
4.00044 32.82995 4.00044
4.00042 32.91993 4.00042
4.00041 33.00992 4.00041
4.00040 33.09991 4.00040
4.00038 33.18991 4.00039
4.00037 33.27990 4.00037
4.00035 33.36990 4.00036
4.00035 33.45988 4.00035
4.00034 33.54987 4.00034
4.00033 33.63987 4.00033
4.00032 33.72987 4.00032
4.00031 33.81987 4.00031
4.00030 33.90988 4.00030
4.00029 33.99988 4.00029
4.00028 34.08989 4.00028
4.00027 34.17990 4.00027
4.00026 34.26991 4.00026
4.00026 34.35992 4.00025
4.00025 34.44993 4.00025
4.00024 34.53995 4.00024
4.00023 34.62996 4.00023
4.00023 34.71998 4.00022
4.00022 34.81000 4.00022
4.00021 34.90003 4.00021
4.00020 34.99005 4.00020
4.00020 35.08008 4.00020
4.00019 35.17010 4.00019
4.00019 35.26013 4.00018
4.00018 35.35016 4.00018
4.00017 35.44020 4.00017
4.00017 35.53023 4.00017
4.00016 35.62027 4.00016
4.00016 35.71030 4.00016
4.00015 35.80034 4.00015
4.00015 35.89038 4.00015
4.00014 35.98043 4.00014
4.00014 36.07047 4.00014
4.00013 36.16052 4.00013
4.00013 36.25057 4.00013
4.00013 36.34062 4.00013
4.00012 36.43067 4.00012
4.00012 36.52072 4.00012
4.00011 36.61078 4.00011
4.00011 36.70084 4.00011
4.00011 36.79090 4.00011
4.00010 36.88096 4.00010
4.00010 36.97102 4.00010
4.00010 37.06109 4.00010
4.00009 37.15115 4.00009
4.00009 37.24122 4.00009
4.00009 37.33129 4.00009
4.00009 37.42136 4.00009
4.00008 37.51144 4.00008
4.00008 37.60151 4.00008
4.00008 37.69159 4.00008
4.00008 37.78167 4.00008
4.00007 37.87175 4.00007
4.00007 37.96183 4.00007
4.00007 38.05191 4.00007
4.00007 38.14200 4.00007
4.00006 38.23209 4.00006
4.00006 38.32218 4.00006
4.00006 38.41227 4.00006
4.00006 38.50236 4.00006
4.00006 38.59245 4.00006
4.00006 38.68255 4.00006
4.00005 38.77265 4.00005
4.00005 38.86275 4.00005
4.00005 38.95285 4.00005
4.00005 39.04295 4.00005
4.00005 39.13306 4.00005
4.00004 39.22316 4.00004
4.00004 39.31327 4.00004
4.00004 39.40338 4.00004
4.00004 39.49349 4.00004
4.00004 39.58361 4.00004
4.00004 39.67372 4.00004
4.00004 39.76384 4.00004
4.00004 39.85396 4.00004
4.00003 39.94408 4.00003
4.00003 40.03420 4.00003
4.00003 40.12432 4.00003
4.00003 40.21445 4.00003
4.00003 40.30457 4.00003
4.00003 40.39470 4.00003
4.00003 40.48483 4.00003

Angle 0.363198 6.189365

4.00000 7.03348 4.00000
4.00000 7.03348 4.00000
4.00000 7.03348 4.00000
4.00000 7.03348 4.00000
4.00000 7.03348 4.00000
4.00000 7.03348 4.00000
4.00000 7.03348 4.00000
4.00000 7.03348 4.00000
4.00000 7.03348 4.00000
4.00000 7.03348 4.00000
4.00000 7.03348 4.00000
4.00000 7.03348 4.00000
4.00000 7.03348 4.00000
4.00000 7.03348 4.00000
4.00000 7.03348 4.00000
4.00000 7.03348 4.00000
4.00000 7.03348 4.00000
4.00000 7.03348 4.00000
4.00000 7.03348 4.00000
4.00000 7.03348 4.00000
4.00000 7.03348 4.00000
4.00000 7.03348 4.00000
4.00000 7.03348 4.00000
4.00000 7.03348 4.00000
4.00000 7.03348 4.00000
4.00000 7.03350 4.00000
4.00000 7.03348 4.00000
4.00000 7.03348 4.00000
4.00000 7.03348 4.00000
4.00000 7.03349 4.00000
4.00000 7.03350 4.00000
4.00000 7.03348 4.00000
4.00000 7.03348 4.00000
4.00000 7.03348 4.00000
4.00115 7.05600 4.00115
4.00437 7.12027 4.00437
4.00751 7.18499 4.00751
4.01060 7.25013 4.01060
4.01364 7.31564 4.01364
4.01663 7.38151 4.01663
4.01959 7.44769 4.01959
4.02252 7.51416 4.02252
4.02544 7.58087 4.02544
4.02835 7.64780 4.02835
4.03126 7.71492 4.03126
4.03418 7.78218 4.03418
4.03713 7.84956 4.03713
4.04010 7.91701 4.04010
4.04312 7.98450 4.04312
4.04620 8.05197 4.04620
4.04935 8.11937 4.04935
4.05259 8.18667 4.05259
4.05594 8.25379 4.05594
4.05942 8.32066 4.05942
4.06305 8.38720 4.06305
4.06686 8.45333 4.06686
4.07090 8.51894 4.07090
4.07519 8.58389 4.07519
4.07979 8.64804 4.07979
4.08473 8.71132 4.08473
4.08995 8.77389 4.08995
4.09545 8.83577 4.09545
4.10125 8.89694 4.10125
4.10735 8.95740 4.10734
4.11373 9.01717 4.11373
4.12041 9.07627 4.12041
4.12736 9.13475 4.12736
4.13458 9.19266 4.13458
4.14203 9.25011 4.14203
4.14968 9.30719 4.14968
4.15749 9.36406 4.15749
4.16539 9.42090 4.16539
4.17331 9.47793 4.17331
4.18114 9.53544 4.18114
4.18878 9.59376 4.18878
4.19606 9.65332 4.19606
4.20281 9.71464 4.20281
4.20879 9.77832 4.20879
4.21375 9.84511 4.21375
4.21738 9.91585 4.21738
4.21934 9.99146 4.21934
4.21934 10.07276 4.21934
4.21781 10.15851 4.21781
4.21573 10.24595 4.21573
4.21311 10.33502 4.21311
4.20995 10.42577 4.20995
4.20620 10.51831 4.20620
4.20181 10.61283 4.20181
4.19668 10.70960 4.19668
4.19068 10.80906 4.19068
4.18360 10.91185 4.18360
4.17511 11.01901 4.17511
4.16463 11.13229 4.16463
4.15111 11.25507 4.15111
4.13189 11.39569 4.13189
4.09577 11.59016 4.09577
4.00000 13.19120 4.00000
4.00000 13.19120 4.00000
4.00000 13.19120 4.00000
4.00000 13.19120 4.00000
4.00000 13.19120 4.00000
4.00000 13.19120 4.00000
4.00000 13.19120 4.00000
4.00000 13.19120 4.00000
4.00000 13.19120 4.00000
4.00000 13.19120 4.00000
4.00000 13.19120 4.00000
4.00000 13.19120 4.00000
4.00000 13.19119 4.00000
4.00000 13.19119 4.00000
4.00000 13.19120 4.00000
4.00660 13.21218 4.00660
4.01847 13.25567 4.01847
4.02914 13.30361 4.02914
4.03847 13.35638 4.03847
4.04631 13.41436 4.04631
4.05252 13.47790 4.05252
4.05696 13.54737 4.05696
4.05959 13.62283 4.05959
4.06169 13.70009 4.06169
4.06373 13.77762 4.06373
4.06572 13.85538 4.06572
4.06766 13.93335 4.06766
4.06956 14.01153 4.06956
4.07142 14.08989 4.07142
4.07324 14.16843 4.07324
4.07504 14.24712 4.07504
4.07680 14.32597 4.07680
4.07854 14.40496 4.07854
4.08026 14.48408 4.08026
4.08195 14.56333 4.08195
4.08362 14.64270 4.08362
4.08528 14.72218 4.08528
4.08691 14.80177 4.08691
4.08853 14.88147 4.08853
4.09014 14.96127 4.09014
4.09173 15.04116 4.09173
4.09328 15.12123 4.09328
4.09461 15.20207 4.09461
4.09569 15.28374 4.09569
4.09653 15.36620 4.09653
4.09714 15.44941 4.09714
4.09755 15.53332 4.09755
4.09776 15.61791 4.09776
4.09778 15.70312 4.09778
4.09763 15.78891 4.09763
4.09732 15.87525 4.09732
4.09687 15.96210 4.09687
4.09627 16.04942 4.09627
4.09555 16.13718 4.09555
4.09471 16.22535 4.09471
4.09377 16.31388 4.09377
4.09274 16.40275 4.09274
4.09162 16.49194 4.09162
4.09042 16.58140 4.09042
4.08916 16.67112 4.08916
4.08784 16.76107 4.08784
4.08646 16.85123 4.08646
4.08504 16.94156 4.08504
4.08359 17.03206 4.08359
4.08210 17.12271 4.08210
4.08058 17.21347 4.08058
4.07905 17.30434 4.07905
4.07750 17.39531 4.07750
4.07593 17.48635 4.07593
4.07436 17.57745 4.07436
4.07279 17.66860 4.07279
4.07122 17.75980 4.07122
4.06965 17.85102 4.06965
4.06809 17.94225 4.06809
4.06653 18.03350 4.06653
4.06499 18.12475 4.06499
4.06346 18.21599 4.06346
4.06195 18.30722 4.06195
4.06045 18.39843 4.06045
4.05897 18.48962 4.05897
4.05751 18.58078 4.05751
4.05607 18.67190 4.05608
4.05466 18.76299 4.05466
4.05327 18.85404 4.05327
4.05190 18.94505 4.05190
4.05055 19.03601 4.05055
4.04923 19.12692 4.04923
4.04793 19.21778 4.04793
4.04666 19.30859 4.04666
4.04541 19.39935 4.04541
4.04419 19.49006 4.04419
4.04300 19.58071 4.04300
4.04183 19.67130 4.04183
4.04069 19.76184 4.04069
4.03957 19.85233 4.03957
4.03848 19.94276 4.03848
4.03741 20.03313 4.03741
4.03637 20.12345 4.03637
4.03535 20.21371 4.03535
4.03436 20.30392 4.03436
4.03339 20.39408 4.03339
4.03245 20.48418 4.03245
4.03152 20.57424 4.03152
4.03063 20.66423 4.03063
4.02975 20.75418 4.02975
4.02890 20.84408 4.02890
4.02807 20.93393 4.02807
4.02726 21.02373 4.02726
4.02647 21.11349 4.02647
4.02570 21.20319 4.02571
4.02496 21.29286 4.02496
4.02423 21.38247 4.02423
4.02353 21.47205 4.02353
4.02284 21.56158 4.02284
4.02217 21.65108 4.02217
4.02152 21.74053 4.02152
4.02089 21.82995 4.02089
4.02027 21.91933 4.02027
4.01967 22.00867 4.01967
4.01909 22.09798 4.01909
4.01853 22.18725 4.01853
4.01798 22.27649 4.01798
4.01744 22.36570 4.01744
4.01692 22.45488 4.01692
4.01642 22.54402 4.01642
4.01593 22.63314 4.01593
4.01545 22.72224 4.01545
4.01500 22.81129 4.01499
4.01454 22.90034 4.01454
4.01411 22.98935 4.01411
4.01368 23.07835 4.01368
4.01328 23.16731 4.01327
4.01287 23.25626 4.01288
4.01249 23.34518 4.01249
4.01212 23.43408 4.01211
4.01175 23.52296 4.01175
4.01139 23.61183 4.01139
4.01105 23.70068 4.01105
4.01071 23.78952 4.01071
4.01039 23.87833 4.01039
4.01007 23.96713 4.01008
4.00977 24.05591 4.00977
4.00947 24.14469 4.00947
4.00918 24.23344 4.00918
4.00890 24.32219 4.00890
4.00863 24.41092 4.00863
4.00837 24.49964 4.00837
4.00812 24.58835 4.00812
4.00787 24.67705 4.00787
4.00763 24.76574 4.00763
4.00740 24.85442 4.00740
4.00717 24.94309 4.00717
4.00695 25.03176 4.00695
4.00674 25.12042 4.00674
4.00653 25.20907 4.00653
4.00633 25.29771 4.00633
4.00614 25.38635 4.00613
4.00595 25.47499 4.00595
4.00577 25.56361 4.00577
4.00559 25.65224 4.00559
4.00542 25.74086 4.00542
4.00525 25.82948 4.00525
4.00509 25.91809 4.00509
4.00494 26.00670 4.00494
4.00478 26.09531 4.00479
4.00464 26.18391 4.00464
4.00450 26.27252 4.00450
4.00436 26.36113 4.00436
4.00422 26.44972 4.00422
4.00409 26.53833 4.00409
4.00397 26.62692 4.00397
4.00385 26.71552 4.00385
4.00373 26.80413 4.00373
4.00361 26.89272 4.00361
4.00350 26.98133 4.00350
4.00339 27.06993 4.00339
4.00329 27.15853 4.00329
4.00319 27.24714 4.00319
4.00309 27.33574 4.00309
4.00299 27.42435 4.00299
4.00290 27.51296 4.00290
4.00281 27.60158 4.00281
4.00272 27.69019 4.00272
4.00264 27.77881 4.00264
4.00256 27.86743 4.00256
4.00248 27.95605 4.00248
4.00240 28.04468 4.00240
4.00233 28.13331 4.00233
4.00226 28.22194 4.00226
4.00219 28.31058 4.00219
4.00212 28.39922 4.00212
4.00205 28.48787 4.00205
4.00199 28.57651 4.00199
4.00193 28.66517 4.00193
4.00187 28.75383 4.00187
4.00181 28.84249 4.00180
4.00175 28.93115 4.00175
4.00170 29.01983 4.00170
4.00165 29.10850 4.00165
4.00160 29.19718 4.00160
4.00155 29.28587 4.00155
4.00149 29.37456 4.00150
4.00145 29.46325 4.00145
4.00141 29.55195 4.00141
4.00136 29.64066 4.00136
4.00132 29.72937 4.00132
4.00128 29.81809 4.00128
4.00124 29.90681 4.00124
4.00120 29.99553 4.00121
4.00116 30.08427 4.00116
4.00112 30.17302 4.00112
4.00109 30.26175 4.00109
4.00106 30.35050 4.00106
4.00103 30.43926 4.00103
4.00099 30.52802 4.00099
4.00096 30.61679 4.00096
4.00093 30.70556 4.00093
4.00090 30.79434 4.00090
4.00088 30.88313 4.00088
4.00085 30.97192 4.00085
4.00082 31.06073 4.00082
4.00079 31.14954 4.00079
4.00078 31.23832 4.00077
4.00075 31.32714 4.00075
4.00072 31.41597 4.00072
4.00070 31.50480 4.00070
4.00068 31.59364 4.00068
4.00066 31.68247 4.00066
4.00064 31.77131 4.00064
4.00062 31.86017 4.00062
4.00060 31.94902 4.00060
4.00058 32.03789 4.00058
4.00056 32.12676 4.00056
4.00055 32.21564 4.00055
4.00053 32.30452 4.00053
4.00051 32.39342 4.00051
4.00050 32.48231 4.00050
4.00048 32.57121 4.00048
4.00046 32.66012 4.00046
4.00045 32.74903 4.00045
4.00044 32.83795 4.00044
4.00042 32.92688 4.00042
4.00041 33.01582 4.00041
4.00040 33.10476 4.00040
4.00038 33.19371 4.00039
4.00037 33.28266 4.00037
4.00036 33.37162 4.00036
4.00035 33.46056 4.00036
4.00033 33.54955 4.00034
4.00033 33.63851 4.00033
4.00032 33.72750 4.00032
4.00032 33.81648 4.00031
4.00030 33.90548 4.00030
4.00029 33.99448 4.00029
4.00028 34.08349 4.00028
4.00027 34.17250 4.00027
4.00027 34.26152 4.00026
4.00026 34.35055 4.00026
4.00025 34.43958 4.00025
4.00024 34.52862 4.00024
4.00023 34.61766 4.00023
4.00023 34.70671 4.00022
4.00022 34.79577 4.00022
4.00021 34.88483 4.00021
4.00021 34.97390 4.00020
4.00020 35.06297 4.00020
4.00019 35.15205 4.00019
4.00019 35.24114 4.00019
4.00018 35.33023 4.00018
4.00018 35.41932 4.00017
4.00017 35.50842 4.00017
4.00016 35.59753 4.00016
4.00016 35.68665 4.00016
4.00015 35.77577 4.00015
4.00015 35.86489 4.00015
4.00015 35.95402 4.00014
4.00014 36.04316 4.00014
4.00014 36.13230 4.00014
4.00013 36.22145 4.00013
4.00013 36.31060 4.00013
4.00012 36.39976 4.00012
4.00012 36.48892 4.00012
4.00012 36.57809 4.00012
4.00011 36.66727 4.00011
4.00011 36.75645 4.00011
4.00011 36.84563 4.00011
4.00010 36.93482 4.00010
4.00010 37.02402 4.00010
4.00010 37.11322 4.00010
4.00009 37.20243 4.00009
4.00009 37.29164 4.00009
4.00009 37.38086 4.00009
4.00008 37.47008 4.00008
4.00008 37.55931 4.00008
4.00008 37.64854 4.00008
4.00008 37.73778 4.00008
4.00007 37.82703 4.00007
4.00007 37.91628 4.00007
4.00007 38.00553 4.00007
4.00007 38.09479 4.00007
4.00007 38.18405 4.00007
4.00006 38.27332 4.00006
4.00006 38.36260 4.00006
4.00006 38.45188 4.00006

Angle 0.423427 3.040642

4.00000 7.03347 4.00000
4.00000 7.03348 4.00000
4.00000 7.03348 4.00000
4.00000 7.03347 4.00000
4.00000 7.03347 4.00000
4.00000 7.03348 4.00000
4.00000 7.03348 4.00000
4.00000 7.03348 4.00000
4.00000 7.03348 4.00000
4.00000 7.03348 4.00000
4.00000 7.03348 4.00000
4.00000 7.03348 4.00000
4.00000 7.03348 4.00000
4.00000 7.03348 4.00000
4.00000 7.03348 4.00000
4.00000 7.03348 4.00000
4.00000 7.03348 4.00000
4.00000 7.03348 4.00000
4.00000 7.03348 4.00000
4.00000 7.03348 4.00000
4.00000 7.03348 4.00000
4.00000 7.03348 4.00000
4.00000 7.03348 4.00000
4.00000 7.03348 4.00000
4.00000 7.03348 4.00000
4.00000 7.03348 4.00000
4.00000 7.03348 4.00000
4.00000 7.03348 4.00000
4.00000 7.03348 4.00000
4.00000 7.03348 4.00000
4.00000 7.03348 4.00000
4.00000 7.03348 4.00000
4.00000 7.03348 4.00000
4.00000 7.03348 4.00000
4.00000 7.03348 4.00000
4.00000 7.03348 4.00000
4.00000 7.03348 4.00000
4.00000 7.03348 4.00000
4.00000 7.03348 4.00000
4.00000 7.03348 4.00000
4.00000 7.03348 4.00000
4.00000 7.03348 4.00000
4.00000 7.03348 4.00000
4.00000 7.03348 4.00000
4.00000 7.03348 4.00000
4.00000 7.03348 4.00000
4.00000 7.03348 4.00000
4.00000 7.03348 4.00000
4.00000 7.03348 4.00000
4.00000 7.03349 4.00000
4.00000 7.03348 4.00000
4.00000 7.03348 4.00000
4.00000 7.03348 4.00000
4.00000 7.03348 4.00000
4.00000 7.03349 4.00000
4.00000 7.03348 4.00000
4.00000 7.03348 4.00000
4.00000 7.03348 4.00000
4.00000 7.03348 4.00000
4.00000 7.03348 4.00000
4.00000 7.03348 4.00000
4.00000 7.03348 4.00000
4.00000 7.03348 4.00000
4.00000 7.03348 4.00000
4.00000 7.03348 4.00000
4.00000 7.03348 4.00000
4.00000 7.03348 4.00000
4.00000 7.03348 4.00000
4.00000 7.03348 4.00000
4.00000 7.03348 4.00000
4.00000 7.03348 4.00000
4.00000 7.03348 4.00000
4.00000 7.03348 4.00000
4.00000 7.03348 4.00000
4.00000 7.03348 4.00000
4.00000 7.03348 4.00000
4.00000 7.03348 4.00000
4.00000 7.03348 4.00000
4.00000 7.03348 4.00000
4.00000 7.03348 4.00000
4.00000 7.03348 4.00000
4.00000 7.03348 4.00000
4.00000 7.03348 4.00000
4.00000 7.03348 4.00000
4.00000 7.03348 4.00000
4.00000 7.03348 4.00000
4.00000 7.03347 4.00000
4.00000 7.03348 4.00000
4.00000 7.03348 4.00000
4.00000 7.03348 4.00000
4.00000 7.03348 4.00000
4.00000 7.03348 4.00000
4.00000 7.03348 4.00000
4.00000 7.03348 4.00000
4.00000 7.03348 4.00000
4.00000 7.03348 4.00000
4.00000 7.03348 4.00000
4.00000 7.03348 4.00000
4.00000 7.03348 4.00000
4.00000 7.03347 4.00000
4.00000 7.03348 4.00000
4.00000 7.03343 4.00000
4.00000 7.03349 4.00000
4.00000 7.03353 4.00000
4.00000 7.03347 4.00000
4.00000 7.03347 4.00000
4.00000 7.03348 4.00000
4.00000 7.03346 4.00000
4.00000 7.03349 4.00000
4.00000 7.03351 4.00000
4.00000 7.03348 4.00000
4.00000 7.03353 4.00000
4.00000 7.03348 4.00000
4.00000 7.03348 4.00000
4.00000 7.03348 4.00000
4.00000 7.03347 4.00000
4.00000 7.03339 4.00000
4.00001 7.03340 4.00000
4.00000 7.03343 4.00000
4.00000 7.03348 4.00000
4.00000 7.03346 4.00000
4.00000 7.03347 4.00000
4.00000 7.03347 4.00000
4.00000 7.03348 4.00000
4.00000 7.03348 4.00000
4.00000 7.03348 4.00000
4.00000 7.03348 4.00000
4.00000 7.03348 4.00000
4.00000 7.03348 4.00000
4.00000 7.03349 4.00000
4.00000 7.03349 4.00000
4.00000 7.03349 4.00000
4.00000 7.03348 4.00000
4.00000 7.03348 4.00000
4.00000 7.03348 4.00000
4.00000 7.03348 4.00000
4.00000 7.03347 4.00000
4.00000 7.03347 4.00000
4.00000 7.03348 4.00000
4.00000 7.03348 4.00000
4.00000 7.03349 4.00000
4.00000 7.03349 4.00000
4.00000 7.03349 4.00000
4.00000 7.03349 4.00000
4.00000 7.03348 4.00000
4.00000 7.03348 4.00000
4.00000 7.03348 4.00000
4.00000 7.03348 4.00000
4.00000 7.03348 4.00000
4.00000 7.03348 4.00000
4.00000 7.03348 4.00000
4.00000 7.03348 4.00000
4.00000 7.03349 4.00000
4.00000 7.03348 4.00000
4.00000 7.03349 4.00000
4.00000 7.03349 4.00000
4.00000 7.03349 4.00000
4.00000 7.03349 4.00000
4.00000 7.03348 4.00000
4.00000 7.03348 4.00000
4.00000 7.03349 4.00000
4.00000 7.03348 4.00000
4.00000 7.03348 4.00000
4.00000 7.03348 4.00000
4.00000 7.03348 4.00000
4.00000 7.03348 4.00000
4.00000 7.03348 4.00000
4.00000 7.03348 4.00000
4.00000 7.03348 4.00000
4.00000 7.03348 4.00000
4.00000 7.03348 4.00000
4.00000 7.03348 4.00000
4.00000 7.03348 4.00000
4.00000 7.03348 4.00000
4.00000 7.03348 4.00000
4.00000 7.03348 4.00000
4.00000 7.03348 4.00000
4.00000 7.03348 4.00000
4.00000 7.03348 4.00000
4.00000 7.03348 4.00000
4.00000 7.03348 4.00000
4.00000 7.03348 4.00000
4.00000 7.03348 4.00000
4.00000 7.03348 4.00000
4.00000 7.03347 4.00000
4.00000 7.03348 4.00000
4.00000 7.03347 4.00000
4.00000 7.03347 4.00000
4.00000 7.03347 4.00000
4.00000 7.03347 4.00000
4.00000 7.03348 4.00000
4.00000 7.03348 4.00000
4.00000 7.03348 4.00000
4.00000 7.03348 4.00000
4.00000 7.03348 4.00000
4.00000 7.03348 4.00000
4.00000 7.03348 4.00000
4.00000 7.03348 4.00000
4.00000 7.03348 4.00000
4.00000 7.03348 4.00000
4.00000 7.03348 4.00000
4.00000 7.03348 4.00000
4.00000 7.03348 4.00000
4.00000 7.03348 4.00000
4.00000 7.03348 4.00000
4.00000 7.03348 4.00000
4.00000 7.03348 4.00000
4.00000 7.03348 4.00000
4.00000 7.03348 4.00000
4.00000 7.03348 4.00000
4.00000 7.03348 4.00000
4.00000 7.03348 4.00000
4.00000 7.03348 4.00000
4.00000 7.03348 4.00000
4.00000 7.03348 4.00000
4.00000 7.03348 4.00000
4.00000 7.03348 4.00000
4.00000 7.03348 4.00000
4.00000 7.03347 4.00000
4.00000 7.03348 4.00000
4.00000 7.03348 4.00000
4.00000 7.03348 4.00000
4.00000 7.03348 4.00000
4.00000 7.03348 4.00000
4.00000 7.03348 4.00000
4.00000 7.03349 4.00000
4.00000 7.03348 4.00000
4.00000 7.03348 4.00000
4.00000 7.03348 4.00000
4.00000 7.03348 4.00000
4.00000 7.03348 4.00000
4.00000 7.03348 4.00000
4.00000 7.03348 4.00000
4.00000 7.03348 4.00000
4.00000 7.03348 4.00000
4.00000 7.03348 4.00000
4.00000 7.03348 4.00000
4.00000 7.03348 4.00000
4.00000 7.03348 4.00000
4.00000 7.03348 4.00000
4.00000 7.03347 4.00000
4.00000 7.03348 4.00000
4.00000 7.03348 4.00000
4.00000 7.03348 4.00000
4.00000 7.03348 4.00000
4.00000 7.03348 4.00000
4.00000 7.03348 4.00000
4.00000 7.03347 4.00000
4.00050 7.04329 4.00050
4.00437 7.12038 4.00437
4.00813 7.19790 4.00813
4.01180 7.27579 4.01180
4.01538 7.35398 4.01538
4.01891 7.43243 4.01891
4.02239 7.51107 4.02239
4.02583 7.58987 4.02583
4.02926 7.66876 4.02926
4.03268 7.74770 4.03268
4.03612 7.82664 4.03612
4.03959 7.90550 4.03959
4.04311 7.98424 4.04311
4.04670 8.06279 4.04670
4.05039 8.14108 4.05039
4.05419 8.21901 4.05419
4.05814 8.29651 4.05814
4.06228 8.37345 4.06228
4.06665 8.44971 4.06665
4.07129 8.52514 4.07129
4.07628 8.59954 4.07628
4.08167 8.67270 4.08167
4.08747 8.74468 4.08747
4.09362 8.81563 4.09362
4.10014 8.88554 4.10015
4.10704 8.95442 4.10704
4.11430 9.02228 4.11429
4.12191 9.08917 4.12191
4.12987 9.15518 4.12987
4.13814 9.22040 4.13814
4.14668 9.28498 4.14668
4.15542 9.34911 4.15542
4.16430 9.41305 4.16430
4.17319 9.47709 4.17319
4.18197 9.54164 4.18197
4.19047 9.60717 4.19047
4.19846 9.67431 4.19846
4.20569 9.74379 4.20569
4.21181 9.81654 4.21181
4.21643 9.89366 4.21642
4.21910 9.97635 4.21910
4.21942 10.06579 4.21942
4.21776 10.16086 4.21776
4.21540 10.25795 4.21540
4.21239 10.35694 4.21239
4.20870 10.45789 4.20870
4.20429 10.56097 4.20429
4.19905 10.66649 4.19905
4.19283 10.77490 4.19283
4.18541 10.88695 4.18541
4.17639 11.00382 4.17639
4.16510 11.12760 4.16510
4.15019 11.26257 4.15019
4.12802 11.42027 4.12801
4.07248 11.68486 4.07248
4.00000 13.19120 4.00000
4.00000 13.19120 4.00000
4.00000 13.19120 4.00000
4.00000 13.19120 4.00000
4.00000 13.19120 4.00000
4.00000 13.19120 4.00000
4.00000 13.19120 4.00000
4.00000 13.19120 4.00000
4.00000 13.19120 4.00000
4.00000 13.19120 4.00000
4.00000 13.19120 4.00000
4.00000 13.19120 4.00000
4.00000 13.19121 4.00000
4.00002 13.19128 4.00002
4.01342 13.23612 4.01342
4.02548 13.28596 4.02548
4.03602 13.34124 4.03602
4.04488 13.40241 4.04488
4.05186 13.46992 4.05186
4.05680 13.54421 4.05680
4.05966 13.62535 4.05966
4.06192 13.70847 4.06192
4.06410 13.79184 4.06410
4.06622 13.87541 4.06622
4.06829 13.95918 4.06829
4.07031 14.04311 4.07031
4.07229 14.12719 4.07229
4.07423 14.21142 4.07423
4.07613 14.29576 4.07613
4.07800 14.38022 4.07800
4.07984 14.46478 4.07984
4.08165 14.54944 4.08165
4.08344 14.63419 4.08344
4.08521 14.71901 4.08521
4.08696 14.80391 4.08696
4.08868 14.88889 4.08868
4.09039 14.97392 4.09039
4.09209 15.05902 4.09208
4.09369 15.14440 4.09369
4.09501 15.23067 4.09502
4.09606 15.31783 4.09606
4.09685 15.40581 4.09685
4.09739 15.49456 4.09739
4.09770 15.58405 4.09770
4.09780 15.67421 4.09780
4.09769 15.76499 4.09769
4.09741 15.85636 4.09741
4.09695 15.94827 4.09695
4.09634 16.04067 4.09634
4.09558 16.13351 4.09558
4.09470 16.22677 4.09470
4.09370 16.32040 4.09370
4.09259 16.41436 4.09260
4.09140 16.50862 4.09140
4.09012 16.60314 4.09012
4.08877 16.69790 4.08877
4.08736 16.79286 4.08736
4.08589 16.88801 4.08589
4.08437 16.98330 4.08438
4.08282 17.07873 4.08282
4.08124 17.17426 4.08124
4.07963 17.26989 4.07963
4.07800 17.36557 4.07801
4.07636 17.46132 4.07637
4.07472 17.55709 4.07472
4.07306 17.65289 4.07306
4.07141 17.74869 4.07141
4.06976 17.84449 4.06976
4.06812 17.94028 4.06812
4.06649 18.03604 4.06649
4.06487 18.13176 4.06487
4.06327 18.22744 4.06327
4.06169 18.32308 4.06169
4.06012 18.41866 4.06012
4.05858 18.51417 4.05858
4.05706 18.60962 4.05706
4.05556 18.70500 4.05556
4.05409 18.80031 4.05408
4.05264 18.89554 4.05264
4.05122 18.99068 4.05122
4.04982 19.08575 4.04982
4.04846 19.18073 4.04846
4.04712 19.27562 4.04712
4.04581 19.37043 4.04581
4.04453 19.46515 4.04453
4.04327 19.55978 4.04327
4.04205 19.65432 4.04205
4.04085 19.74878 4.04085
4.03968 19.84314 4.03968
4.03854 19.93742 4.03854
4.03743 20.03161 4.03743
4.03634 20.12571 4.03634
4.03528 20.21972 4.03528
4.03425 20.31365 4.03425
4.03325 20.40750 4.03325
4.03227 20.50126 4.03227
4.03132 20.59494 4.03132

Angle 0.304080 3.623065

4.00000 7.03348 4.00000
4.00000 7.03348 4.00000
4.00000 7.03348 4.00000
4.00000 7.03348 4.00000
4.00000 7.03348 4.00000
4.00000 7.03348 4.00000
4.00000 7.03349 4.00000
4.00000 7.03349 4.00000
4.00000 7.03348 4.00000
4.00000 7.03348 4.00000
4.00000 7.03348 4.00000
4.00000 7.03348 4.00000
4.00000 7.03348 4.00000
4.00000 7.03348 4.00000
4.00000 7.03348 4.00000
4.00000 7.03347 4.00000
4.00000 7.03348 4.00000
4.00000 7.03348 4.00000
4.00000 7.03348 4.00000
4.00000 7.03348 4.00000
4.00000 7.03348 4.00000
4.00000 7.03348 4.00000
4.00000 7.03347 4.00000
4.00000 7.03347 4.00000
4.00000 7.03348 4.00000
4.00000 7.03348 4.00000
4.00000 7.03348 4.00000
4.00000 7.03348 4.00000
4.00000 7.03348 4.00000
4.00000 7.03348 4.00000
4.00000 7.03348 4.00000
4.00000 7.03348 4.00000
4.00000 7.03348 4.00000
4.00000 7.03348 4.00000
4.00000 7.03348 4.00000
4.00000 7.03348 4.00000
4.00000 7.03348 4.00000
4.00000 7.03349 4.00000
4.00000 7.03348 4.00000
4.00000 7.03348 4.00000
4.00000 7.03348 4.00000
4.00000 7.03348 4.00000
4.00000 7.03348 4.00000
4.00000 7.03348 4.00000
4.00000 7.03348 4.00000
4.00000 7.03348 4.00000
4.00000 7.03348 4.00000
4.00000 7.03348 4.00000
4.00000 7.03348 4.00000
4.00000 7.03348 4.00000
4.00000 7.03348 4.00000
4.00000 7.03348 4.00000
4.00000 7.03348 4.00000
4.00000 7.03348 4.00000
4.00000 7.03348 4.00000
4.00000 7.03348 4.00000
4.00000 7.03348 4.00000
4.00000 7.03348 4.00000
4.00000 7.03348 4.00000
4.00000 7.03348 4.00000
4.00000 7.03348 4.00000
4.00000 7.03348 4.00000
4.00000 7.03348 4.00000
4.00000 7.03348 4.00000
4.00000 7.03348 4.00000
4.00000 7.03348 4.00000
4.00000 7.03348 4.00000
4.00000 7.03348 4.00000
4.00000 7.03348 4.00000
4.00000 7.03348 4.00000
4.00000 7.03348 4.00000
4.00000 7.03348 4.00000
4.00000 7.03348 4.00000
4.00000 7.03348 4.00000
4.00000 7.03348 4.00000
4.00000 7.03348 4.00000
4.00000 7.03348 4.00000
4.00000 7.03348 4.00000
4.00000 7.03348 4.00000
4.00000 7.03348 4.00000
4.00000 7.03348 4.00000
4.00000 7.03348 4.00000
4.00000 7.03348 4.00000
4.00000 7.03349 4.00000
4.00000 7.03348 4.00000
4.00000 7.03348 4.00000
4.00000 7.03348 4.00000
4.00000 7.03349 4.00000
4.00000 7.03348 4.00000
4.00000 7.03348 4.00000
4.00000 7.03348 4.00000
4.00000 7.03348 4.00000
4.00000 7.03348 4.00000
4.00000 7.03348 4.00000
4.00000 7.03348 4.00000
4.00000 7.03348 4.00000
4.00000 7.03348 4.00000
4.00000 7.03348 4.00000
4.00000 7.03348 4.00000
4.00000 7.03348 4.00000
4.00000 7.03348 4.00000
4.00000 7.03348 4.00000
4.00000 7.03348 4.00000
4.00000 7.03348 4.00000
4.00000 7.03348 4.00000
4.00000 7.03348 4.00000
4.00000 7.03348 4.00000
4.00000 7.03348 4.00000
4.00000 7.03348 4.00000
4.00000 7.03348 4.00000
4.00000 7.03348 4.00000
4.00000 7.03348 4.00000
4.00000 7.03348 4.00000
4.00000 7.03348 4.00000
4.00000 7.03348 4.00000
4.00000 7.03348 4.00000
4.00000 7.03348 4.00000
4.00000 7.03348 4.00000
4.00000 7.03348 4.00000
4.00000 7.03349 4.00000
4.00000 7.03348 4.00000
4.00000 7.03348 4.00000
4.00000 7.03348 4.00000
4.00000 7.03348 4.00000
4.00000 7.03348 4.00000
4.00000 7.03348 4.00000
4.00000 7.03348 4.00000
4.00000 7.03348 4.00000
4.00000 7.03348 4.00000
4.00000 7.03348 4.00000
4.00000 7.03348 4.00000
4.00000 7.03348 4.00000
4.00000 7.03348 4.00000
4.00000 7.03348 4.00000
4.00000 7.03348 4.00000
4.00000 7.03348 4.00000
4.00000 7.03348 4.00000
4.00000 7.03348 4.00000
4.00000 7.03348 4.00000
4.00000 7.03348 4.00000
4.00000 7.03348 4.00000
4.00000 7.03348 4.00000
4.00000 7.03348 4.00000
4.00000 7.03348 4.00000
4.00000 7.03348 4.00000
4.00000 7.03348 4.00000
4.00000 7.03348 4.00000
4.00000 7.03348 4.00000
4.00000 7.03348 4.00000
4.00000 7.03347 4.00000
4.00000 7.03348 4.00000
4.00000 7.03348 4.00000
4.00000 7.03349 4.00000
4.00000 7.03349 4.00000
4.00000 7.03348 4.00000
4.00000 7.03348 4.00000
4.00000 7.03348 4.00000
4.00000 7.03348 4.00000
4.00000 7.03348 4.00000
4.00000 7.03349 4.00000
4.00000 7.03348 4.00000
4.00000 7.03348 4.00000
4.00000 7.03349 4.00000
4.00000 7.03348 4.00000
4.00000 7.03348 4.00000
4.00000 7.03348 4.00000
4.00000 7.03348 4.00000
4.00000 7.03348 4.00000
4.00000 7.03348 4.00000
4.00000 7.03348 4.00000
4.00000 7.03347 4.00000
4.00000 7.03347 4.00000
4.00000 7.03346 4.00000
4.00000 7.03348 4.00000
4.00000 7.03348 4.00000
4.00000 7.03351 4.00000
4.00037 7.04079 4.00038
4.00368 7.10650 4.00369
4.00692 7.17267 4.00692
4.01009 7.23925 4.01009
4.01320 7.30622 4.01320
4.01627 7.37353 4.01627
4.01930 7.44115 4.01930
4.02230 7.50905 4.02230
4.02528 7.57719 4.02528
4.02825 7.64554 4.02825
4.03122 7.71406 4.03122
4.03421 7.78271 4.03421
4.03721 7.85146 4.03721
4.04025 7.92026 4.04025
4.04333 7.98908 4.04333
4.04647 8.05786 4.04648
4.04969 8.12655 4.04969
4.05301 8.19510 4.05301
4.05643 8.26344 4.05643
4.06000 8.33149 4.06000
4.06372 8.39918 4.06372
4.06764 8.46640 4.06765
4.07180 8.53303 4.07180
4.07623 8.59894 4.07623
4.08100 8.66397 4.08100
4.08610 8.72812 4.08610
4.09148 8.79154 4.09148
4.09717 8.85423 4.09717
4.10315 8.91617 4.10315
4.10944 8.97736 4.10944
4.11603 9.03785 4.11603
4.12291 9.09764 4.12291
4.13007 9.15679 4.13007
4.13750 9.21539 4.13750
4.14515 9.27354 4.14515
4.15298 9.33136 4.15298
4.16095 9.38902 4.16095
4.16899 9.44674 4.16898
4.17699 9.50477 4.17699
4.18486 9.56343 4.18486
4.19244 9.62313 4.19244
4.19958 9.68433 4.19958
4.20605 9.74763 4.20605
4.21160 9.81374 4.21160
4.21593 9.88348 4.21593
4.21871 9.95778 4.21871
4.21959 10.03756 4.21959
4.21851 10.12305 4.21851
4.21662 10.21092 4.21662
4.21418 10.30046 4.21418
4.21119 10.39168 4.21119
4.20762 10.48467 4.20762
4.20342 10.57959 4.20342
4.19850 10.67669 4.19850
4.19274 10.77636 4.19274
4.18596 10.87919 4.18596
4.17785 10.98609 4.17785
4.16793 11.09857 4.16793
4.15530 11.21948 4.15530
4.13790 11.35527 4.13791
4.10871 11.52845 4.10871
4.00000 13.19120 4.00000
4.00000 13.19120 4.00000
4.00000 13.19120 4.00000
4.00000 13.19120 4.00000
4.00000 13.19120 4.00000
4.00000 13.19120 4.00000
4.00000 13.19120 4.00000
4.00000 13.19120 4.00000
4.00000 13.19120 4.00000
4.00000 13.19120 4.00000
4.00000 13.19120 4.00000
4.00000 13.19120 4.00000
4.00000 13.19120 4.00000
4.00000 13.19119 4.00000
4.00000 13.19120 4.00000
4.00541 13.20825 4.00541
4.01749 13.25175 4.01749
4.02836 13.29975 4.02836
4.03788 13.35263 4.03788
4.04589 13.41079 4.04589
4.05225 13.47458 4.05225
4.05681 13.54438 4.05681
4.05952 13.62032 4.05952
4.06164 13.69824 4.06164
4.06370 13.77642 4.06370
4.06571 13.85484 4.06571
4.06766 13.93347 4.06766
4.06958 14.01230 4.06958
4.07145 14.09131 4.07145
4.07329 14.17049 4.07329
4.07510 14.24982 4.07510
4.07687 14.32931 4.07688
4.07863 14.40893 4.07863
4.08035 14.48868 4.08035
4.08206 14.56855 4.08206
4.08374 14.64854 4.08374
4.08541 14.72864 4.08541
4.08706 14.80885 4.08706
4.08869 14.88916 4.08869
4.09031 14.96956 4.09031
4.09191 15.05005 4.09191
4.09345 15.13077 4.09345
4.09476 15.21230 4.09476
4.09581 15.29466 4.09581
4.09663 15.37781 4.09663
4.09722 15.46171 4.09722
4.09760 15.54632 4.09760
4.09778 15.63159 4.09778
4.09777 15.71749 4.09777
4.09759 15.80396 4.09759
4.09725 15.89098 4.09725
4.09676 15.97851 4.09676
4.09614 16.06650 4.09614
4.09539 16.15492 4.09539
4.09453 16.24374 4.09453
4.09356 16.33292 4.09356
4.09250 16.42244 4.09250
4.09135 16.51226 4.09135
4.09013 16.60235 4.09013
4.08885 16.69269 4.08885
4.08750 16.78325 4.08750
4.08611 16.87401 4.08611
4.08467 16.96494 4.08467
4.08319 17.05603 4.08320
4.08169 17.14725 4.08169
4.08016 17.23859 4.08016
4.07861 17.33003 4.07861
4.07705 17.42155 4.07705
4.07547 17.51315 4.07547
4.07389 17.60479 4.07389
4.07231 17.69648 4.07231
4.07073 17.78820 4.07073
4.06915 17.87995 4.06915
4.06758 17.97170 4.06758
4.06603 18.06346 4.06603
4.06448 18.15521 4.06448
4.06295 18.24695 4.06295
4.06143 18.33867 4.06143
4.05993 18.43036 4.05993
4.05845 18.52203 4.05845
4.05699 18.61366 4.05699
4.05555 18.70526 4.05555
4.05414 18.79681 4.05414
4.05275 18.88832 4.05275
4.05138 18.97977 4.05138
4.05004 19.07118 4.05003
4.04872 19.16254 4.04872
4.04742 19.25384 4.04742
4.04616 19.34508 4.04616
4.04491 19.43627 4.04491
4.04370 19.52740 4.04370
4.04251 19.61848 4.04251
4.04135 19.70949 4.04135
4.04021 19.80044 4.04021
4.03910 19.89134 4.03910
4.03801 19.98218 4.03801
4.03695 20.07295 4.03695
4.03591 20.16367 4.03591
4.03490 20.25433 4.03490
4.03392 20.34494 4.03391
4.03295 20.43549 4.03295
4.03202 20.52598 4.03201
4.03110 20.61641 4.03110
4.03021 20.70679 4.03021
4.02934 20.79712 4.02934
4.02850 20.88739 4.02850
4.02767 20.97761 4.02767
4.02687 21.06778 4.02687
4.02609 21.15791 4.02609
4.02533 21.24798 4.02533
4.02459 21.33800 4.02459
4.02387 21.42798 4.02387
4.02317 21.51792 4.02317
4.02249 21.60781 4.02249
4.02183 21.69766 4.02183
4.02118 21.78746 4.02118
4.02056 21.87723 4.02056
4.01995 21.96695 4.01995
4.01936 22.05664 4.01936
4.01878 22.14629 4.01878
4.01822 22.23590 4.01822
4.01768 22.32548 4.01768
4.01715 22.41503 4.01715
4.01664 22.50454 4.01664
4.01614 22.59402 4.01614
4.01566 22.68347 4.01566
4.01519 22.77289 4.01519
4.01473 22.86228 4.01473
4.01429 22.95165 4.01429
4.01386 23.04098 4.01386
4.01344 23.13030 4.01344
4.01304 23.21958 4.01304
4.01264 23.30885 4.01264
4.01226 23.39809 4.01226
4.01189 23.48731 4.01189
4.01153 23.57651 4.01153
4.01118 23.66568 4.01118
4.01084 23.75484 4.01084
4.01051 23.84398 4.01051
4.01019 23.93310 4.01019
4.00988 24.02220 4.00988
4.00958 24.11129 4.00958
4.00929 24.20036 4.00929
4.00901 24.28942 4.00901
4.00873 24.37846 4.00873
4.00847 24.46749 4.00847
4.00821 24.55651 4.00821
4.00796 24.64551 4.00795
4.00771 24.73450 4.00771
4.00748 24.82349 4.00748
4.00725 24.91246 4.00725
4.00703 25.00142 4.00703
4.00681 25.09038 4.00681
4.00660 25.17932 4.00660
4.00640 25.26825 4.00640
4.00620 25.35718 4.00620
4.00601 25.44610 4.00601
4.00583 25.53501 4.00583
4.00565 25.62392 4.00565
4.00548 25.71282 4.00548
4.00531 25.80172 4.00531
4.00514 25.89061 4.00514
4.00498 25.97950 4.00498

Angle 0.697681 1.302436

4.00000 7.03348 4.00000
4.00000 7.03348 4.00000
4.00000 7.03348 4.00000
4.00000 7.03348 4.00000
4.00000 7.03348 4.00000
4.00000 7.03348 4.00000
4.00000 7.03348 4.00000
4.00000 7.03348 4.00000
4.00000 7.03348 4.00000
4.00000 7.03348 4.00000
4.00000 7.03348 4.00000
4.00000 7.03348 4.00000
4.00000 7.03348 4.00000
4.00000 7.03348 4.00000
4.00000 7.03348 4.00000
4.00000 7.03348 4.00000
4.00000 7.03348 4.00000
4.00000 7.03348 4.00000
4.00000 7.03348 4.00000
4.00000 7.03348 4.00000
4.00000 7.03348 4.00000
4.00000 7.03348 4.00000
4.00000 7.03349 4.00000
4.00000 7.03348 4.00000
4.00000 7.03348 4.00000
4.00000 7.03348 4.00000
4.00000 7.03348 4.00000
4.00000 7.03348 4.00000
4.00000 7.03348 4.00000
4.00000 7.03348 4.00000
4.00000 7.03348 4.00000
4.00000 7.03348 4.00000
4.00000 7.03348 4.00000
4.00000 7.03348 4.00000
4.00000 7.03348 4.00000
4.00000 7.03348 4.00000
4.00000 7.03348 4.00000
4.00000 7.03348 4.00000
4.00000 7.03348 4.00000
4.00000 7.03348 4.00000
4.00000 7.03348 4.00000
4.00000 7.03348 4.00000
4.00000 7.03348 4.00000
4.00000 7.03348 4.00000
4.00000 7.03348 4.00000
4.00000 7.03348 4.00000
4.00000 7.03348 4.00000
4.00000 7.03348 4.00000
4.00000 7.03348 4.00000
4.00000 7.03348 4.00000
4.00000 7.03348 4.00000
4.00000 7.03348 4.00000
4.00000 7.03348 4.00000
4.00000 7.03348 4.00000
4.00000 7.03348 4.00000
4.00000 7.03348 4.00000
4.00000 7.03348 4.00000
4.00000 7.03348 4.00000
4.00000 7.03348 4.00000
4.00000 7.03348 4.00000
4.00000 7.03348 4.00000
4.00000 7.03348 4.00000
4.00000 7.03348 4.00000
4.00000 7.03348 4.00000
4.00000 7.03348 4.00000
4.00000 7.03348 4.00000
4.00000 7.03348 4.00000
4.00000 7.03348 4.00000
4.00000 7.03348 4.00000
4.00000 7.03348 4.00000
4.00000 7.03348 4.00000
4.00000 7.03348 4.00000
4.00000 7.03348 4.00000
4.00000 7.03348 4.00000
4.00000 7.03348 4.00000
4.00000 7.03348 4.00000
4.00000 7.03348 4.00000
4.00000 7.03348 4.00000
4.00000 7.03348 4.00000
4.00000 7.03348 4.00000
4.00000 7.03348 4.00000
4.00000 7.03348 4.00000
4.00000 7.03348 4.00000
4.00000 7.03348 4.00000
4.00000 7.03348 4.00000
4.00000 7.03348 4.00000
4.00000 7.03348 4.00000
4.00000 7.03347 4.00000
4.00000 7.03348 4.00000
4.00000 7.03347 4.00000
4.00000 7.03348 4.00000
4.00000 7.03348 4.00000
4.00000 7.03348 4.00000
4.00000 7.03348 4.00000
4.00000 7.03348 4.00000
4.00000 7.03348 4.00000
4.00000 7.03348 4.00000
4.00000 7.03348 4.00000
4.00000 7.03347 4.00000
4.00000 7.03348 4.00000
4.00000 7.03348 4.00000
4.00000 7.03347 4.00000
4.00000 7.03347 4.00000
4.00000 7.03349 4.00000
4.00000 7.03348 4.00000
4.00000 7.03348 4.00000
4.00000 7.03348 4.00000
4.00000 7.03348 4.00000
4.00000 7.03348 4.00000
4.00000 7.03348 4.00000
4.00000 7.03348 4.00000
4.00000 7.03348 4.00000
4.00000 7.03349 4.00000
4.00000 7.03348 4.00000
4.00000 7.03348 4.00000
4.00000 7.03348 4.00000
4.00000 7.03348 4.00000
4.00000 7.03348 4.00000
4.00000 7.03348 4.00000
4.00000 7.03348 4.00000
4.00000 7.03348 4.00000
4.00000 7.03348 4.00000
4.00000 7.03348 4.00000
4.00000 7.03348 4.00000
4.00000 7.03348 4.00000
4.00000 7.03347 4.00000
4.00000 7.03348 4.00000
4.00000 7.03348 4.00000
4.00000 7.03348 4.00000
4.00000 7.03348 4.00000
4.00000 7.03349 4.00000
4.00000 7.03348 4.00000
4.00000 7.03344 4.00000
4.00000 7.03348 4.00000
4.00001 7.03366 4.00001
4.00384 7.10965 4.00384
4.00758 7.18632 4.00758
4.01122 7.26338 4.01122
4.01478 7.34075 4.01478
4.01828 7.41839 4.01828
4.02174 7.49625 4.02174
4.02515 7.57427 4.02515
4.02855 7.65241 4.02855
4.03194 7.73062 4.03194
4.03535 7.80883 4.03535
4.03878 7.88701 4.03878
4.04225 7.96508 4.04225
4.04579 8.04299 4.04579
4.04942 8.12067 4.04942
4.05315 8.19804 4.05315
4.05703 8.27501 4.05703
4.06108 8.35147 4.06108
4.06534 8.42731 4.06534
4.06985 8.50238 4.06985
4.07469 8.57652 4.07469
4.07990 8.64951 4.07990
4.08554 8.72126 4.08554
4.09152 8.79200 4.09152
4.09787 8.86172 4.09787
4.10458 8.93042 4.10458
4.11166 8.99812 4.11166
4.11909 9.06486 4.11909
4.12687 9.13069 4.12687
4.13497 9.19571 4.13497
4.14335 9.26005 4.14335
4.15196 9.32387 4.15196
4.16073 9.38740 4.16073
4.16957 9.45092 4.16957
4.17835 9.51476 4.17835
4.18693 9.57937 4.18693
4.19512 9.64530 4.19511
4.20266 9.71320 4.20266
4.20926 9.78393 4.20926
4.21457 9.85847 4.21457
4.21815 9.93797 4.21815
4.21959 10.02363 4.21959
4.21864 10.11612 4.21864
4.21660 10.21171 4.21660
4.21392 10.30918 4.21392
4.21058 10.40855 4.21058
4.20656 10.50994 4.20656
4.20177 10.61358 4.20177
4.19610 10.71984 4.19610
4.18937 10.82928 4.18937
4.18127 10.94282 4.18127
4.17133 11.06197 4.17133
4.15864 11.18958 4.15864
4.14117 11.33200 4.14117
4.11205 11.51118 4.11206
4.00000 13.19120 4.00000
4.00000 13.19120 4.00000
4.00000 13.19120 4.00000
4.00000 13.19120 4.00000
4.00000 13.19120 4.00000
4.00000 13.19120 4.00000
4.00000 13.19120 4.00000
4.00000 13.19120 4.00000
4.00000 13.19120 4.00000
4.00000 13.19120 4.00000
4.00000 13.19120 4.00000
4.00000 13.19120 4.00000
4.00000 13.19120 4.00000
4.00000 13.19120 4.00000
4.00531 13.20792 4.00531
4.01815 13.25439 4.01815
4.02961 13.30597 4.02961
4.03950 13.36311 4.03950
4.04765 13.42626 4.04765
4.05388 13.49586 4.05388
4.05804 13.57231 4.05804
4.06046 13.65447 4.06046
4.06268 13.73731 4.06268
4.06483 13.82037 4.06483
4.06693 13.90364 4.06693
4.06897 13.98710 4.06897
4.07097 14.07072 4.07097
4.07292 14.15449 4.07292
4.07484 14.23839 4.07484
4.07672 14.32241 4.07672
4.07857 14.40655 4.07857
4.08040 14.49079 4.08040
4.08220 14.57512 4.08220
4.08397 14.65954 4.08397
4.08573 14.74405 4.08573
4.08746 14.82863 4.08746
4.08918 14.91328 4.08918
4.09087 14.99800 4.09087
4.09255 15.08277 4.09255
4.09408 15.16805 4.09408
4.09533 15.25423 4.09533
4.09630 15.34128 4.09630
4.09701 15.42913 4.09702
4.09749 15.51775 4.09749
4.09774 15.60707 4.09775
4.09779 15.69706 4.09779
4.09764 15.78766 4.09764
4.09731 15.87884 4.09731
4.09681 15.97053 4.09681
4.09617 16.06271 4.09617
4.09539 16.15532 4.09539
4.09448 16.24834 4.09448
4.09346 16.34171 4.09346
4.09234 16.43542 4.09234
4.09112 16.52941 4.09112
4.08983 16.62366 4.08983
4.08847 16.71815 4.08847
4.08705 16.81283 4.08705
4.08558 16.90769 4.08558
4.08406 17.00270 4.08406
4.08251 17.09783 4.08251
4.08092 17.19307 4.08093
4.07932 17.28840 4.07932
4.07769 17.38379 4.07769
4.07606 17.47923 4.07606
4.07441 17.57470 4.07441
4.07276 17.67020 4.07276
4.07112 17.76570 4.07112
4.06948 17.86120 4.06948
4.06784 17.95669 4.06784
4.06622 18.05215 4.06622
4.06461 18.14757 4.06461
4.06301 18.24296 4.06301
4.06144 18.33830 4.06144
4.05988 18.43358 4.05988
4.05834 18.52881 4.05834
4.05683 18.62397 4.05683
4.05534 18.71906 4.05534
4.05387 18.81408 4.05387
4.05243 18.90902 4.05243
4.05102 19.00388 4.05102
4.04964 19.09867 4.04964
4.04828 19.19337 4.04828
4.04695 19.28799 4.04695
4.04564 19.38252 4.04564
4.04437 19.47697 4.04437
4.04312 19.57133 4.04312
4.04190 19.66561 4.04190
4.04071 19.75979 4.04071
4.03955 19.85390 4.03955
4.03842 19.94791 4.03842
4.03731 20.04184 4.03731
4.03623 20.13569 4.03623
4.03518 20.22945 4.03518
4.03415 20.32312 4.03415
4.03315 20.41672 4.03315
4.03218 20.51023 4.03218
4.03123 20.60366 4.03123
4.03031 20.69701 4.03031
4.02941 20.79029 4.02941
4.02853 20.88349 4.02853
4.02768 20.97661 4.02768
4.02685 21.06966 4.02685
4.02605 21.16263 4.02605
4.02527 21.25554 4.02527
4.02451 21.34837 4.02451
4.02377 21.44114 4.02377
4.02305 21.53384 4.02305
4.02235 21.62648 4.02235
4.02167 21.71905 4.02167
4.02101 21.81156 4.02101
4.02037 21.90400 4.02037
4.01975 21.99639 4.01975
4.01915 22.08872 4.01915
4.01856 22.18100 4.01856
4.01800 22.27322 4.01800
4.01744 22.36538 4.01744
4.01691 22.45750 4.01691
4.01639 22.54956 4.01639
4.01588 22.64157 4.01588
4.01539 22.73353 4.01539
4.01492 22.82545 4.01492
4.01446 22.91732 4.01446
4.01401 23.00915 4.01401
4.01358 23.10093 4.01358
4.01316 23.19267 4.01316
4.01275 23.28437 4.01275
4.01235 23.37603 4.01235
4.01197 23.46765 4.01197
4.01160 23.55924 4.01160
4.01124 23.65079 4.01124
4.01089 23.74230 4.01089
4.01055 23.83378 4.01055
4.01022 23.92522 4.01022
4.00990 24.01663 4.00990
4.00959 24.10801 4.00959
4.00929 24.19936 4.00929
4.00900 24.29068 4.00900
4.00872 24.38198 4.00872
4.00845 24.47324 4.00845
4.00818 24.56448 4.00818
4.00793 24.65569 4.00793
4.00768 24.74687 4.00768
4.00744 24.83803 4.00744
4.00721 24.92917 4.00721
4.00698 25.02028 4.00698
4.00676 25.11137 4.00676
4.00655 25.20244 4.00655
4.00634 25.29349 4.00634
4.00614 25.38452 4.00614
4.00595 25.47553 4.00595
4.00576 25.56652 4.00576
4.00558 25.65749 4.00558
4.00541 25.74844 4.00541
4.00524 25.83937 4.00524
4.00507 25.93029 4.00507
4.00491 26.02119 4.00491
4.00476 26.11208 4.00476
4.00461 26.20295 4.00461
4.00446 26.29381 4.00446
4.00432 26.38465 4.00432
4.00419 26.47548 4.00419
4.00405 26.56629 4.00405
4.00393 26.65709 4.00393
4.00380 26.74788 4.00380
4.00368 26.83866 4.00368
4.00357 26.92942 4.00356
4.00345 27.02018 4.00345
4.00334 27.11092 4.00334
4.00324 27.20165 4.00324
4.00314 27.29237 4.00314
4.00304 27.38308 4.00304
4.00294 27.47379 4.00294
4.00285 27.56448 4.00285
4.00276 27.65516 4.00276
4.00267 27.74584 4.00267
4.00259 27.83650 4.00259
4.00250 27.92716 4.00250
4.00243 28.01781 4.00243
4.00235 28.10846 4.00235
4.00227 28.19909 4.00227
4.00220 28.28972 4.00220
4.00213 28.38034 4.00213
4.00207 28.47096 4.00207
4.00200 28.56157 4.00200
4.00194 28.65217 4.00194
4.00187 28.74277 4.00188
4.00182 28.83336 4.00182
4.00176 28.92395 4.00176
4.00170 29.01453 4.00170
4.00165 29.10510 4.00165
4.00160 29.19568 4.00160
4.00155 29.28624 4.00155
4.00150 29.37680 4.00150
4.00145 29.46736 4.00145
4.00140 29.55791 4.00140
4.00136 29.64846 4.00136
4.00132 29.73901 4.00132
4.00127 29.82955 4.00128
4.00123 29.92008 4.00123
4.00119 30.01061 4.00119
4.00116 30.10115 4.00116
4.00112 30.19168 4.00112
4.00108 30.28221 4.00109
4.00105 30.37273 4.00105
4.00102 30.46323 4.00102
4.00098 30.55375 4.00098
4.00095 30.64426 4.00095
4.00092 30.73477 4.00092
4.00089 30.82528 4.00089
4.00087 30.91579 4.00087

Angle 0.275489 0.012556

4.00000 7.03348 4.00000
4.00000 7.03348 4.00000
4.00000 7.03348 4.00000
4.00000 7.03348 4.00000
4.00000 7.03348 4.00000
4.00000 7.03348 4.00000
4.00000 7.03348 4.00000
4.00000 7.03348 4.00000
4.00000 7.03348 4.00000
4.00000 7.03348 4.00000
4.00000 7.03348 4.00000
4.00000 7.03348 4.00000
4.00000 7.03348 4.00000
4.00000 7.03348 4.00000
4.00000 7.03348 4.00000
4.00000 7.03348 4.00000
4.00000 7.03348 4.00000
4.00000 7.03348 4.00000
4.00000 7.03347 4.00000
4.00000 7.03347 4.00000
4.00000 7.03347 4.00000
4.00000 7.03348 4.00000
4.00000 7.03348 4.00000
4.00000 7.03348 4.00000
4.00000 7.03348 4.00000
4.00000 7.03348 4.00000
4.00000 7.03348 4.00000
4.00000 7.03348 4.00000
4.00000 7.03348 4.00000
4.00000 7.03348 4.00000
4.00000 7.03348 4.00000
4.00000 7.03348 4.00000
4.00000 7.03348 4.00000
4.00000 7.03348 4.00000
4.00000 7.03349 4.00000
4.00000 7.03348 4.00000
4.00000 7.03348 4.00000
4.00000 7.03348 4.00000
4.00000 7.03348 4.00000
4.00000 7.03348 4.00000
4.00000 7.03349 4.00000
4.00000 7.03347 4.00000
4.00000 7.03348 4.00000
4.00000 7.03350 4.00000
4.00000 7.03348 4.00000
4.00283 7.08941 4.00283
4.00665 7.16697 4.00665
4.01036 7.24493 4.01036
4.01398 7.32321 4.01398
4.01754 7.40177 4.01754
4.02104 7.48055 4.02104
4.02451 7.55949 4.02451
4.02795 7.63855 4.02795
4.03138 7.71767 4.03138
4.03482 7.79681 4.03482
4.03829 7.87590 4.03829
4.04179 7.95488 4.04179
4.04536 8.03370 4.04536
4.04902 8.11227 4.04902
4.05278 8.19052 4.05278
4.05669 8.26837 4.05669
4.06076 8.34570 4.06076
4.06505 8.42239 4.06505
4.06960 8.49830 4.06960
4.07446 8.57325 4.07446
4.07972 8.64704 4.07972
4.08540 8.71955 4.08540
4.09144 8.79101 4.09144
4.09784 8.86142 4.09784
4.10462 8.93080 4.10462
4.11177 8.99914 4.11177
4.11928 9.06649 4.11928
4.12714 9.13292 4.12714
4.13533 9.19851 4.13533
4.14380 9.26342 4.14380
4.15249 9.32780 4.15250
4.16135 9.39189 4.16135
4.17027 9.45598 4.17027
4.17912 9.52043 4.17912
4.18775 9.58570 4.18775
4.19595 9.65236 4.19595
4.20347 9.72112 4.20347
4.20999 9.79283 4.20999
4.21514 9.86856 4.21514
4.21849 9.94949 4.21849
4.21959 10.03683 4.21959
4.21836 10.13084 4.21836
4.21621 10.22750 4.21621
4.21340 10.32605 4.21340
4.20992 10.42655 4.20992
4.20572 10.52912 4.20572
4.20074 10.63402 4.20074
4.19483 10.74166 4.19483
4.18780 10.85268 4.18780
4.17930 10.96811 4.17930
4.16877 11.08970 4.16877
4.15514 11.22085 4.15514
4.13580 11.36978 4.13580
4.09995 11.57106 4.09995
4.00000 13.19120 4.00000
4.00000 13.19120 4.00000
4.00000 13.19120 4.00000
4.00000 13.19120 4.00000
4.00000 13.19120 4.00000
4.00000 13.19120 4.00000
4.00000 13.19120 4.00000
4.00000 13.19120 4.00000
4.00000 13.19120 4.00000
4.00000 13.19120 4.00000
4.00000 13.19120 4.00000
4.00000 13.19121 4.00000
4.00000 13.19120 4.00000
4.00000 13.19120 4.00000
4.00988 13.22338 4.00988
4.02234 13.27188 4.02234
4.03333 13.32569 4.03333
4.04267 13.38530 4.04267
4.05018 13.45115 4.05018
4.05569 13.52367 4.05569
4.05905 13.60328 4.05905
4.06133 13.68644 4.06133
4.06353 13.76984 4.06353
4.06567 13.85346 4.06567
4.06776 13.93728 4.06776
4.06979 14.02127 4.06979
4.07178 14.10541 4.07178
4.07373 14.18970 4.07373
4.07564 14.27411 4.07564
4.07752 14.35864 4.07752
4.07937 14.44327 4.07937
4.08120 14.52800 4.08120
4.08299 14.61281 4.08299
4.08477 14.69771 4.08477
4.08652 14.78269 4.08652
4.08826 14.86774 4.08826
4.08997 14.95285 4.08997
4.09167 15.03802 4.09167
4.09332 15.12335 4.09332
4.09472 15.20949 4.09472
4.09583 15.29652 4.09583
4.09668 15.38439 4.09668
4.09728 15.47306 4.09728
4.09765 15.56246 4.09765
4.09779 15.65255 4.09779
4.09773 15.74328 4.09773
4.09749 15.83461 4.09749
4.09707 15.92648 4.09707
4.09649 16.01885 4.09649
4.09577 16.11169 4.09577
4.09492 16.20494 4.09492
4.09394 16.29857 4.09394
4.09286 16.39255 4.09286
4.09168 16.48683 4.09168
4.09042 16.58138 4.09042
4.08909 16.67618 4.08909
4.08768 16.77118 4.08768
4.08623 16.86637 4.08623
4.08472 16.96172 4.08472
4.08318 17.05721 4.08318
4.08160 17.15280 4.08160
4.07999 17.24849 4.07999
4.07837 17.34425 4.07837
4.07673 17.44006 4.07673
4.07508 17.53591 4.07508
4.07343 17.63179 4.07343
4.07177 17.72767 4.07177
4.07012 17.82355 4.07012
4.06848 17.91942 4.06848
4.06684 18.01526 4.06684
4.06522 18.11108 4.06522
4.06361 18.20685 4.06361
4.06202 18.30257 4.06202
4.06045 18.39823 4.06045
4.05890 18.49384 4.05890
4.05738 18.58938 4.05738
4.05587 18.68485 4.05587
4.05439 18.78025 4.05439
4.05294 18.87556 4.05294
4.05151 18.97080 4.05151
4.05011 19.06596 4.05011
4.04874 19.16103 4.04874
4.04739 19.25601 4.04739
4.04608 19.35091 4.04608
4.04479 19.44572 4.04479
4.04353 19.54044 4.04353
4.04230 19.63506 4.04230
4.04109 19.72961 4.04109
4.03992 19.82406 4.03992
4.03877 19.91842 4.03877
4.03765 20.01269 4.03765
4.03656 20.10688 4.03656
4.03549 20.20097 4.03549
4.03446 20.29498 4.03446
4.03345 20.38891 4.03345
4.03246 20.48275 4.03246
4.03150 20.57651 4.03150
4.03057 20.67018 4.03057
4.02966 20.76378 4.02966
4.02878 20.85729 4.02878
4.02792 20.95073 4.02792
4.02708 21.04409 4.02708
4.02627 21.13738 4.02627
4.02548 21.23059 4.02548
4.02471 21.32372 4.02471
4.02396 21.41679 4.02396
4.02323 21.50979 4.02323
4.02253 21.60272 4.02253
4.02184 21.69559 4.02184
4.02118 21.78838 4.02118
4.02053 21.88112 4.02053
4.01990 21.97379 4.01990
4.01929 22.06641 4.01929
4.01870 22.15896 4.01870
4.01813 22.25146 4.01813
4.01757 22.34390 4.01757
4.01703 22.43629 4.01703
4.01651 22.52862 4.01651
4.01600 22.62090 4.01600
4.01550 22.71313 4.01550
4.01502 22.80532 4.01502
4.01456 22.89745 4.01456
4.01411 22.98954 4.01411
4.01367 23.08158 4.01367
4.01324 23.17357 4.01325
4.01283 23.26553 4.01283
4.01243 23.35744 4.01243
4.01205 23.44932 4.01205
4.01167 23.54115 4.01167
4.01131 23.63294 4.01131
4.01095 23.72470 4.01095
4.01061 23.81642 4.01061
4.01028 23.90811 4.01028
4.00996 23.99976 4.00996
4.00965 24.09138 4.00965
4.00935 24.18297 4.00935
4.00905 24.27452 4.00905
4.00877 24.36605 4.00877
4.00849 24.45754 4.00849
4.00823 24.54901 4.00823
4.00797 24.64045 4.00797
4.00772 24.73186 4.00772
4.00748 24.82325 4.00748
4.00724 24.91461 4.00724
4.00701 25.00594 4.00702
4.00679 25.09725 4.00679
4.00658 25.18854 4.00659
4.00637 25.27981 4.00637
4.00617 25.37105 4.00618
4.00598 25.46228 4.00598
4.00579 25.55348 4.00579
4.00561 25.64466 4.00561
4.00543 25.73582 4.00543
4.00526 25.82697 4.00526
4.00509 25.91809 4.00510
4.00493 26.00921 4.00493
4.00477 26.10030 4.00478
4.00462 26.19137 4.00463
4.00448 26.28243 4.00448
4.00434 26.37347 4.00434
4.00420 26.46450 4.00421
4.00407 26.55552 4.00407
4.00394 26.64652 4.00394
4.00381 26.73750 4.00382
4.00369 26.82847 4.00370
4.00358 26.91944 4.00358
4.00346 27.01038 4.00347
4.00335 27.10132 4.00336
4.00325 27.19224 4.00325
4.00314 27.28315 4.00315
4.00304 27.37405 4.00305
4.00294 27.46494 4.00296
4.00286 27.55582 4.00286
4.00277 27.64669 4.00277
4.00268 27.73755 4.00268
4.00259 27.82840 4.00260
4.00251 27.91924 4.00252
4.00243 28.01008 4.00244
4.00235 28.10090 4.00236
4.00228 28.19172 4.00229
4.00220 28.28252 4.00221
4.00213 28.37332 4.00214
4.00207 28.46412 4.00208
4.00200 28.55490 4.00201
4.00194 28.64568 4.00195
4.00188 28.73645 4.00189
4.00182 28.82722 4.00183
4.00176 28.91797 4.00177
4.00170 29.00873 4.00171
4.00165 29.09947 4.00166
4.00160 29.19021 4.00160
4.00155 29.28095 4.00155
4.00150 29.37168 4.00150
4.00145 29.46240 4.00146
4.00140 29.55312 4.00141
4.00136 29.64383 4.00137
4.00131 29.73454 4.00132
4.00127 29.82525 4.00128
4.00123 29.91595 4.00124
4.00119 30.00664 4.00120
4.00116 30.09733 4.00116
4.00112 30.18802 4.00113
4.00108 30.27870 4.00109
4.00105 30.36938 4.00106
4.00102 30.46006 4.00102
4.00098 30.55073 4.00099
4.00095 30.64140 4.00096
4.00092 30.73206 4.00093
4.00089 30.82272 4.00090
4.00086 30.91338 4.00087
4.00084 31.00404 4.00084
4.00081 31.09469 4.00082
4.00078 31.18534 4.00079
4.00076 31.27598 4.00076
4.00074 31.36663 4.00074
4.00071 31.45727 4.00072
4.00069 31.54791 4.00069
4.00067 31.63854 4.00067
4.00065 31.72918 4.00065
4.00063 31.81981 4.00063
4.00061 31.91044 4.00061
4.00059 32.00107 4.00059
4.00057 32.09169 4.00057
4.00055 32.18231 4.00055
4.00053 32.27294 4.00054
4.00052 32.36355 4.00052
4.00050 32.45417 4.00050
4.00048 32.54479 4.00049
4.00047 32.63540 4.00047
4.00045 32.72601 4.00046
4.00044 32.81662 4.00044
4.00042 32.90723 4.00043
4.00041 32.99784 4.00041
4.00040 33.08845 4.00040
4.00039 33.17905 4.00039
4.00037 33.26966 4.00038
4.00036 33.36026 4.00036
4.00035 33.45086 4.00035
4.00034 33.54146 4.00034
4.00033 33.63206 4.00033
4.00032 33.72265 4.00032
4.00031 33.81325 4.00031
4.00030 33.90384 4.00030
4.00029 33.99444 4.00029
4.00028 34.08503 4.00028
4.00027 34.17562 4.00027
4.00026 34.26621 4.00026
4.00025 34.35680 4.00026
4.00025 34.44739 4.00025
4.00024 34.53798 4.00024
4.00023 34.62857 4.00023
4.00022 34.71915 4.00022
4.00022 34.80974 4.00022
4.00021 34.90032 4.00021
4.00020 34.99091 4.00020
4.00020 35.08149 4.00020
4.00019 35.17207 4.00019
4.00018 35.26265 4.00018
4.00018 35.35324 4.00018
4.00017 35.44382 4.00017
4.00017 35.53440 4.00017
4.00016 35.62498 4.00016
4.00016 35.71555 4.00016
4.00015 35.80613 4.00015
4.00015 35.89671 4.00015
4.00014 35.98729 4.00014
4.00014 36.07786 4.00014
4.00013 36.16844 4.00013
4.00013 36.25902 4.00013
4.00012 36.34959 4.00012
4.00012 36.44017 4.00012
4.00012 36.53074 4.00012
4.00011 36.62131 4.00011
4.00011 36.71189 4.00011
4.00011 36.80246 4.00011
4.00010 36.89303 4.00010
4.00010 36.98361 4.00010
4.00010 37.07418 4.00010
4.00009 37.16475 4.00009
4.00009 37.25532 4.00009
4.00009 37.34589 4.00009
4.00008 37.43646 4.00008
4.00008 37.52703 4.00008
4.00008 37.61760 4.00008
4.00008 37.70817 4.00008
4.00007 37.79874 4.00007
4.00007 37.88931 4.00007
4.00007 37.97988 4.00007
4.00007 38.07045 4.00007
4.00007 38.16102 4.00007
4.00006 38.25159 4.00006
4.00006 38.34215 4.00006
4.00006 38.43272 4.00006
4.00006 38.52329 4.00006
4.00006 38.61386 4.00006
4.00005 38.70442 4.00005
4.00005 38.79499 4.00005
4.00005 38.88556 4.00005
4.00005 38.97613 4.00005
4.00005 39.06669 4.00005
4.00005 39.15726 4.00005

Angle 0.424469 4.582511

4.00000 7.03347 4.00000
4.00000 7.03348 4.00000
4.00000 7.03348 4.00000
4.00000 7.03348 4.00000
4.00000 7.03348 4.00000
4.00000 7.03348 4.00000
4.00000 7.03348 4.00000
4.00000 7.03348 4.00000
4.00000 7.03348 4.00000
4.00000 7.03348 4.00000
4.00000 7.03348 4.00000
4.00000 7.03348 4.00000
4.00000 7.03348 4.00000
4.00000 7.03348 4.00000
4.00000 7.03348 4.00000
4.00000 7.03348 4.00000
4.00000 7.03348 4.00000
4.00000 7.03348 4.00000
4.00000 7.03348 4.00000
4.00000 7.03348 4.00000
4.00000 7.03348 4.00000
4.00000 7.03348 4.00000
4.00000 7.03348 4.00000
4.00000 7.03348 4.00000
4.00000 7.03348 4.00000
4.00000 7.03349 4.00000
4.00000 7.03349 4.00000
4.00000 7.03348 4.00000
4.00000 7.03348 4.00000
4.00000 7.03348 4.00000
4.00000 7.03348 4.00000
4.00000 7.03348 4.00000
4.00000 7.03348 4.00000
4.00000 7.03348 4.00000
4.00000 7.03348 4.00000
4.00000 7.03348 4.00000
4.00000 7.03348 4.00000
4.00000 7.03348 4.00000
4.00000 7.03348 4.00000
4.00000 7.03347 4.00000
4.00000 7.03348 4.00000
4.00000 7.03348 4.00000
4.00000 7.03348 4.00000
4.00000 7.03347 4.00000
4.00000 7.03349 4.00000
4.00000 7.03348 4.00000
4.00000 7.03348 4.00000
4.00000 7.03348 4.00000
4.00000 7.03347 4.00000
4.00000 7.03348 4.00000
4.00000 7.03348 4.00000
4.00000 7.03348 4.00000
4.00000 7.03348 4.00000
4.00000 7.03348 4.00000
4.00000 7.03348 4.00000
4.00000 7.03348 4.00000
4.00000 7.03348 4.00000
4.00000 7.03348 4.00000
4.00000 7.03348 4.00000
4.00000 7.03348 4.00000
4.00000 7.03348 4.00000
4.00000 7.03348 4.00000
4.00000 7.03348 4.00000
4.00000 7.03348 4.00000
4.00000 7.03348 4.00000
4.00000 7.03348 4.00000
4.00000 7.03348 4.00000
4.00000 7.03348 4.00000
4.00000 7.03348 4.00000
4.00000 7.03348 4.00000
4.00000 7.03348 4.00000
4.00000 7.03348 4.00000
4.00000 7.03349 4.00000
4.00000 7.03348 4.00000
4.00000 7.03348 4.00000
4.00000 7.03348 4.00000
4.00000 7.03348 4.00000
4.00000 7.03348 4.00000
4.00000 7.03348 4.00000
4.00000 7.03348 4.00000
4.00000 7.03348 4.00000
4.00000 7.03348 4.00000
4.00000 7.03348 4.00000
4.00000 7.03348 4.00000
4.00000 7.03348 4.00000
4.00000 7.03348 4.00000
4.00000 7.03348 4.00000
4.00000 7.03348 4.00000
4.00000 7.03348 4.00000
4.00000 7.03348 4.00000
4.00000 7.03348 4.00000
4.00000 7.03348 4.00000
4.00000 7.03348 4.00000
4.00000 7.03348 4.00000
4.00000 7.03348 4.00000
4.00000 7.03348 4.00000
4.00000 7.03348 4.00000
4.00000 7.03348 4.00000
4.00000 7.03348 4.00000
4.00000 7.03348 4.00000
4.00000 7.03348 4.00000
4.00000 7.03348 4.00000
4.00000 7.03348 4.00000
4.00000 7.03348 4.00000
4.00000 7.03348 4.00000
4.00000 7.03348 4.00000
4.00000 7.03348 4.00000
4.00000 7.03347 4.00000
4.00000 7.03348 4.00000
4.00000 7.03348 4.00000
4.00000 7.03349 4.00000
4.00000 7.03348 4.00000
4.00000 7.03348 4.00000
4.00000 7.03348 4.00000
4.00000 7.03348 4.00000
4.00000 7.03348 4.00000
4.00000 7.03348 4.00000
4.00000 7.03348 4.00000
4.00000 7.03348 4.00000
4.00000 7.03348 4.00000
4.00000 7.03348 4.00000
4.00000 7.03348 4.00000
4.00000 7.03348 4.00000
4.00000 7.03348 4.00000
4.00000 7.03347 4.00000
4.00000 7.03348 4.00000
4.00000 7.03348 4.00000
4.00000 7.03348 4.00000
4.00000 7.03348 4.00000
4.00000 7.03348 4.00000
4.00000 7.03348 4.00000
4.00000 7.03348 4.00000
4.00000 7.03348 4.00000
4.00000 7.03348 4.00000
4.00000 7.03348 4.00000
4.00000 7.03348 4.00000
4.00000 7.03348 4.00000
4.00000 7.03348 4.00000
4.00000 7.03348 4.00000
4.00000 7.03348 4.00000
4.00000 7.03348 4.00000
4.00000 7.03348 4.00000
4.00000 7.03348 4.00000
4.00000 7.03348 4.00000
4.00000 7.03348 4.00000
4.00000 7.03349 4.00000
4.00000 7.03348 4.00000
4.00000 7.03348 4.00000
4.00000 7.03348 4.00000
4.00000 7.03348 4.00000
4.00000 7.03348 4.00000
4.00000 7.03348 4.00000
4.00000 7.03348 4.00000
4.00000 7.03348 4.00000
4.00000 7.03348 4.00000
4.00000 7.03348 4.00000
4.00000 7.03348 4.00000
4.00000 7.03348 4.00000
4.00000 7.03348 4.00000
4.00000 7.03348 4.00000
4.00000 7.03348 4.00000
4.00000 7.03348 4.00000
4.00000 7.03348 4.00000
4.00000 7.03348 4.00000
4.00000 7.03348 4.00000
4.00000 7.03348 4.00000
4.00000 7.03348 4.00000
4.00000 7.03348 4.00000
4.00000 7.03348 4.00000
4.00000 7.03348 4.00000
4.00000 7.03348 4.00000
4.00000 7.03348 4.00000
4.00000 7.03348 4.00000
4.00000 7.03348 4.00000
4.00000 7.03348 4.00000
4.00000 7.03348 4.00000
4.00000 7.03348 4.00000
4.00000 7.03348 4.00000
4.00000 7.03348 4.00000
4.00000 7.03348 4.00000
4.00000 7.03348 4.00000
4.00000 7.03348 4.00000
4.00000 7.03348 4.00000
4.00000 7.03348 4.00000
4.00000 7.03348 4.00000
4.00000 7.03348 4.00000
4.00000 7.03348 4.00000
4.00000 7.03348 4.00000
4.00000 7.03347 4.00000
4.00000 7.03348 4.00000
4.00000 7.03348 4.00000
4.00000 7.03348 4.00000
4.00000 7.03348 4.00000
4.00000 7.03348 4.00000
4.00000 7.03348 4.00000
4.00000 7.03348 4.00000
4.00000 7.03348 4.00000
4.00000 7.03348 4.00000
4.00000 7.03348 4.00000
4.00000 7.03348 4.00000
4.00000 7.03348 4.00000
4.00000 7.03348 4.00000
4.00000 7.03348 4.00000
4.00000 7.03348 4.00000
4.00000 7.03348 4.00000
4.00000 7.03348 4.00000
4.00000 7.03347 4.00000
4.00000 7.03348 4.00000
4.00000 7.03349 4.00000
4.00000 7.03348 4.00000
4.00000 7.03348 4.00000
4.00000 7.03348 4.00000
4.00000 7.03348 4.00000
4.00000 7.03348 4.00000
4.00000 7.03348 4.00000
4.00000 7.03348 4.00000
4.00000 7.03348 4.00000
4.00000 7.03349 4.00000
4.00000 7.03348 4.00000
4.00000 7.03348 4.00000
4.00000 7.03348 4.00000
4.00000 7.03348 4.00000
4.00000 7.03350 4.00000
4.00000 7.03349 4.00000
4.00000 7.03348 4.00000
4.00000 7.03348 4.00000
4.00000 7.03348 4.00000
4.00000 7.03348 4.00000
4.00308 7.09428 4.00308
4.00669 7.16781 4.00668
4.01021 7.24171 4.01020
4.01365 7.31597 4.01365
4.01704 7.39054 4.01704
4.02037 7.46536 4.02037
4.02367 7.54039 4.02367
4.02695 7.61558 4.02695
4.03022 7.69090 4.03022
4.03349 7.76628 4.03349
4.03678 7.84169 4.03678
4.04011 7.91708 4.04011
4.04348 7.99238 4.04348
4.04692 8.06754 4.04692
4.05045 8.14250 4.05045
4.05410 8.21717 4.05410
4.05788 8.29148 4.05788
4.06183 8.36532 4.06183
4.06599 8.43859 4.06599
4.07040 8.51115 4.07040
4.07512 8.58284 4.07512
4.08020 8.65346 4.08020
4.08567 8.72295 4.08567
4.09148 8.79152 4.09148
4.09763 8.85915 4.09763
4.10412 8.92585 4.10412
4.11096 8.99163 4.11096
4.11814 9.05652 4.11814
4.12565 9.12057 4.12565
4.13346 9.18386 4.13346
4.14156 9.24651 4.14156
4.14988 9.30865 4.14988
4.15838 9.37047 4.15838
4.16697 9.43222 4.16697
4.17554 9.49420 4.17554
4.18398 9.55678 4.18398
4.19211 9.62044 4.19211
4.19973 9.68573 4.19973
4.20659 9.75338 4.20659
4.21236 9.82425 4.21236
4.21668 9.89935 4.21669
4.21916 9.97978 4.21916
4.21941 10.06662 4.21941
4.21781 10.15877 4.21781
4.21554 10.25285 4.21554
4.21266 10.34873 4.21266
4.20915 10.44649 4.20915
4.20496 10.54626 4.20496
4.20001 10.64831 4.20001
4.19416 10.75303 4.19416
4.18722 10.86105 4.18722
4.17888 10.97333 4.17888
4.16860 11.09154 4.16860
4.15537 11.21885 4.15537
4.13683 11.36269 4.13683
4.10396 11.55195 4.10396
4.00000 13.19120 4.00000
4.00000 13.19120 4.00000
4.00000 13.19120 4.00000
4.00000 13.19120 4.00000
4.00000 13.19120 4.00000
4.00000 13.19120 4.00000
4.00000 13.19120 4.00000
4.00000 13.19120 4.00000
4.00000 13.19120 4.00000
4.00000 13.19120 4.00000
4.00000 13.19120 4.00000
4.00000 13.19120 4.00000
4.00000 13.19120 4.00000
4.00000 13.19120 4.00000
4.00356 13.20228 4.00356
4.01634 13.24724 4.01634
4.02781 13.29705 4.02781
4.03780 13.35215 4.03781
4.04615 13.41298 4.04615
4.05269 13.47995 4.05268
4.05725 13.55347 4.05725
4.05988 13.63333 4.05988
4.06208 13.71465 4.06208
4.06421 13.79622 4.06421
4.06629 13.87800 4.06629
4.06831 13.95998 4.06831
4.07029 14.04213 4.07029
4.07222 14.12444 4.07222
4.07412 14.20690 4.07412
4.07599 14.28950 4.07599
4.07782 14.37222 4.07782
4.07963 14.45505 4.07963
4.08141 14.53800 4.08141
4.08317 14.62104 4.08317
4.08490 14.70417 4.08490
4.08662 14.78739 4.08662
4.08832 14.87069 4.08831
4.09000 14.95407 4.08999
4.09166 15.03753 4.09166
4.09328 15.12114 4.09328
4.09466 15.20554 4.09466
4.09576 15.29081 4.09577
4.09662 15.37690 4.09662
4.09723 15.46378 4.09723
4.09761 15.55138 4.09761
4.09778 15.63966 4.09779
4.09776 15.72859 4.09776
4.09755 15.81810 4.09755
4.09717 15.90816 4.09717
4.09663 15.99873 4.09663
4.09595 16.08976 4.09595
4.09515 16.18122 4.09514
4.09422 16.27307 4.09422
4.09318 16.36527 4.09318
4.09206 16.45779 4.09206
4.09084 16.55059 4.09084
4.08955 16.64366 4.08955
4.08819 16.73694 4.08820
4.08678 16.83043 4.08678
4.08532 16.92409 4.08532
4.08382 17.01790 4.08382
4.08228 17.11185 4.08228
4.08071 17.20590 4.08071
4.07912 17.30004 4.07912
4.07751 17.39425 4.07751
4.07590 17.48852 4.07590
4.07427 17.58282 4.07427
4.07264 17.67716 4.07264
4.07102 17.77151 4.07102
4.06940 17.86587 4.06940
4.06778 17.96022 4.06778
4.06618 18.05455 4.06618
4.06459 18.14886 4.06459
4.06301 18.24313 4.06301
4.06145 18.33737 4.06145
4.05991 18.43156 4.05991
4.05839 18.52570 4.05839
4.05689 18.61979 4.05690
4.05542 18.71382 4.05542
4.05397 18.80778 4.05397
4.05255 18.90168 4.05255
4.05115 18.99551 4.05115
4.04977 19.08927 4.04977
4.04843 19.18295 4.04843
4.04711 19.27656 4.04711
4.04581 19.37010 4.04581
4.04455 19.46356 4.04455
4.04331 19.55694 4.04331
4.04210 19.65024 4.04210
4.04092 19.74346 4.04092
4.03976 19.83661 4.03976
4.03863 19.92968 4.03863
4.03753 20.02267 4.03753
4.03646 20.11558 4.03646
4.03541 20.20842 4.03541
4.03439 20.30118 4.03439
4.03339 20.39387 4.03339
4.03242 20.48648 4.03242
4.03148 20.57902 4.03148
4.03056 20.67149 4.03056
4.02966 20.76388 4.02966
4.02879 20.85621 4.02879
4.02794 20.94847 4.02794
4.02711 21.04066 4.02711
4.02631 21.13278 4.02631
4.02552 21.22484 4.02552
4.02476 21.31684 4.02476
4.02402 21.40878 4.02402
4.02330 21.50065 4.02330
4.02261 21.59247 4.02261
4.02193 21.68423 4.02193
4.02127 21.77593 4.02127
4.02062 21.86757 4.02062
4.02000 21.95917 4.02000
4.01940 22.05071 4.01940
4.01881 22.14220 4.01881

Angle 0.533219 4.309757

4.00000 7.03348 4.00000
4.00000 7.03348 4.00000
4.00000 7.03348 4.00000
4.00000 7.03348 4.00000
4.00000 7.03348 4.00000
4.00000 7.03348 4.00000
4.00000 7.03348 4.00000
4.00000 7.03348 4.00000
4.00000 7.03348 4.00000
4.00000 7.03348 4.00000
4.00000 7.03348 4.00000
4.00000 7.03348 4.00000
4.00000 7.03348 4.00000
4.00000 7.03348 4.00000
4.00000 7.03348 4.00000
4.00000 7.03348 4.00000
4.00000 7.03348 4.00000
4.00000 7.03348 4.00000
4.00000 7.03348 4.00000
4.00000 7.03348 4.00000
4.00000 7.03348 4.00000
4.00000 7.03348 4.00000
4.00000 7.03348 4.00000
4.00000 7.03348 4.00000
4.00000 7.03348 4.00000
4.00000 7.03348 4.00000
4.00000 7.03348 4.00000
4.00000 7.03348 4.00000
4.00000 7.03348 4.00000
4.00000 7.03348 4.00000
4.00000 7.03348 4.00000
4.00000 7.03348 4.00000
4.00000 7.03348 4.00000
4.00000 7.03348 4.00000
4.00000 7.03348 4.00000
4.00000 7.03348 4.00000
4.00000 7.03348 4.00000
4.00000 7.03348 4.00000
4.00000 7.03348 4.00000
4.00000 7.03348 4.00000
4.00000 7.03348 4.00000
4.00000 7.03348 4.00000
4.00000 7.03348 4.00000
4.00000 7.03348 4.00000
4.00000 7.03348 4.00000
4.00000 7.03348 4.00000
4.00000 7.03348 4.00000
4.00000 7.03348 4.00000
4.00000 7.03348 4.00000
4.00000 7.03348 4.00000
4.00000 7.03348 4.00000
4.00000 7.03348 4.00000
4.00000 7.03348 4.00000
4.00000 7.03348 4.00000
4.00000 7.03348 4.00000
4.00000 7.03348 4.00000
4.00000 7.03348 4.00000
4.00000 7.03348 4.00000
4.00000 7.03348 4.00000
4.00000 7.03348 4.00000
4.00000 7.03348 4.00000
4.00000 7.03348 4.00000
4.00000 7.03348 4.00000
4.00000 7.03348 4.00000
4.00000 7.03348 4.00000
4.00000 7.03348 4.00000
4.00000 7.03348 4.00000
4.00000 7.03348 4.00000
4.00000 7.03348 4.00000
4.00000 7.03348 4.00000
4.00000 7.03348 4.00000
4.00000 7.03348 4.00000
4.00000 7.03348 4.00000
4.00000 7.03348 4.00000
4.00000 7.03348 4.00000
4.00000 7.03348 4.00000
4.00000 7.03348 4.00000
4.00000 7.03348 4.00000
4.00000 7.03348 4.00000
4.00000 7.03348 4.00000
4.00000 7.03348 4.00000
4.00000 7.03348 4.00000
4.00000 7.03348 4.00000
4.00000 7.03348 4.00000
4.00000 7.03348 4.00000
4.00000 7.03348 4.00000
4.00000 7.03347 4.00000
4.00000 7.03348 4.00000
4.00000 7.03348 4.00000
4.00000 7.03348 4.00000
4.00000 7.03348 4.00000
4.00000 7.03348 4.00000
4.00000 7.03348 4.00000
4.00000 7.03348 4.00000
4.00000 7.03348 4.00000
4.00000 7.03348 4.00000
4.00000 7.03348 4.00000
4.00000 7.03348 4.00000
4.00000 7.03348 4.00000
4.00000 7.03348 4.00000
4.00000 7.03348 4.00000
4.00000 7.03348 4.00000
4.00000 7.03348 4.00000
4.00000 7.03348 4.00000
4.00000 7.03348 4.00000
4.00000 7.03348 4.00000
4.00000 7.03348 4.00000
4.00000 7.03348 4.00000
4.00000 7.03348 4.00000
4.00000 7.03348 4.00000
4.00000 7.03348 4.00000
4.00000 7.03348 4.00000
4.00000 7.03348 4.00000
4.00000 7.03348 4.00000
4.00000 7.03348 4.00000
4.00000 7.03348 4.00000
4.00000 7.03349 4.00000
4.00000 7.03349 4.00000
4.00000 7.03348 4.00000
4.00000 7.03348 4.00000
4.00000 7.03348 4.00000
4.00000 7.03348 4.00000
4.00000 7.03343 4.00000
4.00000 7.03348 4.00000
4.00000 7.03348 4.00000
4.00000 7.03348 4.00000
4.00000 7.03347 4.00000
4.00000 7.03348 4.00000
4.00000 7.03348 4.00000
4.00000 7.03348 4.00000
4.00000 7.03348 4.00000
4.00000 7.03348 4.00000
4.00000 7.03348 4.00000
4.00000 7.03348 4.00000
4.00000 7.03346 4.00000
4.00000 7.03348 4.00000
4.00000 7.03348 4.00000
4.00000 7.03348 4.00000
4.00000 7.03348 4.00000
4.00000 7.03348 4.00000
4.00000 7.03348 4.00000
4.00000 7.03347 4.00000
4.00000 7.03348 4.00000
4.00000 7.03348 4.00000
4.00000 7.03348 4.00000
4.00000 7.03348 4.00000
4.00000 7.03348 4.00000
4.00000 7.03348 4.00000
4.00000 7.03348 4.00000
4.00000 7.03348 4.00000
4.00000 7.03348 4.00000
4.00000 7.03348 4.00000
4.00000 7.03348 4.00000
4.00000 7.03348 4.00000
4.00000 7.03349 4.00000
4.00000 7.03350 4.00000
4.00000 7.03347 4.00000
4.00000 7.03348 4.00000
4.00000 7.03348 4.00000
4.00000 7.03346 4.00000
4.00053 7.04388 4.00053
4.00404 7.11374 4.00404
4.00747 7.18406 4.00747
4.01082 7.25477 4.01082
4.01410 7.32584 4.01410
4.01734 7.39723 4.01734
4.02053 7.46888 4.02053
4.02369 7.54077 4.02369
4.02683 7.61286 4.02683
4.02997 7.68509 4.02997
4.03311 7.75743 4.03311
4.03626 7.82984 4.03626
4.03945 7.90227 4.03945
4.04268 7.97468 4.04268
4.04597 8.04701 4.04597
4.04934 8.11919 4.04935
4.05281 8.19118 4.05281
4.05640 8.26289 4.05641
4.06014 8.33424 4.06014
4.06406 8.40513 4.06406
4.06819 8.47546 4.06819
4.07259 8.54508 4.07259
4.07729 8.61385 4.07729
4.08236 8.68156 4.08236
4.08778 8.74836 4.08778
4.09351 8.81432 4.09351
4.09956 8.87943 4.09956
4.10593 8.94370 4.10593
4.11263 9.00713 4.11263
4.11966 9.06977 4.11966
4.12699 9.13165 4.12699
4.13461 9.19287 4.13461
4.14248 9.25351 4.14248
4.15057 9.31372 4.15057
4.15882 9.37367 4.15882
4.16716 9.43359 4.16716
4.17548 9.49374 4.17548
4.18368 9.55448 4.18368
4.19160 9.61624 4.19160
4.19905 9.67952 4.19905
4.20580 9.74499 4.20580
4.21158 9.81340 4.21158
4.21604 9.88568 4.21604
4.21883 9.96284 4.21883
4.21957 10.04590 4.21957
4.21829 10.13478 4.21829
4.21625 10.22590 4.21625
4.21363 10.31876 4.21363
4.21041 10.41339 4.21041
4.20656 10.50991 4.20656
4.20202 10.60851 4.20202
4.19669 10.70951 4.19669
4.19041 10.81339 4.19041
4.18293 10.92090 4.18293
4.17388 11.03323 4.17388
4.16258 11.15251 4.16258
4.14764 11.28308 4.14764
4.12529 11.43690 4.12529
4.00000 13.19120 4.00000
4.00000 13.19120 4.00000
4.00000 13.19120 4.00000
4.00000 13.19120 4.00000
4.00000 13.19120 4.00000
4.00000 13.19120 4.00000
4.00000 13.19120 4.00000
4.00000 13.19120 4.00000
4.00000 13.19120 4.00000
4.00000 13.19120 4.00000
4.00000 13.19120 4.00000
4.00000 13.19120 4.00000
4.00000 13.19120 4.00000
4.00000 13.19120 4.00000
4.00000 13.19121 4.00000
4.00484 13.20641 4.00484
4.01727 13.25086 4.01726
4.02842 13.30002 4.02842
4.03814 13.35430 4.03814
4.04628 13.41410 4.04628
4.05267 13.47983 4.05267
4.05717 13.55187 4.05717
4.05979 13.63011 4.05979
4.06195 13.70990 4.06195
4.06405 13.78994 4.06405
4.06609 13.87020 4.06609
4.06808 13.95066 4.06808
4.07003 14.03131 4.07003
4.07194 14.11213 4.07194
4.07381 14.19311 4.07381
4.07564 14.27423 4.07565
4.07745 14.35548 4.07745
4.07923 14.43686 4.07923
4.08099 14.51836 4.08099
4.08272 14.59996 4.08272
4.08444 14.68168 4.08444
4.08613 14.76348 4.08613
4.08780 14.84539 4.08780
4.08946 14.92737 4.08946
4.09110 15.00944 4.09110
4.09273 15.09160 4.09273
4.09418 15.17432 4.09418
4.09537 15.25792 4.09537
4.09631 15.34235 4.09631
4.09700 15.42756 4.09700
4.09747 15.51351 4.09747
4.09773 15.60015 4.09773
4.09779 15.68744 4.09779
4.09767 15.77534 4.09767
4.09738 15.86379 4.09737
4.09692 15.95277 4.09692
4.09632 16.04223 4.09632
4.09559 16.13214 4.09559
4.09474 16.22245 4.09474
4.09378 16.31313 4.09378
4.09272 16.40415 4.09272
4.09157 16.49548 4.09157
4.09034 16.58708 4.09034
4.08905 16.67894 4.08905
4.08769 16.77101 4.08769
4.08627 16.86328 4.08627
4.08482 16.95572 4.08482
4.08332 17.04830 4.08332
4.08179 17.14102 4.08179
4.08024 17.23385 4.08024
4.07867 17.32677 4.07867
4.07708 17.41976 4.07708
4.07548 17.51281 4.07548
4.07387 17.60591 4.07387
4.07227 17.69904 4.07227
4.07066 17.79220 4.07066
4.06906 17.88536 4.06906
4.06747 17.97852 4.06747
4.06589 18.07168 4.06589
4.06432 18.16482 4.06432
4.06276 18.25793 4.06276
4.06123 18.35101 4.06123
4.05971 18.44406 4.05971
4.05821 18.53707 4.05821
4.05673 18.63003 4.05673
4.05528 18.72294 4.05528
4.05385 18.81579 4.05385
4.05244 18.90859 4.05244
4.05106 19.00133 4.05106
4.04970 19.09401 4.04970
4.04837 19.18662 4.04837
4.04707 19.27917 4.04707
4.04579 19.37165 4.04579
4.04454 19.46406 4.04454
4.04332 19.55641 4.04332
4.04212 19.64868 4.04212
4.04095 19.74089 4.04095
4.03981 19.83303 4.03981
4.03869 19.92509 4.03869
4.03760 20.01709 4.03760
4.03653 20.10902 4.03653
4.03549 20.20088 4.03549
4.03448 20.29268 4.03448
4.03349 20.38440 4.03349
4.03253 20.47606 4.03253
4.03159 20.56766 4.03159
4.03068 20.65919 4.03068
4.02979 20.75066 4.02979
4.02892 20.84207 4.02892
4.02807 20.93341 4.02807
4.02725 21.02470 4.02725
4.02645 21.11592 4.02645
4.02567 21.20709 4.02567
4.02491 21.29821 4.02491
4.02418 21.38926 4.02418
4.02346 21.48027 4.02346
4.02276 21.57122 4.02276
4.02209 21.66212 4.02209
4.02143 21.75297 4.02143
4.02079 21.84377 4.02079
4.02017 21.93452 4.02017
4.01956 22.02523 4.01956
4.01898 22.11589 4.01898
4.01840 22.20651 4.01841
4.01785 22.29708 4.01785
4.01731 22.38762 4.01731
4.01679 22.47811 4.01679
4.01628 22.56857 4.01628
4.01579 22.65899 4.01579
4.01531 22.74937 4.01531
4.01485 22.83971 4.01485
4.01440 22.93002 4.01440
4.01396 23.02030 4.01396
4.01353 23.11054 4.01353
4.01312 23.20076 4.01312
4.01272 23.29094 4.01272
4.01233 23.38109 4.01233
4.01196 23.47122 4.01196
4.01159 23.56132 4.01159
4.01124 23.65139 4.01124
4.01089 23.74144 4.01089
4.01056 23.83146 4.01056
4.01023 23.92146 4.01023
4.00992 24.01143 4.00992
4.00961 24.10138 4.00961
4.00932 24.19132 4.00932
4.00903 24.28123 4.00903
4.00875 24.37112 4.00875
4.00848 24.46099 4.00848
4.00822 24.55084 4.00822
4.00797 24.64068 4.00797
4.00772 24.73050 4.00772
4.00749 24.82031 4.00749
4.00725 24.91009 4.00725
4.00703 24.99987 4.00703
4.00681 25.08963 4.00681
4.00660 25.17937 4.00660
4.00640 25.26910 4.00640
4.00620 25.35882 4.00620
4.00601 25.44853 4.00601
4.00582 25.53823 4.00582
4.00564 25.62791 4.00564
4.00547 25.71759 4.00547
4.00530 25.80725 4.00530
4.00513 25.89691 4.00513
4.00497 25.98656 4.00497
4.00482 26.07620 4.00482
4.00467 26.16583 4.00467
4.00452 26.25545 4.00452
4.00438 26.34506 4.00438
4.00425 26.43467 4.00425
4.00411 26.52427 4.00411
4.00399 26.61387 4.00399
4.00386 26.70346 4.00386
4.00374 26.79304 4.00374
4.00362 26.88262 4.00363
4.00351 26.97219 4.00351
4.00340 27.06176 4.00340
4.00330 27.15133 4.00330
4.00319 27.24089 4.00319
4.00309 27.33045 4.00310
4.00300 27.42000 4.00300
4.00290 27.50955 4.00291
4.00281 27.59911 4.00281
4.00272 27.68865 4.00272
4.00264 27.77819 4.00264
4.00256 27.86773 4.00256

