0.3633
0.3437
0.3400
0.3554
0.3776
0.3967
0.4099
0.4069
0.3666
0.3557
0.3492
0.3438
0.3390
0.3347
0.3307
0.3271
0.3237
0.3210
0.3191
0.3173
0.3162
0.3167
0.3269
0.3480
0.3297
0.3090
0.2914
0.2827
0.2870
0.3011
0.3186
0.3351
0.3257
0.3226
0.3216
0.3200
0.3185
0.3166
0.3151
0.3138
0.3128
0.3119
0.3116
0.3114
0.3115
0.3119
0.3124
0.3132
0.3141
0.3152
0.3164
0.3177
0.3191
0.3206
0.3221
0.3237
0.3253
0.3270
0.3288
0.3308
0.3329
0.3353
0.3378
0.3404
0.3433
0.3463
0.3496
0.3530
0.3567
0.3607
0.3644
0.3683
0.3720
0.3754
0.3785
0.3815
0.3844
0.3871
0.3895
0.3912
0.3916
0.3943
0.3984
0.4025
0.4067
0.4110
0.4153
0.4197
0.4241
0.4285
0.4331
0.4376
0.4422
0.4469
0.4516
0.4564
0.4612
0.4661
0.4709
0.4759
0.4808
0.4858
0.4908
0.4958
0.5008
0.5059
0.5110
0.5163
0.5218
0.5275
0.5331
0.5389
0.5448
0.5509
0.5571
0.5636
0.5702
0.5770
0.5838
0.5907
0.5977
0.6047
0.6117
0.6186
0.6256
0.6326
0.6396
0.6466
0.6526
0.6586
0.6648
0.6716
0.6823
0.6944
0.6991
0.7075
0.7160
0.7247
0.7421
0.7504
0.7587
0.7669
0.7736
0.7806
0.7870
0.7932
0.7999
0.8056
0.8100
0.8144
0.8187
0.8218
0.8246
0.8292
0.8338
0.8384
0.8430
0.8476
0.8522
0.8568
0.8615
0.8662
0.8710
0.8762
0.8816
0.8877
0.8955
0.9047
0.9066
0.9079
0.9092
0.9103
0.9114
0.9127
0.9145
0.9166
0.9187
0.9200
0.9211
0.9222
0.9231
0.9238
0.9243
0.9248
0.9252
0.9254
0.9255
0.9254
0.9251
0.9245
0.9235
0.9208
0.9215
0.9223
0.9231
0.9238
0.9129
0.9143
0.9157
0.9172
0.9186
0.9081
0.9103
0.9349
0.9366
0.9301
0.9325
0.9347
0.9367
0.9387
0.9411
0.9425
0.9435
0.9442
0.9449
0.9458
0.9454
0.9442
0.9408
0.9390
0.9395
0.9400
0.9406
0.9411
0.9416
0.9421
0.9554
0.9556
0.9558
0.9559
0.9560
0.9502
0.9507
0.9511
0.9514
0.9517
0.9518
0.9518
0.9515
0.9507
0.9479
0.9483
0.9492
0.9501
0.9505
0.9510
0.9514
0.9518
0.9597
0.9600
0.9603
0.9605
0.9607
0.9609
0.9611
0.9612
0.9612
0.9612
0.9611
0.9609
0.9604
0.9594
0.9571
0.9574
0.9577
0.9581
0.9584
0.9587
0.9590
0.9593
0.9596
0.9599
0.9602
0.9605
0.9607
0.9610
0.9613
0.9616
0.9619
0.9621
0.9624
0.9627
0.9629
0.9632
0.9634
0.9637
0.9640
0.9642
0.9645
0.9647
0.9649
0.9652
0.9654
0.9657
0.9659
0.9661
0.9664
0.9666
0.9668
0.9670
0.9672
0.9675
0.9677
0.9679
0.9681
0.9683
0.9685
0.9687
0.9689
0.9691
0.9693
0.9695
0.9697
0.9699
0.9701
0.9703
0.9705
0.9707
0.9709
0.9710
0.9712
0.9714
0.9716
0.9718
0.9719
0.9721
0.9723
0.9725
0.9726
0.9728
0.9730
0.9731
0.9733
0.9734
0.9736
0.9738
0.9739
0.9741
0.9742
0.9744
0.9745
0.9747
0.9748
0.9750
0.9751
0.9753
0.9754
0.9756
0.9757
0.9758
0.9760
0.9761
0.9763
0.9764
0.9765
0.9767
0.9768
0.9769
0.9771
0.9772
0.9773
0.9774
0.9776
0.9777
0.9778
0.9779
0.9781
0.9782
0.9783
0.9784
0.9785
0.9787
0.9788
0.9789
0.9790
0.9791
0.9792
0.9793
0.9794
0.9796
0.9797
0.9798
0.9799
0.9800
0.9801
0.9802
0.9803
0.9804
0.9805
0.9806
0.9807
0.9808
0.9809
0.9810
0.9811
0.9812
0.9813
0.9814
0.9815
0.9816
