0.3815
0.3844
0.3872
0.3899
0.3926
0.3953
0.3980
0.4004
0.4027
0.4050
0.4073
0.4096
0.4119
0.4142
0.4167
0.4193
0.4219
0.4245
0.4271
0.4298
0.4325
0.4352
0.4379
0.4408
0.4436
0.4465
0.4497
0.4529
0.4561
0.4592
0.4621
0.4647
0.4672
0.4695
0.4716
0.4737
0.4758
0.4779
0.4803
0.4835
0.4850
0.4856
0.4862
0.4868
0.4875
0.4881
0.4888
0.4894
0.4901
0.4906
0.4912
0.4917
0.4923
0.4930
0.4937
0.4946
0.4955
0.4964
0.4973
0.4982
0.4991
0.5000
0.5009
0.5019
0.5029
0.5040
0.5050
0.5060
0.5070
0.5081
0.5090
0.5100
0.5110
0.5120
0.5129
0.5139
0.5149
0.5158
0.5168
0.5178
0.5189
0.5199
0.5211
0.5222
0.5235
0.5247
0.5261
0.5275
0.5290
0.5306
0.5322
0.5340
0.5358
0.5377
0.5386
0.5409
0.5434
0.5460
0.5487
0.5514
0.5543
0.5572
0.5601
0.5632
0.5663
0.5695
0.5727
0.5759
0.5784
0.5820
0.5857
0.5895
0.5935
0.5977
0.6021
0.6066
0.6114
0.6164
0.6217
0.6274
0.6336
0.6405
0.6483
0.6596
0.6668
0.6719
0.6734
0.6748
0.6762
0.6776
0.6789
0.6802
0.6816
0.6830
0.6843
0.6857
0.6870
0.6882
0.6894
0.6903
0.6909
0.6906
0.6904
0.6928
0.6950
0.6972
0.6998
0.7020
0.7018
0.7052
0.7094
0.7081
0.7075
0.7066
0.7090
0.7128
0.7167
0.7205
0.7244
0.7283
0.7322
0.7361
0.7400
0.7440
0.7479
0.7519
0.7559
0.7599
0.7639
0.7679
0.7718
0.7757
0.7796
0.7835
0.7874
0.7912
0.7951
0.7991
0.8030
0.8071
0.7908
0.7961
0.8016
0.8073
0.8135
0.8329
0.8401
0.8524
0.8552
0.8577
0.8602
0.8627
0.8652
0.8680
0.8715
0.8747
0.8753
0.8756
0.8755
0.8834
0.8824
0.8835
0.8846
0.8857
0.8868
0.8878
0.8887
0.8896
0.8904
0.8911
0.8917
0.8920
0.8920
0.8896
0.9073
0.9079
0.9256
0.9257
0.9256
0.9255
0.9253
0.9226
0.9219
0.9211
0.9201
0.9188
0.9173
0.9152
0.9127
0.9098
0.9080
0.9057
0.9070
0.9088
0.9097
0.9107
0.9116
0.9125
0.9133
0.9142
0.9150
0.9157
0.9165
0.9173
0.9263
0.9268
0.9273
0.9278
0.9282
0.9286
0.9290
0.9292
0.9294
0.9295
0.9296
0.9295
0.9294
0.9291
0.9285
0.9279
0.9285
0.9291
0.9297
0.9303
0.9308
0.9314
0.9319
0.9325
0.9330
0.9335
0.9341
0.9346
0.9351
0.9356
0.9361
0.9366
0.9371
0.9376
0.9381
0.9385
0.9390
0.9395
0.9399
0.9404
0.9408
0.9413
0.9417
0.9421
0.9426
0.9430
0.9434
0.9438
0.9442
0.9446
0.9450
0.9454
0.9458
0.9462
0.9466
0.9470
0.9473
0.9477
0.9481
0.9484
0.9488
0.9491
0.9495
0.9498
0.9502
0.9505
0.9509
0.9512
0.9515
0.9518
0.9522
0.9525
0.9528
0.9531
0.9534
0.9537
0.9540
0.9543
0.9546
0.9549
0.9552
0.9555
0.9558
0.9561
0.9563
0.9566
0.9569
0.9572
0.9574
0.9577
0.9580
0.9582
0.9585
0.9587
0.9590
0.9592
0.9595
0.9597
0.9600
0.9602
0.9605
0.9607
0.9609
0.9612
0.9614
0.9616
0.9619
0.9621
0.9623
0.9625
0.9628
0.9630
0.9632
0.9634
0.9636
0.9638
0.9641
0.9643
0.9645
0.9647
0.9649
0.9651
0.9653
0.9655
0.9657
0.9659
0.9661
0.9662
0.9664
0.9666
0.9668
0.9670
0.9672
0.9674
0.9675
0.9677
0.9679
0.9681
0.9682
0.9684
0.9686
0.9688
0.9689
0.9691
0.9693
0.9694
0.9696
0.9698
0.9699
0.9701
0.9702
0.9704
0.9705
0.9707
0.9709
0.9710
