0.5370
0.5424
0.5477
0.5528
0.5579
0.5629
0.5679
0.5729
0.5779
0.5829
0.5880
0.5933
0.5984
0.6036
0.6088
0.6139
0.6190
0.6240
0.6289
0.6338
0.6387
0.6434
0.6481
0.6528
0.6573
0.6618
0.6663
0.6706
0.6749
0.6790
0.6831
0.6872
0.6912
0.6956
0.6998
0.7040
0.7082
0.7125
0.7171
0.7233
0.7267
0.7293
0.7317
0.7337
0.7354
0.7367
0.7377
0.7384
0.7389
0.7393
0.7406
0.7407
0.7407
0.7406
0.7403
0.7399
0.7394
0.7387
0.7379
0.7370
0.7359
0.7345
0.7329
0.7310
0.7284
0.7268
0.7251
0.7232
0.7209
0.7175
0.7149
0.7138
0.7126
0.7114
0.7103
0.7091
0.7079
0.7067
0.7056
0.7044
0.7032
0.7021
0.7009
0.6998
0.6986
0.6974
0.6962
0.6949
0.6936
0.6921
0.6902
0.6880
0.6852
0.6816
0.6793
0.6788
0.6782
0.6777
0.6771
0.6765
0.6758
0.6750
0.6741
0.6730
0.6717
0.6699
0.6675
0.6633
0.6564
0.6580
0.6597
0.6614
0.6632
0.6651
0.6670
0.6690
0.6711
0.6732
0.6754
0.6776
0.6800
0.6824
0.6849
0.6874
0.6901
0.6971
0.6999
0.7028
0.7057
0.7087
0.7231
0.7255
0.7280
0.7306
0.7332
0.7358
0.7383
0.7409
0.7431
0.7444
0.7479
0.7515
0.7553
0.7593
0.7634
0.7678
0.7723
0.7772
0.7813
0.7871
0.7936
0.8009
0.8177
0.8213
0.8256
0.8303
0.8354
0.8413
0.8492
0.8585
0.8596
0.8605
0.8612
0.8615
0.8615
0.8602
0.8608
0.8619
0.8629
0.8637
0.8644
0.8648
0.8648
0.8844
0.8787
0.8793
0.8799
0.8805
0.8811
0.8815
0.8820
0.8823
0.8825
0.8827
0.8827
0.8825
0.8820
0.8810
0.8786
0.8764
0.8774
0.8785
0.8795
0.8805
0.8815
0.8825
0.8835
0.8844
0.8854
0.8864
0.8873
0.8882
0.8891
0.8900
0.8909
0.8918
0.8927
0.8936
0.8944
0.8953
0.9058
0.9064
0.9071
0.9077
0.9082
0.9088
0.9093
0.9097
0.9101
0.9104
0.9106
0.9282
0.9276
0.9267
0.9245
0.9231
0.9232
0.9232
0.9232
0.9232
0.9230
0.9290
0.9285
0.9278
0.9268
0.9251
0.9208
0.9212
0.9217
0.9220
0.9223
0.9225
0.9226
0.9224
0.9214
0.9203
0.9209
0.9214
0.9220
0.9225
0.9231
0.9236
0.9241
0.9246
0.9252
0.9257
0.9262
0.9267
0.9272
0.9277
0.9282
0.9286
0.9291
0.9296
0.9301
0.9305
0.9310
0.9315
0.9319
0.9324
0.9328
0.9332
0.9337
0.9341
0.9345
0.9350
0.9354
0.9358
0.9362
0.9366
0.9370
0.9374
0.9378
0.9382
0.9386
0.9390
0.9394
0.9397
0.9401
0.9405
0.9409
0.9412
0.9416
0.9419
0.9423
0.9426
0.9430
0.9433
0.9437
0.9440
0.9444
0.9447
0.9450
0.9453
0.9457
0.9460
0.9463
0.9466
0.9469
0.9473
0.9476
0.9479
0.9482
0.9485
0.9488
0.9491
0.9494
0.9496
0.9499
0.9502
0.9505
0.9508
0.9511
0.9513
0.9516
0.9519
0.9522
0.9524
0.9527
0.9529
0.9532
0.9535
0.9537
0.9540
0.9542
0.9545
0.9547
0.9550
0.9552
0.9555
0.9557
0.9559
0.9562
0.9564
0.9566
0.9569
0.9571
0.9573
0.9575
0.9578
0.9580
0.9582
0.9584
0.9587
0.9589
0.9591
0.9593
0.9595
0.9597
0.9599
0.9601
0.9603
0.9605
0.9607
0.9609
0.9611
0.9613
0.9615
0.9617
0.9619
0.9621
0.9623
0.9625
0.9627
0.9628
0.9630
0.9632
0.9634
0.9636
0.9638
0.9639
0.9641
0.9643
0.9644
0.9646
0.9648
0.9650
0.9651
0.9653
0.9655
0.9656
0.9658
0.9659
0.9661
0.9663
0.9664
0.9666
0.9668
0.9669
0.9671
