0.4192
0.4234
0.4276
0.4316
0.4355
0.4393
0.4431
0.4466
0.4502
0.4536
0.4571
0.4605
0.4640
0.4676
0.4713
0.4753
0.4799
0.4854
0.4870
0.4885
0.4901
0.4916
0.4930
0.4944
0.4957
0.4970
0.4982
0.4994
0.5005
0.5016
0.5025
0.5034
0.5042
0.5053
0.5064
0.5075
0.5086
0.5097
0.5108
0.5119
0.5129
0.5140
0.5150
0.5160
0.5170
0.5178
0.5186
0.5194
0.5199
0.5200
0.5188
0.5203
0.5217
0.5232
0.5246
0.5259
0.5273
0.5287
0.5300
0.5312
0.5324
0.5336
0.5347
0.5358
0.5367
0.5377
0.5385
0.5394
0.5401
0.5408
0.5413
0.5416
0.5415
0.5408
0.5621
0.5640
0.5664
0.5689
0.5714
0.5739
0.5766
0.5966
0.5988
0.6009
0.6030
0.6051
0.6071
0.6090
0.6107
0.6120
0.6126
0.6109
0.6143
0.6176
0.6206
0.6231
0.6248
0.6297
0.6349
0.6402
0.6457
0.6513
0.6571
0.6631
0.6692
0.6756
0.6854
0.6921
0.6989
0.7061
0.7114
0.7160
0.7205
0.7250
0.7293
0.7336
0.7378
0.7418
0.7456
0.7485
0.7517
0.7558
0.7599
0.7640
0.7680
0.7719
0.7758
0.7797
0.7835
0.7873
0.7910
0.7946
0.7982
0.8018
0.8054
0.8091
0.8123
0.8144
0.8162
0.8178
0.8191
0.8201
0.8205
0.8184
0.8182
0.8194
0.8203
0.8210
0.8215
0.8224
0.8233
0.8240
0.8248
0.8254
0.8259
0.8268
0.8541
0.8542
0.8541
0.8541
0.8540
0.8538
0.8535
0.8535
0.8531
0.8523
0.8517
0.8606
0.8598
0.8588
0.8577
0.8560
0.8532
0.8483
0.8488
0.8492
0.8496
0.8497
0.8498
0.8497
0.8489
0.8468
0.8474
0.8485
0.8490
0.8495
0.8501
0.8508
0.8515
0.8522
0.8527
0.8533
0.8536
0.8541
0.8544
0.8546
0.8548
0.8538
0.8529
0.8527
0.8549
0.8567
0.8584
0.8602
0.8618
0.8634
0.8650
0.8665
0.8680
0.8693
0.8705
0.8716
0.8721
0.8720
0.8735
0.8748
0.8762
0.8775
0.8788
0.8801
0.8814
0.8827
0.8839
0.8851
0.8863
0.8875
0.8886
0.8898
0.8909
0.8920
0.8930
0.8941
0.8951
0.8962
0.8972
0.8981
0.8991
0.9000
0.9010
0.9019
0.9028
0.9037
0.9045
0.9054
0.9062
0.9071
0.9079
0.9087
0.9095
0.9103
0.9111
0.9118
0.9126
0.9134
0.9113
0.9122
0.9130
0.9139
0.9148
0.9156
0.9165
0.9174
0.9184
0.9193
0.9204
0.9214
0.9227
0.9243
0.9242
0.9279
0.9284
0.9289
0.9294
0.9298
0.9302
0.9306
0.9310
0.9313
0.9316
0.9317
0.9314
0.9310
0.9316
0.9322
0.9328
0.9334
0.9339
0.9345
0.9350
0.9354
0.9359
0.9364
0.9368
0.9373
0.9377
0.9382
0.9386
0.9391
0.9395
0.9399
0.9403
0.9407
0.9411
0.9415
0.9419
0.9423
0.9427
0.9431
0.9435
0.9438
0.9442
0.9446
0.9450
0.9453
0.9457
0.9460
0.9464
0.9467
0.9471
0.9474
0.9477
0.9480
0.9484
0.9487
0.9490
0.9493
0.9496
0.9500
0.9503
0.9506
0.9509
0.9512
0.9514
0.9517
0.9520
0.9523
0.9526
0.9529
0.9531
0.9534
0.9537
0.9540
0.9542
0.9545
0.9547
0.9550
0.9552
0.9555
0.9557
0.9560
0.9562
0.9564
0.9567
0.9569
0.9571
0.9574
0.9576
0.9578
0.9580
0.9583
0.9585
0.9587
0.9589
0.9591
0.9593
0.9596
0.9598
0.9600
0.9602
0.9604
0.9606
0.9608
0.9610
0.9612
0.9614
0.9616
0.9617
0.9619
0.9621
0.9623
0.9625
0.9627
0.9629
0.9631
0.9632
0.9634
0.9636
0.9638
0.9639
0.9641
0.9643
0.9645
0.9646
0.9648
0.9650
0.9651
0.9653
0.9655
0.9656
0.9658
