0.5054
0.5069
0.5083
0.5099
0.5116
0.5133
0.5150
0.5170
0.5190
0.5211
0.5233
0.5255
0.5277
0.5301
0.5325
0.5349
0.5374
0.5400
0.5426
0.5452
0.5478
0.5506
0.5534
0.5562
0.5589
0.5616
0.5641
0.5665
0.5686
0.5704
0.5718
0.5725
0.5727
0.5736
0.5745
0.5753
0.5761
0.5766
0.5771
0.5776
0.5778
0.5779
0.5776
0.5771
0.5762
0.5751
0.5737
0.5722
0.5707
0.5692
0.5678
0.5665
0.5653
0.5642
0.5633
0.5625
0.5620
0.5617
0.5616
0.5617
0.5620
0.5626
0.5634
0.5644
0.5656
0.5670
0.5686
0.5705
0.5726
0.5743
0.5753
0.5766
0.5775
0.5780
0.5779
0.5751
0.5733
0.5762
0.5791
0.5822
0.5854
0.5889
0.5925
0.5963
0.6004
0.6048
0.6097
0.6153
0.6186
0.6221
0.6255
0.6290
0.6325
0.6360
0.6394
0.6427
0.6461
0.6494
0.6529
0.6563
0.6599
0.6635
0.6668
0.6703
0.6736
0.6771
0.6805
0.6842
0.6879
0.6917
0.6956
0.6970
0.7019
0.7072
0.7132
0.7198
0.7231
0.7265
0.7300
0.7335
0.7371
0.7408
0.7451
0.7500
0.7555
0.7570
0.7592
0.7612
0.7632
0.7652
0.7624
0.7645
0.7665
0.7766
0.7784
0.7803
0.7821
0.7840
0.7859
0.7877
0.7896
0.7914
0.7933
0.8002
0.8022
0.8021
0.8026
0.8013
0.8031
0.8077
0.8064
0.8087
0.8109
0.8131
0.8151
0.8169
0.8184
0.8183
0.8208
0.8234
0.8259
0.8285
0.8311
0.8336
0.8361
0.8386
0.8411
0.8435
0.8459
0.8482
0.8504
0.8526
0.8546
0.8562
0.8566
0.8588
0.8622
0.8656
0.8692
0.8728
0.8798
0.8832
0.8865
0.8897
0.9106
0.9131
0.9158
0.9198
0.9220
0.9220
0.9219
0.9217
0.9212
0.9204
0.9182
0.9178
0.9174
0.9168
0.9160
0.9147
0.9131
0.9138
0.9146
0.9153
0.9161
0.9168
0.9175
0.9182
0.9189
0.9196
0.9203
0.9209
0.9216
0.9222
0.9229
0.9426
0.9427
0.9428
0.9428
0.9428
0.9428
0.9427
0.9425
0.9423
0.9419
0.9415
0.9408
0.9400
0.9388
0.9370
0.9282
0.9281
0.9288
0.9295
0.9302
0.9310
0.9318
0.9325
0.9334
0.9342
0.9351
0.9362
0.9339
0.9355
0.9373
0.9367
0.9373
0.9379
0.9385
0.9391
0.9397
0.9404
0.9410
0.9418
0.9426
0.9436
0.9444
0.9450
0.9453
0.9457
0.9461
0.9465
0.9469
0.9473
0.9476
0.9480
0.9484
0.9487
0.9491
0.9495
0.9498
0.9502
0.9505
0.9508
0.9512
0.9515
0.9518
0.9522
0.9525
0.9528
0.9531
0.9535
0.9538
0.9541
0.9544
0.9547
0.9550
0.9553
0.9556
0.9559
0.9562
0.9564
0.9567
0.9570
0.9573
0.9576
0.9578
0.9581
0.9584
0.9586
0.9589
0.9592
0.9594
0.9597
0.9599
0.9602
0.9604
0.9607
0.9609
0.9612
0.9614
0.9616
0.9619
0.9621
0.9623
0.9626
0.9628
0.9630
0.9632
0.9635
0.9637
0.9639
0.9641
0.9643
0.9645
0.9648
0.9650
0.9652
0.9654
0.9656
0.9658
0.9660
0.9662
0.9664
0.9666
0.9668
0.9669
0.9671
0.9673
0.9675
0.9677
0.9679
0.9681
0.9682
0.9684
0.9686
0.9688
0.9689
0.9691
0.9693
0.9695
0.9696
0.9698
0.9700
0.9701
0.9703
0.9705
0.9706
0.9708
0.9709
0.9711
0.9712
0.9714
0.9716
0.9717
0.9719
0.9720
0.9722
0.9723
0.9724
0.9726
0.9727
0.9729
0.9730
0.9732
0.9733
0.9734
0.9736
0.9737
0.9738
0.9740
0.9741
0.9742
0.9744
0.9745
0.9746
0.9748
0.9749
0.9750
0.9751
0.9753
0.9754
0.9755
0.9756
0.9758
0.9759
0.9760
0.9761
0.9762
0.9763
