0.6112
0.6100
0.6086
0.6069
0.6046
0.6011
0.5952
0.5943
0.5936
0.5934
0.5930
0.5926
0.5924
0.5922
0.5921
0.5922
0.5923
0.5925
0.5927
0.5930
0.5934
0.5938
0.5941
0.5945
0.5949
0.5954
0.5959
0.5964
0.5970
0.5975
0.5982
0.5988
0.5994
0.6000
0.6008
0.6015
0.6023
0.6031
0.6039
0.6047
0.6055
0.6064
0.6071
0.6078
0.6082
0.6084
0.6083
0.6080
0.6074
0.6067
0.6059
0.6048
0.6038
0.6032
0.6030
0.6036
0.6160
0.6263
0.6553
0.6731
0.6622
0.6459
0.6205
0.5848
0.5694
0.5811
0.6126
0.6365
0.6498
0.6562
0.6505
0.6077
0.5981
0.5931
0.5892
0.5857
0.5823
0.5785
0.5734
0.5693
0.5671
0.5649
0.5629
0.5611
0.5595
0.5582
0.5572
0.5564
0.5559
0.5555
0.5552
0.5551
0.5551
0.5552
0.5554
0.5557
0.5561
0.5566
0.5571
0.5578
0.5585
0.5593
0.5601
0.5611
0.5621
0.5632
0.5644
0.5658
0.5672
0.5688
0.5705
0.5723
0.5743
0.5763
0.5786
0.5809
0.5833
0.5859
0.5886
0.5915
0.5946
0.5978
0.6013
0.6051
0.6091
0.6135
0.6184
0.6241
0.6316
0.6357
0.6382
0.6409
0.6436
0.6464
0.6494
0.6524
0.6551
0.6573
0.6586
0.6625
0.6709
0.6737
0.6648
0.6247
0.5912
0.5783
0.5708
0.5708
0.5799
0.5953
0.6141
0.6075
0.6089
0.6105
0.6128
0.6149
0.6176
0.6208
0.6261
0.6285
0.6314
0.6341
0.6370
0.6400
0.6432
0.6464
0.6497
0.6532
0.6569
0.6608
0.6648
0.6690
0.6733
0.6776
0.6819
0.6862
0.6906
0.6949
0.6993
0.7038
0.7084
0.7131
0.7179
0.7230
0.7285
0.7351
0.7418
0.7555
0.7586
0.7619
0.7653
0.7688
0.7722
0.7756
0.7790
0.7823
0.7854
0.7884
0.7911
0.7935
0.7953
0.7956
0.7991
0.8025
0.8060
0.8094
0.8129
0.8165
0.8201
0.8238
0.8276
0.8314
0.8355
0.8358
0.8401
0.8445
0.8491
0.8542
0.8598
0.8672
0.8748
0.8762
0.8777
0.8792
0.8806
0.8819
0.8828
0.8839
0.8851
0.8862
0.8874
0.8885
0.8897
0.8909
0.8920
0.8932
0.8944
0.8956
0.8968
0.8980
0.8993
0.9030
0.9043
0.9057
0.9070
0.9084
0.9097
0.9110
0.9123
0.9136
0.9148
0.9160
0.9171
0.9181
0.9187
0.9185
0.9198
0.9212
0.9225
0.9239
0.9253
0.9267
0.9281
0.9295
0.9309
0.9323
0.9338
0.9352
0.9303
0.9322
0.9342
0.9361
0.9381
0.9401
0.9422
0.9442
0.9463
0.9565
0.9585
0.9604
0.9624
0.9641
0.9655
0.9669
0.9682
0.9695
0.9707
0.9719
0.9729
0.9737
0.9738
0.9731
0.9748
0.9764
0.9782
0.9800
0.9811
0.9812
0.9813
0.9814
0.9816
0.9817
0.9818
0.9819
0.9821
0.9822
0.9823
0.9824
0.9825
0.9826
0.9828
0.9829
0.9830
0.9831
0.9832
0.9833
0.9834
0.9835
0.9836
0.9837
0.9838
0.9839
0.9840
0.9841
0.9842
0.9843
0.9844
0.9845
0.9846
0.9847
0.9848
0.9849
0.9849
0.9850
0.9851
0.9852
0.9853
0.9854
0.9855
0.9856
0.9857
0.9857
0.9858
0.9859
0.9860
0.9861
0.9862
0.9863
0.9863
0.9864
0.9862
0.9863
0.9864
0.9865
0.9866
0.9866
0.9867
0.9868
0.9869
0.9870
0.9870
0.9871
0.9872
0.9873
0.9875
0.9876
0.9877
0.9877
0.9878
0.9879
0.9879
0.9880
0.9881
0.9881
0.9882
0.9883
0.9883
0.9884
0.9884
0.9885
0.9886
0.9886
0.9887
0.9887
0.9888
0.9889
0.9889
0.9890
0.9890
0.9891
0.9891
0.9892
0.9892
0.9893
0.9894
0.9894
0.9895
0.9895
0.9896
0.9896
