0.6903
0.6909
0.6914
0.6919
0.6925
0.6930
0.6935
0.6939
0.6943
0.6946
0.6949
0.6952
0.6953
0.6955
0.6955
0.6954
0.6952
0.6950
0.6945
0.6937
0.6927
0.6903
0.6881
0.6858
0.6828
0.6799
0.6980
0.7049
0.7060
0.7072
0.7085
0.7100
0.7115
0.7128
0.7145
0.7150
0.7154
0.7151
0.7161
0.7136
0.7109
0.7076
0.7073
0.7068
0.7065
0.7059
0.7053
0.7047
0.7039
0.7030
0.7021
0.7015
0.7006
0.6998
0.6989
0.6983
0.6976
0.6967
0.6965
0.6958
0.6897
0.6846
0.6755
0.6732
0.6700
0.6669
0.6638
0.6609
0.6582
0.6557
0.6535
0.6515
0.6498
0.6483
0.6472
0.6463
0.6456
0.6452
0.6451
0.6452
0.6455
0.6460
0.6467
0.6475
0.6485
0.6495
0.6507
0.6519
0.6531
0.6542
0.6554
0.6563
0.6572
0.6578
0.6582
0.6583
0.6581
0.6575
0.6650
0.6632
0.6610
0.6589
0.6567
0.6797
0.6760
0.6720
0.6676
0.6630
0.6581
0.6531
0.6478
0.6422
0.6347
0.6305
0.6263
0.6223
0.6251
0.6210
0.6168
0.6119
0.6046
0.6032
0.6020
0.6009
0.6163
0.6151
0.6140
0.6129
0.6118
0.6104
0.6074
0.6073
0.6073
0.6072
0.6072
0.6072
0.6070
0.6066
0.6056
0.6045
0.6062
0.6079
0.6097
0.6116
0.6135
0.6156
0.6176
0.6198
0.6220
0.6242
0.6264
0.6288
0.6311
0.6335
0.6359
0.6384
0.6409
0.6435
0.6462
0.6488
0.6516
0.6544
0.6573
0.6602
0.6631
0.6662
0.6692
0.6724
0.6755
0.6787
0.6819
0.6852
0.6885
0.6919
0.6953
0.6987
0.7022
0.7058
0.7093
0.7128
0.7164
0.7202
0.7243
0.7283
0.7323
0.7362
0.7402
0.7441
0.7481
0.7520
0.7557
0.7615
0.7700
0.7734
0.7778
0.7822
0.7864
0.7904
0.7944
0.7982
0.8019
0.8057
0.8098
0.8148
0.8194
0.8214
0.8234
0.8254
0.8274
0.8294
0.8315
0.8335
0.8355
0.8376
0.8396
0.8417
0.8438
0.8459
0.8480
0.8501
0.8522
0.8543
0.8565
0.8586
0.8608
0.8630
0.8652
0.8674
0.8696
0.8719
0.8741
0.8764
0.8787
0.8810
0.8833
0.8857
0.8808
0.8837
0.8866
0.8896
0.8926
0.8957
0.8988
0.9019
0.9051
0.9084
0.9118
0.9153
0.9190
0.9227
0.9265
0.9315
0.9335
0.9340
0.9345
0.9350
0.9355
0.9359
0.9219
0.9439
0.9445
0.9452
0.9458
0.9464
0.9470
0.9475
0.9481
0.9486
0.9491
0.9496
0.9500
0.9502
0.9509
0.9493
0.9452
0.9438
0.9442
0.9445
0.9449
0.9453
0.9457
0.9460
0.9464
0.9468
0.9471
0.9475
0.9478
0.9482
0.9485
0.9488
0.9492
0.9495
0.9498
0.9502
0.9505
0.9508
0.9512
0.9515
0.9518
0.9521
0.9524
0.9527
0.9530
0.9533
0.9536
0.9539
0.9407
0.9418
0.9429
0.9440
0.9451
0.9463
0.9476
0.9490
0.9504
0.9519
0.9531
0.9542
0.9552
0.9564
0.9580
0.9583
0.9585
0.9588
0.9590
0.9593
0.9595
0.9598
0.9600
0.9602
0.9605
0.9607
0.9609
0.9611
0.9614
0.9616
0.9618
0.9620
0.9623
0.9625
0.9627
0.9629
0.9631
0.9633
0.9635
0.9637
0.9639
0.9641
0.9643
0.9645
0.9647
0.9649
0.9651
0.9653
0.9655
0.9657
0.9659
0.9660
0.9662
0.9664
0.9666
0.9668
0.9669
0.9671
0.9673
0.9675
0.9676
0.9678
0.9680
0.9681
0.9683
0.9685
0.9686
0.9688
0.9690
0.9691
0.9693
0.9694
0.9696
0.9697
0.9699
0.9701
0.9702
0.9704
0.9705
0.9707
0.9708
0.9710
0.9711
0.9712
0.9714
0.9715
0.9717
0.9718
0.9719
0.9721
0.9722
0.9724
0.9725
0.9726
