0.6158
0.6140
0.6122
0.6104
0.6085
0.6066
0.6047
0.6027
0.6007
0.5988
0.5968
0.5948
0.5927
0.5907
0.5887
0.5867
0.5847
0.5826
0.5805
0.5785
0.5765
0.5745
0.5725
0.5705
0.5687
0.5669
0.5652
0.5636
0.5619
0.5602
0.5589
0.5575
0.5559
0.5562
0.5520
0.5451
0.5431
0.5418
0.5404
0.5389
0.5374
0.5360
0.5345
0.5330
0.5313
0.5291
0.5257
0.5228
0.5222
0.5237
0.5256
0.5274
0.5272
0.5242
0.5180
0.5072
0.4925
0.4756
0.4588
0.4436
0.4309
0.4219
0.4152
0.4104
0.4069
0.4044
0.4025
0.4011
0.4001
0.3993
0.3987
0.3982
0.3978
0.3975
0.3972
0.3970
0.3969
0.3969
0.3970
0.3973
0.3978
0.3983
0.3990
0.3998
0.4008
0.4019
0.4031
0.4045
0.4060
0.4076
0.4094
0.4113
0.4134
0.4156
0.4179
0.4205
0.4382
0.4406
0.4432
0.4459
0.4488
0.4518
0.4549
0.4582
0.4616
0.4651
0.4672
0.4681
0.4660
0.4530
0.4425
0.4273
0.4071
0.3850
0.3784
0.3988
0.4318
0.4623
0.4847
0.4987
0.4940
0.4992
0.5046
0.5105
0.5166
0.5230
0.5295
0.5362
0.5430
0.5502
0.5577
0.5656
0.5743
0.5848
0.5956
0.6032
0.6124
0.6143
0.6161
0.6179
0.6197
0.6214
0.6231
0.6248
0.6266
0.6284
0.6302
0.6321
0.6342
0.6364
0.6387
0.6410
0.6435
0.6460
0.6486
0.6513
0.6540
0.6569
0.6598
0.6628
0.6659
0.6690
0.6723
0.6756
0.6790
0.6824
0.6860
0.6896
0.6933
0.6970
0.7008
0.7047
0.6954
0.7003
0.7053
0.7104
0.7156
0.7210
0.7266
0.7323
0.7382
0.7441
0.7499
0.7557
0.7616
0.7678
0.7745
0.7799
0.7854
0.7910
0.8017
0.8073
0.8130
0.8267
0.8327
0.8391
0.8456
0.8524
0.8591
0.8657
0.8737
0.8804
0.8821
0.8835
0.8838
0.8855
0.8869
0.8876
0.8902
0.8922
0.8941
0.8961
0.8981
0.9001
0.9022
0.9043
0.9065
0.9087
0.9110
0.9135
0.9161
0.9189
0.9219
0.9253
0.9290
0.9332
0.9386
0.9490
0.9493
0.9497
0.9501
0.9505
0.9510
0.9514
0.9519
0.9523
0.9528
0.9533
0.9538
0.9543
0.9548
0.9553
0.9559
0.9565
0.9570
0.9576
0.9582
0.9588
0.9594
0.9599
0.9603
0.9606
0.9609
0.9614
0.9617
0.9623
0.9630
0.9698
0.9705
0.9712
0.9719
0.9724
0.9682
0.9690
0.9695
0.9699
0.9703
0.9706
0.9708
0.9707
0.9697
0.9687
0.9694
0.9700
0.9705
0.9710
0.9710
0.9713
0.9715
0.9717
0.9719
0.9722
0.9724
0.9726
0.9728
0.9829
0.9829
0.9829
0.9829
0.9829
0.9828
0.9826
0.9825
0.9822
0.9819
0.9815
0.9810
0.9802
0.9789
0.9757
0.9759
0.9760
0.9762
0.9764
0.9765
0.9767
0.9769
0.9771
0.9772
0.9774
0.9775
0.9777
0.9779
0.9780
0.9782
0.9783
0.9785
0.9786
0.9726
0.9733
0.9739
0.9745
0.9751
0.9758
0.9764
0.9770
0.9777
0.9783
0.9789
0.9796
0.9802
0.9806
0.9807
0.9808
0.9809
0.9810
0.9812
0.9813
0.9814
0.9815
0.9816
0.9818
0.9819
0.9820
0.9821
0.9822
0.9823
0.9824
0.9825
0.9826
0.9827
0.9828
0.9829
0.9830
0.9832
0.9833
0.9834
0.9834
0.9835
0.9836
0.9837
0.9838
0.9839
0.9840
0.9841
0.9842
0.9843
0.9844
0.9845
0.9846
0.9847
0.9848
0.9848
0.9849
0.9850
0.9851
0.9852
0.9853
0.9853
0.9854
0.9855
0.9856
0.9857
0.9857
0.9858
0.9859
0.9860
0.9860
0.9861
0.9862
0.9863
0.9863
0.9864
0.9865
0.9866
0.9866
0.9867
0.9868
0.9868
0.9869
