0.4122
0.4121
0.4177
0.4256
0.4323
0.4374
0.4409
0.4433
0.4453
0.4469
0.4480
0.4489
0.4497
0.4502
0.4505
0.4507
0.4508
0.4509
0.4508
0.4507
0.4506
0.4506
0.4507
0.4509
0.4517
0.4526
0.4536
0.4548
0.4561
0.4574
0.4589
0.4608
0.4630
0.4657
0.4692
0.4754
0.4760
0.4768
0.4776
0.4785
0.4795
0.4807
0.4819
0.4833
0.4847
0.4862
0.4877
0.4893
0.4909
0.4925
0.4942
0.4959
0.4976
0.4993
0.5011
0.5030
0.5048
0.5067
0.5086
0.5105
0.5125
0.5144
0.5163
0.5181
0.5200
0.5219
0.5238
0.5258
0.5278
0.5299
0.5320
0.5341
0.5363
0.5385
0.5407
0.5429
0.5450
0.5472
0.5493
0.5514
0.5534
0.5555
0.5577
0.5603
0.5632
0.5646
0.5601
0.5592
0.5569
0.5550
0.5546
0.5575
0.5565
0.5555
0.5547
0.5539
0.5530
0.5523
0.5514
0.5505
0.5498
0.5489
0.5480
0.5472
0.5464
0.5450
0.5454
0.5460
0.5467
0.5476
0.5484
0.5493
0.5503
0.5512
0.5522
0.5534
0.5547
0.5561
0.5579
0.5600
0.5634
0.5673
0.5651
0.5630
0.5608
0.5587
0.5568
0.5551
0.5537
0.5525
0.5516
0.5509
0.5504
0.5503
0.5503
0.5506
0.5512
0.5520
0.5530
0.5542
0.5556
0.5572
0.5590
0.5609
0.5630
0.5652
0.5675
0.5701
0.5727
0.5754
0.5785
0.5817
0.5851
0.5887
0.5926
0.5968
0.6016
0.6054
0.6086
0.6119
0.6145
0.6182
0.6220
0.6260
0.6301
0.6344
0.6388
0.6433
0.6480
0.6529
0.6579
0.6630
0.6681
0.6733
0.6786
0.6837
0.6890
0.7010
0.7065
0.7123
0.7194
0.7249
0.7284
0.7320
0.7356
0.7392
0.7429
0.7466
0.7502
0.7538
0.7571
0.7586
0.7631
0.7676
0.7721
0.7767
0.7812
0.7857
0.7903
0.7949
0.7995
0.8042
0.8092
0.8145
0.8203
0.8267
0.8344
0.8432
0.8458
0.8484
0.8509
0.8498
0.8527
0.8556
0.8585
0.8584
0.8616
0.8647
0.8678
0.8707
0.8735
0.8763
0.8790
0.8817
0.8841
0.8861
0.8883
0.8905
0.8922
0.8939
0.8959
0.8979
0.8998
0.9018
0.9037
0.9057
0.9087
0.9108
0.9130
0.9151
0.9172
0.9193
0.9214
0.9235
0.9256
0.9277
0.9298
0.9319
0.9338
0.9350
0.9370
0.9394
0.9417
0.9438
0.9457
0.9475
0.9491
0.9507
0.9523
0.9541
0.9563
0.9591
0.9627
0.9684
0.9688
0.9691
0.9695
0.9698
0.9700
0.9703
0.9705
0.9706
0.9707
0.9707
0.9705
0.9701
0.9688
0.9675
0.9678
0.9681
0.9684
0.9687
0.9690
0.9693
0.9696
0.9699
0.9702
0.9705
0.9708
0.9711
0.9713
0.9716
0.9719
0.9721
0.9724
0.9726
0.9729
0.9731
0.9733
0.9736
0.9738
0.9740
0.9743
0.9745
0.9747
0.9749
0.9752
0.9754
0.9756
0.9758
0.9760
0.9763
0.9765
0.9767
0.9769
0.9771
0.9773
0.9785
0.9789
0.9793
0.9901
0.9903
0.9904
0.9904
0.9904
0.9904
0.9903
0.9901
0.9897
0.9892
0.9882
0.9864
0.9857
0.9846
0.9826
0.9806
0.9807
0.9809
0.9810
0.9812
0.9813
0.9815
0.9816
0.9817
0.9819
0.9820
0.9821
0.9823
0.9824
0.9825
0.9827
0.9828
0.9829
0.9830
0.9832
0.9833
0.9834
0.9835
0.9836
0.9838
0.9839
0.9840
0.9841
0.9842
0.9843
0.9844
0.9845
0.9846
0.9848
0.9849
0.9850
0.9851
0.9852
0.9853
0.9854
0.9855
0.9856
0.9857
0.9858
0.9858
0.9859
0.9860
0.9861
0.9862
0.9863
0.9864
0.9865
0.9866
0.9867
0.9867
0.9868
0.9869
0.9870
0.9871
0.9872
0.9872
0.9873
0.9874
0.9875
0.9876
