0.5166
0.5152
0.5136
0.5119
0.5100
0.5079
0.5056
0.5030
0.5000
0.4966
0.4929
0.4887
0.4840
0.4787
0.4723
0.4633
0.4517
0.4393
0.4282
0.4185
0.4101
0.4030
0.3968
0.3914
0.3866
0.3822
0.3780
0.3740
0.3700
0.3658
0.3616
0.3576
0.3540
0.3508
0.3477
0.3448
0.3418
0.3389
0.3360
0.3330
0.3299
0.3266
0.3234
0.3201
0.3169
0.3137
0.3106
0.3076
0.3046
0.3018
0.2991
0.2965
0.2941
0.2917
0.2895
0.2876
0.2860
0.2845
0.2832
0.2820
0.2810
0.2801
0.2794
0.2789
0.2785
0.2782
0.2781
0.2781
0.2784
0.2788
0.2793
0.2801
0.2810
0.2821
0.2833
0.2848
0.2866
0.2891
0.2927
0.2941
0.2956
0.2971
0.2988
0.3006
0.3024
0.3044
0.3065
0.3088
0.3111
0.3135
0.3161
0.3188
0.3216
0.3245
0.3276
0.3308
0.3342
0.3378
0.3417
0.3561
0.3598
0.3635
0.3678
0.3732
0.3797
0.3822
0.3846
0.3871
0.3895
0.3911
0.3945
0.3980
0.4016
0.4053
0.4090
0.4125
0.4160
0.4195
0.4230
0.4245
0.4285
0.4323
0.4361
0.4399
0.4438
0.4477
0.4516
0.4555
0.4595
0.4635
0.4675
0.4716
0.4757
0.4798
0.4839
0.4881
0.4923
0.4965
0.5007
0.5049
0.5091
0.5133
0.5175
0.5216
0.5258
0.5299
0.5341
0.5382
0.5422
0.5462
0.5501
0.5539
0.5576
0.5611
0.5642
0.5668
0.5736
0.5803
0.5873
0.5948
0.6024
0.6096
0.6156
0.6219
0.6289
0.6343
0.6398
0.6663
0.6712
0.6764
0.6816
0.6868
0.6922
0.6974
0.7013
0.7070
0.7218
0.7276
0.7345
0.7425
0.7453
0.7481
0.7508
0.7534
0.7558
0.7575
0.7621
0.7666
0.7701
0.7842
0.7858
0.7878
0.7898
0.7916
0.7935
0.7953
0.7971
0.7989
0.8006
0.8024
0.8041
0.8057
0.8074
0.8090
0.8106
0.8123
0.8138
0.8154
0.8170
0.8185
0.8200
0.8215
0.8230
0.8244
0.8259
0.8273
0.8287
0.8302
0.8315
0.8288
0.8305
0.8323
0.8340
0.8357
0.8374
0.8390
0.8407
0.8423
0.8439
0.8455
0.8470
0.8485
0.8497
0.8770
0.8723
0.8729
0.8735
0.8740
0.8745
0.8750
0.8753
0.8757
0.8760
0.8763
0.8765
0.8767
0.8768
0.8771
0.8764
0.8745
0.8848
0.8853
0.8859
0.8864
0.8868
0.8872
0.8876
0.8879
0.8881
0.8883
0.8883
0.8882
0.8879
0.8873
0.8859
0.8824
0.8833
0.8841
0.8849
0.8857
0.8865
0.8873
0.8881
0.8888
0.8896
0.8904
0.8911
0.8919
0.8926
0.8933
0.8941
0.8948
0.8955
0.8962
0.8969
0.8976
0.8983
0.8990
0.8996
0.9003
0.9010
0.9016
0.9023
0.9029
0.9035
0.9042
0.9048
0.9054
0.9060
0.9066
0.9072
0.9078
0.9084
0.9090
0.9096
0.9102
0.9107
0.9113
0.9119
0.9124
0.9130
0.9135
0.9141
0.9146
0.9151
0.9156
0.9162
0.9167
0.9172
0.9177
0.9182
0.9187
0.9192
0.9197
0.9202
0.9207
0.9211
0.9216
0.9221
0.9226
0.9230
0.9235
0.9239
0.9244
0.9248
0.9253
0.9257
0.9261
0.9266
0.9270
0.9274
0.9279
0.9283
0.9287
0.9291
0.9295
0.9299
0.9303
0.9307
0.9311
0.9315
0.9319
0.9323
0.9326
0.9330
0.9334
0.9338
0.9341
0.9345
0.9349
0.9352
0.9356
0.9360
0.9363
0.9367
0.9370
0.9373
0.9377
0.9380
0.9384
0.9387
0.9390
0.9394
0.9397
0.9400
0.9403
0.9406
0.9410
0.9413
0.9416
0.9419
0.9422
0.9425
0.9428
0.9431
0.9434
0.9437
0.9440
0.9443
0.9446
0.9449
0.9451
0.9454
0.9457
0.9460
0.9463
0.9465
0.9468
0.9471
0.9473
