Angle 0.718097 3.759311

4.00000 7.03348 4.00000
4.00000 7.03348 4.00000
4.00000 7.03348 4.00000
4.00000 7.03348 4.00000
4.00000 7.03348 4.00000
4.00000 7.03348 4.00000
4.00000 7.03348 4.00000
4.00000 7.03348 4.00000
4.00000 7.03348 4.00000
4.00000 7.03348 4.00000
4.00000 7.03348 4.00000
4.00000 7.03348 4.00000
4.00000 7.03348 4.00000
4.00000 7.03348 4.00000
4.00000 7.03348 4.00000
4.00000 7.03348 4.00000
4.00000 7.03348 4.00000
4.00000 7.03348 4.00000
4.00000 7.03348 4.00000
4.00000 7.03348 4.00000
4.00000 7.03348 4.00000
4.00000 7.03348 4.00000
4.00000 7.03348 4.00000
4.00000 7.03348 4.00000
4.00000 7.03348 4.00000
4.00000 7.03348 4.00000
4.00000 7.03348 4.00000
4.00000 7.03348 4.00000
4.00000 7.03348 4.00000
4.00000 7.03348 4.00000
4.00000 7.03348 4.00000
4.00000 7.03348 4.00000
4.00000 7.03348 4.00000
4.00000 7.03348 4.00000
4.00000 7.03348 4.00000
4.00000 7.03348 4.00000
4.00000 7.03348 4.00000
4.00000 7.03348 4.00000
4.00000 7.03348 4.00000
4.00000 7.03348 4.00000
4.00000 7.03348 4.00000
4.00000 7.03348 4.00000
4.00000 7.03348 4.00000
4.00000 7.03348 4.00000
4.00000 7.03348 4.00000
4.00000 7.03348 4.00000
4.00000 7.03348 4.00000
4.00000 7.03348 4.00000
4.00000 7.03348 4.00000
4.00000 7.03348 4.00000
4.00000 7.03348 4.00000
4.00000 7.03348 4.00000
4.00000 7.03348 4.00000
4.00000 7.03348 4.00000
4.00000 7.03348 4.00000
4.00000 7.03348 4.00000
4.00000 7.03348 4.00000
4.00000 7.03348 4.00000
4.00000 7.03348 4.00000
4.00000 7.03348 4.00000
4.00000 7.03348 4.00000
4.00000 7.03348 4.00000
4.00000 7.03348 4.00000
4.00000 7.03348 4.00000
4.00000 7.03348 4.00000
4.00000 7.03348 4.00000
4.00000 7.03348 4.00000
4.00000 7.03348 4.00000
4.00000 7.03348 4.00000
4.00000 7.03348 4.00000
4.00000 7.03348 4.00000
4.00000 7.03348 4.00000
4.00000 7.03348 4.00000
4.00000 7.03348 4.00000
4.00000 7.03348 4.00000
4.00000 7.03348 4.00000
4.00000 7.03348 4.00000
4.00000 7.03348 4.00000
4.00000 7.03348 4.00000
4.00000 7.03348 4.00000
4.00000 7.03348 4.00000
4.00000 7.03348 4.00000
4.00000 7.03348 4.00000
4.00000 7.03348 4.00000
4.00000 7.03348 4.00000
4.00000 7.03348 4.00000
4.00000 7.03348 4.00000
4.00000 7.03348 4.00000
4.00000 7.03348 4.00000
4.00000 7.03348 4.00000
4.00000 7.03348 4.00000
4.00000 7.03348 4.00000
4.00000 7.03348 4.00000
4.00000 7.03348 4.00000
4.00000 7.03348 4.00000
4.00000 7.03348 4.00000
4.00000 7.03348 4.00000
4.00000 7.03348 4.00000
4.00000 7.03348 4.00000
4.00000 7.03348 4.00000
4.00000 7.03348 4.00000
4.00000 7.03348 4.00000
4.00000 7.03348 4.00000
4.00000 7.03348 4.00000
4.00000 7.03348 4.00000
4.00000 7.03348 4.00000
4.00000 7.03348 4.00000
4.00000 7.03348 4.00000
4.00000 7.03348 4.00000
4.00000 7.03348 4.00000
4.00000 7.03348 4.00000
4.00000 7.03348 4.00000
4.00000 7.03348 4.00000
4.00000 7.03348 4.00000
4.00000 7.03348 4.00000
4.00000 7.03348 4.00000
4.00000 7.03348 4.00000
4.00000 7.03348 4.00000
4.00000 7.03348 4.00000
4.00000 7.03348 4.00000
4.00000 7.03348 4.00000
4.00000 7.03348 4.00000
4.00000 7.03348 4.00000
4.00000 7.03348 4.00000
4.00000 7.03348 4.00000
4.00000 7.03348 4.00000
4.00000 7.03348 4.00000
4.00000 7.03348 4.00000
4.00000 7.03348 4.00000
4.00000 7.03348 4.00000
4.00000 7.03348 4.00000
4.00000 7.03348 4.00000
4.00000 7.03348 4.00000
4.00000 7.03348 4.00000
4.00000 7.03348 4.00000
4.00000 7.03348 4.00000
4.00000 7.03348 4.00000
4.00000 7.03348 4.00000
4.00000 7.03348 4.00000
4.00000 7.03348 4.00000
4.00000 7.03348 4.00000
4.00000 7.03348 4.00000
4.00000 7.03348 4.00000
4.00000 7.03348 4.00000
4.00000 7.03348 4.00000
4.00000 7.03348 4.00000
4.00000 7.03348 4.00000
4.00000 7.03348 4.00000
4.00000 7.03348 4.00000
4.00000 7.03348 4.00000
4.00000 7.03348 4.00000
4.00000 7.03348 4.00000
4.00000 7.03348 4.00000
4.00000 7.03348 4.00000
4.00000 7.03348 4.00000
4.00000 7.03348 4.00000
4.00000 7.03348 4.00000
4.00000 7.03348 4.00000
4.00000 7.03348 4.00000
4.00000 7.03348 4.00000
4.00000 7.03348 4.00000
4.00000 7.03348 4.00000
4.00000 7.03348 4.00000
4.00000 7.03348 4.00000
4.00000 7.03348 4.00000
4.00000 7.03348 4.00000
4.00000 7.03348 4.00000
4.00000 7.03348 4.00000
4.00000 7.03348 4.00000
4.00000 7.03348 4.00000
4.00000 7.03348 4.00000
4.00000 7.03348 4.00000
4.00000 7.03348 4.00000
4.00000 7.03348 4.00000
4.00000 7.03349 4.00000
4.00000 7.03350 4.00000
4.00000 7.03353 4.00000
4.00000 7.03348 4.00000
4.00000 7.03349 4.00000
4.00000 7.03348 4.00000
4.00000 7.03348 4.00000
4.00343 7.09913 4.00343
4.00730 7.17468 4.00730
4.01112 7.25042 4.01112
4.01490 7.32632 4.01490
4.01866 7.40235 4.01866
4.02242 7.47847 4.02242
4.02617 7.55465 4.02617
4.02996 7.63086 4.02996
4.03378 7.70707 4.03378
4.03765 7.78324 4.03765
4.04161 7.85933 4.04161
4.04567 7.93528 4.04567
4.04985 8.01106 4.04985
4.05419 8.08659 4.05419
4.05871 8.16183 4.05871
4.06346 8.23667 4.06346
4.06849 8.31102 4.06849
4.07384 8.38479 4.07385
4.07960 8.45782 4.07960
4.08584 8.52994 4.08584
4.09267 8.60095 4.09267
4.10021 8.67059 4.10021
4.10849 8.73882 4.10849
4.11748 8.80569 4.11748
4.12724 8.87108 4.12724
4.13780 8.93491 4.13780
4.14923 8.99708 4.14923
4.16155 9.05751 4.16155
4.17480 9.11614 4.17480
4.18900 9.17292 4.18900
4.20417 9.22782 4.20417
4.22031 9.28083 4.22031
4.23742 9.33196 4.23742
4.25547 9.38126 4.25547
4.27444 9.42876 4.27444
4.29430 9.47453 4.29430
4.31501 9.51866 4.31501
4.33653 9.56121 4.33653
4.35881 9.60228 4.35881
4.38182 9.64195 4.38182
4.40552 9.68029 4.40552
4.42988 9.71735 4.42988
4.45490 9.75314 4.45489
4.48058 9.78766 4.48056
4.50698 9.82077 4.50697
4.53424 9.85220 4.53424
4.56269 9.88129 4.56269
4.59307 9.90658 4.59307
4.62721 9.92438 4.62720
7.93948 7.31129 4.01416
8.06261 7.27608 4.01240
8.17950 7.24685 4.01094
8.29167 7.22216 4.00970
8.40012 7.20106 4.00864
8.50559 7.18284 4.00772
8.60861 7.16698 4.00691
8.70960 7.15309 4.00620
8.80888 7.14088 4.00558
8.90671 7.13007 4.00502
9.00330 7.12048 4.00453
9.09881 7.11195 4.00409
9.19340 7.10433 4.00370
9.28718 7.09752 4.00334
9.38025 7.09141 4.00303
9.47270 7.08592 4.00274
9.56461 7.08098 4.00249
9.65603 7.07654 4.00226
9.74703 7.07253 4.00205
9.83765 7.06891 4.00186
9.92793 7.06564 4.00169
10.01792 7.06268 4.00153
10.10764 7.06000 4.00139
10.19712 7.05758 4.00127
10.28640 7.05538 4.00115
10.37549 7.05339 4.00105
10.46442 7.05158 4.00095
10.55320 7.04994 4.00087
10.64184 7.04846 4.00079
10.73038 7.04710 4.00072
10.81882 7.04586 4.00065
10.90715 7.04476 4.00059
10.99543 7.04373 4.00054
11.08362 7.04281 4.00049
11.17174 7.04198 4.00045
11.25983 7.04120 4.00040
11.34784 7.04052 4.00037
11.43585 7.03988 4.00034
11.52379 7.03932 4.00031
11.61174 7.03878 4.00028
11.69964 7.03831 4.00025
11.78750 7.03788 4.00023
11.87539 7.03748 4.00021
11.96324 7.03712 4.00019
12.05109 7.03679 4.00017
12.13890 7.03650 4.00016
12.22674 7.03622 4.00014
12.31458 7.03598 4.00013
12.40242 7.03575 4.00012
12.49026 7.03555 4.00011
12.57810 7.03536 4.00010
12.66596 7.03519 4.00009
12.75382 7.03504 4.00008
12.84158 7.03490 4.00008
12.92943 7.03478 4.00007
13.01729 7.03467 4.00006
13.10517 7.03456 4.00006
13.19306 7.03446 4.00005
13.28096 7.03438 4.00005
13.36890 7.03428 4.00004
13.45683 7.03421 4.00004
13.54478 7.03414 4.00003
13.63275 7.03408 4.00003
13.72074 7.03402 4.00003
13.80874 7.03397 4.00003
13.89675 7.03393 4.00002
13.98479 7.03389 4.00002
14.07284 7.03385 4.00002
14.16091 7.03381 4.00002
14.24900 7.03378 4.00002
14.33710 7.03375 4.00001
14.42522 7.03373 4.00001
14.51336 7.03370 4.00001
14.60152 7.03368 4.00001
14.68969 7.03366 4.00001
14.77788 7.03365 4.00001
14.86609 7.03363 4.00001
14.95431 7.03361 4.00001
15.04256 7.03360 4.00001
15.13081 7.03359 4.00001
15.21909 7.03358 4.00001
15.30659 7.03358 4.00001
15.39486 7.03357 4.00000
15.48314 7.03357 4.00000
15.57144 7.03356 4.00000
15.65976 7.03355 4.00000
15.74810 7.03354 4.00000
15.83645 7.03354 4.00000
15.92482 7.03353 4.00000
16.01321 7.03353 4.00000
16.10161 7.03352 4.00000
16.19003 7.03352 4.00000
16.27847 7.03352 4.00000
16.36692 7.03351 4.00000
16.45539 7.03351 4.00000
16.54387 7.03351 4.00000
16.63237 7.03350 4.00000
16.72089 7.03350 4.00000
16.80942 7.03350 4.00000
16.89796 7.03350 4.00000
16.98652 7.03350 4.00000
17.07509 7.03350 4.00000
17.16368 7.03349 4.00000
17.25229 7.03349 4.00000
17.34090 7.03349 4.00000
17.42954 7.03349 4.00000
17.51818 7.03349 4.00000
17.60684 7.03349 4.00000
17.69551 7.03349 4.00000
17.78420 7.03349 4.00000
17.87290 7.03349 4.00000
17.96161 7.03349 4.00000
18.05034 7.03349 4.00000
18.13908 7.03348 4.00000
18.22783 7.03348 4.00000
18.31659 7.03348 4.00000
18.40537 7.03348 4.00000
18.49416 7.03348 4.00000
18.58296 7.03348 4.00000
18.67178 7.03348 4.00000
18.76060 7.03348 4.00000
18.84944 7.03348 4.00000
18.93829 7.03348 4.00000
19.02715 7.03348 4.00000
19.11602 7.03348 4.00000
19.20491 7.03348 4.00000
19.29380 7.03348 4.00000
19.38271 7.03348 4.00000
19.47163 7.03348 4.00000
19.56056 7.03348 4.00000
19.64949 7.03348 4.00000
19.73844 7.03348 4.00000
19.82741 7.03348 4.00000
19.91638 7.03348 4.00000
20.00536 7.03348 4.00000
20.09435 7.03348 4.00000
20.18335 7.03348 4.00000
20.27237 7.03348 4.00000
20.36139 7.03348 4.00000
20.45042 7.03348 4.00000
20.53946 7.03348 4.00000
20.62852 7.03348 4.00000
20.71758 7.03348 4.00000
20.80665 7.03348 4.00000
20.89573 7.03348 4.00000
20.98482 7.03348 4.00000
21.07392 7.03348 4.00000
21.16303 7.03348 4.00000
21.25215 7.03348 4.00000
21.34127 7.03348 4.00000
21.43041 7.03348 4.00000
21.51956 7.03348 4.00000
21.60871 7.03348 4.00000
21.69787 7.03348 4.00000
21.78704 7.03348 4.00000
21.87622 7.03348 4.00000
21.96541 7.03348 4.00000
22.05461 7.03348 4.00000
22.14381 7.03348 4.00000
22.23302 7.03348 4.00000
22.32225 7.03348 4.00000
22.41148 7.03348 4.00000
22.50071 7.03348 4.00000
22.58996 7.03348 4.00000
22.67921 7.03348 4.00000
22.76847 7.03348 4.00000
22.85774 7.03348 4.00000
22.94702 7.03348 4.00000
23.03630 7.03348 4.00000
23.12559 7.03348 4.00000

Angle 0.104240 4.725027

4.00000 7.03348 4.00000
4.00000 7.03348 4.00000
4.00000 7.03348 4.00000
4.00000 7.03348 4.00000
4.00000 7.03348 4.00000
4.00000 7.03348 4.00000
4.00000 7.03348 4.00000
4.00000 7.03347 4.00000
4.00000 7.03348 4.00000
4.00000 7.03348 4.00000
4.00000 7.03348 4.00000
4.00000 7.03348 4.00000
4.00000 7.03348 4.00000
4.00000 7.03348 4.00000
4.00000 7.03348 4.00000
4.00000 7.03348 4.00000
4.00000 7.03348 4.00000
4.00000 7.03348 4.00000
4.00000 7.03348 4.00000
4.00000 7.03348 4.00000
4.00000 7.03348 4.00000
4.00000 7.03348 4.00000
4.00000 7.03348 4.00000
4.00000 7.03348 4.00000
4.00000 7.03348 4.00000
4.00000 7.03348 4.00000
4.00000 7.03348 4.00000
4.00000 7.03348 4.00000
4.00000 7.03348 4.00000
4.00000 7.03348 4.00000
4.00000 7.03348 4.00000
4.00000 7.03348 4.00000
4.00000 7.03348 4.00000
4.00000 7.03348 4.00000
4.00000 7.03348 4.00000
4.00000 7.03348 4.00000
4.00000 7.03348 4.00000
4.00000 7.03348 4.00000
4.00000 7.03348 4.00000
4.00000 7.03348 4.00000
4.00000 7.03348 4.00000
4.00000 7.03348 4.00000
4.00000 7.03348 4.00000
4.00000 7.03348 4.00000
4.00000 7.03348 4.00000
4.00000 7.03348 4.00000
4.00000 7.03348 4.00000
4.00000 7.03348 4.00000
4.00000 7.03348 4.00000
4.00000 7.03348 4.00000
4.00000 7.03348 4.00000
4.00000 7.03348 4.00000
4.00000 7.03348 4.00000
4.00000 7.03348 4.00000
4.00000 7.03348 4.00000
4.00000 7.03348 4.00000
4.00000 7.03348 4.00000
4.00000 7.03348 4.00000
4.00000 7.03349 4.00000
4.00000 7.03350 4.00000
4.00000 7.03348 4.00000
4.00000 7.03348 4.00000
4.00000 7.03348 4.00000
4.00000 7.03348 4.00000
4.00240 7.07930 4.00240
4.00526 7.13470 4.00526
4.00810 7.19044 4.00810
4.01093 7.24651 4.01092
4.01374 7.30287 4.01374
4.01655 7.35953 4.01655
4.01936 7.41647 4.01936
4.02218 7.47367 4.02218
4.02501 7.53111 4.02501
4.02786 7.58879 4.02786
4.03075 7.64667 4.03074
4.03366 7.70475 4.03366
4.03662 7.76300 4.03662
4.03963 7.82141 4.03963
4.04270 7.87994 4.04270
4.04585 7.93858 4.04585
4.04908 7.99729 4.04908
4.05241 8.05605 4.05241
4.05586 8.11482 4.05586
4.05944 8.17356 4.05944
4.06317 8.23223 4.06317
4.06709 8.29077 4.06709
4.07121 8.34914 4.07121
4.07556 8.40725 4.07556
4.08020 8.46503 4.08020
4.08516 8.52239 4.08516
4.09049 8.57921 4.09049
4.09628 8.63536 4.09628
4.10256 8.69071 4.10256
4.10932 8.74533 4.10932
4.11657 8.79919 4.11657
4.12432 8.85223 4.12432
4.13261 8.90440 4.13261
4.14148 8.95563 4.14148
4.15094 9.00586 4.15094
4.16102 9.05505 4.16102
4.17174 9.10316 4.17174
4.18313 9.15013 4.18313
4.19518 9.19595 4.19518
4.20792 9.24059 4.20792
4.22134 9.28405 4.22134
4.23545 9.32632 4.23545
4.25024 9.36741 4.25024
4.26569 9.40735 4.26569
4.28180 9.44615 4.28180
4.29855 9.48386 4.29855
4.31591 9.52050 4.31591
4.33387 9.55612 4.33387
4.35241 9.59076 4.35240
4.37149 9.62446 4.37149
4.39111 9.65726 4.39111
4.41124 9.68920 4.41124
4.43188 9.72029 4.43188
4.45302 9.75053 4.45302
4.47467 9.77992 4.47467
4.49685 9.80838 4.49685
4.51965 9.83577 4.51965
4.54320 9.86182 4.54320
4.56776 9.88598 4.56776
4.59389 9.90716 4.59389
4.62282 9.92288 4.62283
7.90577 7.32181 4.01468
8.01351 7.28954 4.01308
8.11624 7.26219 4.01171
8.21508 7.23868 4.01053
8.31083 7.21825 4.00951
8.40408 7.20034 4.00860
8.49524 7.18453 4.00780
8.58468 7.17051 4.00709
8.67265 7.15800 4.00645
8.75938 7.14681 4.00588
8.84505 7.13674 4.00537
8.92978 7.12769 4.00490
9.01372 7.11951 4.00448
9.09698 7.11211 4.00410
9.17963 7.10539 4.00375
9.26176 7.09930 4.00344
9.34343 7.09375 4.00315
9.42469 7.08870 4.00289
9.50561 7.08409 4.00265
9.58622 7.07989 4.00243
9.66656 7.07606 4.00223
9.74667 7.07255 4.00205
9.82659 7.06933 4.00188
9.90634 7.06638 4.00173
9.98593 7.06369 4.00159
10.06538 7.06123 4.00146
10.14472 7.05897 4.00134
10.22396 7.05692 4.00123
10.30317 7.05499 4.00113
10.38228 7.05327 4.00104
10.46138 7.05164 4.00096
10.54042 7.05018 4.00088
10.61945 7.04881 4.00081
10.69845 7.04758 4.00074
10.77746 7.04643 4.00068
10.85645 7.04539 4.00063
10.93546 7.04442 4.00058
11.01447 7.04354 4.00053
11.09351 7.04272 4.00049
11.17258 7.04197 4.00045
11.25167 7.04128 4.00041
11.33080 7.04065 4.00038
11.40996 7.04008 4.00035
11.48916 7.03955 4.00032
11.56842 7.03904 4.00029
11.64771 7.03860 4.00027
11.72707 7.03817 4.00025
11.80646 7.03780 4.00023
11.88592 7.03743 4.00021
11.96541 7.03713 4.00019
12.04499 7.03681 4.00018
12.12460 7.03656 4.00016
12.20429 7.03629 4.00015
12.28401 7.03607 4.00014
12.36382 7.03585 4.00013
12.44367 7.03567 4.00012
12.52359 7.03549 4.00011
12.60359 7.03531 4.00010
12.68362 7.03517 4.00009
12.76375 7.03502 4.00008
12.84393 7.03490 4.00007
12.92415 7.03479 4.00007
13.00447 7.03467 4.00006
13.08484 7.03457 4.00006
13.16529 7.03448 4.00005
13.24574 7.03441 4.00005
13.32632 7.03432 4.00004
13.40696 7.03425 4.00004
13.48766 7.03419 4.00004
13.56837 7.03414 4.00003
13.64921 7.03407 4.00003
13.73010 7.03402 4.00003
13.81106 7.03398 4.00003
13.89209 7.03394 4.00002
13.97319 7.03390 4.00002
14.05435 7.03386 4.00002
14.13558 7.03383 4.00002
14.21688 7.03380 4.00002
14.29823 7.03377 4.00001
14.37966 7.03374 4.00001
14.46114 7.03372 4.00001
14.54269 7.03370 4.00001
14.62431 7.03368 4.00001
14.70598 7.03366 4.00001
14.78772 7.03364 4.00001
14.86951 7.03363 4.00001
14.95137 7.03361 4.00001
15.03249 7.03362 4.00001
15.11440 7.03361 4.00001
15.19637 7.03360 4.00001
15.27840 7.03359 4.00001
15.36049 7.03358 4.00001
15.44265 7.03357 4.00000
15.52486 7.03356 4.00000
15.60714 7.03355 4.00000
15.68947 7.03355 4.00000
15.77186 7.03354 4.00000
15.85431 7.03354 4.00000
15.93682 7.03353 4.00000
16.01938 7.03353 4.00000
16.10200 7.03352 4.00000
16.18467 7.03352 4.00000
16.26740 7.03352 4.00000
16.35019 7.03351 4.00000
16.43302 7.03351 4.00000
16.51591 7.03351 4.00000
16.59886 7.03351 4.00000
16.68185 7.03350 4.00000
16.76490 7.03350 4.00000
16.84799 7.03350 4.00000
16.93114 7.03350 4.00000
17.01434 7.03350 4.00000
17.09758 7.03350 4.00000
17.18088 7.03349 4.00000
17.26422 7.03349 4.00000
17.34762 7.03349 4.00000
17.43106 7.03349 4.00000
17.51454 7.03349 4.00000
17.59808 7.03349 4.00000
17.68166 7.03349 4.00000
17.76528 7.03349 4.00000
17.84896 7.03349 4.00000
17.93267 7.03349 4.00000
18.01644 7.03349 4.00000
18.10024 7.03348 4.00000
18.18409 7.03348 4.00000
18.26798 7.03348 4.00000
18.35192 7.03348 4.00000
18.43590 7.03348 4.00000
18.51992 7.03348 4.00000
18.60398 7.03348 4.00000
18.68809 7.03348 4.00000
18.77223 7.03348 4.00000
18.85642 7.03348 4.00000
18.94065 7.03348 4.00000
19.02492 7.03348 4.00000
19.10922 7.03348 4.00000
19.19357 7.03348 4.00000
19.27796 7.03348 4.00000
19.36238 7.03348 4.00000
19.44685 7.03348 4.00000
19.53135 7.03348 4.00000
19.61589 7.03348 4.00000
19.70046 7.03348 4.00000
19.78508 7.03348 4.00000
19.86973 7.03348 4.00000
19.95442 7.03348 4.00000
20.03914 7.03348 4.00000
20.12390 7.03348 4.00000
20.20870 7.03348 4.00000
20.29353 7.03348 4.00000
20.37839 7.03348 4.00000
20.46329 7.03348 4.00000
20.54823 7.03348 4.00000
20.63320 7.03348 4.00000
20.71820 7.03348 4.00000
20.80324 7.03348 4.00000
20.88831 7.03348 4.00000
20.97341 7.03348 4.00000
21.05855 7.03348 4.00000
21.14372 7.03348 4.00000
21.22892 7.03348 4.00000
21.31415 7.03348 4.00000
21.39942 7.03348 4.00000
21.48472 7.03348 4.00000
21.57004 7.03348 4.00000
21.65540 7.03348 4.00000
21.74079 7.03348 4.00000
21.82621 7.03348 4.00000
21.91166 7.03348 4.00000
21.99714 7.03348 4.00000
22.08265 7.03348 4.00000
22.16820 7.03348 4.00000
22.25376 7.03348 4.00000
22.33936 7.03348 4.00000
22.42499 7.03348 4.00000
22.51065 7.03348 4.00000
22.59633 7.03348 4.00000
22.68204 7.03348 4.00000
22.76778 7.03348 4.00000
22.85355 7.03348 4.00000
22.93935 7.03348 4.00000
23.02517 7.03348 4.00000
23.11102 7.03348 4.00000
23.19690 7.03348 4.00000
23.28280 7.03348 4.00000
23.36873 7.03348 4.00000
23.45469 7.03348 4.00000
23.54067 7.03348 4.00000
23.62668 7.03348 4.00000
23.71272 7.03348 4.00000
23.79878 7.03348 4.00000
23.88486 7.03348 4.00000
23.97097 7.03348 4.00000
24.05711 7.03348 4.00000
24.14327 7.03348 4.00000
24.22945 7.03348 4.00000
24.31566 7.03348 4.00000
24.40189 7.03348 4.00000
24.48815 7.03348 4.00000
24.57443 7.03348 4.00000
24.66073 7.03348 4.00000
24.74706 7.03348 4.00000
24.83341 7.03348 4.00000
24.91978 7.03348 4.00000
25.00618 7.03348 4.00000
25.09260 7.03348 4.00000
25.17904 7.03348 4.00000
25.26551 7.03348 4.00000
25.35199 7.03348 4.00000
25.43850 7.03348 4.00000
25.52503 7.03348 4.00000
25.61158 7.03348 4.00000
25.69816 7.03348 4.00000
25.78475 7.03348 4.00000
25.87137 7.03348 4.00000
25.95801 7.03348 4.00000
26.04466 7.03348 4.00000
26.13134 7.03348 4.00000
26.21804 7.03348 4.00000
26.30476 7.03348 4.00000
26.39150 7.03348 4.00000
26.47826 7.03348 4.00000
26.56504 7.03348 4.00000
26.65184 7.03348 4.00000
26.73866 7.03348 4.00000
26.82550 7.03348 4.00000
26.91236 7.03348 4.00000
26.99924 7.03348 4.00000
27.08614 7.03348 4.00000
27.17305 7.03348 4.00000
27.25999 7.03348 4.00000
27.34694 7.03348 4.00000
27.43392 7.03348 4.00000
27.52091 7.03348 4.00000
27.60792 7.03348 4.00000
27.69494 7.03348 4.00000
27.78199 7.03348 4.00000
27.86905 7.03348 4.00000
27.95613 7.03348 4.00000
28.04323 7.03348 4.00000
28.13035 7.03348 4.00000
28.21748 7.03348 4.00000
28.30463 7.03348 4.00000
28.39180 7.03348 4.00000
28.47899 7.03348 4.00000
28.56619 7.03348 4.00000
28.65341 7.03348 4.00000
28.74065 7.03348 4.00000
28.82790 7.03348 4.00000
28.91517 7.03348 4.00000
29.00245 7.03348 4.00000
29.08976 7.03348 4.00000
29.17707 7.03348 4.00000
29.26441 7.03348 4.00000
29.35176 7.03348 4.00000
29.43912 7.03348 4.00000
29.52650 7.03348 4.00000
29.61390 7.03348 4.00000
29.70131 7.03348 4.00000
29.78874 7.03348 4.00000
29.87618 7.03348 4.00000
29.96364 7.03348 4.00000
30.05111 7.03348 4.00000
30.13860 7.03348 4.00000
30.22610 7.03348 4.00000
30.31362 7.03348 4.00000
30.40115 7.03348 4.00000
30.48870 7.03348 4.00000
30.57626 7.03348 4.00000
30.66384 7.03348 4.00000
30.75143 7.03348 4.00000
30.83903 7.03348 4.00000
30.92665 7.03348 4.00000
31.01428 7.03348 4.00000

Angle 0.716863 3.997780

4.00000 7.03348 4.00000
4.00000 7.03348 4.00000
4.00000 7.03348 4.00000
4.00000 7.03348 4.00000
4.00000 7.03348 4.00000
4.00000 7.03348 4.00000
4.00000 7.03348 4.00000
4.00000 7.03348 4.00000
4.00000 7.03348 4.00000
4.00000 7.03348 4.00000
4.00000 7.03348 4.00000
4.00000 7.03348 4.00000
4.00000 7.03348 4.00000
4.00000 7.03348 4.00000
4.00000 7.03348 4.00000
4.00000 7.03348 4.00000
4.00000 7.03348 4.00000
4.00000 7.03348 4.00000
4.00000 7.03348 4.00000
4.00000 7.03348 4.00000
4.00000 7.03347 4.00000
4.00000 7.03347 4.00000
4.00000 7.03347 4.00000
4.00000 7.03347 4.00000
4.00000 7.03347 4.00000
4.00000 7.03347 4.00000
4.00000 7.03347 4.00000
4.00000 7.03346 4.00000
4.00000 7.03346 4.00000
4.00000 7.03348 4.00000
4.00000 7.03348 4.00000
4.00000 7.03348 4.00000
4.00000 7.03348 4.00000
4.00000 7.03348 4.00000
4.00000 7.03348 4.00000
4.00000 7.03348 4.00000
4.00000 7.03348 4.00000
4.00000 7.03348 4.00000
4.00000 7.03348 4.00000
4.00000 7.03348 4.00000
4.00000 7.03348 4.00000
4.00000 7.03350 4.00000
4.00000 7.03347 4.00000
4.00000 7.03348 4.00000
4.00000 7.03348 4.00000
4.00000 7.03348 4.00000
4.00000 7.03348 4.00000
4.00000 7.03348 4.00000
4.00000 7.03348 4.00000
4.00000 7.03348 4.00000
4.00000 7.03348 4.00000
4.00000 7.03348 4.00000
4.00000 7.03348 4.00000
4.00000 7.03348 4.00000
4.00000 7.03348 4.00000
4.00000 7.03348 4.00000
4.00000 7.03348 4.00000
4.00000 7.03348 4.00000
4.00000 7.03348 4.00000
4.00000 7.03348 4.00000
4.00000 7.03348 4.00000
4.00000 7.03348 4.00000
4.00000 7.03348 4.00000
4.00000 7.03348 4.00000
4.00000 7.03348 4.00000
4.00000 7.03348 4.00000
4.00000 7.03348 4.00000
4.00000 7.03348 4.00000
4.00000 7.03348 4.00000
4.00000 7.03348 4.00000
4.00000 7.03348 4.00000
4.00000 7.03348 4.00000
4.00000 7.03348 4.00000
4.00000 7.03348 4.00000
4.00000 7.03348 4.00000
4.00000 7.03348 4.00000
4.00000 7.03348 4.00000
4.00000 7.03348 4.00000
4.00000 7.03348 4.00000
4.00000 7.03348 4.00000
4.00000 7.03348 4.00000
4.00000 7.03348 4.00000
4.00000 7.03348 4.00000
4.00000 7.03348 4.00000
4.00000 7.03348 4.00000
4.00000 7.03348 4.00000
4.00000 7.03348 4.00000
4.00000 7.03348 4.00000
4.00000 7.03348 4.00000
4.00000 7.03348 4.00000
4.00000 7.03348 4.00000
4.00000 7.03348 4.00000
4.00000 7.03348 4.00000
4.00000 7.03348 4.00000
4.00000 7.03348 4.00000
4.00000 7.03348 4.00000
4.00000 7.03348 4.00000
4.00000 7.03348 4.00000
4.00000 7.03348 4.00000
4.00000 7.03348 4.00000
4.00000 7.03348 4.00000
4.00000 7.03348 4.00000
4.00000 7.03348 4.00000
4.00000 7.03348 4.00000
4.00000 7.03348 4.00000
4.00000 7.03348 4.00000
4.00000 7.03348 4.00000
4.00000 7.03348 4.00000
4.00000 7.03348 4.00000
4.00000 7.03348 4.00000
4.00000 7.03348 4.00000
4.00000 7.03348 4.00000
4.00000 7.03348 4.00000
4.00000 7.03348 4.00000
4.00000 7.03348 4.00000
4.00000 7.03348 4.00000
4.00000 7.03348 4.00000
4.00000 7.03348 4.00000
4.00000 7.03348 4.00000
4.00000 7.03348 4.00000
4.00000 7.03348 4.00000
4.00000 7.03348 4.00000
4.00000 7.03348 4.00000
4.00000 7.03348 4.00000
4.00000 7.03348 4.00000
4.00000 7.03348 4.00000
4.00000 7.03348 4.00000
4.00000 7.03348 4.00000
4.00000 7.03348 4.00000
4.00000 7.03348 4.00000
4.00000 7.03348 4.00000
4.00000 7.03348 4.00000
4.00000 7.03348 4.00000
4.00000 7.03348 4.00000
4.00000 7.03348 4.00000
4.00000 7.03348 4.00000
4.00000 7.03348 4.00000
4.00000 7.03348 4.00000
4.00000 7.03348 4.00000
4.00000 7.03348 4.00000
4.00000 7.03348 4.00000
4.00000 7.03348 4.00000
4.00000 7.03348 4.00000
4.00000 7.03348 4.00000
4.00000 7.03348 4.00000
4.00000 7.03348 4.00000
4.00000 7.03348 4.00000
4.00000 7.03348 4.00000
4.00000 7.03348 4.00000
4.00000 7.03348 4.00000
4.00000 7.03348 4.00000
4.00000 7.03348 4.00000
4.00000 7.03348 4.00000
4.00000 7.03348 4.00000
4.00000 7.03348 4.00000
4.00000 7.03348 4.00000
4.00000 7.03348 4.00000
4.00000 7.03348 4.00000
4.00000 7.03348 4.00000
4.00000 7.03348 4.00000
4.00000 7.03348 4.00000
4.00000 7.03348 4.00000
4.00000 7.03348 4.00000
4.00000 7.03348 4.00000
4.00000 7.03348 4.00000
4.00000 7.03348 4.00000
4.00000 7.03348 4.00000
4.00000 7.03348 4.00000
4.00000 7.03348 4.00000
4.00000 7.03348 4.00000
4.00000 7.03348 4.00000
4.00000 7.03348 4.00000
4.00000 7.03348 4.00000
4.00000 7.03348 4.00000
4.00000 7.03348 4.00000
4.00000 7.03348 4.00000
4.00000 7.03348 4.00000
4.00000 7.03348 4.00000
4.00000 7.03348 4.00000
4.00000 7.03348 4.00000
4.00000 7.03348 4.00000
4.00000 7.03348 4.00000
4.00000 7.03348 4.00000
4.00000 7.03348 4.00000
4.00000 7.03348 4.00000
4.00000 7.03348 4.00000
4.00000 7.03348 4.00000
4.00000 7.03348 4.00000
4.00000 7.03348 4.00000
4.00000 7.03348 4.00000
4.00000 7.03348 4.00000
4.00000 7.03348 4.00000
4.00000 7.03348 4.00000
4.00000 7.03348 4.00000
4.00000 7.03349 4.00000
4.00000 7.03350 4.00000
4.00000 7.03354 4.00000
4.00000 7.03348 4.00000
4.00000 7.03348 4.00000
4.00000 7.03348 4.00000
4.00000 7.03348 4.00000
4.00370 7.10428 4.00369
4.00759 7.18046 4.00759
4.01144 7.25681 4.01144
4.01525 7.33332 4.01525
4.01904 7.40994 4.01904
4.02282 7.48665 4.02282
4.02661 7.56341 4.02661
4.03042 7.64019 4.03042
4.03428 7.71696 4.03428
4.03819 7.79367 4.03819
4.04219 7.87029 4.04219
4.04629 7.94676 4.04629
4.05053 8.02303 4.05053
4.05492 8.09904 4.05492
4.05951 8.17473 4.05951
4.06434 8.24999 4.06434
4.06945 8.32475 4.06945
4.07492 8.39887 4.07492
4.08080 8.47221 4.08080
4.08719 8.54459 4.08719
4.09420 8.61579 4.09420
4.10195 8.68555 4.10195
4.11044 8.75390 4.11044
4.11965 8.82085 4.11965
4.12965 8.88629 4.12965
4.14049 8.95011 4.14049
4.15220 9.01223 4.15220
4.16482 9.07257 4.16482
4.17839 9.13106 4.17839
4.19293 9.18767 4.19293
4.20845 9.24237 4.20845
4.22495 9.29516 4.22495
4.24242 9.34606 4.24242
4.26083 9.39510 4.26083
4.28017 9.44235 4.28017
4.30039 9.48787 4.30039
4.32146 9.53175 4.32146
4.34334 9.57406 4.34334
4.36597 9.61490 4.36597
4.38932 9.65434 4.38932
4.41336 9.69245 4.41336
4.43806 9.72928 4.43806
4.46341 9.76484 4.46341
4.48946 9.79907 4.48945
4.51626 9.83181 4.51625
4.54402 9.86268 4.54402
4.57317 9.89080 4.57317
4.60473 9.91415 4.60473
4.64132 9.92746 4.64132
4.00002 7.03350 16.06307
4.01183 7.26457 8.10683
4.01045 7.23706 8.22232
4.00928 7.21372 8.33350
4.00827 7.19371 8.44120
4.00739 7.17638 8.54612
4.00662 7.16128 8.64875
4.00594 7.14803 8.74946
4.00535 7.13636 8.84856
4.00482 7.12602 8.94628
4.00434 7.11685 9.04281
4.00392 7.10867 9.13833
4.00354 7.10137 9.23296
4.00321 7.09484 9.32681
4.00290 7.08898 9.41998
4.00263 7.08372 9.51256
4.00238 7.07899 9.60461
4.00216 7.07471 9.69621
4.00196 7.07087 9.78740
4.00178 7.06740 9.87820
4.00162 7.06426 9.96870
4.00147 7.06142 10.05890
4.00133 7.05886 10.14885
4.00121 7.05653 10.23857
4.00110 7.05443 10.32809
4.00100 7.05252 10.41743
4.00091 7.05078 10.50661
4.00083 7.04921 10.59565
4.00075 7.04779 10.68456
4.00068 7.04649 10.77336
4.00062 7.04531 10.86206
4.00057 7.04424 10.95068
4.00052 7.04328 11.03919
4.00047 7.04238 11.12767
4.00043 7.04159 11.21606
4.00039 7.04085 11.30442
4.00035 7.04019 11.39272
4.00032 7.03959 11.48099
4.00029 7.03904 11.56922
4.00026 7.03854 11.65742
4.00024 7.03807 11.74562
4.00022 7.03766 11.83376
4.00020 7.03728 11.92191
4.00018 7.03695 12.01001
4.00016 7.03663 12.09815
4.00015 7.03635 12.18624
4.00014 7.03608 12.27435
4.00012 7.03585 12.36246
4.00011 7.03564 12.45056
4.00010 7.03546 12.53862
4.00009 7.03526 12.62674
4.00008 7.03510 12.71484
4.00008 7.03495 12.80295
4.00007 7.03482 12.89107
4.00006 7.03470 12.97920
4.00006 7.03459 13.06733
4.00005 7.03449 13.15548
4.00005 7.03440 13.24363
4.00004 7.03431 13.33180
4.00004 7.03424 13.41997
4.00003 7.03417 13.50815
4.00003 7.03410 13.59635
4.00003 7.03405 13.68456
4.00003 7.03399 13.77277
4.00002 7.03395 13.86100
4.00002 7.03390 13.94925
4.00002 7.03386 14.03750
4.00002 7.03383 14.12577
4.00002 7.03379 14.21405
4.00001 7.03376 14.30234
4.00001 7.03374 14.39064
4.00001 7.03371 14.47896
4.00001 7.03369 14.56729
4.00001 7.03367 14.65564
4.00001 7.03365 14.74399
4.00001 7.03363 14.83237
4.00001 7.03362 14.92075
4.00001 7.03362 15.00902
4.00001 7.03361 15.09744
4.00001 7.03360 15.18588
4.00001 7.03359 15.27432
4.00001 7.03358 15.36278
4.00000 7.03357 15.45126
4.00000 7.03356 15.53974
4.00000 7.03355 15.62824
4.00000 7.03355 15.71676
4.00000 7.03354 15.80528
4.00000 7.03353 15.89382
4.00000 7.03353 15.98238
4.00000 7.03353 16.07094
4.00000 7.03352 16.15952
4.00000 7.03352 16.24811
4.00000 7.03351 16.33671
4.00000 7.03351 16.42533
4.00000 7.03351 16.51395
4.00000 7.03351 16.60259
4.00000 7.03350 16.69124
4.00000 7.03350 16.77991
4.00000 7.03350 16.86858
4.00000 7.03350 16.95727
4.00000 7.03350 17.04597
4.00000 7.03349 17.13467
4.00000 7.03349 17.22340
4.00000 7.03349 17.31213
4.00000 7.03349 17.40087
4.00000 7.03349 17.48962
4.00000 7.03349 17.57839
4.00000 7.03349 17.66717
4.00000 7.03349 17.75595
4.00000 7.03349 17.84475
4.00000 7.03349 17.93356
4.00000 7.03349 18.02238
4.00000 7.03348 18.11121
4.00000 7.03348 18.20005
4.00000 7.03348 18.28889
4.00000 7.03348 18.37775
4.00000 7.03348 18.46662
4.00000 7.03348 18.55550
4.00000 7.03348 18.64439
4.00000 7.03348 18.73329
4.00000 7.03348 18.82220
4.00000 7.03348 18.91112
4.00000 7.03348 19.00005
4.00000 7.03348 19.08899
4.00000 7.03348 19.17794
4.00000 7.03348 19.26689
4.00000 7.03348 19.35586
4.00000 7.03348 19.44484
4.00000 7.03348 19.53382
4.00000 7.03348 19.62282
4.00000 7.03348 19.71182
4.00000 7.03348 19.80083
4.00000 7.03348 19.88985
4.00000 7.03348 19.97888
4.00000 7.03348 20.06792
4.00000 7.03348 20.15697
4.00000 7.03348 20.24602
4.00000 7.03348 20.33509
4.00000 7.03348 20.42416
4.00000 7.03348 20.51324
4.00000 7.03348 20.60233
4.00000 7.03348 20.69143
4.00000 7.03348 20.78054
4.00000 7.03348 20.86965
4.00000 7.03348 20.95877
4.00000 7.03348 21.04790
4.00000 7.03348 21.13704
4.00000 7.03348 21.22619
4.00000 7.03348 21.31534
4.00000 7.03348 21.40450

Angle 0.511379 4.844844

4.00000 7.03348 4.00000
4.00000 7.03347 4.00000
4.00000 7.03347 4.00000
4.00000 7.03347 4.00000
4.00000 7.03347 4.00000
4.00000 7.03347 4.00000
4.00000 7.03347 4.00000
4.00000 7.03347 4.00000
4.00000 7.03347 4.00000
4.00000 7.03347 4.00000
4.00000 7.03347 4.00000
4.00000 7.03347 4.00000
4.00000 7.03347 4.00000
4.00000 7.03347 4.00000
4.00000 7.03347 4.00000
4.00000 7.03347 4.00000
4.00000 7.03347 4.00000
4.00000 7.03347 4.00000
4.00000 7.03347 4.00000
4.00000 7.03347 4.00000
4.00000 7.03347 4.00000
4.00000 7.03347 4.00000
4.00000 7.03347 4.00000
4.00000 7.03347 4.00000
4.00000 7.03347 4.00000
4.00000 7.03347 4.00000
4.00000 7.03348 4.00000
4.00000 7.03348 4.00000
4.00000 7.03348 4.00000
4.00000 7.03347 4.00000
4.00000 7.03348 4.00000
4.00000 7.03348 4.00000
4.00000 7.03348 4.00000
4.00000 7.03348 4.00000
4.00000 7.03348 4.00000
4.00000 7.03348 4.00000
4.00000 7.03348 4.00000
4.00000 7.03348 4.00000
4.00000 7.03348 4.00000
4.00000 7.03348 4.00000
4.00000 7.03348 4.00000
4.00000 7.03348 4.00000
4.00000 7.03348 4.00000
4.00000 7.03348 4.00000
4.00000 7.03348 4.00000
4.00000 7.03348 4.00000
4.00000 7.03348 4.00000
4.00000 7.03348 4.00000
4.00000 7.03348 4.00000
4.00000 7.03348 4.00000
4.00000 7.03348 4.00000
4.00000 7.03348 4.00000
4.00000 7.03348 4.00000
4.00000 7.03348 4.00000
4.00000 7.03348 4.00000
4.00000 7.03348 4.00000
4.00000 7.03348 4.00000
4.00000 7.03348 4.00000
4.00000 7.03348 4.00000
4.00000 7.03348 4.00000
4.00000 7.03348 4.00000
4.00000 7.03348 4.00000
4.00000 7.03348 4.00000
4.00000 7.03348 4.00000
4.00000 7.03348 4.00000
4.00000 7.03348 4.00000
4.00000 7.03348 4.00000
4.00000 7.03348 4.00000
4.00000 7.03348 4.00000
4.00000 7.03348 4.00000
4.00000 7.03348 4.00000
4.00000 7.03348 4.00000
4.00000 7.03348 4.00000
4.00000 7.03348 4.00000
4.00000 7.03348 4.00000
4.00000 7.03348 4.00000
4.00000 7.03348 4.00000
4.00000 7.03348 4.00000
4.00000 7.03348 4.00000
4.00000 7.03348 4.00000
4.00000 7.03348 4.00000
4.00000 7.03348 4.00000
4.00000 7.03348 4.00000
4.00000 7.03348 4.00000
4.00000 7.03348 4.00000
4.00000 7.03348 4.00000
4.00000 7.03348 4.00000
4.00000 7.03348 4.00000
4.00000 7.03348 4.00000
4.00000 7.03348 4.00000
4.00000 7.03348 4.00000
4.00000 7.03348 4.00000
4.00000 7.03348 4.00000
4.00000 7.03348 4.00000
4.00000 7.03348 4.00000
4.00000 7.03348 4.00000
4.00000 7.03348 4.00000
4.00000 7.03348 4.00000
4.00000 7.03348 4.00000
4.00000 7.03348 4.00000
4.00000 7.03348 4.00000
4.00000 7.03348 4.00000
4.00000 7.03347 4.00000
4.00000 7.03347 4.00000
4.00000 7.03348 4.00000
4.00000 7.03348 4.00000
4.00000 7.03348 4.00000
4.00000 7.03348 4.00000
4.00000 7.03348 4.00000
4.00000 7.03348 4.00000
4.00000 7.03348 4.00000
4.00000 7.03348 4.00000
4.00000 7.03348 4.00000
4.00000 7.03348 4.00000
4.00000 7.03348 4.00000
4.00000 7.03348 4.00000
4.00000 7.03348 4.00000
4.00000 7.03348 4.00000
4.00000 7.03348 4.00000
4.00000 7.03348 4.00000
4.00000 7.03348 4.00000
4.00000 7.03348 4.00000
4.00000 7.03348 4.00000
4.00000 7.03348 4.00000
4.00000 7.03348 4.00000
4.00000 7.03348 4.00000
4.00000 7.03348 4.00000
4.00000 7.03348 4.00000
4.00000 7.03348 4.00000
4.00000 7.03348 4.00000
4.00000 7.03350 4.00000
4.00000 7.03348 4.00000
4.00000 7.03348 4.00000
4.00000 7.03348 4.00000
4.00000 7.03351 4.00000
4.00000 7.03348 4.00000
4.00226 7.07654 4.00225
4.00589 7.14705 4.00589
4.00948 7.21781 4.00948
4.01304 7.28878 4.01304
4.01657 7.35993 4.01657
4.02009 7.43124 4.02009
4.02361 7.50268 4.02361
4.02714 7.57422 4.02714
4.03070 7.64584 4.03070
4.03430 7.71751 4.03430
4.03796 7.78919 4.03796
4.04169 7.86084 4.04169
4.04551 7.93243 4.04551
4.04945 8.00392 4.04945
4.05352 8.07524 4.05352
4.05776 8.14635 4.05776
4.06220 8.21718 4.06220
4.06687 8.28765 4.06687
4.07183 8.35767 4.07183
4.07712 8.42712 4.07712
4.08282 8.49587 4.08282
4.08900 8.56376 4.08900
4.09576 8.63059 4.09576
4.10321 8.69614 4.10321
4.11131 8.76052 4.11131
4.12006 8.82366 4.12006
4.12953 8.88550 4.12953
4.13974 8.94592 4.13974
4.15074 9.00487 4.15074
4.16257 9.06226 4.16257
4.17525 9.11804 4.17525
4.18880 9.17217 4.18880
4.20324 9.22461 4.20324
4.21858 9.27536 4.21858
4.23480 9.32443 4.23480
4.25189 9.37183 4.25189
4.26984 9.41761 4.26984
4.28862 9.46181 4.28862
4.30819 9.50450 4.30819
4.32853 9.54575 4.32853
4.34959 9.58564 4.34959
4.37135 9.62422 4.37135
4.39376 9.66156 4.39376
4.41680 9.69773 4.41680
4.44045 9.73274 4.44045
4.46472 9.76661 4.46472
4.48962 9.79928 4.48962
4.51523 9.83061 4.51523
4.54172 9.86026 4.54172
4.56944 9.88750 4.56944
4.59921 9.91073 4.59921
4.63300 9.92598 4.63301
7.95411 7.30685 4.01394
8.07200 7.27358 4.01228
8.18430 7.24572 4.01089
8.29229 7.22204 4.00970
8.39686 7.20166 4.00867
8.49869 7.18397 4.00777
8.59824 7.16850 4.00699
8.69592 7.15489 4.00629
8.79199 7.14286 4.00568
8.88671 7.13219 4.00513
8.98026 7.12268 4.00464
9.07280 7.11419 4.00421
9.16448 7.10658 4.00381
9.25538 7.09976 4.00346
9.34564 7.09361 4.00314
9.43531 7.08807 4.00286
9.52448 7.08307 4.00260
9.61318 7.07856 4.00236
9.70149 7.07448 4.00215
9.78945 7.07078 4.00196
9.87710 7.06744 4.00178
9.96448 7.06440 4.00162
10.05161 7.06165 4.00148
10.13853 7.05914 4.00135
10.22526 7.05686 4.00123
10.31181 7.05481 4.00112
10.39824 7.05292 4.00102
10.48453 7.05120 4.00093
10.57070 7.04965 4.00085
10.65680 7.04821 4.00077
10.74278 7.04692 4.00071
10.82871 7.04574 4.00065
10.91456 7.04467 4.00059
11.00038 7.04368 4.00054
11.08612 7.04281 4.00049
11.17185 7.04198 4.00045
11.25755 7.04123 4.00041
11.34320 7.04057 4.00037
11.42886 7.03994 4.00034
11.51450 7.03938 4.00031
11.60012 7.03886 4.00028
11.68573 7.03840 4.00026
11.77136 7.03796 4.00024
11.85699 7.03757 4.00022
11.94260 7.03722 4.00020
12.02824 7.03688 4.00018
12.11389 7.03659 4.00016
12.19954 7.03632 4.00015
12.28522 7.03606 4.00014
12.37092 7.03584 4.00012
12.45661 7.03564 4.00011
12.54236 7.03544 4.00010
12.62808 7.03528 4.00009
12.71386 7.03511 4.00008
12.79968 7.03497 4.00008
12.88543 7.03485 4.00007
12.97130 7.03472 4.00006
13.05714 7.03462 4.00006
13.14306 7.03451 4.00005
13.22901 7.03442 4.00005
13.31501 7.03434 4.00004
13.40080 7.03429 4.00004
13.48686 7.03419 4.00004
13.57293 7.03413 4.00003
13.65906 7.03408 4.00003
13.74493 7.03403 4.00003
13.83106 7.03397 4.00003
13.91722 7.03392 4.00002
14.00344 7.03389 4.00002
14.08971 7.03385 4.00002
14.17602 7.03382 4.00002
14.26238 7.03379 4.00002
14.34877 7.03376 4.00001
14.43521 7.03374 4.00001
14.52169 7.03371 4.00001
14.60820 7.03369 4.00001
14.69475 7.03367 4.00001
14.78133 7.03366 4.00001
14.86794 7.03364 4.00001
14.95459 7.03362 4.00001
15.04126 7.03361 4.00001
15.12797 7.03360 4.00001
15.21470 7.03359 4.00001
15.30145 7.03357 4.00000
15.38824 7.03357 4.00000
15.47505 7.03356 4.00000
15.56188 7.03355 4.00000
15.64874 7.03354 4.00000
15.73562 7.03353 4.00000
15.82252 7.03353 4.00000
15.90945 7.03352 4.00000
15.99639 7.03352 4.00000
16.08336 7.03351 4.00000
16.17035 7.03351 4.00000
16.25735 7.03350 4.00000
16.34437 7.03351 4.00000
16.43143 7.03351 4.00000
16.51850 7.03351 4.00000
16.60559 7.03351 4.00000
16.69270 7.03350 4.00000
16.77982 7.03350 4.00000
16.86697 7.03350 4.00000
16.95413 7.03350 4.00000
17.04132 7.03350 4.00000
17.12852 7.03349 4.00000
17.21573 7.03349 4.00000
17.30297 7.03349 4.00000
17.39022 7.03349 4.00000
17.47748 7.03349 4.00000
17.56477 7.03349 4.00000
17.65207 7.03349 4.00000
17.73939 7.03349 4.00000
17.82672 7.03349 4.00000
17.91407 7.03349 4.00000
18.00143 7.03349 4.00000
18.08881 7.03348 4.00000
18.17621 7.03348 4.00000
18.26362 7.03348 4.00000
18.35105 7.03348 4.00000
18.43849 7.03348 4.00000
18.52595 7.03348 4.00000
18.61343 7.03348 4.00000
18.70092 7.03348 4.00000
18.78842 7.03348 4.00000
18.87594 7.03348 4.00000
18.96347 7.03348 4.00000
19.05102 7.03348 4.00000
19.13858 7.03348 4.00000
19.22616 7.03348 4.00000
19.31375 7.03348 4.00000
19.40136 7.03348 4.00000
19.48898 7.03348 4.00000
19.57662 7.03348 4.00000
19.66426 7.03348 4.00000
19.75193 7.03348 4.00000
19.83961 7.03348 4.00000
19.92730 7.03348 4.00000
20.01500 7.03348 4.00000
20.10272 7.03348 4.00000
20.19046 7.03348 4.00000
20.27820 7.03348 4.00000
20.36596 7.03348 4.00000
20.45374 7.03348 4.00000
20.54153 7.03348 4.00000
20.62933 7.03348 4.00000
20.71714 7.03348 4.00000
20.80497 7.03348 4.00000
20.89282 7.03348 4.00000
20.98067 7.03348 4.00000
21.06854 7.03348 4.00000
21.15642 7.03348 4.00000
21.24431 7.03348 4.00000
21.33222 7.03348 4.00000
21.42014 7.03348 4.00000
21.50808 7.03348 4.00000
21.59602 7.03348 4.00000
21.68398 7.03348 4.00000
21.77195 7.03348 4.00000
21.85994 7.03348 4.00000
21.94793 7.03348 4.00000
22.03594 7.03348 4.00000
22.12397 7.03348 4.00000
22.21200 7.03348 4.00000
22.30005 7.03348 4.00000
22.38811 7.03348 4.00000
22.47618 7.03348 4.00000
22.56426 7.03348 4.00000
22.65236 7.03348 4.00000
22.74047 7.03348 4.00000
22.82858 7.03348 4.00000
22.91672 7.03348 4.00000
23.00486 7.03348 4.00000
23.09302 7.03348 4.00000
23.18118 7.03348 4.00000
23.26936 7.03348 4.00000
23.35755 7.03348 4.00000
23.44575 7.03348 4.00000
23.53397 7.03348 4.00000
23.62219 7.03348 4.00000
23.71043 7.03348 4.00000
23.79867 7.03348 4.00000
23.88693 7.03348 4.00000
23.97520 7.03348 4.00000
24.06348 7.03348 4.00000
24.15178 7.03348 4.00000
24.24008 7.03348 4.00000
24.32839 7.03348 4.00000
24.41672 7.03348 4.00000
24.50506 7.03348 4.00000
24.59340 7.03348 4.00000
24.68176 7.03348 4.00000
24.77013 7.03348 4.00000
24.85851 7.03348 4.00000
24.94690 7.03348 4.00000
25.03530 7.03348 4.00000
25.12371 7.03348 4.00000
25.21213 7.03348 4.00000
25.30056 7.03348 4.00000
25.38900 7.03348 4.00000
25.47745 7.03348 4.00000
25.56591 7.03348 4.00000
25.65438 7.03348 4.00000
25.74286 7.03348 4.00000
25.83136 7.03348 4.00000
25.91986 7.03348 4.00000
26.00837 7.03348 4.00000
26.09689 7.03348 4.00000
26.18542 7.03348 4.00000
26.27396 7.03348 4.00000
26.36251 7.03348 4.00000
26.45107 7.03348 4.00000
26.53964 7.03348 4.00000

Angle 0.510305 2.478350

4.00000 7.03348 4.00000
4.00000 7.03348 4.00000
4.00000 7.03348 4.00000
4.00000 7.03348 4.00000
4.00000 7.03348 4.00000
4.00000 7.03348 4.00000
4.00000 7.03348 4.00000
4.00000 7.03348 4.00000
4.00000 7.03348 4.00000
4.00000 7.03348 4.00000
4.00000 7.03348 4.00000
4.00000 7.03348 4.00000
4.00000 7.03348 4.00000
4.00000 7.03348 4.00000
4.00000 7.03348 4.00000
4.00000 7.03348 4.00000
4.00000 7.03348 4.00000
4.00000 7.03348 4.00000
4.00000 7.03348 4.00000
4.00000 7.03348 4.00000
4.00000 7.03348 4.00000
4.00000 7.03348 4.00000
4.00000 7.03348 4.00000
4.00000 7.03348 4.00000
4.00000 7.03348 4.00000
4.00000 7.03348 4.00000
4.00000 7.03348 4.00000
4.00000 7.03348 4.00000
4.00000 7.03348 4.00000
4.00000 7.03348 4.00000
4.00000 7.03348 4.00000
4.00000 7.03348 4.00000
4.00000 7.03348 4.00000
4.00000 7.03348 4.00000
4.00000 7.03348 4.00000
4.00000 7.03348 4.00000
4.00000 7.03348 4.00000
4.00000 7.03348 4.00000
4.00000 7.03348 4.00000
4.00000 7.03348 4.00000
4.00000 7.03348 4.00000
4.00000 7.03348 4.00000
4.00000 7.03348 4.00000
4.00000 7.03348 4.00000
4.00000 7.03348 4.00000
4.00000 7.03348 4.00000
4.00000 7.03348 4.00000
4.00000 7.03348 4.00000
4.00000 7.03348 4.00000
4.00000 7.03348 4.00000
4.00000 7.03348 4.00000
4.00000 7.03348 4.00000
4.00000 7.03348 4.00000
4.00000 7.03348 4.00000
4.00000 7.03348 4.00000
4.00000 7.03348 4.00000
4.00000 7.03348 4.00000
4.00000 7.03348 4.00000
4.00000 7.03348 4.00000
4.00000 7.03348 4.00000
4.00000 7.03348 4.00000
4.00000 7.03348 4.00000
4.00000 7.03348 4.00000
4.00000 7.03348 4.00000
4.00000 7.03348 4.00000
4.00000 7.03348 4.00000
4.00000 7.03348 4.00000
4.00000 7.03348 4.00000
4.00000 7.03348 4.00000
4.00000 7.03348 4.00000
4.00000 7.03348 4.00000
4.00000 7.03348 4.00000
4.00000 7.03348 4.00000
4.00000 7.03348 4.00000
4.00000 7.03348 4.00000
4.00000 7.03348 4.00000
4.00000 7.03348 4.00000
4.00000 7.03348 4.00000
4.00000 7.03348 4.00000
4.00000 7.03348 4.00000
4.00000 7.03348 4.00000
4.00000 7.03348 4.00000
4.00000 7.03348 4.00000
4.00000 7.03348 4.00000
4.00000 7.03348 4.00000
4.00000 7.03348 4.00000
4.00000 7.03348 4.00000
4.00000 7.03348 4.00000
4.00000 7.03348 4.00000
4.00000 7.03348 4.00000
4.00000 7.03348 4.00000
4.00000 7.03348 4.00000
4.00000 7.03348 4.00000
4.00000 7.03348 4.00000
4.00000 7.03348 4.00000
4.00000 7.03348 4.00000
4.00000 7.03348 4.00000
4.00000 7.03348 4.00000
4.00000 7.03348 4.00000
4.00000 7.03348 4.00000
4.00000 7.03348 4.00000
4.00000 7.03348 4.00000
4.00000 7.03348 4.00000
4.00000 7.03348 4.00000
4.00000 7.03348 4.00000
4.00000 7.03348 4.00000
4.00000 7.03348 4.00000
4.00000 7.03348 4.00000
4.00000 7.03348 4.00000
4.00000 7.03348 4.00000
4.00000 7.03348 4.00000
4.00000 7.03348 4.00000
4.00000 7.03348 4.00000
4.00000 7.03348 4.00000
4.00000 7.03348 4.00000
4.00000 7.03348 4.00000
4.00000 7.03348 4.00000
4.00000 7.03348 4.00000
4.00000 7.03348 4.00000
4.00000 7.03348 4.00000
4.00000 7.03348 4.00000
4.00000 7.03348 4.00000
4.00000 7.03348 4.00000
4.00000 7.03348 4.00000
4.00000 7.03348 4.00000
4.00000 7.03348 4.00000
4.00000 7.03348 4.00000
4.00000 7.03348 4.00000
4.00000 7.03348 4.00000
4.00000 7.03348 4.00000
4.00000 7.03348 4.00000
4.00000 7.03348 4.00000
4.00000 7.03348 4.00000
4.00000 7.03348 4.00000
4.00000 7.03348 4.00000
4.00000 7.03348 4.00000
4.00000 7.03348 4.00000
4.00000 7.03348 4.00000
4.00000 7.03348 4.00000
4.00000 7.03348 4.00000
4.00000 7.03348 4.00000
4.00000 7.03348 4.00000
4.00000 7.03348 4.00000
4.00000 7.03348 4.00000
4.00000 7.03348 4.00000
4.00000 7.03348 4.00000
4.00000 7.03348 4.00000
4.00000 7.03348 4.00000
4.00000 7.03348 4.00000
4.00000 7.03348 4.00000
4.00000 7.03348 4.00000
4.00000 7.03348 4.00000
4.00000 7.03348 4.00000
4.00000 7.03348 4.00000
4.00000 7.03348 4.00000
4.00000 7.03348 4.00000
4.00000 7.03348 4.00000
4.00000 7.03348 4.00000
4.00000 7.03348 4.00000
4.00000 7.03348 4.00000
4.00000 7.03348 4.00000
4.00000 7.03348 4.00000
4.00000 7.03348 4.00000
4.00000 7.03348 4.00000
4.00000 7.03348 4.00000
4.00000 7.03348 4.00000
4.00000 7.03348 4.00000
4.00000 7.03348 4.00000
4.00000 7.03348 4.00000
4.00000 7.03348 4.00000
4.00000 7.03348 4.00000
4.00000 7.03348 4.00000
4.00000 7.03348 4.00000
4.00000 7.03348 4.00000
4.00000 7.03348 4.00000
4.00000 7.03348 4.00000
4.00000 7.03348 4.00000
4.00000 7.03348 4.00000
4.00000 7.03348 4.00000
4.00000 7.03348 4.00000
4.00000 7.03348 4.00000
4.00000 7.03348 4.00000
4.00000 7.03348 4.00000
4.00000 7.03348 4.00000
4.00000 7.03348 4.00000
4.00000 7.03348 4.00000
4.00000 7.03348 4.00000
4.00000 7.03348 4.00000
4.00000 7.03348 4.00000
4.00000 7.03348 4.00000
4.00000 7.03348 4.00000
4.00000 7.03348 4.00000
4.00000 7.03348 4.00000
4.00000 7.03348 4.00000
4.00000 7.03348 4.00000
4.00000 7.03348 4.00000
4.00000 7.03348 4.00000
4.00000 7.03348 4.00000
4.00000 7.03348 4.00000
4.00000 7.03348 4.00000
4.00000 7.03348 4.00000
4.00000 7.03348 4.00000
4.00000 7.03348 4.00000
4.00000 7.03348 4.00000
4.00000 7.03348 4.00000
4.00000 7.03348 4.00000
4.00000 7.03348 4.00000
4.00000 7.03348 4.00000
4.00000 7.03348 4.00000
4.00000 7.03348 4.00000
4.00000 7.03348 4.00000
4.00000 7.03348 4.00000
4.00000 7.03348 4.00000
4.00000 7.03348 4.00000
4.00000 7.03348 4.00000
4.00000 7.03348 4.00000
4.00000 7.03348 4.00000
4.00000 7.03348 4.00000
4.00000 7.03348 4.00000
4.00000 7.03348 4.00000
4.00000 7.03348 4.00000
4.00000 7.03348 4.00000
4.00000 7.03348 4.00000
4.00000 7.03348 4.00000
4.00000 7.03348 4.00000
4.00000 7.03348 4.00000
4.00000 7.03348 4.00000
4.00000 7.03348 4.00000
4.00000 7.03348 4.00000
4.00000 7.03348 4.00000
4.00000 7.03348 4.00000
4.00000 7.03348 4.00000
4.00000 7.03348 4.00000
4.00000 7.03348 4.00000
4.00000 7.03348 4.00000
4.00000 7.03348 4.00000
4.00000 7.03348 4.00000
4.00000 7.03348 4.00000
4.00000 7.03348 4.00000
4.00000 7.03348 4.00000
4.00000 7.03348 4.00000
4.00000 7.03348 4.00000
4.00000 7.03348 4.00000
4.00000 7.03348 4.00000
4.00000 7.03348 4.00000
4.00000 7.03348 4.00000
4.00000 7.03348 4.00000
4.00000 7.03348 4.00000
4.00000 7.03348 4.00000
4.00000 7.03348 4.00000
4.00000 7.03348 4.00000
4.00000 7.03348 4.00000
4.00000 7.03348 4.00000
4.00000 7.03349 4.00000
4.00000 7.03351 4.00000
4.00000 7.03348 4.00000
4.00000 7.03349 4.00000
4.00000 7.03348 4.00000
4.00000 7.03348 4.00000
4.00324 7.09553 4.00324
4.00718 7.17224 4.00718
4.01106 7.24913 4.01106
4.01490 7.32616 4.01490
4.01871 7.40331 4.01871
4.02252 7.48055 4.02252
4.02633 7.55783 4.02633
4.03017 7.63514 4.03017
4.03405 7.71242 4.03405
4.03798 7.78964 4.03798
4.04200 7.86676 4.04200
4.04613 7.94373 4.04613
4.05038 8.02050 4.05038
4.05480 8.09700 4.05480
4.05941 8.17316 4.05941
4.06427 8.24890 4.06427
4.06941 8.32411 4.06941
4.07490 8.39868 4.07490
4.08082 8.47245 4.08082
4.08725 8.54525 4.08725
4.09431 8.61685 4.09431
4.10212 8.68698 4.10212
4.11067 8.75569 4.11067
4.11996 8.82297 4.11996
4.13004 8.88871 4.13004
4.14097 8.95281 4.14097
4.15279 9.01519 4.15279
4.16553 9.07576 4.16553
4.17922 9.13446 4.17922
4.19390 9.19125 4.19390
4.20956 9.24610 4.20957
4.22622 9.29902 4.22622
4.24384 9.35003 4.24385
4.26244 9.39917 4.26244
4.28195 9.44650 4.28195
4.30235 9.49209 4.30235
4.32360 9.53602 4.32360
4.34566 9.57838 4.34566
4.36848 9.61926 4.36848
4.39202 9.65874 4.39202
4.41624 9.69688 4.41624
4.44114 9.73372 4.44114
4.46669 9.76928 4.46669
4.49294 9.80348 4.49294
4.51998 9.83615 4.51998
4.54803 9.86683 4.54803
4.57757 9.89456 4.57757
4.60978 9.91697 4.60978
4.64774 9.92795 4.64774
8.00528 7.29187 4.01319
8.12593 7.25977 4.01159
8.24112 7.23291 4.01024
8.35209 7.21010 4.00909
8.45971 7.19051 4.00810
8.56462 7.17354 4.00724
8.66729 7.15873 4.00649
8.76808 7.14574 4.00583
8.86729 7.13429 4.00524
8.96515 7.12415 4.00472
9.06185 7.11515 4.00426
9.15754 7.10713 4.00384
9.25236 7.09997 4.00347
9.34641 7.09356 4.00314
9.43981 7.08780 4.00284
9.53261 7.08264 4.00257
9.62490 7.07800 4.00233
9.71672 7.07381 4.00211
9.80814 7.07005 4.00192
9.89920 7.06664 4.00174
9.98994 7.06357 4.00158
10.08040 7.06079 4.00143
10.17060 7.05827 4.00130
10.26058 7.05599 4.00118
10.35036 7.05393 4.00108
10.43995 7.05206 4.00098
10.52939 7.05037 4.00089
10.61869 7.04883 4.00081
10.70786 7.04744 4.00073
10.79692 7.04617 4.00067
10.88590 7.04500 4.00060
10.97476 7.04397 4.00055
11.06357 7.04301 4.00050
11.15227 7.04216 4.00046
11.24095 7.04136 4.00041
11.32957 7.04065 4.00037
11.41811 7.04001 4.00034
11.50665 7.03941 4.00031
11.59514 7.03887 4.00028
11.68360 7.03839 4.00026
11.77204 7.03794 4.00023
11.86045 7.03754 4.00021
11.94881 7.03719 4.00020
12.03721 7.03684 4.00018
12.12557 7.03653 4.00016
12.21393 7.03626 4.00015
12.30228 7.03601 4.00013
12.39063 7.03578 4.00012
12.47897 7.03557 4.00011
12.56732 7.03538 4.00010
12.65566 7.03521 4.00009
12.74401 7.03505 4.00008
12.83236 7.03491 4.00007
12.92071 7.03478 4.00007
13.00907 7.03466 4.00006
13.09744 7.03455 4.00006
13.18581 7.03445 4.00005
13.27419 7.03437 4.00005
13.36258 7.03428 4.00004
13.45098 7.03421 4.00004
13.53938 7.03414 4.00003
13.62780 7.03408 4.00003
13.71623 7.03403 4.00003
13.80467 7.03397 4.00003
13.89312 7.03393 4.00002
13.98158 7.03389 4.00002
14.07005 7.03385 4.00002
14.15853 7.03381 4.00002
14.24703 7.03378 4.00002
14.33554 7.03375 4.00001
14.42406 7.03373 4.00001
14.51259 7.03370 4.00001
14.60113 7.03368 4.00001
14.68969 7.03366 4.00001
14.77826 7.03364 4.00001
14.86684 7.03363 4.00001
14.95543 7.03361 4.00001
15.04388 7.03362 4.00001
15.13250 7.03360 4.00001
15.22113 7.03359 4.00001
15.30978 7.03358 4.00001
15.39844 7.03357 4.00000
15.48710 7.03356 4.00000
15.57579 7.03356 4.00000
15.66448 7.03355 4.00000
15.75319 7.03354 4.00000
15.84190 7.03354 4.00000
15.93064 7.03353 4.00000
16.01938 7.03353 4.00000
16.10813 7.03352 4.00000
16.19690 7.03352 4.00000
16.28568 7.03352 4.00000

Angle 0.343863 3.400151

4.00000 7.03348 4.00000
4.00000 7.03349 4.00000
4.00000 7.03348 4.00000
4.00000 7.03348 4.00000
4.00000 7.03348 4.00000
4.00000 7.03348 4.00000
4.00000 7.03349 4.00000
4.00000 7.03348 4.00000
4.00000 7.03348 4.00000
4.00000 7.03348 4.00000
4.00000 7.03348 4.00000
4.00000 7.03348 4.00000
4.00000 7.03348 4.00000
4.00000 7.03348 4.00000
4.00000 7.03348 4.00000
4.00000 7.03348 4.00000
4.00000 7.03348 4.00000
4.00000 7.03348 4.00000
4.00000 7.03348 4.00000
4.00000 7.03348 4.00000
4.00000 7.03348 4.00000
4.00000 7.03348 4.00000
4.00000 7.03348 4.00000
4.00000 7.03348 4.00000
4.00000 7.03348 4.00000
4.00000 7.03348 4.00000
4.00000 7.03348 4.00000
4.00000 7.03348 4.00000
4.00000 7.03348 4.00000
4.00000 7.03348 4.00000
4.00000 7.03348 4.00000
4.00000 7.03348 4.00000
4.00000 7.03348 4.00000
4.00000 7.03348 4.00000
4.00000 7.03348 4.00000
4.00000 7.03348 4.00000
4.00000 7.03348 4.00000
4.00000 7.03348 4.00000
4.00000 7.03348 4.00000
4.00000 7.03348 4.00000
4.00000 7.03348 4.00000
4.00000 7.03348 4.00000
4.00000 7.03348 4.00000
4.00000 7.03348 4.00000
4.00000 7.03348 4.00000
4.00000 7.03348 4.00000
4.00000 7.03348 4.00000
4.00000 7.03348 4.00000
4.00000 7.03348 4.00000
4.00000 7.03348 4.00000
4.00000 7.03348 4.00000
4.00000 7.03348 4.00000
4.00000 7.03348 4.00000
4.00000 7.03348 4.00000
4.00000 7.03348 4.00000
4.00000 7.03348 4.00000
4.00000 7.03348 4.00000
4.00000 7.03348 4.00000
4.00000 7.03348 4.00000
4.00000 7.03348 4.00000
4.00000 7.03348 4.00000
4.00000 7.03348 4.00000
4.00000 7.03347 4.00000
4.00000 7.03347 4.00000
4.00000 7.03347 4.00000
4.00000 7.03347 4.00000
4.00000 7.03347 4.00000
4.00000 7.03347 4.00000
4.00000 7.03348 4.00000
4.00000 7.03348 4.00000
4.00000 7.03348 4.00000
4.00000 7.03348 4.00000
4.00000 7.03348 4.00000
4.00000 7.03348 4.00000
4.00000 7.03348 4.00000
4.00000 7.03348 4.00000
4.00000 7.03348 4.00000
4.00000 7.03348 4.00000
4.00000 7.03348 4.00000
4.00000 7.03348 4.00000
4.00000 7.03348 4.00000
4.00000 7.03348 4.00000
4.00000 7.03348 4.00000
4.00000 7.03348 4.00000
4.00000 7.03348 4.00000
4.00000 7.03348 4.00000
4.00000 7.03348 4.00000
4.00000 7.03348 4.00000
4.00000 7.03348 4.00000
4.00000 7.03348 4.00000
4.00000 7.03348 4.00000
4.00000 7.03348 4.00000
4.00000 7.03349 4.00000
4.00000 7.03349 4.00000
4.00000 7.03348 4.00000
4.00000 7.03349 4.00000
4.00000 7.03349 4.00000
4.00000 7.03348 4.00000
4.00000 7.03348 4.00000
4.00000 7.03348 4.00000
4.00000 7.03348 4.00000
4.00000 7.03348 4.00000
4.00000 7.03348 4.00000
4.00000 7.03348 4.00000
4.00000 7.03348 4.00000
4.00000 7.03348 4.00000
4.00000 7.03348 4.00000
4.00000 7.03348 4.00000
4.00000 7.03348 4.00000
4.00000 7.03348 4.00000
4.00000 7.03348 4.00000
4.00000 7.03348 4.00000
4.00000 7.03348 4.00000
4.00000 7.03348 4.00000
4.00000 7.03348 4.00000
4.00000 7.03348 4.00000
4.00000 7.03348 4.00000
4.00000 7.03348 4.00000
4.00000 7.03348 4.00000
4.00000 7.03348 4.00000
4.00000 7.03348 4.00000
4.00000 7.03348 4.00000
4.00000 7.03348 4.00000
4.00000 7.03348 4.00000
4.00000 7.03348 4.00000
4.00000 7.03348 4.00000
4.00000 7.03348 4.00000
4.00000 7.03348 4.00000
4.00000 7.03348 4.00000
4.00000 7.03348 4.00000
4.00000 7.03348 4.00000
4.00000 7.03348 4.00000
4.00000 7.03348 4.00000
4.00000 7.03348 4.00000
4.00000 7.03348 4.00000
4.00000 7.03348 4.00000
4.00000 7.03348 4.00000
4.00000 7.03348 4.00000
4.00000 7.03348 4.00000
4.00000 7.03348 4.00000
4.00000 7.03348 4.00000
4.00000 7.03348 4.00000
4.00000 7.03348 4.00000
4.00000 7.03348 4.00000
4.00000 7.03348 4.00000
4.00000 7.03348 4.00000
4.00000 7.03348 4.00000
4.00000 7.03348 4.00000
4.00000 7.03348 4.00000
4.00000 7.03348 4.00000
4.00000 7.03348 4.00000
4.00000 7.03348 4.00000
4.00000 7.03348 4.00000
4.00000 7.03348 4.00000
4.00000 7.03348 4.00000
4.00000 7.03348 4.00000
4.00000 7.03348 4.00000
4.00000 7.03348 4.00000
4.00000 7.03348 4.00000
4.00000 7.03348 4.00000
4.00000 7.03348 4.00000
4.00000 7.03348 4.00000
4.00000 7.03348 4.00000
4.00000 7.03348 4.00000
4.00000 7.03348 4.00000
4.00000 7.03348 4.00000
4.00000 7.03348 4.00000
4.00000 7.03348 4.00000
4.00000 7.03348 4.00000
4.00000 7.03348 4.00000
4.00000 7.03348 4.00000
4.00000 7.03348 4.00000
4.00000 7.03348 4.00000
4.00000 7.03348 4.00000
4.00000 7.03348 4.00000
4.00000 7.03348 4.00000
4.00000 7.03348 4.00000
4.00000 7.03348 4.00000
4.00000 7.03348 4.00000
4.00000 7.03348 4.00000
4.00000 7.03348 4.00000
4.00000 7.03348 4.00000
4.00000 7.03348 4.00000
4.00000 7.03348 4.00000
4.00000 7.03348 4.00000
4.00000 7.03348 4.00000
4.00000 7.03348 4.00000
4.00000 7.03348 4.00000
4.00000 7.03348 4.00000
4.00000 7.03348 4.00000
4.00000 7.03348 4.00000
4.00000 7.03348 4.00000
4.00000 7.03348 4.00000
4.00000 7.03348 4.00000
4.00000 7.03348 4.00000
4.00000 7.03348 4.00000
4.00000 7.03348 4.00000
4.00000 7.03348 4.00000
4.00000 7.03348 4.00000
4.00000 7.03348 4.00000
4.00000 7.03348 4.00000
4.00000 7.03348 4.00000
4.00000 7.03348 4.00000
4.00000 7.03348 4.00000
4.00000 7.03348 4.00000
4.00000 7.03348 4.00000
4.00000 7.03348 4.00000
4.00000 7.03348 4.00000
4.00000 7.03348 4.00000
4.00000 7.03348 4.00000
4.00000 7.03348 4.00000
4.00000 7.03348 4.00000
4.00000 7.03348 4.00000
4.00000 7.03348 4.00000
4.00000 7.03348 4.00000
4.00000 7.03348 4.00000
4.00000 7.03348 4.00000
4.00000 7.03348 4.00000
4.00000 7.03348 4.00000
4.00000 7.03348 4.00000
4.00000 7.03348 4.00000
4.00000 7.03349 4.00000
4.00000 7.03352 4.00000
4.00000 7.03348 4.00000
4.00000 7.03348 4.00000
4.00000 7.03349 4.00000
4.00000 7.03348 4.00000
4.00081 7.04893 4.00081
4.00473 7.12437 4.00473
4.00859 7.20003 4.00859
4.01239 7.27585 4.01239
4.01617 7.35183 4.01617
4.01993 7.42792 4.01993
4.02368 7.50409 4.02368
4.02744 7.58032 4.02744
4.03124 7.65656 4.03124
4.03508 7.73279 4.03508
4.03898 7.80896 4.03898
4.04297 7.88504 4.04297
4.04707 7.96097 4.04707
4.05130 8.03670 4.05130
4.05570 8.11216 4.05570
4.06030 8.18729 4.06030
4.06514 8.26201 4.06514
4.07027 8.33620 4.07027
4.07576 8.40976 4.07576
4.08167 8.48252 4.08167
4.08810 8.55432 4.08810
4.09516 8.62491 4.09516
4.10296 8.69407 4.10296
4.11148 8.76187 4.11148
4.12074 8.82826 4.12073
4.13076 8.89315 4.13076
4.14162 8.95644 4.14162
4.15336 9.01804 4.15336
4.16600 9.07788 4.16600
4.17958 9.13589 4.17958
4.19412 9.19204 4.19412
4.20963 9.24630 4.20963
4.22610 9.29868 4.22610
4.24354 9.34919 4.24354
4.26192 9.39787 4.26192
4.28121 9.44478 4.28121
4.30137 9.48998 4.30137
4.32237 9.53357 4.32237
4.34417 9.57561 4.34417
4.36671 9.61620 4.36671
4.38997 9.65541 4.38997
4.41391 9.69330 4.41391
4.43850 9.72993 4.43850
4.46375 9.76530 4.46375
4.48968 9.79936 4.48967
4.51636 9.83193 4.51636
4.54400 9.86265 4.54400
4.57301 9.89066 4.57301
4.60440 9.91395 4.60440
4.64073 9.92739 4.64075
4.01350 7.29819 7.98335
4.01186 7.26526 8.10411
4.01049 7.23774 8.21924
4.00931 7.21441 8.33004
4.00830 7.19438 8.43739
4.00742 7.17703 8.54197
4.00665 7.16191 8.64426
4.00597 7.14863 8.74464
4.00537 7.13693 8.84340
4.00484 7.12657 8.94080
4.00437 7.11737 9.03701
4.00395 7.10917 9.13220
4.00357 7.10184 9.22652
4.00323 7.09528 9.32006
4.00292 7.08940 9.41292
4.00265 7.08412 9.50519
4.00240 7.07936 9.59693
4.00218 7.07507 9.68822
4.00198 7.07121 9.77909
4.00180 7.06772 9.86961
4.00163 7.06455 9.95980
4.00148 7.06170 10.04971
4.00135 7.05911 10.13936
4.00122 7.05677 10.22879
4.00111 7.05465 10.31801
4.00101 7.05272 10.40706
4.00092 7.05098 10.49595
4.00084 7.04940 10.58469
4.00076 7.04796 10.67332
4.00069 7.04665 10.76183
4.00063 7.04546 10.85024
4.00057 7.04439 10.93856
4.00052 7.04340 11.02682
4.00048 7.04251 11.11500
4.00043 7.04170 11.20313
4.00039 7.04096 11.29120
4.00036 7.04029 11.37923
4.00032 7.03969 11.46722
4.00030 7.03912 11.55519
4.00027 7.03862 11.64312
4.00025 7.03816 11.73102
4.00022 7.03773 11.81893
4.00020 7.03736 11.90679
4.00019 7.03701 11.99466
4.00017 7.03670 12.08250
4.00015 7.03640 12.17036
4.00014 7.03614 12.25820
4.00013 7.03590 12.34604
4.00012 7.03568 12.43388
4.00011 7.03549 12.52172
4.00010 7.03531 12.60957
4.00009 7.03513 12.69744
4.00008 7.03500 12.78527
4.00007 7.03485 12.87316
4.00007 7.03474 12.96102
4.00006 7.03461 13.04892
4.00005 7.03451 13.13682
4.00005 7.03443 13.22469
4.00004 7.03433 13.31263
4.00004 7.03425 13.40057
4.00004 7.03418 13.48853
4.00003 7.03412 13.57651
4.00003 7.03407 13.66439
4.00003 7.03402 13.75237
4.00003 7.03397 13.84037
4.00002 7.03391 13.92841
4.00002 7.03387 14.01645
4.00002 7.03384 14.10451
4.00002 7.03380 14.19259
4.00001 7.03377 14.28068
4.00001 7.03374 14.36880
4.00001 7.03372 14.45693
4.00001 7.03370 14.54507
4.00001 7.03367 14.63324
4.00001 7.03366 14.72141
4.00001 7.03364 14.80961
4.00001 7.03362 14.89782
4.00001 7.03361 14.98604
4.00001 7.03360 15.07428
4.00001 7.03358 15.16253
4.00000 7.03357 15.25079
4.00000 7.03356 15.33907
4.00000 7.03355 15.42736
4.00000 7.03355 15.51566
4.00000 7.03354 15.60398
4.00000 7.03355 15.69229
4.00000 7.03354 15.78063
4.00000 7.03354 15.86899
4.00000 7.03353 15.95736
4.00000 7.03353 16.04574
4.00000 7.03352 16.13413
4.00000 7.03352 16.22253
4.00000 7.03352 16.31094
4.00000 7.03351 16.39937
4.00000 7.03351 16.48781
4.00000 7.03351 16.57625
4.00000 7.03350 16.66471
4.00000 7.03350 16.75318
4.00000 7.03350 16.84167
4.00000 7.03350 16.93016
4.00000 7.03350 17.01866
4.00000 7.03349 17.10718
4.00000 7.03349 17.19571
4.00000 7.03349 17.28424
4.00000 7.03349 17.37279
4.00000 7.03349 17.46135
4.00000 7.03349 17.54993
4.00000 7.03349 17.63851
4.00000 7.03349 17.72711
4.00000 7.03349 17.81571
4.00000 7.03349 17.90433
4.00000 7.03349 17.99296
4.00000 7.03348 18.08161
4.00000 7.03348 18.17026
4.00000 7.03348 18.25893
4.00000 7.03348 18.34761
4.00000 7.03348 18.43631
4.00000 7.03348 18.52501
4.00000 7.03348 18.61373
4.00000 7.03348 18.70247
4.00000 7.03348 18.79122
4.00000 7.03348 18.87998
4.00000 7.03348 18.96875

Angle 0.725977 3.645729

4.00000 7.03348 4.00000
4.00000 7.03348 4.00000
4.00000 7.03348 4.00000
4.00000 7.03348 4.00000
4.00000 7.03348 4.00000
4.00000 7.03348 4.00000
4.00000 7.03348 4.00000
4.00000 7.03348 4.00000
4.00000 7.03348 4.00000
4.00000 7.03348 4.00000
4.00000 7.03348 4.00000
4.00000 7.03348 4.00000
4.00000 7.03348 4.00000
4.00000 7.03348 4.00000
4.00000 7.03348 4.00000
4.00000 7.03348 4.00000
4.00000 7.03348 4.00000
4.00000 7.03348 4.00000
4.00000 7.03348 4.00000
4.00000 7.03348 4.00000
4.00000 7.03348 4.00000
4.00000 7.03348 4.00000
4.00000 7.03348 4.00000
4.00000 7.03348 4.00000
4.00000 7.03348 4.00000
4.00000 7.03348 4.00000
4.00000 7.03348 4.00000
4.00000 7.03348 4.00000
4.00000 7.03348 4.00000
4.00000 7.03348 4.00000
4.00000 7.03348 4.00000
4.00000 7.03348 4.00000
4.00000 7.03348 4.00000
4.00000 7.03348 4.00000
4.00000 7.03348 4.00000
4.00000 7.03348 4.00000
4.00000 7.03348 4.00000
4.00000 7.03348 4.00000
4.00000 7.03348 4.00000
4.00000 7.03348 4.00000
4.00000 7.03348 4.00000
4.00000 7.03348 4.00000
4.00000 7.03348 4.00000
4.00000 7.03348 4.00000
4.00000 7.03348 4.00000
4.00000 7.03348 4.00000
4.00000 7.03348 4.00000
4.00000 7.03348 4.00000
4.00000 7.03348 4.00000
4.00000 7.03348 4.00000
4.00000 7.03348 4.00000
4.00000 7.03348 4.00000
4.00000 7.03348 4.00000
4.00000 7.03348 4.00000
4.00000 7.03348 4.00000
4.00000 7.03348 4.00000
4.00000 7.03348 4.00000
4.00000 7.03348 4.00000
4.00000 7.03348 4.00000
4.00000 7.03348 4.00000
4.00000 7.03348 4.00000
4.00000 7.03348 4.00000
4.00000 7.03348 4.00000
4.00000 7.03348 4.00000
4.00000 7.03348 4.00000
4.00000 7.03348 4.00000
4.00000 7.03348 4.00000
4.00000 7.03348 4.00000
4.00000 7.03348 4.00000
4.00000 7.03348 4.00000
4.00000 7.03348 4.00000
4.00000 7.03348 4.00000
4.00000 7.03348 4.00000
4.00000 7.03348 4.00000
4.00000 7.03348 4.00000
4.00000 7.03348 4.00000
4.00000 7.03348 4.00000
4.00000 7.03348 4.00000
4.00000 7.03348 4.00000
4.00000 7.03348 4.00000
4.00000 7.03348 4.00000
4.00000 7.03348 4.00000
4.00000 7.03348 4.00000
4.00000 7.03348 4.00000
4.00000 7.03348 4.00000
4.00000 7.03348 4.00000
4.00000 7.03348 4.00000
4.00000 7.03348 4.00000
4.00000 7.03348 4.00000
4.00000 7.03348 4.00000
4.00000 7.03348 4.00000
4.00000 7.03348 4.00000
4.00000 7.03348 4.00000
4.00000 7.03348 4.00000
4.00000 7.03348 4.00000
4.00000 7.03348 4.00000
4.00000 7.03348 4.00000
4.00000 7.03348 4.00000
4.00000 7.03348 4.00000
4.00000 7.03348 4.00000
4.00000 7.03348 4.00000
4.00000 7.03348 4.00000
4.00000 7.03348 4.00000
4.00000 7.03348 4.00000
4.00000 7.03348 4.00000
4.00000 7.03348 4.00000
4.00000 7.03348 4.00000
4.00000 7.03348 4.00000
4.00000 7.03348 4.00000
4.00000 7.03348 4.00000
4.00000 7.03348 4.00000
4.00000 7.03348 4.00000
4.00000 7.03348 4.00000
4.00000 7.03348 4.00000
4.00000 7.03350 4.00000
4.00000 7.03348 4.00000
4.00194 7.07043 4.00194
4.00554 7.14029 4.00555
4.00911 7.21039 4.00911
4.01264 7.28071 4.01264
4.01614 7.35122 4.01614
4.01963 7.42190 4.01963
4.02312 7.49272 4.02312
4.02662 7.56365 4.02662
4.03015 7.63467 4.03015
4.03371 7.70575 4.03371
4.03733 7.77685 4.03733
4.04101 7.84794 4.04101
4.04479 7.91899 4.04479
4.04867 7.98994 4.04867
4.05268 8.06076 4.05268
4.05685 8.13138 4.05685
4.06121 8.20175 4.06121
4.06579 8.27179 4.06579
4.07065 8.34141 4.07065
4.07582 8.41050 4.07582
4.08137 8.47895 4.08137
4.08738 8.54660 4.08738
4.09393 8.61326 4.09393
4.10115 8.67870 4.10115
4.10902 8.74295 4.10902
4.11753 8.80603 4.11753
4.12673 8.86783 4.12673
4.13665 8.92828 4.13665
4.14735 8.98730 4.14735
4.15885 9.04480 4.15885
4.17118 9.10073 4.17118
4.18437 9.15505 4.18437
4.19844 9.20771 4.19844
4.21339 9.25870 4.21339
4.22922 9.30803 4.22922
4.24591 9.35571 4.24591
4.26347 9.40177 4.26347
4.28185 9.44627 4.28185
4.30103 9.48925 4.30103
4.32098 9.53078 4.32098
4.34166 9.57093 4.34166
4.36304 9.60977 4.36304
4.38508 9.64737 4.38508
4.40776 9.68379 4.40776
4.43105 9.71906 4.43105
4.45494 9.75321 4.45494
4.47945 9.78620 4.47945
4.50463 9.81794 4.50462
4.53059 9.84818 4.53059
4.55759 9.87641 4.55760
4.58620 9.90151 4.58620
4.61774 9.92083 4.61774
4.01476 7.32347 7.90055
4.01297 7.28747 8.02086
4.01148 7.25756 8.13489
4.01021 7.23225 8.24414
4.00912 7.21056 8.34967
4.00817 7.19180 8.45220
4.00734 7.17543 8.55229
4.00661 7.16106 8.65034
4.00596 7.14838 8.74669
4.00539 7.13713 8.84160
4.00487 7.12713 8.93526
4.00441 7.11820 9.02786
4.00400 7.11021 9.11955
4.00363 7.10304 9.21043
4.00330 7.09660 9.30061
4.00300 7.09079 9.39018
4.00272 7.08555 9.47921
4.00248 7.08082 9.56776
4.00226 7.07654 9.65591
4.00205 7.07267 9.74368
4.00187 7.06916 9.83113
4.00171 7.06598 9.91829
4.00155 7.06308 10.00520
4.00142 7.06046 10.09189
4.00129 7.05805 10.17839
4.00118 7.05588 10.26471
4.00107 7.05393 10.35086
4.00098 7.05213 10.43688
4.00089 7.05049 10.52280
4.00082 7.04900 10.60861
4.00074 7.04764 10.69433
4.00068 7.04640 10.77997
4.00062 7.04527 10.86556
4.00057 7.04424 10.95108
4.00052 7.04330 11.03656
4.00047 7.04245 11.12199
4.00043 7.04167 11.20740
4.00039 7.04095 11.29279
4.00036 7.04029 11.37817
4.00033 7.03970 11.46350
4.00030 7.03915 11.54885
4.00027 7.03867 11.63418
4.00025 7.03821 11.71952
4.00023 7.03780 11.80484
4.00021 7.03742 11.89020
4.00019 7.03708 11.97553
4.00017 7.03676 12.06091
4.00016 7.03647 12.14629
4.00014 7.03622 12.23166
4.00013 7.03597 12.31707
4.00012 7.03575 12.40251
4.00011 7.03556 12.48796
4.00010 7.03538 12.57340
4.00009 7.03521 12.65890
4.00008 7.03506 12.74442
4.00007 7.03492 12.82997
4.00007 7.03479 12.91554
4.00006 7.03467 13.00114
4.00006 7.03457 13.08677
4.00005 7.03447 13.17244
4.00005 7.03439 13.25813
4.00004 7.03431 13.34385
4.00004 7.03423 13.42960
4.00003 7.03416 13.51539
4.00003 7.03410 13.60120
4.00003 7.03405 13.68704
4.00002 7.03400 13.77292
4.00002 7.03395 13.85882
4.00002 7.03391 13.94476
4.00002 7.03387 14.03073
4.00002 7.03383 14.11673
4.00002 7.03380 14.20276
4.00001 7.03377 14.28882
4.00001 7.03374 14.37491
4.00001 7.03372 14.46103
4.00001 7.03370 14.54718
4.00001 7.03368 14.63336
4.00001 7.03366 14.71957
4.00001 7.03364 14.80581
4.00001 7.03363 14.89208
4.00001 7.03361 14.97838
4.00001 7.03360 15.06471
4.00001 7.03359 15.15106
4.00000 7.03358 15.23745
4.00000 7.03357 15.32386
4.00000 7.03356 15.41031
4.00000 7.03355 15.49678
4.00000 7.03354 15.58328
4.00000 7.03354 15.66980
4.00000 7.03353 15.75636
4.00000 7.03352 15.84294
4.00000 7.03352 15.92955
4.00000 7.03353 16.01572
4.00000 7.03352 16.10238
4.00000 7.03352 16.18908
4.00000 7.03352 16.27579
4.00000 7.03351 16.36254
4.00000 7.03351 16.44931
4.00000 7.03351 16.53610
4.00000 7.03351 16.62292
4.00000 7.03350 16.70977
4.00000 7.03350 16.79664
4.00000 7.03350 16.88353
4.00000 7.03350 16.97045
4.00000 7.03350 17.05739
4.00000 7.03349 17.14436
4.00000 7.03349 17.23135
4.00000 7.03349 17.31837
4.00000 7.03349 17.40540
4.00000 7.03349 17.49246
4.00000 7.03349 17.57955
4.00000 7.03349 17.66665
4.00000 7.03349 17.75378
4.00000 7.03349 17.84093
4.00000 7.03349 17.92810
4.00000 7.03349 18.01530
4.00000 7.03348 18.10251
4.00000 7.03348 18.18975
4.00000 7.03348 18.27701
4.00000 7.03348 18.36429
4.00000 7.03348 18.45159
4.00000 7.03348 18.53891
4.00000 7.03348 18.62626
4.00000 7.03348 18.71362
4.00000 7.03348 18.80100
4.00000 7.03348 18.88840
4.00000 7.03348 18.97582
4.00000 7.03348 19.06327
4.00000 7.03348 19.15073
4.00000 7.03348 19.23821
4.00000 7.03348 19.32571
4.00000 7.03348 19.41323
4.00000 7.03348 19.50076
4.00000 7.03348 19.58832
4.00000 7.03348 19.67589
4.00000 7.03348 19.76349
4.00000 7.03348 19.85110
4.00000 7.03348 19.93873
4.00000 7.03348 20.02637
4.00000 7.03348 20.11404
4.00000 7.03348 20.20172
4.00000 7.03348 20.28942
4.00000 7.03348 20.37714
4.00000 7.03348 20.46487
4.00000 7.03348 20.55262
4.00000 7.03348 20.64039
4.00000 7.03348 20.72818
4.00000 7.03348 20.81598
4.00000 7.03348 20.90379
4.00000 7.03348 20.99163
4.00000 7.03348 21.07948
4.00000 7.03348 21.16734
4.00000 7.03348 21.25523
4.00000 7.03348 21.34312
4.00000 7.03348 21.43104
4.00000 7.03348 21.51897
4.00000 7.03348 21.60691
4.00000 7.03348 21.69487
4.00000 7.03348 21.78284
4.00000 7.03348 21.87083
4.00000 7.03348 21.95884
4.00000 7.03348 22.04686
4.00000 7.03348 22.13489
4.00000 7.03348 22.22294
4.00000 7.03348 22.31100
4.00000 7.03348 22.39908
4.00000 7.03348 22.48717
4.00000 7.03348 22.57528
4.00000 7.03348 22.66340
4.00000 7.03348 22.75153
4.00000 7.03348 22.83968
4.00000 7.03348 22.92784
4.00000 7.03348 23.01601
4.00000 7.03348 23.10420
4.00000 7.03348 23.19240
4.00000 7.03348 23.28061
4.00000 7.03348 23.36884
4.00000 7.03348 23.45708
4.00000 7.03348 23.54533
4.00000 7.03348 23.63360
4.00000 7.03348 23.72188
4.00000 7.03348 23.81017
4.00000 7.03348 23.89847
4.00000 7.03348 23.98679
4.00000 7.03348 24.07512
4.00000 7.03348 24.16346
4.00000 7.03348 24.25181
4.00000 7.03348 24.34017
4.00000 7.03348 24.42855
4.00000 7.03348 24.51694
4.00000 7.03348 24.60534
4.00000 7.03348 24.69375
4.00000 7.03348 24.78217
4.00000 7.03348 24.87061
4.00000 7.03348 24.95906
4.00000 7.03348 25.04751
4.00000 7.03348 25.13598
4.00000 7.03348 25.22446
4.00000 7.03348 25.31295
4.00000 7.03348 25.40146
4.00000 7.03348 25.48997
4.00000 7.03348 25.57849
4.00000 7.03348 25.66703
4.00000 7.03348 25.75557
4.00000 7.03348 25.84413
4.00000 7.03348 25.93269
4.00000 7.03348 26.02127
4.00000 7.03348 26.10986
4.00000 7.03348 26.19845
4.00000 7.03348 26.28706
4.00000 7.03348 26.37568
4.00000 7.03348 26.46431
4.00000 7.03348 26.55294
4.00000 7.03348 26.64159
4.00000 7.03348 26.73025
4.00000 7.03348 26.81892
4.00000 7.03348 26.90759
4.00000 7.03348 26.99628
4.00000 7.03348 27.08497
4.00000 7.03348 27.17368
4.00000 7.03348 27.26239
4.00000 7.03348 27.35112
4.00000 7.03348 27.43985
4.00000 7.03348 27.52859
4.00000 7.03348 27.61735
4.00000 7.03348 27.70611
4.00000 7.03348 27.79488
4.00000 7.03348 27.88366
4.00000 7.03348 27.97244
4.00000 7.03348 28.06124
4.00000 7.03348 28.15004
4.00000 7.03348 28.23886

Angle 0.391070 4.260181

4.00000 7.03348 4.00000
4.00000 7.03348 4.00000
4.00000 7.03348 4.00000
4.00000 7.03348 4.00000
4.00000 7.03348 4.00000
4.00000 7.03348 4.00000
4.00000 7.03348 4.00000
4.00000 7.03348 4.00000
4.00000 7.03348 4.00000
4.00000 7.03348 4.00000
4.00000 7.03348 4.00000
4.00000 7.03348 4.00000
4.00000 7.03348 4.00000
4.00000 7.03348 4.00000
4.00000 7.03348 4.00000
4.00000 7.03348 4.00000
4.00000 7.03348 4.00000
4.00000 7.03348 4.00000
4.00000 7.03348 4.00000
4.00000 7.03348 4.00000
4.00000 7.03348 4.00000
4.00000 7.03348 4.00000
4.00000 7.03348 4.00000
4.00000 7.03348 4.00000
4.00000 7.03348 4.00000
4.00000 7.03348 4.00000
4.00000 7.03348 4.00000
4.00000 7.03348 4.00000
4.00000 7.03348 4.00000
4.00000 7.03348 4.00000
4.00000 7.03348 4.00000
4.00000 7.03348 4.00000
4.00000 7.03348 4.00000
4.00000 7.03348 4.00000
4.00000 7.03348 4.00000
4.00000 7.03348 4.00000
4.00000 7.03348 4.00000
4.00000 7.03348 4.00000
4.00000 7.03348 4.00000
4.00000 7.03348 4.00000
4.00000 7.03348 4.00000
4.00000 7.03348 4.00000
4.00000 7.03348 4.00000
4.00000 7.03348 4.00000
4.00000 7.03348 4.00000
4.00000 7.03348 4.00000
4.00000 7.03348 4.00000
4.00000 7.03348 4.00000
4.00000 7.03348 4.00000
4.00000 7.03348 4.00000
4.00000 7.03348 4.00000
4.00000 7.03348 4.00000
4.00000 7.03348 4.00000
4.00000 7.03348 4.00000
4.00000 7.03348 4.00000
4.00000 7.03348 4.00000
4.00000 7.03348 4.00000
4.00000 7.03348 4.00000
4.00000 7.03348 4.00000
4.00000 7.03348 4.00000
4.00000 7.03348 4.00000
4.00000 7.03348 4.00000
4.00000 7.03348 4.00000
4.00000 7.03348 4.00000
4.00000 7.03348 4.00000
4.00000 7.03348 4.00000
4.00000 7.03348 4.00000
4.00000 7.03348 4.00000
4.00000 7.03348 4.00000
4.00000 7.03348 4.00000
4.00000 7.03348 4.00000
4.00000 7.03348 4.00000
4.00000 7.03348 4.00000
4.00000 7.03348 4.00000
4.00000 7.03348 4.00000
4.00000 7.03348 4.00000
4.00000 7.03348 4.00000
4.00000 7.03348 4.00000
4.00000 7.03348 4.00000
4.00000 7.03348 4.00000
4.00000 7.03348 4.00000
4.00000 7.03348 4.00000
4.00000 7.03348 4.00000
4.00000 7.03348 4.00000
4.00000 7.03348 4.00000
4.00000 7.03348 4.00000
4.00000 7.03348 4.00000
4.00000 7.03348 4.00000
4.00000 7.03348 4.00000
4.00000 7.03348 4.00000
4.00000 7.03348 4.00000
4.00000 7.03348 4.00000
4.00000 7.03348 4.00000
4.00000 7.03348 4.00000
4.00000 7.03348 4.00000
4.00000 7.03348 4.00000
4.00000 7.03348 4.00000
4.00000 7.03348 4.00000
4.00000 7.03348 4.00000
4.00000 7.03348 4.00000
4.00000 7.03348 4.00000
4.00000 7.03348 4.00000
4.00000 7.03348 4.00000
4.00000 7.03348 4.00000
4.00000 7.03348 4.00000
4.00000 7.03348 4.00000
4.00000 7.03348 4.00000
4.00000 7.03348 4.00000
4.00000 7.03348 4.00000
4.00000 7.03348 4.00000
4.00000 7.03348 4.00000
4.00000 7.03348 4.00000
4.00000 7.03348 4.00000
4.00000 7.03348 4.00000
4.00000 7.03349 4.00000
4.00000 7.03348 4.00000
4.00000 7.03348 4.00000
4.00000 7.03348 4.00000
4.00000 7.03349 4.00000
4.00000 7.03348 4.00000
4.00000 7.03349 4.00000
4.00295 7.08986 4.00295
4.00683 7.16534 4.00683
4.01065 7.24100 4.01065
4.01443 7.31683 4.01443
4.01819 7.39278 4.01819
4.02194 7.46884 4.02194
4.02570 7.54496 4.02570
4.02947 7.62112 4.02947
4.03328 7.69728 4.03328
4.03715 7.77341 4.03715
4.04109 7.84946 4.04109
4.04513 7.92538 4.04513
4.04929 8.00114 4.04929
4.05361 8.07666 4.05361
4.05810 8.15188 4.05810
4.06282 8.22674 4.06282
4.06780 8.30112 4.06780
4.07310 8.37492 4.07310
4.07880 8.44801 4.07880
4.08496 8.52023 4.08496
4.09170 8.59136 4.09170
4.09913 8.66117 4.09913
4.10731 8.72954 4.10731
4.11620 8.79656 4.11620
4.12584 8.86212 4.12584
4.13628 8.92614 4.13628
4.14758 8.98851 4.14758
4.15977 9.04916 4.15977
4.17288 9.10801 4.17288
4.18694 9.16502 4.18694
4.20196 9.22016 4.20196
4.21796 9.27341 4.21796
4.23492 9.32478 4.23492
4.25283 9.37431 4.25283
4.27166 9.42204 4.27166
4.29138 9.46803 4.29138
4.31196 9.51237 4.31196
4.33336 9.55513 4.33336
4.35552 9.59639 4.35552
4.37842 9.63624 4.37842
4.40200 9.67475 4.40200
4.42626 9.71197 4.42626
4.45116 9.74794 4.45116
4.47673 9.78264 4.47673
4.50301 9.81595 4.50300
4.53011 9.84765 4.53011
4.55834 9.87714 4.55834
4.58834 9.90314 4.58834
4.62170 9.92246 4.62170
7.92025 7.31724 4.01445
8.04445 7.28097 4.01265
8.16213 7.25095 4.01115
8.27489 7.22567 4.00988
8.38381 7.20407 4.00879
8.48965 7.18546 4.00785
8.59297 7.16928 4.00703
8.69421 7.15512 4.00630
8.79369 7.14266 4.00567
8.89169 7.13165 4.00510
8.98842 7.12189 4.00460
9.08406 7.11321 4.00416
9.17874 7.10546 4.00376
9.27260 7.09853 4.00340
9.36574 7.09232 4.00308
9.45825 7.08674 4.00279
9.55021 7.08173 4.00253
9.64167 7.07721 4.00229
9.73269 7.07314 4.00208
9.82333 7.06946 4.00189
9.91364 7.06614 4.00171
10.00363 7.06313 4.00156
10.09336 7.06042 4.00141
10.18286 7.05795 4.00129
10.27216 7.05570 4.00117
10.36124 7.05368 4.00106
10.45015 7.05186 4.00096
10.53893 7.05019 4.00088
10.62756 7.04868 4.00080
10.71609 7.04730 4.00073
10.80451 7.04605 4.00066
10.89284 7.04492 4.00060
10.98108 7.04390 4.00055
11.06925 7.04296 4.00050
11.15737 7.04210 4.00045
11.24541 7.04134 4.00041
11.33344 7.04062 4.00037
11.42139 7.03999 4.00034
11.50934 7.03939 4.00031
11.59722 7.03888 4.00029
11.68513 7.03838 4.00026
11.77299 7.03794 4.00023
11.86081 7.03756 4.00021
11.94866 7.03717 4.00019
12.03648 7.03684 4.00018
12.12430 7.03654 4.00016
12.21211 7.03627 4.00014
12.29986 7.03605 4.00013
12.38770 7.03579 4.00012
12.47551 7.03559 4.00011
12.56333 7.03540 4.00010
12.65115 7.03522 4.00009
12.73899 7.03507 4.00008
12.82682 7.03492 4.00007
12.91467 7.03479 4.00007
13.00254 7.03467 4.00006
13.09041 7.03457 4.00006
13.17829 7.03447 4.00005
13.26619 7.03438 4.00005
13.35410 7.03430 4.00004
13.44202 7.03422 4.00004
13.52996 7.03415 4.00003
13.61791 7.03409 4.00003
13.70587 7.03404 4.00003
13.79385 7.03398 4.00003
13.88185 7.03394 4.00002
13.96986 7.03389 4.00002
14.05789 7.03386 4.00002
14.14593 7.03382 4.00002
14.23399 7.03379 4.00002
14.32206 7.03376 4.00001
14.41015 7.03373 4.00001
14.49825 7.03371 4.00001
14.58637 7.03369 4.00001
14.67450 7.03367 4.00001
14.76265 7.03365 4.00001
14.85082 7.03363 4.00001
14.93900 7.03362 4.00001
15.02720 7.03360 4.00001
15.11541 7.03359 4.00001
15.20364 7.03358 4.00001
15.29188 7.03357 4.00000
15.38014 7.03356 4.00000
15.46810 7.03357 4.00000
15.55639 7.03356 4.00000
15.64469 7.03355 4.00000
15.73301 7.03355 4.00000
15.82135 7.03354 4.00000
15.90970 7.03353 4.00000
15.99806 7.03353 4.00000
16.08644 7.03352 4.00000
16.17483 7.03352 4.00000
16.26324 7.03352 4.00000
16.35166 7.03351 4.00000
16.44009 7.03351 4.00000
16.52854 7.03351 4.00000
16.61701 7.03351 4.00000
16.70548 7.03350 4.00000
16.79397 7.03350 4.00000
16.88248 7.03350 4.00000
16.97100 7.03350 4.00000
17.05953 7.03350 4.00000
17.14807 7.03349 4.00000
17.23663 7.03349 4.00000
17.32520 7.03349 4.00000
17.41378 7.03349 4.00000
17.50238 7.03349 4.00000
17.59099 7.03349 4.00000
17.67961 7.03349 4.00000
17.76825 7.03349 4.00000
17.85689 7.03349 4.00000
17.94555 7.03349 4.00000
18.03422 7.03349 4.00000
18.12290 7.03348 4.00000
18.21160 7.03348 4.00000
18.30030 7.03348 4.00000
18.38902 7.03348 4.00000
18.47775 7.03348 4.00000
18.56649 7.03348 4.00000
18.65524 7.03348 4.00000
18.74401 7.03348 4.00000
18.83278 7.03348 4.00000
18.92157 7.03348 4.00000
19.01036 7.03348 4.00000
19.09917 7.03348 4.00000
19.18799 7.03348 4.00000
19.27682 7.03348 4.00000
19.36566 7.03348 4.00000
19.45451 7.03348 4.00000
19.54337 7.03348 4.00000
19.63224 7.03348 4.00000
19.72112 7.03348 4.00000
19.81001 7.03348 4.00000
19.89891 7.03348 4.00000
19.98782 7.03348 4.00000
20.07675 7.03348 4.00000
20.16568 7.03348 4.00000
20.25462 7.03348 4.00000
20.34357 7.03348 4.00000
20.43253 7.03348 4.00000
20.52150 7.03348 4.00000
20.61048 7.03348 4.00000
20.69946 7.03348 4.00000
20.78846 7.03348 4.00000
20.87747 7.03348 4.00000
20.96648 7.03348 4.00000
21.05551 7.03348 4.00000
21.14454 7.03348 4.00000
21.23358 7.03348 4.00000
21.32264 7.03348 4.00000
21.41170 7.03348 4.00000
21.50076 7.03348 4.00000
21.58984 7.03348 4.00000
21.67893 7.03348 4.00000
21.76802 7.03348 4.00000
21.85713 7.03348 4.00000
21.94624 7.03348 4.00000
22.03536 7.03348 4.00000
22.12448 7.03348 4.00000
22.21362 7.03348 4.00000
22.30276 7.03348 4.00000
22.39191 7.03348 4.00000
22.48107 7.03348 4.00000
22.57024 7.03348 4.00000
22.65942 7.03348 4.00000
22.74860 7.03348 4.00000
22.83779 7.03348 4.00000
22.92699 7.03348 4.00000
23.01620 7.03348 4.00000
23.10541 7.03348 4.00000
23.19463 7.03348 4.00000
23.28386 7.03348 4.00000
23.37309 7.03348 4.00000
23.46234 7.03348 4.00000
23.55159 7.03348 4.00000
23.64084 7.03348 4.00000
23.73011 7.03348 4.00000
23.81938 7.03348 4.00000
23.90866 7.03348 4.00000
23.99794 7.03348 4.00000
24.08724 7.03348 4.00000
24.17653 7.03348 4.00000
24.26584 7.03348 4.00000
24.35515 7.03348 4.00000
24.44447 7.03348 4.00000
24.53380 7.03348 4.00000
24.62313 7.03348 4.00000
24.71247 7.03348 4.00000
24.80182 7.03348 4.00000
24.89117 7.03348 4.00000
24.98053 7.03348 4.00000
25.06989 7.03348 4.00000
25.15926 7.03348 4.00000
25.24864 7.03348 4.00000
25.33802 7.03348 4.00000
25.42741 7.03348 4.00000
25.51681 7.03348 4.00000
25.60621 7.03348 4.00000
25.69562 7.03348 4.00000
25.78503 7.03348 4.00000
25.87445 7.03348 4.00000
25.96388 7.03348 4.00000
26.05331 7.03348 4.00000
26.14275 7.03348 4.00000
26.23219 7.03348 4.00000
26.32164 7.03348 4.00000
26.41109 7.03348 4.00000
26.50055 7.03348 4.00000
26.59002 7.03348 4.00000
26.67949 7.03348 4.00000
26.76897 7.03348 4.00000
26.85845 7.03348 4.00000
26.94793 7.03348 4.00000
27.03743 7.03348 4.00000
27.12693 7.03348 4.00000
27.21643 7.03348 4.00000
27.30594 7.03348 4.00000
27.39545 7.03348 4.00000
27.48497 7.03348 4.00000
27.57450 7.03348 4.00000
27.66403 7.03348 4.00000
27.75356 7.03348 4.00000
27.84310 7.03348 4.00000
27.93265 7.03348 4.00000
28.02220 7.03348 4.00000
28.11175 7.03348 4.00000
28.20131 7.03348 4.00000
28.29087 7.03348 4.00000
28.38044 7.03348 4.00000
28.47002 7.03348 4.00000

