Angle 0.185033 3.795030

4.00000 7.03348 4.00000
4.00000 7.03348 4.00000
4.00000 7.03348 4.00000
4.00000 7.03348 4.00000
4.00000 7.03348 4.00000
4.00000 7.03348 4.00000
4.00000 7.03348 4.00000
4.00000 7.03348 4.00000
4.00000 7.03348 4.00000
4.00000 7.03348 4.00000
4.00000 7.03348 4.00000
4.00000 7.03348 4.00000
4.00000 7.03348 4.00000
4.00000 7.03348 4.00000
4.00000 7.03348 4.00000
4.00000 7.03348 4.00000
4.00000 7.03348 4.00000
4.00000 7.03348 4.00000
4.00000 7.03348 4.00000
4.00000 7.03348 4.00000
4.00000 7.03348 4.00000
4.00000 7.03348 4.00000
4.00000 7.03348 4.00000
4.00000 7.03348 4.00000
4.00000 7.03348 4.00000
4.00000 7.03348 4.00000
4.00000 7.03348 4.00000
4.00000 7.03348 4.00000
4.00000 7.03348 4.00000
4.00000 7.03348 4.00000
4.00000 7.03348 4.00000
4.00000 7.03348 4.00000
4.00000 7.03348 4.00000
4.00000 7.03348 4.00000
4.00000 7.03348 4.00000
4.00000 7.03348 4.00000
4.00000 7.03348 4.00000
4.00000 7.03348 4.00000
4.00000 7.03348 4.00000
4.00000 7.03348 4.00000
4.00000 7.03348 4.00000
4.00000 7.03348 4.00000
4.00000 7.03348 4.00000
4.00000 7.03348 4.00000
4.00000 7.03348 4.00000
4.00000 7.03348 4.00000
4.00000 7.03348 4.00000
4.00000 7.03348 4.00000
4.00000 7.03348 4.00000
4.00000 7.03348 4.00000
4.00000 7.03348 4.00000
4.00000 7.03348 4.00000
4.00000 7.03348 4.00000
4.00000 7.03348 4.00000
4.00000 7.03348 4.00000
4.00000 7.03348 4.00000
4.00000 7.03348 4.00000
4.00000 7.03348 4.00000
4.00000 7.03348 4.00000
4.00000 7.03348 4.00000
4.00000 7.03348 4.00000
4.00000 7.03348 4.00000
4.00000 7.03348 4.00000
4.00000 7.03348 4.00000
4.00000 7.03348 4.00000
4.00000 7.03348 4.00000
4.00000 7.03348 4.00000
4.00000 7.03348 4.00000
4.00000 7.03348 4.00000
4.00000 7.03348 4.00000
4.00000 7.03348 4.00000
4.00000 7.03348 4.00000
4.00000 7.03348 4.00000
4.00000 7.03348 4.00000
4.00000 7.03348 4.00000
4.00000 7.03348 4.00000
4.00000 7.03348 4.00000
4.00000 7.03348 4.00000
4.00000 7.03348 4.00000
4.00000 7.03348 4.00000
4.00000 7.03348 4.00000
4.00000 7.03348 4.00000
4.00000 7.03348 4.00000
4.00000 7.03348 4.00000
4.00000 7.03348 4.00000
4.00000 7.03348 4.00000
4.00000 7.03348 4.00000
4.00000 7.03348 4.00000
4.00000 7.03348 4.00000
4.00000 7.03348 4.00000
4.00000 7.03348 4.00000
4.00000 7.03348 4.00000
4.00000 7.03348 4.00000
4.00000 7.03348 4.00000
4.00000 7.03348 4.00000
4.00000 7.03348 4.00000
4.00000 7.03348 4.00000
4.00000 7.03348 4.00000
4.00000 7.03348 4.00000
4.00000 7.03348 4.00000
4.00000 7.03348 4.00000
4.00000 7.03348 4.00000
4.00000 7.03348 4.00000
4.00000 7.03348 4.00000
4.00000 7.03348 4.00000
4.00000 7.03348 4.00000
4.00000 7.03348 4.00000
4.00000 7.03348 4.00000
4.00000 7.03348 4.00000
4.00000 7.03348 4.00000
4.00000 7.03348 4.00000
4.00000 7.03348 4.00000
4.00000 7.03348 4.00000
4.00000 7.03348 4.00000
4.00000 7.03348 4.00000
4.00000 7.03348 4.00000
4.00000 7.03348 4.00000
4.00000 7.03348 4.00000
4.00000 7.03348 4.00000
4.00000 7.03348 4.00000
4.00000 7.03348 4.00000
4.00000 7.03348 4.00000
4.00000 7.03348 4.00000
4.00000 7.03348 4.00000
4.00000 7.03348 4.00000
4.00000 7.03348 4.00000
4.00000 7.03348 4.00000
4.00000 7.03348 4.00000
4.00000 7.03348 4.00000
4.00000 7.03348 4.00000
4.00000 7.03348 4.00000
4.00000 7.03348 4.00000
4.00000 7.03348 4.00000
4.00000 7.03348 4.00000
4.00000 7.03348 4.00000
4.00000 7.03348 4.00000
4.00000 7.03348 4.00000
4.00000 7.03348 4.00000
4.00000 7.03348 4.00000
4.00000 7.03348 4.00000
4.00000 7.03348 4.00000
4.00000 7.03348 4.00000
4.00000 7.03348 4.00000
4.00000 7.03348 4.00000
4.00000 7.03348 4.00000
4.00000 7.03348 4.00000
4.00000 7.03348 4.00000
4.00000 7.03348 4.00000
4.00000 7.03348 4.00000
4.00000 7.03348 4.00000
4.00000 7.03348 4.00000
4.00000 7.03348 4.00000
4.00000 7.03348 4.00000
4.00000 7.03348 4.00000
4.00000 7.03348 4.00000
4.00000 7.03348 4.00000
4.00000 7.03348 4.00000
4.00000 7.03348 4.00000
4.00000 7.03348 4.00000
4.00000 7.03349 4.00000
4.00000 7.03348 4.00000
4.00000 7.03348 4.00000
4.00000 7.03348 4.00000
4.00000 7.03348 4.00000
4.00000 7.03348 4.00000
4.00000 7.03348 4.00000
4.00000 7.03348 4.00000
4.00000 7.03348 4.00000
4.00000 7.03348 4.00000
4.00000 7.03348 4.00000
4.00000 7.03348 4.00000
4.00000 7.03348 4.00000
4.00000 7.03348 4.00000
4.00000 7.03348 4.00000
4.00000 7.03348 4.00000
4.00000 7.03348 4.00000
4.00000 7.03348 4.00000
4.00000 7.03348 4.00000
4.00000 7.03348 4.00000
4.00000 7.03348 4.00000
4.00000 7.03348 4.00000
4.00000 7.03348 4.00000
4.00000 7.03348 4.00000
4.00000 7.03348 4.00000
4.00000 7.03348 4.00000
4.00000 7.03348 4.00000
4.00000 7.03348 4.00000
4.00000 7.03348 4.00000
4.00000 7.03348 4.00000
4.00000 7.03348 4.00000
4.00000 7.03348 4.00000
4.00000 7.03348 4.00000
4.00000 7.03348 4.00000
4.00000 7.03348 4.00000
4.00000 7.03348 4.00000
4.00000 7.03348 4.00000
4.00000 7.03348 4.00000
4.00000 7.03348 4.00000
4.00000 7.03348 4.00000
4.00000 7.03348 4.00000
4.00000 7.03348 4.00000
4.00000 7.03348 4.00000
4.00000 7.03348 4.00000
4.00000 7.03348 4.00000
4.00000 7.03348 4.00000
4.00000 7.03348 4.00000
4.00000 7.03348 4.00000
4.00000 7.03348 4.00000
4.00000 7.03348 4.00000
4.00000 7.03348 4.00000
4.00000 7.03348 4.00000
4.00000 7.03348 4.00000
4.00000 7.03348 4.00000
4.00000 7.03348 4.00000
4.00000 7.03348 4.00000
4.00000 7.03348 4.00000
4.00000 7.03348 4.00000
4.00000 7.03348 4.00000
4.00000 7.03348 4.00000
4.00000 7.03348 4.00000
4.00000 7.03348 4.00000
4.00000 7.03348 4.00000
4.00000 7.03348 4.00000
4.00000 7.03348 4.00000
4.00000 7.03348 4.00000
4.00000 7.03348 4.00000
4.00000 7.03348 4.00000
4.00000 7.03348 4.00000
4.00000 7.03348 4.00000
4.00000 7.03348 4.00000
4.00000 7.03348 4.00000
4.00000 7.03348 4.00000
4.00000 7.03348 4.00000
4.00000 7.03348 4.00000
4.00000 7.03348 4.00000
4.00000 7.03348 4.00000
4.00000 7.03348 4.00000
4.00000 7.03348 4.00000
4.00000 7.03348 4.00000
4.00000 7.03348 4.00000
4.00000 7.03349 4.00000
4.00000 7.03349 4.00000
4.00000 7.03348 4.00000
4.00000 7.03348 4.00000
4.00000 7.03351 4.00000
4.00000 7.03349 4.00000
4.00000 7.03351 4.00000
4.00000 7.03354 4.00000
4.00000 7.03348 4.00000
4.00000 7.03348 4.00000
4.00000 7.03348 4.00000
4.00000 7.03348 4.00000
4.00187 7.06916 4.00187
4.00533 7.13599 4.00533
4.00874 7.20309 4.00874
4.01212 7.27043 4.01212
4.01548 7.33799 4.01548
4.01883 7.40575 4.01883
4.02218 7.47367 4.02218
4.02554 7.54175 4.02554
4.02892 7.60995 4.02892
4.03233 7.67826 4.03233
4.03578 7.74663 4.03578
4.03930 7.81504 4.03930
4.04289 7.88346 4.04289
4.04657 7.95186 4.04657
4.05036 8.02018 4.05036
4.05429 8.08838 4.05429
4.05838 8.15642 4.05838
4.06265 8.22422 4.06265
4.06715 8.29173 4.06715
4.07191 8.35884 4.07191
4.07699 8.42547 4.07699
4.08244 8.49150 4.08244
4.08833 8.55677 4.08833
4.09475 8.62111 4.09475
4.10181 8.68433 4.10181
4.10947 8.74646 4.10947
4.11774 8.80751 4.11774
4.12666 8.86739 4.12666
4.13626 8.92601 4.13626
4.14659 8.98331 4.14659
4.15768 9.03922 4.15768
4.16956 9.09367 4.16956
4.18224 9.14662 4.18224
4.19576 9.19804 4.19576
4.21011 9.24790 4.21011
4.22529 9.29620 4.22529
4.24131 9.34296 4.24131
4.25814 9.38819 4.25814
4.27577 9.43194 4.27577
4.29417 9.47425 4.29417
4.31332 9.51517 4.31332
4.33317 9.55479 4.33318
4.35372 9.59314 4.35372
4.37490 9.63029 4.37490
4.39671 9.66632 4.39671
4.41911 9.70124 4.41911
4.44210 9.73511 4.44210
4.46567 9.76790 4.46567
4.48985 9.79958 4.48985
4.51470 9.82999 4.51470
4.54039 9.85884 4.54039
4.56722 9.88549 4.56722
4.59590 9.90854 4.59590
4.62809 9.92466 4.62808
7.93429 7.31288 4.01424
8.05005 7.27946 4.01257
8.16027 7.25140 4.01117
8.26621 7.22750 4.00997
8.36878 7.20691 4.00893
8.46861 7.18899 4.00803
8.56620 7.17330 4.00723
8.66191 7.15947 4.00653
8.75604 7.14722 4.00590
8.84883 7.13633 4.00534
8.94047 7.12661 4.00485
9.03112 7.11791 4.00440
9.12087 7.11013 4.00400
9.20992 7.10309 4.00364
9.29831 7.09676 4.00331
9.38611 7.09105 4.00301
9.47342 7.08588 4.00274
9.56029 7.08121 4.00250
9.64676 7.07697 4.00228
9.73289 7.07313 4.00208
9.81872 7.06964 4.00190
9.90428 7.06647 4.00173
9.98961 7.06358 4.00158
10.07474 7.06096 4.00144
10.15969 7.05857 4.00132
10.24448 7.05639 4.00120
10.32912 7.05441 4.00110
10.41365 7.05260 4.00100
10.49808 7.05095 4.00092
10.58242 7.04944 4.00084
10.66668 7.04806 4.00077
10.75088 7.04681 4.00070
10.83502 7.04566 4.00064
10.91913 7.04462 4.00059
11.00318 7.04367 4.00054
11.08722 7.04279 4.00049
11.17123 7.04200 4.00045
11.25523 7.04127 4.00041
11.33922 7.04060 4.00037
11.42323 7.03997 4.00034
11.50720 7.03943 4.00031
11.59120 7.03891 4.00029
11.67522 7.03843 4.00026
11.75922 7.03802 4.00024
11.84324 7.03764 4.00021
11.92726 7.03731 4.00020
12.01136 7.03695 4.00018
12.09544 7.03665 4.00017
12.17958 7.03636 4.00015
12.26373 7.03610 4.00014
12.34786 7.03590 4.00013
12.43208 7.03567 4.00011
12.51632 7.03548 4.00010
12.60053 7.03533 4.00010
12.68485 7.03515 4.00009
12.76918 7.03500 4.00008
12.85349 7.03489 4.00007
12.93791 7.03475 4.00007
13.02235 7.03464 4.00006
13.10683 7.03453 4.00005
13.19136 7.03444 4.00005
13.27577 7.03440 4.00005
13.36040 7.03428 4.00004
13.44502 7.03421 4.00004
13.52969 7.03414 4.00003
13.61440 7.03408 4.00003
13.69899 7.03405 4.00003
13.78374 7.03400 4.00003
13.86853 7.03396 4.00003
13.95337 7.03392 4.00002
14.03825 7.03388 4.00002
14.12319 7.03383 4.00002
14.20812 7.03383 4.00002
14.29314 7.03378 4.00002
14.37817 7.03375 4.00001
14.46325 7.03373 4.00001
14.54836 7.03370 4.00001
14.63351 7.03368 4.00001
14.71870 7.03366 4.00001
14.80392 7.03365 4.00001
14.88918 7.03363 4.00001
14.97447 7.03362 4.00001
15.05978 7.03361 4.00001
15.14514 7.03360 4.00001
15.23053 7.03359 4.00001
15.31596 7.03358 4.00001
15.40142 7.03357 4.00000
15.48691 7.03356 4.00000
15.57244 7.03356 4.00000
15.65799 7.03355 4.00000
15.74358 7.03354 4.00000
15.82920 7.03354 4.00000
15.91485 7.03353 4.00000
16.00053 7.03353 4.00000

Angle 0.282365 1.880522

4.00000 7.03348 4.00000
4.00000 7.03348 4.00000
4.00000 7.03348 4.00000
4.00000 7.03348 4.00000
4.00000 7.03348 4.00000
4.00000 7.03348 4.00000
4.00000 7.03348 4.00000
4.00000 7.03348 4.00000
4.00000 7.03348 4.00000
4.00000 7.03348 4.00000
4.00000 7.03348 4.00000
4.00000 7.03348 4.00000
4.00000 7.03348 4.00000
4.00000 7.03348 4.00000
4.00000 7.03348 4.00000
4.00000 7.03348 4.00000
4.00000 7.03348 4.00000
4.00000 7.03348 4.00000
4.00000 7.03348 4.00000
4.00000 7.03348 4.00000
4.00000 7.03348 4.00000
4.00000 7.03348 4.00000
4.00000 7.03348 4.00000
4.00000 7.03348 4.00000
4.00000 7.03348 4.00000
4.00000 7.03348 4.00000
4.00000 7.03348 4.00000
4.00000 7.03348 4.00000
4.00000 7.03348 4.00000
4.00000 7.03348 4.00000
4.00000 7.03348 4.00000
4.00000 7.03348 4.00000
4.00000 7.03348 4.00000
4.00000 7.03348 4.00000
4.00000 7.03348 4.00000
4.00000 7.03348 4.00000
4.00000 7.03348 4.00000
4.00000 7.03348 4.00000
4.00000 7.03348 4.00000
4.00000 7.03348 4.00000
4.00000 7.03348 4.00000
4.00000 7.03348 4.00000
4.00000 7.03349 4.00000
4.00000 7.03349 4.00000
4.00000 7.03349 4.00000
4.00000 7.03348 4.00000
4.00000 7.03349 4.00000
4.00001 7.03357 4.00000
4.00000 7.03347 4.00000
4.00131 7.05850 4.00131
4.00285 7.08792 4.00285
4.00440 7.11778 4.00439
4.00595 7.14810 4.00595
4.00751 7.17886 4.00751
4.00909 7.21005 4.00910
4.01068 7.24169 4.01068
4.01229 7.27375 4.01229
4.01391 7.30624 4.01391
4.01554 7.33915 4.01554
4.01719 7.37248 4.01719
4.01886 7.40622 4.01886
4.02054 7.44036 4.02054
4.02224 7.47490 4.02224
4.02396 7.50984 4.02396
4.02571 7.54517 4.02571
4.02747 7.58087 4.02747
4.02926 7.61696 4.02926
4.03108 7.65341 4.03108
4.03293 7.69022 4.03293
4.03480 7.72739 4.03480
4.03671 7.76491 4.03671
4.03866 7.80276 4.03866
4.04065 7.84093 4.04065
4.04267 7.87943 4.04267
4.04475 7.91824 4.04475
4.04687 7.95733 4.04687
4.04905 7.99672 4.04905
4.05128 8.03638 4.05128
4.05358 8.07629 4.05358
4.05595 8.11645 4.05595
4.05840 8.15683 4.05840
4.06094 8.19742 4.06094
4.06356 8.23819 4.06356
4.06629 8.27913 4.06629
4.06913 8.32022 4.06913
4.07210 8.36141 4.07210
4.07521 8.40269 4.07521
4.07847 8.44401 4.07847
4.08191 8.48535 4.08191
4.08554 8.52664 4.08554
4.08939 8.56785 4.08939
4.09348 8.60892 4.09348
4.09785 8.64977 4.09785
4.10252 8.69037 4.10252
4.10747 8.73076 4.10747
4.11269 8.77092 4.11269
4.11821 8.81082 4.11821
4.12404 8.85042 4.12404
4.13020 8.88969 4.13020
4.13671 8.92859 4.13671
4.14357 8.96710 4.14357
4.15080 9.00517 4.15080
4.15843 9.04279 4.15843
4.16645 9.07991 4.16645
4.17489 9.11652 4.17489
4.18375 9.15258 4.18375
4.19304 9.18808 4.19304
4.20278 9.22299 4.20278
4.21296 9.25731 4.21296
4.22360 9.29102 4.22360
4.23468 9.32411 4.23468
4.24623 9.35657 4.24623
4.25823 9.38842 4.25823
4.27067 9.41965 4.27068
4.28357 9.45026 4.28357
4.29690 9.48027 4.29691
4.31067 9.50969 4.31067
4.32487 9.53854 4.32487
4.33948 9.56681 4.33948
4.35449 9.59454 4.35450
4.36991 9.62174 4.36991
4.38572 9.64842 4.38572
4.40191 9.67460 4.40191
4.41848 9.70028 4.41848
4.43542 9.72546 4.43542
4.45274 9.75014 4.45274
4.47044 9.77431 4.47044
4.48854 9.79792 4.48854
4.50708 9.82090 4.50708
4.52611 9.84315 4.52611
4.54573 9.86446 4.54573
4.56611 9.88448 4.56611
4.58758 9.90256 4.58758
4.61075 9.91748 4.61075
4.63685 9.92678 4.63684
7.93544 7.31253 4.01422
8.02485 7.28636 4.01292
8.11102 7.26350 4.01178
8.19458 7.24335 4.01077
8.27601 7.22543 4.00987
8.35568 7.20940 4.00906
8.43386 7.19500 4.00833
8.51078 7.18200 4.00767
8.58664 7.17022 4.00707
8.66157 7.15951 4.00653
8.73572 7.14975 4.00603
8.80919 7.14084 4.00558
8.88207 7.13269 4.00516
8.95444 7.12521 4.00477
9.02638 7.11832 4.00442
9.09791 7.11203 4.00409
9.16915 7.10619 4.00379
9.24007 7.10085 4.00352
9.31076 7.09591 4.00326
9.38124 7.09135 4.00302
9.45155 7.08713 4.00281
9.52171 7.08323 4.00260
9.59175 7.07962 4.00242
9.66169 7.07628 4.00224
9.73156 7.07318 4.00208
9.80137 7.07032 4.00193
9.87113 7.06766 4.00179
9.94087 7.06520 4.00166
10.01060 7.06291 4.00154
10.08032 7.06079 4.00143
10.15006 7.05883 4.00133
10.21981 7.05700 4.00124
10.28960 7.05531 4.00115
10.35943 7.05374 4.00106
10.42930 7.05228 4.00099
10.49923 7.05092 4.00092
10.56922 7.04966 4.00085
10.63927 7.04850 4.00079
10.70940 7.04741 4.00073
10.77960 7.04640 4.00068
10.84989 7.04547 4.00063
10.92025 7.04460 4.00058
10.99071 7.04379 4.00054
11.06126 7.04304 4.00050
11.13190 7.04235 4.00047
11.20263 7.04171 4.00043
11.27347 7.04111 4.00040
11.34440 7.04055 4.00037
11.41544 7.04003 4.00035
11.48659 7.03955 4.00032
11.55784 7.03911 4.00030
11.62920 7.03870 4.00027
11.70066 7.03831 4.00025
11.77224 7.03796 4.00024
11.84392 7.03763 4.00022
11.91571 7.03732 4.00020
11.98762 7.03704 4.00019
12.05964 7.03677 4.00017
12.13177 7.03653 4.00016
12.20401 7.03630 4.00015
12.27636 7.03609 4.00014
12.34883 7.03590 4.00013
12.42140 7.03572 4.00012
12.49409 7.03555 4.00011
12.56689 7.03540 4.00010
12.63981 7.03525 4.00009
12.71283 7.03512 4.00009
12.78596 7.03500 4.00008
12.85921 7.03488 4.00007
12.93257 7.03478 4.00007
13.00605 7.03469 4.00006
13.07960 7.03459 4.00006
13.15331 7.03451 4.00005
13.22708 7.03443 4.00005
13.30101 7.03436 4.00005
13.37499 7.03429 4.00004
13.44913 7.03423 4.00004
13.52332 7.03417 4.00004
13.59767 7.03412 4.00003
13.67218 7.03408 4.00003
13.74661 7.03402 4.00003
13.82127 7.03398 4.00003
13.89608 7.03395 4.00002
13.97104 7.03392 4.00002
14.04614 7.03389 4.00002
14.12081 7.03385 4.00002
14.19598 7.03382 4.00002
14.27129 7.03379 4.00002
14.34674 7.03377 4.00002
14.42233 7.03375 4.00001
14.49804 7.03373 4.00001
14.57312 7.03371 4.00001
14.64887 7.03369 4.00001
14.72475 7.03367 4.00001
14.80077 7.03366 4.00001
14.87691 7.03364 4.00001
14.95318 7.03363 4.00001
15.02956 7.03362 4.00001
15.10605 7.03361 4.00001
15.18265 7.03360 4.00001
15.25936 7.03359 4.00001
15.33616 7.03358 4.00001
15.41306 7.03357 4.00000
15.49006 7.03357 4.00000
15.56715 7.03356 4.00000
15.64432 7.03355 4.00000
15.72159 7.03355 4.00000
15.79894 7.03354 4.00000
15.87637 7.03354 4.00000
15.95389 7.03353 4.00000
16.03149 7.03353 4.00000
16.10916 7.03352 4.00000
16.18691 7.03352 4.00000
16.26474 7.03352 4.00000
16.34265 7.03351 4.00000
16.42062 7.03351 4.00000
16.49868 7.03351 4.00000
16.57680 7.03351 4.00000
16.65499 7.03350 4.00000
16.73327 7.03349 4.00000
16.81160 7.03349 4.00000
16.89000 7.03349 4.00000
16.96846 7.03349 4.00000
17.04700 7.03349 4.00000
17.12560 7.03348 4.00000
17.20426 7.03349 4.00000
17.28301 7.03349 4.00000
17.36181 7.03349 4.00000
17.44069 7.03349 4.00000
17.51962 7.03349 4.00000
17.59862 7.03349 4.00000
17.67769 7.03349 4.00000
17.75681 7.03349 4.00000
17.83600 7.03349 4.00000
17.91526 7.03349 4.00000
17.99457 7.03349 4.00000
18.07395 7.03349 4.00000
18.15338 7.03348 4.00000
18.23288 7.03348 4.00000
18.31244 7.03348 4.00000
18.39205 7.03348 4.00000
18.47173 7.03348 4.00000
18.55146 7.03348 4.00000
18.63126 7.03348 4.00000
18.71111 7.03348 4.00000
18.79102 7.03348 4.00000
18.87099 7.03348 4.00000
18.95101 7.03348 4.00000
19.03109 7.03348 4.00000
19.11123 7.03348 4.00000
19.19143 7.03348 4.00000
19.27167 7.03348 4.00000
19.35198 7.03348 4.00000
19.43234 7.03348 4.00000
19.51275 7.03348 4.00000
19.59322 7.03348 4.00000
19.67375 7.03348 4.00000
19.75432 7.03348 4.00000
19.83495 7.03348 4.00000
19.91563 7.03348 4.00000
19.99637 7.03348 4.00000
20.07716 7.03348 4.00000
20.15800 7.03348 4.00000
20.23889 7.03348 4.00000
20.31983 7.03348 4.00000
20.40082 7.03348 4.00000
20.48186 7.03348 4.00000
20.56296 7.03348 4.00000
20.64410 7.03348 4.00000
20.72530 7.03348 4.00000
20.80654 7.03348 4.00000
20.88783 7.03348 4.00000
20.96917 7.03348 4.00000
21.05056 7.03348 4.00000
21.13200 7.03348 4.00000
21.21348 7.03348 4.00000
21.29501 7.03348 4.00000
21.37659 7.03348 4.00000
21.45822 7.03348 4.00000
21.53989 7.03348 4.00000
21.62161 7.03348 4.00000
21.70337 7.03348 4.00000
21.78518 7.03348 4.00000
21.86703 7.03348 4.00000
21.94893 7.03348 4.00000
22.03088 7.03348 4.00000
22.11286 7.03348 4.00000
22.19490 7.03348 4.00000
22.27697 7.03348 4.00000
22.35909 7.03348 4.00000
22.44126 7.03348 4.00000
22.52346 7.03348 4.00000
22.60571 7.03348 4.00000
22.68800 7.03348 4.00000
22.77033 7.03348 4.00000
22.85271 7.03348 4.00000
22.93512 7.03348 4.00000
23.01758 7.03348 4.00000
23.10008 7.03348 4.00000
23.18262 7.03348 4.00000
23.26519 7.03348 4.00000
23.34781 7.03348 4.00000
23.43047 7.03348 4.00000
23.51317 7.03348 4.00000
23.59591 7.03348 4.00000
23.67868 7.03348 4.00000
23.76150 7.03348 4.00000
23.84435 7.03348 4.00000
23.92724 7.03348 4.00000
24.01017 7.03348 4.00000
24.09314 7.03348 4.00000
24.17615 7.03348 4.00000
24.25919 7.03348 4.00000
24.34227 7.03348 4.00000
24.42539 7.03348 4.00000
24.50854 7.03348 4.00000
24.59173 7.03348 4.00000
24.67495 7.03348 4.00000
24.75821 7.03348 4.00000
24.84151 7.03348 4.00000
24.92484 7.03348 4.00000
25.00821 7.03348 4.00000
25.09161 7.03348 4.00000
25.17505 7.03348 4.00000
25.25852 7.03348 4.00000
25.34202 7.03348 4.00000
25.42556 7.03348 4.00000
25.50914 7.03348 4.00000
25.59274 7.03348 4.00000
25.67638 7.03348 4.00000
25.76005 7.03348 4.00000
25.84376 7.03348 4.00000
25.92750 7.03348 4.00000
26.01127 7.03348 4.00000
26.09507 7.03348 4.00000
26.17891 7.03348 4.00000
26.26277 7.03348 4.00000
26.34667 7.03348 4.00000
26.43060 7.03348 4.00000
26.51456 7.03348 4.00000
26.59855 7.03348 4.00000
26.68258 7.03348 4.00000
26.76663 7.03348 4.00000
26.85071 7.03348 4.00000
26.93483 7.03348 4.00000
27.01897 7.03348 4.00000
27.10314 7.03348 4.00000
27.18735 7.03348 4.00000
27.27158 7.03348 4.00000
27.35584 7.03348 4.00000
27.44013 7.03348 4.00000
27.52445 7.03348 4.00000
27.60880 7.03348 4.00000
27.69318 7.03348 4.00000
27.77758 7.03348 4.00000
27.86202 7.03348 4.00000
27.94648 7.03348 4.00000
28.03097 7.03348 4.00000
28.11548 7.03348 4.00000
28.20003 7.03348 4.00000
28.28460 7.03348 4.00000
28.36920 7.03348 4.00000
28.45382 7.03348 4.00000
28.53848 7.03348 4.00000
28.62316 7.03348 4.00000

Angle 0.488552 4.460531

4.00000 7.03348 4.00000
4.00000 7.03348 4.00000
4.00000 7.03348 4.00000
4.00000 7.03348 4.00000
4.00000 7.03348 4.00000
4.00000 7.03348 4.00000
4.00000 7.03348 4.00000
4.00000 7.03348 4.00000
4.00000 7.03348 4.00000
4.00000 7.03348 4.00000
4.00000 7.03348 4.00000
4.00000 7.03348 4.00000
4.00000 7.03348 4.00000
4.00000 7.03348 4.00000
4.00000 7.03348 4.00000
4.00000 7.03348 4.00000
4.00000 7.03348 4.00000
4.00000 7.03348 4.00000
4.00000 7.03348 4.00000
4.00000 7.03348 4.00000
4.00000 7.03348 4.00000
4.00000 7.03348 4.00000
4.00000 7.03348 4.00000
4.00000 7.03348 4.00000
4.00000 7.03348 4.00000
4.00000 7.03348 4.00000
4.00000 7.03348 4.00000
4.00000 7.03348 4.00000
4.00000 7.03348 4.00000
4.00000 7.03348 4.00000
4.00000 7.03348 4.00000
4.00000 7.03348 4.00000
4.00000 7.03348 4.00000
4.00000 7.03348 4.00000
4.00000 7.03348 4.00000
4.00000 7.03348 4.00000
4.00000 7.03348 4.00000
4.00000 7.03348 4.00000
4.00000 7.03348 4.00000
4.00000 7.03348 4.00000
4.00000 7.03348 4.00000
4.00000 7.03348 4.00000
4.00000 7.03348 4.00000
4.00000 7.03348 4.00000
4.00000 7.03348 4.00000
4.00000 7.03348 4.00000
4.00000 7.03348 4.00000
4.00000 7.03348 4.00000
4.00000 7.03348 4.00000
4.00000 7.03348 4.00000
4.00000 7.03348 4.00000
4.00000 7.03348 4.00000
4.00000 7.03348 4.00000
4.00000 7.03348 4.00000
4.00000 7.03348 4.00000
4.00000 7.03348 4.00000
4.00000 7.03348 4.00000
4.00000 7.03348 4.00000
4.00000 7.03348 4.00000
4.00000 7.03348 4.00000
4.00000 7.03348 4.00000
4.00000 7.03348 4.00000
4.00000 7.03348 4.00000
4.00000 7.03348 4.00000
4.00000 7.03348 4.00000
4.00000 7.03348 4.00000
4.00000 7.03348 4.00000
4.00000 7.03348 4.00000
4.00000 7.03348 4.00000
4.00000 7.03348 4.00000
4.00000 7.03348 4.00000
4.00000 7.03348 4.00000
4.00000 7.03348 4.00000
4.00000 7.03348 4.00000
4.00000 7.03348 4.00000
4.00000 7.03348 4.00000
4.00000 7.03348 4.00000
4.00000 7.03348 4.00000
4.00000 7.03348 4.00000
4.00000 7.03348 4.00000
4.00000 7.03348 4.00000
4.00000 7.03348 4.00000
4.00000 7.03348 4.00000
4.00000 7.03348 4.00000
4.00000 7.03348 4.00000
4.00000 7.03348 4.00000
4.00000 7.03348 4.00000
4.00000 7.03348 4.00000
4.00000 7.03348 4.00000
4.00000 7.03348 4.00000
4.00000 7.03348 4.00000
4.00000 7.03348 4.00000
4.00000 7.03348 4.00000
4.00000 7.03348 4.00000
4.00000 7.03348 4.00000
4.00000 7.03348 4.00000
4.00000 7.03348 4.00000
4.00000 7.03348 4.00000
4.00000 7.03348 4.00000
4.00000 7.03348 4.00000
4.00000 7.03348 4.00000
4.00000 7.03348 4.00000
4.00000 7.03348 4.00000
4.00000 7.03348 4.00000
4.00000 7.03348 4.00000
4.00000 7.03348 4.00000
4.00000 7.03348 4.00000
4.00000 7.03347 4.00000
4.00000 7.03348 4.00000
4.00000 7.03347 4.00000
4.00000 7.03348 4.00000
4.00000 7.03348 4.00000
4.00000 7.03347 4.00000
4.00000 7.03347 4.00000
4.00000 7.03348 4.00000
4.00000 7.03348 4.00000
4.00000 7.03348 4.00000
4.00000 7.03348 4.00000
4.00000 7.03348 4.00000
4.00000 7.03348 4.00000
4.00000 7.03348 4.00000
4.00000 7.03348 4.00000
4.00000 7.03348 4.00000
4.00000 7.03348 4.00000
4.00000 7.03348 4.00000
4.00000 7.03348 4.00000
4.00000 7.03348 4.00000
4.00000 7.03348 4.00000
4.00000 7.03348 4.00000
4.00000 7.03348 4.00000
4.00000 7.03348 4.00000
4.00000 7.03348 4.00000
4.00000 7.03348 4.00000
4.00000 7.03348 4.00000
4.00000 7.03348 4.00000
4.00000 7.03348 4.00000
4.00000 7.03348 4.00000
4.00000 7.03348 4.00000
4.00000 7.03348 4.00000
4.00000 7.03348 4.00000
4.00000 7.03348 4.00000
4.00000 7.03348 4.00000
4.00000 7.03348 4.00000
4.00000 7.03348 4.00000
4.00000 7.03348 4.00000
4.00000 7.03348 4.00000
4.00000 7.03348 4.00000
4.00000 7.03349 4.00000
4.00000 7.03349 4.00000
4.00000 7.03351 4.00000
4.00000 7.03348 4.00000
4.00000 7.03349 4.00000
4.00000 7.03348 4.00000
4.00000 7.03349 4.00000
4.00065 7.04586 4.00065
4.00442 7.11839 4.00442
4.00814 7.19115 4.00814
4.01181 7.26412 4.01181
4.01545 7.33726 4.01545
4.01907 7.41055 4.01907
4.02269 7.48396 4.02269
4.02631 7.55746 4.02631
4.02996 7.63102 4.02996
4.03365 7.70461 4.03365
4.03740 7.77819 4.03740
4.04121 7.85173 4.04121
4.04512 7.92519 4.04512
4.04915 7.99851 4.04915
4.05331 8.07165 4.05331
4.05765 8.14454 4.05765
4.06219 8.21711 4.06219
4.06698 8.28929 4.06698
4.07207 8.36096 4.07207
4.07751 8.43202 4.07751
4.08338 8.50231 4.08338
4.08976 8.57166 4.08976
4.09676 8.63985 4.09676
4.10449 8.70669 4.10449
4.11287 8.77229 4.11287
4.12196 8.83657 4.12196
4.13179 8.89943 4.13179
4.14242 8.96080 4.14242
4.15387 9.02059 4.15387
4.16619 9.07873 4.16619
4.17940 9.13516 4.17940
4.19352 9.18984 4.19352
4.20856 9.24275 4.20856
4.22453 9.29389 4.22453
4.24142 9.34327 4.24142
4.25920 9.39093 4.25920
4.27786 9.43690 4.27786
4.29736 9.48126 4.29736
4.31766 9.52408 4.31766
4.33874 9.56542 4.33874
4.36055 9.60537 4.36055
4.38305 9.64400 4.38305
4.40621 9.68137 4.40621
4.43001 9.71754 4.43001
4.45444 9.75251 4.45444
4.47950 9.78626 4.47950
4.50526 9.81870 4.50526
4.53184 9.84955 4.53184
4.55952 9.87827 4.55952
4.58893 9.90357 4.58893
4.62160 9.92242 4.62160
4.01450 7.31822 7.91714
4.01272 7.28246 8.03898
4.01124 7.25278 8.15451
4.00998 7.22770 8.26526
4.00890 7.20624 8.37227
4.00796 7.18769 8.47628
4.00714 7.17153 8.57784
4.00642 7.15737 8.67736
4.00578 7.14487 8.77517
4.00522 7.13382 8.87152
4.00471 7.12400 8.96663
4.00426 7.11526 9.06066
4.00386 7.10742 9.15378
4.00349 7.10042 9.24608
4.00317 7.09412 9.33769
4.00287 7.08847 9.42867
4.00261 7.08337 9.51911
4.00237 7.07877 9.60907
4.00216 7.07461 9.69861
4.00196 7.07086 9.78778
4.00178 7.06746 9.87661
4.00162 7.06438 9.96516
4.00148 7.06159 10.05344
4.00135 7.05908 10.14147
4.00122 7.05676 10.22935
4.00111 7.05468 10.31702
4.00101 7.05278 10.40453
4.00092 7.05106 10.49190
4.00084 7.04949 10.57915
4.00077 7.04806 10.66629
4.00070 7.04677 10.75333
4.00064 7.04559 10.84030
4.00058 7.04451 10.92719
4.00053 7.04354 11.01401
4.00049 7.04265 11.10077
4.00044 7.04186 11.18748
4.00040 7.04110 11.27419
4.00037 7.04044 11.36083
4.00034 7.03982 11.44747
4.00030 7.03923 11.53410
4.00028 7.03874 11.62067
4.00025 7.03827 11.70726
4.00023 7.03785 11.79382
4.00021 7.03746 11.88040
4.00019 7.03712 11.96694
4.00017 7.03678 12.05352
4.00016 7.03650 12.14007
4.00014 7.03622 12.22666
4.00013 7.03598 12.31324
4.00012 7.03577 12.39982
4.00011 7.03556 12.48643
4.00010 7.03538 12.57306
4.00009 7.03525 12.65964
4.00008 7.03506 12.74632
4.00007 7.03492 12.83300
4.00007 7.03479 12.91969
4.00006 7.03467 13.00641
4.00006 7.03456 13.09315
4.00005 7.03447 13.17991
4.00005 7.03439 13.26650
4.00004 7.03431 13.35326
4.00004 7.03424 13.44006
4.00004 7.03416 13.52689
4.00003 7.03409 13.61374
4.00003 7.03404 13.70061
4.00003 7.03399 13.78751
4.00002 7.03394 13.87443
4.00002 7.03390 13.96138
4.00002 7.03386 14.04836
4.00002 7.03382 14.13536
4.00002 7.03379 14.22238
4.00001 7.03376 14.30943
4.00001 7.03374 14.39651
4.00001 7.03371 14.48360
4.00001 7.03369 14.57073
4.00001 7.03367 14.65788
4.00001 7.03365 14.74505
4.00001 7.03364 14.83224
4.00001 7.03362 14.91946
4.00001 7.03361 15.00671
4.00001 7.03359 15.09397
4.00001 7.03358 15.18126
4.00000 7.03357 15.26857
4.00000 7.03356 15.35591
4.00000 7.03355 15.44327
4.00000 7.03355 15.53064
4.00000 7.03355 15.61775
4.00000 7.03355 15.70517
4.00000 7.03354 15.79261
4.00000 7.03354 15.88008
4.00000 7.03353 15.96756
4.00000 7.03353 16.05507
4.00000 7.03352 16.14260
4.00000 7.03352 16.23015
4.00000 7.03351 16.31772
4.00000 7.03351 16.40532
4.00000 7.03351 16.49293
4.00000 7.03351 16.58056
4.00000 7.03350 16.66821
4.00000 7.03350 16.75589
4.00000 7.03350 16.84358
4.00000 7.03350 16.93129
4.00000 7.03350 17.01902
4.00000 7.03349 17.10677
4.00000 7.03349 17.19454
4.00000 7.03349 17.28232
4.00000 7.03349 17.37013
4.00000 7.03349 17.45795
4.00000 7.03349 17.54579
4.00000 7.03349 17.63365
4.00000 7.03349 17.72153
4.00000 7.03349 17.80942
4.00000 7.03349 17.89733
4.00000 7.03349 17.98526
4.00000 7.03349 18.07320
4.00000 7.03348 18.16117
4.00000 7.03348 18.24914
4.00000 7.03348 18.33714
4.00000 7.03348 18.42515
4.00000 7.03348 18.51318
4.00000 7.03348 18.60122
4.00000 7.03348 18.68928
4.00000 7.03348 18.77735
4.00000 7.03348 18.86544
4.00000 7.03348 18.95355
4.00000 7.03348 19.04167
4.00000 7.03348 19.12981
4.00000 7.03348 19.21796
4.00000 7.03348 19.30612
4.00000 7.03348 19.39430
4.00000 7.03348 19.48250
4.00000 7.03348 19.57071
4.00000 7.03348 19.65893
4.00000 7.03348 19.74717
4.00000 7.03348 19.83542
4.00000 7.03348 19.92369
4.00000 7.03348 20.01197
4.00000 7.03348 20.10027
4.00000 7.03348 20.18857
4.00000 7.03348 20.27689
4.00000 7.03348 20.36523
4.00000 7.03348 20.45358
4.00000 7.03348 20.54194
4.00000 7.03348 20.63031
4.00000 7.03348 20.71870
4.00000 7.03348 20.80709
4.00000 7.03348 20.89551
4.00000 7.03348 20.98393
4.00000 7.03348 21.07237
4.00000 7.03348 21.16082
4.00000 7.03348 21.24928
4.00000 7.03348 21.33775
4.00000 7.03348 21.42624
4.00000 7.03348 21.51474
4.00000 7.03348 21.60325
4.00000 7.03348 21.69177
4.00000 7.03348 21.78030
4.00000 7.03348 21.86884
4.00000 7.03348 21.95740
4.00000 7.03348 22.04597
4.00000 7.03348 22.13455
4.00000 7.03348 22.22314
4.00000 7.03348 22.31174
4.00000 7.03348 22.40035
4.00000 7.03348 22.48897
4.00000 7.03348 22.57761
4.00000 7.03348 22.66625
4.00000 7.03348 22.75490
4.00000 7.03348 22.84357
4.00000 7.03348 22.93225
4.00000 7.03348 23.02093
4.00000 7.03348 23.10963
4.00000 7.03348 23.19834
4.00000 7.03348 23.28705
4.00000 7.03348 23.37578
4.00000 7.03348 23.46452
4.00000 7.03348 23.55327
4.00000 7.03348 23.64202
4.00000 7.03348 23.73079
4.00000 7.03348 23.81957
4.00000 7.03348 23.90835
4.00000 7.03348 23.99715
4.00000 7.03348 24.08595
4.00000 7.03348 24.17477
4.00000 7.03348 24.26359
4.00000 7.03348 24.35242
4.00000 7.03348 24.44126
4.00000 7.03348 24.53012
4.00000 7.03348 24.61898
4.00000 7.03348 24.70785
4.00000 7.03348 24.79672
4.00000 7.03348 24.88561
4.00000 7.03348 24.97451
4.00000 7.03348 25.06341
4.00000 7.03348 25.15232

Angle 0.141728 4.001828

4.00000 7.03348 4.00000
4.00000 7.03348 4.00000
4.00000 7.03348 4.00000
4.00000 7.03348 4.00000
4.00000 7.03348 4.00000
4.00000 7.03348 4.00000
4.00000 7.03348 4.00000
4.00000 7.03348 4.00000
4.00000 7.03348 4.00000
4.00000 7.03348 4.00000
4.00000 7.03348 4.00000
4.00000 7.03348 4.00000
4.00000 7.03348 4.00000
4.00000 7.03348 4.00000
4.00000 7.03348 4.00000
4.00000 7.03348 4.00000
4.00000 7.03348 4.00000
4.00000 7.03348 4.00000
4.00000 7.03348 4.00000
4.00000 7.03348 4.00000
4.00000 7.03348 4.00000
4.00000 7.03348 4.00000
4.00000 7.03348 4.00000
4.00000 7.03348 4.00000
4.00000 7.03348 4.00000
4.00000 7.03348 4.00000
4.00000 7.03348 4.00000
4.00000 7.03348 4.00000
4.00000 7.03348 4.00000
4.00000 7.03348 4.00000
4.00000 7.03348 4.00000
4.00000 7.03348 4.00000
4.00000 7.03348 4.00000
4.00000 7.03348 4.00000
4.00000 7.03348 4.00000
4.00000 7.03348 4.00000
4.00000 7.03348 4.00000
4.00000 7.03348 4.00000
4.00000 7.03348 4.00000
4.00000 7.03348 4.00000
4.00000 7.03348 4.00000
4.00000 7.03348 4.00000
4.00000 7.03348 4.00000
4.00000 7.03348 4.00000
4.00000 7.03348 4.00000
4.00000 7.03348 4.00000
4.00000 7.03348 4.00000
4.00000 7.03348 4.00000
4.00000 7.03348 4.00000
4.00000 7.03348 4.00000
4.00000 7.03348 4.00000
4.00000 7.03348 4.00000
4.00000 7.03348 4.00000
4.00000 7.03348 4.00000
4.00000 7.03348 4.00000
4.00000 7.03348 4.00000
4.00000 7.03348 4.00000
4.00000 7.03348 4.00000
4.00000 7.03348 4.00000
4.00000 7.03348 4.00000
4.00000 7.03348 4.00000
4.00000 7.03348 4.00000
4.00000 7.03348 4.00000
4.00000 7.03348 4.00000
4.00000 7.03348 4.00000
4.00000 7.03348 4.00000
4.00000 7.03348 4.00000
4.00000 7.03348 4.00000
4.00000 7.03348 4.00000
4.00000 7.03348 4.00000
4.00000 7.03348 4.00000
4.00000 7.03348 4.00000
4.00000 7.03348 4.00000
4.00000 7.03348 4.00000
4.00000 7.03348 4.00000
4.00000 7.03348 4.00000
4.00000 7.03348 4.00000
4.00000 7.03348 4.00000
4.00000 7.03348 4.00000
4.00000 7.03348 4.00000
4.00000 7.03348 4.00000
4.00000 7.03348 4.00000
4.00000 7.03348 4.00000
4.00000 7.03348 4.00000
4.00000 7.03348 4.00000
4.00000 7.03348 4.00000
4.00000 7.03348 4.00000
4.00000 7.03348 4.00000
4.00000 7.03348 4.00000
4.00000 7.03348 4.00000
4.00000 7.03348 4.00000
4.00000 7.03348 4.00000
4.00000 7.03348 4.00000
4.00000 7.03348 4.00000
4.00000 7.03348 4.00000
4.00000 7.03348 4.00000
4.00000 7.03348 4.00000
4.00000 7.03348 4.00000
4.00000 7.03348 4.00000
4.00000 7.03348 4.00000
4.00000 7.03348 4.00000
4.00000 7.03348 4.00000
4.00000 7.03348 4.00000
4.00000 7.03348 4.00000
4.00000 7.03348 4.00000
4.00000 7.03348 4.00000
4.00000 7.03348 4.00000
4.00000 7.03348 4.00000
4.00000 7.03348 4.00000
4.00000 7.03348 4.00000
4.00000 7.03348 4.00000
4.00000 7.03348 4.00000
4.00000 7.03348 4.00000
4.00000 7.03348 4.00000
4.00000 7.03348 4.00000
4.00000 7.03348 4.00000
4.00000 7.03348 4.00000
4.00000 7.03348 4.00000
4.00000 7.03348 4.00000
4.00000 7.03348 4.00000
4.00000 7.03348 4.00000
4.00000 7.03348 4.00000
4.00000 7.03348 4.00000
4.00000 7.03348 4.00000
4.00000 7.03348 4.00000
4.00000 7.03348 4.00000
4.00000 7.03348 4.00000
4.00000 7.03348 4.00000
4.00000 7.03348 4.00000
4.00000 7.03348 4.00000
4.00000 7.03348 4.00000
4.00000 7.03348 4.00000
4.00000 7.03348 4.00000
4.00000 7.03348 4.00000
4.00000 7.03348 4.00000
4.00026 7.03845 4.00026
4.00394 7.10911 4.00394
4.00757 7.18000 4.00757
4.01116 7.25112 4.01116
4.01471 7.32244 4.01471
4.01825 7.39392 4.01825
4.02178 7.46555 4.02178
4.02532 7.53730 4.02532
4.02887 7.60913 4.02887
4.03246 7.68102 4.03246
4.03610 7.75293 4.03610
4.03981 7.82484 4.03981
4.04359 7.89671 4.04359
4.04748 7.96848 4.04748
4.05150 8.04012 4.05150
4.05566 8.11157 4.05566
4.06001 8.18276 4.06001
4.06458 8.25364 4.06458
4.06941 8.32410 4.06941
4.07455 8.39404 4.07455
4.08006 8.46335 4.08006
4.08602 8.53187 4.08602
4.09251 8.59941 4.09251
4.09966 8.66577 4.09966
4.10748 8.73086 4.10748
4.11595 8.79476 4.11595
4.12511 8.85738 4.12511
4.13500 8.91862 4.13500
4.14567 8.97841 4.14567
4.15715 9.03667 4.15715
4.16948 9.09332 4.16948
4.18267 9.14833 4.18267
4.19676 9.20166 4.19676
4.21173 9.25329 4.21173
4.22761 9.30321 4.22761
4.24436 9.35145 4.24436
4.26199 9.39804 4.26199
4.28046 9.44302 4.28046
4.29974 9.48646 4.29974
4.31981 9.52841 4.31981
4.34062 9.56896 4.34062
4.36213 9.60817 4.36213
4.38432 9.64611 4.38432
4.40715 9.68285 4.40716
4.43061 9.71842 4.43061
4.45467 9.75284 4.45467
4.47936 9.78608 4.47936
4.50473 9.81805 4.50473
4.53089 9.84850 4.53089
4.55811 9.87691 4.55811
4.58697 9.90209 4.58697
4.61885 9.92130 4.61886
4.01469 7.32190 7.90547
4.01290 7.28595 8.02632
4.01140 7.25609 8.14086
4.01014 7.23083 8.25063
4.00905 7.20921 8.35666
4.00810 7.19051 8.45969
4.00728 7.17420 8.56026
4.00655 7.15989 8.65880
4.00590 7.14727 8.75563
4.00533 7.13608 8.85102
4.00482 7.12614 8.94516
4.00436 7.11726 9.03824
4.00396 7.10932 9.13039
4.00359 7.10220 9.22175
4.00326 7.09580 9.31239
4.00296 7.09004 9.40243
4.00269 7.08485 9.49192
4.00244 7.08015 9.58095
4.00222 7.07592 9.66954
4.00202 7.07208 9.75778
4.00184 7.06860 9.84568
4.00168 7.06545 9.93330
4.00153 7.06259 10.02066
4.00139 7.06000 10.10780
4.00127 7.05764 10.19473
4.00116 7.05550 10.28149
4.00106 7.05355 10.36810
4.00096 7.05177 10.45457
4.00088 7.05016 10.54092
4.00080 7.04870 10.62716
4.00073 7.04735 10.71332
4.00066 7.04613 10.79941
4.00061 7.04503 10.88540
4.00055 7.04401 10.97136
4.00051 7.04309 11.05726
4.00046 7.04224 11.14313
4.00042 7.04147 11.22896
4.00038 7.04078 11.31475
4.00035 7.04013 11.40053
4.00031 7.03956 11.48629
4.00029 7.03903 11.57203
4.00027 7.03854 11.65778
4.00024 7.03811 11.74351
4.00022 7.03769 11.82926
4.00020 7.03732 11.91501
4.00018 7.03699 12.00075
4.00017 7.03668 12.08651
4.00015 7.03641 12.17228
4.00014 7.03615 12.25805
4.00013 7.03591 12.34386
4.00012 7.03570 12.42967
4.00011 7.03551 12.51548
4.00010 7.03532 12.60135
4.00009 7.03516 12.68722
4.00008 7.03501 12.77311
4.00007 7.03488 12.85903
4.00007 7.03476 12.94498
4.00006 7.03465 13.03095
4.00005 7.03455 13.11695
4.00005 7.03445 13.20298
4.00004 7.03437 13.28903
4.00004 7.03429 13.37511
4.00004 7.03422 13.46122
4.00003 7.03415 13.54735
4.00003 7.03409 13.63351
4.00003 7.03404 13.71970
4.00003 7.03399 13.80591
4.00002 7.03394 13.89215
4.00002 7.03390 13.97842
4.00002 7.03386 14.06472
4.00002 7.03383 14.15104
4.00002 7.03379 14.23739
4.00001 7.03377 14.32376
4.00001 7.03374 14.41016
4.00001 7.03371 14.49659
4.00001 7.03369 14.58304
4.00001 7.03367 14.66952
4.00001 7.03365 14.75603
4.00001 7.03364 14.84256
4.00001 7.03362 14.92912
4.00001 7.03361 15.01570
4.00001 7.03360 15.10231
4.00001 7.03358 15.18895
4.00000 7.03357 15.27561
4.00000 7.03356 15.36229
4.00000 7.03356 15.44900
4.00000 7.03355 15.53573
4.00000 7.03355 15.62248
4.00000 7.03355 15.70926
4.00000 7.03354 15.79607
4.00000 7.03354 15.88290
4.00000 7.03353 15.96976
4.00000 7.03353 16.05664
4.00000 7.03352 16.14354
4.00000 7.03352 16.23047
4.00000 7.03351 16.31742
4.00000 7.03351 16.40439
4.00000 7.03351 16.49138
4.00000 7.03351 16.57840
4.00000 7.03350 16.66544
4.00000 7.03350 16.75250
4.00000 7.03350 16.83959
4.00000 7.03350 16.92670
4.00000 7.03350 17.01382
4.00000 7.03349 17.10097
4.00000 7.03349 17.18815
4.00000 7.03349 17.27534
4.00000 7.03349 17.36255
4.00000 7.03349 17.44979
4.00000 7.03349 17.53704
4.00000 7.03349 17.62432
4.00000 7.03349 17.71162
4.00000 7.03349 17.79893
4.00000 7.03349 17.88627
4.00000 7.03349 17.97363
4.00000 7.03349 18.06101
4.00000 7.03348 18.14840
4.00000 7.03348 18.23582
4.00000 7.03348 18.32326
4.00000 7.03348 18.41071
4.00000 7.03348 18.49818
4.00000 7.03348 18.58568
4.00000 7.03348 18.67319
4.00000 7.03348 18.76072
4.00000 7.03348 18.84827
4.00000 7.03348 18.93584
4.00000 7.03348 19.02342
4.00000 7.03348 19.11103
4.00000 7.03348 19.19865
4.00000 7.03348 19.28629
4.00000 7.03348 19.37395
4.00000 7.03348 19.46162
4.00000 7.03348 19.54932
4.00000 7.03348 19.63703
4.00000 7.03348 19.72475
4.00000 7.03348 19.81250
4.00000 7.03348 19.90026
4.00000 7.03348 19.98804
4.00000 7.03348 20.07583
4.00000 7.03348 20.16364
4.00000 7.03348 20.25147
4.00000 7.03348 20.33931
4.00000 7.03348 20.42717
4.00000 7.03348 20.51505
4.00000 7.03348 20.60294
4.00000 7.03348 20.69085
4.00000 7.03348 20.77877
4.00000 7.03348 20.86671
4.00000 7.03348 20.95466
4.00000 7.03348 21.04263
4.00000 7.03348 21.13061
4.00000 7.03348 21.21861
4.00000 7.03348 21.30663
4.00000 7.03348 21.39466
4.00000 7.03348 21.48270
4.00000 7.03348 21.57076
4.00000 7.03348 21.65883
4.00000 7.03348 21.74692
4.00000 7.03348 21.83502
4.00000 7.03348 21.92314
4.00000 7.03348 22.01127
4.00000 7.03348 22.09941
4.00000 7.03348 22.18757
4.00000 7.03348 22.27574
4.00000 7.03348 22.36392
4.00000 7.03348 22.45212
4.00000 7.03348 22.54033
4.00000 7.03348 22.62856
4.00000 7.03348 22.71680
4.00000 7.03348 22.80505
4.00000 7.03348 22.89331
4.00000 7.03348 22.98159
4.00000 7.03348 23.06988
4.00000 7.03348 23.15818
4.00000 7.03348 23.24650
4.00000 7.03348 23.33483
4.00000 7.03348 23.42317
4.00000 7.03348 23.51152
4.00000 7.03348 23.59988
4.00000 7.03348 23.68826
4.00000 7.03348 23.77665
4.00000 7.03348 23.86505
4.00000 7.03348 23.95346
4.00000 7.03348 24.04189
4.00000 7.03348 24.13033
4.00000 7.03348 24.21877
4.00000 7.03348 24.30723
4.00000 7.03348 24.39571
4.00000 7.03348 24.48419
4.00000 7.03348 24.57268
4.00000 7.03348 24.66119
4.00000 7.03348 24.74970
4.00000 7.03348 24.83823
4.00000 7.03348 24.92677
4.00000 7.03348 25.01532
4.00000 7.03348 25.10388
4.00000 7.03348 25.19245
4.00000 7.03348 25.28103
4.00000 7.03348 25.36962
4.00000 7.03348 25.45822
4.00000 7.03348 25.54684
4.00000 7.03348 25.63546
4.00000 7.03348 25.72409
4.00000 7.03348 25.81274
4.00000 7.03348 25.90139
4.00000 7.03348 25.99005
4.00000 7.03348 26.07873
4.00000 7.03348 26.16741
4.00000 7.03348 26.25610
4.00000 7.03348 26.34481
4.00000 7.03348 26.43352
4.00000 7.03348 26.52224
4.00000 7.03348 26.61097

Angle 0.050664 3.805856

4.00000 7.03348 4.00000
4.00000 7.03348 4.00000
4.00000 7.03348 4.00000
4.00000 7.03348 4.00000
4.00000 7.03348 4.00000
4.00000 7.03348 4.00000
4.00000 7.03348 4.00000
4.00000 7.03348 4.00000
4.00000 7.03348 4.00000
4.00000 7.03348 4.00000
4.00000 7.03348 4.00000
4.00000 7.03348 4.00000
4.00000 7.03348 4.00000
4.00000 7.03348 4.00000
4.00000 7.03348 4.00000
4.00000 7.03348 4.00000
4.00000 7.03348 4.00000
4.00000 7.03348 4.00000
4.00000 7.03348 4.00000
4.00000 7.03348 4.00000
4.00000 7.03348 4.00000
4.00000 7.03348 4.00000
4.00000 7.03348 4.00000
4.00000 7.03348 4.00000
4.00000 7.03348 4.00000
4.00000 7.03348 4.00000
4.00000 7.03348 4.00000
4.00000 7.03348 4.00000
4.00000 7.03348 4.00000
4.00000 7.03348 4.00000
4.00000 7.03348 4.00000
4.00000 7.03348 4.00000
4.00000 7.03348 4.00000
4.00000 7.03348 4.00000
4.00000 7.03348 4.00000
4.00000 7.03348 4.00000
4.00000 7.03348 4.00000
4.00000 7.03348 4.00000
4.00000 7.03348 4.00000
4.00000 7.03348 4.00000
4.00000 7.03348 4.00000
4.00000 7.03348 4.00000
4.00000 7.03348 4.00000
4.00000 7.03348 4.00000
4.00000 7.03348 4.00000
4.00000 7.03348 4.00000
4.00000 7.03348 4.00000
4.00000 7.03348 4.00000
4.00000 7.03348 4.00000
4.00000 7.03348 4.00000
4.00000 7.03348 4.00000
4.00000 7.03348 4.00000
4.00000 7.03348 4.00000
4.00000 7.03348 4.00000
4.00000 7.03348 4.00000
4.00000 7.03348 4.00000
4.00000 7.03348 4.00000
4.00000 7.03348 4.00000
4.00000 7.03348 4.00000
4.00000 7.03348 4.00000
4.00000 7.03348 4.00000
4.00000 7.03348 4.00000
4.00000 7.03348 4.00000
4.00000 7.03348 4.00000
4.00000 7.03348 4.00000
4.00000 7.03348 4.00000
4.00000 7.03348 4.00000
4.00000 7.03348 4.00000
4.00000 7.03348 4.00000
4.00000 7.03348 4.00000
4.00000 7.03348 4.00000
4.00000 7.03348 4.00000
4.00000 7.03348 4.00000
4.00000 7.03348 4.00000
4.00000 7.03348 4.00000
4.00000 7.03348 4.00000
4.00000 7.03348 4.00000
4.00000 7.03348 4.00000
4.00000 7.03348 4.00000
4.00000 7.03348 4.00000
4.00000 7.03348 4.00000
4.00000 7.03348 4.00000
4.00000 7.03348 4.00000
4.00000 7.03348 4.00000
4.00000 7.03348 4.00000
4.00000 7.03348 4.00000
4.00000 7.03348 4.00000
4.00000 7.03348 4.00000
4.00000 7.03348 4.00000
4.00000 7.03348 4.00000
4.00000 7.03348 4.00000
4.00000 7.03348 4.00000
4.00000 7.03348 4.00000
4.00000 7.03348 4.00000
4.00000 7.03348 4.00000
4.00000 7.03348 4.00000
4.00000 7.03348 4.00000
4.00000 7.03348 4.00000
4.00000 7.03348 4.00000
4.00000 7.03348 4.00000
4.00000 7.03348 4.00000
4.00000 7.03348 4.00000
4.00000 7.03348 4.00000
4.00000 7.03348 4.00000
4.00000 7.03348 4.00000
4.00000 7.03348 4.00000
4.00000 7.03348 4.00000
4.00000 7.03348 4.00000
4.00000 7.03348 4.00000
4.00000 7.03348 4.00000
4.00000 7.03348 4.00000
4.00000 7.03348 4.00000
4.00000 7.03348 4.00000
4.00000 7.03348 4.00000
4.00000 7.03348 4.00000
4.00000 7.03348 4.00000
4.00000 7.03348 4.00000
4.00000 7.03348 4.00000
4.00000 7.03348 4.00000
4.00000 7.03348 4.00000
4.00000 7.03348 4.00000
4.00000 7.03348 4.00000
4.00000 7.03348 4.00000
4.00000 7.03348 4.00000
4.00000 7.03348 4.00000
4.00000 7.03348 4.00000
4.00000 7.03348 4.00000
4.00000 7.03348 4.00000
4.00000 7.03348 4.00000
4.00000 7.03348 4.00000
4.00000 7.03348 4.00000
4.00000 7.03348 4.00000
4.00000 7.03348 4.00000
4.00000 7.03348 4.00000
4.00000 7.03348 4.00000
4.00000 7.03348 4.00000
4.00000 7.03348 4.00000
4.00000 7.03348 4.00000
4.00000 7.03348 4.00000
4.00000 7.03348 4.00000
4.00000 7.03348 4.00000
4.00000 7.03348 4.00000
4.00000 7.03348 4.00000
4.00000 7.03348 4.00000
4.00000 7.03348 4.00000
4.00000 7.03348 4.00000
4.00000 7.03348 4.00000
4.00000 7.03348 4.00000
4.00000 7.03348 4.00000
4.00000 7.03348 4.00000
4.00000 7.03348 4.00000
4.00000 7.03348 4.00000
4.00000 7.03348 4.00000
4.00000 7.03348 4.00000
4.00000 7.03348 4.00000
4.00000 7.03348 4.00000
4.00000 7.03348 4.00000
4.00000 7.03348 4.00000
4.00000 7.03348 4.00000
4.00000 7.03348 4.00000
4.00000 7.03348 4.00000
4.00000 7.03348 4.00000
4.00000 7.03348 4.00000
4.00000 7.03348 4.00000
4.00000 7.03348 4.00000
4.00000 7.03348 4.00000
4.00000 7.03348 4.00000
4.00000 7.03348 4.00000
4.00000 7.03348 4.00000
4.00000 7.03348 4.00000
4.00000 7.03348 4.00000
4.00000 7.03348 4.00000
4.00000 7.03348 4.00000
4.00000 7.03348 4.00000
4.00000 7.03348 4.00000
4.00000 7.03348 4.00000
4.00000 7.03348 4.00000
4.00000 7.03348 4.00000
4.00000 7.03348 4.00000
4.00000 7.03348 4.00000
4.00000 7.03348 4.00000
4.00000 7.03348 4.00000
4.00000 7.03348 4.00000
4.00000 7.03348 4.00000
4.00000 7.03348 4.00000
4.00000 7.03348 4.00000
4.00000 7.03348 4.00000
4.00000 7.03348 4.00000
4.00000 7.03348 4.00000
4.00000 7.03348 4.00000
4.00000 7.03348 4.00000
4.00000 7.03348 4.00000
4.00000 7.03348 4.00000
4.00000 7.03348 4.00000
4.00000 7.03348 4.00000
4.00000 7.03348 4.00000
4.00000 7.03348 4.00000
4.00000 7.03348 4.00000
4.00000 7.03348 4.00000
4.00000 7.03348 4.00000
4.00000 7.03348 4.00000
4.00000 7.03348 4.00000
4.00000 7.03348 4.00000
4.00000 7.03348 4.00000
4.00000 7.03348 4.00000
4.00000 7.03348 4.00000
4.00000 7.03350 4.00000
4.00000 7.03348 4.00000
4.00000 7.03348 4.00000
4.00000 7.03348 4.00000
4.00000 7.03348 4.00000
4.00000 7.03348 4.00000
4.00000 7.03348 4.00000
4.00229 7.07728 4.00230
4.00615 7.15209 4.00615
4.00995 7.22709 4.00995
4.01371 7.30227 4.01371
4.01744 7.37759 4.01744
4.02116 7.45302 4.02116
4.02488 7.52853 4.02488
4.02862 7.60409 4.02862
4.03240 7.67967 4.03240
4.03622 7.75523 4.03622
4.04011 7.83073 4.04011
4.04410 7.90612 4.04410
4.04819 7.98137 4.04819
4.05243 8.05641 4.05243
4.05684 8.13119 4.05684
4.06146 8.20562 4.06146
4.06633 8.27963 4.06633
4.07149 8.35311 4.07149
4.07703 8.42593 4.07703
4.08300 8.49795 4.08300
4.08950 8.56897 4.08950
4.09664 8.63876 4.09664
4.10454 8.70713 4.10454
4.11313 8.77418 4.11313
4.12245 8.83983 4.12245
4.13254 8.90399 4.13254
4.14347 8.96656 4.14347
4.15526 9.02745 4.15526
4.16795 9.08661 4.16795
4.18158 9.14396 4.18158
4.19615 9.19947 4.19615
4.21168 9.25312 4.21168
4.22817 9.30491 4.22817
4.24561 9.35488 4.24561
4.26397 9.40304 4.26397
4.28323 9.44947 4.28323
4.30335 9.49423 4.30335
4.32429 9.53739 4.32429
4.34602 9.57904 4.34602
4.36848 9.61927 4.36848
4.39165 9.65814 4.39165
4.41549 9.69572 4.41549
4.43998 9.73206 4.43998
4.46511 9.76714 4.46511
4.49092 9.80093 4.49092
4.51749 9.83325 4.51749
4.54501 9.86371 4.54501
4.57391 9.89145 4.57391
4.60522 9.91443 4.60522
4.64152 9.92749 4.64151
4.01348 7.29770 7.98502
4.01185 7.26502 8.10506
4.01048 7.23768 8.21955
4.00931 7.21446 8.32975
4.00831 7.19452 8.43655
4.00743 7.17725 8.54061
4.00666 7.16217 8.64240
4.00599 7.14893 8.74230
4.00539 7.13725 8.84060
4.00486 7.12690 8.93754
4.00439 7.11771 9.03331
4.00396 7.10951 9.12808
4.00359 7.10218 9.22196
4.00325 7.09562 9.31508
4.00294 7.08973 9.40754
4.00267 7.08443 9.49940
4.00242 7.07967 9.59074
4.00220 7.07537 9.68163
4.00199 7.07149 9.77211
4.00181 7.06799 9.86224
4.00164 7.06482 9.95204
4.00149 7.06195 10.04157
4.00136 7.05935 10.13084
4.00124 7.05700 10.21989
4.00112 7.05487 10.30874
4.00102 7.05293 10.39742
4.00093 7.05117 10.48594
4.00085 7.04958 10.57432
4.00077 7.04813 10.66258
4.00070 7.04681 10.75074
4.00064 7.04561 10.83879
4.00058 7.04452 10.92677
4.00053 7.04353 11.01467
4.00048 7.04263 11.10250
4.00044 7.04181 11.19028
4.00040 7.04107 11.27801
4.00036 7.04039 11.36570
4.00033 7.03977 11.45335
4.00030 7.03921 11.54097
4.00027 7.03870 11.62857
4.00025 7.03823 11.71615
4.00023 7.03781 11.80370
4.00021 7.03742 11.89125
4.00019 7.03706 11.97879
4.00017 7.03675 12.06632
4.00016 7.03646 12.15384
4.00014 7.03619 12.24136
4.00013 7.03594 12.32889
4.00012 7.03573 12.41640
4.00011 7.03553 12.50393
4.00010 7.03535 12.59147
4.00009 7.03517 12.67903
4.00008 7.03503 12.76656
4.00007 7.03488 12.85414
4.00007 7.03477 12.94169
4.00006 7.03464 13.02929
4.00005 7.03453 13.11690
4.00005 7.03445 13.20447
4.00005 7.03435 13.29211
4.00004 7.03427 13.37976
4.00004 7.03420 13.46743
4.00004 7.03415 13.55504
4.00003 7.03407 13.64275
4.00003 7.03402 13.73046
4.00002 7.03397 13.81820
4.00002 7.03392 13.90595
4.00002 7.03388 13.99373
4.00002 7.03385 14.08152
4.00002 7.03381 14.16934
4.00001 7.03378 14.25717
4.00001 7.03375 14.34502
4.00001 7.03373 14.43289
4.00001 7.03370 14.52078
4.00001 7.03368 14.60868
4.00001 7.03366 14.69660
4.00001 7.03364 14.78453
4.00001 7.03363 14.87248
4.00001 7.03361 14.96045
4.00001 7.03360 15.04843
4.00001 7.03359 15.13642
4.00000 7.03358 15.22443
4.00000 7.03357 15.31245
4.00000 7.03356 15.40049
4.00000 7.03355 15.48854
4.00000 7.03354 15.57660
4.00000 7.03353 15.66468
4.00000 7.03353 15.75276
4.00000 7.03354 15.84085
4.00000 7.03353 15.92897
4.00000 7.03353 16.01711
4.00000 7.03352 16.10526
4.00000 7.03352 16.19342
4.00000 7.03352 16.28159
4.00000 7.03351 16.36978
4.00000 7.03351 16.45797
4.00000 7.03351 16.54619
4.00000 7.03350 16.63441
4.00000 7.03350 16.72265
4.00000 7.03350 16.81091
4.00000 7.03350 16.89917
4.00000 7.03350 16.98745
4.00000 7.03350 17.07575
4.00000 7.03349 17.16406
4.00000 7.03349 17.25238
4.00000 7.03349 17.34072
4.00000 7.03349 17.42907
4.00000 7.03349 17.51744
4.00000 7.03349 17.60582
4.00000 7.03349 17.69421
4.00000 7.03349 17.78263
4.00000 7.03349 17.87105
4.00000 7.03349 17.95950
4.00000 7.03349 18.04796
4.00000 7.03348 18.13643
4.00000 7.03348 18.22493
4.00000 7.03348 18.31343
4.00000 7.03348 18.40195
4.00000 7.03348 18.49049
4.00000 7.03348 18.57904
4.00000 7.03348 18.66761
4.00000 7.03348 18.75618
4.00000 7.03348 18.84477
4.00000 7.03348 18.93338
4.00000 7.03348 19.02200
4.00000 7.03348 19.11062
4.00000 7.03348 19.19927
4.00000 7.03348 19.28792
4.00000 7.03348 19.37658
4.00000 7.03348 19.46526
4.00000 7.03348 19.55395
4.00000 7.03348 19.64264
4.00000 7.03348 19.73135
4.00000 7.03348 19.82007
4.00000 7.03348 19.90880
4.00000 7.03348 19.99754
4.00000 7.03348 20.08629
4.00000 7.03348 20.17506

Angle 0.094934 2.969290

4.00000 7.03348 4.00000
4.00000 7.03348 4.00000
4.00000 7.03348 4.00000
4.00000 7.03348 4.00000
4.00000 7.03348 4.00000
4.00000 7.03348 4.00000
4.00000 7.03348 4.00000
4.00000 7.03348 4.00000
4.00000 7.03348 4.00000
4.00000 7.03348 4.00000
4.00000 7.03348 4.00000
4.00000 7.03348 4.00000
4.00000 7.03348 4.00000
4.00000 7.03348 4.00000
4.00000 7.03348 4.00000
4.00000 7.03348 4.00000
4.00000 7.03348 4.00000
4.00000 7.03348 4.00000
4.00000 7.03348 4.00000
4.00000 7.03348 4.00000
4.00000 7.03348 4.00000
4.00000 7.03348 4.00000
4.00000 7.03348 4.00000
4.00000 7.03348 4.00000
4.00000 7.03348 4.00000
4.00000 7.03348 4.00000
4.00000 7.03348 4.00000
4.00000 7.03348 4.00000
4.00000 7.03348 4.00000
4.00000 7.03348 4.00000
4.00000 7.03348 4.00000
4.00000 7.03348 4.00000
4.00000 7.03348 4.00000
4.00000 7.03348 4.00000
4.00000 7.03348 4.00000
4.00000 7.03348 4.00000
4.00000 7.03348 4.00000
4.00000 7.03348 4.00000
4.00000 7.03348 4.00000
4.00000 7.03348 4.00000
4.00000 7.03348 4.00000
4.00000 7.03348 4.00000
4.00000 7.03348 4.00000
4.00000 7.03348 4.00000
4.00000 7.03348 4.00000
4.00000 7.03348 4.00000
4.00000 7.03348 4.00000
4.00000 7.03348 4.00000
4.00000 7.03348 4.00000
4.00000 7.03348 4.00000
4.00000 7.03348 4.00000
4.00000 7.03348 4.00000
4.00000 7.03347 4.00000
4.00000 7.03347 4.00000
4.00000 7.03347 4.00000
4.00000 7.03347 4.00000
4.00000 7.03348 4.00000
4.00000 7.03348 4.00000
4.00000 7.03348 4.00000
4.00000 7.03348 4.00000
4.00000 7.03348 4.00000
4.00000 7.03348 4.00000
4.00000 7.03348 4.00000
4.00000 7.03348 4.00000
4.00000 7.03348 4.00000
4.00000 7.03348 4.00000
4.00000 7.03348 4.00000
4.00000 7.03348 4.00000
4.00000 7.03348 4.00000
4.00000 7.03348 4.00000
4.00000 7.03348 4.00000
4.00000 7.03348 4.00000
4.00000 7.03348 4.00000
4.00000 7.03348 4.00000
4.00000 7.03348 4.00000
4.00000 7.03348 4.00000
4.00000 7.03348 4.00000
4.00000 7.03348 4.00000
4.00000 7.03348 4.00000
4.00000 7.03348 4.00000
4.00000 7.03348 4.00000
4.00000 7.03348 4.00000
4.00000 7.03348 4.00000
4.00000 7.03348 4.00000
4.00000 7.03348 4.00000
4.00000 7.03348 4.00000
4.00000 7.03348 4.00000
4.00000 7.03348 4.00000
4.00000 7.03348 4.00000
4.00000 7.03348 4.00000
4.00000 7.03348 4.00000
4.00000 7.03348 4.00000
4.00000 7.03348 4.00000
4.00000 7.03348 4.00000
4.00000 7.03348 4.00000
4.00000 7.03348 4.00000
4.00000 7.03348 4.00000
4.00000 7.03348 4.00000
4.00000 7.03348 4.00000
4.00000 7.03348 4.00000
4.00000 7.03348 4.00000
4.00000 7.03348 4.00000
4.00000 7.03348 4.00000
4.00000 7.03348 4.00000
4.00000 7.03348 4.00000
4.00000 7.03348 4.00000
4.00000 7.03348 4.00000
4.00000 7.03348 4.00000
4.00000 7.03348 4.00000
4.00000 7.03348 4.00000
4.00000 7.03348 4.00000
4.00000 7.03348 4.00000
4.00000 7.03348 4.00000
4.00000 7.03348 4.00000
4.00000 7.03348 4.00000
4.00000 7.03348 4.00000
4.00000 7.03348 4.00000
4.00000 7.03348 4.00000
4.00000 7.03348 4.00000
4.00000 7.03348 4.00000
4.00000 7.03348 4.00000
4.00000 7.03348 4.00000
4.00000 7.03348 4.00000
4.00000 7.03348 4.00000
4.00000 7.03348 4.00000
4.00000 7.03348 4.00000
4.00000 7.03348 4.00000
4.00000 7.03348 4.00000
4.00000 7.03348 4.00000
4.00000 7.03348 4.00000
4.00000 7.03348 4.00000
4.00000 7.03348 4.00000
4.00000 7.03348 4.00000
4.00000 7.03348 4.00000
4.00000 7.03348 4.00000
4.00000 7.03348 4.00000
4.00000 7.03348 4.00000
4.00000 7.03348 4.00000
4.00000 7.03348 4.00000
4.00000 7.03348 4.00000
4.00000 7.03348 4.00000
4.00000 7.03348 4.00000
4.00000 7.03348 4.00000
4.00000 7.03348 4.00000
4.00000 7.03348 4.00000
4.00000 7.03348 4.00000
4.00000 7.03348 4.00000
4.00000 7.03348 4.00000
4.00000 7.03348 4.00000
4.00000 7.03348 4.00000
4.00000 7.03348 4.00000
4.00000 7.03348 4.00000
4.00000 7.03348 4.00000
4.00000 7.03348 4.00000
4.00000 7.03348 4.00000
4.00000 7.03348 4.00000
4.00000 7.03348 4.00000
4.00000 7.03348 4.00000
4.00000 7.03348 4.00000
4.00000 7.03348 4.00000
4.00000 7.03348 4.00000
4.00000 7.03348 4.00000
4.00000 7.03348 4.00000
4.00000 7.03348 4.00000
4.00000 7.03348 4.00000
4.00000 7.03348 4.00000
4.00000 7.03348 4.00000
4.00000 7.03348 4.00000
4.00000 7.03348 4.00000
4.00000 7.03348 4.00000
4.00000 7.03348 4.00000
4.00000 7.03348 4.00000
4.00000 7.03348 4.00000
4.00000 7.03348 4.00000
4.00000 7.03348 4.00000
4.00000 7.03348 4.00000
4.00000 7.03348 4.00000
4.00000 7.03348 4.00000
4.00000 7.03348 4.00000
4.00000 7.03348 4.00000
4.00000 7.03348 4.00000
4.00000 7.03348 4.00000
4.00000 7.03348 4.00000
4.00000 7.03348 4.00000
4.00000 7.03348 4.00000
4.00000 7.03348 4.00000
4.00000 7.03348 4.00000
4.00000 7.03348 4.00000
4.00000 7.03348 4.00000
4.00000 7.03348 4.00000
4.00000 7.03348 4.00000
4.00000 7.03348 4.00000
4.00000 7.03348 4.00000
4.00000 7.03348 4.00000
4.00000 7.03348 4.00000
4.00000 7.03348 4.00000
4.00000 7.03348 4.00000
4.00000 7.03348 4.00000
4.00000 7.03348 4.00000
4.00000 7.03348 4.00000
4.00000 7.03348 4.00000
4.00000 7.03348 4.00000
4.00000 7.03348 4.00000
4.00000 7.03348 4.00000
4.00000 7.03348 4.00000
4.00000 7.03348 4.00000
4.00000 7.03348 4.00000
4.00000 7.03348 4.00000
4.00000 7.03348 4.00000
4.00000 7.03348 4.00000
4.00000 7.03348 4.00000
4.00000 7.03348 4.00000
4.00000 7.03348 4.00000
4.00000 7.03348 4.00000
4.00000 7.03348 4.00000
4.00000 7.03349 4.00000
4.00000 7.03348 4.00000
4.00000 7.03348 4.00000
4.00000 7.03348 4.00000
4.00000 7.03348 4.00000
4.00000 7.03348 4.00000
4.00000 7.03349 4.00000
4.00000 7.03349 4.00000
4.00000 7.03351 4.00000
4.00000 7.03348 4.00000
4.00000 7.03348 4.00000
4.00000 7.03348 4.00000
4.00000 7.03348 4.00000
3.99997 7.03283 3.99997
4.00336 7.09788 4.00336
4.00674 7.16364 4.00674
4.01008 7.22966 4.01008
4.01339 7.29592 4.01339
4.01669 7.36241 4.01669
4.01998 7.42909 4.01998
4.02328 7.49595 4.02328
4.02659 7.56296 4.02659
4.02992 7.63010 4.02992
4.03329 7.69735 4.03328
4.03670 7.76467 4.03670
4.04018 7.83203 4.04018
4.04374 7.89941 4.04374
4.04739 7.96676 4.04739
4.05115 8.03406 4.05115
4.05505 8.10124 4.05505
4.05911 8.16825 4.05911
4.06336 8.23505 4.06336
4.06783 8.30155 4.06783
4.07257 8.36768 4.07257
4.07761 8.43333 4.07761
4.08303 8.49839 4.08303
4.08890 8.56271 4.08890
4.09528 8.62612 4.09528
4.10229 8.68843 4.10229
4.10989 8.74970 4.10989
4.11808 8.80992 4.11808
4.12691 8.86901 4.12691
4.13641 8.92688 4.13641
4.14662 8.98347 4.14662
4.15758 9.03871 4.15758
4.16930 9.09253 4.16930
4.18181 9.14490 4.18181
4.19514 9.19577 4.19514
4.20928 9.24514 4.20928
4.22424 9.29299 4.22424
4.24001 9.33933 4.24001
4.25659 9.38418 4.25659
4.27395 9.42759 4.27395
4.29207 9.46958 4.29207
4.31093 9.51023 4.31093
4.33049 9.54958 4.33049
4.35072 9.58770 4.35072
4.37160 9.62464 4.37160
4.39308 9.66047 4.39308
4.41516 9.69523 4.41516
4.43781 9.72894 4.43781
4.46104 9.76161 4.46104
4.48486 9.79320 4.48485
4.50932 9.82360 4.50932
4.53456 9.85255 4.53456
4.56083 9.87953 4.56083
4.58870 9.90341 4.58870
4.61948 9.92157 4.61948
7.90292 7.32271 4.01473
8.01938 7.28789 4.01299
8.12997 7.25877 4.01154
8.23606 7.23401 4.01030
8.33862 7.21271 4.00923
8.43834 7.19421 4.00829
8.53573 7.17801 4.00747
8.63118 7.16375 4.00674
8.72500 7.15112 4.00610
8.81743 7.13989 4.00553
8.90868 7.12987 4.00501
8.99891 7.12090 4.00455
9.08825 7.11285 4.00414
9.17683 7.10561 4.00376
9.26474 7.09908 4.00343
9.35206 7.09319 4.00312
9.43886 7.08787 4.00285
9.52522 7.08304 4.00259
9.61118 7.07867 4.00237
9.69680 7.07469 4.00216
9.78210 7.07109 4.00197
9.86713 7.06781 4.00180
9.95193 7.06483 4.00165
10.03652 7.06210 4.00150
10.12093 7.05963 4.00137
10.20518 7.05737 4.00126
10.28929 7.05531 4.00115
10.37328 7.05343 4.00105
10.45716 7.05172 4.00096
10.54096 7.05015 4.00088
10.62468 7.04872 4.00080
10.70832 7.04743 4.00073
10.79194 7.04623 4.00067
10.87548 7.04515 4.00061
10.95901 7.04415 4.00056
11.04251 7.04324 4.00051
11.12599 7.04241 4.00047
11.20946 7.04164 4.00043
11.29292 7.04094 4.00039
11.37638 7.04031 4.00036
11.45984 7.03972 4.00033
11.54330 7.03920 4.00030
11.62678 7.03871 4.00028
11.71028 7.03825 4.00025
11.79377 7.03786 4.00023
11.87731 7.03747 4.00021
11.96088 7.03712 4.00019
12.04443 7.03683 4.00018
12.12806 7.03653 4.00016
12.21167 7.03628 4.00015
12.29535 7.03603 4.00013
12.37902 7.03582 4.00012
12.46277 7.03561 4.00011
12.54651 7.03544 4.00010
12.63033 7.03526 4.00009
12.71418 7.03510 4.00008
12.79802 7.03497 4.00008
12.88193 7.03484 4.00007
12.96589 7.03472 4.00006
13.04990 7.03461 4.00006
13.13386 7.03453 4.00006
13.21794 7.03442 4.00005
13.30206 7.03434 4.00004
13.38622 7.03426 4.00004
13.47042 7.03420 4.00004
13.55456 7.03415 4.00004
13.63882 7.03409 4.00003
13.72316 7.03402 4.00003
13.80745 7.03399 4.00003
13.89183 7.03395 4.00002
13.97625 7.03391 4.00002
14.06071 7.03387 4.00002
14.14524 7.03382 4.00002
14.22978 7.03381 4.00002
14.31439 7.03377 4.00001
14.39904 7.03374 4.00001
14.48373 7.03372 4.00001
14.56847 7.03370 4.00001
14.65325 7.03367 4.00001
14.73806 7.03366 4.00001
14.82292 7.03364 4.00001
14.90782 7.03362 4.00001
14.99276 7.03361 4.00001
15.07774 7.03360 4.00001
15.16276 7.03359 4.00001
15.24782 7.03358 4.00000
15.33291 7.03357 4.00000
15.41804 7.03356 4.00000
15.50321 7.03355 4.00000
15.58842 7.03354 4.00000
15.67366 7.03354 4.00000
15.75893 7.03353 4.00000
15.84424 7.03352 4.00000
15.92959 7.03352 4.00000
16.01497 7.03352 4.00000
16.10039 7.03351 4.00000
16.18583 7.03352 4.00000
16.27131 7.03352 4.00000
16.35683 7.03351 4.00000
16.44239 7.03351 4.00000
16.52797 7.03351 4.00000
16.61359 7.03351 4.00000
16.69924 7.03350 4.00000
16.78492 7.03350 4.00000
16.87063 7.03350 4.00000
16.95638 7.03350 4.00000
17.04215 7.03350 4.00000
17.12796 7.03349 4.00000
17.21380 7.03349 4.00000
17.29966 7.03349 4.00000
17.38556 7.03349 4.00000
17.47148 7.03349 4.00000
17.55743 7.03349 4.00000
17.64342 7.03349 4.00000
17.72943 7.03349 4.00000
17.81547 7.03349 4.00000
17.90153 7.03349 4.00000

Angle 0.295103 1.341202

4.00000 7.03348 4.00000
4.00000 7.03348 4.00000
4.00046 7.04226 4.00046
4.00125 7.05716 4.00124
4.00205 7.07254 4.00205
4.00287 7.08840 4.00287
4.00372 7.10474 4.00372
4.00459 7.12155 4.00459
4.00547 7.13885 4.00547
4.00638 7.15662 4.00638
4.00731 7.17486 4.00731
4.00826 7.19358 4.00826
4.00923 7.21277 4.00923
4.01022 7.23242 4.01022
4.01123 7.25254 4.01123
4.01225 7.27313 4.01226
4.01331 7.29417 4.01331
4.01437 7.31569 4.01437
4.01547 7.33764 4.01547
4.01658 7.36006 4.01658
4.01771 7.38293 4.01771
4.01886 7.40625 4.01886
4.02003 7.43001 4.02003
4.02122 7.45422 4.02122
4.02244 7.47887 4.02244
4.02367 7.50395 4.02367
4.02493 7.52947 4.02493
4.02621 7.55541 4.02621
4.02752 7.58179 4.02752
4.02885 7.60858 4.02885
4.03020 7.63579 4.03020
4.03158 7.66341 4.03158
4.03299 7.69144 4.03299
4.03442 7.71988 4.03442
4.03589 7.74871 4.03589
4.03738 7.77793 4.03738
4.03891 7.80755 4.03891
4.04047 7.83754 4.04047
4.04206 7.86791 4.04207
4.04370 7.89865 4.04370
4.04537 7.92974 4.04537
4.04708 7.96120 4.04708
4.04884 7.99299 4.04884
4.05064 8.02513 4.05064
4.05250 8.05759 4.05250
4.05441 8.09037 4.05441
4.05638 8.12346 4.05638
4.05840 8.15684 4.05840
4.06050 8.19051 4.06050
4.06267 8.22444 4.06267
4.06491 8.25863 4.06491
4.06724 8.29306 4.06724
4.06966 8.32771 4.06966
4.07219 8.36256 4.07219
4.07482 8.39760 4.07482
4.07757 8.43279 4.07757
4.08046 8.46811 4.08046
4.08348 8.50353 4.08348
4.08667 8.53902 4.08667
4.09004 8.57454 4.09004
4.09360 8.61005 4.09360
4.09738 8.64550 4.09738
4.10140 8.68085 4.10140
4.10564 8.71613 4.10564
4.11010 8.75134 4.11010
4.11480 8.78645 4.11480
4.11974 8.82143 4.11974
4.12493 8.85626 4.12493
4.13040 8.89091 4.13040
4.13615 8.92536 4.13615
4.14219 8.95957 4.14219
4.14854 8.99352 4.14854
4.15520 9.02718 4.15520
4.16220 9.06053 4.16220
4.16953 9.09354 4.16953
4.17721 9.12620 4.17721
4.18525 9.15847 4.18525
4.19366 9.19035 4.19366
4.20244 9.22181 4.20244
4.21160 9.25283 4.21160
4.22114 9.28342 4.22114
4.23107 9.31355 4.23107
4.24140 9.34321 4.24140
4.25211 9.37241 4.25211
4.26322 9.40115 4.26322
4.27471 9.42941 4.27471
4.28660 9.45721 4.28660
4.29886 9.48455 4.29887
4.31151 9.51144 4.31151
4.32453 9.53787 4.32453
4.33792 9.56387 4.33792
4.35168 9.58944 4.35168
4.36579 9.61458 4.36579
4.38025 9.63932 4.38025
4.39505 9.66365 4.39505
4.41020 9.68759 4.41020
4.42569 9.71113 4.42569
4.44152 9.73427 4.44152
4.45769 9.75701 4.45769
4.47421 9.77931 4.47421
4.49110 9.80116 4.49110
4.50839 9.82248 4.50839
4.52612 9.84317 4.52612
4.54439 9.86306 4.54439
4.56332 9.88189 4.56332
4.58317 9.89914 4.58317
4.60438 9.91394 4.60438
4.62780 9.92457 4.62780
7.89923 7.32389 4.01478
7.98457 7.29783 4.01349
8.06680 7.27497 4.01235
8.14655 7.25471 4.01134
8.22426 7.23663 4.01043
8.30027 7.22040 4.00961
8.37486 7.20575 4.00887
8.44825 7.19248 4.00820
8.52061 7.18041 4.00759
8.59210 7.16941 4.00703
8.66282 7.15934 4.00652
8.73291 7.15011 4.00605
8.80243 7.14163 4.00562
8.87146 7.13383 4.00522
8.94008 7.12665 4.00485
9.00833 7.12001 4.00451
9.07628 7.11388 4.00419
9.14396 7.10822 4.00390
9.21141 7.10297 4.00363
9.27868 7.09810 4.00338
9.34578 7.09360 4.00314
9.41276 7.08941 4.00292
9.47962 7.08553 4.00272
9.54641 7.08192 4.00254
9.61312 7.07857 4.00236
9.67980 7.07545 4.00220
9.74644 7.07255 4.00205
9.81308 7.06986 4.00191
9.87971 7.06734 4.00178
9.94636 7.06501 4.00165
10.01303 7.06283 4.00154
10.07973 7.06081 4.00143
10.14648 7.05892 4.00134
10.21328 7.05717 4.00124
10.28014 7.05553 4.00116
10.34707 7.05400 4.00108
10.41407 7.05259 4.00100
10.48115 7.05126 4.00094
10.54831 7.05003 4.00087
10.61557 7.04888 4.00081
10.68292 7.04781 4.00075
10.75036 7.04681 4.00070
10.81791 7.04589 4.00065
10.88557 7.04502 4.00061
10.95332 7.04422 4.00057
11.02120 7.04346 4.00053
11.08919 7.04276 4.00049
11.15729 7.04211 4.00045
11.22551 7.04151 4.00042
11.29384 7.04094 4.00039
11.36230 7.04041 4.00037
11.43088 7.03992 4.00034
11.49958 7.03947 4.00032
11.56840 7.03905 4.00029
11.63736 7.03865 4.00027
11.70644 7.03828 4.00025
11.77564 7.03794 4.00024
11.84496 7.03763 4.00022
11.91442 7.03732 4.00020
11.98400 7.03705 4.00019
12.05370 7.03680 4.00018
12.12354 7.03656 4.00016
12.19350 7.03634 4.00015
12.26359 7.03612 4.00014
12.33380 7.03594 4.00013
12.40414 7.03576 4.00012
12.47461 7.03560 4.00011
12.54520 7.03544 4.00010
12.61593 7.03530 4.00010
12.68677 7.03517 4.00009
12.75775 7.03504 4.00008
12.82883 7.03493 4.00008
12.90005 7.03482 4.00007
12.97139 7.03473 4.00007
13.04285 7.03463 4.00006
13.11444 7.03455 4.00006
13.18617 7.03448 4.00005
13.25797 7.03440 4.00005
13.32995 7.03434 4.00005
13.40199 7.03427 4.00004
13.47421 7.03421 4.00004
13.54652 7.03412 4.00004
13.61894 7.03411 4.00003
13.69145 7.03406 4.00003
13.76413 7.03402 4.00003
13.83700 7.03398 4.00003
13.90976 7.03394 4.00002
13.98279 7.03390 4.00002
14.05599 7.03388 4.00002
14.12936 7.03385 4.00002
14.20234 7.03382 4.00002
14.27580 7.03379 4.00002
14.34944 7.03377 4.00002
14.42323 7.03375 4.00001
14.49717 7.03373 4.00001
14.57126 7.03371 4.00001
14.64548 7.03370 4.00001
14.71983 7.03368 4.00001
14.79431 7.03367 4.00001
14.86890 7.03365 4.00001
14.94362 7.03364 4.00001
15.01844 7.03363 4.00001
15.09337 7.03362 4.00001
15.16841 7.03361 4.00001
15.24355 7.03360 4.00001
15.31879 7.03359 4.00001
15.39412 7.03358 4.00001
15.46955 7.03357 4.00000
15.54507 7.03356 4.00000
15.62068 7.03356 4.00000
15.69638 7.03355 4.00000
15.77217 7.03355 4.00000
15.84805 7.03354 4.00000
15.92401 7.03354 4.00000
16.00005 7.03353 4.00000
16.07618 7.03353 4.00000
16.15239 7.03352 4.00000
16.22868 7.03352 4.00000
16.30506 7.03352 4.00000
16.38151 7.03351 4.00000
16.45804 7.03351 4.00000
16.53464 7.03351 4.00000
16.61133 7.03351 4.00000
16.68809 7.03350 4.00000
16.76493 7.03350 4.00000
16.84185 7.03350 4.00000
16.91884 7.03350 4.00000
16.99590 7.03350 4.00000
17.07304 7.03350 4.00000
17.15025 7.03349 4.00000
17.22754 7.03349 4.00000
17.30490 7.03349 4.00000
17.38233 7.03349 4.00000
17.45983 7.03349 4.00000
17.53740 7.03349 4.00000
17.61505 7.03349 4.00000
17.69277 7.03349 4.00000
17.77055 7.03349 4.00000
17.84841 7.03349 4.00000
17.92633 7.03349 4.00000
18.00433 7.03349 4.00000
18.08239 7.03348 4.00000
18.16052 7.03348 4.00000
18.23872 7.03348 4.00000
18.31699 7.03348 4.00000
18.39532 7.03348 4.00000
18.47372 7.03348 4.00000
18.55218 7.03348 4.00000
18.63072 7.03348 4.00000
18.70931 7.03348 4.00000
18.78797 7.03348 4.00000
18.86670 7.03348 4.00000
18.94549 7.03348 4.00000
19.02434 7.03348 4.00000
19.10326 7.03348 4.00000
19.18224 7.03348 4.00000
19.26128 7.03348 4.00000
19.34038 7.03348 4.00000
19.41955 7.03348 4.00000
19.49878 7.03348 4.00000
19.57806 7.03348 4.00000
19.65741 7.03348 4.00000
19.73682 7.03348 4.00000
19.81629 7.03348 4.00000
19.89581 7.03348 4.00000
19.97540 7.03348 4.00000
20.05504 7.03348 4.00000
20.13475 7.03348 4.00000
20.21450 7.03348 4.00000
20.29432 7.03348 4.00000
20.37419 7.03348 4.00000
20.45412 7.03348 4.00000
20.53411 7.03348 4.00000
20.61415 7.03348 4.00000
20.69425 7.03348 4.00000
20.77440 7.03348 4.00000
20.85461 7.03348 4.00000
20.93487 7.03348 4.00000
21.01518 7.03348 4.00000
21.09555 7.03348 4.00000
21.17597 7.03348 4.00000
21.25644 7.03348 4.00000
21.33697 7.03348 4.00000
21.41755 7.03348 4.00000
21.49818 7.03348 4.00000
21.57886 7.03348 4.00000
21.65959 7.03348 4.00000
21.74037 7.03348 4.00000
21.82120 7.03348 4.00000
21.90208 7.03348 4.00000
21.98301 7.03348 4.00000
22.06399 7.03348 4.00000
22.14502 7.03348 4.00000
22.22610 7.03348 4.00000
22.30723 7.03348 4.00000
22.38840 7.03348 4.00000
22.46962 7.03348 4.00000
22.55089 7.03348 4.00000
22.63220 7.03348 4.00000
22.71356 7.03348 4.00000
22.79497 7.03348 4.00000
22.87642 7.03348 4.00000
22.95792 7.03348 4.00000
23.03946 7.03348 4.00000
23.12105 7.03348 4.00000
23.20268 7.03348 4.00000
23.28436 7.03348 4.00000
23.36608 7.03348 4.00000
23.44784 7.03348 4.00000
23.52965 7.03348 4.00000
23.61150 7.03348 4.00000
23.69339 7.03348 4.00000
23.77533 7.03348 4.00000
23.85731 7.03348 4.00000
23.93933 7.03348 4.00000
24.02139 7.03348 4.00000
24.10349 7.03348 4.00000
24.18563 7.03348 4.00000
24.26782 7.03348 4.00000
24.35004 7.03348 4.00000
24.43230 7.03348 4.00000
24.51461 7.03348 4.00000
24.59695 7.03348 4.00000
24.67934 7.03348 4.00000
24.76176 7.03348 4.00000
24.84422 7.03348 4.00000
24.92672 7.03348 4.00000
25.00926 7.03348 4.00000
25.09183 7.03348 4.00000
25.17445 7.03348 4.00000
25.25710 7.03348 4.00000
25.33979 7.03348 4.00000
25.42251 7.03348 4.00000
25.50527 7.03348 4.00000
25.58807 7.03348 4.00000
25.67091 7.03348 4.00000
25.75378 7.03348 4.00000
25.83669 7.03348 4.00000
25.91963 7.03348 4.00000
26.00261 7.03348 4.00000
26.08562 7.03348 4.00000
26.16867 7.03348 4.00000
26.25175 7.03348 4.00000
26.33487 7.03348 4.00000
26.41802 7.03348 4.00000
26.50121 7.03348 4.00000
26.58443 7.03348 4.00000
26.66768 7.03348 4.00000
26.75096 7.03348 4.00000
26.83428 7.03348 4.00000
26.91764 7.03348 4.00000
27.00102 7.03348 4.00000
27.08444 7.03348 4.00000
27.16789 7.03348 4.00000
27.25137 7.03348 4.00000
27.33488 7.03348 4.00000
27.41843 7.03348 4.00000
27.50201 7.03348 4.00000
27.58561 7.03348 4.00000
27.66925 7.03348 4.00000
27.75292 7.03348 4.00000
27.83662 7.03348 4.00000
27.92036 7.03348 4.00000
28.00412 7.03348 4.00000
28.08791 7.03348 4.00000
28.17173 7.03348 4.00000
28.25558 7.03348 4.00000
28.33946 7.03348 4.00000
28.42338 7.03348 4.00000
28.50731 7.03348 4.00000
28.59128 7.03348 4.00000
28.67528 7.03348 4.00000
28.75931 7.03348 4.00000
28.84336 7.03348 4.00000
28.92745 7.03348 4.00000
29.01156 7.03348 4.00000
29.09570 7.03348 4.00000
29.17986 7.03348 4.00000
29.26406 7.03348 4.00000
29.34828 7.03348 4.00000
29.43253 7.03348 4.00000
29.51681 7.03348 4.00000
29.60111 7.03348 4.00000
29.68544 7.03348 4.00000
29.76980 7.03348 4.00000
29.85418 7.03348 4.00000
29.93859 7.03348 4.00000
30.02303 7.03348 4.00000
30.10749 7.03348 4.00000
30.19198 7.03348 4.00000
30.27649 7.03348 4.00000
30.36103 7.03348 4.00000

Angle 0.441412 4.632375

4.00000 7.03348 4.00000
4.00000 7.03348 4.00000
4.00000 7.03348 4.00000
4.00000 7.03348 4.00000
4.00000 7.03348 4.00000
4.00000 7.03348 4.00000
4.00000 7.03348 4.00000
4.00000 7.03348 4.00000
4.00000 7.03348 4.00000
4.00000 7.03348 4.00000
4.00000 7.03348 4.00000
4.00000 7.03348 4.00000
4.00000 7.03348 4.00000
4.00000 7.03348 4.00000
4.00000 7.03348 4.00000
4.00000 7.03348 4.00000
4.00000 7.03348 4.00000
4.00000 7.03348 4.00000
4.00000 7.03348 4.00000
4.00000 7.03348 4.00000
4.00000 7.03348 4.00000
4.00000 7.03348 4.00000
4.00000 7.03348 4.00000
4.00000 7.03348 4.00000
4.00000 7.03348 4.00000
4.00000 7.03348 4.00000
4.00000 7.03348 4.00000
4.00000 7.03348 4.00000
4.00000 7.03348 4.00000
4.00000 7.03348 4.00000
4.00000 7.03348 4.00000
4.00000 7.03348 4.00000
4.00000 7.03348 4.00000
4.00000 7.03348 4.00000
4.00000 7.03348 4.00000
4.00000 7.03348 4.00000
4.00000 7.03348 4.00000
4.00000 7.03348 4.00000
4.00000 7.03348 4.00000
4.00000 7.03348 4.00000
4.00000 7.03348 4.00000
4.00000 7.03348 4.00000
4.00000 7.03348 4.00000
4.00000 7.03348 4.00000
4.00000 7.03348 4.00000
4.00000 7.03348 4.00000
4.00000 7.03348 4.00000
4.00000 7.03348 4.00000
4.00000 7.03348 4.00000
4.00000 7.03348 4.00000
4.00000 7.03348 4.00000
4.00000 7.03348 4.00000
4.00000 7.03348 4.00000
4.00000 7.03348 4.00000
4.00000 7.03348 4.00000
4.00000 7.03348 4.00000
4.00000 7.03348 4.00000
4.00000 7.03348 4.00000
4.00000 7.03348 4.00000
4.00000 7.03348 4.00000
4.00000 7.03348 4.00000
4.00000 7.03348 4.00000
4.00000 7.03348 4.00000
4.00000 7.03348 4.00000
4.00000 7.03348 4.00000
4.00000 7.03348 4.00000
4.00000 7.03348 4.00000
4.00000 7.03348 4.00000
4.00000 7.03348 4.00000
4.00000 7.03348 4.00000
4.00000 7.03348 4.00000
4.00000 7.03348 4.00000
4.00000 7.03348 4.00000
4.00000 7.03348 4.00000
4.00000 7.03348 4.00000
4.00000 7.03348 4.00000
4.00000 7.03348 4.00000
4.00000 7.03349 4.00000
4.00000 7.03349 4.00000
4.00000 7.03348 4.00000
4.00000 7.03348 4.00000
4.00000 7.03348 4.00000
4.00000 7.03348 4.00000
4.00000 7.03348 4.00000
4.00000 7.03348 4.00000
4.00000 7.03348 4.00000
4.00000 7.03348 4.00000
4.00000 7.03348 4.00000
4.00000 7.03348 4.00000
4.00000 7.03348 4.00000
4.00000 7.03348 4.00000
4.00000 7.03348 4.00000
4.00000 7.03348 4.00000
4.00000 7.03348 4.00000
4.00000 7.03348 4.00000
4.00000 7.03348 4.00000
4.00000 7.03348 4.00000
4.00000 7.03348 4.00000
4.00000 7.03348 4.00000
4.00000 7.03348 4.00000
4.00000 7.03348 4.00000
4.00000 7.03348 4.00000
4.00000 7.03348 4.00000
4.00000 7.03348 4.00000
4.00000 7.03348 4.00000
4.00000 7.03348 4.00000
4.00000 7.03348 4.00000
4.00000 7.03348 4.00000
4.00000 7.03348 4.00000
4.00000 7.03348 4.00000
4.00000 7.03348 4.00000
4.00000 7.03348 4.00000
4.00000 7.03348 4.00000
4.00000 7.03348 4.00000
4.00000 7.03348 4.00000
4.00000 7.03348 4.00000
4.00000 7.03348 4.00000
4.00000 7.03348 4.00000
4.00000 7.03348 4.00000
4.00000 7.03348 4.00000
4.00000 7.03348 4.00000
4.00000 7.03348 4.00000
4.00000 7.03347 4.00000
4.00000 7.03347 4.00000
4.00000 7.03347 4.00000
4.00000 7.03347 4.00000
4.00000 7.03348 4.00000
4.00000 7.03348 4.00000
4.00000 7.03348 4.00000
4.00000 7.03348 4.00000
4.00000 7.03348 4.00000
4.00000 7.03348 4.00000
4.00000 7.03348 4.00000
4.00000 7.03348 4.00000
4.00000 7.03348 4.00000
4.00000 7.03348 4.00000
4.00000 7.03348 4.00000
4.00000 7.03348 4.00000
4.00000 7.03348 4.00000
4.00000 7.03348 4.00000
4.00000 7.03348 4.00000
4.00000 7.03348 4.00000
4.00000 7.03348 4.00000
4.00000 7.03348 4.00000
4.00000 7.03348 4.00000
4.00000 7.03348 4.00000
4.00000 7.03348 4.00000
4.00000 7.03348 4.00000
4.00000 7.03348 4.00000
4.00000 7.03348 4.00000
4.00000 7.03348 4.00000
4.00000 7.03348 4.00000
4.00000 7.03348 4.00000
4.00000 7.03348 4.00000
4.00000 7.03348 4.00000
4.00000 7.03348 4.00000
4.00000 7.03348 4.00000
4.00000 7.03348 4.00000
4.00000 7.03348 4.00000
4.00000 7.03348 4.00000
4.00000 7.03348 4.00000
4.00000 7.03348 4.00000
4.00000 7.03348 4.00000
4.00000 7.03348 4.00000
4.00000 7.03348 4.00000
4.00000 7.03348 4.00000
4.00000 7.03348 4.00000
4.00000 7.03348 4.00000
4.00000 7.03348 4.00000
4.00000 7.03348 4.00000
4.00000 7.03348 4.00000
4.00000 7.03348 4.00000
4.00000 7.03348 4.00000
4.00000 7.03350 4.00000
4.00000 7.03349 4.00000
4.00000 7.03349 4.00000
4.00000 7.03348 4.00000
4.00000 7.03348 4.00000
4.00000 7.03348 4.00000
4.00000 7.03348 4.00000
4.00000 7.03348 4.00000
4.00000 7.03348 4.00000
4.00227 7.07675 4.00227
4.00606 7.15038 4.00606
4.00981 7.22421 4.00980
4.01351 7.29823 4.01351
4.01719 7.37240 4.01719
4.02085 7.44670 4.02085
4.02452 7.52110 4.02452
4.02820 7.59555 4.02820
4.03191 7.67005 4.03191
4.03567 7.74454 4.03568
4.03950 7.81899 4.03950
4.04341 7.89336 4.04341
4.04743 7.96761 4.04743
4.05159 8.04168 4.05159
4.05590 8.11552 4.05590
4.06041 8.18905 4.06041
4.06515 8.26220 4.06515
4.07018 8.33487 4.07018
4.07554 8.40694 4.07554
4.08131 8.47828 4.08131
4.08757 8.54871 4.08757
4.09443 8.61803 4.09443
4.10201 8.68600 4.10201
4.11027 8.75266 4.11027
4.11924 8.81799 4.11924
4.12895 8.88191 4.12895
4.13945 8.94432 4.13945
4.15079 9.00512 4.15079
4.16300 9.06426 4.16300
4.17612 9.12166 4.17612
4.19015 9.17728 4.19015
4.20513 9.23110 4.20513
4.22104 9.28310 4.22104
4.23789 9.33330 4.23789
4.25565 9.38174 4.25565
4.27431 9.42845 4.27431
4.29383 9.47349 4.29383
4.31418 9.51695 4.31418
4.33531 9.55889 4.33531
4.35720 9.59940 4.35720
4.37978 9.63855 4.37979
4.40305 9.67641 4.40305
4.42697 9.71303 4.42697
4.45152 9.74844 4.45152
4.47671 9.78261 4.47671
4.50260 9.81546 4.50260
4.52930 9.84673 4.52930
4.55708 9.87590 4.55707
4.58653 9.90176 4.58653
4.61912 9.92142 4.61913
4.01463 7.32071 7.90922
4.01281 7.28427 8.03241
4.01130 7.25409 8.14909
4.01003 7.22865 8.26085
4.00893 7.20690 8.36878
4.00799 7.18813 8.47363
4.00716 7.17181 8.57597
4.00643 7.15752 8.67622
4.00578 7.14493 8.77474
4.00521 7.13380 8.87176
4.00471 7.12392 8.96753
4.00425 7.11512 9.06219
4.00385 7.10725 9.15593
4.00349 7.10021 9.24884
4.00316 7.09391 9.34102
4.00286 7.08822 9.43260
4.00260 7.08312 9.52360
4.00236 7.07851 9.61413
4.00214 7.07435 9.70422
4.00195 7.07061 9.79393
4.00177 7.06722 9.88329
4.00161 7.06413 9.97238
4.00146 7.06136 10.06118
4.00133 7.05884 10.14975
4.00121 7.05654 10.23812
4.00110 7.05446 10.32630
4.00100 7.05258 10.41432
4.00092 7.05086 10.50219
4.00083 7.04930 10.58994
4.00076 7.04789 10.67758
4.00069 7.04661 10.76510
4.00063 7.04543 10.85256
4.00057 7.04438 10.93992
4.00052 7.04340 11.02723
4.00048 7.04252 11.11447
4.00044 7.04172 11.20167
4.00039 7.04097 11.28884
4.00036 7.04030 11.37596
4.00033 7.03970 11.46305
4.00030 7.03916 11.55010
4.00027 7.03864 11.63716
4.00025 7.03819 11.72418
4.00022 7.03776 11.81121
4.00020 7.03738 11.89822
4.00019 7.03704 11.98521
4.00017 7.03672 12.07222
4.00015 7.03643 12.15923
4.00014 7.03617 12.24624
4.00013 7.03593 12.33324
4.00012 7.03571 12.42026
4.00011 7.03551 12.50729
4.00010 7.03533 12.59433
4.00009 7.03517 12.68139
4.00008 7.03502 12.76846
4.00007 7.03488 12.85555
4.00007 7.03476 12.94265
4.00006 7.03464 13.02977
4.00005 7.03454 13.11691
4.00005 7.03444 13.20407
4.00004 7.03436 13.29124
4.00004 7.03428 13.37844
4.00004 7.03421 13.46565
4.00003 7.03414 13.55289
4.00003 7.03408 13.64014
4.00003 7.03403 13.72742
4.00002 7.03398 13.81471
4.00002 7.03393 13.90203
4.00002 7.03389 13.98937
4.00002 7.03385 14.07672
4.00002 7.03382 14.16410
4.00002 7.03378 14.25150
4.00001 7.03376 14.33892
4.00001 7.03373 14.42636
4.00001 7.03371 14.51382
4.00001 7.03368 14.60131
4.00001 7.03367 14.68881
4.00001 7.03365 14.77633
4.00001 7.03363 14.86388
4.00001 7.03362 14.95144
4.00001 7.03360 15.03903
4.00001 7.03359 15.12663
4.00001 7.03358 15.21426
4.00000 7.03357 15.30190
4.00000 7.03356 15.38957
4.00000 7.03355 15.47725
4.00000 7.03356 15.56384
4.00000 7.03355 15.65152
4.00000 7.03354 15.73923
4.00000 7.03354 15.82695
4.00000 7.03353 15.91470
4.00000 7.03353 16.00246
4.00000 7.03352 16.09025
4.00000 7.03352 16.17805
4.00000 7.03352 16.26588
4.00000 7.03351 16.35372
4.00000 7.03351 16.44159
4.00000 7.03351 16.52947
4.00000 7.03351 16.61737
4.00000 7.03350 16.70529
4.00000 7.03350 16.79323
4.00000 7.03350 16.88119
4.00000 7.03350 16.96916
4.00000 7.03350 17.05716
4.00000 7.03349 17.14517
4.00000 7.03349 17.23319
4.00000 7.03349 17.32124
4.00000 7.03349 17.40930
4.00000 7.03349 17.49738
4.00000 7.03349 17.58548
4.00000 7.03349 17.67359
4.00000 7.03349 17.76172
4.00000 7.03349 17.84987
4.00000 7.03349 17.93803
4.00000 7.03349 18.02621
4.00000 7.03348 18.11440
4.00000 7.03348 18.20261
4.00000 7.03348 18.29084
4.00000 7.03348 18.37908
4.00000 7.03348 18.46734
4.00000 7.03348 18.55561
4.00000 7.03348 18.64390
4.00000 7.03348 18.73220
4.00000 7.03348 18.82051
4.00000 7.03348 18.90884
4.00000 7.03348 18.99719
4.00000 7.03348 19.08555
4.00000 7.03348 19.17392
4.00000 7.03348 19.26231
4.00000 7.03348 19.35071
4.00000 7.03348 19.43913
4.00000 7.03348 19.52756
4.00000 7.03348 19.61600
4.00000 7.03348 19.70445
4.00000 7.03348 19.79292
4.00000 7.03348 19.88140
4.00000 7.03348 19.96990
4.00000 7.03348 20.05841
4.00000 7.03348 20.14693
4.00000 7.03348 20.23546
4.00000 7.03348 20.32401
4.00000 7.03348 20.41257
4.00000 7.03348 20.50114
4.00000 7.03348 20.58972
4.00000 7.03348 20.67832
4.00000 7.03348 20.76692
4.00000 7.03348 20.85554
4.00000 7.03348 20.94418
4.00000 7.03348 21.03282
4.00000 7.03348 21.12147
4.00000 7.03348 21.21014
4.00000 7.03348 21.29882
4.00000 7.03348 21.38750
4.00000 7.03348 21.47620
4.00000 7.03348 21.56492
4.00000 7.03348 21.65364
4.00000 7.03348 21.74237
4.00000 7.03348 21.83111
4.00000 7.03348 21.91987
4.00000 7.03348 22.00863
4.00000 7.03348 22.09741
4.00000 7.03348 22.18620
4.00000 7.03348 22.27499
4.00000 7.03348 22.36380
4.00000 7.03348 22.45262
4.00000 7.03348 22.54144
4.00000 7.03348 22.63028
4.00000 7.03348 22.71913
4.00000 7.03348 22.80798

