Angle 0.567589 3.731448

4.00000 7.03348 4.00000
4.00000 7.03348 4.00000
4.00000 7.03348 4.00000
4.00000 7.03348 4.00000
4.00000 7.03348 4.00000
4.00000 7.03348 4.00000
4.00000 7.03348 4.00000
4.00000 7.03348 4.00000
4.00000 7.03348 4.00000
4.00000 7.03348 4.00000
4.00000 7.03348 4.00000
4.00000 7.03348 4.00000
4.00000 7.03348 4.00000
4.00000 7.03348 4.00000
4.00000 7.03348 4.00000
4.00000 7.03348 4.00000
4.00000 7.03348 4.00000
4.00000 7.03348 4.00000
4.00000 7.03348 4.00000
4.00000 7.03348 4.00000
4.00000 7.03348 4.00000
4.00000 7.03348 4.00000
4.00000 7.03348 4.00000
4.00000 7.03348 4.00000
4.00000 7.03348 4.00000
4.00000 7.03348 4.00000
4.00000 7.03348 4.00000
4.00000 7.03348 4.00000
4.00000 7.03348 4.00000
4.00000 7.03348 4.00000
4.00000 7.03348 4.00000
4.00000 7.03348 4.00000
4.00000 7.03348 4.00000
4.00000 7.03348 4.00000
4.00000 7.03348 4.00000
4.00000 7.03348 4.00000
4.00000 7.03348 4.00000
4.00000 7.03348 4.00000
4.00000 7.03348 4.00000
4.00000 7.03348 4.00000
4.00000 7.03348 4.00000
4.00000 7.03348 4.00000
4.00000 7.03348 4.00000
4.00000 7.03348 4.00000
4.00000 7.03348 4.00000
4.00000 7.03348 4.00000
4.00000 7.03348 4.00000
4.00000 7.03348 4.00000
4.00000 7.03348 4.00000
4.00000 7.03348 4.00000
4.00000 7.03348 4.00000
4.00000 7.03348 4.00000
4.00000 7.03348 4.00000
4.00000 7.03348 4.00000
4.00000 7.03348 4.00000
4.00000 7.03348 4.00000
4.00000 7.03348 4.00000
4.00000 7.03348 4.00000
4.00000 7.03348 4.00000
4.00000 7.03348 4.00000
4.00000 7.03348 4.00000
4.00000 7.03348 4.00000
4.00000 7.03348 4.00000
4.00000 7.03348 4.00000
4.00000 7.03348 4.00000
4.00000 7.03348 4.00000
4.00000 7.03348 4.00000
4.00000 7.03348 4.00000
4.00000 7.03348 4.00000
4.00000 7.03348 4.00000
4.00000 7.03348 4.00000
4.00000 7.03348 4.00000
4.00000 7.03348 4.00000
4.00000 7.03348 4.00000
4.00000 7.03348 4.00000
4.00000 7.03348 4.00000
4.00000 7.03348 4.00000
4.00000 7.03348 4.00000
4.00000 7.03348 4.00000
4.00000 7.03348 4.00000
4.00000 7.03348 4.00000
4.00000 7.03348 4.00000
4.00000 7.03348 4.00000
4.00000 7.03348 4.00000
4.00000 7.03348 4.00000
4.00000 7.03348 4.00000
4.00000 7.03348 4.00000
4.00000 7.03348 4.00000
4.00000 7.03348 4.00000
4.00000 7.03348 4.00000
4.00000 7.03348 4.00000
4.00000 7.03348 4.00000
4.00000 7.03348 4.00000
4.00000 7.03348 4.00000
4.00000 7.03348 4.00000
4.00000 7.03348 4.00000
4.00000 7.03348 4.00000
4.00000 7.03348 4.00000
4.00000 7.03348 4.00000
4.00000 7.03348 4.00000
4.00000 7.03348 4.00000
4.00000 7.03348 4.00000
4.00000 7.03348 4.00000
4.00000 7.03348 4.00000
4.00000 7.03348 4.00000
4.00000 7.03348 4.00000
4.00000 7.03348 4.00000
4.00000 7.03348 4.00000
4.00000 7.03348 4.00000
4.00000 7.03348 4.00000
4.00000 7.03348 4.00000
4.00000 7.03348 4.00000
4.00000 7.03348 4.00000
4.00000 7.03348 4.00000
4.00000 7.03348 4.00000
4.00000 7.03348 4.00000
4.00000 7.03348 4.00000
4.00000 7.03348 4.00000
4.00000 7.03348 4.00000
4.00000 7.03348 4.00000
4.00000 7.03348 4.00000
4.00000 7.03348 4.00000
4.00000 7.03348 4.00000
4.00000 7.03348 4.00000
4.00000 7.03348 4.00000
4.00000 7.03348 4.00000
4.00000 7.03348 4.00000
4.00000 7.03348 4.00000
4.00000 7.03348 4.00000
4.00000 7.03348 4.00000
4.00000 7.03348 4.00000
4.00000 7.03348 4.00000
4.00000 7.03348 4.00000
4.00000 7.03348 4.00000
4.00000 7.03348 4.00000
4.00000 7.03348 4.00000
4.00000 7.03348 4.00000
4.00000 7.03348 4.00000
4.00000 7.03348 4.00000
4.00000 7.03348 4.00000
4.00000 7.03348 4.00000
4.00000 7.03348 4.00000
4.00000 7.03348 4.00000
4.00000 7.03348 4.00000
4.00000 7.03348 4.00000
4.00000 7.03348 4.00000
4.00000 7.03348 4.00000
4.00000 7.03348 4.00000
4.00000 7.03348 4.00000
4.00000 7.03348 4.00000
4.00000 7.03348 4.00000
4.00000 7.03348 4.00000
4.00000 7.03348 4.00000
4.00000 7.03348 4.00000
4.00000 7.03348 4.00000
4.00000 7.03348 4.00000
4.00000 7.03349 4.00000
4.00000 7.03353 4.00000
4.00000 7.03348 4.00000
4.00000 7.03351 4.00000
4.00000 7.03348 4.00000
4.00034 7.04017 4.00035
4.00429 7.11587 4.00429
4.00817 7.19180 4.00817
4.01200 7.26790 4.01200
4.01579 7.34415 4.01579
4.01956 7.42051 4.01956
4.02333 7.49696 4.02333
4.02711 7.57346 4.02711
4.03091 7.64998 4.03091
4.03476 7.72648 4.03476
4.03867 7.80293 4.03867
4.04266 7.87928 4.04266
4.04677 7.95548 4.04677
4.05100 8.03148 4.05100
4.05541 8.10721 4.05541
4.06000 8.18262 4.06000
4.06484 8.25761 4.06484
4.06998 8.33207 4.06998
4.07546 8.40590 4.07546
4.08137 8.47894 4.08137
4.08779 8.55101 4.08779
4.09484 8.62188 4.09484
4.10264 8.69131 4.10264
4.11115 8.75936 4.11115
4.12040 8.82600 4.12040
4.13044 8.89114 4.13044
4.14130 8.95466 4.14130
4.15304 9.01648 4.15304
4.16570 9.07653 4.16570
4.17930 9.13475 4.17930
4.19386 9.19109 4.19386
4.20939 9.24553 4.20939
4.22590 9.29808 4.22591
4.24338 9.34874 4.24338
4.26180 9.39756 4.26180
4.28113 9.44460 4.28114
4.30135 9.48993 4.30135
4.32240 9.53363 4.32240
4.34426 9.57578 4.34426
4.36686 9.61646 4.36686
4.39018 9.65575 4.39018
4.41419 9.69373 4.41419
4.43885 9.73043 4.43885
4.46417 9.76587 4.46417
4.49017 9.79998 4.49017
4.51693 9.83260 4.51694
4.54467 9.86334 4.54466
4.57378 9.89134 4.57378
4.60534 9.91450 4.60534
4.64198 9.92754 4.64198
7.98740 7.29701 4.01345
8.10822 7.26422 4.01181
8.22342 7.23681 4.01044
8.33431 7.21356 4.00927
8.44178 7.19361 4.00826
8.54648 7.17633 4.00738
8.64889 7.16126 4.00662
8.74940 7.14804 4.00594
8.84830 7.13638 4.00535
8.94583 7.12607 4.00482
9.04218 7.11690 4.00435
9.13752 7.10874 4.00392
9.23197 7.10144 4.00355
9.32565 7.09492 4.00321
9.41866 7.08906 4.00291
9.51108 7.08380 4.00263
9.60297 7.07906 4.00239
9.69440 7.07480 4.00217
9.78542 7.07095 4.00196
9.87609 7.06747 4.00178
9.96642 7.06434 4.00162
10.05647 7.06150 4.00147
10.14627 7.05893 4.00134
10.23584 7.05660 4.00121
10.32522 7.05449 4.00110
10.41441 7.05258 4.00100
10.50344 7.05084 4.00091
10.59233 7.04927 4.00083
10.68110 7.04784 4.00076
10.76975 7.04654 4.00069
10.85831 7.04536 4.00063
10.94678 7.04429 4.00057
11.03519 7.04330 4.00051
11.12350 7.04243 4.00047
11.21178 7.04161 4.00043
11.29998 7.04089 4.00039
11.38817 7.04021 4.00035
11.47630 7.03961 4.00032
11.56438 7.03907 4.00029
11.65246 7.03855 4.00027
11.74051 7.03810 4.00024
11.82854 7.03768 4.00022
11.91655 7.03730 4.00020
12.00456 7.03696 4.00018
12.09251 7.03666 4.00017
12.18050 7.03636 4.00015
12.26848 7.03610 4.00014
12.35645 7.03586 4.00012
12.44443 7.03565 4.00011
12.53240 7.03545 4.00010
12.62038 7.03528 4.00009
12.70837 7.03511 4.00008
12.79636 7.03497 4.00008
12.88436 7.03483 4.00007
12.97236 7.03471 4.00006
13.06037 7.03460 4.00006
13.14840 7.03449 4.00005
13.23643 7.03440 4.00005
13.32447 7.03432 4.00004
13.41253 7.03424 4.00004
13.50060 7.03417 4.00004
13.58868 7.03411 4.00003
13.67677 7.03405 4.00003
13.76487 7.03400 4.00003
13.85299 7.03395 4.00002
13.94112 7.03391 4.00002
14.02927 7.03387 4.00002
14.11743 7.03383 4.00002
14.20560 7.03380 4.00002
14.29378 7.03377 4.00001
14.38199 7.03374 4.00001
14.47020 7.03371 4.00001
14.55843 7.03369 4.00001
14.64667 7.03367 4.00001
14.73493 7.03365 4.00001
14.82320 7.03364 4.00001
14.91149 7.03362 4.00001
14.99979 7.03361 4.00001
15.08794 7.03361 4.00001
15.17627 7.03360 4.00001
15.26461 7.03359 4.00001
15.35297 7.03358 4.00001
15.44135 7.03357 4.00000
15.52974 7.03356 4.00000
15.61814 7.03355 4.00000
15.70655 7.03355 4.00000
15.79498 7.03354 4.00000
15.88343 7.03354 4.00000
15.97189 7.03353 4.00000
16.06036 7.03353 4.00000
16.14884 7.03352 4.00000
16.23734 7.03352 4.00000
16.32585 7.03351 4.00000
16.41438 7.03351 4.00000
16.50292 7.03351 4.00000
16.59147 7.03351 4.00000
16.68004 7.03350 4.00000
16.76861 7.03350 4.00000
16.85721 7.03350 4.00000
16.94581 7.03350 4.00000
17.03443 7.03350 4.00000
17.12305 7.03349 4.00000
17.21170 7.03349 4.00000
17.30035 7.03349 4.00000
17.38901 7.03349 4.00000
17.47769 7.03349 4.00000
17.56638 7.03349 4.00000
17.65508 7.03349 4.00000
17.74380 7.03349 4.00000
17.83252 7.03349 4.00000
17.92126 7.03349 4.00000
18.01001 7.03349 4.00000
18.09877 7.03348 4.00000
18.18754 7.03348 4.00000
18.27632 7.03348 4.00000
18.36512 7.03348 4.00000
18.45392 7.03348 4.00000
18.54274 7.03348 4.00000
18.63157 7.03348 4.00000
18.72040 7.03348 4.00000
18.80925 7.03348 4.00000
18.89811 7.03348 4.00000
18.98698 7.03348 4.00000
19.07586 7.03348 4.00000
19.16475 7.03348 4.00000
19.25365 7.03348 4.00000
19.34256 7.03348 4.00000
19.43148 7.03348 4.00000
19.52041 7.03348 4.00000
19.60935 7.03348 4.00000
19.69831 7.03348 4.00000
19.78727 7.03348 4.00000
19.87624 7.03348 4.00000
19.96522 7.03348 4.00000
20.05421 7.03348 4.00000
20.14320 7.03348 4.00000
20.23221 7.03348 4.00000
20.32123 7.03348 4.00000
20.41026 7.03348 4.00000
20.49929 7.03348 4.00000
20.58834 7.03348 4.00000
20.67739 7.03348 4.00000
20.76646 7.03348 4.00000
20.85553 7.03348 4.00000
20.94461 7.03348 4.00000
21.03370 7.03348 4.00000
21.12280 7.03348 4.00000
21.21190 7.03348 4.00000
21.30102 7.03348 4.00000
21.39014 7.03348 4.00000
21.47927 7.03348 4.00000
21.56841 7.03348 4.00000
21.65756 7.03348 4.00000
21.74672 7.03348 4.00000
21.83588 7.03348 4.00000
21.92506 7.03348 4.00000
22.01424 7.03348 4.00000
22.10343 7.03348 4.00000
22.19262 7.03348 4.00000
22.28183 7.03348 4.00000
22.37104 7.03348 4.00000
22.46026 7.03348 4.00000
22.54949 7.03348 4.00000
22.63872 7.03348 4.00000
22.72796 7.03348 4.00000
22.81721 7.03348 4.00000
22.90647 7.03348 4.00000
22.99574 7.03348 4.00000
23.08501 7.03348 4.00000
23.17429 7.03348 4.00000
23.26357 7.03348 4.00000
23.35287 7.03348 4.00000
23.44217 7.03348 4.00000
23.53147 7.03348 4.00000
23.62079 7.03348 4.00000
23.71011 7.03348 4.00000
23.79944 7.03348 4.00000
23.88877 7.03348 4.00000
23.97811 7.03348 4.00000
24.06746 7.03348 4.00000
24.15682 7.03348 4.00000
24.24618 7.03348 4.00000
24.33555 7.03348 4.00000
24.42492 7.03348 4.00000
24.51430 7.03348 4.00000
24.60369 7.03348 4.00000
24.69308 7.03348 4.00000
24.78248 7.03348 4.00000
24.87189 7.03348 4.00000

Angle 0.564665 0.897653

4.00000 7.03348 4.00000
4.00000 7.03348 4.00000
4.00000 7.03348 4.00000
4.00000 7.03348 4.00000
4.00000 7.03348 4.00000
4.00000 7.03348 4.00000
4.00000 7.03348 4.00000
4.00000 7.03348 4.00000
4.00000 7.03348 4.00000
4.00000 7.03348 4.00000
4.00000 7.03348 4.00000
4.00000 7.03348 4.00000
4.00000 7.03348 4.00000
4.00000 7.03348 4.00000
4.00000 7.03348 4.00000
4.00000 7.03348 4.00000
4.00000 7.03348 4.00000
4.00000 7.03348 4.00000
4.00000 7.03348 4.00000
4.00000 7.03348 4.00000
4.00000 7.03348 4.00000
4.00000 7.03348 4.00000
4.00000 7.03348 4.00000
4.00000 7.03348 4.00000
4.00000 7.03348 4.00000
4.00000 7.03348 4.00000
4.00000 7.03348 4.00000
4.00000 7.03348 4.00000
4.00000 7.03348 4.00000
4.00000 7.03348 4.00000
4.00000 7.03348 4.00000
4.00000 7.03348 4.00000
4.00000 7.03348 4.00000
4.00000 7.03348 4.00000
4.00000 7.03348 4.00000
4.00000 7.03348 4.00000
4.00000 7.03348 4.00000
4.00000 7.03348 4.00000
4.00000 7.03348 4.00000
4.00000 7.03348 4.00000
4.00000 7.03348 4.00000
4.00000 7.03348 4.00000
4.00000 7.03348 4.00000
4.00000 7.03348 4.00000
4.00000 7.03348 4.00000
4.00000 7.03348 4.00000
4.00000 7.03348 4.00000
4.00000 7.03348 4.00000
4.00000 7.03348 4.00000
4.00000 7.03348 4.00000
4.00000 7.03348 4.00000
4.00000 7.03348 4.00000
4.00000 7.03348 4.00000
4.00000 7.03348 4.00000
4.00000 7.03348 4.00000
4.00000 7.03348 4.00000
4.00000 7.03348 4.00000
4.00000 7.03348 4.00000
4.00000 7.03348 4.00000
4.00000 7.03348 4.00000
4.00000 7.03348 4.00000
4.00000 7.03348 4.00000
4.00000 7.03348 4.00000
4.00000 7.03348 4.00000
4.00000 7.03348 4.00000
4.00000 7.03348 4.00000
4.00000 7.03348 4.00000
4.00000 7.03348 4.00000
4.00000 7.03348 4.00000
4.00000 7.03348 4.00000
4.00000 7.03348 4.00000
4.00000 7.03348 4.00000
4.00000 7.03348 4.00000
4.00000 7.03348 4.00000
4.00000 7.03348 4.00000
4.00000 7.03348 4.00000
4.00000 7.03348 4.00000
4.00000 7.03348 4.00000
4.00000 7.03348 4.00000
4.00000 7.03348 4.00000
4.00000 7.03348 4.00000
4.00000 7.03348 4.00000
4.00000 7.03348 4.00000
4.00000 7.03348 4.00000
4.00000 7.03348 4.00000
4.00000 7.03348 4.00000
4.00000 7.03348 4.00000
4.00000 7.03348 4.00000
4.00000 7.03348 4.00000
4.00000 7.03348 4.00000
4.00000 7.03348 4.00000
4.00000 7.03348 4.00000
4.00000 7.03348 4.00000
4.00000 7.03348 4.00000
4.00000 7.03348 4.00000
4.00000 7.03348 4.00000
4.00000 7.03348 4.00000
4.00000 7.03348 4.00000
4.00000 7.03348 4.00000
4.00000 7.03348 4.00000
4.00000 7.03348 4.00000
4.00000 7.03348 4.00000
4.00000 7.03348 4.00000
4.00000 7.03348 4.00000
4.00000 7.03348 4.00000
4.00000 7.03348 4.00000
4.00000 7.03348 4.00000
4.00000 7.03348 4.00000
4.00000 7.03349 4.00000
4.00000 7.03349 4.00000
4.00000 7.03350 4.00000
4.00000 7.03348 4.00000
4.00000 7.03348 4.00000
4.00000 7.03348 4.00000
4.00000 7.03348 4.00000
4.00000 7.03348 4.00000
4.00000 7.03348 4.00000
4.00000 7.03348 4.00000
4.00000 7.03348 4.00000
4.00000 7.03348 4.00000
4.00000 7.03348 4.00000
4.00000 7.03348 4.00000
4.00000 7.03348 4.00000
4.00000 7.03348 4.00000
4.00000 7.03348 4.00000
4.00000 7.03348 4.00000
4.00000 7.03348 4.00000
4.00000 7.03348 4.00000
4.00000 7.03348 4.00000
4.00000 7.03348 4.00000
4.00000 7.03348 4.00000
4.00000 7.03348 4.00000
4.00000 7.03348 4.00000
4.00000 7.03348 4.00000
4.00000 7.03349 4.00000
4.00000 7.03348 4.00000
4.00000 7.03348 4.00000
4.00000 7.03357 4.00001
4.00245 7.08020 4.00245
4.00627 7.15433 4.00626
4.01003 7.22866 4.01003
4.01375 7.30317 4.01376
4.01745 7.37783 4.01745
4.02114 7.45261 4.02114
4.02483 7.52747 4.02483
4.02854 7.60239 4.02854
4.03228 7.67734 4.03228
4.03607 7.75228 4.03607
4.03993 7.82716 4.03993
4.04387 7.90196 4.04387
4.04793 7.97662 4.04793
4.05213 8.05109 4.05212
4.05649 8.12531 4.05649
4.06105 8.19920 4.06105
4.06586 8.27269 4.06586
4.07095 8.34567 4.07095
4.07640 8.41803 4.07640
4.08228 8.48962 4.08228
4.08866 8.56026 4.08866
4.09567 8.62972 4.09567
4.10341 8.69780 4.10341
4.11184 8.76456 4.11184
4.12099 8.82997 4.12099
4.13089 8.89393 4.13089
4.14161 8.95634 4.14161
4.15317 9.01711 4.15317
4.16562 9.07618 4.16562
4.17899 9.13349 4.17899
4.19329 9.18898 4.19329
4.20853 9.24265 4.20853
4.22473 9.29449 4.22473
4.24186 9.34452 4.24186
4.25992 9.39276 4.25992
4.27886 9.43928 4.27886
4.29867 9.48413 4.29867
4.31930 9.52740 4.31930
4.34072 9.56916 4.34072
4.36288 9.60949 4.36287
4.38574 9.64846 4.38574
4.40927 9.68615 4.40927
4.43346 9.72260 4.43346
4.45828 9.75782 4.45828
4.48376 9.79178 4.48375
4.50995 9.82436 4.50995
4.53703 9.85523 4.53703
4.56531 9.88374 4.56531
4.59558 9.90832 4.59558
4.62976 9.92514 4.62976
7.94677 7.30907 4.01405
8.06826 7.27457 4.01233
8.18373 7.24586 4.01089
8.29462 7.22156 4.00967
8.40190 7.20074 4.00862
8.50628 7.18273 4.00771
8.60828 7.16703 4.00691
8.70829 7.15327 4.00621
8.80664 7.14114 4.00559
8.90356 7.13041 4.00504
8.99927 7.12087 4.00455
9.09393 7.11236 4.00411
9.18769 7.10477 4.00372
9.28064 7.09797 4.00337
9.37291 7.09187 4.00305
9.46457 7.08638 4.00277
9.55570 7.08144 4.00251
9.64635 7.07699 4.00228
9.73658 7.07297 4.00207
9.82645 7.06934 4.00188
9.91599 7.06605 4.00171
10.00524 7.06308 4.00155
10.09423 7.06039 4.00141
10.18299 7.05795 4.00129
10.27155 7.05573 4.00117
10.35993 7.05372 4.00106
10.44815 7.05190 4.00097
10.53623 7.05024 4.00088
10.62419 7.04874 4.00080
10.71203 7.04737 4.00073
10.79978 7.04613 4.00067
10.88744 7.04500 4.00061
10.97503 7.04397 4.00055
11.06255 7.04303 4.00050
11.15002 7.04219 4.00046
11.23744 7.04140 4.00042
11.32482 7.04070 4.00038
11.41215 7.04006 4.00035
11.49947 7.03947 4.00032
11.58675 7.03894 4.00029
11.67402 7.03845 4.00026
11.76127 7.03801 4.00024
11.84851 7.03760 4.00022
11.93574 7.03724 4.00020
12.02296 7.03691 4.00018
12.11020 7.03660 4.00016
12.19738 7.03634 4.00016
12.28465 7.03606 4.00013
12.37185 7.03584 4.00012
12.45909 7.03562 4.00011
12.54632 7.03544 4.00010
12.63359 7.03525 4.00009
12.72085 7.03510 4.00008
12.80814 7.03496 4.00008
12.89536 7.03483 4.00007
12.98268 7.03470 4.00006
13.07000 7.03459 4.00006
13.15734 7.03450 4.00005
13.24470 7.03441 4.00005
13.33209 7.03432 4.00004
13.41949 7.03425 4.00004
13.50691 7.03418 4.00004
13.59436 7.03412 4.00003
13.68182 7.03406 4.00003
13.76931 7.03401 4.00003
13.85682 7.03396 4.00002
13.94434 7.03392 4.00002
14.03189 7.03388 4.00002
14.11945 7.03384 4.00002
14.20703 7.03381 4.00002
14.29464 7.03378 4.00001
14.38226 7.03375 4.00001
14.46990 7.03372 4.00001
14.55756 7.03370 4.00001
14.64524 7.03368 4.00001
14.73294 7.03366 4.00001
14.82065 7.03364 4.00001
14.90839 7.03363 4.00001
14.99614 7.03361 4.00001
15.08391 7.03360 4.00001
15.17169 7.03359 4.00001
15.25950 7.03358 4.00000
15.34732 7.03357 4.00000
15.43516 7.03356 4.00000
15.52301 7.03355 4.00000
15.61088 7.03354 4.00000
15.69877 7.03353 4.00000
15.78522 7.03354 4.00000
15.87310 7.03354 4.00000
15.96100 7.03353 4.00000
16.04892 7.03353 4.00000
16.13685 7.03352 4.00000
16.22481 7.03352 4.00000
16.31278 7.03351 4.00000
16.40078 7.03351 4.00000
16.48879 7.03351 4.00000
16.57681 7.03351 4.00000
16.66486 7.03350 4.00000
16.75292 7.03350 4.00000
16.84100 7.03350 4.00000
16.92909 7.03350 4.00000
17.01720 7.03350 4.00000
17.10533 7.03349 4.00000
17.19348 7.03349 4.00000
17.28164 7.03349 4.00000
17.36981 7.03349 4.00000
17.45800 7.03349 4.00000
17.54621 7.03349 4.00000
17.63443 7.03349 4.00000
17.72266 7.03349 4.00000
17.81091 7.03349 4.00000
17.89918 7.03349 4.00000
17.98746 7.03349 4.00000
18.07575 7.03349 4.00000
18.16406 7.03348 4.00000
18.25238 7.03348 4.00000
18.34071 7.03348 4.00000
18.42906 7.03348 4.00000
18.51743 7.03348 4.00000
18.60580 7.03348 4.00000
18.69419 7.03348 4.00000
18.78259 7.03348 4.00000
18.87101 7.03348 4.00000
18.95944 7.03348 4.00000
19.04788 7.03348 4.00000
19.13633 7.03348 4.00000
19.22480 7.03348 4.00000
19.31328 7.03348 4.00000
19.40177 7.03348 4.00000
19.49027 7.03348 4.00000
19.57879 7.03348 4.00000
19.66732 7.03348 4.00000
19.75586 7.03348 4.00000
19.84441 7.03348 4.00000
19.93297 7.03348 4.00000
20.02155 7.03348 4.00000
20.11013 7.03348 4.00000
20.19873 7.03348 4.00000
20.28734 7.03348 4.00000
20.37596 7.03348 4.00000
20.46459 7.03348 4.00000
20.55324 7.03348 4.00000
20.64189 7.03348 4.00000
20.73055 7.03348 4.00000
20.81923 7.03348 4.00000
20.90792 7.03348 4.00000
20.99661 7.03348 4.00000
21.08532 7.03348 4.00000
21.17404 7.03348 4.00000
21.26277 7.03348 4.00000
21.35151 7.03348 4.00000
21.44026 7.03348 4.00000
21.52901 7.03348 4.00000
21.61778 7.03348 4.00000
21.70656 7.03348 4.00000
21.79535 7.03348 4.00000
21.88415 7.03348 4.00000
21.97296 7.03348 4.00000
22.06178 7.03348 4.00000
22.15061 7.03348 4.00000
22.23944 7.03348 4.00000
22.32829 7.03348 4.00000
22.41715 7.03348 4.00000
22.50601 7.03348 4.00000
22.59489 7.03348 4.00000
22.68377 7.03348 4.00000
22.77267 7.03348 4.00000
22.86157 7.03348 4.00000
22.95048 7.03348 4.00000
23.03940 7.03348 4.00000
23.12833 7.03348 4.00000
23.21727 7.03348 4.00000
23.30621 7.03348 4.00000
23.39517 7.03348 4.00000
23.48413 7.03348 4.00000
23.57311 7.03348 4.00000
23.66209 7.03348 4.00000
23.75108 7.03348 4.00000
23.84007 7.03348 4.00000
23.92908 7.03348 4.00000
24.01810 7.03348 4.00000
24.10712 7.03348 4.00000
24.19615 7.03348 4.00000
24.28519 7.03348 4.00000
24.37423 7.03348 4.00000
24.46329 7.03348 4.00000
24.55235 7.03348 4.00000
24.64142 7.03348 4.00000
24.73050 7.03348 4.00000
24.81959 7.03348 4.00000
24.90868 7.03348 4.00000
24.99778 7.03348 4.00000
25.08689 7.03348 4.00000
25.17601 7.03348 4.00000
25.26513 7.03348 4.00000
25.35426 7.03348 4.00000
25.44340 7.03348 4.00000
25.53255 7.03348 4.00000
25.62170 7.03348 4.00000
25.71086 7.03348 4.00000
25.80003 7.03348 4.00000
25.88920 7.03348 4.00000
25.97838 7.03348 4.00000
26.06757 7.03348 4.00000
26.15677 7.03348 4.00000
26.24597 7.03348 4.00000
26.33518 7.03348 4.00000
26.42439 7.03348 4.00000
26.51362 7.03348 4.00000
26.60285 7.03348 4.00000
26.69208 7.03348 4.00000
26.78132 7.03348 4.00000

Angle 0.346556 4.717423

4.00000 7.03348 4.00000
4.00000 7.03348 4.00000
4.00000 7.03348 4.00000
4.00000 7.03348 4.00000
4.00000 7.03348 4.00000
4.00000 7.03348 4.00000
4.00000 7.03348 4.00000
4.00000 7.03348 4.00000
4.00000 7.03348 4.00000
4.00000 7.03348 4.00000
4.00000 7.03348 4.00000
4.00000 7.03348 4.00000
4.00000 7.03348 4.00000
4.00000 7.03348 4.00000
4.00000 7.03348 4.00000
4.00000 7.03348 4.00000
4.00000 7.03348 4.00000
4.00000 7.03348 4.00000
4.00000 7.03348 4.00000
4.00000 7.03348 4.00000
4.00000 7.03348 4.00000
4.00000 7.03348 4.00000
4.00000 7.03348 4.00000
4.00000 7.03348 4.00000
4.00000 7.03348 4.00000
4.00000 7.03348 4.00000
4.00000 7.03348 4.00000
4.00000 7.03348 4.00000
4.00000 7.03348 4.00000
4.00000 7.03348 4.00000
4.00000 7.03348 4.00000
4.00000 7.03348 4.00000
4.00000 7.03348 4.00000
4.00000 7.03348 4.00000
4.00000 7.03348 4.00000
4.00000 7.03348 4.00000
4.00000 7.03348 4.00000
4.00000 7.03348 4.00000
4.00000 7.03348 4.00000
4.00000 7.03348 4.00000
4.00000 7.03348 4.00000
4.00000 7.03348 4.00000
4.00000 7.03348 4.00000
4.00000 7.03348 4.00000
4.00000 7.03348 4.00000
4.00000 7.03348 4.00000
4.00000 7.03348 4.00000
4.00000 7.03348 4.00000
4.00000 7.03348 4.00000
4.00000 7.03348 4.00000
4.00000 7.03348 4.00000
4.00000 7.03348 4.00000
4.00000 7.03348 4.00000
4.00000 7.03348 4.00000
4.00000 7.03348 4.00000
4.00000 7.03348 4.00000
4.00000 7.03348 4.00000
4.00000 7.03348 4.00000
4.00000 7.03348 4.00000
4.00000 7.03348 4.00000
4.00000 7.03348 4.00000
4.00000 7.03348 4.00000
4.00000 7.03348 4.00000
4.00000 7.03348 4.00000
4.00000 7.03348 4.00000
4.00000 7.03348 4.00000
4.00000 7.03348 4.00000
4.00000 7.03348 4.00000
4.00000 7.03348 4.00000
4.00000 7.03348 4.00000
4.00000 7.03348 4.00000
4.00000 7.03348 4.00000
4.00000 7.03348 4.00000
4.00000 7.03348 4.00000
4.00000 7.03348 4.00000
4.00000 7.03348 4.00000
4.00000 7.03348 4.00000
4.00000 7.03348 4.00000
4.00236 7.07853 4.00236
4.00627 7.15447 4.00627
4.01013 7.23061 4.01013
4.01394 7.30691 4.01394
4.01773 7.38334 4.01773
4.02150 7.45987 4.02150
4.02528 7.53646 4.02528
4.02907 7.61309 4.02907
4.03290 7.68972 4.03290
4.03679 7.76631 4.03679
4.04074 7.84282 4.04074
4.04480 7.91920 4.04480
4.04897 7.99541 4.04897
4.05330 8.07139 4.05330
4.05781 8.14706 4.05781
4.06253 8.22236 4.06253
4.06753 8.29718 4.06753
4.07284 8.37143 4.07284
4.07855 8.44495 4.07855
4.08473 8.51759 4.08473
4.09148 8.58914 4.09148
4.09893 8.65935 4.09893
4.10713 8.72810 4.10713
4.11605 8.79549 4.11605
4.12573 8.86141 4.12573
4.13622 8.92576 4.13622
4.14757 8.98845 4.14757
4.15981 9.04939 4.15981
4.17300 9.10851 4.17300
4.18713 9.16578 4.18713
4.20225 9.22114 4.20225
4.21834 9.27460 4.21834
4.23540 9.32616 4.23540
4.25342 9.37586 4.25341
4.27236 9.42375 4.27236
4.29221 9.46989 4.29221
4.31292 9.51435 4.31292
4.33445 9.55721 4.33444
4.35675 9.59858 4.35674
4.37977 9.63853 4.37977
4.40351 9.67712 4.40350
4.42790 9.71442 4.42790
4.45296 9.75045 4.45296
4.47868 9.78519 4.47868
4.50512 9.81853 4.50512
4.53242 9.85019 4.53242
4.56088 9.87957 4.56088
4.59121 9.90525 4.59121
4.62517 9.92372 4.62516
4.66721 9.92601 4.66724
4.01248 7.27763 8.05681
4.01100 7.24805 8.17436
4.00975 7.22312 8.28708
4.00868 7.20182 8.39602
4.00775 7.18344 8.50194
4.00693 7.16746 8.60536
4.00622 7.15347 8.70673
4.00559 7.14117 8.80637
4.00503 7.13030 8.90454
4.00454 7.12066 9.00146
4.00410 7.11208 9.09729
4.00370 7.10443 9.19218
4.00335 7.09758 9.28625
4.00303 7.09144 9.37961
4.00274 7.08593 9.47234
4.00249 7.08098 9.56452
4.00226 7.07653 9.65621
4.00205 7.07251 9.74747
4.00186 7.06888 9.83834
4.00169 7.06560 9.92888
4.00153 7.06264 10.01912
4.00139 7.05996 10.10908
4.00126 7.05754 10.19881
4.00115 7.05534 10.28833
4.00104 7.05334 10.37766
4.00095 7.05154 10.46682
4.00086 7.04990 10.55584
4.00078 7.04840 10.64472
4.00071 7.04706 10.73348
4.00065 7.04582 10.82215
4.00059 7.04472 10.91070
4.00053 7.04369 10.99921
4.00049 7.04278 11.08760
4.00044 7.04193 11.17597
4.00040 7.04117 11.26426
4.00037 7.04049 11.35249
4.00033 7.03984 11.44071
4.00030 7.03927 11.52888
4.00027 7.03875 11.61702
4.00026 7.03830 11.70510
4.00023 7.03784 11.79322
4.00021 7.03745 11.88129
4.00019 7.03709 11.96935
4.00017 7.03677 12.05740
4.00015 7.03647 12.14544
4.00014 7.03620 12.23348
4.00013 7.03596 12.32151
4.00012 7.03573 12.40954
4.00010 7.03553 12.49757
4.00010 7.03535 12.58560
4.00009 7.03518 12.67364
4.00008 7.03502 12.76168
4.00007 7.03488 12.84972
4.00006 7.03476 12.93778
4.00006 7.03464 13.02584
4.00005 7.03453 13.11391
4.00005 7.03444 13.20199
4.00004 7.03435 13.29008
4.00004 7.03427 13.37818
4.00004 7.03420 13.46629
4.00003 7.03413 13.55441
4.00003 7.03407 13.64254
4.00003 7.03402 13.73069
4.00002 7.03397 13.81885
4.00002 7.03392 13.90703
4.00002 7.03388 13.99521
4.00002 7.03384 14.08341
4.00002 7.03381 14.17163
4.00002 7.03378 14.25985
4.00001 7.03375 14.34810
4.00001 7.03372 14.43635
4.00001 7.03370 14.52462
4.00001 7.03368 14.61291
4.00001 7.03366 14.70120
4.00001 7.03364 14.78952
4.00001 7.03363 14.87784
4.00001 7.03361 14.96618
4.00001 7.03360 15.05454
4.00001 7.03360 15.14271
4.00001 7.03359 15.23109
4.00001 7.03358 15.31949
4.00000 7.03357 15.40791
4.00000 7.03356 15.49633
4.00000 7.03356 15.58477
4.00000 7.03355 15.67323
4.00000 7.03354 15.76170
4.00000 7.03354 15.85018
4.00000 7.03353 15.93868
4.00000 7.03353 16.02719
4.00000 7.03352 16.11571
4.00000 7.03352 16.20425
4.00000 7.03352 16.29280
4.00000 7.03351 16.38137
4.00000 7.03351 16.46995
4.00000 7.03351 16.55854
4.00000 7.03350 16.64714
4.00000 7.03350 16.73576
4.00000 7.03350 16.82439
4.00000 7.03350 16.91303
4.00000 7.03350 17.00169
4.00000 7.03350 17.09036
4.00000 7.03349 17.17904
4.00000 7.03349 17.26773
4.00000 7.03349 17.35643
4.00000 7.03349 17.44515
4.00000 7.03349 17.53388
4.00000 7.03349 17.62262
4.00000 7.03349 17.71138
4.00000 7.03349 17.80014
4.00000 7.03349 17.88892
4.00000 7.03349 17.97770
4.00000 7.03349 18.06650
4.00000 7.03348 18.15531
4.00000 7.03348 18.24414
4.00000 7.03348 18.33297
4.00000 7.03348 18.42181
4.00000 7.03348 18.51067
4.00000 7.03348 18.59954
4.00000 7.03348 18.68841
4.00000 7.03348 18.77730
4.00000 7.03348 18.86620
4.00000 7.03348 18.95511
4.00000 7.03348 19.04403
4.00000 7.03348 19.13296
4.00000 7.03348 19.22190
4.00000 7.03348 19.31085
4.00000 7.03348 19.39981
4.00000 7.03348 19.48878
4.00000 7.03348 19.57775
4.00000 7.03348 19.66674
4.00000 7.03348 19.75574
4.00000 7.03348 19.84475
4.00000 7.03348 19.93377
4.00000 7.03348 20.02280
4.00000 7.03348 20.11184
4.00000 7.03348 20.20088
4.00000 7.03348 20.28994
4.00000 7.03348 20.37900
4.00000 7.03348 20.46808
4.00000 7.03348 20.55716
4.00000 7.03348 20.64625
4.00000 7.03348 20.73535
4.00000 7.03348 20.82446
4.00000 7.03348 20.91358
4.00000 7.03348 21.00271
4.00000 7.03348 21.09184
4.00000 7.03348 21.18099
4.00000 7.03348 21.27014
4.00000 7.03348 21.35930
4.00000 7.03348 21.44847
4.00000 7.03348 21.53765
4.00000 7.03348 21.62683
4.00000 7.03348 21.71603
4.00000 7.03348 21.80523
4.00000 7.03348 21.89444
4.00000 7.03348 21.98366
4.00000 7.03348 22.07288
4.00000 7.03348 22.16211
4.00000 7.03348 22.25136
4.00000 7.03348 22.34060
4.00000 7.03348 22.42986
4.00000 7.03348 22.51912
4.00000 7.03348 22.60839
4.00000 7.03348 22.69767
4.00000 7.03348 22.78696
4.00000 7.03348 22.87625
4.00000 7.03348 22.96555
4.00000 7.03348 23.05486
4.00000 7.03348 23.14417
4.00000 7.03348 23.23350
4.00000 7.03348 23.32282
4.00000 7.03348 23.41216
4.00000 7.03348 23.50150
4.00000 7.03348 23.59085
4.00000 7.03348 23.68021
4.00000 7.03348 23.76957
4.00000 7.03348 23.85894
4.00000 7.03348 23.94832
4.00000 7.03348 24.03770
4.00000 7.03348 24.12709
4.00000 7.03348 24.21648
4.00000 7.03348 24.30588
4.00000 7.03348 24.39529
4.00000 7.03348 24.48471
4.00000 7.03348 24.57413
4.00000 7.03348 24.66356
4.00000 7.03348 24.75299
4.00000 7.03348 24.84243
4.00000 7.03348 24.93187
4.00000 7.03348 25.02133
4.00000 7.03348 25.11078
4.00000 7.03348 25.20025
4.00000 7.03348 25.28972
4.00000 7.03348 25.37919
4.00000 7.03348 25.46867
4.00000 7.03348 25.55816
4.00000 7.03348 25.64765
4.00000 7.03348 25.73715
4.00000 7.03348 25.82665
4.00000 7.03348 25.91616
4.00000 7.03348 26.00568
4.00000 7.03348 26.09520
4.00000 7.03348 26.18472
4.00000 7.03348 26.27426
4.00000 7.03348 26.36379
4.00000 7.03348 26.45334
4.00000 7.03348 26.54288
4.00000 7.03348 26.63244
4.00000 7.03348 26.72199
4.00000 7.03348 26.81156
4.00000 7.03348 26.90112
4.00000 7.03348 26.99070
4.00000 7.03348 27.08028
4.00000 7.03348 27.16986
4.00000 7.03348 27.25945
4.00000 7.03348 27.34904
4.00000 7.03348 27.43864
4.00000 7.03348 27.52824
4.00000 7.03348 27.61785
4.00000 7.03348 27.70747
4.00000 7.03348 27.79708
4.00000 7.03348 27.88671
4.00000 7.03348 27.97633
4.00000 7.03348 28.06596
4.00000 7.03348 28.15560
4.00000 7.03348 28.24524
4.00000 7.03348 28.33489
4.00000 7.03348 28.42454
4.00000 7.03348 28.51419
4.00000 7.03348 28.60385
4.00000 7.03348 28.69352
4.00000 7.03348 28.78319
4.00000 7.03348 28.87286
4.00000 7.03348 28.96253
4.00000 7.03348 29.05222
4.00000 7.03348 29.14190
4.00000 7.03348 29.23159
4.00000 7.03348 29.32129
4.00000 7.03348 29.41098
4.00000 7.03348 29.50069
4.00000 7.03348 29.59039
4.00000 7.03348 29.68010
4.00000 7.03348 29.76982
4.00000 7.03348 29.85954
4.00000 7.03348 29.94926
4.00000 7.03348 30.03899
4.00000 7.03348 30.12872
4.00000 7.03348 30.21845
4.00000 7.03348 30.30819
4.00000 7.03348 30.39794
4.00000 7.03348 30.48768
4.00000 7.03348 30.57743
4.00000 7.03348 30.66719
4.00000 7.03348 30.75695
4.00000 7.03348 30.84671
4.00000 7.03348 30.93647
4.00000 7.03348 31.02624
4.00000 7.03348 31.11602
4.00000 7.03348 31.20579
4.00000 7.03348 31.29557
4.00000 7.03348 31.38536
4.00000 7.03348 31.47515
4.00000 7.03348 31.56494
4.00000 7.03348 31.65473
4.00000 7.03348 31.74453
4.00000 7.03348 31.83433
4.00000 7.03348 31.92414
4.00000 7.03348 32.01395
4.00000 7.03348 32.10376
4.00000 7.03348 32.19357
4.00000 7.03348 32.28339
4.00000 7.03348 32.37322

Angle 0.475763 2.216644

4.00000 7.03348 4.00000
4.00000 7.03348 4.00000
4.00000 7.03348 4.00000
4.00000 7.03348 4.00000
4.00000 7.03348 4.00000
4.00000 7.03348 4.00000
4.00000 7.03348 4.00000
4.00000 7.03348 4.00000
4.00000 7.03348 4.00000
4.00000 7.03348 4.00000
4.00000 7.03348 4.00000
4.00000 7.03348 4.00000
4.00000 7.03348 4.00000
4.00000 7.03348 4.00000
4.00000 7.03348 4.00000
4.00000 7.03348 4.00000
4.00000 7.03348 4.00000
4.00000 7.03348 4.00000
4.00000 7.03348 4.00000
4.00000 7.03348 4.00000
4.00000 7.03348 4.00000
4.00000 7.03348 4.00000
4.00000 7.03348 4.00000
4.00000 7.03348 4.00000
4.00000 7.03348 4.00000
4.00000 7.03348 4.00000
4.00000 7.03348 4.00000
4.00000 7.03348 4.00000
4.00000 7.03348 4.00000
4.00000 7.03348 4.00000
4.00000 7.03348 4.00000
4.00000 7.03348 4.00000
4.00000 7.03348 4.00000
4.00000 7.03348 4.00000
4.00000 7.03348 4.00000
4.00000 7.03347 4.00000
4.00000 7.03347 4.00000
4.00000 7.03347 4.00000
4.00000 7.03347 4.00000
4.00000 7.03347 4.00000
4.00000 7.03346 4.00000
4.00000 7.03346 4.00000
4.00000 7.03346 4.00000
4.00000 7.03348 4.00000
4.00000 7.03348 4.00000
4.00000 7.03348 4.00000
4.00000 7.03348 4.00000
4.00000 7.03348 4.00000
4.00000 7.03348 4.00000
4.00000 7.03348 4.00000
4.00000 7.03348 4.00000
4.00000 7.03348 4.00000
4.00000 7.03348 4.00000
4.00000 7.03348 4.00000
4.00000 7.03348 4.00000
4.00000 7.03348 4.00000
4.00000 7.03348 4.00000
4.00000 7.03348 4.00000
4.00000 7.03348 4.00000
4.00000 7.03348 4.00000
4.00000 7.03348 4.00000
4.00000 7.03348 4.00000
4.00000 7.03348 4.00000
4.00000 7.03348 4.00000
4.00000 7.03348 4.00000
4.00000 7.03348 4.00000
4.00000 7.03348 4.00000
4.00000 7.03348 4.00000
4.00000 7.03348 4.00000
4.00000 7.03348 4.00000
4.00000 7.03348 4.00000
4.00000 7.03348 4.00000
4.00000 7.03348 4.00000
4.00000 7.03348 4.00000
4.00000 7.03348 4.00000
4.00000 7.03348 4.00000
4.00000 7.03348 4.00000
4.00000 7.03348 4.00000
4.00000 7.03348 4.00000
4.00000 7.03348 4.00000
4.00000 7.03348 4.00000
4.00000 7.03348 4.00000
4.00000 7.03348 4.00000
4.00000 7.03348 4.00000
4.00000 7.03348 4.00000
4.00000 7.03348 4.00000
4.00000 7.03348 4.00000
4.00000 7.03348 4.00000
4.00000 7.03348 4.00000
4.00000 7.03348 4.00000
4.00000 7.03348 4.00000
4.00000 7.03348 4.00000
4.00000 7.03348 4.00000
4.00000 7.03348 4.00000
4.00000 7.03348 4.00000
4.00000 7.03348 4.00000
4.00000 7.03348 4.00000
4.00000 7.03348 4.00000
4.00000 7.03348 4.00000
4.00000 7.03348 4.00000
4.00000 7.03348 4.00000
4.00000 7.03348 4.00000
4.00000 7.03348 4.00000
4.00000 7.03348 4.00000
4.00000 7.03348 4.00000
4.00000 7.03348 4.00000
4.00000 7.03348 4.00000
4.00000 7.03348 4.00000
4.00000 7.03348 4.00000
4.00000 7.03348 4.00000
4.00000 7.03348 4.00000
4.00000 7.03348 4.00000
4.00000 7.03348 4.00000
4.00000 7.03348 4.00000
4.00000 7.03348 4.00000
4.00000 7.03348 4.00000
4.00000 7.03348 4.00000
4.00000 7.03348 4.00000
4.00000 7.03348 4.00000
4.00000 7.03348 4.00000
4.00000 7.03348 4.00000
4.00000 7.03348 4.00000
4.00000 7.03348 4.00000
4.00000 7.03348 4.00000
4.00000 7.03348 4.00000
4.00000 7.03348 4.00000
4.00000 7.03348 4.00000
4.00000 7.03348 4.00000
4.00000 7.03348 4.00000
4.00000 7.03348 4.00000
4.00000 7.03348 4.00000
4.00000 7.03348 4.00000
4.00000 7.03348 4.00000
4.00000 7.03348 4.00000
4.00000 7.03348 4.00000
4.00000 7.03348 4.00000
4.00000 7.03348 4.00000
4.00000 7.03348 4.00000
4.00000 7.03348 4.00000
4.00000 7.03348 4.00000
4.00000 7.03348 4.00000
4.00000 7.03348 4.00000
4.00000 7.03348 4.00000
4.00000 7.03348 4.00000
4.00000 7.03348 4.00000
4.00000 7.03348 4.00000
4.00000 7.03348 4.00000
4.00000 7.03348 4.00000
4.00000 7.03348 4.00000
4.00000 7.03348 4.00000
4.00000 7.03348 4.00000
4.00000 7.03348 4.00000
4.00000 7.03348 4.00000
4.00000 7.03348 4.00000
4.00000 7.03348 4.00000
4.00000 7.03348 4.00000
4.00000 7.03348 4.00000
4.00000 7.03348 4.00000
4.00000 7.03348 4.00000
4.00000 7.03348 4.00000
4.00000 7.03348 4.00000
4.00000 7.03348 4.00000
4.00000 7.03348 4.00000
4.00000 7.03348 4.00000
4.00000 7.03348 4.00000
4.00000 7.03348 4.00000
4.00000 7.03348 4.00000
4.00000 7.03348 4.00000
4.00000 7.03348 4.00000
4.00000 7.03348 4.00000
4.00000 7.03348 4.00000
4.00000 7.03348 4.00000
4.00000 7.03348 4.00000
4.00000 7.03348 4.00000
4.00000 7.03348 4.00000
4.00000 7.03348 4.00000
4.00000 7.03348 4.00000
4.00000 7.03348 4.00000
4.00000 7.03348 4.00000
4.00000 7.03348 4.00000
4.00000 7.03348 4.00000
4.00000 7.03348 4.00000
4.00000 7.03348 4.00000
4.00000 7.03348 4.00000
4.00000 7.03348 4.00000
4.00000 7.03348 4.00000
4.00000 7.03348 4.00000
4.00000 7.03348 4.00000
4.00000 7.03348 4.00000
4.00000 7.03348 4.00000
4.00000 7.03348 4.00000
4.00000 7.03348 4.00000
4.00000 7.03348 4.00000
4.00000 7.03348 4.00000
4.00000 7.03348 4.00000
4.00000 7.03348 4.00000
4.00000 7.03348 4.00000
4.00000 7.03348 4.00000
4.00000 7.03348 4.00000
4.00000 7.03348 4.00000
4.00000 7.03348 4.00000
4.00000 7.03348 4.00000
4.00000 7.03348 4.00000
4.00000 7.03348 4.00000
4.00000 7.03348 4.00000
4.00000 7.03348 4.00000
4.00000 7.03348 4.00000
4.00000 7.03348 4.00000
4.00000 7.03348 4.00000
4.00000 7.03348 4.00000
4.00000 7.03348 4.00000
4.00000 7.03348 4.00000
4.00000 7.03348 4.00000
4.00000 7.03348 4.00000
4.00000 7.03348 4.00000
4.00000 7.03349 4.00000
4.00000 7.03352 4.00000
4.00000 7.03348 4.00000
4.00000 7.03348 4.00000
4.00000 7.03349 4.00000
4.00000 7.03348 4.00000
4.00110 7.05439 4.00109
4.00510 7.13149 4.00510
4.00903 7.20880 4.00903
4.01291 7.28626 4.01291
4.01676 7.36386 4.01676
4.02060 7.44154 4.02060
4.02443 7.51929 4.02443
4.02828 7.59706 4.02827
4.03215 7.67483 4.03215
4.03608 7.75255 4.03608
4.04009 7.83019 4.04009
4.04418 7.90769 4.04418
4.04840 7.98500 4.04840
4.05276 8.06208 4.05276
4.05730 8.13883 4.05730
4.06207 8.21520 4.06207
4.06711 8.29108 4.06711
4.07247 8.36636 4.07247
4.07822 8.44089 4.07822
4.08445 8.51453 4.08445
4.09127 8.58704 4.09127
4.09879 8.65818 4.09879
4.10710 8.72781 4.10710
4.11612 8.79603 4.11612
4.12593 8.86274 4.12593
4.13657 8.92783 4.13657
4.14809 8.99120 4.14809
4.16053 9.05277 4.16053
4.17393 9.11247 4.17393
4.18830 9.17026 4.18830
4.20367 9.22610 4.20367
4.22004 9.27998 4.22004
4.23740 9.33191 4.23740
4.25573 9.38194 4.25573
4.27501 9.43012 4.27501
4.29520 9.47651 4.29520
4.31625 9.52120 4.31625
4.33814 9.56428 4.33814
4.36080 9.60582 4.36080
4.38421 9.64593 4.38421
4.40832 9.68466 4.40832
4.43310 9.72208 4.43310
4.45855 9.75820 4.45855
4.48469 9.79298 4.48468
4.51158 9.82628 4.51157
4.53939 9.85777 4.53939
4.56851 9.88667 4.56852
4.59987 9.91116 4.59986
4.63579 9.92657 4.63574
4.01371 7.30231 7.96932
4.01201 7.26827 8.09232
4.01060 7.23998 8.20934
4.00939 7.21604 8.32182
4.00836 7.19556 8.43069
4.00746 7.17787 8.53667
4.00668 7.16247 8.64027
4.00599 7.14898 8.74190
4.00538 7.13711 8.84185
4.00485 7.12662 8.94039
4.00437 7.11731 9.03770
4.00394 7.10903 9.13397
4.00356 7.10164 9.22932
4.00322 7.09503 9.32388
4.00291 7.08911 9.41774
4.00263 7.08380 9.51099
4.00239 7.07903 9.60369
4.00216 7.07473 9.69592
4.00196 7.07086 9.78773
4.00178 7.06736 9.87917
4.00161 7.06421 9.97026
4.00146 7.06136 10.06107
4.00133 7.05879 10.15161
4.00121 7.05646 10.24191
4.00110 7.05434 10.33202
4.00100 7.05243 10.42192
4.00091 7.05069 10.51167
4.00082 7.04912 10.60126
4.00075 7.04769 10.69073
4.00068 7.04640 10.78007
4.00062 7.04522 10.86931
4.00056 7.04416 10.95846
4.00051 7.04319 11.04752
4.00046 7.04231 11.13652
4.00042 7.04150 11.22545
4.00038 7.04078 11.31432
4.00035 7.04012 11.40314
4.00032 7.03950 11.49193
4.00029 7.03896 11.58066
4.00026 7.03846 11.66938
4.00024 7.03803 11.75803
4.00022 7.03760 11.84670
4.00020 7.03723 11.93534
4.00018 7.03690 12.02393
4.00016 7.03658 12.11254
4.00015 7.03630 12.20113
4.00013 7.03604 12.28972
4.00012 7.03581 12.37829
4.00011 7.03560 12.46686
4.00010 7.03541 12.55543
4.00009 7.03523 12.64400
4.00008 7.03507 12.73257
4.00007 7.03493 12.82114
4.00007 7.03480 12.90971
4.00006 7.03468 12.99828
4.00006 7.03457 13.08686
4.00005 7.03447 13.17544
4.00005 7.03438 13.26403
4.00004 7.03429 13.35263
4.00004 7.03422 13.44123
4.00003 7.03415 13.52984
4.00003 7.03409 13.61846
4.00003 7.03403 13.70709
4.00003 7.03398 13.79572
4.00002 7.03393 13.88437
4.00002 7.03389 13.97302
4.00002 7.03385 14.06169
4.00002 7.03382 14.15037
4.00002 7.03379 14.23905
4.00001 7.03376 14.32775
4.00001 7.03373 14.41646
4.00001 7.03371 14.50518
4.00001 7.03368 14.59391
4.00001 7.03366 14.68265
4.00001 7.03365 14.77140
4.00001 7.03365 14.86005
4.00001 7.03363 14.94883
4.00001 7.03362 15.03761
4.00001 7.03360 15.12641
4.00001 7.03359 15.21521
4.00001 7.03358 15.30403
4.00000 7.03357 15.39286
4.00000 7.03357 15.48170
4.00000 7.03356 15.57055
4.00000 7.03355 15.65941
4.00000 7.03354 15.74829
4.00000 7.03354 15.83717
4.00000 7.03353 15.92606
4.00000 7.03353 16.01496
4.00000 7.03352 16.10388
4.00000 7.03352 16.19280
4.00000 7.03352 16.28174
4.00000 7.03351 16.37068
4.00000 7.03351 16.45964
4.00000 7.03351 16.54860
4.00000 7.03350 16.63758
4.00000 7.03350 16.72656
4.00000 7.03350 16.81555
4.00000 7.03350 16.90456
4.00000 7.03350 16.99357
4.00000 7.03350 17.08260
4.00000 7.03349 17.17163
4.00000 7.03349 17.26067
4.00000 7.03349 17.34972
4.00000 7.03349 17.43878
4.00000 7.03349 17.52785
4.00000 7.03349 17.61693
4.00000 7.03349 17.70602
4.00000 7.03349 17.79512
4.00000 7.03349 17.88423
4.00000 7.03349 17.97334
4.00000 7.03349 18.06247
4.00000 7.03348 18.15160
4.00000 7.03348 18.24074
4.00000 7.03348 18.32989
4.00000 7.03348 18.41905
4.00000 7.03348 18.50822
4.00000 7.03348 18.59739
4.00000 7.03348 18.68658
4.00000 7.03348 18.77577
4.00000 7.03348 18.86497
4.00000 7.03348 18.95418
4.00000 7.03348 19.04340
4.00000 7.03348 19.13262
4.00000 7.03348 19.22185
4.00000 7.03348 19.31109
4.00000 7.03348 19.40034
4.00000 7.03348 19.48960
4.00000 7.03348 19.57886
4.00000 7.03348 19.66813

Angle 0.044709 4.229295

4.00000 7.03348 4.00000
4.00000 7.03348 4.00000
4.00000 7.03348 4.00000
4.00000 7.03348 4.00000
4.00000 7.03348 4.00000
4.00000 7.03348 4.00000
4.00000 7.03348 4.00000
4.00000 7.03348 4.00000
4.00000 7.03348 4.00000
4.00000 7.03347 4.00000
4.00000 7.03347 4.00000
4.00000 7.03347 4.00000
4.00000 7.03347 4.00000
4.00000 7.03347 4.00000
4.00000 7.03347 4.00000
4.00000 7.03348 4.00000
4.00000 7.03348 4.00000
4.00000 7.03348 4.00000
4.00000 7.03348 4.00000
4.00000 7.03348 4.00000
4.00000 7.03348 4.00000
4.00000 7.03348 4.00000
4.00000 7.03348 4.00000
4.00000 7.03348 4.00000
4.00000 7.03348 4.00000
4.00000 7.03348 4.00000
4.00000 7.03348 4.00000
4.00000 7.03348 4.00000
4.00000 7.03348 4.00000
4.00000 7.03348 4.00000
4.00000 7.03348 4.00000
4.00000 7.03348 4.00000
4.00000 7.03348 4.00000
4.00000 7.03348 4.00000
4.00000 7.03348 4.00000
4.00000 7.03348 4.00000
4.00000 7.03348 4.00000
4.00000 7.03348 4.00000
4.00000 7.03348 4.00000
4.00000 7.03348 4.00000
4.00000 7.03348 4.00000
4.00000 7.03348 4.00000
4.00000 7.03348 4.00000
4.00000 7.03348 4.00000
4.00000 7.03348 4.00000
4.00000 7.03348 4.00000
4.00000 7.03348 4.00000
4.00000 7.03348 4.00000
4.00000 7.03348 4.00000
4.00000 7.03348 4.00000
4.00000 7.03348 4.00000
4.00000 7.03348 4.00000
4.00000 7.03348 4.00000
4.00000 7.03348 4.00000
4.00000 7.03348 4.00000
4.00000 7.03348 4.00000
4.00000 7.03348 4.00000
4.00000 7.03348 4.00000
4.00000 7.03348 4.00000
4.00000 7.03348 4.00000
4.00000 7.03348 4.00000
4.00000 7.03348 4.00000
4.00000 7.03348 4.00000
4.00000 7.03348 4.00000
4.00000 7.03348 4.00000
4.00000 7.03348 4.00000
4.00000 7.03348 4.00000
4.00000 7.03348 4.00000
4.00000 7.03348 4.00000
4.00000 7.03348 4.00000
4.00000 7.03348 4.00000
4.00000 7.03348 4.00000
4.00000 7.03348 4.00000
4.00000 7.03348 4.00000
4.00000 7.03348 4.00000
4.00000 7.03348 4.00000
4.00000 7.03348 4.00000
4.00000 7.03348 4.00000
4.00000 7.03348 4.00000
4.00000 7.03348 4.00000
4.00000 7.03348 4.00000
4.00000 7.03348 4.00000
4.00000 7.03348 4.00000
4.00000 7.03348 4.00000
4.00000 7.03348 4.00000
4.00000 7.03348 4.00000
4.00000 7.03348 4.00000
4.00000 7.03348 4.00000
4.00000 7.03348 4.00000
4.00000 7.03348 4.00000
4.00000 7.03348 4.00000
4.00000 7.03348 4.00000
4.00000 7.03348 4.00000
4.00000 7.03348 4.00000
4.00000 7.03348 4.00000
4.00000 7.03348 4.00000
4.00000 7.03348 4.00000
4.00000 7.03348 4.00000
4.00000 7.03348 4.00000
4.00000 7.03348 4.00000
4.00000 7.03348 4.00000
4.00000 7.03348 4.00000
4.00000 7.03348 4.00000
4.00000 7.03348 4.00000
4.00000 7.03348 4.00000
4.00000 7.03348 4.00000
4.00000 7.03348 4.00000
4.00000 7.03348 4.00000
4.00000 7.03348 4.00000
4.00000 7.03348 4.00000
4.00000 7.03348 4.00000
4.00000 7.03348 4.00000
4.00000 7.03348 4.00000
4.00000 7.03348 4.00000
4.00000 7.03348 4.00000
4.00000 7.03348 4.00000
4.00000 7.03348 4.00000
4.00000 7.03348 4.00000
4.00000 7.03348 4.00000
4.00000 7.03348 4.00000
4.00000 7.03348 4.00000
4.00000 7.03348 4.00000
4.00000 7.03348 4.00000
4.00000 7.03348 4.00000
4.00000 7.03348 4.00000
4.00000 7.03348 4.00000
4.00000 7.03348 4.00000
4.00000 7.03348 4.00000
4.00000 7.03348 4.00000
4.00000 7.03348 4.00000
4.00000 7.03348 4.00000
4.00000 7.03348 4.00000
4.00000 7.03348 4.00000
4.00000 7.03348 4.00000
4.00000 7.03348 4.00000
4.00000 7.03348 4.00000
4.00000 7.03348 4.00000
4.00000 7.03348 4.00000
4.00000 7.03348 4.00000
4.00000 7.03348 4.00000
4.00000 7.03348 4.00000
4.00000 7.03348 4.00000
4.00000 7.03348 4.00000
4.00000 7.03348 4.00000
4.00000 7.03348 4.00000
4.00000 7.03348 4.00000
4.00000 7.03348 4.00000
4.00000 7.03348 4.00000
4.00000 7.03348 4.00000
4.00000 7.03348 4.00000
4.00000 7.03348 4.00000
4.00000 7.03348 4.00000
4.00000 7.03348 4.00000
4.00000 7.03348 4.00000
4.00000 7.03348 4.00000
4.00000 7.03348 4.00000
4.00000 7.03348 4.00000
4.00000 7.03348 4.00000
4.00000 7.03348 4.00000
4.00000 7.03348 4.00000
4.00000 7.03348 4.00000
4.00000 7.03348 4.00000
4.00000 7.03348 4.00000
4.00000 7.03348 4.00000
4.00000 7.03348 4.00000
4.00000 7.03348 4.00000
4.00000 7.03348 4.00000
4.00000 7.03348 4.00000
4.00000 7.03348 4.00000
4.00000 7.03348 4.00000
4.00000 7.03348 4.00000
4.00000 7.03348 4.00000
4.00000 7.03348 4.00000
4.00000 7.03348 4.00000
4.00000 7.03348 4.00000
4.00000 7.03348 4.00000
4.00000 7.03348 4.00000
4.00000 7.03348 4.00000
4.00000 7.03348 4.00000
4.00000 7.03348 4.00000
4.00000 7.03348 4.00000
4.00000 7.03348 4.00000
4.00000 7.03348 4.00000
4.00000 7.03348 4.00000
4.00000 7.03348 4.00000
4.00000 7.03348 4.00000
4.00000 7.03348 4.00000
4.00000 7.03348 4.00000
4.00000 7.03348 4.00000
4.00000 7.03348 4.00000
4.00000 7.03348 4.00000
4.00000 7.03348 4.00000
4.00000 7.03348 4.00000
4.00000 7.03349 4.00000
4.00000 7.03349 4.00000
4.00000 7.03348 4.00000
4.00000 7.03352 4.00000
4.00272 7.08538 4.00272
4.00672 7.16331 4.00672
4.01067 7.24140 4.01067
4.01457 7.31964 4.01457
4.01845 7.39798 4.01845
4.02231 7.47640 4.02231
4.02618 7.55485 4.02618
4.03008 7.63331 4.03008
4.03401 7.71174 4.03401
4.03801 7.79009 4.03801
4.04209 7.86832 4.04209
4.04627 7.94638 4.04627
4.05059 8.02421 4.05059
4.05508 8.10176 4.05508
4.05977 8.17894 4.05977
4.06472 8.25567 4.06472
4.06996 8.33183 4.06996
4.07557 8.40731 4.07557
4.08162 8.48194 4.08162
4.08821 8.55553 4.08821
4.09547 8.62784 4.09547
4.10351 8.69861 4.10351
4.11229 8.76794 4.11229
4.12184 8.83577 4.12184
4.13222 8.90200 4.13222
4.14346 8.96651 4.14346
4.15562 9.02923 4.15562
4.16874 9.09008 4.16874
4.18284 9.14899 4.18284
4.19794 9.20593 4.19794
4.21406 9.26089 4.21406
4.23118 9.31386 4.23118
4.24930 9.36488 4.24929
4.26838 9.41401 4.26838
4.28839 9.46129 4.28839
4.30930 9.50682 4.30930
4.33106 9.55068 4.33106
4.35362 9.59297 4.35362
4.37695 9.63376 4.37694
4.40099 9.67314 4.40099
4.42572 9.71118 4.42572
4.45113 9.74789 4.45113
4.47722 9.78327 4.47722
4.50404 9.81722 4.50404
4.53173 9.84944 4.53173
4.56062 9.87932 4.56062
4.59141 9.90539 4.59141
4.62597 9.92399 4.62597
7.93758 7.31188 4.01419
8.06302 7.27597 4.01240
8.18198 7.24627 4.01091
8.29604 7.22126 4.00966
8.40628 7.19993 4.00858
8.51343 7.18156 4.00765
8.61806 7.16562 4.00684
8.72061 7.15168 4.00613
8.82141 7.13943 4.00550
8.92071 7.12862 4.00495
9.01875 7.11905 4.00446
9.11569 7.11053 4.00402
9.21168 7.10295 4.00363
9.30684 7.09618 4.00328
9.40128 7.09011 4.00296
9.49508 7.08467 4.00268
9.58833 7.07979 4.00242
9.68107 7.07539 4.00220
9.77337 7.07144 4.00199
9.86529 7.06787 4.00180
9.95686 7.06466 4.00164
10.04812 7.06175 4.00148
10.13912 7.05912 4.00135
10.22986 7.05675 4.00122
10.32038 7.05460 4.00111
10.41073 7.05263 4.00101
10.50089 7.05087 4.00092
10.59090 7.04927 4.00083
10.68076 7.04783 4.00076
10.77047 7.04654 4.00069
10.86013 7.04533 4.00062
10.94964 7.04426 4.00057
11.03910 7.04326 4.00051
11.12846 7.04238 4.00047
11.21777 7.04156 4.00042
11.30699 7.04084 4.00039
11.39619 7.04015 4.00035
11.48533 7.03955 4.00032
11.57440 7.03901 4.00029
11.66348 7.03849 4.00026
11.75250 7.03804 4.00024
11.84150 7.03763 4.00022
11.93048 7.03726 4.00019
12.01941 7.03691 4.00018
12.10835 7.03659 4.00016
12.19728 7.03631 4.00015
12.28619 7.03605 4.00013
12.37510 7.03582 4.00012
12.46400 7.03561 4.00011
12.55290 7.03542 4.00010
12.64179 7.03524 4.00009
12.73069 7.03508 4.00008
12.81958 7.03494 4.00007
12.90848 7.03480 4.00007
12.99738 7.03468 4.00006
13.08629 7.03457 4.00006
13.17520 7.03447 4.00005
13.26412 7.03438 4.00005
13.35304 7.03430 4.00004
13.44197 7.03422 4.00004
13.53091 7.03415 4.00003
13.61985 7.03409 4.00003
13.70880 7.03403 4.00003
13.79776 7.03398 4.00003
13.88673 7.03394 4.00002
13.97571 7.03389 4.00002
14.06470 7.03385 4.00002
14.15369 7.03382 4.00002
14.24270 7.03379 4.00002
14.33172 7.03376 4.00001
14.42074 7.03373 4.00001
14.50978 7.03371 4.00001
14.59882 7.03368 4.00001
14.68788 7.03366 4.00001
14.77694 7.03364 4.00001
14.86602 7.03363 4.00001
14.95510 7.03361 4.00001
15.04420 7.03360 4.00001
15.13330 7.03359 4.00001
15.22242 7.03358 4.00000
15.31154 7.03357 4.00000
15.39955 7.03357 4.00000
15.48865 7.03356 4.00000
15.57776 7.03356 4.00000
15.66689 7.03355 4.00000
15.75602 7.03354 4.00000
15.84517 7.03354 4.00000
15.93433 7.03353 4.00000
16.02350 7.03353 4.00000
16.11268 7.03352 4.00000
16.20187 7.03352 4.00000
16.29107 7.03352 4.00000
16.38028 7.03351 4.00000
16.46950 7.03351 4.00000
16.55874 7.03351 4.00000
16.64798 7.03350 4.00000
16.73723 7.03350 4.00000
16.82649 7.03350 4.00000
16.91576 7.03350 4.00000
17.00505 7.03350 4.00000
17.09434 7.03349 4.00000
17.18364 7.03349 4.00000
17.27295 7.03349 4.00000
17.36227 7.03349 4.00000
17.45159 7.03349 4.00000
17.54093 7.03349 4.00000
17.63028 7.03349 4.00000
17.71963 7.03349 4.00000
17.80899 7.03349 4.00000
17.89836 7.03349 4.00000
17.98774 7.03349 4.00000
18.07713 7.03349 4.00000
18.16653 7.03348 4.00000
18.25594 7.03348 4.00000
18.34535 7.03348 4.00000
18.43477 7.03348 4.00000
18.52420 7.03348 4.00000
18.61364 7.03348 4.00000
18.70308 7.03348 4.00000
18.79253 7.03348 4.00000
18.88199 7.03348 4.00000
18.97146 7.03348 4.00000
19.06094 7.03348 4.00000
19.15042 7.03348 4.00000
19.23991 7.03348 4.00000
19.32940 7.03348 4.00000
19.41891 7.03348 4.00000
19.50842 7.03348 4.00000
19.59794 7.03348 4.00000
19.68746 7.03348 4.00000
19.77700 7.03348 4.00000
19.86653 7.03348 4.00000
19.95608 7.03348 4.00000
20.04563 7.03348 4.00000
20.13519 7.03348 4.00000
20.22475 7.03348 4.00000
20.31433 7.03348 4.00000
20.40390 7.03348 4.00000
20.49349 7.03348 4.00000
20.58308 7.03348 4.00000
20.67268 7.03348 4.00000
20.76228 7.03348 4.00000
20.85189 7.03348 4.00000
20.94150 7.03348 4.00000
21.03112 7.03348 4.00000
21.12075 7.03348 4.00000
21.21038 7.03348 4.00000
21.30002 7.03348 4.00000
21.38967 7.03348 4.00000
21.47931 7.03348 4.00000
21.56897 7.03348 4.00000
21.65863 7.03348 4.00000
21.74830 7.03348 4.00000
21.83797 7.03348 4.00000
21.92765 7.03348 4.00000

Angle 0.184501 6.245736

4.00000 7.03348 4.00000
4.00000 7.03348 4.00000
4.00000 7.03348 4.00000
4.00000 7.03348 4.00000
4.00000 7.03348 4.00000
4.00000 7.03348 4.00000
4.00000 7.03348 4.00000
4.00000 7.03348 4.00000
4.00000 7.03348 4.00000
4.00000 7.03348 4.00000
4.00000 7.03348 4.00000
4.00000 7.03348 4.00000
4.00000 7.03348 4.00000
4.00000 7.03348 4.00000
4.00000 7.03348 4.00000
4.00000 7.03348 4.00000
4.00000 7.03348 4.00000
4.00000 7.03348 4.00000
4.00000 7.03348 4.00000
4.00000 7.03348 4.00000
4.00000 7.03348 4.00000
4.00000 7.03348 4.00000
4.00000 7.03348 4.00000
4.00000 7.03348 4.00000
4.00000 7.03348 4.00000
4.00000 7.03348 4.00000
4.00000 7.03348 4.00000
4.00000 7.03348 4.00000
4.00000 7.03348 4.00000
4.00000 7.03348 4.00000
4.00000 7.03348 4.00000
4.00000 7.03348 4.00000
4.00000 7.03348 4.00000
4.00000 7.03348 4.00000
4.00000 7.03348 4.00000
4.00000 7.03348 4.00000
4.00000 7.03348 4.00000
4.00000 7.03348 4.00000
4.00000 7.03349 4.00000
4.00000 7.03349 4.00000
4.00000 7.03349 4.00000
4.00000 7.03349 4.00000
4.00000 7.03349 4.00000
4.00000 7.03349 4.00000
4.00000 7.03350 4.00000
4.00000 7.03348 4.00000
4.00000 7.03348 4.00000
4.00000 7.03348 4.00000
4.00000 7.03348 4.00000
4.00000 7.03348 4.00000
4.00217 7.07489 4.00217
4.00598 7.14885 4.00598
4.00974 7.22301 4.00974
4.01347 7.29735 4.01346
4.01716 7.37185 4.01716
4.02084 7.44646 4.02084
4.02452 7.52117 4.02452
4.02822 7.59594 4.02822
4.03195 7.67074 4.03195
4.03573 7.74554 4.03573
4.03957 7.82029 4.03957
4.04350 7.89496 4.04350
4.04754 7.96949 4.04754
4.05171 8.04385 4.05171
4.05605 8.11796 4.05605
4.06058 8.19176 4.06058
4.06535 8.26516 4.06535
4.07041 8.33808 4.07041
4.07581 8.41038 4.07581
4.08162 8.48194 4.08162
4.08793 8.55257 4.08793
4.09486 8.62206 4.09485
4.10250 8.69018 4.10250
4.11084 8.75699 4.11084
4.11989 8.82245 4.11989
4.12968 8.88648 4.12968
4.14028 8.94898 4.14028
4.15173 9.00986 4.15173
4.16405 9.06905 4.16405
4.17728 9.12649 4.17728
4.19144 9.18213 4.19144
4.20655 9.23595 4.20655
4.22260 9.28795 4.22260
4.23959 9.33813 4.23959
4.25750 9.38653 4.25750
4.27630 9.43321 4.27630
4.29597 9.47822 4.29597
4.31646 9.52163 4.31647
4.33775 9.56353 4.33775
4.35978 9.60400 4.35977
4.38251 9.64310 4.38251
4.40592 9.68092 4.40592
4.42998 9.71749 4.42998
4.45468 9.75285 4.45468
4.48003 9.78695 4.48003
4.50609 9.81970 4.50607
4.53298 9.85081 4.53298
4.56101 9.87970 4.56101
4.59087 9.90500 4.59087
4.62421 9.92338 4.62421
7.92764 7.31494 4.01434
8.05006 7.27945 4.01257
8.16621 7.24998 4.01110
8.27761 7.22509 4.00985
8.38528 7.20380 4.00878
8.48996 7.18541 4.00785
8.59219 7.16939 4.00703
8.69238 7.15536 4.00632
8.79086 7.14300 4.00569
8.88790 7.13206 4.00512
8.98369 7.12235 4.00463
9.07841 7.11370 4.00418
9.17220 7.10597 4.00378
9.26519 7.09905 4.00342
9.35746 7.09284 4.00310
9.44913 7.08726 4.00281
9.54024 7.08224 4.00255
9.63088 7.07771 4.00232
9.72109 7.07363 4.00210
9.81092 7.06994 4.00191
9.90042 7.06660 4.00174
9.98964 7.06358 4.00158
10.07858 7.06084 4.00144
10.16730 7.05836 4.00131
10.25580 7.05611 4.00119
10.34413 7.05407 4.00108
10.43230 7.05221 4.00099
10.52032 7.05053 4.00090
10.60822 7.04900 4.00082
10.69599 7.04761 4.00074
10.78370 7.04633 4.00067
10.87128 7.04520 4.00062
10.95880 7.04415 4.00056
11.04626 7.04320 4.00051
11.13366 7.04233 4.00047
11.22102 7.04154 4.00042
11.30831 7.04082 4.00039
11.39560 7.04016 4.00035
11.48282 7.03958 4.00032
11.57006 7.03902 4.00029
11.65724 7.03854 4.00027
11.74443 7.03808 4.00024
11.83161 7.03767 4.00022
11.91877 7.03728 4.00020
12.00591 7.03696 4.00018
12.09307 7.03665 4.00017
12.18023 7.03637 4.00015
12.26735 7.03612 4.00014
12.35452 7.03587 4.00013
12.44169 7.03566 4.00011
12.52887 7.03547 4.00010
12.61606 7.03529 4.00009
12.70327 7.03513 4.00008
12.79049 7.03498 4.00008
12.87761 7.03486 4.00007
12.96485 7.03472 4.00007
13.05210 7.03461 4.00006
13.13937 7.03451 4.00005
13.22665 7.03441 4.00005
13.31396 7.03433 4.00004
13.40129 7.03425 4.00004
13.48863 7.03418 4.00004
13.57600 7.03412 4.00003
13.66339 7.03406 4.00003
13.75080 7.03401 4.00003
13.83823 7.03396 4.00002
13.92569 7.03392 4.00002
14.01316 7.03388 4.00002
14.10066 7.03384 4.00002
14.18818 7.03381 4.00002
14.27572 7.03378 4.00001
14.36328 7.03375 4.00001
14.45086 7.03372 4.00001
14.53846 7.03370 4.00001
14.62609 7.03368 4.00001
14.71374 7.03366 4.00001
14.80141 7.03364 4.00001
14.88909 7.03363 4.00001
14.97681 7.03361 4.00001
15.06454 7.03360 4.00001
15.15229 7.03359 4.00001
15.24006 7.03358 4.00000
15.32785 7.03357 4.00000
15.41567 7.03356 4.00000
15.50350 7.03355 4.00000
15.59010 7.03356 4.00000
15.67790 7.03355 4.00000
15.76573 7.03354 4.00000
15.85357 7.03354 4.00000
15.94144 7.03353 4.00000
16.02932 7.03353 4.00000
16.11723 7.03352 4.00000
16.20516 7.03352 4.00000
16.29311 7.03352 4.00000
16.38108 7.03351 4.00000
16.46907 7.03351 4.00000
16.55708 7.03351 4.00000
16.64511 7.03350 4.00000
16.73315 7.03350 4.00000
16.82122 7.03350 4.00000
16.90931 7.03350 4.00000
16.99741 7.03350 4.00000
17.08553 7.03350 4.00000
17.17368 7.03349 4.00000
17.26183 7.03349 4.00000
17.35001 7.03349 4.00000
17.43821 7.03349 4.00000
17.52642 7.03349 4.00000
17.61465 7.03349 4.00000
17.70289 7.03349 4.00000
17.79116 7.03349 4.00000
17.87943 7.03349 4.00000
17.96773 7.03349 4.00000
18.05604 7.03349 4.00000
18.14437 7.03348 4.00000
18.23272 7.03348 4.00000
18.32108 7.03348 4.00000
18.40945 7.03348 4.00000
18.49784 7.03348 4.00000
18.58625 7.03348 4.00000
18.67467 7.03348 4.00000
18.76311 7.03348 4.00000
18.85156 7.03348 4.00000
18.94002 7.03348 4.00000
19.02850 7.03348 4.00000
19.11700 7.03348 4.00000
19.20550 7.03348 4.00000
19.29403 7.03348 4.00000
19.38256 7.03348 4.00000
19.47111 7.03348 4.00000
19.55968 7.03348 4.00000
19.64825 7.03348 4.00000
19.73684 7.03348 4.00000
19.82545 7.03348 4.00000
19.91406 7.03348 4.00000
20.00269 7.03348 4.00000
20.09133 7.03348 4.00000
20.17999 7.03348 4.00000
20.26866 7.03348 4.00000
20.35734 7.03348 4.00000
20.44603 7.03348 4.00000
20.53473 7.03348 4.00000
20.62345 7.03348 4.00000
20.71218 7.03348 4.00000
20.80092 7.03348 4.00000
20.88967 7.03348 4.00000
20.97843 7.03348 4.00000
21.06721 7.03348 4.00000
21.15599 7.03348 4.00000
21.24479 7.03348 4.00000
21.33360 7.03348 4.00000
21.42242 7.03348 4.00000
21.51125 7.03348 4.00000
21.60009 7.03348 4.00000
21.68894 7.03348 4.00000
21.77780 7.03348 4.00000
21.86667 7.03348 4.00000
21.95556 7.03348 4.00000
22.04445 7.03348 4.00000
22.13336 7.03348 4.00000
22.22227 7.03348 4.00000
22.31119 7.03348 4.00000
22.40013 7.03348 4.00000
22.48907 7.03348 4.00000
22.57803 7.03348 4.00000
22.66699 7.03348 4.00000
22.75596 7.03348 4.00000
22.84495 7.03348 4.00000
22.93394 7.03348 4.00000
23.02294 7.03348 4.00000
23.11195 7.03348 4.00000
23.20097 7.03348 4.00000
23.29000 7.03348 4.00000
23.37904 7.03348 4.00000
23.46808 7.03348 4.00000
23.55714 7.03348 4.00000
23.64620 7.03348 4.00000
23.73528 7.03348 4.00000
23.82436 7.03348 4.00000
23.91345 7.03348 4.00000
24.00255 7.03348 4.00000
24.09166 7.03348 4.00000
24.18077 7.03348 4.00000
24.26990 7.03348 4.00000
24.35903 7.03348 4.00000
24.44817 7.03348 4.00000
24.53732 7.03348 4.00000
24.62648 7.03348 4.00000
24.71564 7.03348 4.00000
24.80481 7.03348 4.00000
24.89399 7.03348 4.00000
24.98318 7.03348 4.00000
25.07238 7.03348 4.00000
25.16158 7.03348 4.00000
25.25079 7.03348 4.00000
25.34001 7.03348 4.00000
25.42924 7.03348 4.00000
25.51847 7.03348 4.00000
25.60771 7.03348 4.00000
25.69696 7.03348 4.00000
25.78621 7.03348 4.00000
25.87548 7.03348 4.00000
25.96474 7.03348 4.00000
26.05402 7.03348 4.00000
26.14330 7.03348 4.00000
26.23259 7.03348 4.00000
26.32189 7.03348 4.00000
26.41120 7.03348 4.00000
26.50051 7.03348 4.00000
26.58982 7.03348 4.00000
26.67915 7.03348 4.00000
26.76848 7.03348 4.00000
26.85781 7.03348 4.00000
26.94716 7.03348 4.00000
27.03651 7.03348 4.00000
27.12586 7.03348 4.00000
27.21523 7.03348 4.00000
27.30460 7.03348 4.00000
27.39397 7.03348 4.00000
27.48335 7.03348 4.00000
27.57274 7.03348 4.00000
27.66213 7.03348 4.00000
27.75153 7.03348 4.00000
27.84094 7.03348 4.00000
27.93035 7.03348 4.00000
28.01977 7.03348 4.00000
28.10919 7.03348 4.00000
28.19862 7.03348 4.00000
28.28806 7.03348 4.00000
28.37750 7.03348 4.00000
28.46694 7.03348 4.00000
28.55639 7.03348 4.00000
28.64585 7.03348 4.00000
28.73532 7.03348 4.00000
28.82478 7.03348 4.00000
28.91426 7.03348 4.00000
29.00374 7.03348 4.00000
29.09322 7.03348 4.00000
29.18271 7.03348 4.00000
29.27221 7.03348 4.00000
29.36171 7.03348 4.00000
29.45122 7.03348 4.00000
29.54073 7.03348 4.00000
29.63025 7.03348 4.00000
29.71977 7.03348 4.00000
29.80929 7.03348 4.00000
29.89883 7.03348 4.00000
29.98836 7.03348 4.00000
30.07791 7.03348 4.00000
30.16745 7.03348 4.00000
30.25700 7.03348 4.00000
30.34656 7.03348 4.00000
30.43612 7.03348 4.00000
30.52569 7.03348 4.00000
30.61526 7.03348 4.00000
30.70484 7.03348 4.00000
30.79442 7.03348 4.00000
30.88400 7.03348 4.00000
30.97359 7.03348 4.00000
31.06319 7.03348 4.00000
31.15279 7.03348 4.00000
31.24239 7.03348 4.00000
31.33200 7.03348 4.00000
31.42161 7.03348 4.00000
31.51123 7.03348 4.00000
31.60085 7.03348 4.00000
31.69048 7.03348 4.00000
31.78011 7.03348 4.00000
31.86974 7.03348 4.00000
31.95938 7.03348 4.00000
32.04902 7.03348 4.00000
32.13867 7.03348 4.00000
32.22832 7.03348 4.00000
32.31798 7.03348 4.00000
32.40764 7.03348 4.00000
32.49730 7.03348 4.00000
32.58697 7.03348 4.00000
32.67664 7.03348 4.00000
32.76632 7.03348 4.00000
32.85600 7.03348 4.00000
32.94568 7.03348 4.00000
33.03537 7.03348 4.00000
33.12506 7.03348 4.00000
33.21476 7.03348 4.00000
33.30446 7.03348 4.00000
33.39416 7.03348 4.00000
33.48387 7.03348 4.00000
33.57358 7.03348 4.00000
33.66330 7.03348 4.00000
33.75302 7.03348 4.00000
33.84274 7.03348 4.00000
33.93247 7.03348 4.00000
34.02220 7.03348 4.00000
34.11193 7.03348 4.00000
34.20167 7.03348 4.00000
34.29141 7.03348 4.00000
34.38116 7.03348 4.00000
34.47090 7.03348 4.00000
34.56066 7.03348 4.00000
34.65041 7.03348 4.00000

Angle 0.480095 1.093185

4.00000 7.03348 4.00000
4.00000 7.03348 4.00000
4.00000 7.03348 4.00000
4.00000 7.03348 4.00000
4.00000 7.03348 4.00000
4.00000 7.03348 4.00000
4.00000 7.03348 4.00000
4.00000 7.03348 4.00000
4.00000 7.03348 4.00000
4.00000 7.03348 4.00000
4.00000 7.03348 4.00000
4.00000 7.03348 4.00000
4.00000 7.03348 4.00000
4.00000 7.03348 4.00000
4.00000 7.03348 4.00000
4.00000 7.03348 4.00000
4.00000 7.03348 4.00000
4.00000 7.03348 4.00000
4.00000 7.03348 4.00000
4.00000 7.03348 4.00000
4.00000 7.03348 4.00000
4.00000 7.03348 4.00000
4.00000 7.03348 4.00000
4.00000 7.03348 4.00000
4.00000 7.03348 4.00000
4.00000 7.03348 4.00000
4.00000 7.03348 4.00000
4.00000 7.03348 4.00000
4.00000 7.03348 4.00000
4.00000 7.03348 4.00000
4.00000 7.03347 4.00000
4.00000 7.03348 4.00000
4.00000 7.03348 4.00000
4.00000 7.03348 4.00000
4.00000 7.03348 4.00000
4.00000 7.03347 4.00000
4.00000 7.03348 4.00000
4.00000 7.03348 4.00000
4.00000 7.03348 4.00000
4.00000 7.03347 4.00000
4.00000 7.03347 4.00000
4.00000 7.03348 4.00000
4.00000 7.03348 4.00000
4.00000 7.03348 4.00000
4.00000 7.03348 4.00000
4.00000 7.03348 4.00000
4.00000 7.03348 4.00000
4.00000 7.03348 4.00000
4.00000 7.03347 4.00000
4.00000 7.03347 4.00000
4.00000 7.03348 4.00000
4.00000 7.03348 4.00000
4.00000 7.03348 4.00000
4.00000 7.03348 4.00000
4.00000 7.03348 4.00000
4.00000 7.03348 4.00000
4.00000 7.03348 4.00000
4.00000 7.03348 4.00000
4.00000 7.03348 4.00000
4.00000 7.03348 4.00000
4.00000 7.03348 4.00000
4.00000 7.03348 4.00000
4.00000 7.03348 4.00000
4.00000 7.03347 4.00000
4.00000 7.03348 4.00000
4.00000 7.03348 4.00000
4.00000 7.03348 4.00000
4.00000 7.03348 4.00000
4.00000 7.03348 4.00000
4.00000 7.03348 4.00000
4.00000 7.03348 4.00000
4.00000 7.03348 4.00000
4.00000 7.03348 4.00000
4.00000 7.03348 4.00000
4.00000 7.03348 4.00000
4.00000 7.03348 4.00000
4.00000 7.03348 4.00000
4.00000 7.03348 4.00000
4.00000 7.03348 4.00000
4.00000 7.03348 4.00000
4.00000 7.03348 4.00000
4.00000 7.03348 4.00000
4.00000 7.03348 4.00000
4.00000 7.03348 4.00000
4.00000 7.03348 4.00000
4.00000 7.03348 4.00000
4.00000 7.03348 4.00000
4.00000 7.03348 4.00000
4.00000 7.03348 4.00000
4.00000 7.03348 4.00000
4.00000 7.03348 4.00000
4.00000 7.03348 4.00000
4.00000 7.03348 4.00000
4.00000 7.03348 4.00000
4.00000 7.03348 4.00000
4.00000 7.03348 4.00000
4.00000 7.03348 4.00000
4.00000 7.03348 4.00000
4.00000 7.03348 4.00000
4.00000 7.03348 4.00000
4.00000 7.03348 4.00000
4.00000 7.03348 4.00000
4.00000 7.03348 4.00000
4.00000 7.03348 4.00000
4.00308 7.09242 4.00308
4.00648 7.15850 4.00648
4.00984 7.22485 4.00984
4.01317 7.29144 4.01317
4.01649 7.35825 4.01649
4.01979 7.42526 4.01979
4.02310 7.49244 4.02310
4.02643 7.55977 4.02643
4.02977 7.62723 4.02977
4.03316 7.69479 4.03316
4.03659 7.76242 4.03659
4.04008 7.83009 4.04008
4.04365 7.89777 4.04365
4.04731 7.96543 4.04731
4.05109 8.03302 4.05109
4.05501 8.10049 4.05501
4.05908 8.16780 4.05908
4.06335 8.23488 4.06335
4.06784 8.30166 4.06784
4.07259 8.36806 4.07259
4.07767 8.43398 4.07767
4.08311 8.49929 4.08311
4.08901 8.56385 4.08901
4.09543 8.62749 4.09543
4.10248 8.69001 4.10248
4.11012 8.75149 4.11012
4.11837 8.81191 4.11837
4.12725 8.87117 4.12725
4.13681 8.92921 4.13681
4.14709 8.98595 4.14709
4.15812 9.04132 4.15812
4.16992 9.09526 4.16992
4.18252 9.14773 4.18252
4.19594 9.19870 4.19594
4.21018 9.24814 4.21018
4.22524 9.29605 4.22524
4.24112 9.34245 4.24112
4.25781 9.38735 4.25781
4.27529 9.43079 4.27529
4.29352 9.47281 4.29352
4.31250 9.51348 4.31250
4.33218 9.55285 4.33218
4.35253 9.59099 4.35253
4.37352 9.62794 4.37352
4.39513 9.66378 4.39513
4.41733 9.69854 4.41733
4.44011 9.73224 4.44011
4.46346 9.76490 4.46346
4.48741 9.79647 4.48741
4.51202 9.82682 4.51202
4.53743 9.85566 4.53743
4.56392 9.88244 4.56392
4.59212 9.90590 4.59212
4.62348 9.92312 4.62348
7.91756 7.31808 4.01450
8.03351 7.28396 4.01280
8.14376 7.25538 4.01137
8.24962 7.23106 4.01015
8.35205 7.21010 4.00909
8.45168 7.19189 4.00817
8.54903 7.17593 4.00736
8.64446 7.16189 4.00665
8.73832 7.14943 4.00601
8.83080 7.13836 4.00545
8.92211 7.12848 4.00494
9.01242 7.11963 4.00449
9.10186 7.11169 4.00408
9.19054 7.10455 4.00371
9.27855 7.09811 4.00337
9.36598 7.09231 4.00307
9.45292 7.08704 4.00280
9.53941 7.08229 4.00256
9.62550 7.07797 4.00233
9.71125 7.07406 4.00213
9.79670 7.07050 4.00194
9.88188 7.06727 4.00177
9.96682 7.06432 4.00162
10.05156 7.06165 4.00148
10.13611 7.05921 4.00135
10.22051 7.05698 4.00124
10.30478 7.05495 4.00113
10.38892 7.05311 4.00103
10.47296 7.05142 4.00094
10.55691 7.04988 4.00086
10.64078 7.04847 4.00079
10.72460 7.04719 4.00072
10.80836 7.04601 4.00066
10.89207 7.04494 4.00060
10.97575 7.04396 4.00055
11.05942 7.04306 4.00051
11.14305 7.04224 4.00046
11.22665 7.04151 4.00042
11.31028 7.04081 4.00039
11.39390 7.04019 4.00035
11.47751 7.03962 4.00032
11.56114 7.03909 4.00029
11.64476 7.03861 4.00027
11.72838 7.03820 4.00025
11.81207 7.03777 4.00023
11.89576 7.03739 4.00021
11.97946 7.03707 4.00019
12.06319 7.03676 4.00017
12.14692 7.03652 4.00016
12.23072 7.03623 4.00015
12.31450 7.03603 4.00013
12.39838 7.03578 4.00012
12.48225 7.03558 4.00011
12.56617 7.03540 4.00010
12.65013 7.03522 4.00009
12.73408 7.03508 4.00008
12.81811 7.03495 4.00008
12.90215 7.03481 4.00007
12.98623 7.03470 4.00006
13.07037 7.03460 4.00006
13.15451 7.03450 4.00005
13.23874 7.03441 4.00005
13.32302 7.03433 4.00004
13.40723 7.03426 4.00004
13.49155 7.03420 4.00004
13.57593 7.03413 4.00003
13.66036 7.03407 4.00003
13.74484 7.03402 4.00003
13.82938 7.03397 4.00002
13.91396 7.03393 4.00002
13.99860 7.03389 4.00002
14.08328 7.03385 4.00002
14.16802 7.03382 4.00002
14.25280 7.03379 4.00001
14.33764 7.03376 4.00001
14.42252 7.03373 4.00001
14.50744 7.03371 4.00001
14.59242 7.03369 4.00001
14.67743 7.03367 4.00001
14.76250 7.03365 4.00001
14.84761 7.03364 4.00001
14.93276 7.03362 4.00001
15.01795 7.03361 4.00001
15.10319 7.03360 4.00001
15.18847 7.03358 4.00000
15.27380 7.03357 4.00000
15.35916 7.03356 4.00000
15.44456 7.03356 4.00000
15.53001 7.03355 4.00000
15.61549 7.03354 4.00000
15.70102 7.03353 4.00000
15.78658 7.03353 4.00000
15.87218 7.03352 4.00000
15.95781 7.03352 4.00000
16.04349 7.03351 4.00000
16.12920 7.03351 4.00000
16.21495 7.03351 4.00000
16.30073 7.03350 4.00000
16.38655 7.03350 4.00000
16.46817 7.03351 4.00000
16.55386 7.03351 4.00000
16.63959 7.03350 4.00000
16.72536 7.03350 4.00000
16.81117 7.03350 4.00000
16.89702 7.03350 4.00000
16.98291 7.03350 4.00000
17.06884 7.03350 4.00000
17.15481 7.03349 4.00000
17.24081 7.03349 4.00000
17.32686 7.03349 4.00000
17.41293 7.03349 4.00000
17.49905 7.03349 4.00000
17.58520 7.03349 4.00000
17.67138 7.03349 4.00000
17.75760 7.03349 4.00000
17.84385 7.03349 4.00000
17.93014 7.03349 4.00000
18.01645 7.03349 4.00000
18.10280 7.03348 4.00000
18.18918 7.03348 4.00000
18.27560 7.03348 4.00000
18.36204 7.03348 4.00000
18.44851 7.03348 4.00000
18.53502 7.03348 4.00000
18.62155 7.03348 4.00000
18.70811 7.03348 4.00000
18.79471 7.03348 4.00000
18.88133 7.03348 4.00000
18.96797 7.03348 4.00000
19.05465 7.03348 4.00000
19.14135 7.03348 4.00000
19.22808 7.03348 4.00000
19.31484 7.03348 4.00000
19.40162 7.03348 4.00000
19.48843 7.03348 4.00000
19.57526 7.03348 4.00000
19.66212 7.03348 4.00000
19.74901 7.03348 4.00000
19.83592 7.03348 4.00000
19.92285 7.03348 4.00000
20.00981 7.03348 4.00000
20.09679 7.03348 4.00000
20.18379 7.03348 4.00000
20.27082 7.03348 4.00000
20.35788 7.03348 4.00000
20.44495 7.03348 4.00000
20.53205 7.03348 4.00000
20.61917 7.03348 4.00000
20.70631 7.03348 4.00000
20.79347 7.03348 4.00000
20.88066 7.03348 4.00000
20.96786 7.03348 4.00000
21.05509 7.03348 4.00000
21.14234 7.03348 4.00000
21.22961 7.03348 4.00000
21.31690 7.03348 4.00000
21.40421 7.03348 4.00000
21.49154 7.03348 4.00000
21.57889 7.03348 4.00000
21.66626 7.03348 4.00000
21.75365 7.03348 4.00000
21.84106 7.03348 4.00000
21.92849 7.03348 4.00000
22.01593 7.03348 4.00000
22.10340 7.03348 4.00000
22.19088 7.03348 4.00000
22.27838 7.03348 4.00000
22.36591 7.03348 4.00000
22.45344 7.03348 4.00000
22.54100 7.03348 4.00000
22.62857 7.03348 4.00000
22.71617 7.03348 4.00000
22.80377 7.03348 4.00000
22.89140 7.03348 4.00000
22.97904 7.03348 4.00000
23.06670 7.03348 4.00000
23.15438 7.03348 4.00000
23.24207 7.03348 4.00000
23.32978 7.03348 4.00000
23.41751 7.03348 4.00000
23.50525 7.03348 4.00000
23.59301 7.03348 4.00000
23.68078 7.03348 4.00000
23.76857 7.03348 4.00000
23.85638 7.03348 4.00000
23.94420 7.03348 4.00000
24.03203 7.03348 4.00000
24.11988 7.03348 4.00000
24.20775 7.03348 4.00000
24.29563 7.03348 4.00000
24.38353 7.03348 4.00000
24.47144 7.03348 4.00000
24.55936 7.03348 4.00000
24.64730 7.03348 4.00000
24.73525 7.03348 4.00000
24.82322 7.03348 4.00000
24.91120 7.03348 4.00000
24.99920 7.03348 4.00000
25.08721 7.03348 4.00000
25.17523 7.03348 4.00000
25.26327 7.03348 4.00000
25.35132 7.03348 4.00000
25.43938 7.03348 4.00000
25.52746 7.03348 4.00000
25.61555 7.03348 4.00000
25.70365 7.03348 4.00000
25.79177 7.03348 4.00000
25.87990 7.03348 4.00000
25.96804 7.03348 4.00000
26.05619 7.03348 4.00000
26.14436 7.03348 4.00000
26.23254 7.03348 4.00000
26.32073 7.03348 4.00000
26.40893 7.03348 4.00000
26.49715 7.03348 4.00000
26.58537 7.03348 4.00000
26.67361 7.03348 4.00000
26.76187 7.03348 4.00000
26.85013 7.03348 4.00000
26.93840 7.03348 4.00000
27.02669 7.03348 4.00000
27.11499 7.03348 4.00000
27.20330 7.03348 4.00000
27.29162 7.03348 4.00000
27.37995 7.03348 4.00000
27.46829 7.03348 4.00000
27.55665 7.03348 4.00000
27.64501 7.03348 4.00000
27.73339 7.03348 4.00000
27.82178 7.03348 4.00000
27.91017 7.03348 4.00000
27.99858 7.03348 4.00000
28.08700 7.03348 4.00000
28.17543 7.03348 4.00000
28.26387 7.03348 4.00000
28.35232 7.03348 4.00000
28.44078 7.03348 4.00000
28.52925 7.03348 4.00000
28.61773 7.03348 4.00000
28.70622 7.03348 4.00000
28.79472 7.03348 4.00000
28.88324 7.03348 4.00000

Angle 0.453536 0.749089

4.00000 7.03348 4.00000
4.00000 7.03349 4.00000
4.00000 7.03350 4.00000
4.00000 7.03352 4.00000
4.00000 7.03348 4.00000
4.00000 7.03348 4.00000
4.00000 7.03348 4.00000
4.00000 7.03349 4.00000
4.00000 7.03348 4.00000
4.00074 7.04757 4.00074
4.00400 7.11014 4.00400
4.00722 7.17301 4.00722
4.01041 7.23617 4.01041
4.01358 7.29958 4.01358
4.01673 7.36324 4.01673
4.01989 7.42711 4.01989
4.02304 7.49119 4.02304
4.02621 7.55545 4.02621
4.02941 7.61987 4.02941
4.03264 7.68443 4.03264
4.03591 7.74909 4.03591
4.03924 7.81384 4.03924
4.04263 7.87865 4.04263
4.04611 7.94348 4.04611
4.04969 8.00830 4.04970
4.05340 8.07307 4.05340
4.05724 8.13774 4.05724
4.06124 8.20226 4.06124
4.06544 8.26657 4.06544
4.06987 8.33061 4.06987
4.07457 8.39428 4.07457
4.07958 8.45750 4.07958
4.08496 8.52015 4.08496
4.09078 8.58208 4.09078
4.09712 8.64313 4.09712
4.10406 8.70316 4.10406
4.11154 8.76227 4.11154
4.11959 8.82039 4.11959
4.12824 8.87746 4.12824
4.13754 8.93341 4.13754
4.14751 8.98815 4.14751
4.15819 9.04164 4.15819
4.16959 9.09382 4.16959
4.18175 9.14465 4.18175
4.19467 9.19408 4.19467
4.20837 9.24211 4.20837
4.22285 9.28872 4.22285
4.23810 9.33392 4.23810
4.25412 9.37773 4.25412
4.27089 9.42018 4.27089
4.28839 9.46130 4.28839
4.30660 9.50114 4.30659
4.32548 9.53975 4.32548
4.34501 9.57719 4.34501
4.36517 9.61351 4.36517
4.38593 9.64877 4.38592
4.40726 9.68300 4.40725
4.42914 9.71625 4.42914
4.45157 9.74851 4.45157
4.47456 9.77979 4.47456
4.49815 9.80999 4.49815
4.52242 9.83895 4.52242
4.54753 9.86633 4.54753
4.57385 9.89140 4.57386
4.60217 9.91260 4.60217
4.63431 9.92628 4.63431
4.01398 7.30771 7.95126
4.01240 7.27607 8.06263
4.01107 7.24932 8.16900
4.00991 7.22639 8.27146
4.00891 7.20651 8.37082
4.00804 7.18915 8.46765
4.00726 7.17387 8.56239
4.00657 7.16036 8.65538
4.00596 7.14836 8.74689
4.00541 7.13763 8.83716
4.00492 7.12804 8.92633
4.00448 7.11943 9.01457
4.00408 7.11168 9.10200
4.00372 7.10469 9.18873
4.00339 7.09837 9.27484
4.00309 7.09265 9.36042
4.00282 7.08747 9.44551
4.00258 7.08278 9.53020
4.00236 7.07850 9.61453
4.00216 7.07461 9.69854
4.00197 7.07108 9.78227
4.00180 7.06786 9.86574
4.00165 7.06492 9.94902
4.00151 7.06225 10.03209
4.00138 7.05979 10.11501
4.00126 7.05756 10.19779
4.00116 7.05552 10.28044
4.00106 7.05366 10.36299
4.00097 7.05196 10.44545
4.00089 7.05041 10.52783
4.00081 7.04898 10.61015
4.00075 7.04766 10.69244
4.00068 7.04647 10.77467
4.00063 7.04538 10.85687
4.00057 7.04438 10.93905
4.00053 7.04347 11.02121
4.00048 7.04263 11.10336
4.00044 7.04186 11.18551
4.00040 7.04116 11.26767
4.00037 7.04050 11.34985
4.00034 7.03992 11.43201
4.00031 7.03938 11.51420
4.00029 7.03888 11.59642
4.00026 7.03843 11.67865
4.00024 7.03801 11.76092
4.00022 7.03763 11.84321
4.00020 7.03727 11.92555
4.00018 7.03696 12.00789
4.00017 7.03666 12.09030
4.00015 7.03640 12.17272
4.00014 7.03614 12.25520
4.00013 7.03592 12.33770
4.00012 7.03571 12.42026
4.00011 7.03552 12.50286
4.00010 7.03536 12.58547
4.00009 7.03519 12.66816
4.00008 7.03504 12.75090
4.00007 7.03491 12.83368
4.00007 7.03480 12.91645
4.00006 7.03468 12.99933
4.00006 7.03457 13.08225
4.00005 7.03448 13.16522
4.00005 7.03439 13.24824
4.00004 7.03431 13.33131
4.00004 7.03424 13.41443
4.00003 7.03417 13.49761
4.00003 7.03411 13.58083
4.00003 7.03410 13.66385
4.00003 7.03402 13.74717
4.00003 7.03396 13.83052
4.00002 7.03392 13.91391
4.00002 7.03388 13.99736
4.00002 7.03385 14.08085
4.00002 7.03381 14.16440
4.00002 7.03378 14.24799
4.00002 7.03377 14.33145
4.00001 7.03375 14.41511
4.00001 7.03372 14.49882
4.00001 7.03370 14.58258
4.00001 7.03368 14.66639
4.00001 7.03367 14.75025
4.00001 7.03365 14.83404
4.00001 7.03364 14.91797
4.00001 7.03362 15.00194
4.00001 7.03361 15.08596
4.00001 7.03360 15.17004
4.00001 7.03359 15.25406
4.00001 7.03358 15.33820
4.00000 7.03357 15.42238
4.00000 7.03356 15.50662
4.00000 7.03356 15.59090
4.00000 7.03355 15.67523
4.00000 7.03354 15.75960
4.00000 7.03354 15.84403
4.00000 7.03353 15.92849
4.00000 7.03353 16.01300
4.00000 7.03352 16.09756
4.00000 7.03352 16.18216
4.00000 7.03352 16.26680
4.00000 7.03351 16.35148
4.00000 7.03351 16.43621
4.00000 7.03351 16.52098
4.00000 7.03351 16.60579
4.00000 7.03350 16.69064
4.00000 7.03350 16.77552
4.00000 7.03350 16.86045
4.00000 7.03350 16.94542
4.00000 7.03350 17.03043
4.00000 7.03349 17.11548
4.00000 7.03349 17.20056
4.00000 7.03349 17.28568
4.00000 7.03349 17.37084
4.00000 7.03349 17.45604
4.00000 7.03349 17.54127
4.00000 7.03349 17.62654
4.00000 7.03349 17.71184
4.00000 7.03349 17.79718
4.00000 7.03349 17.88255
4.00000 7.03349 17.96796
4.00000 7.03349 18.05341
4.00000 7.03348 18.13888
4.00000 7.03348 18.22439
4.00000 7.03348 18.30994
4.00000 7.03348 18.39552
4.00000 7.03348 18.48113
4.00000 7.03348 18.56677
4.00000 7.03348 18.65244
4.00000 7.03348 18.73815
4.00000 7.03348 18.82389
4.00000 7.03348 18.90966
4.00000 7.03348 18.99546
4.00000 7.03348 19.08129
4.00000 7.03348 19.16715
4.00000 7.03348 19.25304
4.00000 7.03348 19.33896
4.00000 7.03348 19.42492
4.00000 7.03348 19.51090
4.00000 7.03348 19.59691
4.00000 7.03348 19.68294
4.00000 7.03348 19.76901
4.00000 7.03348 19.85511
4.00000 7.03348 19.94123
4.00000 7.03348 20.02738
4.00000 7.03348 20.11356
4.00000 7.03348 20.19977
4.00000 7.03348 20.28600
4.00000 7.03348 20.37226
4.00000 7.03348 20.45855
4.00000 7.03348 20.54486
4.00000 7.03348 20.63120
4.00000 7.03348 20.71757
4.00000 7.03348 20.80396
4.00000 7.03348 20.89037
4.00000 7.03348 20.97682
4.00000 7.03348 21.06328
4.00000 7.03348 21.14978
4.00000 7.03348 21.23629
4.00000 7.03348 21.32283
4.00000 7.03348 21.40940
4.00000 7.03348 21.49599
4.00000 7.03348 21.58260
4.00000 7.03348 21.66924
4.00000 7.03348 21.75590
4.00000 7.03348 21.84258
4.00000 7.03348 21.92928
4.00000 7.03348 22.01601
4.00000 7.03348 22.10276
4.00000 7.03348 22.18953
4.00000 7.03348 22.27632
4.00000 7.03348 22.36313
4.00000 7.03348 22.44997
4.00000 7.03348 22.53682
4.00000 7.03348 22.62370
4.00000 7.03348 22.71060
4.00000 7.03348 22.79752
4.00000 7.03348 22.88446
4.00000 7.03348 22.97142
4.00000 7.03348 23.05840
4.00000 7.03348 23.14540
4.00000 7.03348 23.23242
4.00000 7.03348 23.31946
4.00000 7.03348 23.40652
4.00000 7.03348 23.49360
4.00000 7.03348 23.58070
4.00000 7.03348 23.66782
4.00000 7.03348 23.75496
4.00000 7.03348 23.84211
4.00000 7.03348 23.92929
4.00000 7.03348 24.01648
4.00000 7.03348 24.10369
4.00000 7.03348 24.19092
4.00000 7.03348 24.27817
4.00000 7.03348 24.36543
4.00000 7.03348 24.45272
4.00000 7.03348 24.54002
4.00000 7.03348 24.62734
4.00000 7.03348 24.71467
4.00000 7.03348 24.80203
4.00000 7.03348 24.88940
4.00000 7.03348 24.97679
4.00000 7.03348 25.06419
4.00000 7.03348 25.15161
4.00000 7.03348 25.23905
4.00000 7.03348 25.32650
4.00000 7.03348 25.41397
4.00000 7.03348 25.50146
4.00000 7.03348 25.58897
4.00000 7.03348 25.67649
4.00000 7.03348 25.76402
4.00000 7.03348 25.85157
4.00000 7.03348 25.93914
4.00000 7.03348 26.02672
4.00000 7.03348 26.11432
4.00000 7.03348 26.20193
4.00000 7.03348 26.28956
4.00000 7.03348 26.37720
4.00000 7.03348 26.46486
4.00000 7.03348 26.55254
4.00000 7.03348 26.64022
4.00000 7.03348 26.72793
4.00000 7.03348 26.81564
4.00000 7.03348 26.90338
4.00000 7.03348 26.99112
4.00000 7.03348 27.07888
4.00000 7.03348 27.16666
4.00000 7.03348 27.25445
4.00000 7.03348 27.34225
4.00000 7.03348 27.43007
4.00000 7.03348 27.51790
4.00000 7.03348 27.60574
4.00000 7.03348 27.69360
4.00000 7.03348 27.78147
4.00000 7.03348 27.86935
4.00000 7.03348 27.95725
4.00000 7.03348 28.04516
4.00000 7.03348 28.13308
4.00000 7.03348 28.22102
4.00000 7.03348 28.30897
4.00000 7.03348 28.39693
4.00000 7.03348 28.48491
4.00000 7.03348 28.57290
4.00000 7.03348 28.66090
4.00000 7.03348 28.74891
4.00000 7.03348 28.83693
4.00000 7.03348 28.92497
4.00000 7.03348 29.01302
4.00000 7.03348 29.10108
4.00000 7.03348 29.18916
4.00000 7.03348 29.27724
4.00000 7.03348 29.36534
4.00000 7.03348 29.45345
4.00000 7.03348 29.54157
4.00000 7.03348 29.62970
4.00000 7.03348 29.71785
4.00000 7.03348 29.80600
4.00000 7.03348 29.89417
4.00000 7.03348 29.98235
4.00000 7.03348 30.07054
4.00000 7.03348 30.15874
4.00000 7.03348 30.24695
4.00000 7.03348 30.33517
4.00000 7.03348 30.42341
4.00000 7.03348 30.51165
4.00000 7.03348 30.59991
4.00000 7.03348 30.68817
4.00000 7.03348 30.77645
4.00000 7.03348 30.86473
4.00000 7.03348 30.95303
4.00000 7.03348 31.04134
4.00000 7.03348 31.12966
4.00000 7.03348 31.21799
4.00000 7.03348 31.30633
4.00000 7.03348 31.39468
4.00000 7.03348 31.48303
4.00000 7.03348 31.57140
4.00000 7.03348 31.65978
4.00000 7.03348 31.74817
4.00000 7.03348 31.83657
4.00000 7.03348 31.92498
4.00000 7.03348 32.01340
4.00000 7.03348 32.10183
4.00000 7.03348 32.19026
4.00000 7.03348 32.27871
4.00000 7.03348 32.36717
4.00000 7.03348 32.45563
4.00000 7.03348 32.54411
4.00000 7.03348 32.63259
4.00000 7.03348 32.72109
4.00000 7.03348 32.80959
4.00000 7.03348 32.89810
4.00000 7.03348 32.98662
4.00000 7.03348 33.07515
4.00000 7.03348 33.16369
4.00000 7.03348 33.25224
4.00000 7.03348 33.34079
4.00000 7.03348 33.42936
4.00000 7.03348 33.51793
4.00000 7.03348 33.60652
4.00000 7.03348 33.69511
4.00000 7.03348 33.78371
4.00000 7.03348 33.87231
4.00000 7.03348 33.96093
4.00000 7.03348 34.04956
4.00000 7.03348 34.13819
4.00000 7.03348 34.22683
4.00000 7.03348 34.31548
4.00000 7.03348 34.40414
4.00000 7.03348 34.49280
4.00000 7.03348 34.58148
4.00000 7.03348 34.67016
4.00000 7.03348 34.75885
4.00000 7.03348 34.84755
4.00000 7.03348 34.93625
4.00000 7.03348 35.02497
4.00000 7.03348 35.11369
4.00000 7.03348 35.20242
4.00000 7.03348 35.29116
4.00000 7.03348 35.37990
4.00000 7.03348 35.46865
4.00000 7.03348 35.55741
4.00000 7.03348 35.64618
4.00000 7.03348 35.73495
4.00000 7.03348 35.82374
4.00000 7.03348 35.91253
4.00000 7.03348 36.00132
4.00000 7.03348 36.09013
4.00000 7.03348 36.17894
4.00000 7.03348 36.26776
4.00000 7.03348 36.35658
4.00000 7.03348 36.44541
4.00000 7.03348 36.53425
4.00000 7.03348 36.62310
4.00000 7.03348 36.71195
4.00000 7.03348 36.80081

