Angle 0.137452 0.209743

4.00000 7.03348 4.00000
4.00000 7.03348 4.00000
4.00000 7.03348 4.00000
4.00000 7.03348 4.00000
4.00000 7.03348 4.00000
4.00000 7.03348 4.00000
4.00000 7.03348 4.00000
4.00000 7.03348 4.00000
4.00000 7.03348 4.00000
4.00000 7.03348 4.00000
4.00000 7.03348 4.00000
4.00000 7.03348 4.00000
4.00000 7.03348 4.00000
4.00000 7.03348 4.00000
4.00000 7.03348 4.00000
4.00000 7.03347 4.00000
4.00000 7.03348 4.00000
4.00000 7.03348 4.00000
4.00000 7.03348 4.00000
4.00000 7.03348 4.00000
4.00000 7.03348 4.00000
4.00000 7.03348 4.00000
4.00000 7.03348 4.00000
4.00000 7.03348 4.00000
4.00000 7.03348 4.00000
4.00000 7.03348 4.00000
4.00000 7.03348 4.00000
4.00000 7.03348 4.00000
4.00000 7.03348 4.00000
4.00000 7.03348 4.00000
4.00000 7.03348 4.00000
4.00000 7.03348 4.00000
4.00000 7.03348 4.00000
4.00000 7.03348 4.00000
4.00000 7.03348 4.00000
4.00000 7.03348 4.00000
4.00000 7.03348 4.00000
4.00000 7.03348 4.00000
4.00000 7.03348 4.00000
4.00000 7.03348 4.00000
4.00000 7.03348 4.00000
4.00000 7.03348 4.00000
4.00000 7.03348 4.00000
4.00000 7.03348 4.00000
4.00000 7.03348 4.00000
4.00000 7.03348 4.00000
4.00000 7.03348 4.00000
4.00000 7.03348 4.00000
4.00000 7.03348 4.00000
4.00000 7.03348 4.00000
4.00000 7.03348 4.00000
4.00000 7.03348 4.00000
4.00000 7.03348 4.00000
4.00000 7.03348 4.00000
4.00000 7.03348 4.00000
4.00000 7.03348 4.00000
4.00000 7.03348 4.00000
4.00000 7.03348 4.00000
4.00000 7.03348 4.00000
4.00000 7.03348 4.00000
4.00000 7.03348 4.00000
4.00000 7.03348 4.00000
4.00000 7.03348 4.00000
4.00000 7.03348 4.00000
4.00000 7.03348 4.00000
4.00000 7.03348 4.00000
4.00000 7.03348 4.00000
4.00000 7.03348 4.00000
4.00000 7.03348 4.00000
4.00000 7.03348 4.00000
4.00000 7.03348 4.00000
4.00000 7.03348 4.00000
4.00000 7.03348 4.00000
4.00000 7.03348 4.00000
4.00000 7.03348 4.00000
4.00000 7.03348 4.00000
4.00000 7.03348 4.00000
4.00000 7.03348 4.00000
4.00000 7.03348 4.00000
4.00000 7.03348 4.00000
4.00000 7.03348 4.00000
4.00000 7.03348 4.00000
4.00000 7.03348 4.00000
4.00000 7.03348 4.00000
4.00000 7.03348 4.00000
4.00000 7.03348 4.00000
4.00000 7.03348 4.00000
4.00000 7.03348 4.00000
4.00000 7.03348 4.00000
4.00000 7.03348 4.00000
4.00000 7.03348 4.00000
4.00000 7.03348 4.00000
4.00000 7.03348 4.00000
4.00000 7.03348 4.00000
4.00000 7.03348 4.00000
4.00000 7.03347 4.00000
4.00000 7.03347 4.00000
4.00000 7.03347 4.00000
4.00000 7.03347 4.00000
4.00000 7.03347 4.00000
4.00000 7.03348 4.00000
4.00000 7.03348 4.00000
4.00000 7.03348 4.00000
4.00000 7.03348 4.00000
4.00000 7.03348 4.00000
4.00000 7.03348 4.00000
4.00000 7.03348 4.00000
4.00000 7.03348 4.00000
4.00000 7.03348 4.00000
4.00000 7.03348 4.00000
4.00000 7.03348 4.00000
4.00000 7.03348 4.00000
4.00000 7.03348 4.00000
4.00000 7.03348 4.00000
4.00000 7.03348 4.00000
4.00000 7.03349 4.00000
4.00000 7.03348 4.00000
4.00000 7.03348 4.00000
4.00000 7.03348 4.00000
4.00000 7.03348 4.00000
4.00000 7.03350 4.00000
4.00000 7.03348 4.00000
4.00000 7.03349 4.00000
4.00306 7.09196 4.00306
4.00701 7.16901 4.00701
4.01091 7.24623 4.01091
4.01477 7.32360 4.01477
4.01860 7.40109 4.01860
4.02242 7.47865 4.02242
4.02626 7.55626 4.02625
4.03011 7.63388 4.03011
4.03400 7.71149 4.03400
4.03795 7.78902 4.03795
4.04199 7.86645 4.04199
4.04613 7.94373 4.04613
4.05040 8.02080 4.05040
4.05483 8.09759 4.05483
4.05947 8.17404 4.05947
4.06434 8.25006 4.06434
4.06951 8.32555 4.06951
4.07503 8.40037 4.07503
4.08098 8.47440 4.08098
4.08745 8.54743 4.08745
4.09456 8.61924 4.09456
4.10243 8.68956 4.10243
4.11103 8.75846 4.11104
4.12039 8.82591 4.12039
4.13055 8.89180 4.13055
4.14155 8.95604 4.14155
4.15345 9.01853 4.15345
4.16629 9.07919 4.16629
4.18009 9.13797 4.18009
4.19488 9.19482 4.19487
4.21066 9.24972 4.21065
4.22743 9.30268 4.22743
4.24518 9.35371 4.24518
4.26390 9.40287 4.26390
4.28354 9.45020 4.28354
4.30408 9.49579 4.30408
4.32546 9.53972 4.32546
4.34765 9.58208 4.34765
4.37061 9.62294 4.37061
4.39428 9.66240 4.39428
4.41864 9.70053 4.41864
4.44367 9.73735 4.44367
4.46936 9.77287 4.46937
4.49577 9.80702 4.49577
4.52298 9.83959 4.52298
4.55123 9.87010 4.55123
4.58108 9.89746 4.58108
4.61383 9.91903 4.61383
4.01488 7.32586 7.89306
4.01298 7.28762 8.02036
4.01141 7.25616 8.14057
4.01009 7.22979 8.25547
4.00896 7.20738 8.36625
4.00798 7.18812 8.47376
4.00714 7.17142 8.57860
4.00639 7.15684 8.68125
4.00574 7.14405 8.78205
4.00516 7.13277 8.88129
4.00465 7.12279 8.97921
4.00419 7.11392 9.07597
4.00379 7.10602 9.17174
4.00342 7.09893 9.26670
4.00309 7.09263 9.36085
4.00280 7.08696 9.45436
4.00253 7.08188 9.54729
4.00230 7.07730 9.63970
4.00208 7.07318 9.73167
4.00189 7.06946 9.82322
4.00171 7.06611 9.91443
4.00155 7.06308 10.00532
4.00141 7.06034 10.09593
4.00128 7.05786 10.18629
4.00116 7.05562 10.27641
4.00106 7.05359 10.36635
4.00096 7.05174 10.45610
4.00087 7.05007 10.54570
4.00079 7.04856 10.63516
4.00072 7.04719 10.72449
4.00066 7.04594 10.81371
4.00059 7.04480 10.90284
4.00054 7.04377 10.99187
4.00049 7.04284 11.08083
4.00045 7.04201 11.16969
4.00041 7.04122 11.25854
4.00037 7.04052 11.34730
4.00034 7.03988 11.43603
4.00030 7.03931 11.52471
4.00028 7.03878 11.61335
4.00025 7.03830 11.70198
4.00023 7.03786 11.79057
4.00021 7.03746 11.87913
4.00019 7.03710 11.96768
4.00017 7.03677 12.05622
4.00016 7.03648 12.14474
4.00014 7.03621 12.23326
4.00013 7.03596 12.32177
4.00012 7.03574 12.41027
4.00011 7.03554 12.49878
4.00010 7.03535 12.58728
4.00009 7.03518 12.67578
4.00008 7.03503 12.76429
4.00007 7.03489 12.85280
4.00006 7.03476 12.94132
4.00006 7.03464 13.02984
4.00005 7.03454 13.11837
4.00005 7.03444 13.20690
4.00004 7.03435 13.29544
4.00004 7.03427 13.38399
4.00004 7.03420 13.47255
4.00003 7.03413 13.56112
4.00003 7.03407 13.64969
4.00003 7.03402 13.73828
4.00002 7.03397 13.82688
4.00002 7.03392 13.91549
4.00002 7.03388 14.00410
4.00002 7.03384 14.09273
4.00002 7.03381 14.18137
4.00001 7.03378 14.27002
4.00001 7.03375 14.35869
4.00001 7.03372 14.44736
4.00001 7.03370 14.53605
4.00001 7.03368 14.62474
4.00001 7.03366 14.71345
4.00001 7.03364 14.80217
4.00001 7.03362 14.89090
4.00001 7.03361 14.97964
4.00001 7.03360 15.06840
4.00001 7.03358 15.15716
4.00000 7.03357 15.24594
4.00000 7.03356 15.33473
4.00000 7.03357 15.42315
4.00000 7.03356 15.51197
4.00000 7.03356 15.60079
4.00000 7.03355 15.68962
4.00000 7.03354 15.77847
4.00000 7.03354 15.86733
4.00000 7.03353 15.95620
4.00000 7.03353 16.04508
4.00000 7.03352 16.13397
4.00000 7.03352 16.22287
4.00000 7.03352 16.31178
4.00000 7.03351 16.40071
4.00000 7.03351 16.48964
4.00000 7.03351 16.57859
4.00000 7.03350 16.66755
4.00000 7.03350 16.75652
4.00000 7.03350 16.84550
4.00000 7.03350 16.93448
4.00000 7.03350 17.02348
4.00000 7.03349 17.11249
4.00000 7.03349 17.20151
4.00000 7.03349 17.29054
4.00000 7.03349 17.37958
4.00000 7.03349 17.46863
4.00000 7.03349 17.55769
4.00000 7.03349 17.64676
4.00000 7.03349 17.73584
4.00000 7.03349 17.82493
4.00000 7.03349 17.91403
4.00000 7.03349 18.00313
4.00000 7.03348 18.09225
4.00000 7.03348 18.18138
4.00000 7.03348 18.27051
4.00000 7.03348 18.35966
4.00000 7.03348 18.44881
4.00000 7.03348 18.53797
4.00000 7.03348 18.62714
4.00000 7.03348 18.71632
4.00000 7.03348 18.80551
4.00000 7.03348 18.89471
4.00000 7.03348 18.98391
4.00000 7.03348 19.07313
4.00000 7.03348 19.16235
4.00000 7.03348 19.25158
4.00000 7.03348 19.34082
4.00000 7.03348 19.43006
4.00000 7.03348 19.51932
4.00000 7.03348 19.60858
4.00000 7.03348 19.69785
4.00000 7.03348 19.78713
4.00000 7.03348 19.87642
4.00000 7.03348 19.96571
4.00000 7.03348 20.05502
4.00000 7.03348 20.14433
4.00000 7.03348 20.23364
4.00000 7.03348 20.32297
4.00000 7.03348 20.41230
4.00000 7.03348 20.50164
4.00000 7.03348 20.59099
4.00000 7.03348 20.68034
4.00000 7.03348 20.76970
4.00000 7.03348 20.85907
4.00000 7.03348 20.94845
4.00000 7.03348 21.03783
4.00000 7.03348 21.12722
4.00000 7.03348 21.21662
4.00000 7.03348 21.30602
4.00000 7.03348 21.39543
4.00000 7.03348 21.48485
4.00000 7.03348 21.57427
4.00000 7.03348 21.66370
4.00000 7.03348 21.75313
4.00000 7.03348 21.84258
4.00000 7.03348 21.93203
4.00000 7.03348 22.02148
4.00000 7.03348 22.11095
4.00000 7.03348 22.20041
4.00000 7.03348 22.28989
4.00000 7.03348 22.37937
4.00000 7.03348 22.46886
4.00000 7.03348 22.55835
4.00000 7.03348 22.64785
4.00000 7.03348 22.73735
4.00000 7.03348 22.82687
4.00000 7.03348 22.91638
4.00000 7.03348 23.00591
4.00000 7.03348 23.09543
4.00000 7.03348 23.18497
4.00000 7.03348 23.27451
4.00000 7.03348 23.36405
4.00000 7.03348 23.45361
4.00000 7.03348 23.54316
4.00000 7.03348 23.63273
4.00000 7.03348 23.72229
4.00000 7.03348 23.81187
4.00000 7.03348 23.90145
4.00000 7.03348 23.99103
4.00000 7.03348 24.08062
4.00000 7.03348 24.17021
4.00000 7.03348 24.25982
4.00000 7.03348 24.34942
4.00000 7.03348 24.43903
4.00000 7.03348 24.52865
4.00000 7.03348 24.61827
4.00000 7.03348 24.70789
4.00000 7.03348 24.79752
4.00000 7.03348 24.88716
4.00000 7.03348 24.97680
4.00000 7.03348 25.06645
4.00000 7.03348 25.15610
4.00000 7.03348 25.24575
4.00000 7.03348 25.33541
4.00000 7.03348 25.42508
4.00000 7.03348 25.51475
4.00000 7.03348 25.60442
4.00000 7.03348 25.69410
4.00000 7.03348 25.78378
4.00000 7.03348 25.87347
4.00000 7.03348 25.96316
4.00000 7.03348 26.05286
4.00000 7.03348 26.14256
4.00000 7.03348 26.23227
4.00000 7.03348 26.32198
4.00000 7.03348 26.41169
4.00000 7.03348 26.50141
4.00000 7.03348 26.59114
4.00000 7.03348 26.68086
4.00000 7.03348 26.77060
4.00000 7.03348 26.86033
4.00000 7.03348 26.95007
4.00000 7.03348 27.03982
4.00000 7.03348 27.12957
4.00000 7.03348 27.21932
4.00000 7.03348 27.30908
4.00000 7.03348 27.39884
4.00000 7.03348 27.48860
4.00000 7.03348 27.57837
4.00000 7.03348 27.66814
4.00000 7.03348 27.75792
4.00000 7.03348 27.84770
4.00000 7.03348 27.93748
4.00000 7.03348 28.02727
4.00000 7.03348 28.11707
4.00000 7.03348 28.20686
4.00000 7.03348 28.29666
4.00000 7.03348 28.38646
4.00000 7.03348 28.47627

Angle 0.468359 5.931724

4.00000 7.03348 4.00000
4.00000 7.03348 4.00000
4.00000 7.03348 4.00000
4.00000 7.03348 4.00000
4.00000 7.03348 4.00000
4.00000 7.03348 4.00000
4.00000 7.03348 4.00000
4.00000 7.03348 4.00000
4.00000 7.03348 4.00000
4.00000 7.03348 4.00000
4.00000 7.03348 4.00000
4.00000 7.03348 4.00000
4.00000 7.03348 4.00000
4.00000 7.03348 4.00000
4.00000 7.03348 4.00000
4.00000 7.03348 4.00000
4.00000 7.03349 4.00000
4.00000 7.03348 4.00000
4.00000 7.03348 4.00000
4.00000 7.03348 4.00000
4.00000 7.03348 4.00000
4.00000 7.03348 4.00000
4.00000 7.03348 4.00000
4.00000 7.03348 4.00000
4.00000 7.03348 4.00000
4.00000 7.03348 4.00000
4.00000 7.03348 4.00000
4.00000 7.03348 4.00000
4.00000 7.03348 4.00000
4.00000 7.03349 4.00000
4.00000 7.03349 4.00000
4.00000 7.03348 4.00000
4.00000 7.03348 4.00000
4.00000 7.03348 4.00000
4.00000 7.03349 4.00000
4.00000 7.03348 4.00000
4.00000 7.03348 4.00000
4.00132 7.05860 4.00132
4.00529 7.13536 4.00530
4.00921 7.21232 4.00921
4.01307 7.28944 4.01307
4.01690 7.36668 4.01690
4.02072 7.44402 4.02072
4.02453 7.52143 4.02453
4.02836 7.59887 4.02836
4.03223 7.67630 4.03223
4.03614 7.75369 4.03614
4.04013 7.83100 4.04013
4.04421 7.90818 4.04421
4.04840 7.98517 4.04840
4.05275 8.06193 4.05275
4.05728 8.13839 4.05728
4.06202 8.21445 4.06202
4.06704 8.29004 4.06704
4.07237 8.36504 4.07237
4.07809 8.43931 4.07809
4.08429 8.51269 4.08429
4.09106 8.58496 4.09106
4.09854 8.65588 4.09854
4.10678 8.72531 4.10678
4.11575 8.79334 4.11575
4.12549 8.85988 4.12549
4.13605 8.92481 4.13605
4.14749 8.98804 4.14749
4.15984 9.04950 4.15984
4.17313 9.10910 4.17313
4.18740 9.16681 4.18740
4.20266 9.22258 4.20266
4.21891 9.27641 4.21891
4.23614 9.32831 4.23614
4.25434 9.37831 4.25434
4.27349 9.42647 4.27349
4.29354 9.47286 4.29354
4.31447 9.51754 4.31447
4.33621 9.56062 4.33621
4.35874 9.60216 4.35874
4.38201 9.64227 4.38201
4.40598 9.68102 4.40598
4.43063 9.71845 4.43063
4.45594 9.75459 4.45594
4.48192 9.78941 4.48192
4.50865 9.82279 4.50865
4.53627 9.85441 4.53627
4.56514 9.88358 4.56514
4.59606 9.90865 4.59607
4.63112 9.92551 4.63112
4.01394 7.30691 7.95390
4.01221 7.27216 8.07741
4.01076 7.24329 8.19479
4.00954 7.21894 8.30746
4.00849 7.19809 8.41649
4.00758 7.18010 8.52255
4.00678 7.16446 8.62618
4.00608 7.15077 8.72778
4.00547 7.13871 8.82771
4.00492 7.12806 8.92618
4.00444 7.11861 9.02343
4.00400 7.11021 9.11960
4.00361 7.10271 9.21485
4.00327 7.09600 9.30929
4.00296 7.09000 9.40303
4.00268 7.08461 9.49614
4.00242 7.07976 9.58872
4.00220 7.07540 9.68080
4.00199 7.07147 9.77246
4.00181 7.06793 9.86375
4.00164 7.06473 9.95469
4.00149 7.06183 10.04534
4.00135 7.05921 10.13572
4.00123 7.05685 10.22587
4.00112 7.05470 10.31580
4.00101 7.05276 10.40555
4.00092 7.05100 10.49512
4.00084 7.04940 10.58455
4.00076 7.04794 10.67386
4.00069 7.04663 10.76303
4.00063 7.04543 10.85211
4.00057 7.04436 10.94108
4.00052 7.04336 11.02999
4.00047 7.04247 11.11880
4.00043 7.04165 11.20758
4.00039 7.04092 11.29626
4.00035 7.04024 11.38493
4.00032 7.03963 11.47354
4.00030 7.03908 11.56210
4.00027 7.03856 11.65065
4.00024 7.03811 11.73917
4.00022 7.03769 11.82766
4.00020 7.03732 11.91610
4.00018 7.03696 12.00457
4.00017 7.03664 12.09301
4.00015 7.03636 12.18144
4.00014 7.03610 12.26986
4.00012 7.03586 12.35828
4.00011 7.03565 12.44670
4.00010 7.03545 12.53512
4.00009 7.03528 12.62353
4.00008 7.03511 12.71195
4.00008 7.03496 12.80038
4.00007 7.03483 12.88881
4.00006 7.03471 12.97724
4.00006 7.03460 13.06568
4.00005 7.03449 13.15413
4.00005 7.03440 13.24259
4.00004 7.03432 13.33105
4.00004 7.03424 13.41953
4.00003 7.03417 13.50801
4.00003 7.03411 13.59651
4.00003 7.03405 13.68502
4.00003 7.03399 13.77353
4.00002 7.03395 13.86206
4.00002 7.03390 13.95060
4.00002 7.03386 14.03916
4.00002 7.03383 14.12772
4.00002 7.03379 14.21630
4.00001 7.03376 14.30489
4.00001 7.03374 14.39349
4.00001 7.03371 14.48210
4.00001 7.03369 14.57073
4.00001 7.03367 14.65937
4.00001 7.03365 14.74802
4.00001 7.03363 14.83668
4.00001 7.03362 14.92536
4.00001 7.03360 15.01405
4.00001 7.03359 15.10275
4.00001 7.03358 15.19147
4.00000 7.03357 15.28019
4.00000 7.03356 15.36893
4.00000 7.03357 15.45671
4.00000 7.03356 15.54544
4.00000 7.03355 15.63418
4.00000 7.03355 15.72294
4.00000 7.03354 15.81172
4.00000 7.03353 15.90050
4.00000 7.03353 15.98930
4.00000 7.03353 16.07811
4.00000 7.03352 16.16694
4.00000 7.03352 16.25578
4.00000 7.03351 16.34463
4.00000 7.03351 16.43349
4.00000 7.03351 16.52236
4.00000 7.03351 16.61125
4.00000 7.03350 16.70015
4.00000 7.03350 16.78906
4.00000 7.03350 16.87798
4.00000 7.03350 16.96692
4.00000 7.03350 17.05587
4.00000 7.03349 17.14482
4.00000 7.03349 17.23379
4.00000 7.03349 17.32277
4.00000 7.03349 17.41176
4.00000 7.03349 17.50077
4.00000 7.03349 17.58978
4.00000 7.03349 17.67880
4.00000 7.03349 17.76784
4.00000 7.03349 17.85689
4.00000 7.03349 17.94594
4.00000 7.03349 18.03501
4.00000 7.03348 18.12408
4.00000 7.03348 18.21317
4.00000 7.03348 18.30227
4.00000 7.03348 18.39137
4.00000 7.03348 18.48049
4.00000 7.03348 18.56962
4.00000 7.03348 18.65875
4.00000 7.03348 18.74790
4.00000 7.03348 18.83705
4.00000 7.03348 18.92622
4.00000 7.03348 19.01539
4.00000 7.03348 19.10457
4.00000 7.03348 19.19376
4.00000 7.03348 19.28296
4.00000 7.03348 19.37217
4.00000 7.03348 19.46139
4.00000 7.03348 19.55062
4.00000 7.03348 19.63986
4.00000 7.03348 19.72910
4.00000 7.03348 19.81835
4.00000 7.03348 19.90761
4.00000 7.03348 19.99688
4.00000 7.03348 20.08616
4.00000 7.03348 20.17545
4.00000 7.03348 20.26474
4.00000 7.03348 20.35404
4.00000 7.03348 20.44335
4.00000 7.03348 20.53267
4.00000 7.03348 20.62200
4.00000 7.03348 20.71133
4.00000 7.03348 20.80067
4.00000 7.03348 20.89002
4.00000 7.03348 20.97938
4.00000 7.03348 21.06874
4.00000 7.03348 21.15811
4.00000 7.03348 21.24749
4.00000 7.03348 21.33687
4.00000 7.03348 21.42627
4.00000 7.03348 21.51567
4.00000 7.03348 21.60507
4.00000 7.03348 21.69449
4.00000 7.03348 21.78391
4.00000 7.03348 21.87334
4.00000 7.03348 21.96277
4.00000 7.03348 22.05221
4.00000 7.03348 22.14166
4.00000 7.03348 22.23111
4.00000 7.03348 22.32057
4.00000 7.03348 22.41004
4.00000 7.03348 22.49952
4.00000 7.03348 22.58900
4.00000 7.03348 22.67848
4.00000 7.03348 22.76798
4.00000 7.03348 22.85748
4.00000 7.03348 22.94698
4.00000 7.03348 23.03649
4.00000 7.03348 23.12601
4.00000 7.03348 23.21553
4.00000 7.03348 23.30506
4.00000 7.03348 23.39460
4.00000 7.03348 23.48414
4.00000 7.03348 23.57369
4.00000 7.03348 23.66324
4.00000 7.03348 23.75280
4.00000 7.03348 23.84237
4.00000 7.03348 23.93194
4.00000 7.03348 24.02151
4.00000 7.03348 24.11109
4.00000 7.03348 24.20068
4.00000 7.03348 24.29027
4.00000 7.03348 24.37987
4.00000 7.03348 24.46947
4.00000 7.03348 24.55908
4.00000 7.03348 24.64869
4.00000 7.03348 24.73831
4.00000 7.03348 24.82794
4.00000 7.03348 24.91757
4.00000 7.03348 25.00720
4.00000 7.03348 25.09684
4.00000 7.03348 25.18649
4.00000 7.03348 25.27614
4.00000 7.03348 25.36579
4.00000 7.03348 25.45545
4.00000 7.03348 25.54511
4.00000 7.03348 25.63478
4.00000 7.03348 25.72446
4.00000 7.03348 25.81414
4.00000 7.03348 25.90382
4.00000 7.03348 25.99351
4.00000 7.03348 26.08320
4.00000 7.03348 26.17290
4.00000 7.03348 26.26260
4.00000 7.03348 26.35231
4.00000 7.03348 26.44202
4.00000 7.03348 26.53173
4.00000 7.03348 26.62145
4.00000 7.03348 26.71118
4.00000 7.03348 26.80090
4.00000 7.03348 26.89064
4.00000 7.03348 26.98038
4.00000 7.03348 27.07012
4.00000 7.03348 27.15986
4.00000 7.03348 27.24961
4.00000 7.03348 27.33937
4.00000 7.03348 27.42913
4.00000 7.03348 27.51889
4.00000 7.03348 27.60865
4.00000 7.03348 27.69843
4.00000 7.03348 27.78820
4.00000 7.03348 27.87798
4.00000 7.03348 27.96776
4.00000 7.03348 28.05755
4.00000 7.03348 28.14734
4.00000 7.03348 28.23713
4.00000 7.03348 28.32693
4.00000 7.03348 28.41673
4.00000 7.03348 28.50654
4.00000 7.03348 28.59635
4.00000 7.03348 28.68616
4.00000 7.03348 28.77598
4.00000 7.03348 28.86580
4.00000 7.03348 28.95562
4.00000 7.03348 29.04545
4.00000 7.03348 29.13528
4.00000 7.03348 29.22512
4.00000 7.03348 29.31496
4.00000 7.03348 29.40480
4.00000 7.03348 29.49465
4.00000 7.03348 29.58450
4.00000 7.03348 29.67435
4.00000 7.03348 29.76420
4.00000 7.03348 29.85406
4.00000 7.03348 29.94393
4.00000 7.03348 30.03379
4.00000 7.03348 30.12366
4.00000 7.03348 30.21354
4.00000 7.03348 30.30341
4.00000 7.03348 30.39329
4.00000 7.03348 30.48318
4.00000 7.03348 30.57306
4.00000 7.03348 30.66295
4.00000 7.03348 30.75284
4.00000 7.03348 30.84274
4.00000 7.03348 30.93264
4.00000 7.03348 31.02254
4.00000 7.03348 31.11244
4.00000 7.03348 31.20235
4.00000 7.03348 31.29226
4.00000 7.03348 31.38218
4.00000 7.03348 31.47209
4.00000 7.03348 31.56201
4.00000 7.03348 31.65194
4.00000 7.03348 31.74186
4.00000 7.03348 31.83179
4.00000 7.03348 31.92172
4.00000 7.03348 32.01166
4.00000 7.03348 32.10160
4.00000 7.03348 32.19154
4.00000 7.03348 32.28148
4.00000 7.03348 32.37142
4.00000 7.03348 32.46137
4.00000 7.03348 32.55133
4.00000 7.03348 32.64128
4.00000 7.03348 32.73124
4.00000 7.03348 32.82120
4.00000 7.03348 32.91116
4.00000 7.03348 33.00112
4.00000 7.03348 33.09109
4.00000 7.03348 33.18106
4.00000 7.03348 33.27104
4.00000 7.03348 33.36101
4.00000 7.03348 33.45099
4.00000 7.03348 33.54097
4.00000 7.03348 33.63095
4.00000 7.03348 33.72094
4.00000 7.03348 33.81093
4.00000 7.03348 33.90092
4.00000 7.03348 33.99091
4.00000 7.03348 34.08091
4.00000 7.03348 34.17091
4.00000 7.03348 34.26091
4.00000 7.03348 34.35091
4.00000 7.03348 34.44092
4.00000 7.03348 34.53093
4.00000 7.03348 34.62094
4.00000 7.03348 34.71095
4.00000 7.03348 34.80096
4.00000 7.03348 34.89098
4.00000 7.03348 34.98100
4.00000 7.03348 35.07102
4.00000 7.03348 35.16105
4.00000 7.03348 35.25108
4.00000 7.03348 35.34110
4.00000 7.03348 35.43114
4.00000 7.03348 35.52117
4.00000 7.03348 35.61121
4.00000 7.03348 35.70124
4.00000 7.03348 35.79128
4.00000 7.03348 35.88133
4.00000 7.03348 35.97137
4.00000 7.03348 36.06142
4.00000 7.03348 36.15147

Angle 0.349777 3.903585

4.00000 7.03348 4.00000
4.00000 7.03348 4.00000
4.00000 7.03348 4.00000
4.00000 7.03348 4.00000
4.00000 7.03348 4.00000
4.00000 7.03348 4.00000
4.00000 7.03348 4.00000
4.00000 7.03348 4.00000
4.00000 7.03348 4.00000
4.00000 7.03348 4.00000
4.00000 7.03348 4.00000
4.00000 7.03348 4.00000
4.00000 7.03348 4.00000
4.00000 7.03348 4.00000
4.00000 7.03348 4.00000
4.00000 7.03348 4.00000
4.00000 7.03348 4.00000
4.00000 7.03348 4.00000
4.00000 7.03348 4.00000
4.00000 7.03348 4.00000
4.00000 7.03348 4.00000
4.00000 7.03348 4.00000
4.00000 7.03348 4.00000
4.00000 7.03348 4.00000
4.00000 7.03348 4.00000
4.00000 7.03348 4.00000
4.00000 7.03348 4.00000
4.00000 7.03348 4.00000
4.00000 7.03348 4.00000
4.00000 7.03348 4.00000
4.00000 7.03348 4.00000
4.00000 7.03348 4.00000
4.00000 7.03348 4.00000
4.00000 7.03348 4.00000
4.00000 7.03348 4.00000
4.00000 7.03348 4.00000
4.00000 7.03348 4.00000
4.00000 7.03348 4.00000
4.00000 7.03348 4.00000
4.00000 7.03348 4.00000
4.00000 7.03348 4.00000
4.00000 7.03348 4.00000
4.00000 7.03348 4.00000
4.00000 7.03348 4.00000
4.00000 7.03348 4.00000
4.00000 7.03348 4.00000
4.00000 7.03348 4.00000
4.00000 7.03348 4.00000
4.00000 7.03348 4.00000
4.00000 7.03348 4.00000
4.00000 7.03348 4.00000
4.00000 7.03348 4.00000
4.00000 7.03348 4.00000
4.00000 7.03348 4.00000
4.00000 7.03348 4.00000
4.00000 7.03348 4.00000
4.00000 7.03348 4.00000
4.00000 7.03348 4.00000
4.00000 7.03348 4.00000
4.00000 7.03348 4.00000
4.00000 7.03348 4.00000
4.00000 7.03348 4.00000
4.00000 7.03348 4.00000
4.00000 7.03348 4.00000
4.00000 7.03348 4.00000
4.00000 7.03348 4.00000
4.00000 7.03348 4.00000
4.00000 7.03348 4.00000
4.00000 7.03348 4.00000
4.00000 7.03348 4.00000
4.00000 7.03348 4.00000
4.00000 7.03348 4.00000
4.00000 7.03348 4.00000
4.00000 7.03348 4.00000
4.00000 7.03348 4.00000
4.00000 7.03348 4.00000
4.00000 7.03348 4.00000
4.00000 7.03348 4.00000
4.00000 7.03348 4.00000
4.00000 7.03348 4.00000
4.00000 7.03348 4.00000
4.00000 7.03348 4.00000
4.00000 7.03348 4.00000
4.00000 7.03348 4.00000
4.00000 7.03348 4.00000
4.00000 7.03348 4.00000
4.00000 7.03348 4.00000
4.00000 7.03348 4.00000
4.00000 7.03348 4.00000
4.00000 7.03348 4.00000
4.00000 7.03348 4.00000
4.00000 7.03348 4.00000
4.00000 7.03348 4.00000
4.00000 7.03348 4.00000
4.00000 7.03348 4.00000
4.00000 7.03348 4.00000
4.00000 7.03348 4.00000
4.00000 7.03348 4.00000
4.00000 7.03348 4.00000
4.00000 7.03348 4.00000
4.00000 7.03348 4.00000
4.00000 7.03348 4.00000
4.00000 7.03348 4.00000
4.00000 7.03348 4.00000
4.00000 7.03348 4.00000
4.00000 7.03348 4.00000
4.00000 7.03348 4.00000
4.00000 7.03348 4.00000
4.00000 7.03348 4.00000
4.00000 7.03348 4.00000
4.00000 7.03348 4.00000
4.00000 7.03348 4.00000
4.00000 7.03348 4.00000
4.00000 7.03348 4.00000
4.00000 7.03348 4.00000
4.00000 7.03348 4.00000
4.00000 7.03348 4.00000
4.00000 7.03348 4.00000
4.00000 7.03348 4.00000
4.00000 7.03348 4.00000
4.00000 7.03348 4.00000
4.00000 7.03348 4.00000
4.00000 7.03348 4.00000
4.00000 7.03348 4.00000
4.00000 7.03348 4.00000
4.00000 7.03348 4.00000
4.00000 7.03348 4.00000
4.00000 7.03348 4.00000
4.00000 7.03348 4.00000
4.00000 7.03348 4.00000
4.00000 7.03348 4.00000
4.00000 7.03348 4.00000
4.00000 7.03348 4.00000
4.00000 7.03348 4.00000
4.00000 7.03348 4.00000
4.00000 7.03348 4.00000
4.00000 7.03348 4.00000
4.00000 7.03348 4.00000
4.00000 7.03348 4.00000
4.00000 7.03348 4.00000
4.00000 7.03348 4.00000
4.00000 7.03348 4.00000
4.00000 7.03348 4.00000
4.00000 7.03348 4.00000
4.00000 7.03348 4.00000
4.00000 7.03348 4.00000
4.00000 7.03348 4.00000
4.00000 7.03348 4.00000
4.00000 7.03348 4.00000
4.00000 7.03348 4.00000
4.00000 7.03348 4.00000
4.00000 7.03348 4.00000
4.00000 7.03348 4.00000
4.00000 7.03348 4.00000
4.00000 7.03348 4.00000
4.00000 7.03348 4.00000
4.00000 7.03348 4.00000
4.00000 7.03348 4.00000
4.00000 7.03348 4.00000
4.00000 7.03348 4.00000
4.00000 7.03348 4.00000
4.00000 7.03348 4.00000
4.00000 7.03348 4.00000
4.00000 7.03348 4.00000
4.00000 7.03348 4.00000
4.00000 7.03348 4.00000
4.00000 7.03348 4.00000
4.00000 7.03348 4.00000
4.00000 7.03348 4.00000
4.00000 7.03348 4.00000
4.00000 7.03348 4.00000
4.00000 7.03348 4.00000
4.00000 7.03348 4.00000
4.00000 7.03348 4.00000
4.00000 7.03348 4.00000
4.00000 7.03348 4.00000
4.00000 7.03348 4.00000
4.00000 7.03348 4.00000
4.00000 7.03348 4.00000
4.00000 7.03348 4.00000
4.00000 7.03348 4.00000
4.00000 7.03348 4.00000
4.00000 7.03348 4.00000
4.00000 7.03348 4.00000
4.00000 7.03348 4.00000
4.00000 7.03348 4.00000
4.00000 7.03348 4.00000
4.00000 7.03348 4.00000
4.00000 7.03348 4.00000
4.00000 7.03348 4.00000
4.00000 7.03348 4.00000
4.00000 7.03348 4.00000
4.00000 7.03348 4.00000
4.00000 7.03348 4.00000
4.00000 7.03348 4.00000
4.00000 7.03348 4.00000
4.00000 7.03348 4.00000
4.00000 7.03349 4.00000
4.00000 7.03349 4.00000
4.00000 7.03348 4.00000
4.00000 7.03348 4.00000
4.00000 7.03348 4.00000
4.00000 7.03348 4.00000
4.00000 7.03348 4.00000
4.00000 7.03348 4.00000
4.00000 7.03348 4.00000
4.00000 7.03348 4.00000
4.00099 7.05229 4.00099
4.00448 7.11951 4.00448
4.00793 7.18700 4.00793
4.01134 7.25472 4.01134
4.01472 7.32268 4.01472
4.01810 7.39083 4.01810
4.02146 7.45915 4.02146
4.02484 7.52763 4.02484
4.02823 7.59623 4.02823
4.03166 7.66493 4.03166
4.03512 7.73370 4.03512
4.03865 7.80251 4.03865
4.04225 7.87134 4.04225
4.04593 7.94013 4.04593
4.04973 8.00886 4.04973
4.05365 8.07747 4.05365
4.05773 8.14591 4.05773
4.06200 8.21412 4.06200
4.06649 8.28204 4.06649
4.07124 8.34957 4.07124
4.07629 8.41663 4.07629
4.08172 8.48308 4.08172
4.08758 8.54879 4.08758
4.09397 8.61358 4.09397
4.10098 8.67725 4.10098
4.10861 8.73980 4.10861
4.11686 8.80127 4.11686
4.12575 8.86156 4.12575
4.13533 8.92059 4.13533
4.14564 8.97828 4.14564
4.15672 9.03457 4.15672
4.16858 9.08939 4.16858
4.18126 9.14270 4.18126
4.19478 9.19446 4.19478
4.20913 9.24465 4.20913
4.22433 9.29326 4.22433
4.24036 9.34031 4.24036
4.25722 9.38582 4.25722
4.27489 9.42982 4.27488
4.29333 9.47238 4.29333
4.31252 9.51353 4.31252
4.33243 9.55335 4.33243
4.35303 9.59190 4.35303
4.37429 9.62924 4.37429
4.39616 9.66544 4.39616
4.41864 9.70052 4.41864
4.44171 9.73454 4.44170
4.46535 9.76747 4.46535
4.48962 9.79928 4.48962
4.51456 9.82982 4.51456
4.54033 9.85878 4.54033
4.56726 9.88553 4.56726
4.59605 9.90864 4.59605
4.62839 9.92475 4.62839
7.93575 7.31243 4.01421
8.05183 7.27897 4.01255
8.16235 7.25090 4.01115
8.26857 7.22700 4.00995
8.37141 7.20640 4.00891
8.47151 7.18850 4.00800
8.56936 7.17281 4.00721
8.66533 7.15900 4.00650
8.75971 7.14676 4.00588
8.85275 7.13589 4.00532
8.94463 7.12619 4.00482
9.03551 7.11751 4.00438
9.12554 7.10972 4.00398
9.21481 7.10271 4.00361
9.30342 7.09641 4.00329
9.39146 7.09071 4.00299
9.47900 7.08556 4.00273
9.56609 7.08091 4.00248
9.65279 7.07669 4.00227
9.73916 7.07286 4.00206
9.82523 7.06937 4.00188
9.91100 7.06623 4.00172
9.99656 7.06336 4.00157
10.08190 7.06075 4.00143
10.16708 7.05837 4.00131
10.25208 7.05620 4.00119
10.33695 7.05423 4.00109
10.42170 7.05243 4.00100
10.50634 7.05079 4.00091
10.59090 7.04929 4.00083
10.67538 7.04792 4.00076
10.75978 7.04668 4.00069
10.84415 7.04554 4.00064
10.92846 7.04450 4.00058
11.01272 7.04355 4.00053
11.09697 7.04268 4.00048
11.18120 7.04189 4.00044
11.26540 7.04117 4.00040
11.34960 7.04051 4.00037
11.43379 7.03990 4.00034
11.51798 7.03935 4.00031
11.60216 7.03885 4.00029
11.68637 7.03839 4.00026
11.77060 7.03795 4.00023
11.85480 7.03758 4.00022
11.93905 7.03723 4.00020
12.02331 7.03690 4.00018
12.10757 7.03664 4.00016
12.19190 7.03634 4.00015
12.27622 7.03609 4.00014
12.36057 7.03587 4.00013
12.44495 7.03568 4.00011
12.52938 7.03547 4.00011
12.61382 7.03530 4.00010
12.69828 7.03515 4.00009
12.78279 7.03501 4.00008
12.86733 7.03486 4.00007
12.95190 7.03475 4.00007
13.03650 7.03465 4.00006
13.12117 7.03454 4.00005
13.20582 7.03444 4.00005
13.29054 7.03436 4.00005
13.37531 7.03428 4.00004
13.46012 7.03421 4.00004
13.54486 7.03416 4.00004
13.62971 7.03410 4.00003
13.71462 7.03404 4.00003
13.79956 7.03399 4.00003
13.88456 7.03394 4.00002
13.96959 7.03390 4.00002
14.05466 7.03386 4.00002
14.13978 7.03383 4.00002
14.22494 7.03380 4.00002
14.31014 7.03377 4.00001
14.39538 7.03374 4.00001
14.48066 7.03372 4.00001
14.56598 7.03369 4.00001
14.65134 7.03367 4.00001
14.73674 7.03366 4.00001
14.82217 7.03364 4.00001
14.90764 7.03362 4.00001
14.99315 7.03361 4.00001
15.07870 7.03360 4.00001
15.16428 7.03359 4.00000
15.24990 7.03358 4.00000
15.33555 7.03357 4.00000
15.42124 7.03356 4.00000
15.50696 7.03355 4.00000
15.59271 7.03354 4.00000
15.67850 7.03354 4.00000
15.76432 7.03353 4.00000
15.85018 7.03352 4.00000
15.93607 7.03352 4.00000
16.02198 7.03351 4.00000
16.10794 7.03351 4.00000
16.19392 7.03351 4.00000
16.27938 7.03352 4.00000
16.36543 7.03351 4.00000
16.45150 7.03351 4.00000
16.53761 7.03351 4.00000
16.62375 7.03351 4.00000
16.70992 7.03350 4.00000
16.79611 7.03350 4.00000
16.88234 7.03350 4.00000
16.96859 7.03350 4.00000
17.05488 7.03350 4.00000
17.14119 7.03349 4.00000
17.22753 7.03349 4.00000
17.31390 7.03349 4.00000
17.40029 7.03349 4.00000
17.48671 7.03349 4.00000
17.57316 7.03349 4.00000
17.65964 7.03349 4.00000
17.74614 7.03349 4.00000
17.83267 7.03349 4.00000
17.91923 7.03349 4.00000
18.00581 7.03349 4.00000
18.09241 7.03348 4.00000
18.17904 7.03348 4.00000
18.26570 7.03348 4.00000
18.35238 7.03348 4.00000
18.43908 7.03348 4.00000
18.52581 7.03348 4.00000
18.61256 7.03348 4.00000
18.69934 7.03348 4.00000
18.78614 7.03348 4.00000
18.87296 7.03348 4.00000
18.95981 7.03348 4.00000
19.04668 7.03348 4.00000
19.13357 7.03348 4.00000
19.22048 7.03348 4.00000
19.30742 7.03348 4.00000
19.39437 7.03348 4.00000
19.48135 7.03348 4.00000
19.56836 7.03348 4.00000
19.65538 7.03348 4.00000
19.74242 7.03348 4.00000
19.82949 7.03348 4.00000
19.91657 7.03348 4.00000

Angle 0.665965 3.561128

4.00000 7.03348 4.00000
4.00000 7.03348 4.00000
4.00000 7.03348 4.00000
4.00000 7.03348 4.00000
4.00000 7.03348 4.00000
4.00000 7.03348 4.00000
4.00000 7.03348 4.00000
4.00000 7.03348 4.00000
4.00000 7.03348 4.00000
4.00000 7.03348 4.00000
4.00000 7.03348 4.00000
4.00000 7.03348 4.00000
4.00000 7.03348 4.00000
4.00000 7.03348 4.00000
4.00000 7.03348 4.00000
4.00000 7.03348 4.00000
4.00000 7.03348 4.00000
4.00000 7.03348 4.00000
4.00000 7.03348 4.00000
4.00000 7.03348 4.00000
4.00000 7.03348 4.00000
4.00000 7.03348 4.00000
4.00000 7.03348 4.00000
4.00000 7.03348 4.00000
4.00000 7.03348 4.00000
4.00000 7.03348 4.00000
4.00000 7.03348 4.00000
4.00000 7.03348 4.00000
4.00000 7.03348 4.00000
4.00000 7.03348 4.00000
4.00000 7.03348 4.00000
4.00000 7.03348 4.00000
4.00000 7.03348 4.00000
4.00000 7.03348 4.00000
4.00000 7.03348 4.00000
4.00000 7.03348 4.00000
4.00000 7.03348 4.00000
4.00000 7.03348 4.00000
4.00000 7.03348 4.00000
4.00000 7.03348 4.00000
4.00000 7.03348 4.00000
4.00000 7.03348 4.00000
4.00000 7.03348 4.00000
4.00000 7.03348 4.00000
4.00000 7.03348 4.00000
4.00000 7.03348 4.00000
4.00000 7.03348 4.00000
4.00000 7.03348 4.00000
4.00000 7.03348 4.00000
4.00000 7.03348 4.00000
4.00000 7.03348 4.00000
4.00000 7.03348 4.00000
4.00000 7.03348 4.00000
4.00000 7.03348 4.00000
4.00000 7.03348 4.00000
4.00000 7.03348 4.00000
4.00000 7.03348 4.00000
4.00000 7.03348 4.00000
4.00000 7.03348 4.00000
4.00000 7.03348 4.00000
4.00000 7.03348 4.00000
4.00000 7.03348 4.00000
4.00000 7.03348 4.00000
4.00000 7.03348 4.00000
4.00000 7.03348 4.00000
4.00000 7.03348 4.00000
4.00000 7.03348 4.00000
4.00000 7.03348 4.00000
4.00000 7.03348 4.00000
4.00000 7.03348 4.00000
4.00000 7.03348 4.00000
4.00000 7.03348 4.00000
4.00000 7.03348 4.00000
4.00000 7.03348 4.00000
4.00000 7.03348 4.00000
4.00000 7.03348 4.00000
4.00000 7.03348 4.00000
4.00000 7.03348 4.00000
4.00000 7.03348 4.00000
4.00000 7.03348 4.00000
4.00000 7.03348 4.00000
4.00000 7.03348 4.00000
4.00000 7.03348 4.00000
4.00000 7.03348 4.00000
4.00000 7.03348 4.00000
4.00000 7.03348 4.00000
4.00000 7.03348 4.00000
4.00000 7.03348 4.00000
4.00000 7.03348 4.00000
4.00000 7.03348 4.00000
4.00000 7.03348 4.00000
4.00000 7.03348 4.00000
4.00000 7.03348 4.00000
4.00000 7.03348 4.00000
4.00000 7.03348 4.00000
4.00000 7.03348 4.00000
4.00000 7.03348 4.00000
4.00000 7.03348 4.00000
4.00000 7.03348 4.00000
4.00000 7.03348 4.00000
4.00000 7.03348 4.00000
4.00000 7.03348 4.00000
4.00000 7.03348 4.00000
4.00000 7.03348 4.00000
4.00000 7.03348 4.00000
4.00000 7.03348 4.00000
4.00000 7.03348 4.00000
4.00000 7.03348 4.00000
4.00000 7.03348 4.00000
4.00000 7.03348 4.00000
4.00000 7.03348 4.00000
4.00000 7.03348 4.00000
4.00000 7.03348 4.00000
4.00000 7.03348 4.00000
4.00000 7.03348 4.00000
4.00000 7.03348 4.00000
4.00000 7.03348 4.00000
4.00000 7.03348 4.00000
4.00000 7.03348 4.00000
4.00000 7.03348 4.00000
4.00000 7.03348 4.00000
4.00000 7.03348 4.00000
4.00000 7.03348 4.00000
4.00000 7.03348 4.00000
4.00000 7.03348 4.00000
4.00000 7.03348 4.00000
4.00000 7.03348 4.00000
4.00000 7.03348 4.00000
4.00000 7.03348 4.00000
4.00000 7.03348 4.00000
4.00000 7.03348 4.00000
4.00000 7.03348 4.00000
4.00000 7.03348 4.00000
4.00000 7.03348 4.00000
4.00000 7.03348 4.00000
4.00000 7.03348 4.00000
4.00000 7.03348 4.00000
4.00000 7.03348 4.00000
4.00000 7.03348 4.00000
4.00000 7.03348 4.00000
4.00000 7.03347 4.00000
4.00000 7.03348 4.00000
4.00000 7.03348 4.00000
4.00000 7.03348 4.00000
4.00000 7.03348 4.00000
4.00000 7.03348 4.00000
4.00000 7.03349 4.00000
4.00000 7.03349 4.00000
4.00000 7.03349 4.00000
4.00000 7.03349 4.00000
4.00000 7.03348 4.00000
4.00000 7.03348 4.00000
4.00000 7.03348 4.00000
4.00000 7.03348 4.00000
4.00000 7.03348 4.00000
4.00000 7.03348 4.00000
4.00000 7.03348 4.00000
4.00000 7.03348 4.00000
4.00000 7.03348 4.00000
4.00000 7.03348 4.00000
4.00000 7.03348 4.00000
4.00000 7.03348 4.00000
4.00000 7.03348 4.00000
4.00000 7.03348 4.00000
4.00000 7.03348 4.00000
4.00000 7.03348 4.00000
4.00000 7.03348 4.00000
4.00000 7.03348 4.00000
4.00000 7.03350 4.00000
4.00000 7.03348 4.00000
4.00000 7.03348 4.00000
4.00000 7.03348 4.00000
4.00000 7.03348 4.00000
4.00000 7.03348 4.00000
4.00000 7.03348 4.00000
4.00000 7.03348 4.00000
4.00000 7.03348 4.00000
4.00000 7.03348 4.00000
4.00000 7.03348 4.00000
4.00000 7.03348 4.00000
4.00000 7.03348 4.00000
4.00000 7.03348 4.00000
4.00000 7.03348 4.00000
4.00000 7.03348 4.00000
4.00000 7.03348 4.00000
4.00000 7.03348 4.00000
4.00000 7.03348 4.00000
4.00000 7.03348 4.00000
4.00000 7.03348 4.00000
4.00000 7.03348 4.00000
4.00000 7.03348 4.00000
4.00000 7.03348 4.00000
4.00000 7.03348 4.00000
4.00000 7.03348 4.00000
4.00000 7.03348 4.00000
4.00000 7.03348 4.00000
4.00000 7.03348 4.00000
4.00000 7.03348 4.00000
4.00000 7.03348 4.00000
4.00000 7.03348 4.00000
4.00000 7.03348 4.00000
4.00000 7.03348 4.00000
4.00000 7.03348 4.00000
4.00000 7.03348 4.00000
4.00000 7.03348 4.00000
4.00000 7.03348 4.00000
4.00000 7.03348 4.00000
4.00000 7.03348 4.00000
4.00000 7.03348 4.00000
4.00000 7.03348 4.00000
4.00000 7.03348 4.00000
4.00000 7.03349 4.00000
4.00000 7.03350 4.00000
4.00000 7.03348 4.00000
4.00000 7.03348 4.00000
4.00000 7.03348 4.00000
4.00000 7.03348 4.00000
4.00000 7.03348 4.00000
4.00000 7.03348 4.00000
4.00000 7.03348 4.00000
4.00000 7.03348 4.00000
4.00000 7.03348 4.00000
4.00000 7.03348 4.00000
4.00000 7.03353 4.00000
4.00099 7.05233 4.00099
4.00476 7.12489 4.00476
4.00847 7.19768 4.00847
4.01213 7.27067 4.01214
4.01577 7.34384 4.01577
4.01939 7.41715 4.01939
4.02301 7.49058 4.02301
4.02664 7.56409 4.02664
4.03029 7.63767 4.03030
4.03399 7.71126 4.03399
4.03774 7.78485 4.03774
4.04156 7.85839 4.04156
4.04548 7.93185 4.04548
4.04952 8.00516 4.04952
4.05370 8.07829 4.05370
4.05806 8.15116 4.05806
4.06262 8.22371 4.06262
4.06743 8.29585 4.06743
4.07255 8.36748 4.07255
4.07803 8.43848 4.07803
4.08394 8.50870 4.08394
4.09037 8.57796 4.09037
4.09744 8.64604 4.09744
4.10523 8.71277 4.10523
4.11368 8.77825 4.11368
4.12283 8.84241 4.12283
4.13274 8.90515 4.13274
4.14344 8.96638 4.14344
4.15497 9.02603 4.15497
4.16737 9.08401 4.16737
4.18066 9.14029 4.18066
4.19487 9.19481 4.19487
4.21000 9.24756 4.21000
4.22606 9.29854 4.22606
4.24303 9.34776 4.24303
4.26090 9.39526 4.26090
4.27963 9.44109 4.27963
4.29921 9.48531 4.29921
4.31959 9.52799 4.31960
4.34074 9.56920 4.34074
4.36262 9.60903 4.36262
4.38518 9.64754 4.38518
4.40841 9.68480 4.40841
4.43227 9.72085 4.43227
4.45676 9.75572 4.45675
4.48188 9.78936 4.48188
4.50771 9.82166 4.50771
4.53438 9.85235 4.53438
4.56219 9.88082 4.56219
4.59182 9.90569 4.59182
4.62494 9.92364 4.62495
7.92892 7.31455 4.01432
8.05009 7.27944 4.01257
8.16511 7.25025 4.01111
8.27549 7.22554 4.00987
8.38220 7.20437 4.00880
8.48597 7.18607 4.00788
8.58732 7.17011 4.00707
8.68667 7.15612 4.00635
8.78433 7.14378 4.00572
8.88057 7.13285 4.00516
8.97558 7.12313 4.00467
9.06953 7.11447 4.00422
9.16256 7.10673 4.00382
9.25481 7.09979 4.00346
9.34635 7.09356 4.00314
9.43726 7.08798 4.00285
9.52768 7.08291 4.00259
9.61761 7.07835 4.00235
9.70712 7.07423 4.00214
9.79624 7.07052 4.00194
9.88507 7.06715 4.00177
9.97358 7.06410 4.00161
10.06184 7.06134 4.00146
10.14989 7.05883 4.00133
10.23772 7.05656 4.00121
10.32539 7.05449 4.00110
10.41289 7.05261 4.00101
10.50025 7.05090 4.00092
10.58750 7.04935 4.00083
10.67463 7.04794 4.00076
10.76167 7.04665 4.00069
10.84863 7.04547 4.00063
10.93551 7.04442 4.00058
11.02235 7.04344 4.00053
11.10910 7.04258 4.00048
11.19584 7.04176 4.00044
11.28252 7.04103 4.00040
11.36918 7.04036 4.00036
11.45582 7.03975 4.00032
11.54242 7.03920 4.00030
11.62901 7.03870 4.00028
11.71561 7.03823 4.00025
11.80217 7.03781 4.00023
11.88875 7.03742 4.00021
11.97529 7.03709 4.00019
12.06188 7.03676 4.00017
12.14843 7.03648 4.00016
12.23502 7.03620 4.00014
12.32162 7.03596 4.00013
12.40818 7.03575 4.00012
12.49480 7.03554 4.00011
12.58143 7.03535 4.00010
12.66808 7.03519 4.00009
12.75469 7.03505 4.00008
12.84137 7.03490 4.00007
12.92807 7.03477 4.00007
13.01478 7.03466 4.00006
13.10153 7.03455 4.00005
13.18829 7.03446 4.00005
13.27508 7.03437 4.00004
13.36190 7.03429 4.00004
13.44874 7.03422 4.00004
13.53560 7.03415 4.00003
13.62249 7.03409 4.00003
13.70941 7.03403 4.00003
13.79635 7.03398 4.00002
13.88331 7.03394 4.00002
13.97031 7.03389 4.00002
14.05732 7.03386 4.00002
14.14436 7.03382 4.00002
14.23143 7.03379 4.00001
14.31852 7.03376 4.00001
14.40563 7.03373 4.00001
14.49277 7.03371 4.00001
14.57994 7.03369 4.00001
14.66712 7.03367 4.00001
14.75434 7.03365 4.00001
14.84157 7.03363 4.00001
14.92883 7.03362 4.00001
15.01611 7.03361 4.00001
15.10342 7.03359 4.00001
15.19075 7.03358 4.00000
15.27810 7.03357 4.00000
15.36548 7.03356 4.00000
15.45288 7.03355 4.00000
15.54030 7.03355 4.00000
15.62774 7.03354 4.00000
15.71521 7.03353 4.00000
15.80269 7.03353 4.00000
15.89020 7.03352 4.00000
15.97576 7.03353 4.00000
16.06323 7.03353 4.00000
16.15072 7.03352 4.00000
16.23824 7.03352 4.00000
16.32578 7.03351 4.00000
16.41334 7.03351 4.00000
16.50093 7.03351 4.00000
16.58855 7.03351 4.00000
16.67618 7.03350 4.00000
16.76384 7.03350 4.00000
16.85152 7.03350 4.00000
16.93922 7.03350 4.00000
17.02694 7.03350 4.00000
17.11469 7.03349 4.00000
17.20245 7.03349 4.00000
17.29024 7.03349 4.00000
17.37804 7.03349 4.00000
17.46587 7.03349 4.00000
17.55372 7.03349 4.00000
17.64158 7.03349 4.00000
17.72947 7.03349 4.00000
17.81737 7.03349 4.00000
17.90529 7.03349 4.00000
17.99324 7.03349 4.00000
18.08119 7.03348 4.00000
18.16917 7.03348 4.00000
18.25717 7.03348 4.00000
18.34518 7.03348 4.00000
18.43321 7.03348 4.00000
18.52126 7.03348 4.00000
18.60932 7.03348 4.00000
18.69741 7.03348 4.00000
18.78550 7.03348 4.00000
18.87362 7.03348 4.00000
18.96175 7.03348 4.00000

Angle 0.024446 5.674664

4.00000 7.03348 4.00000
4.00000 7.03348 4.00000
4.00000 7.03348 4.00000
4.00000 7.03348 4.00000
4.00000 7.03348 4.00000
4.00000 7.03348 4.00000
4.00000 7.03348 4.00000
4.00000 7.03348 4.00000
4.00000 7.03348 4.00000
4.00000 7.03348 4.00000
4.00000 7.03348 4.00000
4.00000 7.03348 4.00000
4.00000 7.03348 4.00000
4.00000 7.03348 4.00000
4.00000 7.03348 4.00000
4.00000 7.03348 4.00000
4.00000 7.03348 4.00000
4.00000 7.03348 4.00000
4.00000 7.03348 4.00000
4.00000 7.03348 4.00000
4.00000 7.03348 4.00000
4.00000 7.03348 4.00000
4.00000 7.03348 4.00000
4.00000 7.03348 4.00000
4.00000 7.03348 4.00000
4.00000 7.03348 4.00000
4.00000 7.03348 4.00000
4.00000 7.03348 4.00000
4.00000 7.03348 4.00000
4.00000 7.03348 4.00000
4.00000 7.03348 4.00000
4.00000 7.03348 4.00000
4.00000 7.03348 4.00000
4.00000 7.03348 4.00000
4.00000 7.03349 4.00000
4.00000 7.03348 4.00000
4.00000 7.03348 4.00000
4.00000 7.03348 4.00000
4.00269 7.08488 4.00269
4.00669 7.16262 4.00669
4.01062 7.24053 4.01063
4.01452 7.31857 4.01452
4.01839 7.39673 4.01839
4.02224 7.47497 4.02224
4.02610 7.55324 4.02611
4.02999 7.63152 4.02999
4.03391 7.70978 4.03391
4.03790 7.78795 4.03790
4.04196 7.86602 4.04196
4.04614 7.94392 4.04614
4.05044 8.02160 4.05044
4.05492 8.09900 4.05492
4.05959 8.17603 4.05959
4.06451 8.25262 4.06451
4.06973 8.32866 4.06973
4.07531 8.40402 4.07531
4.08133 8.47854 4.08133
4.08788 8.55204 4.08788
4.09509 8.62428 4.09509
4.10308 8.69500 4.10308
4.11180 8.76427 4.11180
4.12129 8.83206 4.12129
4.13160 8.89825 4.13160
4.14277 8.96275 4.14277
4.15485 9.02547 4.15485
4.16789 9.08632 4.16789
4.18190 9.14526 4.18190
4.19691 9.20223 4.19691
4.21293 9.25722 4.21293
4.22996 9.31024 4.22996
4.24797 9.36131 4.24797
4.26695 9.41048 4.26695
4.28686 9.45782 4.28686
4.30767 9.50341 4.30767
4.32933 9.54732 4.32933
4.35180 9.58966 4.35180
4.37503 9.63050 4.37503
4.39897 9.66994 4.39897
4.42361 9.70802 4.42361
4.44892 9.74479 4.44892
4.47491 9.78024 4.47491
4.50162 9.81426 4.50162
4.52919 9.84661 4.52919
4.55790 9.87670 4.55790
4.58842 9.90320 4.58842
4.62244 9.92274 4.62244
7.92509 7.31573 4.01438
8.05112 7.27915 4.01256
8.17044 7.24898 4.01105
8.28478 7.22359 4.00977
8.39520 7.20196 4.00868
8.50249 7.18335 4.00774
8.60722 7.16719 4.00692
8.70983 7.15307 4.00620
8.81067 7.14067 4.00557
8.91000 7.12973 4.00501
9.00804 7.12004 4.00451
9.10497 7.11143 4.00406
9.20093 7.10376 4.00367
9.29606 7.09691 4.00331
9.39046 7.09077 4.00300
9.48421 7.08527 4.00271
9.57740 7.08033 4.00245
9.67008 7.07589 4.00222
9.76233 7.07189 4.00201
9.85418 7.06829 4.00183
9.94568 7.06503 4.00166
10.03687 7.06209 4.00150
10.12778 7.05944 4.00136
10.21845 7.05704 4.00124
10.30890 7.05486 4.00112
10.39915 7.05289 4.00102
10.48924 7.05110 4.00092
10.57915 7.04949 4.00084
10.66894 7.04801 4.00076
10.75859 7.04669 4.00070
10.84815 7.04548 4.00063
10.93758 7.04439 4.00058
11.02695 7.04339 4.00052
11.11622 7.04250 4.00048
11.20545 7.04166 4.00043
11.29460 7.04093 4.00039
11.38368 7.04026 4.00036
11.47274 7.03963 4.00032
11.56175 7.03907 4.00029
11.65072 7.03857 4.00026
11.73964 7.03812 4.00024
11.82857 7.03768 4.00022
11.91746 7.03730 4.00020
12.00633 7.03695 4.00018
12.09519 7.03664 4.00016
12.18403 7.03635 4.00015
12.27286 7.03609 4.00013
12.36168 7.03586 4.00012
12.45049 7.03564 4.00011
12.53931 7.03545 4.00010
12.62811 7.03527 4.00009
12.71692 7.03510 4.00008
12.80573 7.03496 4.00007
12.89454 7.03482 4.00007
12.98335 7.03470 4.00006
13.07216 7.03459 4.00006
13.16098 7.03449 4.00005
13.24980 7.03439 4.00005
13.33863 7.03431 4.00004
13.42747 7.03423 4.00004
13.51631 7.03416 4.00003
13.60516 7.03410 4.00003
13.69401 7.03404 4.00003
13.78288 7.03399 4.00003
13.87175 7.03394 4.00002
13.96063 7.03390 4.00002
14.04952 7.03386 4.00002
14.13842 7.03382 4.00002
14.22733 7.03379 4.00002
14.31624 7.03376 4.00001
14.40517 7.03373 4.00001
14.49411 7.03371 4.00001
14.58305 7.03369 4.00001
14.67201 7.03367 4.00001
14.76098 7.03365 4.00001
14.84995 7.03363 4.00001
14.93894 7.03362 4.00001
15.02793 7.03360 4.00001
15.11694 7.03359 4.00001
15.20596 7.03358 4.00001
15.29440 7.03358 4.00000
15.38342 7.03357 4.00001
15.47244 7.03357 4.00000
15.56148 7.03356 4.00000
15.65053 7.03355 4.00000
15.73959 7.03354 4.00000
15.82866 7.03354 4.00000
15.91774 7.03353 4.00000
16.00684 7.03353 4.00000
16.09594 7.03352 4.00000
16.18505 7.03352 4.00000
16.27418 7.03352 4.00000
16.36331 7.03351 4.00000
16.45245 7.03351 4.00000
16.54161 7.03351 4.00000
16.63077 7.03350 4.00000
16.71995 7.03350 4.00000
16.80913 7.03350 4.00000
16.89833 7.03350 4.00000
16.98753 7.03350 4.00000
17.07674 7.03350 4.00000
17.16596 7.03349 4.00000
17.25520 7.03349 4.00000
17.34444 7.03349 4.00000
17.43369 7.03349 4.00000
17.52295 7.03349 4.00000
17.61221 7.03349 4.00000
17.70149 7.03349 4.00000
17.79078 7.03349 4.00000
17.88007 7.03349 4.00000
17.96937 7.03349 4.00000
18.05868 7.03349 4.00000
18.14800 7.03348 4.00000
18.23733 7.03348 4.00000
18.32667 7.03348 4.00000
18.41601 7.03348 4.00000
18.50536 7.03348 4.00000
18.59472 7.03348 4.00000
18.68409 7.03348 4.00000
18.77347 7.03348 4.00000
18.86285 7.03348 4.00000
18.95224 7.03348 4.00000
19.04164 7.03348 4.00000
19.13105 7.03348 4.00000
19.22046 7.03348 4.00000
19.30988 7.03348 4.00000
19.39931 7.03348 4.00000
19.48875 7.03348 4.00000
19.57819 7.03348 4.00000
19.66764 7.03348 4.00000
19.75710 7.03348 4.00000
19.84656 7.03348 4.00000
19.93603 7.03348 4.00000
20.02551 7.03348 4.00000
20.11500 7.03348 4.00000
20.20449 7.03348 4.00000
20.29399 7.03348 4.00000
20.38349 7.03348 4.00000
20.47300 7.03348 4.00000
20.56252 7.03348 4.00000
20.65204 7.03348 4.00000
20.74158 7.03348 4.00000
20.83111 7.03348 4.00000
20.92066 7.03348 4.00000
21.01020 7.03348 4.00000
21.09976 7.03348 4.00000
21.18932 7.03348 4.00000
21.27889 7.03348 4.00000
21.36846 7.03348 4.00000
21.45804 7.03348 4.00000
21.54763 7.03348 4.00000
21.63722 7.03348 4.00000
21.72682 7.03348 4.00000
21.81642 7.03348 4.00000
21.90603 7.03348 4.00000
21.99564 7.03348 4.00000
22.08526 7.03348 4.00000
22.17489 7.03348 4.00000
22.26452 7.03348 4.00000
22.35416 7.03348 4.00000
22.44380 7.03348 4.00000
22.53344 7.03348 4.00000
22.62310 7.03348 4.00000
22.71275 7.03348 4.00000
22.80242 7.03348 4.00000
22.89208 7.03348 4.00000
22.98176 7.03348 4.00000
23.07144 7.03348 4.00000
23.16112 7.03348 4.00000
23.25081 7.03348 4.00000
23.34050 7.03348 4.00000
23.43020 7.03348 4.00000
23.51990 7.03348 4.00000
23.60961 7.03348 4.00000
23.69932 7.03348 4.00000
23.78904 7.03348 4.00000
23.87876 7.03348 4.00000
23.96849 7.03348 4.00000
24.05822 7.03348 4.00000
24.14796 7.03348 4.00000
24.23770 7.03348 4.00000
24.32744 7.03348 4.00000
24.41719 7.03348 4.00000
24.50695 7.03348 4.00000
24.59671 7.03348 4.00000
24.68647 7.03348 4.00000
24.77624 7.03348 4.00000
24.86601 7.03348 4.00000
24.95578 7.03348 4.00000
25.04556 7.03348 4.00000
25.13535 7.03348 4.00000
25.22514 7.03348 4.00000
25.31493 7.03348 4.00000
25.40473 7.03348 4.00000
25.49453 7.03348 4.00000
25.58433 7.03348 4.00000
25.67414 7.03348 4.00000
25.76396 7.03348 4.00000
25.85377 7.03348 4.00000
25.94359 7.03348 4.00000
26.03342 7.03348 4.00000
26.12325 7.03348 4.00000
26.21308 7.03348 4.00000
26.30292 7.03348 4.00000
26.39276 7.03348 4.00000
26.48260 7.03348 4.00000
26.57245 7.03348 4.00000
26.66230 7.03348 4.00000
26.75216 7.03348 4.00000
26.84202 7.03348 4.00000
26.93188 7.03348 4.00000
27.02175 7.03348 4.00000
27.11161 7.03348 4.00000
27.20149 7.03348 4.00000
27.29137 7.03348 4.00000
27.38125 7.03348 4.00000
27.47113 7.03348 4.00000
27.56102 7.03348 4.00000
27.65091 7.03348 4.00000
27.74080 7.03348 4.00000
27.83070 7.03348 4.00000
27.92060 7.03348 4.00000
28.01050 7.03348 4.00000
28.10041 7.03348 4.00000
28.19032 7.03348 4.00000
28.28023 7.03348 4.00000
28.37015 7.03348 4.00000
28.46007 7.03348 4.00000
28.55000 7.03348 4.00000
28.63992 7.03348 4.00000
28.72985 7.03348 4.00000
28.81979 7.03348 4.00000
28.90972 7.03348 4.00000
28.99966 7.03348 4.00000
29.08960 7.03348 4.00000
29.17955 7.03348 4.00000
29.26950 7.03348 4.00000
29.35945 7.03348 4.00000
29.44940 7.03348 4.00000
29.53936 7.03348 4.00000
29.62932 7.03348 4.00000
29.71928 7.03348 4.00000
29.80925 7.03348 4.00000
29.89921 7.03348 4.00000
29.98919 7.03348 4.00000
30.07916 7.03348 4.00000
30.16914 7.03348 4.00000
30.25912 7.03348 4.00000
30.34910 7.03348 4.00000
30.43908 7.03348 4.00000
30.52907 7.03348 4.00000
30.61906 7.03348 4.00000
30.70906 7.03348 4.00000
30.79905 7.03348 4.00000
30.88905 7.03348 4.00000
30.97905 7.03348 4.00000
31.06905 7.03348 4.00000
31.15906 7.03348 4.00000
31.24907 7.03348 4.00000
31.33908 7.03348 4.00000
31.42910 7.03348 4.00000
31.51911 7.03348 4.00000
31.60913 7.03348 4.00000
31.69915 7.03348 4.00000
31.78918 7.03348 4.00000
31.87920 7.03348 4.00000
31.96923 7.03348 4.00000
32.05926 7.03348 4.00000
32.14930 7.03348 4.00000
32.23933 7.03348 4.00000
32.32937 7.03348 4.00000
32.41941 7.03348 4.00000
32.50946 7.03348 4.00000
32.59950 7.03348 4.00000
32.68955 7.03348 4.00000
32.77960 7.03348 4.00000
32.86965 7.03348 4.00000
32.95971 7.03348 4.00000
33.04977 7.03348 4.00000
33.13982 7.03348 4.00000
33.22989 7.03348 4.00000
33.31995 7.03348 4.00000
33.41002 7.03348 4.00000
33.50008 7.03348 4.00000
33.59015 7.03348 4.00000
33.68023 7.03348 4.00000
33.77030 7.03348 4.00000
33.86038 7.03348 4.00000
33.95046 7.03348 4.00000
34.04054 7.03348 4.00000
34.13062 7.03348 4.00000
34.22071 7.03348 4.00000
34.31079 7.03348 4.00000
34.40088 7.03348 4.00000
34.49097 7.03348 4.00000
34.58107 7.03348 4.00000
34.67116 7.03348 4.00000
34.76126 7.03348 4.00000
34.85136 7.03348 4.00000
34.94146 7.03348 4.00000
35.03156 7.03348 4.00000
35.12167 7.03348 4.00000
35.21177 7.03348 4.00000
35.30188 7.03348 4.00000
35.39199 7.03348 4.00000
35.48211 7.03348 4.00000
35.57222 7.03348 4.00000
35.66234 7.03348 4.00000
35.75246 7.03348 4.00000
35.84258 7.03348 4.00000
35.93270 7.03348 4.00000
36.02282 7.03348 4.00000
36.11295 7.03348 4.00000
36.20308 7.03348 4.00000

Angle 0.069900 5.633053

4.00000 7.03348 4.00000
4.00000 7.03348 4.00000
4.00000 7.03348 4.00000
4.00000 7.03348 4.00000
4.00000 7.03348 4.00000
4.00000 7.03348 4.00000
4.00000 7.03348 4.00000
4.00000 7.03348 4.00000
4.00000 7.03348 4.00000
4.00000 7.03348 4.00000
4.00000 7.03348 4.00000
4.00000 7.03348 4.00000
4.00000 7.03348 4.00000
4.00000 7.03348 4.00000
4.00000 7.03348 4.00000
4.00000 7.03348 4.00000
4.00000 7.03348 4.00000
4.00000 7.03348 4.00000
4.00000 7.03348 4.00000
4.00000 7.03348 4.00000
4.00000 7.03348 4.00000
4.00000 7.03348 4.00000
4.00000 7.03348 4.00000
4.00000 7.03348 4.00000
4.00000 7.03348 4.00000
4.00000 7.03348 4.00000
4.00000 7.03348 4.00000
4.00000 7.03348 4.00000
4.00000 7.03348 4.00000
4.00000 7.03348 4.00000
4.00000 7.03348 4.00000
4.00000 7.03348 4.00000
4.00000 7.03348 4.00000
4.00000 7.03348 4.00000
4.00000 7.03348 4.00000
4.00000 7.03348 4.00000
4.00000 7.03348 4.00000
4.00000 7.03348 4.00000
4.00000 7.03348 4.00000
4.00000 7.03348 4.00000
4.00000 7.03348 4.00000
4.00000 7.03348 4.00000
4.00000 7.03348 4.00000
4.00000 7.03348 4.00000
4.00000 7.03348 4.00000
4.00000 7.03348 4.00000
4.00000 7.03348 4.00000
4.00000 7.03349 4.00000
4.00000 7.03348 4.00000
4.00000 7.03348 4.00000
4.00000 7.03348 4.00000
4.00000 7.03348 4.00000
4.00000 7.03348 4.00000
4.00000 7.03348 4.00000
4.00000 7.03348 4.00000
4.00000 7.03348 4.00000
4.00000 7.03348 4.00000
4.00000 7.03348 4.00000
4.00000 7.03348 4.00000
4.00000 7.03348 4.00000
4.00000 7.03350 4.00000
4.00000 7.03348 4.00000
4.00000 7.03348 4.00000
4.00000 7.03353 4.00000
4.00000 7.03348 4.00000
4.00000 7.03348 4.00000
4.00000 7.03348 4.00000
4.00000 7.03348 4.00000
4.00000 7.03348 4.00000
4.00000 7.03348 4.00000
4.00168 7.06554 4.00168
4.00516 7.13281 4.00516
4.00860 7.20035 4.00860
4.01201 7.26812 4.01201
4.01539 7.33611 4.01539
4.01876 7.40430 4.01876
4.02213 7.47266 4.02213
4.02551 7.54116 4.02551
4.02891 7.60978 4.02891
4.03234 7.67850 4.03234
4.03582 7.74729 4.03582
4.03935 7.81611 4.03935
4.04297 7.88493 4.04297
4.04667 7.95371 4.04667
4.05049 8.02242 4.05049
4.05445 8.09100 4.05445
4.05856 8.15940 4.05856
4.06287 8.22757 4.06287
4.06740 8.29541 4.06740
4.07221 8.36286 4.07221
4.07733 8.42981 4.07733
4.08284 8.49613 4.08284
4.08880 8.56167 4.08880
4.09530 8.62626 4.09530
4.10244 8.68969 4.10244
4.11019 8.75204 4.11019
4.11856 8.81328 4.11856
4.12759 8.87332 4.12759
4.13731 8.93209 4.13731
4.14777 8.98952 4.14777
4.15900 9.04552 4.15900
4.17102 9.10005 4.17102
4.18387 9.15305 4.18387
4.19755 9.20450 4.19755
4.21207 9.25438 4.21207
4.22743 9.30268 4.22743
4.24363 9.34942 4.24363
4.26065 9.39463 4.26065
4.27847 9.43835 4.27847
4.29706 9.48062 4.29706
4.31640 9.52151 4.31640
4.33645 9.56107 4.33645
4.35718 9.59938 4.35718
4.37856 9.63649 4.37856
4.40056 9.67246 4.40056
4.42315 9.70734 4.42315
4.44633 9.74114 4.44633
4.47010 9.77386 4.47010
4.49449 9.80543 4.49449
4.51958 9.83568 4.51958
4.54555 9.86428 4.54555
4.57277 9.89046 4.57277
4.60208 9.91255 4.60209
4.63550 9.92652 4.63550
7.95923 7.30531 4.01386
8.07409 7.27304 4.01225
8.18366 7.24587 4.01089
8.28916 7.22269 4.00973
8.39141 7.20266 4.00872
8.49103 7.18523 4.00784
8.58848 7.16994 4.00706
8.68412 7.15646 4.00637
8.77822 7.14451 4.00576
8.87101 7.13388 4.00522
8.96268 7.12439 4.00473
9.05339 7.11590 4.00429
9.14326 7.10827 4.00390
9.23239 7.10141 4.00355
9.32088 7.09523 4.00323
9.40882 7.08965 4.00294
9.49627 7.08461 4.00268
9.58328 7.08004 4.00244
9.66991 7.07590 4.00222
9.75621 7.07215 4.00203
9.84221 7.06874 4.00185
9.92795 7.06564 4.00169
10.01346 7.06282 4.00154
10.09877 7.06026 4.00141
10.18391 7.05792 4.00128
10.26889 7.05580 4.00117
10.35373 7.05386 4.00107
10.43846 7.05209 4.00098
10.52308 7.05048 4.00089
10.60762 7.04901 4.00082
10.69208 7.04767 4.00075
10.77648 7.04645 4.00068
10.86083 7.04533 4.00062
10.94513 7.04431 4.00057
11.02940 7.04338 4.00052
11.11364 7.04252 4.00048
11.19786 7.04175 4.00044
11.28206 7.04104 4.00040
11.36626 7.04039 4.00036
11.45045 7.03979 4.00033
11.53464 7.03925 4.00030
11.61883 7.03876 4.00028
11.70304 7.03830 4.00025
11.78726 7.03788 4.00023
11.87148 7.03751 4.00021
11.95573 7.03716 4.00019
12.04000 7.03685 4.00018
12.12429 7.03655 4.00016
12.20858 7.03631 4.00015
12.29294 7.03605 4.00013
12.37728 7.03585 4.00012
12.46168 7.03562 4.00011
12.54609 7.03545 4.00010
12.63057 7.03528 4.00009
12.71504 7.03511 4.00009
12.79955 7.03499 4.00008
12.88407 7.03485 4.00007
12.96865 7.03473 4.00007
13.05328 7.03462 4.00006
13.13795 7.03452 4.00005
13.22267 7.03443 4.00005
13.30731 7.03435 4.00004
13.39209 7.03427 4.00004
13.47692 7.03420 4.00004
13.56179 7.03413 4.00003
13.64672 7.03408 4.00003
13.73168 7.03402 4.00003
13.81670 7.03398 4.00002
13.90175 7.03393 4.00002
13.98686 7.03389 4.00002
14.07201 7.03385 4.00002
14.15720 7.03382 4.00002
14.24244 7.03379 4.00001
14.32772 7.03376 4.00001
14.41305 7.03374 4.00001
14.49841 7.03371 4.00001
14.58382 7.03369 4.00001
14.66928 7.03367 4.00001
14.75477 7.03365 4.00001
14.84030 7.03364 4.00001
14.92588 7.03362 4.00001
15.01149 7.03361 4.00001
15.09715 7.03360 4.00001
15.18284 7.03358 4.00000
15.26857 7.03357 4.00000
15.35434 7.03356 4.00000
15.44014 7.03356 4.00000
15.52599 7.03355 4.00000
15.61187 7.03354 4.00000
15.69778 7.03353 4.00000
15.78373 7.03353 4.00000
15.86972 7.03352 4.00000
15.95574 7.03352 4.00000
16.04179 7.03351 4.00000
16.12788 7.03351 4.00000
16.21401 7.03351 4.00000
16.30016 7.03350 4.00000
16.38635 7.03350 4.00000
16.46814 7.03351 4.00000
16.55421 7.03351 4.00000
16.64032 7.03350 4.00000
16.72647 7.03350 4.00000
16.81265 7.03350 4.00000
16.89888 7.03350 4.00000
16.98513 7.03350 4.00000
17.07143 7.03350 4.00000
17.15775 7.03349 4.00000
17.24412 7.03349 4.00000
17.33051 7.03349 4.00000
17.41694 7.03349 4.00000
17.50341 7.03349 4.00000
17.58990 7.03349 4.00000
17.67643 7.03349 4.00000
17.76299 7.03349 4.00000
17.84958 7.03349 4.00000
17.93620 7.03349 4.00000
18.02285 7.03349 4.00000
18.10953 7.03348 4.00000
18.19624 7.03348 4.00000
18.28297 7.03348 4.00000
18.36974 7.03348 4.00000
18.45653 7.03348 4.00000
18.54336 7.03348 4.00000
18.63021 7.03348 4.00000
18.71708 7.03348 4.00000
18.80399 7.03348 4.00000
18.89092 7.03348 4.00000
18.97787 7.03348 4.00000
19.06485 7.03348 4.00000
19.15186 7.03348 4.00000
19.23889 7.03348 4.00000
19.32595 7.03348 4.00000
19.41303 7.03348 4.00000
19.50014 7.03348 4.00000
19.58726 7.03348 4.00000
19.67442 7.03348 4.00000
19.76159 7.03348 4.00000
19.84879 7.03348 4.00000
19.93601 7.03348 4.00000
20.02326 7.03348 4.00000
20.11052 7.03348 4.00000
20.19781 7.03348 4.00000
20.28512 7.03348 4.00000
20.37245 7.03348 4.00000
20.45981 7.03348 4.00000
20.54718 7.03348 4.00000
20.63458 7.03348 4.00000
20.72199 7.03348 4.00000
20.80943 7.03348 4.00000
20.89688 7.03348 4.00000
20.98436 7.03348 4.00000
21.07185 7.03348 4.00000
21.15937 7.03348 4.00000
21.24690 7.03348 4.00000
21.33446 7.03348 4.00000
21.42203 7.03348 4.00000
21.50962 7.03348 4.00000
21.59723 7.03348 4.00000
21.68486 7.03348 4.00000
21.77250 7.03348 4.00000
21.86017 7.03348 4.00000
21.94785 7.03348 4.00000
22.03555 7.03348 4.00000
22.12327 7.03348 4.00000
22.21100 7.03348 4.00000
22.29875 7.03348 4.00000
22.38652 7.03348 4.00000
22.47431 7.03348 4.00000
22.56211 7.03348 4.00000
22.64993 7.03348 4.00000
22.73776 7.03348 4.00000
22.82561 7.03348 4.00000
22.91348 7.03348 4.00000
23.00136 7.03348 4.00000
23.08926 7.03348 4.00000
23.17717 7.03348 4.00000
23.26510 7.03348 4.00000
23.35305 7.03348 4.00000
23.44101 7.03348 4.00000
23.52898 7.03348 4.00000
23.61697 7.03348 4.00000
23.70498 7.03348 4.00000
23.79300 7.03348 4.00000
23.88103 7.03348 4.00000
23.96908 7.03348 4.00000
24.05714 7.03348 4.00000
24.14522 7.03348 4.00000
24.23331 7.03348 4.00000
24.32141 7.03348 4.00000
24.40953 7.03348 4.00000
24.49766 7.03348 4.00000
24.58581 7.03348 4.00000
24.67396 7.03348 4.00000
24.76214 7.03348 4.00000
24.85032 7.03348 4.00000
24.93852 7.03348 4.00000
25.02673 7.03348 4.00000
25.11495 7.03348 4.00000
25.20319 7.03348 4.00000
25.29144 7.03348 4.00000
25.37970 7.03348 4.00000
25.46798 7.03348 4.00000
25.55626 7.03348 4.00000
25.64456 7.03348 4.00000
25.73287 7.03348 4.00000
25.82120 7.03348 4.00000
25.90953 7.03348 4.00000
25.99788 7.03348 4.00000
26.08624 7.03348 4.00000
26.17461 7.03348 4.00000
26.26299 7.03348 4.00000
26.35138 7.03348 4.00000
26.43978 7.03348 4.00000
26.52820 7.03348 4.00000
26.61663 7.03348 4.00000
26.70507 7.03348 4.00000
26.79351 7.03348 4.00000
26.88197 7.03348 4.00000
26.97045 7.03348 4.00000
27.05893 7.03348 4.00000
27.14742 7.03348 4.00000
27.23592 7.03348 4.00000
27.32443 7.03348 4.00000
27.41296 7.03348 4.00000
27.50149 7.03348 4.00000
27.59004 7.03348 4.00000
27.67859 7.03348 4.00000
27.76716 7.03348 4.00000
27.85573 7.03348 4.00000
27.94432 7.03348 4.00000
28.03291 7.03348 4.00000
28.12151 7.03348 4.00000
28.21013 7.03348 4.00000
28.29875 7.03348 4.00000
28.38739 7.03348 4.00000
28.47603 7.03348 4.00000
28.56468 7.03348 4.00000
28.65334 7.03348 4.00000
28.74201 7.03348 4.00000
28.83069 7.03348 4.00000
28.91938 7.03348 4.00000
29.00808 7.03348 4.00000
29.09679 7.03348 4.00000
29.18551 7.03348 4.00000
29.27423 7.03348 4.00000
29.36297 7.03348 4.00000
29.45171 7.03348 4.00000
29.54046 7.03348 4.00000
29.62922 7.03348 4.00000
29.71799 7.03348 4.00000
29.80677 7.03348 4.00000
29.89556 7.03348 4.00000
29.98435 7.03348 4.00000
30.07315 7.03348 4.00000
30.16196 7.03348 4.00000
30.25078 7.03348 4.00000
30.33961 7.03348 4.00000
30.42845 7.03348 4.00000
30.51729 7.03348 4.00000
30.60614 7.03348 4.00000
30.69500 7.03348 4.00000
30.78387 7.03348 4.00000
30.87275 7.03348 4.00000
30.96163 7.03348 4.00000
31.05052 7.03348 4.00000
31.13942 7.03348 4.00000
31.22833 7.03348 4.00000
31.31724 7.03348 4.00000
31.40616 7.03348 4.00000
31.49509 7.03348 4.00000
31.58403 7.03348 4.00000
31.67297 7.03348 4.00000
31.76192 7.03348 4.00000
31.85088 7.03348 4.00000
31.93985 7.03348 4.00000
32.02882 7.03348 4.00000

Angle 0.006893 6.014080

4.00000 7.03348 4.00000
4.00000 7.03348 4.00000
4.00000 7.03348 4.00000
4.00000 7.03348 4.00000
4.00000 7.03348 4.00000
4.00000 7.03348 4.00000
4.00000 7.03348 4.00000
4.00000 7.03348 4.00000
4.00000 7.03348 4.00000
4.00000 7.03348 4.00000
4.00000 7.03348 4.00000
4.00000 7.03349 4.00000
4.00000 7.03350 4.00000
4.00000 7.03348 4.00000
4.00000 7.03348 4.00000
4.00000 7.03350 4.00000
4.00000 7.03348 4.00000
4.00000 7.03349 4.00000
4.00210 7.07363 4.00210
4.00613 7.15163 4.00613
4.01009 7.22980 4.01009
4.01400 7.30812 4.01400
4.01788 7.38654 4.01788
4.02175 7.46504 4.02175
4.02563 7.54359 4.02563
4.02952 7.62214 4.02952
4.03346 7.70066 4.03345
4.03744 7.77912 4.03744
4.04152 7.85746 4.04151
4.04569 7.93564 4.04569
4.04999 8.01360 4.04999
4.05446 8.09128 4.05446
4.05913 8.16860 4.05913
4.06404 8.24547 4.06404
4.06925 8.32180 4.06925
4.07481 8.39746 4.07481
4.08081 8.47229 4.08080
4.08733 8.54610 4.08733
4.09450 8.61867 4.09450
4.10245 8.68971 4.10245
4.11114 8.75929 4.11114
4.12061 8.82738 4.12061
4.13088 8.89388 4.13088
4.14203 8.95867 4.14203
4.15409 9.02168 4.15409
4.16710 9.08281 4.16710
4.18109 9.14202 4.18109
4.19609 9.19925 4.19609
4.21210 9.25449 4.21210
4.22912 9.30774 4.22912
4.24713 9.35904 4.24713
4.26612 9.40842 4.26612
4.28605 9.45596 4.28605
4.30687 9.50172 4.30687
4.32856 9.54581 4.32856
4.35105 9.58830 4.35105
4.37431 9.62929 4.37431
4.39830 9.66886 4.39830
4.42298 9.70707 4.42298
4.44833 9.74396 4.44833
4.47437 9.77952 4.47437
4.50113 9.81365 4.50113
4.52874 9.84611 4.52874
4.55749 9.87631 4.55749
4.58806 9.90292 4.58806
4.62209 9.92261 4.62209
4.66415 9.92671 4.66372
4.01257 7.27933 8.05049
4.01105 7.24905 8.17013
4.00978 7.22359 8.28473
4.00868 7.20191 8.39539
4.00774 7.18326 8.50290
4.00692 7.16707 8.60784
4.00619 7.15294 8.71066
4.00556 7.14053 8.81169
4.00500 7.12958 8.91120
4.00450 7.11989 9.00942
4.00406 7.11128 9.10653
4.00366 7.10361 9.20266
4.00331 7.09676 9.29796
4.00299 7.09063 9.39253
4.00270 7.08514 9.48644
4.00245 7.08020 9.57979
4.00221 7.07577 9.67264
4.00201 7.07177 9.76504
4.00182 7.06817 9.85705
4.00165 7.06492 9.94870
4.00150 7.06199 10.04005
4.00136 7.05934 10.13112
4.00123 7.05694 10.22194
4.00112 7.05478 10.31253
4.00102 7.05281 10.40293
4.00092 7.05104 10.49316
4.00084 7.04942 10.58323
4.00076 7.04796 10.67316
4.00069 7.04663 10.76297
4.00063 7.04542 10.85267
4.00057 7.04434 10.94225
4.00052 7.04334 11.03177
4.00048 7.04247 11.12115
4.00043 7.04162 11.21054
4.00039 7.04088 11.29984
4.00035 7.04022 11.38906
4.00032 7.03959 11.47826
4.00029 7.03904 11.56741
4.00026 7.03853 11.65651
4.00024 7.03807 11.74559
4.00022 7.03766 11.83464
4.00020 7.03728 11.92364
4.00018 7.03693 12.01265
4.00016 7.03661 12.10164
4.00015 7.03633 12.19061
4.00014 7.03607 12.27956
4.00012 7.03583 12.36851
4.00011 7.03562 12.45745
4.00010 7.03542 12.54638
4.00009 7.03525 12.63531
4.00008 7.03509 12.72424
4.00008 7.03494 12.81316
4.00007 7.03481 12.90208
4.00006 7.03468 12.99101
4.00006 7.03457 13.07994
4.00005 7.03447 13.16886
4.00005 7.03438 13.25780
4.00004 7.03430 13.34673
4.00004 7.03422 13.43567
4.00003 7.03415 13.52462
4.00003 7.03409 13.61357
4.00003 7.03403 13.70253
4.00003 7.03398 13.79150
4.00002 7.03393 13.88047
4.00002 7.03389 13.96945
4.00002 7.03385 14.05844
4.00002 7.03382 14.14743
4.00002 7.03379 14.23644
4.00001 7.03376 14.32545
4.00001 7.03373 14.41447
4.00001 7.03371 14.50350
4.00001 7.03368 14.59253
4.00001 7.03366 14.68158
4.00001 7.03365 14.77063
4.00001 7.03365 14.85956
4.00001 7.03363 14.94864
4.00001 7.03362 15.03772
4.00001 7.03360 15.12681
4.00001 7.03359 15.21591
4.00001 7.03358 15.30502
4.00000 7.03357 15.39414
4.00000 7.03357 15.48327
4.00000 7.03356 15.57241
4.00000 7.03355 15.66156
4.00000 7.03354 15.75071
4.00000 7.03354 15.83988
4.00000 7.03353 15.92905
4.00000 7.03353 16.01823
4.00000 7.03352 16.10742
4.00000 7.03352 16.19663
4.00000 7.03352 16.28584
4.00000 7.03351 16.37505
4.00000 7.03351 16.46428
4.00000 7.03351 16.55352
4.00000 7.03350 16.64276
4.00000 7.03350 16.73201
4.00000 7.03350 16.82128
4.00000 7.03350 16.91055
4.00000 7.03350 16.99982
4.00000 7.03350 17.08911
4.00000 7.03349 17.17841
4.00000 7.03349 17.26771
4.00000 7.03349 17.35702
4.00000 7.03349 17.44634
4.00000 7.03349 17.53567
4.00000 7.03349 17.62500
4.00000 7.03349 17.71434
4.00000 7.03349 17.80369
4.00000 7.03349 17.89305
4.00000 7.03349 17.98242
4.00000 7.03349 18.07179
4.00000 7.03348 18.16117
4.00000 7.03348 18.25056
4.00000 7.03348 18.33996
4.00000 7.03348 18.42936
4.00000 7.03348 18.51877
4.00000 7.03348 18.60819
4.00000 7.03348 18.69761
4.00000 7.03348 18.78705
4.00000 7.03348 18.87649
4.00000 7.03348 18.96593
4.00000 7.03348 19.05538
4.00000 7.03348 19.14484
4.00000 7.03348 19.23431
4.00000 7.03348 19.32378
4.00000 7.03348 19.41326
4.00000 7.03348 19.50275
4.00000 7.03348 19.59225
4.00000 7.03348 19.68175
4.00000 7.03348 19.77125
4.00000 7.03348 19.86076
4.00000 7.03348 19.95028
4.00000 7.03348 20.03981
4.00000 7.03348 20.12934
4.00000 7.03348 20.21888
4.00000 7.03348 20.30842
4.00000 7.03348 20.39797
4.00000 7.03348 20.48753
4.00000 7.03348 20.57709
4.00000 7.03348 20.66666
4.00000 7.03348 20.75624
4.00000 7.03348 20.84582
4.00000 7.03348 20.93540
4.00000 7.03348 21.02500
4.00000 7.03348 21.11459
4.00000 7.03348 21.20420
4.00000 7.03348 21.29381
4.00000 7.03348 21.38342
4.00000 7.03348 21.47304
4.00000 7.03348 21.56267
4.00000 7.03348 21.65230
4.00000 7.03348 21.74193
4.00000 7.03348 21.83157
4.00000 7.03348 21.92122
4.00000 7.03348 22.01087
4.00000 7.03348 22.10053
4.00000 7.03348 22.19019
4.00000 7.03348 22.27986
4.00000 7.03348 22.36954
4.00000 7.03348 22.45921
4.00000 7.03348 22.54890
4.00000 7.03348 22.63859
4.00000 7.03348 22.72828
4.00000 7.03348 22.81798
4.00000 7.03348 22.90768
4.00000 7.03348 22.99739
4.00000 7.03348 23.08710
4.00000 7.03348 23.17682
4.00000 7.03348 23.26654
4.00000 7.03348 23.35627
4.00000 7.03348 23.44600
4.00000 7.03348 23.53573
4.00000 7.03348 23.62548
4.00000 7.03348 23.71522
4.00000 7.03348 23.80497
4.00000 7.03348 23.89472
4.00000 7.03348 23.98448
4.00000 7.03348 24.07425
4.00000 7.03348 24.16401
4.00000 7.03348 24.25379
4.00000 7.03348 24.34356
4.00000 7.03348 24.43334
4.00000 7.03348 24.52313
4.00000 7.03348 24.61292
4.00000 7.03348 24.70271
4.00000 7.03348 24.79251
4.00000 7.03348 24.88231
4.00000 7.03348 24.97211
4.00000 7.03348 25.06192
4.00000 7.03348 25.15174
4.00000 7.03348 25.24155
4.00000 7.03348 25.33137
4.00000 7.03348 25.42120
4.00000 7.03348 25.51103
4.00000 7.03348 25.60086
4.00000 7.03348 25.69070
4.00000 7.03348 25.78054
4.00000 7.03348 25.87038
4.00000 7.03348 25.96023
4.00000 7.03348 26.05008
4.00000 7.03348 26.13994
4.00000 7.03348 26.22980
4.00000 7.03348 26.31966
4.00000 7.03348 26.40953
4.00000 7.03348 26.49940
4.00000 7.03348 26.58927
4.00000 7.03348 26.67915
4.00000 7.03348 26.76903
4.00000 7.03348 26.85891
4.00000 7.03348 26.94880
4.00000 7.03348 27.03869
4.00000 7.03348 27.12859
4.00000 7.03348 27.21849
4.00000 7.03348 27.30839
4.00000 7.03348 27.39829
4.00000 7.03348 27.48820
4.00000 7.03348 27.57811
4.00000 7.03348 27.66803
4.00000 7.03348 27.75794
4.00000 7.03348 27.84787
4.00000 7.03348 27.93779
4.00000 7.03348 28.02772
4.00000 7.03348 28.11765
4.00000 7.03348 28.20758
4.00000 7.03348 28.29752
4.00000 7.03348 28.38746
4.00000 7.03348 28.47740
4.00000 7.03348 28.56735
4.00000 7.03348 28.65730
4.00000 7.03348 28.74725
4.00000 7.03348 28.83720
4.00000 7.03348 28.92716
4.00000 7.03348 29.01712
4.00000 7.03348 29.10709
4.00000 7.03348 29.19705
4.00000 7.03348 29.28702
4.00000 7.03348 29.37700
4.00000 7.03348 29.46697
4.00000 7.03348 29.55695
4.00000 7.03348 29.64693
4.00000 7.03348 29.73691
4.00000 7.03348 29.82690
4.00000 7.03348 29.91689
4.00000 7.03348 30.00688
4.00000 7.03348 30.09688
4.00000 7.03348 30.18687
4.00000 7.03348 30.27687
4.00000 7.03348 30.36688
4.00000 7.03348 30.45688
4.00000 7.03348 30.54689
4.00000 7.03348 30.63690
4.00000 7.03348 30.72691
4.00000 7.03348 30.81693
4.00000 7.03348 30.90695
4.00000 7.03348 30.99697
4.00000 7.03348 31.08699
4.00000 7.03348 31.17702
4.00000 7.03348 31.26704
4.00000 7.03348 31.35708
4.00000 7.03348 31.44711
4.00000 7.03348 31.53714
4.00000 7.03348 31.62718
4.00000 7.03348 31.71722
4.00000 7.03348 31.80727
4.00000 7.03348 31.89731
4.00000 7.03348 31.98736
4.00000 7.03348 32.07741
4.00000 7.03348 32.16746
4.00000 7.03348 32.25751
4.00000 7.03348 32.34757
4.00000 7.03348 32.43763
4.00000 7.03348 32.52769
4.00000 7.03348 32.61775
4.00000 7.03348 32.70782
4.00000 7.03348 32.79789
4.00000 7.03348 32.88796
4.00000 7.03348 32.97803
4.00000 7.03348 33.06810
4.00000 7.03348 33.15818
4.00000 7.03348 33.24826
4.00000 7.03348 33.33834
4.00000 7.03348 33.42842
4.00000 7.03348 33.51851
4.00000 7.03348 33.60860
4.00000 7.03348 33.69869
4.00000 7.03348 33.78878
4.00000 7.03348 33.87887
4.00000 7.03348 33.96897
4.00000 7.03348 34.05906
4.00000 7.03348 34.14916
4.00000 7.03348 34.23926
4.00000 7.03348 34.32937
4.00000 7.03348 34.41947
4.00000 7.03348 34.50958
4.00000 7.03348 34.59969
4.00000 7.03348 34.68980
4.00000 7.03348 34.77991
4.00000 7.03348 34.87003
4.00000 7.03348 34.96015
4.00000 7.03348 35.05026
4.00000 7.03348 35.14039
4.00000 7.03348 35.23051
4.00000 7.03348 35.32063
4.00000 7.03348 35.41076
4.00000 7.03348 35.50089
4.00000 7.03348 35.59102
4.00000 7.03348 35.68115
4.00000 7.03348 35.77128
4.00000 7.03348 35.86142
4.00000 7.03348 35.95155
4.00000 7.03348 36.04169
4.00000 7.03348 36.13183
4.00000 7.03348 36.22198
4.00000 7.03348 36.31212
4.00000 7.03348 36.40227
4.00000 7.03348 36.49241
4.00000 7.03348 36.58256
4.00000 7.03348 36.67271
4.00000 7.03348 36.76287
4.00000 7.03348 36.85302
4.00000 7.03348 36.94318
4.00000 7.03348 37.03334
4.00000 7.03348 37.12349
4.00000 7.03348 37.21366
4.00000 7.03348 37.30382
4.00000 7.03348 37.39398
4.00000 7.03348 37.48415
4.00000 7.03348 37.57432
4.00000 7.03348 37.66448
4.00000 7.03348 37.75466
4.00000 7.03348 37.84483
4.00000 7.03348 37.93500
4.00000 7.03348 38.02518

Angle 0.282426 2.574434

4.00000 7.03348 4.00000
4.00000 7.03348 4.00000
4.00000 7.03348 4.00000
4.00000 7.03348 4.00000
4.00000 7.03348 4.00000
4.00000 7.03348 4.00000
4.00000 7.03348 4.00000
4.00000 7.03348 4.00000
4.00000 7.03348 4.00000
4.00000 7.03348 4.00000
4.00000 7.03348 4.00000
4.00000 7.03348 4.00000
4.00000 7.03348 4.00000
4.00000 7.03348 4.00000
4.00000 7.03348 4.00000
4.00000 7.03348 4.00000
4.00000 7.03348 4.00000
4.00000 7.03348 4.00000
4.00000 7.03348 4.00000
4.00000 7.03348 4.00000
4.00000 7.03348 4.00000
4.00000 7.03348 4.00000
4.00000 7.03348 4.00000
4.00000 7.03348 4.00000
4.00000 7.03348 4.00000
4.00000 7.03348 4.00000
4.00000 7.03348 4.00000
4.00000 7.03348 4.00000
4.00000 7.03348 4.00000
4.00000 7.03348 4.00000
4.00000 7.03348 4.00000
4.00000 7.03348 4.00000
4.00000 7.03348 4.00000
4.00000 7.03348 4.00000
4.00000 7.03348 4.00000
4.00000 7.03348 4.00000
4.00000 7.03348 4.00000
4.00000 7.03348 4.00000
4.00000 7.03348 4.00000
4.00000 7.03348 4.00000
4.00000 7.03348 4.00000
4.00000 7.03348 4.00000
4.00000 7.03348 4.00000
4.00000 7.03348 4.00000
4.00000 7.03348 4.00000
4.00000 7.03348 4.00000
4.00000 7.03348 4.00000
4.00000 7.03348 4.00000
4.00000 7.03348 4.00000
4.00000 7.03348 4.00000
4.00000 7.03348 4.00000
4.00000 7.03348 4.00000
4.00000 7.03348 4.00000
4.00000 7.03348 4.00000
4.00000 7.03348 4.00000
4.00000 7.03348 4.00000
4.00000 7.03348 4.00000
4.00000 7.03348 4.00000
4.00000 7.03348 4.00000
4.00000 7.03348 4.00000
4.00000 7.03348 4.00000
4.00000 7.03348 4.00000
4.00000 7.03348 4.00000
4.00000 7.03348 4.00000
4.00000 7.03348 4.00000
4.00000 7.03348 4.00000
4.00000 7.03348 4.00000
4.00000 7.03348 4.00000
4.00000 7.03348 4.00000
4.00000 7.03348 4.00000
4.00000 7.03348 4.00000
4.00000 7.03348 4.00000
4.00000 7.03348 4.00000
4.00000 7.03348 4.00000
4.00000 7.03348 4.00000
4.00000 7.03348 4.00000
4.00000 7.03348 4.00000
4.00000 7.03348 4.00000
4.00000 7.03348 4.00000
4.00000 7.03348 4.00000
4.00000 7.03348 4.00000
4.00000 7.03348 4.00000
4.00000 7.03348 4.00000
4.00000 7.03348 4.00000
4.00000 7.03348 4.00000
4.00000 7.03348 4.00000
4.00000 7.03348 4.00000
4.00000 7.03348 4.00000
4.00000 7.03348 4.00000
4.00000 7.03348 4.00000
4.00000 7.03348 4.00000
4.00000 7.03348 4.00000
4.00000 7.03348 4.00000
4.00000 7.03348 4.00000
4.00000 7.03348 4.00000
4.00000 7.03348 4.00000
4.00000 7.03348 4.00000
4.00000 7.03348 4.00000
4.00000 7.03348 4.00000
4.00000 7.03348 4.00000
4.00000 7.03348 4.00000
4.00000 7.03348 4.00000
4.00000 7.03348 4.00000
4.00000 7.03348 4.00000
4.00000 7.03348 4.00000
4.00000 7.03348 4.00000
4.00000 7.03348 4.00000
4.00000 7.03348 4.00000
4.00000 7.03348 4.00000
4.00000 7.03348 4.00000
4.00000 7.03348 4.00000
4.00000 7.03348 4.00000
4.00000 7.03348 4.00000
4.00000 7.03348 4.00000
4.00000 7.03348 4.00000
4.00000 7.03348 4.00000
4.00000 7.03348 4.00000
4.00000 7.03348 4.00000
4.00000 7.03348 4.00000
4.00000 7.03348 4.00000
4.00000 7.03348 4.00000
4.00000 7.03348 4.00000
4.00000 7.03348 4.00000
4.00000 7.03348 4.00000
4.00000 7.03348 4.00000
4.00000 7.03348 4.00000
4.00000 7.03348 4.00000
4.00000 7.03348 4.00000
4.00000 7.03348 4.00000
4.00000 7.03348 4.00000
4.00000 7.03348 4.00000
4.00000 7.03348 4.00000
4.00000 7.03348 4.00000
4.00000 7.03348 4.00000
4.00000 7.03348 4.00000
4.00000 7.03348 4.00000
4.00000 7.03348 4.00000
4.00000 7.03348 4.00000
4.00000 7.03348 4.00000
4.00000 7.03348 4.00000
4.00000 7.03348 4.00000
4.00000 7.03348 4.00000
4.00000 7.03348 4.00000
4.00000 7.03348 4.00000
4.00000 7.03348 4.00000
4.00000 7.03348 4.00000
4.00000 7.03348 4.00000
4.00000 7.03348 4.00000
4.00000 7.03348 4.00000
4.00000 7.03348 4.00000
4.00000 7.03348 4.00000
4.00000 7.03348 4.00000
4.00000 7.03348 4.00000
4.00000 7.03348 4.00000
4.00000 7.03348 4.00000
4.00000 7.03348 4.00000
4.00000 7.03348 4.00000
4.00000 7.03348 4.00000
4.00000 7.03348 4.00000
4.00000 7.03348 4.00000
4.00000 7.03348 4.00000
4.00000 7.03348 4.00000
4.00000 7.03348 4.00000
4.00000 7.03348 4.00000
4.00000 7.03348 4.00000
4.00000 7.03348 4.00000
4.00000 7.03348 4.00000
4.00000 7.03348 4.00000
4.00000 7.03348 4.00000
4.00000 7.03348 4.00000
4.00000 7.03348 4.00000
4.00000 7.03348 4.00000
4.00000 7.03348 4.00000
4.00000 7.03348 4.00000
4.00000 7.03348 4.00000
4.00000 7.03348 4.00000
4.00000 7.03348 4.00000
4.00000 7.03348 4.00000
4.00000 7.03348 4.00000
4.00000 7.03348 4.00000
4.00000 7.03348 4.00000
4.00000 7.03348 4.00000
4.00069 7.04652 4.00068
4.00337 7.09793 4.00337
4.00603 7.14971 4.00603
4.00868 7.20183 4.00868
4.01132 7.25430 4.01132
4.01395 7.30710 4.01395
4.01658 7.36021 4.01658
4.01922 7.41362 4.01922
4.02187 7.46732 4.02187
4.02453 7.52130 4.02453
4.02721 7.57553 4.02721
4.02991 7.63001 4.02991
4.03265 7.68473 4.03265
4.03543 7.73965 4.03543
4.03825 7.79477 4.03825
4.04112 7.85006 4.04112
4.04406 7.90551 4.04406
4.04708 7.96108 4.04708
4.05017 8.01677 4.05017
4.05336 8.07253 4.05336
4.05667 8.12833 4.05667
4.06010 8.18415 4.06010
4.06368 8.23993 4.06368
4.06742 8.29564 4.06742
4.07136 8.35122 4.07136
4.07551 8.40661 4.07551
4.07993 8.46173 4.07993
4.08463 8.51652 4.08463
4.08968 8.57086 4.08968
4.09513 8.62465 4.09513
4.10104 8.67775 4.10104
4.10739 8.73019 4.10739
4.11419 8.78200 4.11419
4.12145 8.83310 4.12145
4.12920 8.88344 4.12920
4.13746 8.93298 4.13747
4.14628 8.98165 4.14628
4.15566 9.02940 4.15566
4.16562 9.07620 4.16562
4.17620 9.12199 4.17620
4.18739 9.16676 4.18739
4.19922 9.21047 4.19922
4.21168 9.25312 4.21168
4.22479 9.29468 4.22479
4.23854 9.33516 4.23854
4.25292 9.37457 4.25292
4.26794 9.41292 4.26794
4.28356 9.45024 4.28356
4.29979 9.48656 4.29979
4.31660 9.52190 4.31660
4.33397 9.55631 4.33397
4.35188 9.58981 4.35188
4.37032 9.62245 4.37032
4.38927 9.65426 4.38927
4.40871 9.68527 4.40871
4.42863 9.71549 4.42863
4.44902 9.74494 4.44902
4.46990 9.77359 4.46990
4.49129 9.80140 4.49129
4.51324 9.82826 4.51324
4.53585 9.85396 4.53585
4.55933 9.87809 4.55933
4.58408 9.89986 4.58408
4.61093 9.91757 4.61093
4.64174 9.92752 4.64176
4.01377 7.30342 7.96557
4.01234 7.27476 8.06755
4.01111 7.25016 8.16544
4.01004 7.22881 8.26008
4.00909 7.21009 8.35209
4.00826 7.19358 8.44196
4.00752 7.17891 8.53003
4.00685 7.16583 8.61659
4.00625 7.15411 8.70186
4.00571 7.14357 8.78604
4.00523 7.13407 8.86927
4.00479 7.12549 8.95168
4.00439 7.11770 9.03339
4.00402 7.11063 9.11448
4.00369 7.10421 9.19504
4.00339 7.09835 9.27513
4.00311 7.09301 9.35481
4.00286 7.08813 9.43415
4.00263 7.08369 9.51316
4.00242 7.07961 9.59191
4.00222 7.07588 9.67042
4.00204 7.07246 9.74874
4.00188 7.06932 9.82688
4.00173 7.06644 9.90487
4.00159 7.06380 9.98274
4.00146 7.06138 10.06050
4.00135 7.05915 10.13817
4.00124 7.05710 10.21577
4.00114 7.05522 10.29332
4.00105 7.05349 10.37082
4.00097 7.05190 10.44829
4.00089 7.05043 10.52574
4.00082 7.04909 10.60318
4.00076 7.04785 10.68062
4.00070 7.04670 10.75807
4.00064 7.04566 10.83552
4.00059 7.04469 10.91301
4.00054 7.04381 10.99051
4.00050 7.04297 11.06805
4.00046 7.04223 11.14562
4.00042 7.04153 11.22324
4.00039 7.04089 11.30090
4.00036 7.04030 11.37860
4.00033 7.03975 11.45637
4.00030 7.03925 11.53418
4.00028 7.03879 11.61205
4.00026 7.03836 11.68998
4.00024 7.03797 11.76798
4.00022 7.03761 11.84603
4.00020 7.03728 11.92415
4.00018 7.03697 12.00233
4.00017 7.03669 12.08058
4.00016 7.03643 12.15890
4.00014 7.03620 12.23729
4.00013 7.03598 12.31574
4.00012 7.03578 12.39427
4.00011 7.03559 12.47287
4.00010 7.03542 12.55154
4.00009 7.03527 12.63027
4.00009 7.03513 12.70910
4.00008 7.03499 12.78797
4.00007 7.03488 12.86694
4.00007 7.03476 12.94596
4.00006 7.03466 13.02508
4.00006 7.03459 13.10422
4.00005 7.03447 13.18349
4.00005 7.03438 13.26284
4.00004 7.03432 13.34221
4.00004 7.03424 13.42170
4.00004 7.03419 13.50122
4.00003 7.03412 13.58086
4.00003 7.03408 13.66050
4.00003 7.03402 13.74028
4.00002 7.03397 13.82014
4.00003 7.03394 13.89995
4.00002 7.03389 13.97994
4.00002 7.03386 14.06001
4.00002 7.03383 14.14016
4.00002 7.03381 14.22021
4.00002 7.03378 14.30045
4.00001 7.03375 14.38079
4.00001 7.03372 14.46121
4.00001 7.03370 14.54171
4.00001 7.03368 14.62229
4.00001 7.03366 14.70296
4.00001 7.03365 14.78370
4.00001 7.03363 14.86451
4.00001 7.03362 14.94539
4.00001 7.03361 15.02635
4.00000 7.03360 15.10738
4.00000 7.03359 15.18847
4.00000 7.03358 15.26964
4.00000 7.03357 15.35086
4.00000 7.03356 15.43216
4.00000 7.03355 15.51351
4.00000 7.03355 15.59493
4.00000 7.03354 15.67640
4.00000 7.03353 15.75794
4.00000 7.03353 15.83954
4.00000 7.03352 15.92119
4.00000 7.03352 16.00290
4.00000 7.03351 16.08467
4.00000 7.03351 16.16649
4.00000 7.03351 16.24837
4.00000 7.03350 16.33030
4.00000 7.03350 16.41229
4.00000 7.03350 16.49433
4.00000 7.03349 16.57642
4.00000 7.03349 16.65856
4.00000 7.03349 16.74075
4.00000 7.03350 16.82299
4.00000 7.03350 16.90529
4.00000 7.03350 16.98764
4.00000 7.03350 17.07004
4.00000 7.03349 17.15249
4.00000 7.03349 17.23499
4.00000 7.03349 17.31753
4.00000 7.03349 17.40013
4.00000 7.03349 17.48277
4.00000 7.03349 17.56546
4.00000 7.03349 17.64819
4.00000 7.03349 17.73097
4.00000 7.03349 17.81379
4.00000 7.03349 17.89667
4.00000 7.03349 17.97958
4.00000 7.03349 18.06254
4.00000 7.03348 18.14554
4.00000 7.03348 18.22859
4.00000 7.03348 18.31168
4.00000 7.03348 18.39482
4.00000 7.03348 18.47799
4.00000 7.03348 18.56121
4.00000 7.03348 18.64448
4.00000 7.03348 18.72778
4.00000 7.03348 18.81112
4.00000 7.03348 18.89451
4.00000 7.03348 18.97794
4.00000 7.03348 19.06140
4.00000 7.03348 19.14491
4.00000 7.03348 19.22846
4.00000 7.03348 19.31205
4.00000 7.03348 19.39567
4.00000 7.03348 19.47934
4.00000 7.03348 19.56304
4.00000 7.03348 19.64679
4.00000 7.03348 19.73057
4.00000 7.03348 19.81439
4.00000 7.03348 19.89824
4.00000 7.03348 19.98214
4.00000 7.03348 20.06607
4.00000 7.03348 20.15004
4.00000 7.03348 20.23404
4.00000 7.03348 20.31808

