Angle 0.133640 6.072072

4.00000 7.03348 4.00000
4.00000 7.03348 4.00000
4.00000 7.03348 4.00000
4.00000 7.03348 4.00000
4.00000 7.03348 4.00000
4.00000 7.03348 4.00000
4.00000 7.03348 4.00000
4.00000 7.03348 4.00000
4.00000 7.03348 4.00000
4.00000 7.03348 4.00000
4.00000 7.03348 4.00000
4.00000 7.03348 4.00000
4.00000 7.03348 4.00000
4.00000 7.03348 4.00000
4.00000 7.03348 4.00000
4.00000 7.03348 4.00000
4.00000 7.03348 4.00000
4.00000 7.03348 4.00000
4.00000 7.03348 4.00000
4.00000 7.03348 4.00000
4.00000 7.03348 4.00000
4.00000 7.03348 4.00000
4.00000 7.03348 4.00000
4.00000 7.03348 4.00000
4.00000 7.03348 4.00000
4.00000 7.03348 4.00000
4.00000 7.03348 4.00000
4.00000 7.03348 4.00000
4.00000 7.03347 4.00000
4.00000 7.03348 4.00000
4.00000 7.03348 4.00000
4.00000 7.03348 4.00000
4.00000 7.03348 4.00000
4.00000 7.03348 4.00000
4.00000 7.03348 4.00000
4.00000 7.03348 4.00000
4.00000 7.03348 4.00000
4.00000 7.03348 4.00000
4.00000 7.03348 4.00000
4.00000 7.03348 4.00000
4.00000 7.03348 4.00000
4.00000 7.03348 4.00000
4.00000 7.03348 4.00000
4.00000 7.03348 4.00000
4.00000 7.03348 4.00000
4.00000 7.03348 4.00000
4.00000 7.03348 4.00000
4.00000 7.03348 4.00000
4.00000 7.03348 4.00000
4.00000 7.03348 4.00000
4.00000 7.03348 4.00000
4.00000 7.03348 4.00000
4.00000 7.03348 4.00000
4.00000 7.03348 4.00000
4.00000 7.03348 4.00000
4.00000 7.03348 4.00000
4.00000 7.03348 4.00000
4.00000 7.03348 4.00000
4.00000 7.03348 4.00000
4.00000 7.03348 4.00000
4.00000 7.03348 4.00000
4.00000 7.03348 4.00000
4.00000 7.03348 4.00000
4.00000 7.03348 4.00000
4.00000 7.03348 4.00000
4.00000 7.03348 4.00000
4.00000 7.03348 4.00000
4.00000 7.03348 4.00000
4.00000 7.03348 4.00000
4.00000 7.03348 4.00000
4.00000 7.03348 4.00000
4.00000 7.03348 4.00000
4.00000 7.03348 4.00000
4.00000 7.03348 4.00000
4.00000 7.03348 4.00000
4.00000 7.03348 4.00000
4.00000 7.03348 4.00000
4.00000 7.03348 4.00000
4.00000 7.03348 4.00000
4.00000 7.03348 4.00000
4.00000 7.03348 4.00000
4.00000 7.03348 4.00000
4.00000 7.03348 4.00000
4.00000 7.03348 4.00000
4.00000 7.03348 4.00000
4.00000 7.03348 4.00000
4.00000 7.03349 4.00000
4.00000 7.03349 4.00000
4.00000 7.03348 4.00000
4.00000 7.03350 4.00000
4.00000 7.03348 4.00000
4.00000 7.03348 4.00000
4.00000 7.03348 4.00000
4.00000 7.03348 4.00000
4.00000 7.03348 4.00000
4.00145 7.06111 4.00145
4.00548 7.13906 4.00548
4.00945 7.21720 4.00945
4.01337 7.29548 4.01337
4.01726 7.37388 4.01726
4.02113 7.45236 4.02113
4.02500 7.53089 4.02500
4.02889 7.60943 4.02889
4.03281 7.68795 4.03281
4.03679 7.76641 4.03679
4.04085 7.84476 4.04085
4.04500 7.92295 4.04500
4.04928 8.00094 4.04928
4.05372 8.07866 4.05372
4.05835 8.15603 4.05835
4.06322 8.23298 4.06322
4.06837 8.30939 4.06837
4.07387 8.38516 4.07387
4.07979 8.46012 4.07979
4.08622 8.53411 4.08622
4.09327 8.60688 4.09327
4.10109 8.67818 4.10109
4.10967 8.74798 4.10967
4.11900 8.81632 4.11900
4.12914 8.88307 4.12914
4.14014 8.94815 4.14014
4.15204 9.01144 4.15204
4.16489 9.07288 4.16489
4.17872 9.13240 4.17872
4.19355 9.18995 4.19355
4.20939 9.24552 4.20939
4.22624 9.29909 4.22624
4.24409 9.35070 4.24409
4.26292 9.40039 4.26292
4.28269 9.44822 4.28269
4.30337 9.49427 4.30337
4.32491 9.53862 4.32491
4.34727 9.58137 4.34727
4.37041 9.62259 4.37041
4.39427 9.66239 4.39427
4.41883 9.70082 4.41883
4.44407 9.73792 4.44407
4.46999 9.77371 4.46999
4.49662 9.80808 4.49662
4.52407 9.84085 4.52407
4.55260 9.87148 4.55260
4.58279 9.89884 4.58279
4.61604 9.92007 4.61605
7.90228 7.32291 4.01474
8.02994 7.28495 4.01285
8.15053 7.25374 4.01129
8.26586 7.22757 4.00997
8.37710 7.20533 4.00885
8.48508 7.18622 4.00789
8.59041 7.16966 4.00705
8.69354 7.15521 4.00631
8.79484 7.14253 4.00566
8.89458 7.13135 4.00509
8.99300 7.12146 4.00458
9.09027 7.11268 4.00413
9.18656 7.10486 4.00372
9.28198 7.09788 4.00336
9.37666 7.09163 4.00304
9.47067 7.08603 4.00275
9.56410 7.08101 4.00249
9.65703 7.07649 4.00225
9.74949 7.07243 4.00204
9.84156 7.06876 4.00185
9.93326 7.06546 4.00168
10.02465 7.06247 4.00152
10.11576 7.05978 4.00138
10.20661 7.05734 4.00125
10.29724 7.05513 4.00114
10.38767 7.05313 4.00103
10.47793 7.05131 4.00094
10.56800 7.04969 4.00085
10.65795 7.04820 4.00077
10.74777 7.04685 4.00070
10.83748 7.04563 4.00064
10.92707 7.04452 4.00058
11.01659 7.04350 4.00053
11.10601 7.04260 4.00048
11.19539 7.04176 4.00043
11.28466 7.04101 4.00040
11.37392 7.04032 4.00036
11.46311 7.03971 4.00032
11.55224 7.03914 4.00030
11.64136 7.03861 4.00027
11.73044 7.03815 4.00024
11.81949 7.03774 4.00022
11.90848 7.03735 4.00020
11.99750 7.03699 4.00018
12.08648 7.03667 4.00017
12.17545 7.03638 4.00015
12.26441 7.03612 4.00014
12.35337 7.03588 4.00012
12.44232 7.03567 4.00011
12.53126 7.03547 4.00010
12.62021 7.03529 4.00009
12.70900 7.03512 4.00009
12.79791 7.03498 4.00008
12.88683 7.03484 4.00007
12.97577 7.03470 4.00006
13.06469 7.03459 4.00006
13.15362 7.03449 4.00005
13.24256 7.03440 4.00005
13.33151 7.03431 4.00004
13.42046 7.03424 4.00004
13.50942 7.03417 4.00004
13.59839 7.03410 4.00003
13.68736 7.03405 4.00003
13.77635 7.03399 4.00003
13.86534 7.03394 4.00002
13.95435 7.03390 4.00002
14.04336 7.03386 4.00002
14.13239 7.03383 4.00002
14.22142 7.03379 4.00002
14.31047 7.03376 4.00001
14.39952 7.03374 4.00001
14.48859 7.03371 4.00001
14.57766 7.03369 4.00001
14.66675 7.03367 4.00001
14.75585 7.03365 4.00001
14.84495 7.03363 4.00001
14.93407 7.03362 4.00001
15.02320 7.03360 4.00001
15.11157 7.03361 4.00001
15.20067 7.03360 4.00001
15.28978 7.03358 4.00001
15.37889 7.03358 4.00001
15.46803 7.03357 4.00000
15.55717 7.03356 4.00000
15.64632 7.03355 4.00000
15.73549 7.03355 4.00000
15.82466 7.03354 4.00000
15.91385 7.03353 4.00000
16.00305 7.03353 4.00000
16.09226 7.03352 4.00000
16.18148 7.03352 4.00000
16.27071 7.03352 4.00000
16.35996 7.03351 4.00000
16.44921 7.03351 4.00000
16.53847 7.03351 4.00000
16.62774 7.03350 4.00000
16.71703 7.03350 4.00000
16.80632 7.03350 4.00000
16.89562 7.03350 4.00000
16.98493 7.03350 4.00000
17.07426 7.03350 4.00000
17.16359 7.03349 4.00000
17.25293 7.03349 4.00000
17.34228 7.03349 4.00000
17.43164 7.03349 4.00000
17.52101 7.03349 4.00000
17.61039 7.03349 4.00000
17.69977 7.03349 4.00000
17.78917 7.03349 4.00000
17.87857 7.03349 4.00000
17.96798 7.03349 4.00000
18.05740 7.03349 4.00000
18.14683 7.03348 4.00000
18.23627 7.03348 4.00000
18.32572 7.03348 4.00000
18.41517 7.03348 4.00000
18.50463 7.03348 4.00000
18.59410 7.03348 4.00000
18.68358 7.03348 4.00000
18.77306 7.03348 4.00000
18.86256 7.03348 4.00000
18.95206 7.03348 4.00000
19.04156 7.03348 4.00000
19.13108 7.03348 4.00000
19.22060 7.03348 4.00000
19.31013 7.03348 4.00000
19.39967 7.03348 4.00000
19.48921 7.03348 4.00000
19.57876 7.03348 4.00000
19.66832 7.03348 4.00000
19.75788 7.03348 4.00000
19.84745 7.03348 4.00000
19.93703 7.03348 4.00000
20.02661 7.03348 4.00000
20.11621 7.03348 4.00000
20.20580 7.03348 4.00000
20.29541 7.03348 4.00000
20.38502 7.03348 4.00000
20.47463 7.03348 4.00000
20.56426 7.03348 4.00000
20.65388 7.03348 4.00000
20.74352 7.03348 4.00000
20.83316 7.03348 4.00000
20.92281 7.03348 4.00000
21.01246 7.03348 4.00000
21.10212 7.03348 4.00000
21.19178 7.03348 4.00000
21.28145 7.03348 4.00000
21.37113 7.03348 4.00000
21.46081 7.03348 4.00000
21.55049 7.03348 4.00000
21.64019 7.03348 4.00000
21.72988 7.03348 4.00000
21.81959 7.03348 4.00000
21.90930 7.03348 4.00000
21.99901 7.03348 4.00000
22.08873 7.03348 4.00000
22.17845 7.03348 4.00000
22.26818 7.03348 4.00000
22.35792 7.03348 4.00000
22.44766 7.03348 4.00000
22.53740 7.03348 4.00000
22.62715 7.03348 4.00000
22.71690 7.03348 4.00000
22.80666 7.03348 4.00000
22.89643 7.03348 4.00000
22.98620 7.03348 4.00000
23.07597 7.03348 4.00000
23.16575 7.03348 4.00000
23.25553 7.03348 4.00000
23.34532 7.03348 4.00000
23.43511 7.03348 4.00000
23.52491 7.03348 4.00000
23.61471 7.03348 4.00000
23.70451 7.03348 4.00000
23.79432 7.03348 4.00000
23.88414 7.03348 4.00000
23.97395 7.03348 4.00000
24.06378 7.03348 4.00000
24.15360 7.03348 4.00000
24.24343 7.03348 4.00000
24.33327 7.03348 4.00000
24.42311 7.03348 4.00000
24.51295 7.03348 4.00000
24.60280 7.03348 4.00000
24.69265 7.03348 4.00000
24.78251 7.03348 4.00000
24.87237 7.03348 4.00000
24.96223 7.03348 4.00000
25.05210 7.03348 4.00000
25.14197 7.03348 4.00000
25.23184 7.03348 4.00000
25.32172 7.03348 4.00000
25.41161 7.03348 4.00000
25.50149 7.03348 4.00000
25.59138 7.03348 4.00000
25.68128 7.03348 4.00000
25.77117 7.03348 4.00000
25.86107 7.03348 4.00000
25.95098 7.03348 4.00000
26.04089 7.03348 4.00000
26.13080 7.03348 4.00000
26.22071 7.03348 4.00000
26.31063 7.03348 4.00000
26.40055 7.03348 4.00000
26.49048 7.03348 4.00000
26.58041 7.03348 4.00000
26.67034 7.03348 4.00000
26.76028 7.03348 4.00000
26.85022 7.03348 4.00000
26.94016 7.03348 4.00000
27.03010 7.03348 4.00000
27.12005 7.03348 4.00000
27.21000 7.03348 4.00000
27.29996 7.03348 4.00000
27.38992 7.03348 4.00000
27.47988 7.03348 4.00000
27.56984 7.03348 4.00000
27.65981 7.03348 4.00000
27.74978 7.03348 4.00000
27.83975 7.03348 4.00000
27.92973 7.03348 4.00000
28.01971 7.03348 4.00000
28.10969 7.03348 4.00000
28.19968 7.03348 4.00000
28.28966 7.03348 4.00000
28.37966 7.03348 4.00000
28.46965 7.03348 4.00000
28.55965 7.03348 4.00000
28.64965 7.03348 4.00000
28.73965 7.03348 4.00000
28.82965 7.03348 4.00000
28.91966 7.03348 4.00000
29.00967 7.03348 4.00000
29.09969 7.03348 4.00000
29.18970 7.03348 4.00000
29.27972 7.03348 4.00000
29.36974 7.03348 4.00000
29.45977 7.03348 4.00000
29.54979 7.03348 4.00000
29.63982 7.03348 4.00000
29.72986 7.03348 4.00000
29.81989 7.03348 4.00000
29.90993 7.03348 4.00000
29.99997 7.03348 4.00000
30.09001 7.03348 4.00000
30.18005 7.03348 4.00000
30.27010 7.03348 4.00000
30.36015 7.03348 4.00000
30.45020 7.03348 4.00000
30.54026 7.03348 4.00000
30.63031 7.03348 4.00000
30.72037 7.03348 4.00000
30.81043 7.03348 4.00000
30.90050 7.03348 4.00000
30.99056 7.03348 4.00000
31.08063 7.03348 4.00000

Angle 0.591864 5.251514

4.00000 7.03348 4.00000
4.00000 7.03348 4.00000
4.00000 7.03348 4.00000
4.00000 7.03348 4.00000
4.00000 7.03348 4.00000
4.00000 7.03348 4.00000
4.00000 7.03348 4.00000
4.00000 7.03348 4.00000
4.00000 7.03348 4.00000
4.00000 7.03348 4.00000
4.00000 7.03348 4.00000
4.00000 7.03348 4.00000
4.00000 7.03348 4.00000
4.00000 7.03348 4.00000
4.00000 7.03348 4.00000
4.00000 7.03348 4.00000
4.00000 7.03348 4.00000
4.00000 7.03348 4.00000
4.00000 7.03348 4.00000
4.00000 7.03348 4.00000
4.00000 7.03348 4.00000
4.00000 7.03348 4.00000
4.00000 7.03348 4.00000
4.00000 7.03348 4.00000
4.00000 7.03348 4.00000
4.00000 7.03348 4.00000
4.00000 7.03348 4.00000
4.00000 7.03348 4.00000
4.00000 7.03348 4.00000
4.00000 7.03348 4.00000
4.00000 7.03348 4.00000
4.00000 7.03348 4.00000
4.00000 7.03348 4.00000
4.00000 7.03348 4.00000
4.00000 7.03349 4.00000
4.00000 7.03348 4.00000
4.00000 7.03348 4.00000
4.00000 7.03349 4.00000
4.00000 7.03348 4.00000
4.00000 7.03348 4.00000
4.00000 7.03348 4.00000
4.00000 7.03348 4.00000
4.00000 7.03348 4.00000
4.00000 7.03348 4.00000
4.00000 7.03348 4.00000
4.00000 7.03348 4.00000
4.00000 7.03348 4.00000
4.00000 7.03348 4.00000
4.00000 7.03355 4.00000
4.00000 7.03348 4.00000
4.00000 7.03348 4.00000
4.00000 7.03348 4.00000
4.00000 7.03348 4.00000
4.00000 7.03348 4.00000
4.00000 7.03348 4.00000
4.00000 7.03348 4.00000
4.00000 7.03348 4.00000
4.00228 7.07699 4.00228
4.00489 7.12754 4.00489
4.00749 7.17846 4.00749
4.01008 7.22972 4.01008
4.01267 7.28133 4.01267
4.01525 7.33326 4.01525
4.01783 7.38551 4.01783
4.02043 7.43806 4.02043
4.02303 7.49090 4.02303
4.02565 7.54402 4.02565
4.02829 7.59740 4.02829
4.03096 7.65103 4.03096
4.03367 7.70489 4.03367
4.03641 7.75896 4.03641
4.03920 7.81323 4.03920
4.04205 7.86768 4.04205
4.04497 7.92229 4.04497
4.04795 7.97703 4.04795
4.05103 8.03188 4.05103
4.05420 8.08680 4.05420
4.05748 8.14178 4.05748
4.06090 8.19677 4.06090
4.06445 8.25174 4.06445
4.06818 8.30663 4.06818
4.07210 8.36140 4.07210
4.07624 8.41599 4.07624
4.08064 8.47032 4.08064
4.08533 8.52431 4.08533
4.09036 8.57787 4.09036
4.09579 8.63088 4.09579
4.10168 8.68322 4.10168
4.10800 8.73495 4.10800
4.11474 8.78605 4.11474
4.12195 8.83648 4.12195
4.12963 8.88617 4.12963
4.13783 8.93507 4.13783
4.14656 8.98314 4.14656
4.15584 9.03032 4.15584
4.16571 9.07656 4.16571
4.17616 9.12185 4.17616
4.18723 9.16613 4.18723
4.19891 9.20938 4.19891
4.21122 9.25160 4.21122
4.22416 9.29276 4.22416
4.23774 9.33287 4.23774
4.25193 9.37194 4.25193
4.26675 9.40998 4.26675
4.28217 9.44701 4.28217
4.29818 9.48305 4.29818
4.31476 9.51815 4.31476
4.33190 9.55232 4.33190
4.34958 9.58561 4.34958
4.36778 9.61805 4.36778
4.38648 9.64968 4.38648
4.40567 9.68052 4.40567
4.42533 9.71059 4.42533
4.44546 9.73990 4.44546
4.46607 9.76844 4.46607
4.48718 9.79617 4.48718
4.50882 9.82300 4.50882
4.53109 9.84873 4.53109
4.55417 9.87304 4.55417
4.57838 9.89524 4.57838
4.60442 9.91396 4.60442
4.63379 9.92616 4.63381
7.93942 7.31131 4.01416
8.04180 7.28169 4.01268
8.13987 7.25633 4.01142
8.23458 7.23434 4.01032
8.32655 7.21510 4.00935
8.41630 7.19813 4.00849
8.50420 7.18307 4.00773
8.59054 7.16964 4.00704
8.67556 7.15761 4.00643
8.75946 7.14679 4.00588
8.84236 7.13705 4.00538
8.92445 7.12823 4.00493
9.00581 7.12025 4.00452
9.08654 7.11300 4.00414
9.16672 7.10640 4.00380
9.24643 7.10039 4.00349
9.32572 7.09491 4.00321
9.40464 7.08990 4.00295
9.48325 7.08533 4.00271
9.56159 7.08113 4.00250
9.63968 7.07730 4.00230
9.71757 7.07378 4.00211
9.79529 7.07056 4.00194
9.87285 7.06760 4.00179
9.95028 7.06488 4.00165
10.02761 7.06238 4.00152
10.10485 7.06009 4.00140
10.18201 7.05798 4.00129
10.25913 7.05603 4.00119
10.33620 7.05425 4.00109
10.41323 7.05260 4.00101
10.49025 7.05109 4.00093
10.56725 7.04970 4.00085
10.64426 7.04842 4.00079
10.72127 7.04723 4.00072
10.79829 7.04615 4.00067
10.87533 7.04515 4.00061
10.95241 7.04422 4.00057
11.02951 7.04338 4.00052
11.10666 7.04260 4.00048
11.18387 7.04185 4.00044
11.26108 7.04120 4.00041
11.33838 7.04058 4.00037
11.41571 7.04002 4.00034
11.49310 7.03950 4.00032
11.57056 7.03901 4.00029
11.64804 7.03859 4.00027
11.72563 7.03818 4.00025
11.80328 7.03779 4.00023
11.88096 7.03747 4.00021
11.95874 7.03714 4.00019
12.03659 7.03684 4.00018
12.11451 7.03657 4.00016
12.19248 7.03633 4.00015
12.27053 7.03611 4.00014
12.34866 7.03590 4.00013
12.42686 7.03570 4.00012
12.50515 7.03554 4.00011
12.58349 7.03536 4.00010
12.66194 7.03522 4.00009
12.74039 7.03509 4.00008
12.81902 7.03495 4.00008
12.89760 7.03485 4.00007
12.97637 7.03472 4.00007
13.05515 7.03462 4.00006
13.13404 7.03453 4.00006
13.21305 7.03445 4.00005
13.29200 7.03436 4.00005
13.37112 7.03430 4.00004
13.45036 7.03423 4.00004
13.52952 7.03417 4.00004
13.60885 7.03411 4.00003
13.68828 7.03406 4.00003
13.76782 7.03402 4.00003
13.84720 7.03397 4.00003
13.92682 7.03393 4.00002
14.00656 7.03389 4.00002
14.08640 7.03385 4.00002
14.16605 7.03383 4.00002
14.24599 7.03379 4.00002
14.32602 7.03376 4.00001
14.40614 7.03374 4.00001
14.48635 7.03372 4.00001
14.56666 7.03370 4.00001
14.64704 7.03368 4.00001
14.72752 7.03366 4.00001
14.80808 7.03364 4.00001
14.88872 7.03363 4.00001
14.96826 7.03363 4.00001
15.04888 7.03362 4.00001
15.12959 7.03360 4.00001
15.21038 7.03359 4.00001
15.29128 7.03357 4.00000
15.37224 7.03356 4.00000
15.45329 7.03356 4.00000
15.53441 7.03355 4.00000
15.61561 7.03354 4.00000
15.69689 7.03353 4.00000
15.77825 7.03353 4.00000
15.85967 7.03352 4.00000
15.94117 7.03351 4.00000
16.02267 7.03356 4.00000
16.10434 7.03352 4.00000
16.18605 7.03351 4.00000
16.26782 7.03351 4.00000
16.34966 7.03350 4.00000
16.43157 7.03350 4.00000
16.51354 7.03350 4.00000
16.59556 7.03351 4.00000
16.67765 7.03350 4.00000
16.75981 7.03350 4.00000
16.84203 7.03350 4.00000
16.92430 7.03350 4.00000
17.00663 7.03350 4.00000
17.08902 7.03350 4.00000
17.17147 7.03349 4.00000
17.25397 7.03349 4.00000
17.33653 7.03349 4.00000
17.41914 7.03349 4.00000
17.50181 7.03349 4.00000
17.58453 7.03349 4.00000
17.66730 7.03349 4.00000
17.75012 7.03349 4.00000
17.83299 7.03349 4.00000
17.91592 7.03349 4.00000
17.99889 7.03349 4.00000
18.08191 7.03349 4.00000
18.16498 7.03348 4.00000
18.24810 7.03348 4.00000
18.33127 7.03348 4.00000
18.41448 7.03348 4.00000
18.49774 7.03348 4.00000
18.58105 7.03348 4.00000
18.66440 7.03348 4.00000
18.74780 7.03348 4.00000
18.83124 7.03348 4.00000
18.91472 7.03348 4.00000
18.99825 7.03348 4.00000
19.08182 7.03348 4.00000
19.16544 7.03348 4.00000
19.24909 7.03348 4.00000
19.33279 7.03348 4.00000
19.41653 7.03348 4.00000
19.50031 7.03348 4.00000
19.58413 7.03348 4.00000
19.66800 7.03348 4.00000
19.75190 7.03348 4.00000
19.83584 7.03348 4.00000
19.91982 7.03348 4.00000
20.00384 7.03348 4.00000
20.08790 7.03348 4.00000
20.17200 7.03348 4.00000
20.25613 7.03348 4.00000
20.34031 7.03348 4.00000
20.42452 7.03348 4.00000
20.50876 7.03348 4.00000
20.59305 7.03348 4.00000
20.67736 7.03348 4.00000
20.76172 7.03348 4.00000
20.84611 7.03348 4.00000
20.93054 7.03348 4.00000
21.01500 7.03348 4.00000
21.09950 7.03348 4.00000
21.18403 7.03348 4.00000
21.26859 7.03348 4.00000
21.35319 7.03348 4.00000
21.43782 7.03348 4.00000
21.52249 7.03348 4.00000
21.60719 7.03348 4.00000
21.69192 7.03348 4.00000
21.77668 7.03348 4.00000
21.86148 7.03348 4.00000
21.94631 7.03348 4.00000
22.03117 7.03348 4.00000
22.11606 7.03348 4.00000
22.20098 7.03348 4.00000
22.28594 7.03348 4.00000
22.37092 7.03348 4.00000
22.45594 7.03348 4.00000
22.54098 7.03348 4.00000
22.62606 7.03348 4.00000
22.71116 7.03348 4.00000
22.79630 7.03348 4.00000
22.88146 7.03348 4.00000
22.96666 7.03348 4.00000
23.05188 7.03348 4.00000
23.13713 7.03348 4.00000
23.22241 7.03348 4.00000
23.30772 7.03348 4.00000
23.39306 7.03348 4.00000
23.47842 7.03348 4.00000
23.56381 7.03348 4.00000
23.64923 7.03348 4.00000
23.73468 7.03348 4.00000
23.82015 7.03348 4.00000
23.90565 7.03348 4.00000
23.99118 7.03348 4.00000
24.07673 7.03348 4.00000
24.16231 7.03348 4.00000
24.24791 7.03348 4.00000
24.33355 7.03348 4.00000
24.41920 7.03348 4.00000
24.50489 7.03348 4.00000
24.59059 7.03348 4.00000
24.67633 7.03348 4.00000
24.76208 7.03348 4.00000
24.84787 7.03348 4.00000
24.93367 7.03348 4.00000
25.01950 7.03348 4.00000
25.10536 7.03348 4.00000
25.19124 7.03348 4.00000
25.27714 7.03348 4.00000
25.36307 7.03348 4.00000
25.44902 7.03348 4.00000
25.53499 7.03348 4.00000
25.62099 7.03348 4.00000
25.70701 7.03348 4.00000
25.79305 7.03348 4.00000
25.87912 7.03348 4.00000
25.96520 7.03348 4.00000
26.05131 7.03348 4.00000
26.13745 7.03348 4.00000
26.22360 7.03348 4.00000
26.30978 7.03348 4.00000
26.39597 7.03348 4.00000
26.48219 7.03348 4.00000
26.56844 7.03348 4.00000
26.65470 7.03348 4.00000
26.74098 7.03348 4.00000
26.82729 7.03348 4.00000
26.91361 7.03348 4.00000
26.99996 7.03348 4.00000
27.08632 7.03348 4.00000
27.17271 7.03348 4.00000
27.25912 7.03348 4.00000
27.34554 7.03348 4.00000
27.43199 7.03348 4.00000
27.51846 7.03348 4.00000
27.60494 7.03348 4.00000
27.69145 7.03348 4.00000
27.77798 7.03348 4.00000
27.86452 7.03348 4.00000
27.95109 7.03348 4.00000
28.03767 7.03348 4.00000
28.12427 7.03348 4.00000
28.21089 7.03348 4.00000
28.29753 7.03348 4.00000
28.38419 7.03348 4.00000
28.47087 7.03348 4.00000
28.55756 7.03348 4.00000
28.64427 7.03348 4.00000
28.73101 7.03348 4.00000
28.81775 7.03348 4.00000
28.90452 7.03348 4.00000
28.99131 7.03348 4.00000
29.07811 7.03348 4.00000
29.16493 7.03348 4.00000
29.25176 7.03348 4.00000
29.33862 7.03348 4.00000
29.42549 7.03348 4.00000
29.51238 7.03348 4.00000
29.59928 7.03348 4.00000
29.68620 7.03348 4.00000
29.77314 7.03348 4.00000
29.86010 7.03348 4.00000
29.94707 7.03348 4.00000
30.03406 7.03348 4.00000
30.12106 7.03348 4.00000
30.20808 7.03348 4.00000
30.29512 7.03348 4.00000
30.38217 7.03348 4.00000
30.46924 7.03348 4.00000
30.55632 7.03348 4.00000
30.64342 7.03348 4.00000
30.73054 7.03348 4.00000
30.81767 7.03348 4.00000
30.90481 7.03348 4.00000
30.99197 7.03348 4.00000

Angle 0.244550 4.903449

4.00000 7.03348 4.00000
4.00000 7.03348 4.00000
4.00000 7.03348 4.00000
4.00000 7.03348 4.00000
4.00000 7.03348 4.00000
4.00000 7.03348 4.00000
4.00000 7.03348 4.00000
4.00000 7.03348 4.00000
4.00000 7.03348 4.00000
4.00000 7.03348 4.00000
4.00000 7.03348 4.00000
4.00000 7.03348 4.00000
4.00000 7.03348 4.00000
4.00000 7.03348 4.00000
4.00000 7.03348 4.00000
4.00000 7.03348 4.00000
4.00000 7.03348 4.00000
4.00000 7.03348 4.00000
4.00000 7.03348 4.00000
4.00000 7.03348 4.00000
4.00000 7.03348 4.00000
4.00000 7.03348 4.00000
4.00000 7.03348 4.00000
4.00000 7.03348 4.00000
4.00000 7.03348 4.00000
4.00000 7.03348 4.00000
4.00000 7.03348 4.00000
4.00000 7.03348 4.00000
4.00000 7.03348 4.00000
4.00000 7.03348 4.00000
4.00000 7.03348 4.00000
4.00000 7.03348 4.00000
4.00000 7.03348 4.00000
4.00000 7.03348 4.00000
4.00000 7.03348 4.00000
4.00000 7.03348 4.00000
4.00000 7.03348 4.00000
4.00000 7.03348 4.00000
4.00000 7.03348 4.00000
4.00000 7.03348 4.00000
4.00000 7.03348 4.00000
4.00000 7.03348 4.00000
4.00000 7.03348 4.00000
4.00000 7.03348 4.00000
4.00000 7.03348 4.00000
4.00000 7.03348 4.00000
4.00000 7.03348 4.00000
4.00000 7.03348 4.00000
4.00000 7.03348 4.00000
4.00000 7.03348 4.00000
4.00000 7.03348 4.00000
4.00000 7.03349 4.00000
4.00000 7.03349 4.00000
4.00000 7.03349 4.00000
4.00000 7.03348 4.00000
4.00000 7.03348 4.00000
4.00000 7.03348 4.00000
4.00000 7.03348 4.00000
4.00000 7.03348 4.00000
4.00000 7.03348 4.00000
4.00000 7.03348 4.00000
4.00000 7.03348 4.00000
4.00000 7.03352 4.00000
4.00000 7.03348 4.00000
4.00000 7.03350 4.00000
4.00000 7.03348 4.00000
4.00036 7.04027 4.00036
4.00427 7.11537 4.00427
4.00811 7.19069 4.00811
4.01191 7.26619 4.01191
4.01567 7.34185 4.01567
4.01942 7.41763 4.01942
4.02316 7.49349 4.02316
4.02691 7.56942 4.02691
4.03068 7.64538 4.03068
4.03450 7.72133 4.03450
4.03838 7.79723 4.03838
4.04234 7.87304 4.04234
4.04640 7.94872 4.04640
4.05059 8.02422 4.05059
4.05495 8.09947 4.05495
4.05949 8.17440 4.05949
4.06427 8.24894 4.06427
4.06933 8.32298 4.06933
4.07473 8.39641 4.07473
4.08054 8.46909 4.08054
4.08684 8.54085 4.08684
4.09375 8.61146 4.09375
4.10138 8.68068 4.10138
4.10974 8.74852 4.10974
4.11881 8.81500 4.11881
4.12865 8.88000 4.12865
4.13930 8.94343 4.13930
4.15081 9.00520 4.15081
4.16322 9.06524 4.16322
4.17655 9.12348 4.17655
4.19084 9.17987 4.19084
4.20609 9.23439 4.20609
4.22231 9.28704 4.22231
4.23948 9.33782 4.23948
4.25759 9.38678 4.25759
4.27662 9.43396 4.27662
4.29653 9.47944 4.29653
4.31727 9.52328 4.31727
4.33882 9.56557 4.33882
4.36113 9.60640 4.36113
4.38416 9.64584 4.38416
4.40787 9.68395 4.40787
4.43223 9.72081 4.43223
4.45725 9.75640 4.45725
4.48293 9.79072 4.48293
4.50934 9.82362 4.50934
4.53663 9.85481 4.53663
4.56515 9.88359 4.56515
4.59568 9.90839 4.59568
4.63019 9.92526 4.63019
7.94926 7.30831 4.01401
8.07160 7.27369 4.01228
8.18785 7.24490 4.01084
8.29948 7.22056 4.00962
8.40748 7.19972 4.00857
8.51255 7.18171 4.00766
8.61522 7.16603 4.00686
8.71589 7.15229 4.00616
8.81487 7.14018 4.00554
8.91243 7.12948 4.00499
9.00876 7.11997 4.00450
9.10404 7.11151 4.00407
9.19840 7.10395 4.00368
9.29197 7.09719 4.00333
9.38483 7.09112 4.00301
9.47709 7.08567 4.00273
9.56880 7.08077 4.00248
9.66003 7.07635 4.00225
9.75085 7.07237 4.00204
9.84129 7.06877 4.00185
9.93140 7.06552 4.00168
10.02121 7.06258 4.00153
10.11077 7.05991 4.00139
10.20009 7.05750 4.00126
10.28921 7.05532 4.00115
10.37814 7.05333 4.00104
10.46692 7.05153 4.00095
10.55554 7.04990 4.00086
10.64404 7.04842 4.00079
10.73243 7.04707 4.00072
10.82070 7.04586 4.00065
10.90891 7.04474 4.00059
10.99703 7.04373 4.00054
11.08510 7.04279 4.00049
11.17306 7.04198 4.00045
11.26103 7.04120 4.00040
11.34891 7.04052 4.00037
11.43678 7.03987 4.00033
11.52457 7.03932 4.00031
11.61239 7.03878 4.00028
11.70017 7.03830 4.00025
11.78792 7.03787 4.00023
11.87563 7.03749 4.00021
11.96338 7.03712 4.00019
12.05109 7.03679 4.00017
12.13881 7.03650 4.00016
12.22652 7.03623 4.00014
12.31423 7.03598 4.00013
12.40194 7.03576 4.00012
12.48965 7.03555 4.00011
12.57737 7.03537 4.00010
12.66510 7.03520 4.00009
12.75283 7.03504 4.00008
12.84057 7.03490 4.00007
12.92832 7.03477 4.00007
13.01608 7.03466 4.00006
13.10385 7.03455 4.00005
13.19163 7.03445 4.00005
13.27943 7.03437 4.00004
13.36723 7.03428 4.00004
13.45505 7.03421 4.00004
13.54288 7.03414 4.00003
13.63073 7.03408 4.00003
13.71859 7.03403 4.00003
13.80647 7.03398 4.00003
13.89436 7.03393 4.00002
13.98226 7.03389 4.00002
14.07018 7.03385 4.00002
14.15811 7.03382 4.00002
14.24606 7.03378 4.00002
14.33403 7.03376 4.00001
14.42201 7.03373 4.00001
14.51001 7.03371 4.00001
14.59802 7.03368 4.00001
14.68604 7.03366 4.00001
14.77409 7.03365 4.00001
14.86214 7.03363 4.00001
14.95022 7.03362 4.00001
15.03831 7.03360 4.00001
15.12626 7.03360 4.00001
15.21438 7.03359 4.00001
15.30252 7.03358 4.00001
15.39067 7.03357 4.00000
15.47884 7.03357 4.00000
15.56703 7.03356 4.00000
15.65523 7.03355 4.00000
15.74344 7.03354 4.00000
15.83167 7.03354 4.00000
15.91992 7.03353 4.00000
16.00818 7.03353 4.00000
16.09645 7.03352 4.00000
16.18474 7.03352 4.00000
16.27304 7.03352 4.00000
16.36136 7.03351 4.00000
16.44970 7.03351 4.00000
16.53804 7.03351 4.00000
16.62641 7.03350 4.00000
16.71478 7.03350 4.00000
16.80317 7.03350 4.00000
16.89158 7.03350 4.00000
16.97999 7.03350 4.00000
17.06842 7.03350 4.00000
17.15687 7.03349 4.00000
17.24533 7.03349 4.00000
17.33380 7.03349 4.00000
17.42229 7.03349 4.00000
17.51078 7.03349 4.00000
17.59930 7.03349 4.00000
17.68782 7.03349 4.00000
17.77636 7.03349 4.00000
17.86491 7.03349 4.00000
17.95347 7.03349 4.00000
18.04205 7.03349 4.00000
18.13064 7.03348 4.00000
18.21924 7.03348 4.00000
18.30785 7.03348 4.00000
18.39648 7.03348 4.00000
18.48511 7.03348 4.00000
18.57376 7.03348 4.00000
18.66242 7.03348 4.00000
18.75110 7.03348 4.00000
18.83978 7.03348 4.00000
18.92848 7.03348 4.00000
19.01719 7.03348 4.00000
19.10591 7.03348 4.00000
19.19464 7.03348 4.00000
19.28338 7.03348 4.00000
19.37213 7.03348 4.00000
19.46090 7.03348 4.00000
19.54967 7.03348 4.00000
19.63846 7.03348 4.00000
19.72726 7.03348 4.00000
19.81606 7.03348 4.00000
19.90488 7.03348 4.00000
19.99371 7.03348 4.00000
20.08255 7.03348 4.00000
20.17140 7.03348 4.00000
20.26026 7.03348 4.00000
20.34913 7.03348 4.00000
20.43801 7.03348 4.00000
20.52690 7.03348 4.00000
20.61580 7.03348 4.00000
20.70471 7.03348 4.00000
20.79364 7.03348 4.00000
20.88257 7.03348 4.00000
20.97151 7.03348 4.00000
21.06045 7.03348 4.00000
21.14941 7.03348 4.00000
21.23838 7.03348 4.00000
21.32736 7.03348 4.00000
21.41635 7.03348 4.00000
21.50534 7.03348 4.00000
21.59435 7.03348 4.00000
21.68336 7.03348 4.00000
21.77239 7.03348 4.00000
21.86142 7.03348 4.00000
21.95046 7.03348 4.00000
22.03951 7.03348 4.00000
22.12857 7.03348 4.00000
22.21764 7.03348 4.00000
22.30671 7.03348 4.00000
22.39580 7.03348 4.00000
22.48489 7.03348 4.00000
22.57399 7.03348 4.00000
22.66310 7.03348 4.00000
22.75222 7.03348 4.00000
22.84135 7.03348 4.00000
22.93048 7.03348 4.00000
23.01963 7.03348 4.00000
23.10878 7.03348 4.00000
23.19794 7.03348 4.00000
23.28710 7.03348 4.00000
23.37628 7.03348 4.00000
23.46546 7.03348 4.00000
23.55465 7.03348 4.00000
23.64385 7.03348 4.00000
23.73305 7.03348 4.00000
23.82226 7.03348 4.00000
23.91148 7.03348 4.00000
24.00071 7.03348 4.00000
24.08995 7.03348 4.00000
24.17919 7.03348 4.00000
24.26844 7.03348 4.00000
24.35769 7.03348 4.00000
24.44696 7.03348 4.00000
24.53623 7.03348 4.00000
24.62551 7.03348 4.00000
24.71479 7.03348 4.00000
24.80408 7.03348 4.00000
24.89338 7.03348 4.00000
24.98269 7.03348 4.00000
25.07200 7.03348 4.00000
25.16132 7.03348 4.00000
25.25064 7.03348 4.00000
25.33998 7.03348 4.00000
25.42931 7.03348 4.00000
25.51866 7.03348 4.00000
25.60801 7.03348 4.00000
25.69737 7.03348 4.00000
25.78673 7.03348 4.00000
25.87611 7.03348 4.00000
25.96548 7.03348 4.00000
26.05487 7.03348 4.00000
26.14426 7.03348 4.00000
26.23365 7.03348 4.00000
26.32305 7.03348 4.00000
26.41246 7.03348 4.00000
26.50188 7.03348 4.00000
26.59130 7.03348 4.00000
26.68072 7.03348 4.00000
26.77015 7.03348 4.00000
26.85959 7.03348 4.00000
26.94903 7.03348 4.00000
27.03848 7.03348 4.00000
27.12794 7.03348 4.00000
27.21740 7.03348 4.00000
27.30687 7.03348 4.00000
27.39634 7.03348 4.00000
27.48581 7.03348 4.00000
27.57530 7.03348 4.00000
27.66479 7.03348 4.00000
27.75428 7.03348 4.00000
27.84378 7.03348 4.00000
27.93328 7.03348 4.00000
28.02279 7.03348 4.00000
28.11231 7.03348 4.00000
28.20183 7.03348 4.00000
28.29135 7.03348 4.00000
28.38088 7.03348 4.00000
28.47042 7.03348 4.00000
28.55996 7.03348 4.00000
28.64951 7.03348 4.00000
28.73906 7.03348 4.00000
28.82861 7.03348 4.00000
28.91818 7.03348 4.00000
29.00774 7.03348 4.00000
29.09731 7.03348 4.00000
29.18689 7.03348 4.00000
29.27647 7.03348 4.00000
29.36605 7.03348 4.00000
29.45564 7.03348 4.00000
29.54524 7.03348 4.00000
29.63484 7.03348 4.00000
29.72444 7.03348 4.00000
29.81405 7.03348 4.00000
29.90366 7.03348 4.00000
29.99328 7.03348 4.00000
30.08290 7.03348 4.00000
30.17253 7.03348 4.00000
30.26216 7.03348 4.00000
30.35180 7.03348 4.00000
30.44144 7.03348 4.00000
30.53108 7.03348 4.00000
30.62073 7.03348 4.00000
30.71039 7.03348 4.00000
30.80004 7.03348 4.00000
30.88970 7.03348 4.00000
30.97937 7.03348 4.00000
31.06904 7.03348 4.00000
31.15872 7.03348 4.00000
31.24839 7.03348 4.00000
31.33808 7.03348 4.00000
31.42776 7.03348 4.00000
31.51745 7.03348 4.00000
31.60715 7.03348 4.00000
31.69685 7.03348 4.00000
31.78655 7.03348 4.00000
31.87626 7.03348 4.00000
31.96597 7.03348 4.00000
32.05568 7.03348 4.00000
32.14540 7.03348 4.00000
32.23512 7.03348 4.00000
32.32485 7.03348 4.00000
32.41458 7.03348 4.00000
32.50431 7.03348 4.00000
32.59405 7.03348 4.00000
32.68379 7.03348 4.00000
32.77354 7.03348 4.00000
32.86329 7.03348 4.00000
32.95304 7.03348 4.00000
33.04279 7.03348 4.00000
33.13255 7.03348 4.00000
33.22232 7.03348 4.00000
33.31208 7.03348 4.00000

Angle 0.304261 1.183627

4.00000 7.03348 4.00000
4.00000 7.03348 4.00000
4.00000 7.03348 4.00000
4.00000 7.03348 4.00000
4.00000 7.03348 4.00000
4.00000 7.03348 4.00000
4.00000 7.03348 4.00000
4.00000 7.03348 4.00000
4.00000 7.03348 4.00000
4.00000 7.03348 4.00000
4.00000 7.03348 4.00000
4.00000 7.03348 4.00000
4.00000 7.03348 4.00000
4.00000 7.03348 4.00000
4.00000 7.03348 4.00000
4.00000 7.03348 4.00000
4.00000 7.03348 4.00000
4.00000 7.03348 4.00000
4.00000 7.03348 4.00000
4.00000 7.03348 4.00000
4.00000 7.03348 4.00000
4.00000 7.03348 4.00000
4.00000 7.03348 4.00000
4.00000 7.03348 4.00000
4.00000 7.03348 4.00000
4.00000 7.03348 4.00000
4.00000 7.03348 4.00000
4.00000 7.03349 4.00000
4.00000 7.03349 4.00000
4.00000 7.03348 4.00000
4.00000 7.03345 4.00000
4.00000 7.03348 4.00000
4.00000 7.03348 4.00000
4.00000 7.03348 4.00000
4.00000 7.03348 4.00000
4.00000 7.03348 4.00000
4.00000 7.03348 4.00000
4.00000 7.03348 4.00000
4.00000 7.03348 4.00000
4.00000 7.03348 4.00000
4.00000 7.03348 4.00000
4.00000 7.03348 4.00000
4.00000 7.03348 4.00000
4.00000 7.03348 4.00000
4.00000 7.03348 4.00000
4.00000 7.03348 4.00000
4.00000 7.03348 4.00000
4.00000 7.03348 4.00000
4.00000 7.03348 4.00000
4.00000 7.03348 4.00000
4.00000 7.03348 4.00000
4.00000 7.03349 4.00000
4.00000 7.03349 4.00000
4.00000 7.03349 4.00000
4.00000 7.03350 4.00000
4.00000 7.03350 4.00000
4.00000 7.03350 4.00000
4.00000 7.03351 4.00000
4.00000 7.03352 4.00000
4.00000 7.03353 4.00000
4.00000 7.03348 4.00000
4.00000 7.03348 4.00000
4.00000 7.03348 4.00000
4.00000 7.03348 4.00000
4.00000 7.03348 4.00000
4.00000 7.03348 4.00000
4.00000 7.03348 4.00000
4.00000 7.03348 4.00000
4.00000 7.03348 4.00000
4.00000 7.03349 4.00000
4.00000 7.03348 4.00000
4.00000 7.03348 4.00000
4.00000 7.03353 4.00000
4.00000 7.03348 4.00000
4.00000 7.03348 4.00000
4.00000 7.03348 4.00000
4.00000 7.03348 4.00000
4.00000 7.03348 4.00000
4.00000 7.03348 4.00000
4.00000 7.03348 4.00000
4.00000 7.03348 4.00000
4.00152 7.06229 4.00151
4.00363 7.10299 4.00363
4.00574 7.14410 4.00574
4.00786 7.18562 4.00786
4.00997 7.22753 4.00997
4.01209 7.26983 4.01209
4.01422 7.31251 4.01422
4.01635 7.35557 4.01636
4.01850 7.39899 4.01850
4.02066 7.44276 4.02066
4.02283 7.48689 4.02283
4.02502 7.53135 4.02502
4.02724 7.57614 4.02724
4.02948 7.62125 4.02948
4.03174 7.66667 4.03174
4.03404 7.71238 4.03404
4.03638 7.75838 4.03638
4.03876 7.80466 4.03876
4.04118 7.85118 4.04119
4.04366 7.89796 4.04366
4.04619 7.94496 4.04619
4.04879 7.99217 4.04879
4.05147 8.03958 4.05147
4.05422 8.08716 4.05422
4.05706 8.13489 4.05706
4.06001 8.18274 4.06001
4.06307 8.23068 4.06307
4.06626 8.27870 4.06626
4.06960 8.32674 4.06960
4.07309 8.37477 4.07309
4.07677 8.42274 4.07677
4.08066 8.47061 4.08066
4.08479 8.51830 4.08479
4.08919 8.56576 4.08919
4.09390 8.61290 4.09389
4.09896 8.65963 4.09896
4.10439 8.70591 4.10439
4.11016 8.75180 4.11016
4.11630 8.79726 4.11630
4.12281 8.84224 4.12281
4.12972 8.88671 4.12972
4.13705 8.93061 4.13705
4.14483 8.97391 4.14483
4.15306 9.01657 4.15306
4.16177 9.05854 4.16177
4.17097 9.09980 4.17097
4.18067 9.14032 4.18067
4.19089 9.18006 4.19089
4.20164 9.21902 4.20164
4.21292 9.25716 4.21292
4.22473 9.29449 4.22473
4.23708 9.33100 4.23708
4.24997 9.36669 4.24997
4.26338 9.40156 4.26338
4.27732 9.43563 4.27732
4.29178 9.46892 4.29178
4.30674 9.50143 4.30673
4.32219 9.53320 4.32219
4.33812 9.56423 4.33812
4.35451 9.59458 4.35451
4.37136 9.62424 4.37136
4.38865 9.65325 4.38866
4.40637 9.68163 4.40638
4.42452 9.70938 4.42452
4.44308 9.73651 4.44308
4.46207 9.76301 4.46207
4.48149 9.78885 4.48149
4.50138 9.81397 4.50138
4.52181 9.83825 4.52181
4.54286 9.86146 4.54286
4.56475 9.88322 4.56475
4.58785 9.90276 4.58785
4.61291 9.91858 4.61291
4.64153 9.92749 4.64152
7.95695 7.30603 4.01390
8.05192 7.27895 4.01255
8.14326 7.25550 4.01138
8.23175 7.23496 4.01035
8.31792 7.21682 4.00943
8.40217 7.20069 4.00862
8.48481 7.18626 4.00789
8.56610 7.17331 4.00723
8.64622 7.16163 4.00664
8.72536 7.15107 4.00610
8.80365 7.14149 4.00561
8.88119 7.13278 4.00516
8.95810 7.12485 4.00475
9.03446 7.11760 4.00438
9.11034 7.11098 4.00404
9.18580 7.10492 4.00373
9.26090 7.09935 4.00344
9.33568 7.09426 4.00318
9.41020 7.08957 4.00293
9.48448 7.08526 4.00271
9.55856 7.08129 4.00250
9.63247 7.07764 4.00231
9.70624 7.07428 4.00214
9.77988 7.07117 4.00198
9.85343 7.06831 4.00183
9.92691 7.06567 4.00169
10.00031 7.06324 4.00156
10.07368 7.06099 4.00144
10.14701 7.05891 4.00134
10.22032 7.05699 4.00124
10.29363 7.05521 4.00114
10.36693 7.05357 4.00106
10.44025 7.05206 4.00098
10.51360 7.05066 4.00090
10.58697 7.04936 4.00084
10.66038 7.04816 4.00077
10.73383 7.04705 4.00071
10.80734 7.04602 4.00066
10.88088 7.04508 4.00061
10.95450 7.04420 4.00057
11.02817 7.04339 4.00052
11.10192 7.04264 4.00048
11.17573 7.04194 4.00045
11.24961 7.04131 4.00041
11.32358 7.04071 4.00038
11.39762 7.04015 4.00035
11.47173 7.03966 4.00033
11.54595 7.03918 4.00030
11.62024 7.03874 4.00028
11.69461 7.03834 4.00026
11.76908 7.03797 4.00024
11.84363 7.03762 4.00022
11.91828 7.03731 4.00020
11.99302 7.03701 4.00018
12.06784 7.03674 4.00017
12.14276 7.03650 4.00016
12.21777 7.03627 4.00015
12.29288 7.03605 4.00014
12.36808 7.03585 4.00012
12.44337 7.03567 4.00012
12.51876 7.03550 4.00011
12.59424 7.03534 4.00010
12.66982 7.03520 4.00009
12.74549 7.03507 4.00008
12.82127 7.03495 4.00008
12.89712 7.03482 4.00007
12.97308 7.03473 4.00007
13.04909 7.03464 4.00006
13.12527 7.03454 4.00006
13.20148 7.03445 4.00005
13.27782 7.03438 4.00005
13.35429 7.03432 4.00004
13.43074 7.03423 4.00004
13.50734 7.03418 4.00004
13.58409 7.03413 4.00003
13.66096 7.03409 4.00003
13.73766 7.03403 4.00003
13.81464 7.03399 4.00003
13.89174 7.03395 4.00002
13.96897 7.03391 4.00002
14.04631 7.03388 4.00002
14.12377 7.03385 4.00002
14.20133 7.03382 4.00002
14.27900 7.03380 4.00002
14.35587 7.03376 4.00002
14.43357 7.03374 4.00001
14.51139 7.03372 4.00001
14.58932 7.03370 4.00001
14.66734 7.03369 4.00001
14.74547 7.03367 4.00001
14.82370 7.03366 4.00001
14.90202 7.03364 4.00001
14.98043 7.03363 4.00001
15.05893 7.03362 4.00001
15.13586 7.03360 4.00001
15.21432 7.03359 4.00001
15.29289 7.03358 4.00001
15.37156 7.03358 4.00001
15.45033 7.03357 4.00000
15.52920 7.03356 4.00000
15.60817 7.03354 4.00000
15.68722 7.03354 4.00000
15.76636 7.03353 4.00000
15.84558 7.03353 4.00000
15.92488 7.03352 4.00000
16.00427 7.03352 4.00000
16.08373 7.03352 4.00000
16.16327 7.03351 4.00000
16.24288 7.03351 4.00000
16.32257 7.03350 4.00000
16.40233 7.03350 4.00000
16.48216 7.03350 4.00000
16.56206 7.03350 4.00000
16.64202 7.03349 4.00000
16.72205 7.03349 4.00000
16.80215 7.03349 4.00000
16.88231 7.03350 4.00000
16.96254 7.03350 4.00000
17.04283 7.03350 4.00000
17.12319 7.03349 4.00000
17.20361 7.03349 4.00000
17.28409 7.03349 4.00000
17.36462 7.03349 4.00000
17.44522 7.03349 4.00000
17.52587 7.03349 4.00000
17.60659 7.03349 4.00000
17.68735 7.03349 4.00000
17.76818 7.03349 4.00000
17.84906 7.03349 4.00000
17.93000 7.03349 4.00000
18.01099 7.03349 4.00000
18.09203 7.03348 4.00000
18.17313 7.03348 4.00000
18.25428 7.03348 4.00000
18.33549 7.03348 4.00000
18.41675 7.03348 4.00000
18.49805 7.03348 4.00000
18.57941 7.03348 4.00000
18.66083 7.03348 4.00000
18.74229 7.03348 4.00000
18.82380 7.03348 4.00000
18.90536 7.03348 4.00000
18.98697 7.03348 4.00000
19.06863 7.03348 4.00000
19.15034 7.03348 4.00000
19.23210 7.03348 4.00000
19.31391 7.03348 4.00000
19.39576 7.03348 4.00000
19.47766 7.03348 4.00000
19.55961 7.03348 4.00000
19.64160 7.03348 4.00000
19.72364 7.03348 4.00000
19.80573 7.03348 4.00000
19.88786 7.03348 4.00000
19.97004 7.03348 4.00000
20.05226 7.03348 4.00000
20.13453 7.03348 4.00000
20.21684 7.03348 4.00000
20.29920 7.03348 4.00000
20.38160 7.03348 4.00000
20.46404 7.03348 4.00000
20.54653 7.03348 4.00000
20.62906 7.03348 4.00000
20.71163 7.03348 4.00000
20.79424 7.03348 4.00000
20.87690 7.03348 4.00000
20.95960 7.03348 4.00000
21.04234 7.03348 4.00000
21.12512 7.03348 4.00000
21.20794 7.03348 4.00000
21.29080 7.03348 4.00000
21.37371 7.03348 4.00000
21.45665 7.03348 4.00000
21.53963 7.03348 4.00000
21.62266 7.03348 4.00000
21.70572 7.03348 4.00000
21.78882 7.03348 4.00000
21.87196 7.03348 4.00000
21.95514 7.03348 4.00000
22.03835 7.03348 4.00000
22.12161 7.03348 4.00000
22.20490 7.03348 4.00000
22.28823 7.03348 4.00000
22.37160 7.03348 4.00000
22.45500 7.03348 4.00000
22.53844 7.03348 4.00000
22.62192 7.03348 4.00000
22.70543 7.03348 4.00000
22.78898 7.03348 4.00000
22.87257 7.03348 4.00000
22.95619 7.03348 4.00000
23.03984 7.03348 4.00000
23.12354 7.03348 4.00000
23.20726 7.03348 4.00000
23.29102 7.03348 4.00000
23.37482 7.03348 4.00000
23.45865 7.03348 4.00000
23.54251 7.03348 4.00000
23.62641 7.03348 4.00000
23.71034 7.03348 4.00000
23.79430 7.03348 4.00000
23.87830 7.03348 4.00000
23.96233 7.03348 4.00000
24.04639 7.03348 4.00000
24.13049 7.03348 4.00000
24.21461 7.03348 4.00000
24.29877 7.03348 4.00000
24.38296 7.03348 4.00000
24.46718 7.03348 4.00000
24.55144 7.03348 4.00000
24.63572 7.03348 4.00000
24.72004 7.03348 4.00000
24.80438 7.03348 4.00000
24.88876 7.03348 4.00000
24.97316 7.03348 4.00000
25.05760 7.03348 4.00000
25.14207 7.03348 4.00000
25.22656 7.03348 4.00000
25.31109 7.03348 4.00000
25.39565 7.03348 4.00000
25.48023 7.03348 4.00000
25.56484 7.03348 4.00000
25.64949 7.03348 4.00000
25.73416 7.03348 4.00000
25.81885 7.03348 4.00000
25.90358 7.03348 4.00000
25.98834 7.03348 4.00000
26.07312 7.03348 4.00000
26.15793 7.03348 4.00000
26.24277 7.03348 4.00000
26.32763 7.03348 4.00000
26.41252 7.03348 4.00000
26.49744 7.03348 4.00000
26.58239 7.03348 4.00000
26.66736 7.03348 4.00000
26.75236 7.03348 4.00000
26.83739 7.03348 4.00000
26.92244 7.03348 4.00000
27.00751 7.03348 4.00000
27.09262 7.03348 4.00000
27.17774 7.03348 4.00000
27.26290 7.03348 4.00000
27.34808 7.03348 4.00000
27.43328 7.03348 4.00000
27.51851 7.03348 4.00000

Angle 0.125712 1.867904

4.00000 7.03348 4.00000
4.00000 7.03348 4.00000
4.00000 7.03348 4.00000
4.00000 7.03348 4.00000
4.00000 7.03348 4.00000
4.00000 7.03347 4.00000
4.00000 7.03348 4.00000
4.00000 7.03348 4.00000
4.00000 7.03348 4.00000
4.00000 7.03348 4.00000
4.00000 7.03348 4.00000
4.00000 7.03348 4.00000
4.00000 7.03348 4.00000
4.00000 7.03348 4.00000
4.00000 7.03348 4.00000
4.00000 7.03348 4.00000
4.00000 7.03348 4.00000
4.00000 7.03348 4.00000
4.00000 7.03348 4.00000
4.00000 7.03348 4.00000
4.00000 7.03348 4.00000
4.00000 7.03348 4.00000
4.00000 7.03348 4.00000
4.00000 7.03348 4.00000
4.00000 7.03348 4.00000
4.00000 7.03348 4.00000
4.00000 7.03348 4.00000
4.00000 7.03348 4.00000
4.00000 7.03348 4.00000
4.00000 7.03348 4.00000
4.00000 7.03348 4.00000
4.00000 7.03348 4.00000
4.00000 7.03348 4.00000
4.00000 7.03348 4.00000
4.00000 7.03348 4.00000
4.00000 7.03348 4.00000
4.00000 7.03348 4.00000
4.00000 7.03348 4.00000
4.00000 7.03348 4.00000
4.00000 7.03348 4.00000
4.00000 7.03348 4.00000
4.00000 7.03348 4.00000
4.00000 7.03348 4.00000
4.00000 7.03348 4.00000
4.00000 7.03348 4.00000
4.00000 7.03348 4.00000
4.00000 7.03348 4.00000
4.00000 7.03348 4.00000
4.00000 7.03348 4.00000
4.00000 7.03348 4.00000
4.00000 7.03348 4.00000
4.00000 7.03348 4.00000
4.00000 7.03348 4.00000
4.00000 7.03348 4.00000
4.00000 7.03348 4.00000
4.00000 7.03348 4.00000
4.00000 7.03348 4.00000
4.00000 7.03348 4.00000
4.00000 7.03348 4.00000
4.00000 7.03348 4.00000
4.00000 7.03348 4.00000
4.00000 7.03348 4.00000
4.00000 7.03348 4.00000
4.00000 7.03348 4.00000
4.00000 7.03348 4.00000
4.00000 7.03348 4.00000
4.00000 7.03348 4.00000
4.00000 7.03348 4.00000
4.00000 7.03348 4.00000
4.00000 7.03348 4.00000
4.00000 7.03348 4.00000
4.00000 7.03348 4.00000
4.00000 7.03348 4.00000
4.00000 7.03348 4.00000
4.00000 7.03348 4.00000
4.00000 7.03348 4.00000
4.00000 7.03348 4.00000
4.00000 7.03348 4.00000
4.00000 7.03348 4.00000
4.00000 7.03348 4.00000
4.00000 7.03348 4.00000
4.00000 7.03348 4.00000
4.00000 7.03348 4.00000
4.00000 7.03348 4.00000
4.00000 7.03348 4.00000
4.00000 7.03348 4.00000
4.00000 7.03348 4.00000
4.00000 7.03348 4.00000
4.00000 7.03348 4.00000
4.00000 7.03348 4.00000
4.00000 7.03348 4.00000
4.00000 7.03348 4.00000
4.00000 7.03348 4.00000
4.00000 7.03348 4.00000
4.00000 7.03348 4.00000
4.00000 7.03348 4.00000
4.00000 7.03348 4.00000
4.00000 7.03348 4.00000
4.00000 7.03348 4.00000
4.00000 7.03348 4.00000
4.00000 7.03348 4.00000
4.00000 7.03348 4.00000
4.00000 7.03348 4.00000
4.00000 7.03348 4.00000
4.00000 7.03348 4.00000
4.00000 7.03348 4.00000
4.00000 7.03348 4.00000
4.00000 7.03348 4.00000
4.00000 7.03348 4.00000
4.00000 7.03348 4.00000
4.00000 7.03348 4.00000
4.00000 7.03348 4.00000
4.00000 7.03348 4.00000
4.00000 7.03348 4.00000
4.00000 7.03348 4.00000
4.00000 7.03348 4.00000
4.00000 7.03348 4.00000
4.00000 7.03348 4.00000
4.00000 7.03348 4.00000
4.00000 7.03348 4.00000
4.00000 7.03348 4.00000
4.00000 7.03348 4.00000
4.00000 7.03348 4.00000
4.00000 7.03348 4.00000
4.00000 7.03348 4.00000
4.00000 7.03348 4.00000
4.00000 7.03348 4.00000
4.00000 7.03348 4.00000
4.00000 7.03348 4.00000
4.00000 7.03348 4.00000
4.00000 7.03348 4.00000
4.00000 7.03348 4.00000
4.00000 7.03348 4.00000
4.00000 7.03348 4.00000
4.00000 7.03348 4.00000
4.00000 7.03347 4.00000
4.00000 7.03348 4.00000
4.00000 7.03348 4.00000
4.00000 7.03348 4.00000
4.00000 7.03348 4.00000
4.00000 7.03348 4.00000
4.00000 7.03348 4.00000
4.00000 7.03348 4.00000
4.00000 7.03348 4.00000
4.00000 7.03348 4.00000
4.00000 7.03348 4.00000
4.00000 7.03348 4.00000
4.00000 7.03348 4.00000
4.00000 7.03348 4.00000
4.00000 7.03348 4.00000
4.00000 7.03348 4.00000
4.00000 7.03348 4.00000
4.00000 7.03348 4.00000
4.00000 7.03348 4.00000
4.00000 7.03348 4.00000
4.00000 7.03348 4.00000
4.00000 7.03348 4.00000
4.00000 7.03348 4.00000
4.00000 7.03348 4.00000
4.00000 7.03348 4.00000
4.00000 7.03348 4.00000
4.00000 7.03348 4.00000
4.00000 7.03348 4.00000
4.00000 7.03348 4.00000
4.00000 7.03348 4.00000
4.00000 7.03348 4.00000
4.00000 7.03348 4.00000
4.00000 7.03348 4.00000
4.00000 7.03348 4.00000
4.00000 7.03348 4.00000
4.00000 7.03348 4.00000
4.00000 7.03348 4.00000
4.00000 7.03348 4.00000
4.00000 7.03348 4.00000
4.00000 7.03348 4.00000
4.00000 7.03348 4.00000
4.00000 7.03348 4.00000
4.00000 7.03348 4.00000
4.00000 7.03348 4.00000
4.00000 7.03348 4.00000
4.00000 7.03348 4.00000
4.00000 7.03348 4.00000
4.00000 7.03348 4.00000
4.00000 7.03348 4.00000
4.00000 7.03348 4.00000
4.00000 7.03348 4.00000
4.00000 7.03348 4.00000
4.00000 7.03348 4.00000
4.00000 7.03348 4.00000
4.00000 7.03348 4.00000
4.00000 7.03348 4.00000
4.00000 7.03348 4.00000
4.00000 7.03348 4.00000
4.00000 7.03348 4.00000
4.00000 7.03348 4.00000
4.00189 7.06959 4.00189
4.00497 7.12908 4.00497
4.00802 7.18889 4.00802
4.01105 7.24899 4.01105
4.01407 7.30937 4.01406
4.01707 7.37002 4.01707
4.02007 7.43091 4.02007
4.02308 7.49202 4.02308
4.02611 7.55335 4.02611
4.02916 7.61486 4.02916
4.03224 7.67654 4.03224
4.03536 7.73836 4.03536
4.03853 7.80030 4.03853
4.04177 7.86234 4.04177
4.04508 7.92445 4.04508
4.04848 7.98660 4.04848
4.05199 8.04875 4.05199
4.05562 8.11086 4.05562
4.05940 8.17289 4.05940
4.06334 8.23479 4.06334
4.06748 8.29650 4.06748
4.07185 8.35795 4.07185
4.07648 8.41906 4.07648
4.08143 8.47974 4.08143
4.08675 8.53988 4.08675
4.09250 8.59934 4.09250
4.09877 8.65796 4.09877
4.10558 8.71567 4.10558
4.11291 8.77255 4.11291
4.12077 8.82852 4.12077
4.12921 8.88352 4.12921
4.13825 8.93749 4.13825
4.14793 8.99036 4.14793
4.15828 9.04208 4.15828
4.16931 9.09259 4.16931
4.18105 9.14184 4.18105
4.19351 9.18982 4.19351
4.20671 9.23650 4.20671
4.22064 9.28186 4.22064
4.23531 9.32592 4.23531
4.25071 9.36867 4.25071
4.26682 9.41015 4.26682
4.28363 9.45039 4.28363
4.30111 9.48943 4.30111
4.31926 9.52730 4.31926
4.33803 9.56407 4.33803
4.35740 9.59977 4.35740
4.37736 9.63445 4.37736
4.39787 9.66817 4.39787
4.41892 9.70095 4.41892
4.44050 9.73281 4.44050
4.46261 9.76375 4.46261
4.48527 9.79373 4.48527
4.50853 9.82264 4.50852
4.53249 9.85028 4.53249
4.55738 9.87620 4.55738
4.58363 9.89951 4.58363
4.61225 9.91824 4.61223
4.64547 9.92785 4.64548
4.01351 7.29822 7.98327
4.01204 7.26874 8.09055
4.01078 7.24362 8.19337
4.00969 7.22195 8.29270
4.00874 7.20307 8.38923
4.00790 7.18649 8.48345
4.00716 7.17184 8.57576
4.00649 7.15884 8.66647
4.00590 7.14725 8.75580
4.00537 7.13687 8.84398
4.00489 7.12755 8.93115
4.00446 7.11916 9.01746
4.00407 7.11159 9.10301
4.00372 7.10475 9.18790
4.00340 7.09855 9.27223
4.00311 7.09294 9.35604
4.00285 7.08783 9.43943
4.00260 7.08318 9.52245
4.00238 7.07895 9.60511
4.00218 7.07511 9.68748
4.00200 7.07160 9.76959
4.00183 7.06839 9.85149
4.00168 7.06546 9.93319
4.00154 7.06279 10.01471
4.00141 7.06034 10.09609
4.00129 7.05810 10.17734
4.00119 7.05605 10.25849
4.00109 7.05418 10.33955
4.00100 7.05245 10.42054
4.00092 7.05089 10.50145
4.00084 7.04944 10.58233
4.00077 7.04812 10.66316
4.00071 7.04691 10.74396
4.00065 7.04580 10.82474
4.00060 7.04477 10.90552
4.00054 7.04384 10.98628
4.00050 7.04299 11.06705
4.00046 7.04221 11.14781
4.00042 7.04148 11.22861
4.00039 7.04083 11.30941
4.00035 7.04022 11.39023
4.00033 7.03966 11.47109
4.00030 7.03914 11.55198
4.00027 7.03867 11.63290
4.00025 7.03825 11.71384
4.00023 7.03785 11.79483
4.00021 7.03749 11.87587
4.00019 7.03716 11.95694
4.00018 7.03685 12.03805
4.00016 7.03658 12.11921
4.00015 7.03631 12.20042
4.00014 7.03608 12.28168
4.00012 7.03585 12.36300
4.00012 7.03566 12.44435
4.00010 7.03547 12.52578
4.00010 7.03532 12.60722
4.00009 7.03515 12.68875
4.00008 7.03501 12.77033
4.00008 7.03492 12.85189
4.00007 7.03477 12.93362
4.00006 7.03466 13.01537
4.00006 7.03456 13.09718
4.00005 7.03448 13.17894
4.00005 7.03438 13.26086
4.00004 7.03431 13.34283
4.00004 7.03424 13.42487
4.00004 7.03417 13.50697
4.00003 7.03411 13.58914
4.00003 7.03406 13.67137
4.00003 7.03401 13.75366
4.00002 7.03396 13.83601
4.00002 7.03392 13.91843
4.00002 7.03388 14.00090
4.00002 7.03385 14.08342
4.00002 7.03382 14.16601
4.00001 7.03379 14.24864
4.00001 7.03376 14.33134
4.00001 7.03373 14.41408
4.00001 7.03371 14.49688
4.00001 7.03369 14.57973
4.00001 7.03367 14.66263
4.00001 7.03365 14.74558
4.00001 7.03363 14.82858
4.00001 7.03361 14.91164
4.00000 7.03358 14.99473
4.00001 7.03360 15.07784
4.00001 7.03360 15.16102
4.00001 7.03358 15.24427
4.00000 7.03357 15.32755
4.00000 7.03356 15.41088
4.00000 7.03356 15.49425
4.00000 7.03355 15.57767
4.00000 7.03354 15.66113
4.00000 7.03353 15.74464
4.00000 7.03354 15.82818
4.00000 7.03353 15.91177
4.00000 7.03353 15.99540
4.00000 7.03353 16.07907
4.00000 7.03352 16.16279
4.00000 7.03352 16.24655
4.00000 7.03351 16.33034
4.00000 7.03351 16.41418
4.00000 7.03351 16.49806
4.00000 7.03351 16.58197
4.00000 7.03350 16.66593
4.00000 7.03350 16.74992
4.00000 7.03350 16.83395
4.00000 7.03350 16.91802
4.00000 7.03350 17.00213
4.00000 7.03350 17.08627
4.00000 7.03349 17.17045
4.00000 7.03349 17.25467
4.00000 7.03349 17.33892
4.00000 7.03349 17.42322
4.00000 7.03349 17.50754
4.00000 7.03349 17.59191
4.00000 7.03349 17.67630
4.00000 7.03349 17.76074
4.00000 7.03349 17.84521
4.00000 7.03349 17.92971
4.00000 7.03349 18.01425
4.00000 7.03348 18.09882
4.00000 7.03348 18.18343
4.00000 7.03348 18.26806
4.00000 7.03348 18.35274
4.00000 7.03348 18.43744
4.00000 7.03348 18.52218
4.00000 7.03348 18.60696
4.00000 7.03348 18.69176
4.00000 7.03348 18.77660
4.00000 7.03348 18.86147
4.00000 7.03348 18.94637
4.00000 7.03348 19.03131
4.00000 7.03348 19.11627
4.00000 7.03348 19.20127
4.00000 7.03348 19.28630
4.00000 7.03348 19.37136
4.00000 7.03348 19.45645
4.00000 7.03348 19.54157
4.00000 7.03348 19.62672
4.00000 7.03348 19.71190
4.00000 7.03348 19.79711
4.00000 7.03348 19.88236
4.00000 7.03348 19.96763
4.00000 7.03348 20.05293
4.00000 7.03348 20.13826

Angle 0.371438 0.101544

4.00000 7.03348 4.00000
4.00000 7.03348 4.00000
4.00000 7.03348 4.00000
4.00000 7.03348 4.00000
4.00000 7.03348 4.00000
4.00000 7.03348 4.00000
4.00000 7.03348 4.00000
4.00000 7.03348 4.00000
4.00000 7.03348 4.00000
4.00000 7.03348 4.00000
4.00000 7.03348 4.00000
4.00000 7.03348 4.00000
4.00000 7.03348 4.00000
4.00000 7.03348 4.00000
4.00000 7.03348 4.00000
4.00000 7.03348 4.00000
4.00000 7.03348 4.00000
4.00000 7.03348 4.00000
4.00000 7.03348 4.00000
4.00000 7.03348 4.00000
4.00000 7.03348 4.00000
4.00000 7.03348 4.00000
4.00000 7.03348 4.00000
4.00000 7.03348 4.00000
4.00000 7.03348 4.00000
4.00000 7.03348 4.00000
4.00000 7.03348 4.00000
4.00000 7.03348 4.00000
4.00000 7.03348 4.00000
4.00000 7.03348 4.00000
4.00000 7.03348 4.00000
4.00000 7.03348 4.00000
4.00000 7.03348 4.00000
4.00000 7.03348 4.00000
4.00000 7.03348 4.00000
4.00000 7.03348 4.00000
4.00000 7.03348 4.00000
4.00000 7.03348 4.00000
4.00000 7.03348 4.00000
4.00000 7.03348 4.00000
4.00000 7.03348 4.00000
4.00000 7.03348 4.00000
4.00000 7.03348 4.00000
4.00000 7.03348 4.00000
4.00000 7.03348 4.00000
4.00000 7.03348 4.00000
4.00000 7.03348 4.00000
4.00000 7.03348 4.00000
4.00000 7.03348 4.00000
4.00000 7.03348 4.00000
4.00000 7.03348 4.00000
4.00000 7.03348 4.00000
4.00000 7.03348 4.00000
4.00000 7.03348 4.00000
4.00000 7.03348 4.00000
4.00000 7.03348 4.00000
4.00000 7.03348 4.00000
4.00000 7.03348 4.00000
4.00000 7.03348 4.00000
4.00000 7.03348 4.00000
4.00000 7.03348 4.00000
4.00000 7.03348 4.00000
4.00000 7.03348 4.00000
4.00000 7.03349 4.00000
4.00000 7.03347 4.00000
4.00000 7.03348 4.00000
4.00000 7.03348 4.00000
4.00000 7.03348 4.00000
4.00358 7.10208 4.00358
4.00757 7.17998 4.00757
4.01150 7.25805 4.01150
4.01540 7.33625 4.01540
4.01926 7.41456 4.01927
4.02313 7.49292 4.02313
4.02700 7.57132 4.02700
4.03090 7.64972 4.03090
4.03484 7.72808 4.03484
4.03885 7.80635 4.03885
4.04294 7.88450 4.04294
4.04715 7.96246 4.04715
4.05150 8.04019 4.05150
4.05603 8.11762 4.05603
4.06076 8.19466 4.06076
4.06576 8.27123 4.06576
4.07107 8.34722 4.07107
4.07675 8.42249 4.07675
4.08290 8.49688 4.08290
4.08962 8.57019 4.08962
4.09701 8.64216 4.09701
4.10521 8.71259 4.10521
4.11413 8.78159 4.11413
4.12383 8.84907 4.12383
4.13437 8.91492 4.13437
4.14579 8.97905 4.14579
4.15813 9.04137 4.15813
4.17143 9.10180 4.17143
4.18572 9.16030 4.18572
4.20101 9.21682 4.20101
4.21731 9.27135 4.21731
4.23462 9.32392 4.23462
4.25291 9.37454 4.25291
4.27217 9.42327 4.27217
4.29235 9.47019 4.29235
4.31341 9.51537 4.31341
4.33532 9.55890 4.33532
4.35802 9.60087 4.35802
4.38147 9.64136 4.38147
4.40563 9.68047 4.40563
4.43048 9.71823 4.43048
4.45600 9.75468 4.45600
4.48221 9.78979 4.48221
4.50917 9.82342 4.50917
4.53704 9.85525 4.53704
4.56619 9.88455 4.56619
4.59748 9.90960 4.59748
4.63311 9.92601 4.63311
4.67860 9.92268 4.67864
8.08548 7.27005 4.01210
8.20338 7.24133 4.01067
8.31661 7.21708 4.00945
8.42617 7.19636 4.00840
8.53276 7.17849 4.00749
8.63695 7.16293 4.00670
8.73911 7.14933 4.00601
8.83958 7.13736 4.00540
8.93861 7.12679 4.00485
9.03639 7.11742 4.00437
9.13311 7.10909 4.00394
9.22890 7.10167 4.00356
9.32389 7.09503 4.00322
9.41817 7.08909 4.00291
9.51182 7.08376 4.00263
9.60493 7.07897 4.00238
9.69756 7.07466 4.00216
9.78976 7.07078 4.00196
9.88157 7.06728 4.00177
9.97305 7.06412 4.00161
10.06422 7.06127 4.00146
10.15513 7.05869 4.00133
10.24582 7.05634 4.00120
10.33626 7.05424 4.00109
10.42653 7.05233 4.00099
10.51663 7.05060 4.00090
10.60657 7.04902 4.00082
10.69637 7.04761 4.00074
10.78607 7.04631 4.00067
10.87565 7.04514 4.00061
10.96514 7.04408 4.00056
11.05454 7.04311 4.00051
11.14387 7.04223 4.00046
11.23312 7.04144 4.00042
11.32232 7.04071 4.00038
11.41145 7.04006 4.00035
11.50057 7.03945 4.00031
11.58962 7.03891 4.00028
11.67863 7.03843 4.00026
11.76764 7.03796 4.00024
11.85660 7.03756 4.00021
11.94554 7.03720 4.00019
12.03445 7.03686 4.00018
12.12336 7.03654 4.00016
12.21225 7.03627 4.00015
12.30113 7.03602 4.00013
12.39001 7.03579 4.00012
12.47887 7.03558 4.00011
12.56774 7.03539 4.00010
12.65660 7.03522 4.00009
12.74546 7.03506 4.00008
12.83432 7.03492 4.00007
12.92318 7.03479 4.00007
13.01205 7.03467 4.00006
13.10092 7.03456 4.00006
13.18979 7.03446 4.00005
13.27866 7.03437 4.00005
13.36755 7.03429 4.00004
13.45643 7.03421 4.00004
13.54532 7.03415 4.00003
13.63422 7.03408 4.00003
13.72313 7.03403 4.00003
13.81204 7.03398 4.00003
13.90096 7.03393 4.00002
13.98989 7.03389 4.00002
14.07883 7.03385 4.00002
14.16777 7.03381 4.00002
14.25672 7.03378 4.00002
14.34568 7.03375 4.00001
14.43465 7.03373 4.00001
14.52363 7.03370 4.00001
14.61262 7.03368 4.00001
14.70161 7.03366 4.00001
14.79062 7.03364 4.00001
14.87963 7.03363 4.00001
14.96865 7.03361 4.00001
15.05768 7.03360 4.00001
15.14650 7.03360 4.00001
15.23555 7.03359 4.00001
15.32461 7.03358 4.00001
15.41368 7.03357 4.00000
15.50276 7.03356 4.00000
15.59185 7.03356 4.00000
15.68094 7.03355 4.00000
15.77005 7.03354 4.00000
15.85917 7.03354 4.00000
15.94829 7.03353 4.00000
16.03742 7.03353 4.00000
16.12657 7.03352 4.00000
16.21572 7.03352 4.00000
16.30488 7.03352 4.00000
16.39405 7.03351 4.00000
16.48322 7.03351 4.00000
16.57241 7.03351 4.00000
16.66161 7.03350 4.00000
16.75081 7.03350 4.00000
16.84002 7.03350 4.00000
16.92924 7.03350 4.00000
17.01847 7.03350 4.00000
17.10771 7.03349 4.00000
17.19696 7.03349 4.00000
17.28621 7.03349 4.00000
17.37547 7.03349 4.00000
17.46474 7.03349 4.00000
17.55402 7.03349 4.00000
17.64331 7.03349 4.00000
17.73260 7.03349 4.00000
17.82191 7.03349 4.00000
17.91122 7.03349 4.00000
18.00053 7.03349 4.00000
18.08986 7.03348 4.00000
18.17919 7.03348 4.00000
18.26853 7.03348 4.00000
18.35788 7.03348 4.00000
18.44724 7.03348 4.00000
18.53660 7.03348 4.00000
18.62597 7.03348 4.00000
18.71535 7.03348 4.00000
18.80473 7.03348 4.00000
18.89412 7.03348 4.00000
18.98352 7.03348 4.00000
19.07292 7.03348 4.00000
19.16234 7.03348 4.00000
19.25176 7.03348 4.00000
19.34118 7.03348 4.00000
19.43062 7.03348 4.00000
19.52006 7.03348 4.00000
19.60950 7.03348 4.00000
19.69896 7.03348 4.00000
19.78841 7.03348 4.00000
19.87788 7.03348 4.00000
19.96735 7.03348 4.00000
20.05683 7.03348 4.00000
20.14632 7.03348 4.00000
20.23581 7.03348 4.00000
20.32531 7.03348 4.00000
20.41481 7.03348 4.00000
20.50432 7.03348 4.00000
20.59384 7.03348 4.00000
20.68336 7.03348 4.00000
20.77289 7.03348 4.00000
20.86242 7.03348 4.00000
20.95197 7.03348 4.00000
21.04151 7.03348 4.00000
21.13106 7.03348 4.00000
21.22062 7.03348 4.00000
21.31019 7.03348 4.00000
21.39976 7.03348 4.00000
21.48933 7.03348 4.00000
21.57891 7.03348 4.00000
21.66850 7.03348 4.00000
21.75809 7.03348 4.00000
21.84769 7.03348 4.00000
21.93729 7.03348 4.00000
22.02690 7.03348 4.00000
22.11651 7.03348 4.00000
22.20613 7.03348 4.00000
22.29576 7.03348 4.00000
22.38538 7.03348 4.00000
22.47502 7.03348 4.00000
22.56466 7.03348 4.00000
22.65430 7.03348 4.00000
22.74395 7.03348 4.00000
22.83361 7.03348 4.00000
22.92327 7.03348 4.00000
23.01293 7.03348 4.00000
23.10260 7.03348 4.00000
23.19228 7.03348 4.00000
23.28196 7.03348 4.00000
23.37164 7.03348 4.00000
23.46133 7.03348 4.00000
23.55103 7.03348 4.00000
23.64073 7.03348 4.00000
23.73043 7.03348 4.00000
23.82014 7.03348 4.00000
23.90985 7.03348 4.00000
23.99957 7.03348 4.00000
24.08929 7.03348 4.00000
24.17902 7.03348 4.00000
24.26875 7.03348 4.00000
24.35848 7.03348 4.00000
24.44822 7.03348 4.00000
24.53797 7.03348 4.00000
24.62772 7.03348 4.00000
24.71747 7.03348 4.00000
24.80723 7.03348 4.00000
24.89699 7.03348 4.00000
24.98675 7.03348 4.00000
25.07652 7.03348 4.00000
25.16630 7.03348 4.00000
25.25608 7.03348 4.00000
25.34586 7.03348 4.00000
25.43564 7.03348 4.00000
25.52543 7.03348 4.00000
25.61523 7.03348 4.00000
25.70503 7.03348 4.00000
25.79483 7.03348 4.00000
25.88464 7.03348 4.00000
25.97445 7.03348 4.00000
26.06426 7.03348 4.00000
26.15408 7.03348 4.00000
26.24390 7.03348 4.00000
26.33372 7.03348 4.00000
26.42355 7.03348 4.00000
26.51339 7.03348 4.00000
26.60322 7.03348 4.00000
26.69306 7.03348 4.00000
26.78291 7.03348 4.00000
26.87275 7.03348 4.00000
26.96261 7.03348 4.00000
27.05246 7.03348 4.00000
27.14232 7.03348 4.00000
27.23218 7.03348 4.00000
27.32205 7.03348 4.00000
27.41191 7.03348 4.00000
27.50179 7.03348 4.00000
27.59166 7.03348 4.00000
27.68154 7.03348 4.00000
27.77142 7.03348 4.00000
27.86131 7.03348 4.00000
27.95120 7.03348 4.00000
28.04109 7.03348 4.00000
28.13099 7.03348 4.00000
28.22089 7.03348 4.00000
28.31079 7.03348 4.00000
28.40069 7.03348 4.00000
28.49060 7.03348 4.00000
28.58052 7.03348 4.00000
28.67043 7.03348 4.00000
28.76035 7.03348 4.00000
28.85027 7.03348 4.00000
28.94019 7.03348 4.00000
29.03012 7.03348 4.00000
29.12005 7.03348 4.00000
29.20999 7.03348 4.00000
29.29992 7.03348 4.00000
29.38986 7.03348 4.00000
29.47980 7.03348 4.00000
29.56975 7.03348 4.00000
29.65970 7.03348 4.00000
29.74965 7.03348 4.00000
29.83960 7.03348 4.00000
29.92956 7.03348 4.00000
30.01952 7.03348 4.00000
30.10948 7.03348 4.00000
30.19945 7.03348 4.00000
30.28942 7.03348 4.00000
30.37939 7.03348 4.00000
30.46936 7.03348 4.00000
30.55934 7.03348 4.00000
30.64932 7.03348 4.00000
30.73930 7.03348 4.00000
30.82928 7.03348 4.00000
30.91927 7.03348 4.00000
31.00926 7.03348 4.00000
31.09925 7.03348 4.00000
31.18925 7.03348 4.00000
31.27925 7.03348 4.00000
31.36925 7.03348 4.00000
31.45925 7.03348 4.00000
31.54926 7.03348 4.00000
31.63926 7.03348 4.00000
31.72928 7.03348 4.00000
31.81929 7.03348 4.00000
31.90930 7.03348 4.00000
31.99932 7.03348 4.00000
32.08934 7.03348 4.00000
32.17937 7.03348 4.00000
32.26939 7.03348 4.00000
32.35942 7.03348 4.00000
32.44945 7.03348 4.00000
32.53948 7.03348 4.00000
32.62952 7.03348 4.00000
32.71955 7.03348 4.00000
32.80959 7.03348 4.00000
32.89963 7.03348 4.00000
32.98968 7.03348 4.00000
33.07973 7.03348 4.00000
33.16977 7.03348 4.00000
33.25982 7.03348 4.00000
33.34988 7.03348 4.00000
33.43993 7.03348 4.00000
33.52999 7.03348 4.00000

Angle 0.145796 1.593035

4.00000 7.03348 4.00000
4.00000 7.03348 4.00000
4.00000 7.03348 4.00000
4.00000 7.03348 4.00000
4.00000 7.03348 4.00000
4.00000 7.03348 4.00000
4.00000 7.03348 4.00000
4.00000 7.03348 4.00000
4.00000 7.03348 4.00000
4.00000 7.03348 4.00000
4.00000 7.03348 4.00000
4.00000 7.03348 4.00000
4.00000 7.03348 4.00000
4.00000 7.03348 4.00000
4.00000 7.03348 4.00000
4.00000 7.03348 4.00000
4.00000 7.03348 4.00000
4.00000 7.03348 4.00000
4.00000 7.03348 4.00000
4.00000 7.03348 4.00000
4.00000 7.03348 4.00000
4.00000 7.03348 4.00000
4.00000 7.03348 4.00000
4.00000 7.03348 4.00000
4.00000 7.03348 4.00000
4.00000 7.03348 4.00000
4.00000 7.03348 4.00000
4.00000 7.03348 4.00000
4.00000 7.03348 4.00000
4.00000 7.03348 4.00000
4.00000 7.03348 4.00000
4.00000 7.03348 4.00000
4.00000 7.03348 4.00000
4.00000 7.03348 4.00000
4.00000 7.03348 4.00000
4.00000 7.03348 4.00000
4.00000 7.03348 4.00000
4.00000 7.03348 4.00000
4.00000 7.03348 4.00000
4.00000 7.03348 4.00000
4.00000 7.03348 4.00000
4.00000 7.03348 4.00000
4.00000 7.03348 4.00000
4.00000 7.03348 4.00000
4.00000 7.03348 4.00000
4.00000 7.03348 4.00000
4.00000 7.03348 4.00000
4.00000 7.03348 4.00000
4.00000 7.03348 4.00000
4.00000 7.03348 4.00000
4.00000 7.03348 4.00000
4.00000 7.03348 4.00000
4.00000 7.03348 4.00000
4.00000 7.03348 4.00000
4.00000 7.03348 4.00000
4.00000 7.03348 4.00000
4.00000 7.03348 4.00000
4.00000 7.03348 4.00000
4.00000 7.03348 4.00000
4.00000 7.03348 4.00000
4.00000 7.03348 4.00000
4.00000 7.03348 4.00000
4.00000 7.03348 4.00000
4.00000 7.03348 4.00000
4.00000 7.03348 4.00000
4.00000 7.03348 4.00000
4.00000 7.03348 4.00000
4.00000 7.03348 4.00000
4.00000 7.03348 4.00000
4.00000 7.03348 4.00000
4.00000 7.03348 4.00000
4.00000 7.03348 4.00000
4.00000 7.03348 4.00000
4.00000 7.03348 4.00000
4.00000 7.03348 4.00000
4.00000 7.03348 4.00000
4.00000 7.03347 4.00000
4.00000 7.03348 4.00000
4.00000 7.03348 4.00000
4.00000 7.03348 4.00000
4.00000 7.03348 4.00000
4.00000 7.03348 4.00000
4.00000 7.03348 4.00000
4.00000 7.03348 4.00000
4.00000 7.03348 4.00000
4.00000 7.03348 4.00000
4.00000 7.03348 4.00000
4.00000 7.03348 4.00000
4.00000 7.03348 4.00000
4.00000 7.03348 4.00000
4.00000 7.03348 4.00000
4.00000 7.03348 4.00000
4.00000 7.03348 4.00000
4.00000 7.03348 4.00000
4.00000 7.03348 4.00000
4.00000 7.03348 4.00000
4.00000 7.03348 4.00000
4.00000 7.03348 4.00000
4.00000 7.03348 4.00000
4.00000 7.03348 4.00000
4.00000 7.03348 4.00000
4.00000 7.03348 4.00000
4.00000 7.03348 4.00000
4.00000 7.03348 4.00000
4.00000 7.03348 4.00000
4.00000 7.03348 4.00000
4.00000 7.03348 4.00000
4.00000 7.03348 4.00000
4.00000 7.03348 4.00000
4.00000 7.03348 4.00000
4.00000 7.03348 4.00000
4.00000 7.03348 4.00000
4.00000 7.03348 4.00000
4.00000 7.03348 4.00000
4.00000 7.03348 4.00000
4.00000 7.03348 4.00000
4.00000 7.03348 4.00000
4.00000 7.03348 4.00000
4.00000 7.03348 4.00000
4.00000 7.03348 4.00000
4.00000 7.03348 4.00000
4.00000 7.03348 4.00000
4.00000 7.03348 4.00000
4.00000 7.03348 4.00000
4.00000 7.03348 4.00000
4.00000 7.03348 4.00000
4.00000 7.03348 4.00000
4.00000 7.03348 4.00000
4.00000 7.03348 4.00000
4.00000 7.03348 4.00000
4.00000 7.03348 4.00000
4.00000 7.03348 4.00000
4.00000 7.03348 4.00000
4.00000 7.03348 4.00000
4.00000 7.03348 4.00000
4.00000 7.03348 4.00000
4.00000 7.03348 4.00000
4.00000 7.03348 4.00000
4.00000 7.03348 4.00000
4.00000 7.03348 4.00000
4.00000 7.03348 4.00000
4.00000 7.03348 4.00000
4.00000 7.03348 4.00000
4.00000 7.03348 4.00000
4.00000 7.03348 4.00000
4.00000 7.03348 4.00000
4.00000 7.03348 4.00000
4.00000 7.03349 4.00000
4.00000 7.03348 4.00000
4.00000 7.03349 4.00000
4.00000 7.03350 4.00000
4.00000 7.03348 4.00000
4.00000 7.03348 4.00000
4.00000 7.03348 4.00000
4.00000 7.03349 4.00000
4.00016 7.03654 4.00016
4.00397 7.10958 4.00397
4.00772 7.18284 4.00772
4.01142 7.25632 4.01142
4.01509 7.32996 4.01509
4.01873 7.40376 4.01873
4.02238 7.47767 4.02238
4.02603 7.55166 4.02603
4.02970 7.62572 4.02970
4.03341 7.69980 4.03341
4.03717 7.77386 4.03717
4.04101 7.84788 4.04101
4.04494 7.92181 4.04494
4.04899 7.99561 4.04899
4.05317 8.06921 4.05317
4.05753 8.14256 4.05753
4.06210 8.21559 4.06210
4.06691 8.28820 4.06691
4.07202 8.36031 4.07202
4.07749 8.43179 4.07749
4.08339 8.50249 4.08339
4.08981 8.57223 4.08981
4.09687 8.64080 4.09687
4.10464 8.70799 4.10464
4.11309 8.77392 4.11309
4.12225 8.83851 4.12225
4.13216 8.90167 4.13216
4.14287 8.96331 4.14287
4.15442 9.02334 4.15442
4.16685 9.08170 4.16685
4.18018 9.13833 4.18018
4.19443 9.19318 4.19443
4.20961 9.24625 4.20961
4.22572 9.29752 4.22572
4.24276 9.34701 4.24276
4.26070 9.39476 4.26070
4.27952 9.44082 4.27952
4.29919 9.48525 4.29919
4.31966 9.52813 4.31966
4.34091 9.56952 4.34091
4.36290 9.60952 4.36290
4.38557 9.64818 4.38557
4.40891 9.68559 4.40891
4.43289 9.72177 4.43289
4.45750 9.75675 4.45750
4.48276 9.79050 4.48276
4.50873 9.82288 4.50873
4.53555 9.85363 4.53555
4.56354 9.88208 4.56354
4.59341 9.90682 4.59341
4.62695 9.92430 4.62695
4.01421 7.31225 7.93634
4.01247 7.27743 8.05756
4.01102 7.24844 8.17270
4.00979 7.22392 8.28322
4.00873 7.20290 8.39011
4.00781 7.18473 8.49407
4.00701 7.16888 8.59563
4.00630 7.15498 8.69521
4.00567 7.14273 8.79310
4.00512 7.13188 8.88957
4.00462 7.12224 8.98482
4.00418 7.11364 9.07901
4.00378 7.10596 9.17230
4.00343 7.09908 9.26479
4.00311 7.09290 9.35659
4.00282 7.08734 9.44777
4.00256 7.08234 9.53842
4.00232 7.07783 9.62860
4.00211 7.07376 9.71836
4.00192 7.07006 9.80776
4.00174 7.06673 9.89683
4.00159 7.06371 9.98561
4.00144 7.06097 10.07413
4.00131 7.05849 10.16243
4.00120 7.05624 10.25052
4.00109 7.05420 10.33843
4.00099 7.05234 10.42620
4.00090 7.05065 10.51382
4.00082 7.04912 10.60131
4.00075 7.04773 10.68869
4.00069 7.04646 10.77597
4.00062 7.04530 10.86319
4.00057 7.04425 10.95033
4.00052 7.04329 11.03741
4.00047 7.04242 11.12442
4.00043 7.04162 11.21140
4.00039 7.04090 11.29833
4.00036 7.04025 11.38522
4.00032 7.03964 11.47211
4.00030 7.03910 11.55895
4.00027 7.03859 11.64580
4.00025 7.03815 11.73260
4.00022 7.03773 11.81943
4.00020 7.03735 11.90623
4.00019 7.03701 11.99303
4.00017 7.03669 12.07984
4.00016 7.03642 12.16661
4.00014 7.03615 12.25344
4.00013 7.03591 12.34026
4.00012 7.03569 12.42708
4.00011 7.03550 12.51392
4.00010 7.03532 12.60078
4.00009 7.03516 12.68765
4.00008 7.03501 12.77455
4.00007 7.03487 12.86134
4.00007 7.03474 12.94825
4.00006 7.03463 13.03518
4.00005 7.03453 13.12214
4.00005 7.03443 13.20911
4.00004 7.03435 13.29612
4.00004 7.03427 13.38314
4.00004 7.03420 13.47019
4.00003 7.03413 13.55727
4.00003 7.03407 13.64437
4.00003 7.03402 13.73150
4.00002 7.03397 13.81865
4.00002 7.03393 13.90583
4.00002 7.03389 13.99303
4.00002 7.03385 14.08026
4.00002 7.03381 14.16752
4.00001 7.03378 14.25480
4.00001 7.03375 14.34210
4.00001 7.03373 14.42943
4.00001 7.03371 14.51679
4.00001 7.03368 14.60416
4.00001 7.03366 14.69157
4.00001 7.03365 14.77900
4.00001 7.03363 14.86645
4.00001 7.03362 14.95393
4.00001 7.03360 15.04143
4.00001 7.03359 15.12895
4.00000 7.03358 15.21650
4.00000 7.03357 15.30407
4.00000 7.03356 15.39166
4.00000 7.03355 15.47928
4.00000 7.03354 15.56692
4.00000 7.03354 15.65458
4.00000 7.03353 15.74226
4.00000 7.03354 15.82772
4.00000 7.03353 15.91533
4.00000 7.03353 16.00296
4.00000 7.03352 16.09062
4.00000 7.03352 16.17831
4.00000 7.03352 16.26601
4.00000 7.03351 16.35375
4.00000 7.03351 16.44150
4.00000 7.03351 16.52928
4.00000 7.03351 16.61708
4.00000 7.03350 16.70490
4.00000 7.03350 16.79275
4.00000 7.03350 16.88061
4.00000 7.03350 16.96850
4.00000 7.03350 17.05641
4.00000 7.03349 17.14434
4.00000 7.03349 17.23229
4.00000 7.03349 17.32026
4.00000 7.03349 17.40825
4.00000 7.03349 17.49626
4.00000 7.03349 17.58429
4.00000 7.03349 17.67234
4.00000 7.03349 17.76041
4.00000 7.03349 17.84850
4.00000 7.03349 17.93661
4.00000 7.03349 18.02474
4.00000 7.03348 18.11288
4.00000 7.03348 18.20104
4.00000 7.03348 18.28922
4.00000 7.03348 18.37742
4.00000 7.03348 18.46564
4.00000 7.03348 18.55387
4.00000 7.03348 18.64212
4.00000 7.03348 18.73038
4.00000 7.03348 18.81867
4.00000 7.03348 18.90697
4.00000 7.03348 18.99528
4.00000 7.03348 19.08361
4.00000 7.03348 19.17196
4.00000 7.03348 19.26033
4.00000 7.03348 19.34870
4.00000 7.03348 19.43710
4.00000 7.03348 19.52551
4.00000 7.03348 19.61393
4.00000 7.03348 19.70237
4.00000 7.03348 19.79083
4.00000 7.03348 19.87930
4.00000 7.03348 19.96778
4.00000 7.03348 20.05628
4.00000 7.03348 20.14479
4.00000 7.03348 20.23331
4.00000 7.03348 20.32185
4.00000 7.03348 20.41041
4.00000 7.03348 20.49897
4.00000 7.03348 20.58755
4.00000 7.03348 20.67615
4.00000 7.03348 20.76475
4.00000 7.03348 20.85337
4.00000 7.03348 20.94200
4.00000 7.03348 21.03065
4.00000 7.03348 21.11931
4.00000 7.03348 21.20798
4.00000 7.03348 21.29666
4.00000 7.03348 21.38535
4.00000 7.03348 21.47406
4.00000 7.03348 21.56278
4.00000 7.03348 21.65151
4.00000 7.03348 21.74025
4.00000 7.03348 21.82900
4.00000 7.03348 21.91777
4.00000 7.03348 22.00655
4.00000 7.03348 22.09533
4.00000 7.03348 22.18413
4.00000 7.03348 22.27294
4.00000 7.03348 22.36176
4.00000 7.03348 22.45060
4.00000 7.03348 22.53944
4.00000 7.03348 22.62829
4.00000 7.03348 22.71715
4.00000 7.03348 22.80603
4.00000 7.03348 22.89491
4.00000 7.03348 22.98381
4.00000 7.03348 23.07271
4.00000 7.03348 23.16163
4.00000 7.03348 23.25055
4.00000 7.03348 23.33949
4.00000 7.03348 23.42843
4.00000 7.03348 23.51739
4.00000 7.03348 23.60635
4.00000 7.03348 23.69532
4.00000 7.03348 23.78431
4.00000 7.03348 23.87330
4.00000 7.03348 23.96230
4.00000 7.03348 24.05131
4.00000 7.03348 24.14033
4.00000 7.03348 24.22936
4.00000 7.03348 24.31840
4.00000 7.03348 24.40744
4.00000 7.03348 24.49650
4.00000 7.03348 24.58556
4.00000 7.03348 24.67463
4.00000 7.03348 24.76371
4.00000 7.03348 24.85280
4.00000 7.03348 24.94190
4.00000 7.03348 25.03101
4.00000 7.03348 25.12012

Angle 0.345306 3.550316

4.00000 7.03348 4.00000
4.00000 7.03348 4.00000
4.00000 7.03348 4.00000
4.00000 7.03348 4.00000
4.00000 7.03348 4.00000
4.00000 7.03348 4.00000
4.00000 7.03348 4.00000
4.00000 7.03348 4.00000
4.00000 7.03348 4.00000
4.00000 7.03348 4.00000
4.00000 7.03348 4.00000
4.00000 7.03348 4.00000
4.00000 7.03348 4.00000
4.00000 7.03348 4.00000
4.00000 7.03348 4.00000
4.00000 7.03348 4.00000
4.00000 7.03348 4.00000
4.00000 7.03348 4.00000
4.00000 7.03348 4.00000
4.00000 7.03348 4.00000
4.00000 7.03348 4.00000
4.00000 7.03348 4.00000
4.00000 7.03348 4.00000
4.00000 7.03348 4.00000
4.00000 7.03348 4.00000
4.00000 7.03348 4.00000
4.00000 7.03348 4.00000
4.00000 7.03348 4.00000
4.00000 7.03348 4.00000
4.00000 7.03348 4.00000
4.00000 7.03348 4.00000
4.00000 7.03348 4.00000
4.00000 7.03348 4.00000
4.00000 7.03348 4.00000
4.00000 7.03348 4.00000
4.00000 7.03348 4.00000
4.00000 7.03348 4.00000
4.00000 7.03348 4.00000
4.00000 7.03348 4.00000
4.00000 7.03348 4.00000
4.00000 7.03348 4.00000
4.00000 7.03348 4.00000
4.00000 7.03348 4.00000
4.00000 7.03348 4.00000
4.00000 7.03348 4.00000
4.00000 7.03348 4.00000
4.00000 7.03348 4.00000
4.00000 7.03348 4.00000
4.00000 7.03348 4.00000
4.00000 7.03348 4.00000
4.00000 7.03348 4.00000
4.00000 7.03348 4.00000
4.00000 7.03348 4.00000
4.00000 7.03348 4.00000
4.00000 7.03348 4.00000
4.00000 7.03348 4.00000
4.00000 7.03348 4.00000
4.00000 7.03348 4.00000
4.00000 7.03348 4.00000
4.00000 7.03348 4.00000
4.00000 7.03348 4.00000
4.00000 7.03348 4.00000
4.00000 7.03348 4.00000
4.00000 7.03348 4.00000
4.00000 7.03348 4.00000
4.00000 7.03348 4.00000
4.00000 7.03348 4.00000
4.00000 7.03348 4.00000
4.00000 7.03348 4.00000
4.00000 7.03348 4.00000
4.00000 7.03348 4.00000
4.00000 7.03348 4.00000
4.00000 7.03348 4.00000
4.00000 7.03348 4.00000
4.00000 7.03348 4.00000
4.00000 7.03348 4.00000
4.00000 7.03348 4.00000
4.00000 7.03348 4.00000
4.00000 7.03348 4.00000
4.00000 7.03348 4.00000
4.00000 7.03348 4.00000
4.00000 7.03348 4.00000
4.00000 7.03348 4.00000
4.00000 7.03348 4.00000
4.00000 7.03348 4.00000
4.00000 7.03348 4.00000
4.00000 7.03348 4.00000
4.00000 7.03348 4.00000
4.00000 7.03348 4.00000
4.00000 7.03348 4.00000
4.00000 7.03348 4.00000
4.00000 7.03348 4.00000
4.00000 7.03348 4.00000
4.00000 7.03348 4.00000
4.00000 7.03348 4.00000
4.00000 7.03348 4.00000
4.00000 7.03348 4.00000
4.00000 7.03348 4.00000
4.00000 7.03348 4.00000
4.00000 7.03348 4.00000
4.00000 7.03348 4.00000
4.00000 7.03348 4.00000
4.00000 7.03348 4.00000
4.00000 7.03348 4.00000
4.00000 7.03348 4.00000
4.00000 7.03348 4.00000
4.00000 7.03348 4.00000
4.00000 7.03348 4.00000
4.00000 7.03348 4.00000
4.00000 7.03348 4.00000
4.00000 7.03348 4.00000
4.00000 7.03348 4.00000
4.00000 7.03348 4.00000
4.00000 7.03348 4.00000
4.00000 7.03348 4.00000
4.00000 7.03348 4.00000
4.00000 7.03348 4.00000
4.00000 7.03348 4.00000
4.00000 7.03348 4.00000
4.00000 7.03348 4.00000
4.00000 7.03348 4.00000
4.00000 7.03348 4.00000
4.00000 7.03348 4.00000
4.00000 7.03348 4.00000
4.00000 7.03348 4.00000
4.00000 7.03348 4.00000
4.00000 7.03348 4.00000
4.00000 7.03348 4.00000
4.00000 7.03348 4.00000
4.00000 7.03348 4.00000
4.00000 7.03348 4.00000
4.00000 7.03348 4.00000
4.00000 7.03348 4.00000
4.00000 7.03348 4.00000
4.00000 7.03348 4.00000
4.00000 7.03350 4.00000
4.00000 7.03348 4.00000
4.00000 7.03348 4.00000
4.00000 7.03348 4.00000
4.00000 7.03348 4.00000
4.00072 7.04713 4.00072
4.00460 7.12192 4.00460
4.00843 7.19692 4.00843
4.01221 7.27210 4.01221
4.01595 7.34743 4.01595
4.01968 7.42289 4.01968
4.02340 7.49844 4.02340
4.02713 7.57405 4.02713
4.03090 7.64969 4.03090
4.03470 7.72533 4.03470
4.03857 7.80092 4.03857
4.04251 7.87643 4.04251
4.04657 7.95181 4.04657
4.05075 8.02700 4.05075
4.05509 8.10195 4.05509
4.05963 8.17659 4.05963
4.06439 8.25083 4.06439
4.06944 8.32458 4.06944
4.07483 8.39773 4.07483
4.08062 8.47014 4.08062
4.08691 8.54162 4.08691
4.09380 8.61198 4.09380
4.10141 8.68094 4.10141
4.10974 8.74855 4.10974
4.11878 8.81480 4.11878
4.12858 8.87958 4.12858
4.13919 8.94282 4.13919
4.15065 9.00440 4.15065
4.16301 9.06427 4.16301
4.17628 9.12235 4.17628
4.19050 9.17860 4.19050
4.20568 9.23300 4.20568
4.22182 9.28553 4.22182
4.23891 9.33621 4.23891
4.25694 9.38508 4.25694
4.27587 9.43219 4.27587
4.29569 9.47759 4.29569
4.31634 9.52138 4.31634
4.33779 9.56361 4.33779
4.36000 9.60439 4.35999
4.38292 9.64378 4.38292
4.40652 9.68186 4.40652
4.43079 9.71868 4.43079
4.45569 9.75425 4.45569
4.48126 9.78856 4.48126
4.50755 9.82147 4.50755
4.53470 9.85270 4.53470
4.56303 9.88161 4.56303
4.59329 9.90673 4.59329
4.62725 9.92442 4.62731
4.01416 7.31140 7.93914
4.01242 7.27632 8.06171
4.01096 7.24716 8.17814
4.00972 7.22254 8.28984
4.00866 7.20147 8.39786
4.00774 7.18328 8.50291
4.00693 7.16743 8.60554
4.00623 7.15355 8.70614
4.00560 7.14132 8.80504
4.00505 7.13051 8.90250
4.00455 7.12091 8.99872
4.00411 7.11237 9.09388
4.00372 7.10474 9.18812
4.00337 7.09790 9.28155
4.00305 7.09178 9.37428
4.00276 7.08628 9.46639
4.00251 7.08132 9.55795
4.00227 7.07686 9.64904
4.00206 7.07284 9.73971
4.00187 7.06920 9.82999
4.00170 7.06591 9.91995
4.00155 7.06294 10.00961
4.00140 7.06026 10.09900
4.00128 7.05781 10.18818
4.00116 7.05560 10.27714
4.00106 7.05360 10.36591
4.00096 7.05178 10.45452
4.00088 7.05012 10.54299
4.00080 7.04862 10.63133
4.00073 7.04726 10.71956
4.00066 7.04602 10.80768
4.00060 7.04490 10.89571
4.00054 7.04387 10.98369
4.00050 7.04294 11.07157
4.00045 7.04208 11.15942
4.00041 7.04132 11.24719
4.00037 7.04061 11.33494
4.00034 7.03998 11.42262
4.00031 7.03939 11.51030
4.00028 7.03886 11.59794
4.00026 7.03839 11.68554
4.00023 7.03794 11.77315
4.00021 7.03754 11.86074
4.00019 7.03718 11.94831
4.00017 7.03685 12.03588
4.00016 7.03656 12.12341
4.00015 7.03627 12.21098
4.00013 7.03602 12.29854
4.00012 7.03579 12.38610
4.00011 7.03559 12.47366
4.00010 7.03540 12.56123
4.00009 7.03523 12.64880
4.00008 7.03507 12.73639
4.00007 7.03493 12.82398
4.00007 7.03480 12.91159
4.00006 7.03468 12.99920
4.00006 7.03457 13.08683
4.00005 7.03447 13.17447
4.00005 7.03438 13.26212
4.00004 7.03430 13.34979
4.00004 7.03422 13.43747
4.00003 7.03416 13.52517
4.00003 7.03409 13.61288
4.00003 7.03404 13.70061
4.00003 7.03399 13.78835
4.00002 7.03394 13.87611
4.00002 7.03390 13.96389
4.00002 7.03386 14.05168
4.00002 7.03382 14.13949
4.00002 7.03379 14.22732
4.00001 7.03376 14.31516
4.00001 7.03374 14.40302
4.00001 7.03371 14.49089
4.00001 7.03369 14.57878
4.00001 7.03367 14.66669
4.00001 7.03365 14.75462
4.00001 7.03363 14.84256
4.00001 7.03362 14.93052
4.00001 7.03361 15.01850
4.00001 7.03359 15.10649
4.00001 7.03358 15.19450
4.00001 7.03359 15.28232
4.00001 7.03358 15.37036
4.00000 7.03357 15.45842
4.00000 7.03356 15.54650
4.00000 7.03355 15.63459
4.00000 7.03355 15.72270
4.00000 7.03354 15.81083
4.00000 7.03353 15.89897
4.00000 7.03353 15.98713
4.00000 7.03353 16.07531
4.00000 7.03352 16.16350
4.00000 7.03352 16.25171
4.00000 7.03351 16.33993
4.00000 7.03351 16.42817
4.00000 7.03351 16.51642
4.00000 7.03351 16.60469
4.00000 7.03350 16.69297
4.00000 7.03350 16.78127
4.00000 7.03350 16.86959
4.00000 7.03350 16.95792
4.00000 7.03350 17.04626
4.00000 7.03349 17.13462
4.00000 7.03349 17.22299
4.00000 7.03349 17.31138
4.00000 7.03349 17.39978
4.00000 7.03349 17.48820
4.00000 7.03349 17.57663
4.00000 7.03349 17.66507
4.00000 7.03349 17.75353
4.00000 7.03349 17.84200
4.00000 7.03349 17.93048
4.00000 7.03349 18.01898
4.00000 7.03348 18.10749
4.00000 7.03348 18.19602
4.00000 7.03348 18.28456
4.00000 7.03348 18.37311
4.00000 7.03348 18.46167
4.00000 7.03348 18.55025
4.00000 7.03348 18.63884
4.00000 7.03348 18.72744
4.00000 7.03348 18.81605
4.00000 7.03348 18.90468
4.00000 7.03348 18.99332
4.00000 7.03348 19.08197
4.00000 7.03348 19.17063
4.00000 7.03348 19.25931
4.00000 7.03348 19.34799
4.00000 7.03348 19.43669
4.00000 7.03348 19.52540
4.00000 7.03348 19.61412
4.00000 7.03348 19.70286
4.00000 7.03348 19.79160
4.00000 7.03348 19.88036
4.00000 7.03348 19.96912
4.00000 7.03348 20.05790
4.00000 7.03348 20.14669
4.00000 7.03348 20.23549
4.00000 7.03348 20.32430
4.00000 7.03348 20.41312
4.00000 7.03348 20.50195
4.00000 7.03348 20.59080
4.00000 7.03348 20.67965
4.00000 7.03348 20.76851
4.00000 7.03348 20.85739
4.00000 7.03348 20.94627
4.00000 7.03348 21.03516
4.00000 7.03348 21.12407
4.00000 7.03348 21.21298
4.00000 7.03348 21.30190
4.00000 7.03348 21.39084
4.00000 7.03348 21.47978
4.00000 7.03348 21.56873
4.00000 7.03348 21.65770
4.00000 7.03348 21.74667
4.00000 7.03348 21.83565
4.00000 7.03348 21.92464
4.00000 7.03348 22.01364
4.00000 7.03348 22.10265
4.00000 7.03348 22.19167
4.00000 7.03348 22.28069
4.00000 7.03348 22.36973
4.00000 7.03348 22.45877
4.00000 7.03348 22.54783
4.00000 7.03348 22.63689
4.00000 7.03348 22.72596
4.00000 7.03348 22.81504
4.00000 7.03348 22.90413
4.00000 7.03348 22.99322
4.00000 7.03348 23.08233
4.00000 7.03348 23.17144
4.00000 7.03348 23.26056
4.00000 7.03348 23.34969
4.00000 7.03348 23.43883
4.00000 7.03348 23.52798
4.00000 7.03348 23.61713
4.00000 7.03348 23.70629
4.00000 7.03348 23.79546
4.00000 7.03348 23.88464
4.00000 7.03348 23.97382
4.00000 7.03348 24.06302
4.00000 7.03348 24.15222
4.00000 7.03348 24.24142
4.00000 7.03348 24.33064
4.00000 7.03348 24.41986
4.00000 7.03348 24.50909
4.00000 7.03348 24.59833
4.00000 7.03348 24.68757
4.00000 7.03348 24.77683
4.00000 7.03348 24.86609
4.00000 7.03348 24.95535
4.00000 7.03348 25.04463
4.00000 7.03348 25.13391
4.00000 7.03348 25.22319
4.00000 7.03348 25.31249
4.00000 7.03348 25.40179
4.00000 7.03348 25.49110
4.00000 7.03348 25.58041
4.00000 7.03348 25.66973
4.00000 7.03348 25.75906
4.00000 7.03348 25.84839
4.00000 7.03348 25.93774
4.00000 7.03348 26.02708
4.00000 7.03348 26.11644
4.00000 7.03348 26.20580
4.00000 7.03348 26.29516
4.00000 7.03348 26.38454
4.00000 7.03348 26.47392
4.00000 7.03348 26.56330
4.00000 7.03348 26.65269

