Angle 0.430478 1.489283

4.00000 7.03348 4.00000
4.00000 7.03348 4.00000
4.00000 7.03348 4.00000
4.00000 7.03348 4.00000
4.00000 7.03348 4.00000
4.00000 7.03348 4.00000
4.00000 7.03348 4.00000
4.00000 7.03348 4.00000
4.00000 7.03348 4.00000
4.00000 7.03348 4.00000
4.00000 7.03348 4.00000
4.00000 7.03348 4.00000
4.00000 7.03348 4.00000
4.00000 7.03348 4.00000
4.00000 7.03348 4.00000
4.00000 7.03351 4.00000
4.00000 7.03351 4.00000
4.00000 7.03351 4.00000
4.00000 7.03351 4.00000
4.00000 7.03351 4.00000
4.00000 7.03351 4.00000
4.00000 7.03351 4.00000
4.00000 7.03351 4.00000
4.00000 7.03351 4.00000
4.00000 7.03351 4.00000
4.00000 7.03351 4.00000
4.00000 7.03348 4.00000
4.00000 7.03348 4.00000
4.00000 7.03348 4.00000
4.00000 7.03348 4.00000
4.00000 7.03348 4.00000
4.00000 7.03348 4.00000
4.00000 7.03348 4.00000
4.00000 7.03348 4.00000
4.00000 7.03348 4.00000
4.00000 7.03348 4.00000
4.00000 7.03348 4.00000
4.00000 7.03348 4.00000
4.00000 7.03348 4.00000
4.00000 7.03348 4.00000
4.00000 7.03348 4.00000
4.00000 7.03348 4.00000
4.00000 7.03348 4.00000
4.00000 7.03348 4.00000
4.00000 7.03348 4.00000
4.00000 7.03347 4.00000
4.00000 7.03348 4.00000
4.00000 7.03348 4.00000
4.00000 7.03348 4.00000
4.00000 7.03348 4.00000
4.00000 7.03348 4.00000
4.00000 7.03348 4.00000
4.00000 7.03348 4.00000
4.00000 7.03348 4.00000
4.00000 7.03348 4.00000
4.00000 7.03348 4.00000
4.00000 7.03348 4.00000
4.00000 7.03348 4.00000
4.00000 7.03348 4.00000
4.00000 7.03348 4.00000
4.00000 7.03348 4.00000
4.00000 7.03348 4.00000
4.00000 7.03348 4.00000
4.00000 7.03348 4.00000
4.00000 7.03348 4.00000
4.00000 7.03348 4.00000
4.00000 7.03348 4.00000
4.00000 7.03348 4.00000
4.00000 7.03348 4.00000
4.00000 7.03348 4.00000
4.00000 7.03348 4.00000
4.00000 7.03348 4.00000
4.00000 7.03348 4.00000
4.00000 7.03348 4.00000
4.00000 7.03348 4.00000
4.00000 7.03348 4.00000
4.00000 7.03348 4.00000
4.00000 7.03348 4.00000
4.00000 7.03348 4.00000
4.00000 7.03348 4.00000
4.00000 7.03348 4.00000
4.00000 7.03348 4.00000
4.00000 7.03348 4.00000
4.00000 7.03348 4.00000
4.00000 7.03348 4.00000
4.00000 7.03348 4.00000
4.00000 7.03348 4.00000
4.00000 7.03348 4.00000
4.00000 7.03348 4.00000
4.00000 7.03348 4.00000
4.00000 7.03348 4.00000
4.00000 7.03348 4.00000
4.00000 7.03348 4.00000
4.00000 7.03350 4.00000
4.00000 7.03348 4.00000
4.00000 7.03348 4.00000
4.00000 7.03348 4.00000
4.00000 7.03348 4.00000
4.00000 7.03348 4.00000
4.00000 7.03349 4.00000
4.00000 7.03349 4.00000
4.00000 7.03349 4.00000
4.00000 7.03349 4.00000
4.00000 7.03349 4.00000
4.00000 7.03349 4.00000
4.00000 7.03349 4.00000
4.00000 7.03349 4.00000
4.00000 7.03349 4.00000
4.00000 7.03349 4.00000
4.00000 7.03349 4.00000
4.00000 7.03349 4.00000
4.00000 7.03348 4.00000
4.00000 7.03348 4.00000
4.00000 7.03348 4.00000
4.00000 7.03348 4.00000
4.00000 7.03348 4.00000
4.00000 7.03348 4.00000
4.00000 7.03348 4.00000
4.00000 7.03348 4.00000
4.00000 7.03348 4.00000
4.00000 7.03348 4.00000
4.00000 7.03348 4.00000
4.00000 7.03348 4.00000
4.00000 7.03348 4.00000
4.00000 7.03348 4.00000
4.00000 7.03348 4.00000
4.00000 7.03348 4.00000
4.00000 7.03348 4.00000
4.00000 7.03348 4.00000
4.00000 7.03348 4.00000
4.00000 7.03348 4.00000
4.00000 7.03348 4.00000
4.00000 7.03348 4.00000
4.00000 7.03348 4.00000
4.00000 7.03348 4.00000
4.00000 7.03348 4.00000
4.00000 7.03348 4.00000
4.00000 7.03348 4.00000
4.00000 7.03348 4.00000
4.00000 7.03348 4.00000
4.00000 7.03348 4.00000
4.00000 7.03348 4.00000
4.00000 7.03348 4.00000
4.00000 7.03348 4.00000
4.00000 7.03348 4.00000
4.00000 7.03348 4.00000
4.00000 7.03348 4.00000
4.00000 7.03348 4.00000
4.00000 7.03348 4.00000
4.00000 7.03348 4.00000
4.00000 7.03348 4.00000
4.00000 7.03348 4.00000
4.00000 7.03348 4.00000
4.00000 7.03348 4.00000
4.00000 7.03348 4.00000
4.00000 7.03348 4.00000
4.00000 7.03348 4.00000
4.00000 7.03348 4.00000
4.00000 7.03348 4.00000
4.00000 7.03348 4.00000
4.00000 7.03348 4.00000
4.00000 7.03348 4.00000
4.00000 7.03348 4.00000
4.00000 7.03348 4.00000
4.00000 7.03348 4.00000
4.00000 7.03348 4.00000
4.00000 7.03348 4.00000
4.00000 7.03348 4.00000
4.00000 7.03348 4.00000
4.00000 7.03348 4.00000
4.00000 7.03348 4.00000
4.00000 7.03348 4.00000
4.00000 7.03348 4.00000
4.00000 7.03348 4.00000
4.00000 7.03348 4.00000
4.00000 7.03348 4.00000
4.00000 7.03348 4.00000
4.00000 7.03348 4.00000
4.00000 7.03348 4.00000
4.00000 7.03348 4.00000
4.00000 7.03348 4.00000
4.00000 7.03348 4.00000
4.00000 7.03348 4.00000
4.00000 7.03348 4.00000
4.00000 7.03348 4.00000
4.00000 7.03348 4.00000
4.00000 7.03348 4.00000
4.00000 7.03349 4.00000
4.00000 7.03348 4.00000
4.00000 7.03348 4.00000
4.00000 7.03348 4.00000
4.00000 7.03349 4.00000
4.00000 7.03349 4.00000
4.00000 7.03348 4.00000
4.00122 7.05674 4.00122
4.00494 7.12836 4.00494
4.00860 7.20021 4.00860
4.01221 7.27227 4.01221
4.01581 7.34451 4.01581
4.01938 7.41690 4.01938
4.02296 7.48942 4.02296
4.02654 7.56204 4.02654
4.03015 7.63473 4.03015
4.03380 7.70745 4.03380
4.03750 7.78018 4.03750
4.04127 7.85287 4.04127
4.04514 7.92549 4.04514
4.04912 7.99799 4.04912
4.05324 8.07032 4.05324
4.05752 8.14242 4.05752
4.06201 8.21422 4.06201
4.06674 8.28565 4.06674
4.07175 8.35660 4.07175
4.07711 8.42696 4.07711
4.08288 8.49660 4.08288
4.08915 8.56533 4.08915
4.09602 8.63296 4.09602
4.10359 8.69928 4.10359
4.11182 8.76437 4.11182
4.12072 8.82820 4.12072
4.13036 8.89066 4.13036
4.14077 8.95167 4.14077
4.15198 9.01115 4.15198
4.16404 9.06902 4.16404
4.17698 9.12523 4.17698
4.19081 9.17974 4.19080
4.20554 9.23251 4.20554
4.22118 9.28355 4.22118
4.23773 9.33286 4.23773
4.25517 9.38047 4.25517
4.27347 9.42643 4.27347
4.29261 9.47078 4.29261
4.31256 9.51361 4.31256
4.33327 9.55497 4.33327
4.35472 9.59494 4.35472
4.37685 9.63360 4.37685
4.39965 9.67101 4.39965
4.42308 9.70723 4.42308
4.44713 9.74227 4.44714
4.47181 9.77614 4.47181
4.49715 9.80874 4.49715
4.52325 9.83990 4.52325
4.55032 9.86917 4.55032
4.57883 9.89562 4.57883
4.60990 9.91704 4.60990
4.64626 9.92789 4.64630
4.01332 7.29441 7.99639
4.01175 7.26297 8.11313
4.01042 7.23653 8.22470
4.00929 7.21396 8.33225
4.00831 7.19451 8.43660
4.00745 7.17760 8.53834
4.00670 7.16279 8.63795
4.00603 7.14975 8.73574
4.00544 7.13822 8.83201
4.00492 7.12798 8.92698
4.00445 7.11885 9.02083
4.00403 7.11070 9.11371
4.00365 7.10339 9.20577
4.00331 7.09683 9.29708
4.00300 7.09094 9.38775
4.00273 7.08562 9.47786
4.00248 7.08084 9.56748
4.00225 7.07651 9.65666
4.00205 7.07259 9.74545
4.00187 7.06905 9.83390
4.00170 7.06584 9.92205
4.00155 7.06293 10.00994
4.00141 7.06029 10.09758
4.00128 7.05789 10.18502
4.00117 7.05571 10.27228
4.00107 7.05374 10.35937
4.00097 7.05194 10.44631
4.00088 7.05030 10.53313
4.00081 7.04881 10.61984
4.00074 7.04745 10.70646
4.00067 7.04623 10.79298
4.00061 7.04510 10.87944
4.00056 7.04407 10.96584
4.00051 7.04314 11.05218
4.00047 7.04230 11.13846
4.00042 7.04150 11.22473
4.00039 7.04080 11.31095
4.00035 7.04016 11.39714
4.00032 7.03957 11.48332
4.00029 7.03905 11.56947
4.00027 7.03855 11.65563
4.00024 7.03811 11.74177
4.00022 7.03769 11.82791
4.00020 7.03733 11.91405
4.00018 7.03699 12.00020
4.00017 7.03668 12.08634
4.00015 7.03640 12.17251
4.00014 7.03616 12.25865
4.00013 7.03590 12.34485
4.00012 7.03570 12.43105
4.00011 7.03550 12.51722
4.00010 7.03532 12.60346
4.00009 7.03516 12.68970
4.00008 7.03501 12.77597
4.00007 7.03488 12.86221
4.00007 7.03475 12.94853
4.00006 7.03463 13.03485
4.00005 7.03453 13.12121
4.00005 7.03444 13.20758
4.00005 7.03436 13.29398
4.00004 7.03428 13.38041
4.00004 7.03421 13.46687
4.00003 7.03414 13.55335
4.00003 7.03408 13.63986
4.00003 7.03403 13.72639
4.00003 7.03398 13.81295
4.00002 7.03394 13.89953
4.00002 7.03389 13.98614
4.00002 7.03386 14.07277
4.00002 7.03382 14.15943
4.00002 7.03379 14.24612
4.00001 7.03376 14.33283
4.00001 7.03374 14.41956
4.00001 7.03371 14.50632
4.00001 7.03369 14.59310
4.00001 7.03367 14.67991
4.00001 7.03365 14.76674
4.00001 7.03364 14.85359
4.00001 7.03362 14.94047
4.00001 7.03361 15.02737
4.00001 7.03359 15.11430
4.00001 7.03358 15.20125
4.00000 7.03357 15.28822
4.00000 7.03356 15.37521
4.00000 7.03355 15.46223
4.00000 7.03355 15.54927
4.00000 7.03355 15.63632
4.00000 7.03355 15.72340
4.00000 7.03354 15.81051
4.00000 7.03353 15.89764
4.00000 7.03353 15.98479
4.00000 7.03353 16.07197
4.00000 7.03352 16.15916
4.00000 7.03352 16.24638
4.00000 7.03351 16.33361
4.00000 7.03351 16.42087
4.00000 7.03351 16.50815
4.00000 7.03351 16.59545
4.00000 7.03350 16.68277
4.00000 7.03350 16.77011
4.00000 7.03350 16.85747
4.00000 7.03350 16.94485
4.00000 7.03350 17.03225
4.00000 7.03349 17.11966
4.00000 7.03349 17.20710
4.00000 7.03349 17.29456
4.00000 7.03349 17.38204
4.00000 7.03349 17.46953
4.00000 7.03349 17.55705
4.00000 7.03349 17.64458
4.00000 7.03349 17.73213
4.00000 7.03349 17.81970
4.00000 7.03349 17.90729
4.00000 7.03349 17.99490
4.00000 7.03348 18.08252
4.00000 7.03348 18.17016
4.00000 7.03348 18.25782
4.00000 7.03348 18.34550
4.00000 7.03348 18.43320
4.00000 7.03348 18.52091
4.00000 7.03348 18.60864
4.00000 7.03348 18.69639
4.00000 7.03348 18.78415
4.00000 7.03348 18.87193
4.00000 7.03348 18.95973
4.00000 7.03348 19.04754
4.00000 7.03348 19.13537
4.00000 7.03348 19.22322
4.00000 7.03348 19.31108
4.00000 7.03348 19.39896
4.00000 7.03348 19.48685
4.00000 7.03348 19.57476
4.00000 7.03348 19.66269
4.00000 7.03348 19.75063
4.00000 7.03348 19.83858
4.00000 7.03348 19.92655
4.00000 7.03348 20.01454
4.00000 7.03348 20.10254
4.00000 7.03348 20.19056
4.00000 7.03348 20.27859
4.00000 7.03348 20.36664
4.00000 7.03348 20.45470
4.00000 7.03348 20.54278
4.00000 7.03348 20.63087
4.00000 7.03348 20.71897
4.00000 7.03348 20.80709
4.00000 7.03348 20.89522
4.00000 7.03348 20.98337
4.00000 7.03348 21.07153
4.00000 7.03348 21.15970
4.00000 7.03348 21.24789
4.00000 7.03348 21.33609
4.00000 7.03348 21.42431
4.00000 7.03348 21.51254

Angle 0.486997 1.884848

4.00000 7.03348 4.00000
4.00000 7.03348 4.00000
4.00000 7.03348 4.00000
4.00000 7.03348 4.00000
4.00000 7.03348 4.00000
4.00000 7.03348 4.00000
4.00000 7.03348 4.00000
4.00000 7.03348 4.00000
4.00000 7.03348 4.00000
4.00000 7.03348 4.00000
4.00000 7.03348 4.00000
4.00000 7.03348 4.00000
4.00000 7.03348 4.00000
4.00000 7.03348 4.00000
4.00000 7.03348 4.00000
4.00000 7.03348 4.00000
4.00000 7.03348 4.00000
4.00000 7.03348 4.00000
4.00000 7.03348 4.00000
4.00000 7.03348 4.00000
4.00000 7.03348 4.00000
4.00000 7.03348 4.00000
4.00000 7.03348 4.00000
4.00000 7.03348 4.00000
4.00000 7.03348 4.00000
4.00000 7.03348 4.00000
4.00000 7.03348 4.00000
4.00000 7.03348 4.00000
4.00000 7.03348 4.00000
4.00000 7.03348 4.00000
4.00000 7.03348 4.00000
4.00000 7.03348 4.00000
4.00000 7.03348 4.00000
4.00000 7.03348 4.00000
4.00000 7.03348 4.00000
4.00000 7.03348 4.00000
4.00000 7.03348 4.00000
4.00000 7.03348 4.00000
4.00000 7.03348 4.00000
4.00000 7.03348 4.00000
4.00000 7.03348 4.00000
4.00000 7.03348 4.00000
4.00000 7.03348 4.00000
4.00000 7.03348 4.00000
4.00000 7.03348 4.00000
4.00000 7.03348 4.00000
4.00000 7.03348 4.00000
4.00000 7.03348 4.00000
4.00000 7.03348 4.00000
4.00000 7.03348 4.00000
4.00000 7.03348 4.00000
4.00000 7.03348 4.00000
4.00000 7.03348 4.00000
4.00000 7.03348 4.00000
4.00000 7.03348 4.00000
4.00000 7.03348 4.00000
4.00000 7.03348 4.00000
4.00000 7.03348 4.00000
4.00000 7.03348 4.00000
4.00000 7.03348 4.00000
4.00000 7.03348 4.00000
4.00000 7.03348 4.00000
4.00000 7.03348 4.00000
4.00000 7.03348 4.00000
4.00000 7.03348 4.00000
4.00000 7.03348 4.00000
4.00000 7.03348 4.00000
4.00000 7.03348 4.00000
4.00000 7.03348 4.00000
4.00000 7.03348 4.00000
4.00000 7.03348 4.00000
4.00000 7.03348 4.00000
4.00000 7.03348 4.00000
4.00000 7.03348 4.00000
4.00000 7.03348 4.00000
4.00000 7.03348 4.00000
4.00000 7.03348 4.00000
4.00000 7.03348 4.00000
4.00000 7.03348 4.00000
4.00000 7.03348 4.00000
4.00000 7.03348 4.00000
4.00000 7.03348 4.00000
4.00000 7.03348 4.00000
4.00000 7.03348 4.00000
4.00000 7.03348 4.00000
4.00000 7.03348 4.00000
4.00000 7.03348 4.00000
4.00000 7.03348 4.00000
4.00000 7.03348 4.00000
4.00000 7.03348 4.00000
4.00000 7.03348 4.00000
4.00000 7.03348 4.00000
4.00000 7.03348 4.00000
4.00000 7.03348 4.00000
4.00000 7.03348 4.00000
4.00000 7.03348 4.00000
4.00000 7.03348 4.00000
4.00000 7.03348 4.00000
4.00000 7.03348 4.00000
4.00000 7.03348 4.00000
4.00000 7.03348 4.00000
4.00000 7.03348 4.00000
4.00000 7.03348 4.00000
4.00000 7.03348 4.00000
4.00000 7.03348 4.00000
4.00000 7.03348 4.00000
4.00000 7.03348 4.00000
4.00000 7.03348 4.00000
4.00000 7.03348 4.00000
4.00000 7.03348 4.00000
4.00000 7.03348 4.00000
4.00000 7.03348 4.00000
4.00000 7.03348 4.00000
4.00000 7.03348 4.00000
4.00000 7.03348 4.00000
4.00000 7.03348 4.00000
4.00000 7.03348 4.00000
4.00000 7.03348 4.00000
4.00000 7.03348 4.00000
4.00000 7.03348 4.00000
4.00000 7.03348 4.00000
4.00000 7.03348 4.00000
4.00000 7.03348 4.00000
4.00000 7.03348 4.00000
4.00000 7.03348 4.00000
4.00000 7.03347 4.00000
4.00000 7.03348 4.00000
4.00000 7.03348 4.00000
4.00000 7.03348 4.00000
4.00000 7.03348 4.00000
4.00000 7.03348 4.00000
4.00000 7.03348 4.00000
4.00000 7.03348 4.00000
4.00000 7.03348 4.00000
4.00000 7.03348 4.00000
4.00000 7.03348 4.00000
4.00000 7.03348 4.00000
4.00000 7.03348 4.00000
4.00000 7.03348 4.00000
4.00000 7.03348 4.00000
4.00000 7.03348 4.00000
4.00000 7.03348 4.00000
4.00000 7.03348 4.00000
4.00000 7.03348 4.00000
4.00000 7.03348 4.00000
4.00000 7.03348 4.00000
4.00000 7.03348 4.00000
4.00000 7.03348 4.00000
4.00000 7.03348 4.00000
4.00000 7.03348 4.00000
4.00000 7.03348 4.00000
4.00000 7.03348 4.00000
4.00000 7.03348 4.00000
4.00000 7.03348 4.00000
4.00000 7.03348 4.00000
4.00000 7.03348 4.00000
4.00000 7.03348 4.00000
4.00000 7.03348 4.00000
4.00000 7.03348 4.00000
4.00000 7.03348 4.00000
4.00000 7.03348 4.00000
4.00000 7.03348 4.00000
4.00000 7.03348 4.00000
4.00000 7.03348 4.00000
4.00000 7.03348 4.00000
4.00000 7.03348 4.00000
4.00000 7.03348 4.00000
4.00000 7.03348 4.00000
4.00000 7.03348 4.00000
4.00000 7.03348 4.00000
4.00000 7.03348 4.00000
4.00000 7.03348 4.00000
4.00000 7.03350 4.00000
4.00094 7.05139 4.00094
4.00475 7.12469 4.00475
4.00849 7.19822 4.00849
4.01220 7.27194 4.01220
4.01587 7.34583 4.01587
4.01953 7.41985 4.01953
4.02318 7.49399 4.02318
4.02684 7.56820 4.02684
4.03053 7.64246 4.03053
4.03426 7.71673 4.03426
4.03805 7.79099 4.03805
4.04192 7.86518 4.04192
4.04588 7.93927 4.04588
4.04997 8.01321 4.04997
4.05421 8.08694 4.05421
4.05862 8.16040 4.05862
4.06326 8.23351 4.06326
4.06815 8.30618 4.06815
4.07336 8.37832 4.07336
4.07894 8.44978 4.07894
4.08498 8.52042 4.08498
4.09157 8.59004 4.09157
4.09882 8.65841 4.09882
4.10679 8.72541 4.10679
4.11544 8.79114 4.11545
4.12482 8.85551 4.12482
4.13496 8.91840 4.13496
4.14592 8.97974 4.14592
4.15773 9.03945 4.15773
4.17043 9.09746 4.17043
4.18404 9.15372 4.18404
4.19857 9.20818 4.19857
4.21405 9.26085 4.21405
4.23045 9.31172 4.23045
4.24778 9.36081 4.24778
4.26601 9.40816 4.26601
4.28512 9.45383 4.28512
4.30506 9.49788 4.30506
4.32581 9.54040 4.32581
4.34732 9.58145 4.34732
4.36955 9.62112 4.36955
4.39247 9.65947 4.39247
4.41605 9.69657 4.41604
4.44026 9.73246 4.44026
4.46511 9.76714 4.46510
4.49061 9.80055 4.49061
4.51687 9.83253 4.51687
4.54405 9.86270 4.54405
4.57256 9.89027 4.57256
4.60336 9.91333 4.60336
4.63882 9.92712 4.63882
7.97572 7.30019 4.01360
8.09466 7.26768 4.01199
8.20838 7.24019 4.01061
8.31783 7.21684 4.00943
8.42387 7.19677 4.00842
8.52717 7.17937 4.00754
8.62821 7.16417 4.00677
8.72735 7.15082 4.00609
8.82490 7.13903 4.00548
8.92109 7.12858 4.00495
9.01612 7.11929 4.00447
9.11013 7.11100 4.00404
9.20328 7.10358 4.00366
9.29566 7.09693 4.00332
9.38737 7.09096 4.00301
9.47850 7.08559 4.00273
9.56911 7.08075 4.00248
9.65928 7.07638 4.00225
9.74901 7.07246 4.00204
9.83842 7.06889 4.00186
9.92750 7.06566 4.00169
10.01631 7.06274 4.00154
10.10488 7.06008 4.00140
10.19321 7.05768 4.00127
10.28136 7.05550 4.00116
10.36933 7.05352 4.00105
10.45715 7.05173 4.00096
10.54483 7.05009 4.00087
10.63240 7.04861 4.00080
10.71986 7.04725 4.00072
10.80723 7.04603 4.00066
10.89452 7.04491 4.00060
10.98173 7.04389 4.00055
11.06889 7.04297 4.00050
11.15600 7.04213 4.00045
11.24307 7.04134 4.00042
11.33006 7.04068 4.00038
11.41707 7.04002 4.00034
11.50405 7.03943 4.00031
11.59098 7.03891 4.00028
11.67792 7.03842 4.00026
11.76482 7.03799 4.00024
11.85174 7.03758 4.00022
11.93862 7.03723 4.00020
12.02553 7.03689 4.00018
12.11244 7.03659 4.00016
12.19932 7.03632 4.00015
12.28624 7.03606 4.00013
12.37316 7.03583 4.00012
12.46003 7.03563 4.00011
12.54697 7.03543 4.00010
12.63392 7.03525 4.00009
12.72089 7.03510 4.00008
12.80787 7.03495 4.00008
12.89488 7.03482 4.00007
12.98191 7.03470 4.00006
13.06896 7.03459 4.00006
13.15604 7.03449 4.00005
13.24314 7.03440 4.00005
13.32991 7.03432 4.00004
13.41701 7.03424 4.00004
13.50413 7.03417 4.00004
13.59126 7.03411 4.00003
13.67843 7.03405 4.00003
13.76562 7.03400 4.00003
13.85283 7.03395 4.00002
13.94008 7.03391 4.00002
14.02734 7.03387 4.00002
14.11463 7.03383 4.00002
14.20195 7.03380 4.00002
14.28929 7.03377 4.00001
14.37666 7.03374 4.00001
14.46405 7.03372 4.00001
14.55147 7.03370 4.00001
14.63891 7.03368 4.00001
14.72638 7.03366 4.00001
14.81387 7.03364 4.00001
14.90139 7.03362 4.00001
14.98892 7.03361 4.00001
15.07649 7.03360 4.00001
15.16407 7.03359 4.00001
15.25168 7.03357 4.00000
15.33932 7.03357 4.00000
15.42697 7.03356 4.00000
15.51305 7.03356 4.00000
15.60065 7.03356 4.00000
15.68828 7.03355 4.00000
15.77593 7.03354 4.00000
15.86361 7.03354 4.00000
15.95131 7.03353 4.00000
16.03903 7.03353 4.00000
16.12678 7.03352 4.00000
16.21455 7.03352 4.00000
16.30234 7.03352 4.00000
16.39015 7.03351 4.00000
16.47799 7.03351 4.00000
16.56585 7.03351 4.00000
16.65372 7.03350 4.00000
16.74162 7.03350 4.00000
16.82955 7.03350 4.00000
16.91749 7.03350 4.00000
17.00545 7.03350 4.00000
17.09343 7.03350 4.00000
17.18143 7.03349 4.00000
17.26946 7.03349 4.00000
17.35750 7.03349 4.00000
17.44556 7.03349 4.00000
17.53364 7.03349 4.00000
17.62174 7.03349 4.00000
17.70985 7.03349 4.00000
17.79799 7.03349 4.00000
17.88614 7.03349 4.00000
17.97432 7.03349 4.00000
18.06251 7.03349 4.00000
18.15071 7.03348 4.00000
18.23894 7.03348 4.00000
18.32718 7.03348 4.00000
18.41544 7.03348 4.00000
18.50371 7.03348 4.00000
18.59201 7.03348 4.00000
18.68031 7.03348 4.00000
18.76864 7.03348 4.00000
18.85698 7.03348 4.00000
18.94534 7.03348 4.00000
19.03371 7.03348 4.00000
19.12210 7.03348 4.00000
19.21050 7.03348 4.00000
19.29892 7.03348 4.00000
19.38735 7.03348 4.00000
19.47580 7.03348 4.00000
19.56427 7.03348 4.00000
19.65274 7.03348 4.00000
19.74124 7.03348 4.00000
19.82974 7.03348 4.00000
19.91826 7.03348 4.00000
20.00680 7.03348 4.00000
20.09535 7.03348 4.00000
20.18391 7.03348 4.00000
20.27248 7.03348 4.00000
20.36107 7.03348 4.00000
20.44967 7.03348 4.00000
20.53829 7.03348 4.00000
20.62692 7.03348 4.00000
20.71556 7.03348 4.00000
20.80421 7.03348 4.00000
20.89288 7.03348 4.00000
20.98156 7.03348 4.00000
21.07025 7.03348 4.00000
21.15895 7.03348 4.00000
21.24767 7.03348 4.00000
21.33640 7.03348 4.00000
21.42513 7.03348 4.00000
21.51389 7.03348 4.00000
21.60265 7.03348 4.00000
21.69142 7.03348 4.00000
21.78021 7.03348 4.00000
21.86901 7.03348 4.00000
21.95781 7.03348 4.00000
22.04663 7.03348 4.00000
22.13546 7.03348 4.00000
22.22430 7.03348 4.00000
22.31315 7.03348 4.00000
22.40202 7.03348 4.00000
22.49089 7.03348 4.00000
22.57977 7.03348 4.00000
22.66867 7.03348 4.00000
22.75757 7.03348 4.00000
22.84649 7.03348 4.00000
22.93541 7.03348 4.00000
23.02434 7.03348 4.00000
23.11329 7.03348 4.00000
23.20224 7.03348 4.00000
23.29120 7.03348 4.00000
23.38018 7.03348 4.00000
23.46916 7.03348 4.00000
23.55815 7.03348 4.00000

Angle 0.660136 2.753138

4.00000 7.03348 4.00000
4.00000 7.03348 4.00000
4.00000 7.03348 4.00000
4.00000 7.03348 4.00000
4.00000 7.03348 4.00000
4.00000 7.03348 4.00000
4.00000 7.03348 4.00000
4.00000 7.03348 4.00000
4.00000 7.03348 4.00000
4.00000 7.03348 4.00000
4.00000 7.03348 4.00000
4.00000 7.03348 4.00000
4.00000 7.03348 4.00000
4.00000 7.03348 4.00000
4.00000 7.03348 4.00000
4.00000 7.03348 4.00000
4.00000 7.03348 4.00000
4.00000 7.03348 4.00000
4.00000 7.03348 4.00000
4.00000 7.03348 4.00000
4.00000 7.03348 4.00000
4.00000 7.03348 4.00000
4.00000 7.03348 4.00000
4.00000 7.03348 4.00000
4.00000 7.03348 4.00000
4.00000 7.03348 4.00000
4.00000 7.03348 4.00000
4.00000 7.03348 4.00000
4.00000 7.03348 4.00000
4.00000 7.03348 4.00000
4.00000 7.03348 4.00000
4.00000 7.03348 4.00000
4.00000 7.03348 4.00000
4.00000 7.03348 4.00000
4.00000 7.03348 4.00000
4.00000 7.03348 4.00000
4.00000 7.03348 4.00000
4.00000 7.03348 4.00000
4.00000 7.03348 4.00000
4.00000 7.03348 4.00000
4.00000 7.03348 4.00000
4.00000 7.03348 4.00000
4.00000 7.03348 4.00000
4.00000 7.03348 4.00000
4.00000 7.03348 4.00000
4.00000 7.03348 4.00000
4.00000 7.03348 4.00000
4.00000 7.03348 4.00000
4.00000 7.03348 4.00000
4.00000 7.03348 4.00000
4.00000 7.03348 4.00000
4.00000 7.03348 4.00000
4.00000 7.03348 4.00000
4.00000 7.03348 4.00000
4.00000 7.03348 4.00000
4.00000 7.03348 4.00000
4.00000 7.03348 4.00000
4.00000 7.03348 4.00000
4.00000 7.03348 4.00000
4.00000 7.03348 4.00000
4.00000 7.03348 4.00000
4.00000 7.03348 4.00000
4.00000 7.03348 4.00000
4.00000 7.03348 4.00000
4.00000 7.03348 4.00000
4.00000 7.03348 4.00000
4.00000 7.03348 4.00000
4.00000 7.03348 4.00000
4.00000 7.03348 4.00000
4.00000 7.03348 4.00000
4.00000 7.03348 4.00000
4.00000 7.03348 4.00000
4.00000 7.03348 4.00000
4.00000 7.03348 4.00000
4.00000 7.03348 4.00000
4.00000 7.03348 4.00000
4.00000 7.03348 4.00000
4.00000 7.03348 4.00000
4.00000 7.03348 4.00000
4.00000 7.03348 4.00000
4.00000 7.03348 4.00000
4.00000 7.03348 4.00000
4.00000 7.03348 4.00000
4.00000 7.03348 4.00000
4.00000 7.03348 4.00000
4.00000 7.03348 4.00000
4.00000 7.03348 4.00000
4.00000 7.03348 4.00000
4.00000 7.03348 4.00000
4.00000 7.03348 4.00000
4.00000 7.03348 4.00000
4.00000 7.03348 4.00000
4.00000 7.03348 4.00000
4.00000 7.03348 4.00000
4.00000 7.03348 4.00000
4.00000 7.03348 4.00000
4.00000 7.03348 4.00000
4.00000 7.03348 4.00000
4.00000 7.03348 4.00000
4.00000 7.03348 4.00000
4.00000 7.03348 4.00000
4.00000 7.03348 4.00000
4.00000 7.03348 4.00000
4.00000 7.03348 4.00000
4.00000 7.03348 4.00000
4.00000 7.03348 4.00000
4.00000 7.03348 4.00000
4.00000 7.03348 4.00000
4.00000 7.03348 4.00000
4.00000 7.03348 4.00000
4.00000 7.03348 4.00000
4.00000 7.03348 4.00000
4.00000 7.03348 4.00000
4.00000 7.03348 4.00000
4.00000 7.03348 4.00000
4.00000 7.03348 4.00000
4.00000 7.03348 4.00000
4.00000 7.03348 4.00000
4.00000 7.03348 4.00000
4.00000 7.03348 4.00000
4.00000 7.03348 4.00000
4.00000 7.03348 4.00000
4.00000 7.03348 4.00000
4.00000 7.03348 4.00000
4.00000 7.03348 4.00000
4.00000 7.03348 4.00000
4.00000 7.03348 4.00000
4.00000 7.03348 4.00000
4.00000 7.03348 4.00000
4.00000 7.03348 4.00000
4.00000 7.03348 4.00000
4.00000 7.03348 4.00000
4.00000 7.03348 4.00000
4.00000 7.03348 4.00000
4.00000 7.03348 4.00000
4.00000 7.03348 4.00000
4.00000 7.03348 4.00000
4.00000 7.03348 4.00000
4.00000 7.03348 4.00000
4.00000 7.03348 4.00000
4.00000 7.03348 4.00000
4.00000 7.03348 4.00000
4.00000 7.03348 4.00000
4.00000 7.03348 4.00000
4.00000 7.03348 4.00000
4.00000 7.03348 4.00000
4.00000 7.03348 4.00000
4.00000 7.03348 4.00000
4.00000 7.03348 4.00000
4.00000 7.03348 4.00000
4.00000 7.03348 4.00000
4.00000 7.03348 4.00000
4.00000 7.03348 4.00000
4.00000 7.03348 4.00000
4.00000 7.03348 4.00000
4.00000 7.03348 4.00000
4.00000 7.03348 4.00000
4.00000 7.03348 4.00000
4.00000 7.03348 4.00000
4.00000 7.03348 4.00000
4.00000 7.03348 4.00000
4.00000 7.03348 4.00000
4.00000 7.03348 4.00000
4.00000 7.03348 4.00000
4.00000 7.03348 4.00000
4.00000 7.03348 4.00000
4.00000 7.03348 4.00000
4.00000 7.03348 4.00000
4.00000 7.03348 4.00000
4.00000 7.03348 4.00000
4.00000 7.03348 4.00000
4.00000 7.03348 4.00000
4.00000 7.03348 4.00000
4.00000 7.03348 4.00000
4.00000 7.03348 4.00000
4.00000 7.03348 4.00000
4.00000 7.03348 4.00000
4.00000 7.03348 4.00000
4.00000 7.03348 4.00000
4.00000 7.03348 4.00000
4.00000 7.03348 4.00000
4.00000 7.03348 4.00000
4.00000 7.03348 4.00000
4.00000 7.03348 4.00000
4.00000 7.03348 4.00000
4.00000 7.03348 4.00000
4.00000 7.03348 4.00000
4.00000 7.03348 4.00000
4.00000 7.03348 4.00000
4.00000 7.03348 4.00000
4.00000 7.03348 4.00000
4.00000 7.03348 4.00000
4.00000 7.03348 4.00000
4.00000 7.03348 4.00000
4.00000 7.03348 4.00000
4.00000 7.03348 4.00000
4.00000 7.03348 4.00000
4.00000 7.03348 4.00000
4.00000 7.03348 4.00000
4.00000 7.03348 4.00000
4.00000 7.03348 4.00000
4.00000 7.03348 4.00000
4.00000 7.03348 4.00000
4.00000 7.03348 4.00000
4.00000 7.03348 4.00000
4.00000 7.03348 4.00000
4.00000 7.03348 4.00000
4.00000 7.03348 4.00000
4.00000 7.03348 4.00000
4.00000 7.03348 4.00000
4.00053 7.04346 4.00053
4.00358 7.10205 4.00358
4.00660 7.16096 4.00660
4.00960 7.22019 4.00960
4.01259 7.27970 4.01259
4.01556 7.33949 4.01556
4.01853 7.39954 4.01853
4.02150 7.45983 4.02150
4.02448 7.52035 4.02448
4.02748 7.58107 4.02748
4.03051 7.64198 4.03051
4.03357 7.70305 4.03357
4.03668 7.76426 4.03668
4.03984 7.82559 4.03985
4.04308 7.88701 4.04308
4.04639 7.94850 4.04639
4.04979 8.01002 4.04979
4.05331 8.07154 4.05331
4.05695 8.13302 4.05695
4.06075 8.19441 4.06075
4.06472 8.25566 4.06472
4.06889 8.31671 4.06889
4.07330 8.37749 4.07330
4.07798 8.43792 4.07798
4.08299 8.49790 4.08299
4.08838 8.55732 4.08838
4.09422 8.61604 4.09422
4.10059 8.67389 4.10059
4.10748 8.73088 4.10748
4.11488 8.78705 4.11488
4.12282 8.84232 4.12282
4.13133 8.89663 4.13133
4.14045 8.94991 4.14045
4.15020 9.00210 4.15020
4.16061 9.05314 4.16061
4.17171 9.10300 4.17171
4.18350 9.15162 4.18350
4.19602 9.19898 4.19602
4.20925 9.24506 4.20925
4.22322 9.28984 4.22322
4.23790 9.33335 4.23790
4.25331 9.37558 4.25331
4.26942 9.41657 4.26942
4.28621 9.45633 4.28621
4.30367 9.49493 4.30368
4.32178 9.53238 4.32178
4.34051 9.56875 4.34051
4.35983 9.60409 4.35982
4.37971 9.63843 4.37972
4.40015 9.67181 4.40015
4.42113 9.70428 4.42113
4.44262 9.73585 4.44262
4.46464 9.76651 4.46464
4.48720 9.79621 4.48720
4.51037 9.82485 4.51037
4.53425 9.85221 4.53425
4.55906 9.87783 4.55906
4.58527 9.90079 4.58527
4.61389 9.91906 4.61389
4.64741 9.92793 4.64713
7.98796 7.29684 4.01344
8.09440 7.26775 4.01199
8.19651 7.24290 4.01074
8.29520 7.22144 4.00967
8.39113 7.20271 4.00872
8.48480 7.18626 4.00789
8.57659 7.17172 4.00715
8.66680 7.15880 4.00649
8.75567 7.14726 4.00590
8.84338 7.13693 4.00538
8.93011 7.12766 4.00490
9.01598 7.11930 4.00447
9.10111 7.11175 4.00408
9.18560 7.10493 4.00373
9.26952 7.09875 4.00341
9.35295 7.09313 4.00312
9.43595 7.08803 4.00285
9.51857 7.08339 4.00261
9.60083 7.07919 4.00239
9.68286 7.07531 4.00219
9.76460 7.07180 4.00201
9.84615 7.06857 4.00184
9.92748 7.06563 4.00169
10.00865 7.06295 4.00155
10.08967 7.06050 4.00142
10.17057 7.05826 4.00130
10.25137 7.05621 4.00119
10.33208 7.05433 4.00110
10.41272 7.05261 4.00101
10.49330 7.05103 4.00092
10.57383 7.04958 4.00085
10.65431 7.04826 4.00078
10.73479 7.04704 4.00071
10.81524 7.04592 4.00065
10.89568 7.04489 4.00060
10.97612 7.04396 4.00055
11.05656 7.04309 4.00051
11.13702 7.04230 4.00046
11.21748 7.04157 4.00043
11.29797 7.04091 4.00039
11.37848 7.04029 4.00036
11.45902 7.03973 4.00033
11.53959 7.03922 4.00030
11.62020 7.03874 4.00028
11.70084 7.03831 4.00025
11.78153 7.03791 4.00023
11.86225 7.03755 4.00021
11.94302 7.03721 4.00020
12.02384 7.03690 4.00018
12.10470 7.03662 4.00016
12.18562 7.03636 4.00015
12.26658 7.03612 4.00014
12.34760 7.03590 4.00013
12.42866 7.03570 4.00012
12.50979 7.03552 4.00011
12.59096 7.03535 4.00010
12.67219 7.03519 4.00009
12.75350 7.03504 4.00008
12.83482 7.03492 4.00008
12.91623 7.03479 4.00007
12.99766 7.03469 4.00006
13.07919 7.03458 4.00006
13.16074 7.03450 4.00005
13.24238 7.03440 4.00005
13.32408 7.03432 4.00004
13.40577 7.03426 4.00004
13.48758 7.03419 4.00004
13.56945 7.03413 4.00003
13.65139 7.03407 4.00003
13.73327 7.03403 4.00003
13.81529 7.03399 4.00003
13.89739 7.03393 4.00002
13.97955 7.03389 4.00002
14.06178 7.03386 4.00002
14.14407 7.03382 4.00002
14.22642 7.03379 4.00001
14.30883 7.03376 4.00001
14.39091 7.03375 4.00001
14.47337 7.03373 4.00001
14.55589 7.03371 4.00001
14.63848 7.03368 4.00001
14.72113 7.03366 4.00001
14.80384 7.03364 4.00001
14.88660 7.03363 4.00001
14.96943 7.03361 4.00001
15.05229 7.03362 4.00001
15.13524 7.03359 4.00001
15.21823 7.03358 4.00000
15.30127 7.03357 4.00000
15.38437 7.03356 4.00000
15.46751 7.03356 4.00000
15.55071 7.03355 4.00000
15.63396 7.03354 4.00000
15.71725 7.03353 4.00000
15.80060 7.03353 4.00000
15.88399 7.03352 4.00000
15.96742 7.03352 4.00000
16.05091 7.03351 4.00000
16.13444 7.03351 4.00000
16.21801 7.03351 4.00000
16.30162 7.03352 4.00000
16.38528 7.03351 4.00000
16.46899 7.03351 4.00000
16.55275 7.03351 4.00000
16.63654 7.03350 4.00000
16.72038 7.03350 4.00000
16.80426 7.03350 4.00000
16.88818 7.03350 4.00000
16.97214 7.03350 4.00000
17.05614 7.03350 4.00000
17.14018 7.03349 4.00000
17.22426 7.03349 4.00000
17.30838 7.03349 4.00000
17.39254 7.03349 4.00000
17.47674 7.03349 4.00000
17.56097 7.03349 4.00000
17.64525 7.03349 4.00000
17.72956 7.03349 4.00000
17.81391 7.03349 4.00000
17.89829 7.03349 4.00000
17.98271 7.03349 4.00000
18.06717 7.03349 4.00000
18.15167 7.03348 4.00000
18.23620 7.03348 4.00000
18.32076 7.03348 4.00000
18.40536 7.03348 4.00000
18.49000 7.03348 4.00000
18.57466 7.03348 4.00000
18.65937 7.03348 4.00000
18.74411 7.03348 4.00000

Angle 0.369873 2.367497

4.00000 7.03348 4.00000
4.00000 7.03348 4.00000
4.00000 7.03348 4.00000
4.00000 7.03348 4.00000
4.00000 7.03348 4.00000
4.00000 7.03348 4.00000
4.00000 7.03348 4.00000
4.00000 7.03348 4.00000
4.00000 7.03348 4.00000
4.00000 7.03348 4.00000
4.00000 7.03348 4.00000
4.00000 7.03348 4.00000
4.00000 7.03348 4.00000
4.00000 7.03348 4.00000
4.00000 7.03348 4.00000
4.00000 7.03348 4.00000
4.00000 7.03348 4.00000
4.00000 7.03348 4.00000
4.00000 7.03348 4.00000
4.00000 7.03348 4.00000
4.00000 7.03348 4.00000
4.00000 7.03348 4.00000
4.00000 7.03348 4.00000
4.00000 7.03348 4.00000
4.00000 7.03348 4.00000
4.00000 7.03348 4.00000
4.00000 7.03348 4.00000
4.00000 7.03348 4.00000
4.00000 7.03348 4.00000
4.00000 7.03348 4.00000
4.00000 7.03348 4.00000
4.00000 7.03348 4.00000
4.00000 7.03348 4.00000
4.00000 7.03348 4.00000
4.00000 7.03348 4.00000
4.00000 7.03348 4.00000
4.00000 7.03348 4.00000
4.00000 7.03348 4.00000
4.00000 7.03348 4.00000
4.00000 7.03348 4.00000
4.00000 7.03348 4.00000
4.00000 7.03348 4.00000
4.00000 7.03348 4.00000
4.00000 7.03348 4.00000
4.00000 7.03348 4.00000
4.00000 7.03348 4.00000
4.00000 7.03348 4.00000
4.00000 7.03348 4.00000
4.00000 7.03348 4.00000
4.00000 7.03348 4.00000
4.00000 7.03348 4.00000
4.00000 7.03348 4.00000
4.00000 7.03348 4.00000
4.00000 7.03348 4.00000
4.00000 7.03348 4.00000
4.00000 7.03348 4.00000
4.00000 7.03348 4.00000
4.00000 7.03348 4.00000
4.00000 7.03348 4.00000
4.00000 7.03348 4.00000
4.00000 7.03348 4.00000
4.00000 7.03348 4.00000
4.00000 7.03348 4.00000
4.00000 7.03348 4.00000
4.00000 7.03348 4.00000
4.00000 7.03348 4.00000
4.00000 7.03348 4.00000
4.00000 7.03348 4.00000
4.00000 7.03348 4.00000
4.00000 7.03348 4.00000
4.00000 7.03348 4.00000
4.00000 7.03348 4.00000
4.00000 7.03348 4.00000
4.00000 7.03348 4.00000
4.00000 7.03348 4.00000
4.00000 7.03348 4.00000
4.00000 7.03348 4.00000
4.00000 7.03348 4.00000
4.00000 7.03348 4.00000
4.00000 7.03348 4.00000
4.00000 7.03348 4.00000
4.00000 7.03348 4.00000
4.00000 7.03348 4.00000
4.00000 7.03348 4.00000
4.00000 7.03348 4.00000
4.00000 7.03348 4.00000
4.00000 7.03348 4.00000
4.00000 7.03348 4.00000
4.00000 7.03348 4.00000
4.00000 7.03348 4.00000
4.00000 7.03348 4.00000
4.00000 7.03348 4.00000
4.00000 7.03348 4.00000
4.00000 7.03348 4.00000
4.00000 7.03348 4.00000
4.00000 7.03348 4.00000
4.00000 7.03348 4.00000
4.00000 7.03348 4.00000
4.00000 7.03348 4.00000
4.00000 7.03348 4.00000
4.00000 7.03348 4.00000
4.00000 7.03348 4.00000
4.00000 7.03348 4.00000
4.00000 7.03348 4.00000
4.00000 7.03348 4.00000
4.00000 7.03349 4.00000
4.00000 7.03348 4.00000
4.00000 7.03348 4.00000
4.00000 7.03348 4.00000
4.00000 7.03348 4.00000
4.00000 7.03349 4.00000
4.00000 7.03349 4.00000
4.00000 7.03351 4.00000
4.00000 7.03348 4.00000
4.00000 7.03348 4.00000
4.00000 7.03348 4.00000
4.00000 7.03355 4.00000
4.00217 7.07482 4.00217
4.00563 7.14202 4.00563
4.00906 7.20947 4.00906
4.01246 7.27716 4.01246
4.01583 7.34506 4.01583
4.01920 7.41316 4.01920
4.02256 7.48142 4.02256
4.02594 7.54983 4.02594
4.02933 7.61835 4.02933
4.03276 7.68697 4.03276
4.03624 7.75565 4.03624
4.03978 7.82437 4.03978
4.04340 7.89308 4.04340
4.04711 7.96176 4.04711
4.05094 8.03035 4.05094
4.05491 8.09881 4.05491
4.05904 8.16709 4.05904
4.06336 8.23513 4.06336
4.06792 8.30284 4.06792
4.07275 8.37015 4.07275
4.07790 8.43694 4.07790
4.08345 8.50309 4.08345
4.08945 8.56846 4.08945
4.09600 8.63285 4.09600
4.10320 8.69608 4.10320
4.11101 8.75824 4.11101
4.11943 8.81929 4.11943
4.12851 8.87914 4.12851
4.13829 8.93771 4.13829
4.14881 8.99493 4.14881
4.16010 9.05072 4.16010
4.17218 9.10505 4.17218
4.18509 9.15785 4.18509
4.19883 9.20909 4.19883
4.21341 9.25877 4.21341
4.22883 9.30688 4.22883
4.24508 9.35343 4.24508
4.26215 9.39846 4.26215
4.28002 9.44200 4.28002
4.29866 9.48411 4.29866
4.31804 9.52484 4.31804
4.33812 9.56425 4.33813
4.35889 9.60242 4.35889
4.38030 9.63940 4.38029
4.40232 9.67525 4.40232
4.42493 9.71000 4.42494
4.44814 9.74369 4.44814
4.47193 9.77629 4.47193
4.49634 9.80774 4.49634
4.52147 9.83786 4.52146
4.54748 9.86628 4.54749
4.57479 9.89221 4.57480
4.60428 9.91388 4.60428
4.63808 9.92700 4.63809
4.01374 7.30288 7.96737
4.01215 7.27104 8.08170
4.01081 7.24420 8.19087
4.00966 7.22127 8.29603
4.00866 7.20145 8.39801
4.00778 7.18418 8.49739
4.00701 7.16903 8.59462
4.00633 7.15567 8.69007
4.00573 7.14382 8.78400
4.00519 7.13327 8.87664
4.00470 7.12385 8.96818
4.00427 7.11542 9.05875
4.00388 7.10785 9.14850
4.00353 7.10104 9.23753
4.00321 7.09490 9.32591
4.00292 7.08935 9.41376
4.00266 7.08434 9.50110
4.00243 7.07980 9.58803
4.00221 7.07568 9.67458
4.00202 7.07195 9.76079
4.00184 7.06856 9.84671
4.00168 7.06549 9.93237
4.00153 7.06268 10.01781
4.00140 7.06013 10.10305
4.00128 7.05782 10.18811
4.00117 7.05570 10.27302
4.00107 7.05377 10.35780
4.00097 7.05201 10.44247
4.00089 7.05041 10.52703
4.00081 7.04895 10.61150
4.00074 7.04761 10.69590
4.00068 7.04640 10.78024
4.00062 7.04528 10.86453
4.00056 7.04427 10.94877
4.00052 7.04334 11.03298
4.00047 7.04247 11.11719
4.00043 7.04172 11.20133
4.00040 7.04101 11.28548
4.00036 7.04034 11.36965
4.00033 7.03978 11.45375
4.00030 7.03924 11.53788
4.00027 7.03871 11.62206
4.00025 7.03829 11.70618
4.00023 7.03785 11.79038
4.00021 7.03750 11.87452
4.00019 7.03713 11.95875
4.00017 7.03681 12.04297
4.00016 7.03654 12.12718
4.00015 7.03626 12.21146
4.00013 7.03602 12.29575
4.00012 7.03579 12.38007
4.00011 7.03561 12.46438
4.00010 7.03542 12.54877
4.00009 7.03525 12.63318
4.00008 7.03509 12.71762
4.00008 7.03497 12.80205
4.00007 7.03482 12.88657
4.00006 7.03470 12.97110
4.00006 7.03462 13.05564
4.00005 7.03452 13.14024
4.00005 7.03443 13.22487
4.00005 7.03435 13.30953
4.00004 7.03427 13.39424
4.00004 7.03420 13.47898
4.00003 7.03414 13.56377
4.00003 7.03408 13.64859
4.00003 7.03402 13.73345
4.00003 7.03397 13.81834
4.00002 7.03393 13.90328
4.00002 7.03389 13.98824
4.00002 7.03385 14.07325
4.00002 7.03382 14.15829
4.00002 7.03379 14.24337
4.00001 7.03376 14.32849
4.00001 7.03374 14.41364
4.00001 7.03371 14.49883
4.00001 7.03369 14.58406
4.00001 7.03367 14.66932
4.00001 7.03365 14.75462
4.00001 7.03364 14.83995
4.00001 7.03362 14.92532
4.00001 7.03361 15.01073
4.00001 7.03360 15.09616
4.00001 7.03359 15.18164
4.00000 7.03357 15.26714
4.00000 7.03357 15.35269
4.00000 7.03356 15.43826
4.00000 7.03356 15.52386
4.00000 7.03355 15.60950
4.00000 7.03355 15.69518
4.00000 7.03354 15.78089
4.00000 7.03354 15.86663
4.00000 7.03353 15.95241
4.00000 7.03353 16.03822
4.00000 7.03352 16.12406
4.00000 7.03352 16.20993
4.00000 7.03352 16.29583
4.00000 7.03351 16.38177
4.00000 7.03351 16.46773
4.00000 7.03351 16.55373
4.00000 7.03350 16.63975
4.00000 7.03350 16.72581
4.00000 7.03350 16.81190
4.00000 7.03350 16.89801
4.00000 7.03350 16.98416
4.00000 7.03350 17.07033
4.00000 7.03349 17.15654
4.00000 7.03349 17.24277
4.00000 7.03349 17.32903
4.00000 7.03349 17.41532
4.00000 7.03349 17.50163
4.00000 7.03349 17.58798
4.00000 7.03349 17.67435
4.00000 7.03349 17.76075
4.00000 7.03349 17.84718
4.00000 7.03349 17.93363
4.00000 7.03349 18.02011
4.00000 7.03348 18.10662
4.00000 7.03348 18.19315
4.00000 7.03348 18.27971
4.00000 7.03348 18.36629
4.00000 7.03348 18.45290
4.00000 7.03348 18.53954
4.00000 7.03348 18.62620
4.00000 7.03348 18.71288
4.00000 7.03348 18.79959
4.00000 7.03348 18.88633
4.00000 7.03348 18.97309
4.00000 7.03348 19.05987
4.00000 7.03348 19.14667
4.00000 7.03348 19.23351
4.00000 7.03348 19.32036
4.00000 7.03348 19.40724
4.00000 7.03348 19.49414
4.00000 7.03348 19.58106
4.00000 7.03348 19.66800
4.00000 7.03348 19.75497
4.00000 7.03348 19.84196
4.00000 7.03348 19.92898
4.00000 7.03348 20.01601
4.00000 7.03348 20.10307
4.00000 7.03348 20.19014
4.00000 7.03348 20.27724
4.00000 7.03348 20.36437
4.00000 7.03348 20.45151
4.00000 7.03348 20.53867
4.00000 7.03348 20.62585
4.00000 7.03348 20.71306
4.00000 7.03348 20.80028
4.00000 7.03348 20.88753
4.00000 7.03348 20.97479
4.00000 7.03348 21.06208
4.00000 7.03348 21.14938
4.00000 7.03348 21.23670
4.00000 7.03348 21.32405
4.00000 7.03348 21.41141
4.00000 7.03348 21.49879
4.00000 7.03348 21.58619
4.00000 7.03348 21.67361
4.00000 7.03348 21.76105
4.00000 7.03348 21.84851
4.00000 7.03348 21.93598
4.00000 7.03348 22.02347
4.00000 7.03348 22.11099
4.00000 7.03348 22.19851
4.00000 7.03348 22.28606
4.00000 7.03348 22.37363
4.00000 7.03348 22.46121
4.00000 7.03348 22.54881
4.00000 7.03348 22.63642
4.00000 7.03348 22.72406
4.00000 7.03348 22.81171
4.00000 7.03348 22.89938
4.00000 7.03348 22.98706
4.00000 7.03348 23.07476
4.00000 7.03348 23.16248
4.00000 7.03348 23.25021
4.00000 7.03348 23.33796
4.00000 7.03348 23.42573
4.00000 7.03348 23.51351
4.00000 7.03348 23.60130
4.00000 7.03348 23.68912
4.00000 7.03348 23.77695
4.00000 7.03348 23.86479
4.00000 7.03348 23.95265
4.00000 7.03348 24.04052
4.00000 7.03348 24.12841
4.00000 7.03348 24.21632
4.00000 7.03348 24.30424
4.00000 7.03348 24.39217
4.00000 7.03348 24.48012
4.00000 7.03348 24.56808
4.00000 7.03348 24.65606
4.00000 7.03348 24.74405
4.00000 7.03348 24.83205
4.00000 7.03348 24.92007
4.00000 7.03348 25.00811
4.00000 7.03348 25.09616
4.00000 7.03348 25.18422
4.00000 7.03348 25.27229
4.00000 7.03348 25.36038
4.00000 7.03348 25.44848
4.00000 7.03348 25.53660
4.00000 7.03348 25.62472
4.00000 7.03348 25.71287
4.00000 7.03348 25.80102
4.00000 7.03348 25.88919
4.00000 7.03348 25.97737
4.00000 7.03348 26.06556
4.00000 7.03348 26.15376
4.00000 7.03348 26.24198
4.00000 7.03348 26.33021
4.00000 7.03348 26.41846
4.00000 7.03348 26.50671
4.00000 7.03348 26.59498
4.00000 7.03348 26.68326
4.00000 7.03348 26.77155
4.00000 7.03348 26.85985
4.00000 7.03348 26.94817
4.00000 7.03348 27.03649
4.00000 7.03348 27.12483
4.00000 7.03348 27.21318
4.00000 7.03348 27.30154
4.00000 7.03348 27.38991
4.00000 7.03348 27.47830
4.00000 7.03348 27.56669
4.00000 7.03348 27.65510
4.00000 7.03348 27.74352
4.00000 7.03348 27.83194

Angle 0.264619 2.359926

4.00000 7.03348 4.00000
4.00000 7.03348 4.00000
4.00000 7.03348 4.00000
4.00000 7.03348 4.00000
4.00000 7.03348 4.00000
4.00000 7.03348 4.00000
4.00000 7.03348 4.00000
4.00000 7.03348 4.00000
4.00000 7.03348 4.00000
4.00000 7.03348 4.00000
4.00000 7.03348 4.00000
4.00000 7.03348 4.00000
4.00000 7.03348 4.00000
4.00000 7.03348 4.00000
4.00000 7.03348 4.00000
4.00000 7.03348 4.00000
4.00000 7.03348 4.00000
4.00000 7.03348 4.00000
4.00000 7.03348 4.00000
4.00000 7.03348 4.00000
4.00000 7.03348 4.00000
4.00000 7.03348 4.00000
4.00000 7.03348 4.00000
4.00000 7.03348 4.00000
4.00000 7.03348 4.00000
4.00000 7.03348 4.00000
4.00000 7.03348 4.00000
4.00000 7.03348 4.00000
4.00000 7.03348 4.00000
4.00000 7.03348 4.00000
4.00000 7.03348 4.00000
4.00000 7.03348 4.00000
4.00000 7.03348 4.00000
4.00000 7.03348 4.00000
4.00000 7.03348 4.00000
4.00000 7.03348 4.00000
4.00000 7.03348 4.00000
4.00000 7.03348 4.00000
4.00000 7.03348 4.00000
4.00000 7.03348 4.00000
4.00000 7.03348 4.00000
4.00000 7.03348 4.00000
4.00000 7.03348 4.00000
4.00000 7.03348 4.00000
4.00000 7.03348 4.00000
4.00000 7.03348 4.00000
4.00000 7.03348 4.00000
4.00000 7.03348 4.00000
4.00000 7.03348 4.00000
4.00000 7.03348 4.00000
4.00000 7.03348 4.00000
4.00000 7.03348 4.00000
4.00000 7.03348 4.00000
4.00000 7.03348 4.00000
4.00000 7.03348 4.00000
4.00000 7.03348 4.00000
4.00000 7.03348 4.00000
4.00000 7.03348 4.00000
4.00000 7.03348 4.00000
4.00000 7.03348 4.00000
4.00000 7.03348 4.00000
4.00000 7.03348 4.00000
4.00000 7.03348 4.00000
4.00000 7.03348 4.00000
4.00000 7.03348 4.00000
4.00000 7.03348 4.00000
4.00000 7.03348 4.00000
4.00000 7.03348 4.00000
4.00000 7.03348 4.00000
4.00000 7.03348 4.00000
4.00000 7.03348 4.00000
4.00000 7.03348 4.00000
4.00000 7.03348 4.00000
4.00000 7.03348 4.00000
4.00000 7.03348 4.00000
4.00000 7.03348 4.00000
4.00000 7.03348 4.00000
4.00000 7.03348 4.00000
4.00000 7.03348 4.00000
4.00000 7.03348 4.00000
4.00000 7.03348 4.00000
4.00000 7.03348 4.00000
4.00000 7.03348 4.00000
4.00000 7.03348 4.00000
4.00000 7.03348 4.00000
4.00000 7.03348 4.00000
4.00000 7.03348 4.00000
4.00000 7.03348 4.00000
4.00000 7.03348 4.00000
4.00000 7.03348 4.00000
4.00000 7.03348 4.00000
4.00000 7.03348 4.00000
4.00000 7.03348 4.00000
4.00000 7.03348 4.00000
4.00000 7.03348 4.00000
4.00000 7.03348 4.00000
4.00000 7.03348 4.00000
4.00000 7.03348 4.00000
4.00000 7.03348 4.00000
4.00000 7.03348 4.00000
4.00000 7.03348 4.00000
4.00000 7.03348 4.00000
4.00000 7.03348 4.00000
4.00000 7.03348 4.00000
4.00000 7.03348 4.00000
4.00000 7.03348 4.00000
4.00000 7.03348 4.00000
4.00000 7.03348 4.00000
4.00000 7.03348 4.00000
4.00000 7.03348 4.00000
4.00000 7.03348 4.00000
4.00000 7.03348 4.00000
4.00000 7.03348 4.00000
4.00000 7.03348 4.00000
4.00000 7.03348 4.00000
4.00000 7.03348 4.00000
4.00000 7.03348 4.00000
4.00000 7.03348 4.00000
4.00000 7.03348 4.00000
4.00000 7.03348 4.00000
4.00000 7.03348 4.00000
4.00000 7.03348 4.00000
4.00000 7.03348 4.00000
4.00000 7.03348 4.00000
4.00000 7.03348 4.00000
4.00000 7.03348 4.00000
4.00000 7.03348 4.00000
4.00000 7.03348 4.00000
4.00000 7.03348 4.00000
4.00000 7.03348 4.00000
4.00000 7.03348 4.00000
4.00000 7.03348 4.00000
4.00000 7.03348 4.00000
4.00000 7.03348 4.00000
4.00000 7.03348 4.00000
4.00000 7.03348 4.00000
4.00000 7.03348 4.00000
4.00161 7.06420 4.00161
4.00377 7.10566 4.00377
4.00592 7.14753 4.00592
4.00807 7.18980 4.00807
4.01022 7.23246 4.01022
4.01238 7.27551 4.01238
4.01454 7.31893 4.01454
4.01671 7.36273 4.01671
4.01889 7.40688 4.01889
4.02108 7.45138 4.02108
4.02329 7.49623 4.02329
4.02552 7.54140 4.02552
4.02777 7.58690 4.02777
4.03005 7.63271 4.03005
4.03235 7.67883 4.03235
4.03469 7.72523 4.03469
4.03707 7.77190 4.03707
4.03949 7.81884 4.03949
4.04197 7.86603 4.04197
4.04449 7.91346 4.04449
4.04708 7.96110 4.04708
4.04973 8.00893 4.04973
4.05246 8.05695 4.05246
4.05528 8.10512 4.05528
4.05819 8.15343 4.05819
4.06122 8.20184 4.06122
4.06436 8.25033 4.06436
4.06764 8.29887 4.06764
4.07108 8.34740 4.07108
4.07469 8.39590 4.07469
4.07850 8.44431 4.07850
4.08253 8.49257 4.08253
4.08682 8.54062 4.08682
4.09140 8.58839 4.09140
4.09632 8.63577 4.09632
4.10162 8.68269 4.10162
4.10727 8.72919 4.10727
4.11328 8.77527 4.11328
4.11966 8.82088 4.11966
4.12644 8.86597 4.12644
4.13363 8.91051 4.13363
4.14126 8.95445 4.14126
4.14935 8.99774 4.14935
4.15792 9.04036 4.15792
4.16697 9.08226 4.16697
4.17654 9.12341 4.17654
4.18662 9.16378 4.18662
4.19723 9.20335 4.19723
4.20837 9.24211 4.20837
4.22006 9.28003 4.22006
4.23229 9.31712 4.23229
4.24506 9.35337 4.24506
4.25837 9.38879 4.25837
4.27221 9.42339 4.27222
4.28658 9.45718 4.28658
4.30146 9.49018 4.30146
4.31684 9.52241 4.31684
4.33272 9.55389 4.33272
4.34906 9.58466 4.34906
4.36587 9.61473 4.36587
4.38313 9.64413 4.38313
4.40082 9.67287 4.40082
4.41894 9.70098 4.41894
4.43749 9.72846 4.43749
4.45646 9.75531 4.45646
4.47586 9.78150 4.47586
4.49573 9.80697 4.49573
4.51611 9.83164 4.51611
4.53709 9.85530 4.53709
4.55885 9.87763 4.55885
4.58170 9.89797 4.58170
4.60628 9.91504 4.60628
4.63392 9.92619 4.63393
4.01425 7.31322 7.93320
4.01285 7.28505 8.02960
4.01164 7.26070 8.12219
4.01057 7.23944 8.21172
4.00963 7.22070 8.29881
4.00879 7.20406 8.38386
4.00804 7.18922 8.46723
4.00736 7.17591 8.54917
4.00675 7.16393 8.62990
4.00620 7.15310 8.70959
4.00570 7.14329 8.78839
4.00524 7.13438 8.86642
4.00483 7.12627 8.94379
4.00445 7.11887 9.02058
4.00410 7.11211 9.09687
4.00378 7.10593 9.17273
4.00349 7.10026 9.24820
4.00322 7.09507 9.32335
4.00297 7.09029 9.39822
4.00274 7.08591 9.47284
4.00253 7.08188 9.54724
4.00234 7.07817 9.62148
4.00216 7.07475 9.69556
4.00200 7.07160 9.76951
4.00185 7.06869 9.84336
4.00171 7.06601 9.91712
4.00158 7.06354 9.99082
4.00146 7.06126 10.06446
4.00135 7.05915 10.13807
4.00125 7.05721 10.21165
4.00115 7.05541 10.28522
4.00107 7.05375 10.35880
4.00099 7.05221 10.43238
4.00091 7.05080 10.50597
4.00084 7.04948 10.57960
4.00078 7.04827 10.65326
4.00072 7.04715 10.72695
4.00067 7.04612 10.80070
4.00061 7.04516 10.87449
4.00057 7.04427 10.94834
4.00053 7.04345 11.02225
4.00049 7.04269 11.09623
4.00045 7.04199 11.17027
4.00041 7.04135 11.24439
4.00038 7.04075 11.31858
4.00035 7.04019 11.39284
4.00033 7.03968 11.46719
4.00030 7.03921 11.54161
4.00028 7.03877 11.61612
4.00026 7.03836 11.69072
4.00024 7.03799 11.76540
4.00022 7.03764 11.84017
4.00020 7.03732 11.91503
4.00019 7.03703 11.98997
4.00017 7.03676 12.06501
4.00016 7.03650 12.14014
4.00015 7.03627 12.21536
4.00014 7.03605 12.29067
4.00013 7.03586 12.36607
4.00012 7.03567 12.44157
4.00011 7.03550 12.51716
4.00010 7.03535 12.59284
4.00009 7.03520 12.66861
4.00008 7.03508 12.74449
4.00008 7.03494 12.82044
4.00007 7.03484 12.89651
4.00007 7.03472 12.97263
4.00006 7.03463 13.04889
4.00006 7.03454 13.12520
4.00005 7.03446 13.20164
4.00005 7.03439 13.27820
4.00004 7.03431 13.35473
4.00004 7.03424 13.43144
4.00004 7.03419 13.50828
4.00003 7.03414 13.58524
4.00003 7.03407 13.66203
4.00003 7.03403 13.73910
4.00003 7.03399 13.81629
4.00002 7.03395 13.89360
4.00002 7.03392 13.97102
4.00002 7.03388 14.04856
4.00002 7.03385 14.12620
4.00002 7.03382 14.20318
4.00002 7.03379 14.28085
4.00001 7.03376 14.35864
4.00001 7.03374 14.43654
4.00001 7.03372 14.51454
4.00001 7.03370 14.59265
4.00001 7.03369 14.67086
4.00001 7.03367 14.74917
4.00001 7.03366 14.82757
4.00001 7.03364 14.90606
4.00001 7.03363 14.98334
4.00001 7.03361 15.06182
4.00001 7.03360 15.14041
4.00001 7.03359 15.21910
4.00001 7.03358 15.29788
4.00001 7.03358 15.37676
4.00000 7.03357 15.45574
4.00000 7.03356 15.53480
4.00000 7.03356 15.61394
4.00000 7.03354 15.69319
4.00000 7.03353 15.77250
4.00000 7.03353 15.85189
4.00000 7.03352 15.93136
4.00000 7.03352 16.01090
4.00000 7.03351 16.09051
4.00000 7.03351 16.17020
4.00000 7.03351 16.24996
4.00000 7.03350 16.32979
4.00000 7.03350 16.40968
4.00000 7.03350 16.48964
4.00000 7.03350 16.56967
4.00000 7.03349 16.64976
4.00000 7.03349 16.72991
4.00000 7.03350 16.81013
4.00000 7.03350 16.89041
4.00000 7.03350 16.97076
4.00000 7.03350 17.05116
4.00000 7.03349 17.13163
4.00000 7.03349 17.21215
4.00000 7.03349 17.29274
4.00000 7.03349 17.37338
4.00000 7.03349 17.45408
4.00000 7.03349 17.53483
4.00000 7.03349 17.61565
4.00000 7.03349 17.69651
4.00000 7.03349 17.77744
4.00000 7.03349 17.85841
4.00000 7.03349 17.93944
4.00000 7.03349 18.02053
4.00000 7.03348 18.10167
4.00000 7.03348 18.18286
4.00000 7.03348 18.26410
4.00000 7.03348 18.34539
4.00000 7.03348 18.42674
4.00000 7.03348 18.50814
4.00000 7.03348 18.58958
4.00000 7.03348 18.67108
4.00000 7.03348 18.75263
4.00000 7.03348 18.83423
4.00000 7.03348 18.91587
4.00000 7.03348 18.99757
4.00000 7.03348 19.07932
4.00000 7.03348 19.16111
4.00000 7.03348 19.24295
4.00000 7.03348 19.32484
4.00000 7.03348 19.40677
4.00000 7.03348 19.48876
4.00000 7.03348 19.57078
4.00000 7.03348 19.65286
4.00000 7.03348 19.73498
4.00000 7.03348 19.81715
4.00000 7.03348 19.89936
4.00000 7.03348 19.98162
4.00000 7.03348 20.06392
4.00000 7.03348 20.14626
4.00000 7.03348 20.22865
4.00000 7.03348 20.31109
4.00000 7.03348 20.39357
4.00000 7.03348 20.47609
4.00000 7.03348 20.55865
4.00000 7.03348 20.64126
4.00000 7.03348 20.72391
4.00000 7.03348 20.80660
4.00000 7.03348 20.88933
4.00000 7.03348 20.97211
4.00000 7.03348 21.05492
4.00000 7.03348 21.13778
4.00000 7.03348 21.22067
4.00000 7.03348 21.30361
4.00000 7.03348 21.38659
4.00000 7.03348 21.46961
4.00000 7.03348 21.55266
4.00000 7.03348 21.63576
4.00000 7.03348 21.71890
4.00000 7.03348 21.80207
4.00000 7.03348 21.88528
4.00000 7.03348 21.96854
4.00000 7.03348 22.05183
4.00000 7.03348 22.13515
4.00000 7.03348 22.21852
4.00000 7.03348 22.30192
4.00000 7.03348 22.38536
4.00000 7.03348 22.46883
4.00000 7.03348 22.55235
4.00000 7.03348 22.63589
4.00000 7.03348 22.71948
4.00000 7.03348 22.80310
4.00000 7.03348 22.88676

Angle 0.220764 3.546048

4.00000 7.03348 4.00000
4.00000 7.03348 4.00000
4.00000 7.03348 4.00000
4.00000 7.03348 4.00000
4.00000 7.03348 4.00000
4.00000 7.03348 4.00000
4.00000 7.03348 4.00000
4.00000 7.03348 4.00000
4.00000 7.03348 4.00000
4.00000 7.03348 4.00000
4.00000 7.03348 4.00000
4.00000 7.03348 4.00000
4.00000 7.03348 4.00000
4.00000 7.03348 4.00000
4.00000 7.03348 4.00000
4.00000 7.03348 4.00000
4.00000 7.03348 4.00000
4.00000 7.03348 4.00000
4.00000 7.03348 4.00000
4.00000 7.03348 4.00000
4.00000 7.03348 4.00000
4.00000 7.03348 4.00000
4.00000 7.03347 4.00000
4.00000 7.03348 4.00000
4.00000 7.03348 4.00000
4.00000 7.03348 4.00000
4.00000 7.03348 4.00000
4.00000 7.03348 4.00000
4.00000 7.03348 4.00000
4.00000 7.03348 4.00000
4.00000 7.03348 4.00000
4.00000 7.03348 4.00000
4.00000 7.03348 4.00000
4.00000 7.03348 4.00000
4.00000 7.03348 4.00000
4.00000 7.03348 4.00000
4.00000 7.03348 4.00000
4.00000 7.03348 4.00000
4.00000 7.03348 4.00000
4.00000 7.03348 4.00000
4.00000 7.03348 4.00000
4.00000 7.03348 4.00000
4.00000 7.03348 4.00000
4.00000 7.03348 4.00000
4.00000 7.03348 4.00000
4.00000 7.03348 4.00000
4.00000 7.03348 4.00000
4.00000 7.03348 4.00000
4.00000 7.03348 4.00000
4.00000 7.03348 4.00000
4.00000 7.03348 4.00000
4.00000 7.03348 4.00000
4.00000 7.03348 4.00000
4.00000 7.03348 4.00000
4.00000 7.03348 4.00000
4.00000 7.03348 4.00000
4.00000 7.03348 4.00000
4.00000 7.03348 4.00000
4.00000 7.03348 4.00000
4.00000 7.03348 4.00000
4.00000 7.03348 4.00000
4.00000 7.03348 4.00000
4.00000 7.03348 4.00000
4.00000 7.03348 4.00000
4.00000 7.03348 4.00000
4.00000 7.03348 4.00000
4.00000 7.03348 4.00000
4.00000 7.03348 4.00000
4.00000 7.03348 4.00000
4.00000 7.03348 4.00000
4.00000 7.03348 4.00000
4.00000 7.03348 4.00000
4.00000 7.03348 4.00000
4.00000 7.03348 4.00000
4.00000 7.03348 4.00000
4.00000 7.03348 4.00000
4.00000 7.03348 4.00000
4.00000 7.03348 4.00000
4.00000 7.03348 4.00000
4.00000 7.03348 4.00000
4.00000 7.03348 4.00000
4.00000 7.03348 4.00000
4.00000 7.03348 4.00000
4.00000 7.03348 4.00000
4.00000 7.03348 4.00000
4.00000 7.03348 4.00000
4.00000 7.03348 4.00000
4.00000 7.03348 4.00000
4.00000 7.03348 4.00000
4.00000 7.03348 4.00000
4.00000 7.03348 4.00000
4.00000 7.03348 4.00000
4.00000 7.03348 4.00000
4.00000 7.03348 4.00000
4.00000 7.03348 4.00000
4.00000 7.03348 4.00000
4.00000 7.03348 4.00000
4.00000 7.03348 4.00000
4.00000 7.03348 4.00000
4.00000 7.03348 4.00000
4.00000 7.03348 4.00000
4.00000 7.03348 4.00000
4.00000 7.03348 4.00000
4.00000 7.03348 4.00000
4.00000 7.03348 4.00000
4.00000 7.03348 4.00000
4.00000 7.03348 4.00000
4.00000 7.03348 4.00000
4.00000 7.03348 4.00000
4.00000 7.03348 4.00000
4.00000 7.03348 4.00000
4.00000 7.03348 4.00000
4.00000 7.03348 4.00000
4.00000 7.03348 4.00000
4.00000 7.03348 4.00000
4.00000 7.03348 4.00000
4.00000 7.03348 4.00000
4.00000 7.03348 4.00000
4.00000 7.03348 4.00000
4.00000 7.03348 4.00000
4.00000 7.03348 4.00000
4.00000 7.03348 4.00000
4.00000 7.03348 4.00000
4.00000 7.03348 4.00000
4.00000 7.03348 4.00000
4.00000 7.03348 4.00000
4.00000 7.03348 4.00000
4.00000 7.03348 4.00000
4.00000 7.03348 4.00000
4.00000 7.03348 4.00000
4.00000 7.03348 4.00000
4.00000 7.03348 4.00000
4.00000 7.03348 4.00000
4.00000 7.03348 4.00000
4.00000 7.03348 4.00000
4.00000 7.03348 4.00000
4.00000 7.03348 4.00000
4.00000 7.03348 4.00000
4.00000 7.03348 4.00000
4.00000 7.03348 4.00000
4.00000 7.03348 4.00000
4.00000 7.03348 4.00000
4.00000 7.03348 4.00000
4.00000 7.03348 4.00000
4.00000 7.03348 4.00000
4.00000 7.03348 4.00000
4.00000 7.03348 4.00000
4.00000 7.03348 4.00000
4.00000 7.03348 4.00000
4.00000 7.03348 4.00000
4.00000 7.03348 4.00000
4.00000 7.03348 4.00000
4.00000 7.03348 4.00000
4.00000 7.03348 4.00000
4.00000 7.03348 4.00000
4.00000 7.03348 4.00000
4.00000 7.03348 4.00000
4.00000 7.03348 4.00000
4.00000 7.03348 4.00000
4.00000 7.03348 4.00000
4.00000 7.03348 4.00000
4.00000 7.03348 4.00000
4.00000 7.03348 4.00000
4.00000 7.03348 4.00000
4.00000 7.03348 4.00000
4.00000 7.03348 4.00000
4.00000 7.03348 4.00000
4.00000 7.03348 4.00000
4.00000 7.03348 4.00000
4.00000 7.03348 4.00000
4.00000 7.03348 4.00000
4.00000 7.03348 4.00000
4.00000 7.03348 4.00000
4.00000 7.03348 4.00000
4.00000 7.03348 4.00000
4.00000 7.03348 4.00000
4.00000 7.03348 4.00000
4.00000 7.03348 4.00000
4.00000 7.03348 4.00000
4.00000 7.03348 4.00000
4.00000 7.03348 4.00000
4.00000 7.03348 4.00000
4.00000 7.03348 4.00000
4.00000 7.03348 4.00000
4.00000 7.03348 4.00000
4.00000 7.03348 4.00000
4.00000 7.03348 4.00000
4.00000 7.03348 4.00000
4.00000 7.03348 4.00000
4.00000 7.03348 4.00000
4.00000 7.03348 4.00000
4.00000 7.03349 4.00000
4.00000 7.03348 4.00000
4.00000 7.03351 4.00000
4.00000 7.03348 4.00000
4.00000 7.03348 4.00000
4.00000 7.03348 4.00000
4.00000 7.03349 4.00000
4.00000 7.03348 4.00000
4.00373 7.10500 4.00373
4.00771 7.18275 4.00771
4.01163 7.26067 4.01163
4.01552 7.33872 4.01552
4.01938 7.41687 4.01938
4.02324 7.49510 4.02324
4.02710 7.57335 4.02710
4.03099 7.65160 4.03099
4.03493 7.72981 4.03493
4.03893 7.80794 4.03893
4.04302 7.88594 4.04302
4.04722 7.96377 4.04722
4.05157 8.04136 4.05157
4.05609 8.11865 4.05609
4.06082 8.19555 4.06082
4.06581 8.27199 4.06581
4.07111 8.34785 4.07111
4.07679 8.42299 4.07679
4.08294 8.49725 4.08294
4.08964 8.57043 4.08964
4.09703 8.64229 4.09703
4.10521 8.71260 4.10521
4.11412 8.78149 4.11412
4.12381 8.84887 4.12381
4.13432 8.91463 4.13432
4.14572 8.97867 4.14572
4.15803 9.04091 4.15803
4.17131 9.10127 4.17131
4.18557 9.15970 4.18556
4.20082 9.21616 4.20082
4.21709 9.27065 4.21709
4.23436 9.32316 4.23436
4.25261 9.37374 4.25261
4.27182 9.42244 4.27182
4.29196 9.46932 4.29196
4.31298 9.51447 4.31298
4.33484 9.55798 4.33484
4.35749 9.59993 4.35749
4.38089 9.64040 4.38089
4.40501 9.67949 4.40501
4.42981 9.71724 4.42981
4.45528 9.75368 4.45528
4.48143 9.78878 4.48143
4.50834 9.82241 4.50833
4.53614 9.85427 4.53614
4.56520 9.88364 4.56520
4.59636 9.90885 4.59636
4.63173 9.92567 4.63173
7.95678 7.30603 4.01390
8.08091 7.27124 4.01216
8.19888 7.24236 4.01072
8.31215 7.21798 4.00949
8.42171 7.19716 4.00844
8.52831 7.17919 4.00753
8.63246 7.16356 4.00674
8.73460 7.14990 4.00604
8.83502 7.13788 4.00542
8.93400 7.12726 4.00488
9.03174 7.11785 4.00439
9.12842 7.10946 4.00396
9.22413 7.10202 4.00358
9.31908 7.09533 4.00323
9.41327 7.08938 4.00292
9.50686 7.08403 4.00265
9.59992 7.07919 4.00239
9.69246 7.07489 4.00217
9.78460 7.07097 4.00197
9.87634 7.06746 4.00178
9.96774 7.06429 4.00162
10.05885 7.06142 4.00147
10.14968 7.05884 4.00133
10.24028 7.05648 4.00121
10.33065 7.05437 4.00110
10.42085 7.05244 4.00100
10.51086 7.05071 4.00091
10.60076 7.04911 4.00083
10.69047 7.04770 4.00075
10.78010 7.04639 4.00068
10.86960 7.04522 4.00062
10.95902 7.04414 4.00056
11.04834 7.04317 4.00051
11.13760 7.04228 4.00046
11.22676 7.04150 4.00042
11.31590 7.04075 4.00038
11.40497 7.04010 4.00035
11.49398 7.03950 4.00032
11.58298 7.03895 4.00029
11.67193 7.03845 4.00026
11.76086 7.03801 4.00024
11.84972 7.03760 4.00022
11.93861 7.03721 4.00020
12.02746 7.03687 4.00018
12.11630 7.03657 4.00016
12.20513 7.03629 4.00015
12.29394 7.03604 4.00013
12.38276 7.03581 4.00012
12.47156 7.03560 4.00011
12.56029 7.03541 4.00010
12.64909 7.03522 4.00009
12.73788 7.03506 4.00008
12.82668 7.03492 4.00007
12.91547 7.03479 4.00007
13.00427 7.03467 4.00006
13.09307 7.03456 4.00006
13.18188 7.03446 4.00005
13.27069 7.03437 4.00005
13.35951 7.03429 4.00004
13.44834 7.03421 4.00004
13.53718 7.03415 4.00003
13.62602 7.03408 4.00003
13.71488 7.03403 4.00003
13.80374 7.03398 4.00003
13.89261 7.03393 4.00002
13.98149 7.03389 4.00002
14.07038 7.03385 4.00002
14.15928 7.03381 4.00002
14.24819 7.03378 4.00002
14.33711 7.03375 4.00001
14.42604 7.03373 4.00001
14.51498 7.03370 4.00001
14.60393 7.03368 4.00001
14.69289 7.03366 4.00001
14.78187 7.03364 4.00001
14.87085 7.03363 4.00001
14.95984 7.03361 4.00001
15.04885 7.03360 4.00001
15.13786 7.03359 4.00001
15.22623 7.03359 4.00001
15.31523 7.03358 4.00001
15.40424 7.03357 4.00000
15.49327 7.03356 4.00000
15.58230 7.03356 4.00000
15.67135 7.03355 4.00000
15.76041 7.03354 4.00000
15.84948 7.03354 4.00000
15.93856 7.03353 4.00000
16.02766 7.03353 4.00000
16.11676 7.03352 4.00000
16.20588 7.03352 4.00000
16.29500 7.03352 4.00000
16.38414 7.03351 4.00000
16.47328 7.03351 4.00000
16.56244 7.03351 4.00000
16.65161 7.03350 4.00000
16.74079 7.03350 4.00000
16.82998 7.03350 4.00000
16.91917 7.03350 4.00000
17.00838 7.03350 4.00000
17.09760 7.03349 4.00000
17.18683 7.03349 4.00000
17.27607 7.03349 4.00000
17.36531 7.03349 4.00000
17.45457 7.03349 4.00000
17.54383 7.03349 4.00000
17.63311 7.03349 4.00000
17.72239 7.03349 4.00000
17.81168 7.03349 4.00000
17.90099 7.03349 4.00000
17.99030 7.03349 4.00000
18.07961 7.03348 4.00000
18.16894 7.03348 4.00000
18.25828 7.03348 4.00000
18.34762 7.03348 4.00000
18.43697 7.03348 4.00000
18.52634 7.03348 4.00000
18.61570 7.03348 4.00000
18.70508 7.03348 4.00000
18.79447 7.03348 4.00000
18.88386 7.03348 4.00000
18.97326 7.03348 4.00000
19.06267 7.03348 4.00000
19.15208 7.03348 4.00000
19.24151 7.03348 4.00000
19.33094 7.03348 4.00000
19.42038 7.03348 4.00000
19.50982 7.03348 4.00000
19.59928 7.03348 4.00000
19.68874 7.03348 4.00000
19.77820 7.03348 4.00000
19.86768 7.03348 4.00000
19.95716 7.03348 4.00000
20.04665 7.03348 4.00000
20.13614 7.03348 4.00000
20.22565 7.03348 4.00000
20.31515 7.03348 4.00000
20.40467 7.03348 4.00000
20.49419 7.03348 4.00000
20.58372 7.03348 4.00000
20.67326 7.03348 4.00000
20.76280 7.03348 4.00000
20.85235 7.03348 4.00000
20.94190 7.03348 4.00000
21.03146 7.03348 4.00000
21.12103 7.03348 4.00000
21.21060 7.03348 4.00000
21.30018 7.03348 4.00000
21.38976 7.03348 4.00000
21.47935 7.03348 4.00000
21.56895 7.03348 4.00000
21.65855 7.03348 4.00000
21.74816 7.03348 4.00000

Angle 0.544511 2.465849

4.00000 7.03348 4.00000
4.00000 7.03348 4.00000
4.00000 7.03348 4.00000
4.00000 7.03348 4.00000
4.00000 7.03348 4.00000
4.00000 7.03348 4.00000
4.00000 7.03348 4.00000
4.00000 7.03348 4.00000
4.00000 7.03348 4.00000
4.00000 7.03348 4.00000
4.00000 7.03348 4.00000
4.00000 7.03348 4.00000
4.00000 7.03348 4.00000
4.00000 7.03348 4.00000
4.00000 7.03348 4.00000
4.00000 7.03348 4.00000
4.00000 7.03348 4.00000
4.00000 7.03348 4.00000
4.00000 7.03348 4.00000
4.00000 7.03348 4.00000
4.00000 7.03348 4.00000
4.00000 7.03348 4.00000
4.00000 7.03348 4.00000
4.00000 7.03348 4.00000
4.00000 7.03348 4.00000
4.00000 7.03348 4.00000
4.00000 7.03348 4.00000
4.00000 7.03348 4.00000
4.00000 7.03348 4.00000
4.00000 7.03348 4.00000
4.00000 7.03348 4.00000
4.00000 7.03348 4.00000
4.00000 7.03348 4.00000
4.00000 7.03348 4.00000
4.00000 7.03348 4.00000
4.00000 7.03348 4.00000
4.00000 7.03348 4.00000
4.00000 7.03348 4.00000
4.00000 7.03348 4.00000
4.00000 7.03348 4.00000
4.00000 7.03348 4.00000
4.00000 7.03348 4.00000
4.00000 7.03348 4.00000
4.00000 7.03348 4.00000
4.00000 7.03348 4.00000
4.00000 7.03348 4.00000
4.00000 7.03348 4.00000
4.00000 7.03348 4.00000
4.00000 7.03348 4.00000
4.00000 7.03348 4.00000
4.00000 7.03348 4.00000
4.00000 7.03348 4.00000
4.00000 7.03348 4.00000
4.00000 7.03348 4.00000
4.00000 7.03348 4.00000
4.00000 7.03348 4.00000
4.00000 7.03348 4.00000
4.00000 7.03348 4.00000
4.00000 7.03348 4.00000
4.00000 7.03348 4.00000
4.00000 7.03348 4.00000
4.00000 7.03348 4.00000
4.00000 7.03348 4.00000
4.00000 7.03348 4.00000
4.00000 7.03348 4.00000
4.00000 7.03348 4.00000
4.00000 7.03348 4.00000
4.00000 7.03348 4.00000
4.00000 7.03348 4.00000
4.00000 7.03348 4.00000
4.00000 7.03348 4.00000
4.00000 7.03348 4.00000
4.00000 7.03348 4.00000
4.00000 7.03348 4.00000
4.00000 7.03348 4.00000
4.00000 7.03348 4.00000
4.00000 7.03348 4.00000
4.00000 7.03348 4.00000
4.00000 7.03348 4.00000
4.00000 7.03348 4.00000
4.00000 7.03348 4.00000
4.00000 7.03348 4.00000
4.00000 7.03348 4.00000
4.00000 7.03348 4.00000
4.00000 7.03348 4.00000
4.00000 7.03348 4.00000
4.00000 7.03348 4.00000
4.00000 7.03348 4.00000
4.00000 7.03348 4.00000
4.00000 7.03348 4.00000
4.00000 7.03348 4.00000
4.00000 7.03348 4.00000
4.00000 7.03348 4.00000
4.00000 7.03348 4.00000
4.00000 7.03348 4.00000
4.00000 7.03348 4.00000
4.00000 7.03348 4.00000
4.00000 7.03348 4.00000
4.00000 7.03348 4.00000
4.00000 7.03348 4.00000
4.00000 7.03348 4.00000
4.00000 7.03348 4.00000
4.00000 7.03348 4.00000
4.00000 7.03348 4.00000
4.00000 7.03348 4.00000
4.00000 7.03348 4.00000
4.00000 7.03348 4.00000
4.00000 7.03348 4.00000
4.00000 7.03348 4.00000
4.00000 7.03348 4.00000
4.00000 7.03348 4.00000
4.00000 7.03348 4.00000
4.00000 7.03348 4.00000
4.00000 7.03348 4.00000
4.00000 7.03348 4.00000
4.00000 7.03348 4.00000
4.00000 7.03348 4.00000
4.00000 7.03348 4.00000
4.00000 7.03348 4.00000
4.00000 7.03348 4.00000
4.00000 7.03348 4.00000
4.00000 7.03348 4.00000
4.00000 7.03348 4.00000
4.00000 7.03348 4.00000
4.00000 7.03348 4.00000
4.00000 7.03348 4.00000
4.00000 7.03348 4.00000
4.00000 7.03348 4.00000
4.00000 7.03348 4.00000
4.00000 7.03348 4.00000
4.00000 7.03348 4.00000
4.00000 7.03348 4.00000
4.00000 7.03348 4.00000
4.00000 7.03348 4.00000
4.00000 7.03348 4.00000
4.00000 7.03348 4.00000
4.00000 7.03348 4.00000
4.00000 7.03348 4.00000
4.00000 7.03348 4.00000
4.00000 7.03348 4.00000
4.00000 7.03348 4.00000
4.00000 7.03348 4.00000
4.00000 7.03348 4.00000
4.00000 7.03348 4.00000
4.00000 7.03348 4.00000
4.00000 7.03348 4.00000
4.00000 7.03348 4.00000
4.00000 7.03348 4.00000
4.00000 7.03348 4.00000
4.00000 7.03348 4.00000
4.00000 7.03348 4.00000
4.00000 7.03348 4.00000
4.00000 7.03348 4.00000
4.00000 7.03348 4.00000
4.00000 7.03348 4.00000
4.00000 7.03348 4.00000
4.00000 7.03348 4.00000
4.00000 7.03348 4.00000
4.00000 7.03348 4.00000
4.00000 7.03348 4.00000
4.00000 7.03348 4.00000
4.00000 7.03348 4.00000
4.00000 7.03348 4.00000
4.00000 7.03348 4.00000
4.00000 7.03348 4.00000
4.00000 7.03348 4.00000
4.00000 7.03348 4.00000
4.00000 7.03348 4.00000
4.00000 7.03348 4.00000
4.00000 7.03348 4.00000
4.00000 7.03348 4.00000
4.00000 7.03348 4.00000
4.00000 7.03348 4.00000
4.00000 7.03348 4.00000
4.00000 7.03348 4.00000
4.00000 7.03348 4.00000
4.00000 7.03348 4.00000
4.00000 7.03348 4.00000
4.00000 7.03348 4.00000
4.00000 7.03348 4.00000
4.00000 7.03348 4.00000
4.00000 7.03348 4.00000
4.00000 7.03348 4.00000
4.00000 7.03348 4.00000
4.00000 7.03348 4.00000
4.00000 7.03348 4.00000
4.00000 7.03348 4.00000
4.00000 7.03348 4.00000
4.00000 7.03348 4.00000
4.00000 7.03348 4.00000
4.00000 7.03348 4.00000
4.00000 7.03348 4.00000
4.00000 7.03348 4.00000
4.00000 7.03348 4.00000
4.00000 7.03348 4.00000
4.00000 7.03348 4.00000
4.00000 7.03348 4.00000
4.00000 7.03348 4.00000
4.00000 7.03348 4.00000
4.00000 7.03348 4.00000
4.00000 7.03348 4.00000
4.00000 7.03348 4.00000
4.00000 7.03348 4.00000
4.00000 7.03348 4.00000
4.00000 7.03348 4.00000
4.00000 7.03348 4.00000
4.00000 7.03348 4.00000
4.00000 7.03348 4.00000
4.00000 7.03348 4.00000
4.00000 7.03348 4.00000
4.00000 7.03348 4.00000
4.00000 7.03348 4.00000
4.00000 7.03348 4.00000
4.00000 7.03348 4.00000
4.00000 7.03348 4.00000
4.00000 7.03348 4.00000
4.00000 7.03348 4.00000
4.00000 7.03348 4.00000
4.00000 7.03348 4.00000
4.00000 7.03348 4.00000
4.00000 7.03348 4.00000
4.00000 7.03348 4.00000
4.00000 7.03348 4.00000
4.00000 7.03348 4.00000
4.00000 7.03348 4.00000
4.00000 7.03348 4.00000
4.00000 7.03348 4.00000
4.00000 7.03348 4.00000
4.00000 7.03348 4.00000
4.00000 7.03348 4.00000
4.00000 7.03348 4.00000
4.00000 7.03348 4.00000
4.00000 7.03348 4.00000
4.00000 7.03348 4.00000
4.00000 7.03348 4.00000
4.00000 7.03348 4.00000
4.00000 7.03348 4.00000
4.00000 7.03349 4.00000
4.00000 7.03348 4.00000
4.00000 7.03348 4.00000
4.00000 7.03348 4.00000
4.00000 7.03348 4.00000
4.00000 7.03348 4.00000
4.00000 7.03348 4.00000
4.00248 7.08083 4.00248
4.00614 7.15184 4.00614
4.00975 7.22308 4.00975
4.01332 7.29452 4.01332
4.01688 7.36614 4.01688
4.02042 7.43791 4.02042
4.02396 7.50981 4.02396
4.02752 7.58180 4.02752
4.03110 7.65387 4.03110
4.03473 7.72597 4.03473
4.03842 7.79807 4.03842
4.04218 7.87013 4.04218
4.04604 7.94212 4.04604
4.05002 8.01400 4.05002
4.05413 8.08570 4.05413
4.05842 8.15717 4.05842
4.06292 8.22833 4.06292
4.06766 8.29911 4.06766
4.07269 8.36942 4.07269
4.07808 8.43913 4.07808
4.08388 8.50810 4.08388
4.09020 8.57616 4.09020
4.09712 8.64310 4.09712
4.10473 8.70874 4.10473
4.11300 8.77320 4.11300
4.12194 8.83640 4.12194
4.13160 8.89824 4.13160
4.14203 8.95865 4.14202
4.15326 9.01755 4.15326
4.16533 9.07485 4.16533
4.17826 9.13052 4.17826
4.19208 9.18451 4.19208
4.20680 9.23679 4.20680
4.22241 9.28736 4.22241
4.23892 9.33623 4.23892
4.25630 9.38343 4.25630
4.27454 9.42900 4.27454
4.29361 9.47300 4.29361
4.31347 9.51549 4.31347
4.33409 9.55654 4.33409
4.35543 9.59623 4.35543
4.37745 9.63462 4.37745
4.40013 9.67178 4.40013
4.42344 9.70776 4.42344
4.44736 9.74259 4.44736
4.47190 9.77625 4.47190
4.49710 9.80868 4.49710
4.52305 9.83967 4.52305
4.54996 9.86881 4.54996
4.57829 9.89517 4.57829
4.60911 9.91661 4.60911
4.64509 9.92782 4.64509
7.99225 7.29560 4.01338
8.10860 7.26412 4.01181
8.21977 7.23763 4.01048
8.32694 7.21502 4.00934
8.43092 7.19552 4.00836
8.53229 7.17856 4.00750
8.63151 7.16370 4.00674
8.72894 7.15061 4.00607
8.82483 7.13904 4.00548
8.91944 7.12875 4.00496
9.01293 7.11958 4.00448
9.10545 7.11139 4.00406
9.19714 7.10405 4.00368
9.28809 7.09745 4.00334
9.37841 7.09152 4.00303
9.46816 7.08618 4.00276
9.55743 7.08135 4.00251
9.64625 7.07699 4.00228
9.73469 7.07305 4.00207
9.82279 7.06948 4.00189
9.91060 7.06624 4.00172
9.99814 7.06330 4.00157
10.08544 7.06064 4.00143
10.17254 7.05822 4.00130
10.25945 7.05602 4.00118
10.34620 7.05403 4.00108
10.43281 7.05221 4.00098
10.51929 7.05055 4.00090
10.60567 7.04905 4.00082
10.69195 7.04768 4.00075
10.77815 7.04642 4.00068
10.86428 7.04528 4.00062
10.95034 7.04425 4.00057
11.03634 7.04332 4.00051
11.12231 7.04246 4.00047
11.20825 7.04166 4.00043
11.29415 7.04095 4.00039
11.38002 7.04030 4.00036
11.46589 7.03970 4.00033
11.55174 7.03915 4.00030
11.63758 7.03865 4.00027
11.72341 7.03820 4.00025
11.80924 7.03778 4.00023
11.89508 7.03740 4.00021
11.98092 7.03705 4.00019
12.06676 7.03675 4.00017
12.15261 7.03646 4.00016
12.23848 7.03619 4.00014
12.32435 7.03596 4.00013
12.41026 7.03574 4.00012
12.49616 7.03554 4.00011
12.58210 7.03536 4.00010
12.66806 7.03520 4.00009
12.75404 7.03505 4.00008
12.83998 7.03491 4.00008
12.92602 7.03478 4.00007
13.01207 7.03467 4.00006
13.09816 7.03457 4.00006
13.18415 7.03449 4.00005
13.27030 7.03438 4.00005
13.35645 7.03430 4.00004
13.44265 7.03423 4.00004
13.52888 7.03416 4.00003
13.61514 7.03411 4.00003
13.70144 7.03405 4.00003
13.78746 7.03400 4.00003
13.87378 7.03394 4.00002
13.96013 7.03390 4.00002
14.04653 7.03387 4.00002
14.13296 7.03383 4.00002
14.21942 7.03380 4.00002
14.30592 7.03377 4.00001
14.39246 7.03375 4.00001
14.47903 7.03372 4.00001
14.56563 7.03370 4.00001
14.65226 7.03368 4.00001
14.73892 7.03366 4.00001
14.82560 7.03364 4.00001
14.91232 7.03363 4.00001
14.99906 7.03361 4.00001
15.08583 7.03360 4.00001
15.17262 7.03359 4.00001
15.25944 7.03358 4.00000
15.34628 7.03357 4.00000
15.43315 7.03356 4.00000
15.52004 7.03355 4.00000
15.60695 7.03354 4.00000
15.69389 7.03354 4.00000
15.78085 7.03353 4.00000
15.86782 7.03352 4.00000
15.95481 7.03353 4.00000
16.04184 7.03353 4.00000
16.12888 7.03352 4.00000
16.21595 7.03352 4.00000
16.30303 7.03352 4.00000
16.39014 7.03351 4.00000
16.47726 7.03351 4.00000
16.56440 7.03351 4.00000
16.65157 7.03350 4.00000
16.73875 7.03350 4.00000
16.82595 7.03350 4.00000
16.91317 7.03350 4.00000
17.00041 7.03350 4.00000
17.08766 7.03350 4.00000

Angle 0.251995 0.694921

4.00000 7.03348 4.00000
4.00000 7.03348 4.00000
4.00000 7.03348 4.00000
4.00000 7.03348 4.00000
4.00000 7.03348 4.00000
4.00000 7.03348 4.00000
4.00000 7.03348 4.00000
4.00000 7.03348 4.00000
4.00000 7.03348 4.00000
4.00000 7.03348 4.00000
4.00000 7.03348 4.00000
4.00000 7.03348 4.00000
4.00000 7.03348 4.00000
4.00000 7.03348 4.00000
4.00000 7.03348 4.00000
4.00000 7.03348 4.00000
4.00000 7.03348 4.00000
4.00000 7.03348 4.00000
4.00000 7.03348 4.00000
4.00000 7.03348 4.00000
4.00000 7.03348 4.00000
4.00000 7.03348 4.00000
4.00000 7.03348 4.00000
4.00000 7.03348 4.00000
4.00000 7.03348 4.00000
4.00000 7.03348 4.00000
4.00000 7.03348 4.00000
4.00000 7.03348 4.00000
4.00000 7.03348 4.00000
4.00000 7.03348 4.00000
4.00000 7.03348 4.00000
4.00000 7.03348 4.00000
4.00000 7.03348 4.00000
4.00000 7.03348 4.00000
4.00000 7.03348 4.00000
4.00000 7.03348 4.00000
4.00000 7.03348 4.00000
4.00000 7.03348 4.00000
4.00000 7.03348 4.00000
4.00000 7.03348 4.00000
4.00000 7.03348 4.00000
4.00000 7.03348 4.00000
4.00000 7.03348 4.00000
4.00000 7.03348 4.00000
4.00000 7.03349 4.00000
4.00000 7.03348 4.00000
4.00000 7.03348 4.00000
4.00000 7.03348 4.00000
4.00000 7.03348 4.00000
4.00000 7.03348 4.00000
4.00000 7.03348 4.00000
4.00000 7.03348 4.00000
4.00333 7.09717 4.00333
4.00731 7.17479 4.00731
4.01123 7.25258 4.01123
4.01511 7.33050 4.01511
4.01897 7.40854 4.01897
4.02282 7.48664 4.02282
4.02668 7.56478 4.02668
4.03056 7.64293 4.03056
4.03448 7.72104 4.03448
4.03847 7.79907 4.03847
4.04254 7.87699 4.04254
4.04673 7.95473 4.04673
4.05105 8.03225 4.05105
4.05554 8.10948 4.05554
4.06024 8.18634 4.06024
4.06519 8.26274 4.06519
4.07044 8.33858 4.07044
4.07607 8.41372 4.07607
4.08214 8.48801 4.08214
4.08876 8.56126 4.08876
4.09604 8.63321 4.09604
4.10411 8.70363 4.10411
4.11292 8.77263 4.11292
4.12249 8.84013 4.12249
4.13288 8.90604 4.13288
4.14415 8.97024 4.14415
4.15632 9.03265 4.15632
4.16945 9.09320 4.16945
4.18356 9.15183 4.18356
4.19866 9.20851 4.19866
4.21477 9.26320 4.21477
4.23189 9.31594 4.23189
4.24998 9.36673 4.24998
4.26904 9.41564 4.26904
4.28903 9.46273 4.28903
4.30990 9.50808 4.30990
4.33162 9.55177 4.33162
4.35414 9.59390 4.35414
4.37741 9.63454 4.37741
4.40140 9.67379 4.40140
4.42608 9.71170 4.42608
4.45142 9.74830 4.45142
4.47745 9.78357 4.47745
4.50421 9.81742 4.50420
4.53183 9.84955 4.53183
4.56064 9.87934 4.56064
4.59136 9.90535 4.59135
4.62580 9.92393 4.62580
7.93667 7.31216 4.01420
8.06187 7.27627 4.01241
8.18060 7.24659 4.01093
8.29443 7.22159 4.00967
8.40442 7.20029 4.00860
8.51136 7.18191 4.00767
8.61581 7.16594 4.00686
8.71816 7.15199 4.00615
8.81876 7.13973 4.00552
8.91787 7.12892 4.00497
9.01572 7.11933 4.00447
9.11247 7.11080 4.00403
9.20828 7.10320 4.00364
9.30325 7.09641 4.00329
9.39751 7.09033 4.00297
9.49113 7.08488 4.00269
9.58419 7.07999 4.00244
9.67675 7.07559 4.00221
9.76888 7.07162 4.00200
9.86062 7.06804 4.00181
9.95201 7.06482 4.00164
10.04310 7.06190 4.00149
10.13391 7.05926 4.00135
10.22448 7.05689 4.00123
10.31483 7.05473 4.00112
10.40499 7.05277 4.00101
10.49498 7.05100 4.00092
10.58483 7.04938 4.00083
10.67452 7.04793 4.00076
10.76409 7.04662 4.00069
10.85357 7.04541 4.00063
10.94292 7.04433 4.00057
11.03221 7.04333 4.00052
11.12140 7.04245 4.00047
11.21055 7.04162 4.00043
11.29962 7.04089 4.00039
11.38865 7.04021 4.00035
11.47763 7.03960 4.00032
11.56654 7.03907 4.00029
11.65546 7.03854 4.00027
11.74433 7.03808 4.00024
11.83318 7.03767 4.00022
11.92196 7.03730 4.00020
12.01079 7.03693 4.00018
12.09958 7.03662 4.00016
12.18835 7.03634 4.00015
12.27711 7.03608 4.00014
12.36587 7.03584 4.00012
12.45462 7.03563 4.00011
12.54337 7.03544 4.00010
12.63212 7.03526 4.00009
12.72087 7.03510 4.00008
12.80962 7.03495 4.00007
12.89838 7.03482 4.00007
12.98713 7.03469 4.00006
13.07589 7.03458 4.00006
13.16466 7.03448 4.00005
13.25343 7.03439 4.00005
13.34221 7.03431 4.00004
13.43099 7.03423 4.00004
13.51979 7.03416 4.00003
13.60859 7.03410 4.00003
13.69740 7.03404 4.00003
13.78622 7.03399 4.00003
13.87505 7.03394 4.00002
13.96388 7.03390 4.00002
14.05273 7.03386 4.00002
14.14159 7.03382 4.00002
14.23046 7.03379 4.00002
14.31933 7.03376 4.00001
14.40822 7.03373 4.00001
14.49712 7.03371 4.00001
14.58603 7.03369 4.00001
14.67495 7.03367 4.00001
14.76388 7.03365 4.00001
14.85282 7.03363 4.00001
14.94177 7.03362 4.00001
15.03073 7.03360 4.00001
15.11970 7.03359 4.00001
15.20869 7.03358 4.00000
15.29768 7.03357 4.00000
15.38583 7.03357 4.00001
15.47481 7.03357 4.00000
15.56380 7.03356 4.00000
15.65280 7.03355 4.00000
15.74182 7.03354 4.00000
15.83085 7.03354 4.00000
15.91989 7.03353 4.00000
16.00894 7.03353 4.00000
16.09800 7.03352 4.00000
16.18707 7.03352 4.00000
16.27616 7.03352 4.00000
16.36525 7.03351 4.00000
16.45436 7.03351 4.00000
16.54348 7.03351 4.00000
16.63260 7.03350 4.00000
16.72174 7.03350 4.00000
16.81089 7.03350 4.00000
16.90005 7.03350 4.00000
16.98922 7.03350 4.00000
17.07840 7.03350 4.00000
17.16759 7.03349 4.00000
17.25679 7.03349 4.00000
17.34600 7.03349 4.00000
17.43521 7.03349 4.00000
17.52444 7.03349 4.00000
17.61368 7.03349 4.00000
17.70293 7.03349 4.00000
17.79218 7.03349 4.00000
17.88145 7.03349 4.00000
17.97072 7.03349 4.00000
18.06000 7.03349 4.00000
18.14930 7.03348 4.00000
18.23860 7.03348 4.00000
18.32791 7.03348 4.00000
18.41722 7.03348 4.00000
18.50655 7.03348 4.00000
18.59588 7.03348 4.00000
18.68523 7.03348 4.00000
18.77458 7.03348 4.00000
18.86394 7.03348 4.00000
18.95330 7.03348 4.00000
19.04268 7.03348 4.00000
19.13206 7.03348 4.00000
19.22145 7.03348 4.00000
19.31085 7.03348 4.00000
19.40026 7.03348 4.00000
19.48967 7.03348 4.00000
19.57909 7.03348 4.00000
19.66852 7.03348 4.00000
19.75796 7.03348 4.00000
19.84740 7.03348 4.00000
19.93685 7.03348 4.00000
20.02631 7.03348 4.00000
20.11577 7.03348 4.00000
20.20524 7.03348 4.00000
20.29472 7.03348 4.00000
20.38421 7.03348 4.00000
20.47370 7.03348 4.00000
20.56320 7.03348 4.00000
20.65270 7.03348 4.00000
20.74222 7.03348 4.00000
20.83173 7.03348 4.00000
20.92126 7.03348 4.00000
21.01079 7.03348 4.00000
21.10033 7.03348 4.00000
21.18987 7.03348 4.00000
21.27942 7.03348 4.00000
21.36898 7.03348 4.00000
21.45854 7.03348 4.00000
21.54811 7.03348 4.00000
21.63768 7.03348 4.00000
21.72726 7.03348 4.00000
21.81685 7.03348 4.00000
21.90644 7.03348 4.00000
21.99604 7.03348 4.00000
22.08564 7.03348 4.00000
22.17525 7.03348 4.00000
22.26487 7.03348 4.00000
22.35449 7.03348 4.00000
22.44412 7.03348 4.00000
22.53375 7.03348 4.00000
22.62338 7.03348 4.00000
22.71303 7.03348 4.00000
22.80268 7.03348 4.00000
22.89233 7.03348 4.00000
22.98199 7.03348 4.00000
23.07165 7.03348 4.00000
23.16132 7.03348 4.00000
23.25099 7.03348 4.00000
23.34067 7.03348 4.00000
23.43036 7.03348 4.00000
23.52005 7.03348 4.00000
23.60974 7.03348 4.00000
23.69944 7.03348 4.00000
23.78914 7.03348 4.00000
23.87885 7.03348 4.00000
23.96857 7.03348 4.00000
24.05828 7.03348 4.00000
24.14801 7.03348 4.00000
24.23773 7.03348 4.00000
24.32747 7.03348 4.00000
24.41720 7.03348 4.00000
24.50695 7.03348 4.00000
24.59669 7.03348 4.00000
24.68644 7.03348 4.00000
24.77620 7.03348 4.00000
24.86596 7.03348 4.00000
24.95572 7.03348 4.00000
25.04549 7.03348 4.00000
25.13526 7.03348 4.00000
25.22504 7.03348 4.00000
25.31482 7.03348 4.00000
25.40460 7.03348 4.00000
25.49439 7.03348 4.00000
25.58419 7.03348 4.00000
25.67398 7.03348 4.00000
25.76379 7.03348 4.00000
25.85359 7.03348 4.00000
25.94340 7.03348 4.00000
26.03321 7.03348 4.00000
26.12303 7.03348 4.00000
26.21285 7.03348 4.00000
26.30268 7.03348 4.00000
26.39251 7.03348 4.00000
26.48234 7.03348 4.00000
26.57218 7.03348 4.00000
26.66202 7.03348 4.00000
26.75186 7.03348 4.00000
26.84171 7.03348 4.00000
26.93156 7.03348 4.00000
27.02142 7.03348 4.00000
27.11128 7.03348 4.00000
27.20114 7.03348 4.00000
27.29101 7.03348 4.00000
27.38088 7.03348 4.00000
27.47075 7.03348 4.00000
27.56063 7.03348 4.00000
27.65051 7.03348 4.00000
27.74039 7.03348 4.00000
27.83028 7.03348 4.00000
27.92017 7.03348 4.00000
28.01007 7.03348 4.00000
28.09996 7.03348 4.00000
28.18986 7.03348 4.00000
28.27977 7.03348 4.00000
28.36968 7.03348 4.00000
28.45959 7.03348 4.00000
28.54950 7.03348 4.00000
28.63942 7.03348 4.00000
28.72934 7.03348 4.00000
28.81926 7.03348 4.00000
28.90919 7.03348 4.00000
28.99912 7.03348 4.00000
29.08905 7.03348 4.00000
29.17899 7.03348 4.00000
29.26892 7.03348 4.00000
29.35887 7.03348 4.00000
29.44881 7.03348 4.00000
29.53876 7.03348 4.00000
29.62871 7.03348 4.00000
29.71866 7.03348 4.00000
29.80862 7.03348 4.00000
29.89858 7.03348 4.00000
29.98854 7.03348 4.00000
30.07851 7.03348 4.00000
30.16848 7.03348 4.00000
30.25845 7.03348 4.00000
30.34842 7.03348 4.00000
30.43840 7.03348 4.00000
30.52838 7.03348 4.00000
30.61836 7.03348 4.00000
30.70834 7.03348 4.00000
30.79833 7.03348 4.00000
30.88832 7.03348 4.00000
30.97831 7.03348 4.00000
31.06831 7.03348 4.00000
31.15831 7.03348 4.00000
31.24831 7.03348 4.00000
31.33831 7.03348 4.00000
31.42832 7.03348 4.00000
31.51833 7.03348 4.00000
31.60834 7.03348 4.00000
31.69835 7.03348 4.00000
31.78837 7.03348 4.00000
31.87838 7.03348 4.00000
31.96841 7.03348 4.00000
32.05843 7.03348 4.00000
32.14845 7.03348 4.00000
32.23848 7.03348 4.00000
32.32851 7.03348 4.00000
32.41855 7.03348 4.00000
32.50858 7.03348 4.00000
32.59862 7.03348 4.00000
32.68866 7.03348 4.00000
32.77870 7.03348 4.00000
32.86875 7.03348 4.00000
32.95879 7.03348 4.00000
33.04884 7.03348 4.00000
33.13890 7.03348 4.00000
33.22895 7.03348 4.00000
33.31901 7.03348 4.00000
33.40906 7.03348 4.00000
33.49912 7.03348 4.00000
33.58919 7.03348 4.00000
33.67925 7.03348 4.00000
33.76932 7.03348 4.00000
33.85939 7.03348 4.00000
33.94946 7.03348 4.00000
34.03953 7.03348 4.00000
34.12961 7.03348 4.00000
34.21969 7.03348 4.00000
34.30977 7.03348 4.00000
34.39985 7.03348 4.00000
34.48993 7.03348 4.00000
34.58002 7.03348 4.00000
34.67011 7.03348 4.00000
34.76020 7.03348 4.00000
34.85029 7.03348 4.00000
34.94038 7.03348 4.00000

