Angle 0.468980 3.166909

4.00000 7.03348 4.00000
4.00000 7.03348 4.00000
4.00000 7.03348 4.00000
4.00000 7.03348 4.00000
4.00000 7.03348 4.00000
4.00000 7.03348 4.00000
4.00000 7.03348 4.00000
4.00000 7.03348 4.00000
4.00000 7.03348 4.00000
4.00000 7.03348 4.00000
4.00000 7.03348 4.00000
4.00000 7.03348 4.00000
4.00000 7.03348 4.00000
4.00000 7.03348 4.00000
4.00000 7.03348 4.00000
4.00000 7.03348 4.00000
4.00000 7.03348 4.00000
4.00000 7.03348 4.00000
4.00000 7.03348 4.00000
4.00000 7.03348 4.00000
4.00000 7.03348 4.00000
4.00000 7.03348 4.00000
4.00000 7.03348 4.00000
4.00000 7.03348 4.00000
4.00000 7.03348 4.00000
4.00000 7.03348 4.00000
4.00000 7.03348 4.00000
4.00000 7.03348 4.00000
4.00000 7.03348 4.00000
4.00000 7.03348 4.00000
4.00000 7.03348 4.00000
4.00000 7.03348 4.00000
4.00000 7.03348 4.00000
4.00000 7.03348 4.00000
4.00000 7.03348 4.00000
4.00000 7.03348 4.00000
4.00000 7.03348 4.00000
4.00000 7.03348 4.00000
4.00000 7.03348 4.00000
4.00000 7.03348 4.00000
4.00000 7.03348 4.00000
4.00000 7.03348 4.00000
4.00000 7.03348 4.00000
4.00000 7.03348 4.00000
4.00000 7.03348 4.00000
4.00000 7.03348 4.00000
4.00000 7.03348 4.00000
4.00000 7.03348 4.00000
4.00000 7.03348 4.00000
4.00000 7.03348 4.00000
4.00000 7.03348 4.00000
4.00000 7.03348 4.00000
4.00000 7.03348 4.00000
4.00000 7.03348 4.00000
4.00000 7.03348 4.00000
4.00000 7.03348 4.00000
4.00000 7.03348 4.00000
4.00000 7.03348 4.00000
4.00000 7.03348 4.00000
4.00000 7.03348 4.00000
4.00000 7.03348 4.00000
4.00000 7.03348 4.00000
4.00000 7.03348 4.00000
4.00000 7.03348 4.00000
4.00000 7.03348 4.00000
4.00000 7.03348 4.00000
4.00000 7.03348 4.00000
4.00000 7.03348 4.00000
4.00000 7.03348 4.00000
4.00000 7.03348 4.00000
4.00000 7.03348 4.00000
4.00000 7.03348 4.00000
4.00000 7.03348 4.00000
4.00000 7.03348 4.00000
4.00000 7.03348 4.00000
4.00000 7.03348 4.00000
4.00000 7.03348 4.00000
4.00000 7.03348 4.00000
4.00000 7.03348 4.00000
4.00000 7.03348 4.00000
4.00000 7.03348 4.00000
4.00000 7.03348 4.00000
4.00000 7.03348 4.00000
4.00000 7.03348 4.00000
4.00000 7.03348 4.00000
4.00000 7.03348 4.00000
4.00000 7.03348 4.00000
4.00000 7.03348 4.00000
4.00000 7.03348 4.00000
4.00000 7.03348 4.00000
4.00000 7.03348 4.00000
4.00000 7.03348 4.00000
4.00000 7.03348 4.00000
4.00000 7.03348 4.00000
4.00000 7.03348 4.00000
4.00000 7.03348 4.00000
4.00000 7.03348 4.00000
4.00000 7.03348 4.00000
4.00000 7.03348 4.00000
4.00000 7.03348 4.00000
4.00000 7.03348 4.00000
4.00000 7.03348 4.00000
4.00000 7.03348 4.00000
4.00000 7.03348 4.00000
4.00000 7.03348 4.00000
4.00000 7.03348 4.00000
4.00000 7.03348 4.00000
4.00000 7.03348 4.00000
4.00000 7.03348 4.00000
4.00000 7.03348 4.00000
4.00000 7.03348 4.00000
4.00000 7.03348 4.00000
4.00000 7.03348 4.00000
4.00000 7.03348 4.00000
4.00000 7.03348 4.00000
4.00000 7.03348 4.00000
4.00000 7.03348 4.00000
4.00000 7.03348 4.00000
4.00000 7.03348 4.00000
4.00000 7.03348 4.00000
4.00000 7.03348 4.00000
4.00000 7.03348 4.00000
4.00000 7.03348 4.00000
4.00000 7.03348 4.00000
4.00000 7.03348 4.00000
4.00000 7.03348 4.00000
4.00000 7.03348 4.00000
4.00000 7.03348 4.00000
4.00000 7.03348 4.00000
4.00000 7.03348 4.00000
4.00000 7.03348 4.00000
4.00000 7.03348 4.00000
4.00000 7.03348 4.00000
4.00000 7.03348 4.00000
4.00000 7.03348 4.00000
4.00000 7.03348 4.00000
4.00000 7.03348 4.00000
4.00000 7.03348 4.00000
4.00000 7.03348 4.00000
4.00000 7.03348 4.00000
4.00000 7.03348 4.00000
4.00000 7.03348 4.00000
4.00000 7.03348 4.00000
4.00000 7.03348 4.00000
4.00000 7.03348 4.00000
4.00000 7.03348 4.00000
4.00000 7.03348 4.00000
4.00000 7.03348 4.00000
4.00000 7.03348 4.00000
4.00000 7.03348 4.00000
4.00000 7.03348 4.00000
4.00000 7.03348 4.00000
4.00000 7.03348 4.00000
4.00000 7.03348 4.00000
4.00000 7.03348 4.00000
4.00000 7.03348 4.00000
4.00000 7.03348 4.00000
4.00000 7.03348 4.00000
4.00000 7.03348 4.00000
4.00000 7.03348 4.00000
4.00000 7.03348 4.00000
4.00000 7.03348 4.00000
4.00000 7.03348 4.00000
4.00000 7.03348 4.00000
4.00000 7.03348 4.00000
4.00000 7.03348 4.00000
4.00000 7.03348 4.00000
4.00000 7.03348 4.00000
4.00000 7.03348 4.00000
4.00000 7.03348 4.00000
4.00000 7.03348 4.00000
4.00000 7.03348 4.00000
4.00000 7.03349 4.00000
4.00000 7.03348 4.00000
4.00000 7.03351 4.00000
4.00000 7.03348 4.00000
4.00000 7.03348 4.00000
4.00000 7.03348 4.00000
4.00000 7.03348 4.00000
4.00080 7.04871 4.00080
4.00477 7.12517 4.00477
4.00868 7.20183 4.00868
4.01253 7.27867 4.01253
4.01636 7.35563 4.01636
4.02016 7.43270 4.02016
4.02396 7.50985 4.02396
4.02778 7.58703 4.02778
4.03162 7.66422 4.03162
4.03551 7.74137 4.03551
4.03947 7.81845 4.03947
4.04352 7.89541 4.04352
4.04769 7.97221 4.04769
4.05199 8.04878 4.05199
4.05647 8.12506 4.05647
4.06116 8.20098 4.06116
4.06611 8.27644 4.06611
4.07136 8.35133 4.07137
4.07700 8.42554 4.07700
4.08308 8.49889 4.08308
4.08971 8.57119 4.08971
4.09702 8.64220 4.09702
4.10510 8.71172 4.10510
4.11390 8.77985 4.11389
4.12345 8.84651 4.12345
4.13381 8.91160 4.13382
4.14504 8.97503 4.14504
4.15716 9.03671 4.15716
4.17022 9.09656 4.17022
4.18424 9.15452 4.18424
4.19925 9.21058 4.19924
4.21524 9.26470 4.21524
4.23221 9.31689 4.23221
4.25016 9.36720 4.25016
4.26904 9.41565 4.26904
4.28885 9.46233 4.28885
4.30952 9.50729 4.30952
4.33103 9.55063 4.33103
4.35333 9.59244 4.35333
4.37637 9.63279 4.37637
4.40013 9.67177 4.40013
4.42455 9.70943 4.42456
4.44964 9.74581 4.44964
4.47540 9.78089 4.47540
4.50187 9.81457 4.50188
4.52919 9.84661 4.52919
4.55763 9.87644 4.55763
4.58784 9.90276 4.58785
4.62143 9.92235 4.62144
4.01445 7.31720 7.92038
4.01263 7.28066 8.04558
4.01112 7.25047 8.16417
4.00985 7.22506 8.27776
4.00876 7.20339 8.38747
4.00781 7.18474 8.49405
4.00699 7.16852 8.59810
4.00627 7.15434 8.70004
4.00563 7.14190 8.80020
4.00507 7.13090 8.89887
4.00456 7.12115 8.99626
4.00412 7.11248 9.09253
4.00372 7.10476 9.18785
4.00336 7.09785 9.28234
4.00304 7.09167 9.37610
4.00275 7.08611 9.46922
4.00249 7.08113 9.56178
4.00226 7.07664 9.65384
4.00205 7.07259 9.74546
4.00186 7.06894 9.83670
4.00169 7.06565 9.92758
4.00153 7.06267 10.01816
4.00139 7.05998 10.10847
4.00126 7.05754 10.19853
4.00115 7.05534 10.28838
4.00104 7.05334 10.37804
4.00095 7.05152 10.46752
4.00086 7.04987 10.55685
4.00078 7.04838 10.64605
4.00071 7.04703 10.73512
4.00065 7.04580 10.82408
4.00059 7.04468 10.91296
4.00054 7.04367 11.00174
4.00049 7.04274 11.09046
4.00044 7.04190 11.17911
4.00040 7.04114 11.26770
4.00037 7.04046 11.35622
4.00033 7.03982 11.44473
4.00030 7.03925 11.53318
4.00028 7.03874 11.62158
4.00025 7.03825 11.70999
4.00023 7.03782 11.79836
4.00021 7.03743 11.88672
4.00019 7.03708 11.97503
4.00017 7.03675 12.06336
4.00016 7.03645 12.15168
4.00014 7.03618 12.23998
4.00013 7.03594 12.32828
4.00012 7.03572 12.41658
4.00010 7.03552 12.50488
4.00010 7.03534 12.59310
4.00009 7.03516 12.68141
4.00008 7.03501 12.76970
4.00007 7.03487 12.85800
4.00007 7.03474 12.94631
4.00006 7.03463 13.03463
4.00005 7.03452 13.12295
4.00005 7.03443 13.21129
4.00004 7.03434 13.29963
4.00004 7.03426 13.38799
4.00004 7.03419 13.47635
4.00003 7.03413 13.56473
4.00003 7.03407 13.65312
4.00003 7.03401 13.74152
4.00002 7.03396 13.82994
4.00002 7.03392 13.91836
4.00002 7.03388 14.00680
4.00002 7.03384 14.09525
4.00002 7.03381 14.18372
4.00002 7.03378 14.27220
4.00001 7.03375 14.36069
4.00001 7.03372 14.44920
4.00001 7.03370 14.53772
4.00001 7.03368 14.62625
4.00001 7.03366 14.71479
4.00001 7.03364 14.80335
4.00001 7.03362 14.89193
4.00001 7.03361 14.98051
4.00001 7.03360 15.06911
4.00001 7.03358 15.15772
4.00001 7.03359 15.24571
4.00001 7.03358 15.33432
4.00000 7.03357 15.42293
4.00000 7.03356 15.51157
4.00000 7.03356 15.60021
4.00000 7.03355 15.68888
4.00000 7.03354 15.77755
4.00000 7.03354 15.86624
4.00000 7.03353 15.95495
4.00000 7.03353 16.04366
4.00000 7.03352 16.13239
4.00000 7.03352 16.22114
4.00000 7.03352 16.30990
4.00000 7.03351 16.39867
4.00000 7.03351 16.48745
4.00000 7.03351 16.57625
4.00000 7.03350 16.66506
4.00000 7.03350 16.75388
4.00000 7.03350 16.84271
4.00000 7.03350 16.93156
4.00000 7.03350 17.02042
4.00000 7.03349 17.10929
4.00000 7.03349 17.19818
4.00000 7.03349 17.28707
4.00000 7.03349 17.37598
4.00000 7.03349 17.46490
4.00000 7.03349 17.55383
4.00000 7.03349 17.64277
4.00000 7.03349 17.73172
4.00000 7.03349 17.82068
4.00000 7.03349 17.90966
4.00000 7.03349 17.99864
4.00000 7.03348 18.08764
4.00000 7.03348 18.17665
4.00000 7.03348 18.26566
4.00000 7.03348 18.35469
4.00000 7.03348 18.44373
4.00000 7.03348 18.53278
4.00000 7.03348 18.62184
4.00000 7.03348 18.71091
4.00000 7.03348 18.79998
4.00000 7.03348 18.88907
4.00000 7.03348 18.97817
4.00000 7.03348 19.06728
4.00000 7.03348 19.15640
4.00000 7.03348 19.24552
4.00000 7.03348 19.33466
4.00000 7.03348 19.42380
4.00000 7.03348 19.51296
4.00000 7.03348 19.60212
4.00000 7.03348 19.69130
4.00000 7.03348 19.78048
4.00000 7.03348 19.86967
4.00000 7.03348 19.95887
4.00000 7.03348 20.04807
4.00000 7.03348 20.13729
4.00000 7.03348 20.22652
4.00000 7.03348 20.31575
4.00000 7.03348 20.40499
4.00000 7.03348 20.49424
4.00000 7.03348 20.58350
4.00000 7.03348 20.67276
4.00000 7.03348 20.76204
4.00000 7.03348 20.85132
4.00000 7.03348 20.94061
4.00000 7.03348 21.02991
4.00000 7.03348 21.11921
4.00000 7.03348 21.20853
4.00000 7.03348 21.29785
4.00000 7.03348 21.38718
4.00000 7.03348 21.47651
4.00000 7.03348 21.56586
4.00000 7.03348 21.65521
4.00000 7.03348 21.74456
4.00000 7.03348 21.83393
4.00000 7.03348 21.92330
4.00000 7.03348 22.01268
4.00000 7.03348 22.10207
4.00000 7.03348 22.19146
4.00000 7.03348 22.28086
4.00000 7.03348 22.37027
4.00000 7.03348 22.45968
4.00000 7.03348 22.54910
4.00000 7.03348 22.63853
4.00000 7.03348 22.72796
4.00000 7.03348 22.81740
4.00000 7.03348 22.90685
4.00000 7.03348 22.99630
4.00000 7.03348 23.08576
4.00000 7.03348 23.17523
4.00000 7.03348 23.26470
4.00000 7.03348 23.35418

Angle 0.729937 1.267356

4.00000 7.03348 4.00000
4.00000 7.03348 4.00000
4.00000 7.03348 4.00000
4.00000 7.03348 4.00000
4.00000 7.03348 4.00000
4.00000 7.03348 4.00000
4.00000 7.03348 4.00000
4.00000 7.03348 4.00000
4.00000 7.03348 4.00000
4.00000 7.03348 4.00000
4.00000 7.03348 4.00000
4.00000 7.03348 4.00000
4.00000 7.03348 4.00000
4.00000 7.03348 4.00000
4.00000 7.03348 4.00000
4.00000 7.03348 4.00000
4.00000 7.03348 4.00000
4.00000 7.03348 4.00000
4.00000 7.03348 4.00000
4.00000 7.03348 4.00000
4.00000 7.03348 4.00000
4.00000 7.03348 4.00000
4.00000 7.03348 4.00000
4.00000 7.03348 4.00000
4.00000 7.03348 4.00000
4.00000 7.03348 4.00000
4.00000 7.03348 4.00000
4.00000 7.03348 4.00000
4.00000 7.03348 4.00000
4.00000 7.03348 4.00000
4.00000 7.03348 4.00000
4.00000 7.03348 4.00000
4.00000 7.03348 4.00000
4.00000 7.03348 4.00000
4.00000 7.03348 4.00000
4.00000 7.03348 4.00000
4.00000 7.03348 4.00000
4.00000 7.03348 4.00000
4.00000 7.03348 4.00000
4.00000 7.03348 4.00000
4.00000 7.03348 4.00000
4.00000 7.03348 4.00000
4.00000 7.03348 4.00000
4.00000 7.03348 4.00000
4.00000 7.03348 4.00000
4.00000 7.03348 4.00000
4.00000 7.03348 4.00000
4.00000 7.03348 4.00000
4.00000 7.03348 4.00000
4.00000 7.03348 4.00000
4.00000 7.03348 4.00000
4.00000 7.03348 4.00000
4.00000 7.03348 4.00000
4.00000 7.03348 4.00000
4.00000 7.03348 4.00000
4.00000 7.03348 4.00000
4.00000 7.03348 4.00000
4.00000 7.03348 4.00000
4.00000 7.03348 4.00000
4.00000 7.03348 4.00000
4.00000 7.03348 4.00000
4.00000 7.03348 4.00000
4.00000 7.03348 4.00000
4.00000 7.03348 4.00000
4.00000 7.03348 4.00000
4.00000 7.03348 4.00000
4.00000 7.03348 4.00000
4.00000 7.03348 4.00000
4.00000 7.03348 4.00000
4.00000 7.03348 4.00000
4.00000 7.03348 4.00000
4.00000 7.03348 4.00000
4.00000 7.03348 4.00000
4.00000 7.03348 4.00000
4.00000 7.03348 4.00000
4.00000 7.03348 4.00000
4.00000 7.03348 4.00000
4.00000 7.03348 4.00000
4.00000 7.03348 4.00000
4.00000 7.03348 4.00000
4.00000 7.03348 4.00000
4.00000 7.03348 4.00000
4.00000 7.03348 4.00000
4.00000 7.03348 4.00000
4.00000 7.03348 4.00000
4.00000 7.03348 4.00000
4.00000 7.03348 4.00000
4.00000 7.03348 4.00000
4.00000 7.03348 4.00000
4.00000 7.03348 4.00000
4.00000 7.03348 4.00000
4.00000 7.03348 4.00000
4.00000 7.03348 4.00000
4.00000 7.03348 4.00000
4.00000 7.03348 4.00000
4.00000 7.03348 4.00000
4.00000 7.03348 4.00000
4.00000 7.03348 4.00000
4.00000 7.03348 4.00000
4.00000 7.03348 4.00000
4.00000 7.03348 4.00000
4.00000 7.03348 4.00000
4.00000 7.03348 4.00000
4.00000 7.03348 4.00000
4.00000 7.03348 4.00000
4.00000 7.03348 4.00000
4.00000 7.03348 4.00000
4.00000 7.03348 4.00000
4.00000 7.03348 4.00000
4.00000 7.03348 4.00000
4.00000 7.03348 4.00000
4.00000 7.03348 4.00000
4.00000 7.03348 4.00000
4.00000 7.03348 4.00000
4.00000 7.03348 4.00000
4.00000 7.03348 4.00000
4.00000 7.03348 4.00000
4.00000 7.03348 4.00000
4.00000 7.03348 4.00000
4.00000 7.03348 4.00000
4.00000 7.03348 4.00000
4.00000 7.03348 4.00000
4.00000 7.03348 4.00000
4.00000 7.03348 4.00000
4.00000 7.03348 4.00000
4.00000 7.03348 4.00000
4.00000 7.03348 4.00000
4.00000 7.03348 4.00000
4.00000 7.03348 4.00000
4.00000 7.03348 4.00000
4.00000 7.03348 4.00000
4.00000 7.03348 4.00000
4.00000 7.03348 4.00000
4.00000 7.03348 4.00000
4.00000 7.03348 4.00000
4.00000 7.03348 4.00000
4.00000 7.03348 4.00000
4.00000 7.03348 4.00000
4.00000 7.03348 4.00000
4.00000 7.03348 4.00000
4.00000 7.03348 4.00000
4.00000 7.03348 4.00000
4.00000 7.03348 4.00000
4.00000 7.03348 4.00000
4.00000 7.03348 4.00000
4.00000 7.03348 4.00000
4.00000 7.03348 4.00000
4.00000 7.03348 4.00000
4.00000 7.03348 4.00000
4.00000 7.03348 4.00000
4.00000 7.03348 4.00000
4.00000 7.03348 4.00000
4.00000 7.03348 4.00000
4.00000 7.03348 4.00000
4.00000 7.03348 4.00000
4.00000 7.03348 4.00000
4.00000 7.03348 4.00000
4.00000 7.03348 4.00000
4.00000 7.03348 4.00000
4.00000 7.03348 4.00000
4.00000 7.03348 4.00000
4.00000 7.03348 4.00000
4.00000 7.03348 4.00000
4.00000 7.03348 4.00000
4.00000 7.03348 4.00000
4.00000 7.03348 4.00000
4.00000 7.03348 4.00000
4.00000 7.03348 4.00000
4.00000 7.03348 4.00000
4.00000 7.03348 4.00000
4.00000 7.03348 4.00000
4.00000 7.03348 4.00000
4.00000 7.03348 4.00000
4.00000 7.03348 4.00000
4.00000 7.03348 4.00000
4.00000 7.03348 4.00000
4.00000 7.03348 4.00000
4.00000 7.03348 4.00000
4.00000 7.03348 4.00000
4.00000 7.03348 4.00000
4.00000 7.03348 4.00000
4.00000 7.03348 4.00000
4.00000 7.03348 4.00000
4.00000 7.03348 4.00000
4.00000 7.03348 4.00000
4.00000 7.03348 4.00000
4.00000 7.03348 4.00000
4.00000 7.03348 4.00000
4.00000 7.03348 4.00000
4.00000 7.03348 4.00000
4.00000 7.03348 4.00000
4.00000 7.03348 4.00000
4.00000 7.03348 4.00000
4.00000 7.03348 4.00000
4.00000 7.03348 4.00000
4.00000 7.03348 4.00000
4.00000 7.03348 4.00000
4.00000 7.03348 4.00000
4.00000 7.03348 4.00000
4.00000 7.03348 4.00000
4.00000 7.03348 4.00000
4.00000 7.03348 4.00000
4.00000 7.03348 4.00000
4.00000 7.03348 4.00000
4.00000 7.03348 4.00000
4.00000 7.03348 4.00000
4.00000 7.03348 4.00000
4.00000 7.03347 4.00000
4.00000 7.03348 4.00000
4.00000 7.03348 4.00000
4.00000 7.03348 4.00000
4.00000 7.03352 4.00000
4.00000 7.03348 4.00000
4.00000 7.03348 4.00000
4.00000 7.03348 4.00000
4.00000 7.03348 4.00000
4.00000 7.03348 4.00000
4.00000 7.03348 4.00000
4.00000 7.03348 4.00000
4.00264 7.08390 4.00264
4.00659 7.16075 4.00659
4.01049 7.23779 4.01049
4.01434 7.31498 4.01434
4.01817 7.39228 4.01817
4.02198 7.46968 4.02198
4.02580 7.54712 4.02580
4.02964 7.62458 4.02964
4.03352 7.70203 4.03352
4.03746 7.77942 4.03746
4.04148 7.85672 4.04147
4.04559 7.93386 4.04559
4.04984 8.01081 4.04984
4.05424 8.08750 4.05424
4.05884 8.16385 4.05884
4.06367 8.23979 4.06367
4.06878 8.31522 4.06878
4.07424 8.39001 4.07424
4.08011 8.46402 4.08011
4.08649 8.53707 4.08649
4.09349 8.60894 4.09349
4.10123 8.67937 4.10123
4.10972 8.74835 4.10971
4.11894 8.81591 4.11894
4.12895 8.88193 4.12895
4.13981 8.94632 4.13981
4.15155 9.00898 4.15155
4.16422 9.06983 4.16422
4.17784 9.12881 4.17784
4.19245 9.18588 4.19245
4.20804 9.24101 4.20804
4.22463 9.29419 4.22463
4.24220 9.34546 4.24220
4.26073 9.39484 4.26073
4.28019 9.44240 4.28019
4.30055 9.48821 4.30055
4.32176 9.53235 4.32177
4.34379 9.57490 4.34379
4.36658 9.61596 4.36658
4.39009 9.65561 4.39010
4.41430 9.69391 4.41430
4.43918 9.73091 4.43918
4.46472 9.76662 4.46472
4.49095 9.80097 4.49095
4.51797 9.83381 4.51797
4.54596 9.86471 4.54596
4.57541 9.89274 4.57541
4.60742 9.91568 4.60742
4.64485 9.92780 4.64486
7.99700 7.29423 4.01331
8.11824 7.26168 4.01168
8.23388 7.23450 4.01032
8.34524 7.21142 4.00916
8.45319 7.19162 4.00816
8.55838 7.17449 4.00729
8.66130 7.15955 4.00653
8.76231 7.14644 4.00586
8.86173 7.13489 4.00527
8.95977 7.12469 4.00475
9.05664 7.11561 4.00428
9.15250 7.10753 4.00386
9.24747 7.10032 4.00349
9.34168 7.09386 4.00316
9.43521 7.08808 4.00286
9.52814 7.08288 4.00259
9.62056 7.07821 4.00234
9.71251 7.07400 4.00212
9.80405 7.07021 4.00193
9.89522 7.06679 4.00175
9.98608 7.06370 4.00159
10.07665 7.06090 4.00144
10.16696 7.05837 4.00131
10.25704 7.05608 4.00119
10.34692 7.05401 4.00108
10.43662 7.05213 4.00098
10.52616 7.05043 4.00089
10.61555 7.04888 4.00081
10.70483 7.04747 4.00074
10.79398 7.04621 4.00067
10.88303 7.04505 4.00061
10.97201 7.04399 4.00055
11.06088 7.04304 4.00051
11.14971 7.04217 4.00046
11.23843 7.04140 4.00042
11.32716 7.04067 4.00038
11.41581 7.04002 4.00034
11.50438 7.03945 4.00032
11.59299 7.03889 4.00028
11.68153 7.03840 4.00026
11.77005 7.03796 4.00023
11.85854 7.03755 4.00021
11.94699 7.03719 4.00020
12.03546 7.03685 4.00018
12.12391 7.03654 4.00016
12.21234 7.03626 4.00015
12.30077 7.03601 4.00013
12.38920 7.03578 4.00012
12.47762 7.03557 4.00011
12.56604 7.03539 4.00010
12.65447 7.03521 4.00009
12.74289 7.03506 4.00008
12.83132 7.03491 4.00007
12.91975 7.03478 4.00007
13.00818 7.03466 4.00006
13.09662 7.03456 4.00006
13.18507 7.03446 4.00005
13.27352 7.03437 4.00005
13.36199 7.03429 4.00004
13.45046 7.03421 4.00004
13.53894 7.03414 4.00003
13.62743 7.03408 4.00003
13.71593 7.03403 4.00003
13.80444 7.03398 4.00003
13.89296 7.03393 4.00002
13.98148 7.03389 4.00002
14.07003 7.03385 4.00002
14.15858 7.03381 4.00002
14.24714 7.03378 4.00002
14.33571 7.03375 4.00001
14.42430 7.03373 4.00001
14.51290 7.03370 4.00001
14.60151 7.03368 4.00001
14.69013 7.03366 4.00001
14.77876 7.03364 4.00001
14.86740 7.03363 4.00001
14.95606 7.03361 4.00001
15.04457 7.03362 4.00001
15.13325 7.03360 4.00001
15.22194 7.03359 4.00001
15.31064 7.03358 4.00001
15.39936 7.03357 4.00000
15.48808 7.03356 4.00000
15.57682 7.03356 4.00000
15.66557 7.03355 4.00000
15.75434 7.03354 4.00000
15.84311 7.03354 4.00000
15.93190 7.03353 4.00000
16.02069 7.03353 4.00000
16.10950 7.03352 4.00000
16.19832 7.03352 4.00000
16.28715 7.03352 4.00000
16.37599 7.03351 4.00000
16.46485 7.03351 4.00000
16.55371 7.03351 4.00000
16.64258 7.03350 4.00000
16.73147 7.03350 4.00000
16.82037 7.03350 4.00000
16.90927 7.03350 4.00000
16.99819 7.03350 4.00000
17.08712 7.03350 4.00000
17.17606 7.03349 4.00000
17.26501 7.03349 4.00000
17.35397 7.03349 4.00000
17.44293 7.03349 4.00000
17.53191 7.03349 4.00000
17.62090 7.03349 4.00000
17.70990 7.03349 4.00000
17.79891 7.03349 4.00000
17.88793 7.03349 4.00000
17.97696 7.03349 4.00000
18.06600 7.03349 4.00000
18.15504 7.03348 4.00000
18.24410 7.03348 4.00000
18.33317 7.03348 4.00000
18.42224 7.03348 4.00000
18.51133 7.03348 4.00000
18.60042 7.03348 4.00000
18.68953 7.03348 4.00000
18.77864 7.03348 4.00000
18.86776 7.03348 4.00000
18.95689 7.03348 4.00000
19.04603 7.03348 4.00000
19.13517 7.03348 4.00000
19.22433 7.03348 4.00000
19.31350 7.03348 4.00000
19.40267 7.03348 4.00000
19.49185 7.03348 4.00000
19.58104 7.03348 4.00000
19.67024 7.03348 4.00000
19.75944 7.03348 4.00000
19.84866 7.03348 4.00000

Angle 0.203601 0.527708

4.00000 7.03348 4.00000
4.00000 7.03348 4.00000
4.00000 7.03348 4.00000
4.00000 7.03348 4.00000
4.00000 7.03348 4.00000
4.00000 7.03348 4.00000
4.00000 7.03348 4.00000
4.00000 7.03348 4.00000
4.00000 7.03347 4.00000
4.00000 7.03348 4.00000
4.00000 7.03348 4.00000
4.00000 7.03348 4.00000
4.00000 7.03348 4.00000
4.00000 7.03348 4.00000
4.00000 7.03348 4.00000
4.00000 7.03348 4.00000
4.00000 7.03348 4.00000
4.00000 7.03348 4.00000
4.00000 7.03348 4.00000
4.00000 7.03348 4.00000
4.00000 7.03348 4.00000
4.00000 7.03348 4.00000
4.00000 7.03348 4.00000
4.00000 7.03348 4.00000
4.00000 7.03348 4.00000
4.00000 7.03348 4.00000
4.00000 7.03348 4.00000
4.00000 7.03348 4.00000
4.00000 7.03348 4.00000
4.00000 7.03348 4.00000
4.00000 7.03348 4.00000
4.00000 7.03348 4.00000
4.00000 7.03348 4.00000
4.00000 7.03348 4.00000
4.00000 7.03348 4.00000
4.00000 7.03348 4.00000
4.00000 7.03348 4.00000
4.00000 7.03348 4.00000
4.00000 7.03348 4.00000
4.00000 7.03348 4.00000
4.00000 7.03348 4.00000
4.00000 7.03348 4.00000
4.00000 7.03348 4.00000
4.00000 7.03348 4.00000
4.00000 7.03346 4.00000
4.00000 7.03348 4.00000
4.00000 7.03348 4.00000
4.00000 7.03348 4.00000
4.00000 7.03348 4.00000
4.00000 7.03348 4.00000
4.00000 7.03348 4.00000
4.00000 7.03348 4.00000
4.00000 7.03348 4.00000
4.00000 7.03349 4.00000
4.00000 7.03349 4.00000
4.00000 7.03349 4.00000
4.00000 7.03350 4.00000
4.00000 7.03348 4.00000
4.00000 7.03352 4.00000
4.00000 7.03348 4.00000
4.00000 7.03348 4.00000
4.00000 7.03348 4.00000
4.00000 7.03348 4.00000
4.00000 7.03348 4.00000
4.00000 7.03348 4.00000
4.00000 7.03350 4.00000
4.00312 7.09319 4.00312
4.00651 7.15912 4.00651
4.00986 7.22532 4.00986
4.01319 7.29176 4.01319
4.01649 7.35842 4.01649
4.01979 7.42527 4.01979
4.02310 7.49230 4.02310
4.02641 7.55949 4.02641
4.02975 7.62680 4.02975
4.03313 7.69421 4.03313
4.03655 7.76170 4.03655
4.04004 7.82923 4.04004
4.04360 7.89678 4.04360
4.04725 7.96430 4.04725
4.05102 8.03176 4.05102
4.05492 8.09911 4.05492
4.05899 8.16629 4.05899
4.06324 8.23325 4.06324
4.06772 8.29991 4.06772
4.07246 8.36620 4.07246
4.07751 8.43201 4.07751
4.08293 8.49722 4.08293
4.08880 8.56169 4.08880
4.09519 8.62525 4.09519
4.10221 8.68771 4.10221
4.10982 8.74913 4.10982
4.11802 8.80948 4.11802
4.12686 8.86870 4.12686
4.13638 8.92669 4.13638
4.14661 8.98340 4.14661
4.15758 9.03874 4.15758
4.16933 9.09267 4.16933
4.18187 9.14513 4.18187
4.19522 9.19610 4.19522
4.20940 9.24554 4.20940
4.22439 9.29346 4.22439
4.24021 9.33987 4.24021
4.25682 9.38479 4.25683
4.27423 9.42825 4.27423
4.29240 9.47030 4.29240
4.31130 9.51099 4.31130
4.33091 9.55039 4.33090
4.35119 9.58854 4.35119
4.37211 9.62552 4.37211
4.39365 9.66138 4.39365
4.41578 9.69617 4.41578
4.43848 9.72990 4.43849
4.46176 9.76260 4.46176
4.48564 9.79420 4.48564
4.51016 9.82461 4.51016
4.53547 9.85354 4.53547
4.56183 9.88048 4.56183
4.58983 9.90424 4.58982
4.62080 9.92211 4.62083
7.90791 7.32113 4.01465
8.02426 7.28653 4.01293
8.13477 7.25759 4.01148
8.24085 7.23297 4.01025
8.34341 7.21178 4.00918
8.44315 7.19337 4.00825
8.54057 7.17725 4.00743
8.63606 7.16306 4.00671
8.72993 7.15049 4.00607
8.82243 7.13931 4.00550
8.91374 7.12933 4.00499
9.00403 7.12042 4.00453
9.09345 7.11241 4.00411
9.18210 7.10520 4.00374
9.27008 7.09871 4.00341
9.35748 7.09285 4.00310
9.44437 7.08754 4.00283
9.53081 7.08274 4.00258
9.61685 7.07839 4.00235
9.70253 7.07445 4.00215
9.78793 7.07085 4.00196
9.87306 7.06759 4.00179
9.95794 7.06462 4.00163
10.04262 7.06192 4.00149
10.12711 7.05945 4.00136
10.21144 7.05722 4.00125
10.29564 7.05516 4.00114
10.37972 7.05330 4.00104
10.46368 7.05161 4.00095
10.54757 7.05004 4.00087
10.63138 7.04862 4.00080
10.71512 7.04733 4.00073
10.79881 7.04614 4.00067
10.88246 7.04505 4.00061
10.96608 7.04406 4.00056
11.04965 7.04317 4.00051
11.13322 7.04234 4.00047
11.21677 7.04158 4.00043
11.30031 7.04090 4.00039
11.38386 7.04026 4.00036
11.46740 7.03969 4.00033
11.55096 7.03914 4.00030
11.63451 7.03867 4.00027
11.71808 7.03823 4.00025
11.80168 7.03782 4.00023
11.88528 7.03747 4.00021
11.96893 7.03711 4.00019
12.05259 7.03680 4.00018
12.13628 7.03652 4.00016
12.22002 7.03623 4.00014
12.30374 7.03601 4.00013
12.38754 7.03579 4.00012
12.47133 7.03560 4.00011
12.55521 7.03541 4.00010
12.63906 7.03525 4.00009
12.72294 7.03510 4.00009
12.80689 7.03497 4.00008
12.89088 7.03483 4.00007
12.97491 7.03472 4.00006
13.05896 7.03461 4.00006
13.14307 7.03451 4.00005
13.22719 7.03443 4.00005
13.31139 7.03434 4.00004
13.39563 7.03427 4.00004
13.47993 7.03420 4.00004
13.56413 7.03414 4.00003
13.64846 7.03408 4.00003
13.73286 7.03403 4.00003
13.81730 7.03398 4.00003
13.90180 7.03393 4.00002
13.98635 7.03389 4.00002
14.07095 7.03386 4.00002
14.15559 7.03382 4.00002
14.24029 7.03379 4.00002
14.32504 7.03376 4.00001
14.40983 7.03374 4.00001
14.49467 7.03371 4.00001
14.57956 7.03369 4.00001
14.66449 7.03367 4.00001
14.74947 7.03366 4.00001
14.83450 7.03364 4.00001
14.91956 7.03362 4.00001
15.00468 7.03361 4.00001
15.08983 7.03360 4.00001
15.17503 7.03359 4.00000
15.26027 7.03358 4.00000
15.34555 7.03357 4.00000
15.43087 7.03356 4.00000
15.51624 7.03355 4.00000
15.60164 7.03354 4.00000
15.68708 7.03354 4.00000
15.77256 7.03353 4.00000
15.85808 7.03352 4.00000
15.94364 7.03352 4.00000
16.02923 7.03351 4.00000
16.11486 7.03351 4.00000
16.20053 7.03351 4.00000
16.28623 7.03350 4.00000
16.37197 7.03350 4.00000
16.45414 7.03350 4.00000
16.53975 7.03351 4.00000
16.62543 7.03351 4.00000
16.71114 7.03350 4.00000
16.79690 7.03350 4.00000
16.88269 7.03350 4.00000
16.96853 7.03350 4.00000
17.05440 7.03350 4.00000
17.14031 7.03349 4.00000
17.22626 7.03349 4.00000
17.31224 7.03349 4.00000
17.39826 7.03349 4.00000
17.48432 7.03349 4.00000
17.57041 7.03349 4.00000
17.65654 7.03349 4.00000
17.74270 7.03349 4.00000
17.82889 7.03349 4.00000
17.91512 7.03349 4.00000
18.00138 7.03349 4.00000
18.08767 7.03348 4.00000
18.17400 7.03348 4.00000
18.26035 7.03348 4.00000
18.34674 7.03348 4.00000
18.43315 7.03348 4.00000
18.51960 7.03348 4.00000
18.60607 7.03348 4.00000
18.69258 7.03348 4.00000
18.77911 7.03348 4.00000
18.86568 7.03348 4.00000
18.95227 7.03348 4.00000
19.03888 7.03348 4.00000
19.12553 7.03348 4.00000
19.21220 7.03348 4.00000
19.29890 7.03348 4.00000
19.38563 7.03348 4.00000
19.47238 7.03348 4.00000
19.55915 7.03348 4.00000
19.64596 7.03348 4.00000
19.73278 7.03348 4.00000
19.81964 7.03348 4.00000
19.90651 7.03348 4.00000
19.99342 7.03348 4.00000
20.08034 7.03348 4.00000
20.16729 7.03348 4.00000
20.25426 7.03348 4.00000
20.34126 7.03348 4.00000
20.42828 7.03348 4.00000
20.51532 7.03348 4.00000
20.60239 7.03348 4.00000
20.68947 7.03348 4.00000
20.77658 7.03348 4.00000
20.86371 7.03348 4.00000
20.95087 7.03348 4.00000
21.03804 7.03348 4.00000
21.12523 7.03348 4.00000
21.21245 7.03348 4.00000
21.29968 7.03348 4.00000
21.38694 7.03348 4.00000
21.47422 7.03348 4.00000
21.56152 7.03348 4.00000
21.64883 7.03348 4.00000
21.73617 7.03348 4.00000
21.82353 7.03348 4.00000
21.91090 7.03348 4.00000
21.99830 7.03348 4.00000
22.08571 7.03348 4.00000
22.17314 7.03348 4.00000
22.26059 7.03348 4.00000
22.34806 7.03348 4.00000
22.43555 7.03348 4.00000
22.52306 7.03348 4.00000
22.61058 7.03348 4.00000
22.69812 7.03348 4.00000
22.78568 7.03348 4.00000
22.87326 7.03348 4.00000
22.96085 7.03348 4.00000
23.04846 7.03348 4.00000
23.13609 7.03348 4.00000
23.22373 7.03348 4.00000
23.31139 7.03348 4.00000
23.39907 7.03348 4.00000
23.48677 7.03348 4.00000
23.57448 7.03348 4.00000
23.66220 7.03348 4.00000
23.74994 7.03348 4.00000
23.83770 7.03348 4.00000
23.92548 7.03348 4.00000
24.01326 7.03348 4.00000
24.10107 7.03348 4.00000
24.18889 7.03348 4.00000
24.27672 7.03348 4.00000
24.36457 7.03348 4.00000
24.45244 7.03348 4.00000
24.54032 7.03348 4.00000
24.62821 7.03348 4.00000
24.71612 7.03348 4.00000
24.80405 7.03348 4.00000
24.89198 7.03348 4.00000
24.97994 7.03348 4.00000
25.06790 7.03348 4.00000
25.15588 7.03348 4.00000
25.24387 7.03348 4.00000
25.33188 7.03348 4.00000
25.41990 7.03348 4.00000
25.50794 7.03348 4.00000
25.59598 7.03348 4.00000
25.68405 7.03348 4.00000
25.77212 7.03348 4.00000
25.86021 7.03348 4.00000
25.94831 7.03348 4.00000
26.03642 7.03348 4.00000
26.12455 7.03348 4.00000
26.21268 7.03348 4.00000
26.30084 7.03348 4.00000
26.38900 7.03348 4.00000
26.47717 7.03348 4.00000
26.56536 7.03348 4.00000
26.65356 7.03348 4.00000
26.74178 7.03348 4.00000
26.83000 7.03348 4.00000
26.91824 7.03348 4.00000
27.00648 7.03348 4.00000
27.09474 7.03348 4.00000
27.18302 7.03348 4.00000
27.27130 7.03348 4.00000
27.35959 7.03348 4.00000
27.44790 7.03348 4.00000
27.53622 7.03348 4.00000
27.62454 7.03348 4.00000
27.71288 7.03348 4.00000
27.80123 7.03348 4.00000
27.88960 7.03348 4.00000
27.97797 7.03348 4.00000
28.06635 7.03348 4.00000
28.15475 7.03348 4.00000
28.24315 7.03348 4.00000
28.33157 7.03348 4.00000
28.41999 7.03348 4.00000
28.50843 7.03348 4.00000
28.59687 7.03348 4.00000
28.68533 7.03348 4.00000
28.77380 7.03348 4.00000
28.86227 7.03348 4.00000
28.95076 7.03348 4.00000
29.03926 7.03348 4.00000
29.12776 7.03348 4.00000
29.21628 7.03348 4.00000
29.30481 7.03348 4.00000
29.39334 7.03348 4.00000
29.48189 7.03348 4.00000
29.57045 7.03348 4.00000
29.65901 7.03348 4.00000
29.74758 7.03348 4.00000
29.83617 7.03348 4.00000
29.92476 7.03348 4.00000
30.01336 7.03348 4.00000
30.10197 7.03348 4.00000
30.19059 7.03348 4.00000
30.27922 7.03348 4.00000
30.36786 7.03348 4.00000
30.45651 7.03348 4.00000
30.54517 7.03348 4.00000
30.63383 7.03348 4.00000
30.72250 7.03348 4.00000
30.81119 7.03348 4.00000
30.89988 7.03348 4.00000
30.98858 7.03348 4.00000
31.07729 7.03348 4.00000
31.16600 7.03348 4.00000
31.25473 7.03348 4.00000
31.34346 7.03348 4.00000
31.43220 7.03348 4.00000
31.52095 7.03348 4.00000
31.60971 7.03348 4.00000
31.69848 7.03348 4.00000
31.78725 7.03348 4.00000
31.87603 7.03348 4.00000
31.96482 7.03348 4.00000
32.05362 7.03348 4.00000
32.14243 7.03348 4.00000
32.23124 7.03348 4.00000

Angle 0.182774 2.189175

4.00000 7.03348 4.00000
4.00000 7.03348 4.00000
4.00000 7.03348 4.00000
4.00000 7.03348 4.00000
4.00000 7.03348 4.00000
4.00000 7.03348 4.00000
4.00000 7.03348 4.00000
4.00000 7.03348 4.00000
4.00000 7.03348 4.00000
4.00000 7.03348 4.00000
4.00000 7.03348 4.00000
4.00000 7.03348 4.00000
4.00000 7.03348 4.00000
4.00000 7.03348 4.00000
4.00000 7.03348 4.00000
4.00000 7.03348 4.00000
4.00000 7.03348 4.00000
4.00000 7.03348 4.00000
4.00000 7.03348 4.00000
4.00000 7.03348 4.00000
4.00000 7.03348 4.00000
4.00000 7.03348 4.00000
4.00000 7.03348 4.00000
4.00000 7.03348 4.00000
4.00000 7.03348 4.00000
4.00000 7.03348 4.00000
4.00000 7.03348 4.00000
4.00000 7.03348 4.00000
4.00000 7.03348 4.00000
4.00000 7.03348 4.00000
4.00000 7.03348 4.00000
4.00000 7.03348 4.00000
4.00000 7.03348 4.00000
4.00000 7.03348 4.00000
4.00000 7.03348 4.00000
4.00000 7.03348 4.00000
4.00000 7.03348 4.00000
4.00000 7.03348 4.00000
4.00000 7.03348 4.00000
4.00000 7.03348 4.00000
4.00000 7.03348 4.00000
4.00000 7.03348 4.00000
4.00000 7.03348 4.00000
4.00000 7.03348 4.00000
4.00000 7.03348 4.00000
4.00000 7.03348 4.00000
4.00000 7.03348 4.00000
4.00000 7.03348 4.00000
4.00000 7.03348 4.00000
4.00000 7.03348 4.00000
4.00000 7.03348 4.00000
4.00000 7.03348 4.00000
4.00000 7.03348 4.00000
4.00000 7.03348 4.00000
4.00000 7.03348 4.00000
4.00000 7.03348 4.00000
4.00000 7.03348 4.00000
4.00000 7.03348 4.00000
4.00000 7.03348 4.00000
4.00000 7.03348 4.00000
4.00000 7.03348 4.00000
4.00000 7.03348 4.00000
4.00000 7.03348 4.00000
4.00000 7.03348 4.00000
4.00000 7.03348 4.00000
4.00000 7.03348 4.00000
4.00000 7.03348 4.00000
4.00000 7.03348 4.00000
4.00000 7.03348 4.00000
4.00000 7.03348 4.00000
4.00000 7.03348 4.00000
4.00000 7.03348 4.00000
4.00000 7.03348 4.00000
4.00000 7.03348 4.00000
4.00000 7.03348 4.00000
4.00000 7.03348 4.00000
4.00000 7.03348 4.00000
4.00000 7.03348 4.00000
4.00000 7.03348 4.00000
4.00000 7.03348 4.00000
4.00000 7.03348 4.00000
4.00000 7.03348 4.00000
4.00000 7.03348 4.00000
4.00000 7.03348 4.00000
4.00000 7.03348 4.00000
4.00000 7.03348 4.00000
4.00000 7.03348 4.00000
4.00000 7.03348 4.00000
4.00000 7.03348 4.00000
4.00000 7.03348 4.00000
4.00000 7.03348 4.00000
4.00000 7.03348 4.00000
4.00000 7.03348 4.00000
4.00000 7.03348 4.00000
4.00000 7.03348 4.00000
4.00000 7.03348 4.00000
4.00000 7.03348 4.00000
4.00000 7.03348 4.00000
4.00000 7.03348 4.00000
4.00000 7.03348 4.00000
4.00000 7.03348 4.00000
4.00000 7.03348 4.00000
4.00000 7.03348 4.00000
4.00000 7.03348 4.00000
4.00000 7.03348 4.00000
4.00000 7.03348 4.00000
4.00000 7.03348 4.00000
4.00000 7.03348 4.00000
4.00000 7.03348 4.00000
4.00000 7.03348 4.00000
4.00000 7.03348 4.00000
4.00000 7.03348 4.00000
4.00000 7.03348 4.00000
4.00000 7.03348 4.00000
4.00000 7.03348 4.00000
4.00000 7.03348 4.00000
4.00000 7.03348 4.00000
4.00000 7.03348 4.00000
4.00000 7.03348 4.00000
4.00000 7.03348 4.00000
4.00000 7.03348 4.00000
4.00000 7.03348 4.00000
4.00000 7.03348 4.00000
4.00000 7.03348 4.00000
4.00000 7.03348 4.00000
4.00000 7.03348 4.00000
4.00000 7.03348 4.00000
4.00000 7.03348 4.00000
4.00000 7.03348 4.00000
4.00000 7.03348 4.00000
4.00000 7.03348 4.00000
4.00000 7.03348 4.00000
4.00000 7.03348 4.00000
4.00000 7.03348 4.00000
4.00000 7.03348 4.00000
4.00000 7.03348 4.00000
4.00000 7.03348 4.00000
4.00000 7.03348 4.00000
4.00000 7.03348 4.00000
4.00000 7.03348 4.00000
4.00000 7.03348 4.00000
4.00000 7.03348 4.00000
4.00000 7.03348 4.00000
4.00000 7.03348 4.00000
4.00000 7.03348 4.00000
4.00000 7.03348 4.00000
4.00000 7.03348 4.00000
4.00000 7.03348 4.00000
4.00000 7.03348 4.00000
4.00000 7.03348 4.00000
4.00000 7.03348 4.00000
4.00000 7.03348 4.00000
4.00000 7.03348 4.00000
4.00000 7.03348 4.00000
4.00000 7.03348 4.00000
4.00000 7.03348 4.00000
4.00000 7.03348 4.00000
4.00000 7.03348 4.00000
4.00000 7.03348 4.00000
4.00000 7.03348 4.00000
4.00000 7.03348 4.00000
4.00000 7.03348 4.00000
4.00000 7.03348 4.00000
4.00000 7.03348 4.00000
4.00000 7.03348 4.00000
4.00000 7.03348 4.00000
4.00000 7.03348 4.00000
4.00000 7.03348 4.00000
4.00000 7.03348 4.00000
4.00000 7.03348 4.00000
4.00000 7.03348 4.00000
4.00000 7.03348 4.00000
4.00000 7.03348 4.00000
4.00000 7.03348 4.00000
4.00000 7.03348 4.00000
4.00000 7.03348 4.00000
4.00000 7.03348 4.00000
4.00000 7.03348 4.00000
4.00000 7.03348 4.00000
4.00000 7.03348 4.00000
4.00000 7.03348 4.00000
4.00000 7.03348 4.00000
4.00000 7.03348 4.00000
4.00000 7.03348 4.00000
4.00000 7.03348 4.00000
4.00000 7.03348 4.00000
4.00000 7.03348 4.00000
4.00000 7.03348 4.00000
4.00000 7.03348 4.00000
4.00000 7.03348 4.00000
4.00000 7.03348 4.00000
4.00000 7.03348 4.00000
4.00000 7.03348 4.00000
4.00000 7.03348 4.00000
4.00000 7.03348 4.00000
4.00000 7.03348 4.00000
4.00000 7.03348 4.00000
4.00000 7.03348 4.00000
4.00000 7.03348 4.00000
4.00000 7.03348 4.00000
4.00000 7.03348 4.00000
4.00000 7.03348 4.00000
4.00000 7.03348 4.00000
4.00000 7.03348 4.00000
4.00000 7.03349 4.00000
4.00000 7.03348 4.00000
4.00000 7.03348 4.00000
4.00000 7.03348 4.00000
4.00000 7.03350 4.00000
4.00000 7.03348 4.00000
4.00000 7.03348 4.00000
4.00115 7.05535 4.00115
4.00491 7.12790 4.00491
4.00862 7.20067 4.00862
4.01228 7.27364 4.01228
4.01592 7.34678 4.01592
4.01954 7.42006 4.01954
4.02316 7.49347 4.02316
4.02678 7.56696 4.02678
4.03044 7.64050 4.03044
4.03413 7.71407 4.03413
4.03788 7.78763 4.03788
4.04171 7.86114 4.04171
4.04563 7.93456 4.04563
4.04967 8.00784 4.04967
4.05385 8.08093 4.05386
4.05822 8.15377 4.05822
4.06279 8.22628 4.06279
4.06761 8.29838 4.06761
4.07274 8.36996 4.07273
4.07822 8.44091 4.07822
4.08415 8.51108 4.08415
4.09060 8.58028 4.09060
4.09769 8.64830 4.09769
4.10550 8.71496 4.10550
4.11397 8.78038 4.11397
4.12314 8.84447 4.12314
4.13307 8.90715 4.13307
4.14379 8.96831 4.14379
4.15535 9.02788 4.15535
4.16777 9.08580 4.16777
4.18109 9.14200 4.18109
4.19532 9.19646 4.19532
4.21048 9.24914 4.21048
4.22656 9.30005 4.22656
4.24355 9.34920 4.24355
4.26144 9.39664 4.26144
4.28020 9.44241 4.28019
4.29979 9.48657 4.29979
4.32019 9.52919 4.32019
4.34136 9.57035 4.34135
4.36324 9.61013 4.36324
4.38582 9.64860 4.38582
4.40906 9.68581 4.40906
4.43293 9.72182 4.43293
4.45743 9.75665 4.45743
4.48257 9.79025 4.48257
4.50841 9.82250 4.50841
4.53509 9.85313 4.53509
4.56293 9.88152 4.56293
4.59260 9.90627 4.59264
4.62587 9.92395 4.62587
4.01427 7.31356 7.93209
4.01253 7.27864 8.05305
4.01108 7.24958 8.16792
4.00984 7.22497 8.27816
4.00878 7.20390 8.38477
4.00786 7.18566 8.48844
4.00705 7.16976 8.58972
4.00634 7.15581 8.68900
4.00571 7.14350 8.78661
4.00515 7.13261 8.88279
4.00466 7.12292 8.97776
4.00421 7.11428 9.07166
4.00381 7.10656 9.16466
4.00346 7.09964 9.25687
4.00313 7.09343 9.34838
4.00284 7.08784 9.43928
4.00258 7.08280 9.52965
4.00235 7.07825 9.61955
4.00213 7.07415 9.70903
4.00194 7.07044 9.79814
4.00176 7.06709 9.88692
4.00160 7.06404 9.97542
4.00146 7.06128 10.06367
4.00133 7.05878 10.15168
4.00121 7.05651 10.23950
4.00110 7.05445 10.32714
4.00100 7.05257 10.41462
4.00091 7.05087 10.50197
4.00083 7.04933 10.58919
4.00076 7.04792 10.67630
4.00069 7.04663 10.76333
4.00063 7.04547 10.85027
4.00057 7.04440 10.93715
4.00052 7.04343 11.02395
4.00048 7.04255 11.11070
4.00044 7.04177 11.19740
4.00040 7.04102 11.28409
4.00036 7.04035 11.37073
4.00033 7.03975 11.45734
4.00029 7.03921 11.54393
4.00027 7.03870 11.63050
4.00025 7.03823 11.71708
4.00023 7.03781 11.80364
4.00021 7.03743 11.89019
4.00019 7.03707 11.97675
4.00017 7.03676 12.06330
4.00016 7.03646 12.14987
4.00014 7.03621 12.23641
4.00013 7.03596 12.32300
4.00012 7.03574 12.40958
4.00011 7.03555 12.49615
4.00010 7.03536 12.58278
4.00009 7.03519 12.66940
4.00008 7.03504 12.75605
4.00007 7.03491 12.84272
4.00007 7.03480 12.92931
4.00006 7.03466 13.01603
4.00006 7.03455 13.10274
4.00005 7.03446 13.18948
4.00005 7.03437 13.27624
4.00004 7.03429 13.36303
4.00004 7.03422 13.44984
4.00003 7.03416 13.53667
4.00003 7.03409 13.62353
4.00003 7.03404 13.71041
4.00003 7.03399 13.79731
4.00002 7.03394 13.88424
4.00002 7.03390 13.97119
4.00002 7.03386 14.05816
4.00002 7.03383 14.14516
4.00002 7.03379 14.23218
4.00001 7.03377 14.31922
4.00001 7.03374 14.40629
4.00001 7.03371 14.49338
4.00001 7.03369 14.58049
4.00001 7.03367 14.66762
4.00001 7.03365 14.75478
4.00001 7.03364 14.84195
4.00001 7.03362 14.92915
4.00001 7.03361 15.01637
4.00001 7.03360 15.10362
4.00001 7.03358 15.19088
4.00000 7.03357 15.27817
4.00000 7.03356 15.36547
4.00000 7.03355 15.45280
4.00000 7.03355 15.54015
4.00000 7.03355 15.62660
4.00000 7.03355 15.71395
4.00000 7.03354 15.80133
4.00000 7.03354 15.88873
4.00000 7.03353 15.97615
4.00000 7.03353 16.06359
4.00000 7.03352 16.15106
4.00000 7.03352 16.23854
4.00000 7.03351 16.32605
4.00000 7.03351 16.41358
4.00000 7.03351 16.50112
4.00000 7.03351 16.58869
4.00000 7.03350 16.67628
4.00000 7.03350 16.76389
4.00000 7.03350 16.85152
4.00000 7.03350 16.93917
4.00000 7.03350 17.02683
4.00000 7.03349 17.11452
4.00000 7.03349 17.20222
4.00000 7.03349 17.28995
4.00000 7.03349 17.37769
4.00000 7.03349 17.46545
4.00000 7.03349 17.55323
4.00000 7.03349 17.64102
4.00000 7.03349 17.72884
4.00000 7.03349 17.81667
4.00000 7.03349 17.90452
4.00000 7.03349 17.99238
4.00000 7.03348 18.08026
4.00000 7.03348 18.16816
4.00000 7.03348 18.25608
4.00000 7.03348 18.34401
4.00000 7.03348 18.43196
4.00000 7.03348 18.51993
4.00000 7.03348 18.60791
4.00000 7.03348 18.69591
4.00000 7.03348 18.78392
4.00000 7.03348 18.87195
4.00000 7.03348 18.95999
4.00000 7.03348 19.04805
4.00000 7.03348 19.13613
4.00000 7.03348 19.22422
4.00000 7.03348 19.31232
4.00000 7.03348 19.40044
4.00000 7.03348 19.48858
4.00000 7.03348 19.57673
4.00000 7.03348 19.66489
4.00000 7.03348 19.75307
4.00000 7.03348 19.84126
4.00000 7.03348 19.92947
4.00000 7.03348 20.01769
4.00000 7.03348 20.10592

Angle 0.501616 3.212557

4.00000 7.03348 4.00000
4.00000 7.03348 4.00000
4.00000 7.03348 4.00000
4.00000 7.03349 4.00000
4.00000 7.03348 4.00000
4.00000 7.03348 4.00000
4.00000 7.03348 4.00000
4.00000 7.03348 4.00000
4.00000 7.03348 4.00000
4.00000 7.03348 4.00000
4.00000 7.03348 4.00000
4.00000 7.03348 4.00000
4.00000 7.03349 4.00000
4.00000 7.03348 4.00000
4.00000 7.03348 4.00000
4.00000 7.03348 4.00000
4.00000 7.03348 4.00000
4.00000 7.03348 4.00000
4.00000 7.03348 4.00000
4.00000 7.03348 4.00000
4.00000 7.03348 4.00000
4.00000 7.03348 4.00000
4.00000 7.03348 4.00000
4.00000 7.03348 4.00000
4.00000 7.03348 4.00000
4.00000 7.03348 4.00000
4.00000 7.03348 4.00000
4.00000 7.03348 4.00000
4.00000 7.03348 4.00000
4.00000 7.03348 4.00000
4.00000 7.03348 4.00000
4.00000 7.03348 4.00000
4.00000 7.03348 4.00000
4.00000 7.03348 4.00000
4.00000 7.03348 4.00000
4.00000 7.03348 4.00000
4.00000 7.03348 4.00000
4.00000 7.03348 4.00000
4.00000 7.03348 4.00000
4.00000 7.03348 4.00000
4.00000 7.03348 4.00000
4.00000 7.03348 4.00000
4.00000 7.03348 4.00000
4.00000 7.03348 4.00000
4.00000 7.03348 4.00000
4.00000 7.03348 4.00000
4.00000 7.03348 4.00000
4.00000 7.03348 4.00000
4.00000 7.03348 4.00000
4.00000 7.03348 4.00000
4.00000 7.03348 4.00000
4.00000 7.03348 4.00000
4.00000 7.03348 4.00000
4.00000 7.03348 4.00000
4.00000 7.03348 4.00000
4.00000 7.03348 4.00000
4.00000 7.03348 4.00000
4.00000 7.03348 4.00000
4.00000 7.03348 4.00000
4.00000 7.03348 4.00000
4.00000 7.03348 4.00000
4.00000 7.03348 4.00000
4.00000 7.03348 4.00000
4.00000 7.03348 4.00000
4.00000 7.03348 4.00000
4.00000 7.03348 4.00000
4.00000 7.03348 4.00000
4.00000 7.03348 4.00000
4.00000 7.03348 4.00000
4.00000 7.03348 4.00000
4.00000 7.03348 4.00000
4.00000 7.03348 4.00000
4.00000 7.03348 4.00000
4.00000 7.03348 4.00000
4.00000 7.03348 4.00000
4.00000 7.03348 4.00000
4.00000 7.03348 4.00000
4.00000 7.03348 4.00000
4.00000 7.03348 4.00000
4.00000 7.03349 4.00000
4.00000 7.03349 4.00000
4.00000 7.03349 4.00000
4.00000 7.03348 4.00000
4.00000 7.03348 4.00000
4.00000 7.03348 4.00000
4.00000 7.03348 4.00000
4.00000 7.03348 4.00000
4.00000 7.03348 4.00000
4.00000 7.03348 4.00000
4.00000 7.03347 4.00000
4.00000 7.03348 4.00000
4.00000 7.03348 4.00000
4.00000 7.03348 4.00000
4.00000 7.03348 4.00000
4.00000 7.03348 4.00000
4.00000 7.03348 4.00000
4.00000 7.03348 4.00000
4.00000 7.03348 4.00000
4.00000 7.03348 4.00000
4.00000 7.03348 4.00000
4.00000 7.03348 4.00000
4.00000 7.03348 4.00000
4.00000 7.03348 4.00000
4.00000 7.03348 4.00000
4.00000 7.03348 4.00000
4.00000 7.03348 4.00000
4.00000 7.03348 4.00000
4.00000 7.03348 4.00000
4.00000 7.03348 4.00000
4.00000 7.03348 4.00000
4.00000 7.03348 4.00000
4.00000 7.03348 4.00000
4.00000 7.03348 4.00000
4.00000 7.03348 4.00000
4.00000 7.03348 4.00000
4.00000 7.03348 4.00000
4.00000 7.03348 4.00000
4.00000 7.03348 4.00000
4.00000 7.03348 4.00000
4.00000 7.03348 4.00000
4.00000 7.03348 4.00000
4.00000 7.03348 4.00000
4.00000 7.03348 4.00000
4.00000 7.03348 4.00000
4.00000 7.03348 4.00000
4.00000 7.03348 4.00000
4.00000 7.03348 4.00000
4.00000 7.03348 4.00000
4.00000 7.03348 4.00000
4.00000 7.03348 4.00000
4.00000 7.03348 4.00000
4.00000 7.03348 4.00000
4.00000 7.03348 4.00000
4.00000 7.03348 4.00000
4.00000 7.03348 4.00000
4.00000 7.03348 4.00000
4.00000 7.03348 4.00000
4.00000 7.03348 4.00000
4.00000 7.03348 4.00000
4.00000 7.03348 4.00000
4.00000 7.03348 4.00000
4.00000 7.03348 4.00000
4.00000 7.03348 4.00000
4.00000 7.03348 4.00000
4.00000 7.03348 4.00000
4.00000 7.03348 4.00000
4.00000 7.03348 4.00000
4.00000 7.03348 4.00000
4.00000 7.03348 4.00000
4.00000 7.03348 4.00000
4.00000 7.03348 4.00000
4.00000 7.03348 4.00000
4.00000 7.03348 4.00000
4.00000 7.03348 4.00000
4.00000 7.03348 4.00000
4.00000 7.03348 4.00000
4.00000 7.03348 4.00000
4.00000 7.03348 4.00000
4.00000 7.03348 4.00000
4.00000 7.03348 4.00000
4.00000 7.03348 4.00000
4.00000 7.03348 4.00000
4.00000 7.03348 4.00000
4.00000 7.03348 4.00000
4.00000 7.03348 4.00000
4.00000 7.03348 4.00000
4.00000 7.03348 4.00000
4.00000 7.03348 4.00000
4.00000 7.03348 4.00000
4.00000 7.03348 4.00000
4.00000 7.03348 4.00000
4.00000 7.03348 4.00000
4.00000 7.03348 4.00000
4.00000 7.03348 4.00000
4.00000 7.03348 4.00000
4.00000 7.03348 4.00000
4.00000 7.03348 4.00000
4.00000 7.03348 4.00000
4.00000 7.03348 4.00000
4.00000 7.03348 4.00000
4.00000 7.03348 4.00000
4.00000 7.03348 4.00000
4.00000 7.03348 4.00000
4.00000 7.03348 4.00000
4.00000 7.03348 4.00000
4.00000 7.03348 4.00000
4.00000 7.03348 4.00000
4.00000 7.03348 4.00000
4.00000 7.03348 4.00000
4.00000 7.03348 4.00000
4.00000 7.03348 4.00000
4.00000 7.03348 4.00000
4.00000 7.03348 4.00000
4.00000 7.03348 4.00000
4.00000 7.03348 4.00000
4.00000 7.03348 4.00000
4.00000 7.03348 4.00000
4.00000 7.03348 4.00000
4.00000 7.03348 4.00000
4.00000 7.03348 4.00000
4.00000 7.03346 4.00000
4.00000 7.03348 4.00000
4.00000 7.03348 4.00000
4.00000 7.03348 4.00000
4.00000 7.03348 4.00000
4.00000 7.03348 4.00000
4.00000 7.03348 4.00000
4.00000 7.03348 4.00000
4.00000 7.03348 4.00000
4.00000 7.03348 4.00000
4.00000 7.03348 4.00000
4.00000 7.03348 4.00000
4.00000 7.03348 4.00000
4.00000 7.03348 4.00000
4.00000 7.03348 4.00000
4.00000 7.03348 4.00000
4.00000 7.03348 4.00000
4.00000 7.03348 4.00000
4.00000 7.03348 4.00000
4.00000 7.03348 4.00000
4.00000 7.03348 4.00000
4.00000 7.03348 4.00000
4.00000 7.03348 4.00000
4.00000 7.03348 4.00000
4.00000 7.03348 4.00000
4.00000 7.03348 4.00000
4.00000 7.03348 4.00000
4.00000 7.03348 4.00000
4.00000 7.03348 4.00000
4.00000 7.03348 4.00000
4.00000 7.03348 4.00000
4.00000 7.03348 4.00000
4.00000 7.03348 4.00000
4.00000 7.03348 4.00000
4.00000 7.03348 4.00000
4.00000 7.03348 4.00000
4.00000 7.03348 4.00000
4.00000 7.03348 4.00000
4.00000 7.03348 4.00000
4.00000 7.03348 4.00000
4.00000 7.03348 4.00000
4.00000 7.03348 4.00000
4.00000 7.03348 4.00000
4.00000 7.03348 4.00000
4.00000 7.03348 4.00000
4.00000 7.03348 4.00000
4.00000 7.03348 4.00000
4.00000 7.03348 4.00000
4.00000 7.03348 4.00000
4.00000 7.03348 4.00000
4.00000 7.03348 4.00000
4.00000 7.03348 4.00000
4.00000 7.03348 4.00000
4.00000 7.03348 4.00000
4.00000 7.03348 4.00000
4.00000 7.03348 4.00000
4.00000 7.03348 4.00000
4.00000 7.03348 4.00000
4.00000 7.03348 4.00000
4.00000 7.03348 4.00000
4.00000 7.03350 4.00000
4.00000 7.03348 4.00000
4.00000 7.03348 4.00000
4.00000 7.03349 4.00000
4.00000 7.03349 4.00000
4.00000 7.03348 4.00000
4.00000 7.03349 4.00000
4.00000 7.03351 4.00000
4.00000 7.03348 4.00000
4.00000 7.03351 4.00000
4.00359 7.10226 4.00359
4.00747 7.17794 4.00747
4.01129 7.25380 4.01129
4.01508 7.32981 4.01508
4.01884 7.40595 4.01884
4.02260 7.48219 4.02260
4.02636 7.55848 4.02636
4.03015 7.63480 4.03015
4.03398 7.71112 4.03398
4.03787 7.78739 4.03787
4.04184 7.86357 4.04184
4.04590 7.93962 4.04590
4.05010 8.01548 4.05010
4.05445 8.09110 4.05445
4.05899 8.16640 4.05899
4.06377 8.24131 4.06377
4.06882 8.31573 4.06882
4.07421 8.38954 4.07421
4.08000 8.46260 4.08000
4.08628 8.53475 4.08628
4.09316 8.60576 4.09316
4.10076 8.67538 4.10076
4.10910 8.74360 4.10910
4.11816 8.81044 4.11816
4.12798 8.87580 4.12798
4.13862 8.93958 4.13862
4.15012 9.00169 4.15012
4.16253 9.06206 4.16253
4.17586 9.12061 4.17586
4.19016 9.17730 4.19016
4.20542 9.23211 4.20542
4.22166 9.28502 4.22166
4.23886 9.33606 4.23886
4.25700 9.38525 4.25700
4.27607 9.43266 4.27607
4.29602 9.47834 4.29602
4.31682 9.52237 4.31682
4.33843 9.56484 4.33843
4.36080 9.60582 4.36080
4.38390 9.64541 4.38390
4.40768 9.68367 4.40768
4.43212 9.72064 4.43212
4.45722 9.75636 4.45722
4.48298 9.79078 4.48298
4.50948 9.82379 4.50948
4.53687 9.85506 4.53687
4.56548 9.88390 4.56549
4.59614 9.90871 4.59614
4.63085 9.92544 4.63086
4.01397 7.30752 7.95186
4.01225 7.27293 8.07442
4.01081 7.24420 8.19088
4.00959 7.21989 8.30272
4.00854 7.19909 8.41094
4.00763 7.18112 8.51622
4.00683 7.16547 8.61910
4.00613 7.15176 8.71998
4.00552 7.13969 8.81918
4.00497 7.12901 8.91695
4.00448 7.11953 9.01349
4.00405 7.11109 9.10898
4.00366 7.10356 9.20355
4.00331 7.09682 9.29732
4.00300 7.09078 9.39039
4.00271 7.08535 9.48285
4.00246 7.08047 9.57477
4.00223 7.07607 9.66621
4.00202 7.07210 9.75723
4.00184 7.06852 9.84787
4.00167 7.06528 9.93819
4.00152 7.06236 10.02821
4.00138 7.05971 10.11796
4.00125 7.05733 10.20747
4.00114 7.05514 10.29680
4.00104 7.05317 10.38593
4.00094 7.05138 10.47490
4.00086 7.04976 10.56373
4.00078 7.04829 10.65242
4.00071 7.04695 10.74100
4.00064 7.04573 10.82948
4.00059 7.04464 10.91785
4.00053 7.04362 11.00618
4.00048 7.04270 11.09444
4.00045 7.04188 11.18260
4.00040 7.04112 11.27075
4.00037 7.04044 11.35881
4.00033 7.03980 11.44687
4.00031 7.03926 11.53484
4.00027 7.03872 11.62285
4.00025 7.03825 11.71081
4.00023 7.03783 11.79872
4.00021 7.03743 11.88666
4.00019 7.03708 11.97457
4.00017 7.03675 12.06247
4.00016 7.03647 12.15033
4.00014 7.03619 12.23822
4.00013 7.03595 12.32611
4.00012 7.03572 12.41400
4.00011 7.03552 12.50189
4.00010 7.03534 12.58978
4.00009 7.03517 12.67769
4.00008 7.03502 12.76560
4.00007 7.03488 12.85341
4.00007 7.03475 12.94133
4.00006 7.03464 13.02925
4.00006 7.03453 13.11718
4.00005 7.03444 13.20513
4.00005 7.03435 13.29309
4.00004 7.03427 13.38107
4.00004 7.03420 13.46906
4.00003 7.03413 13.55706
4.00003 7.03407 13.64508
4.00003 7.03402 13.73312
4.00002 7.03397 13.82117
4.00002 7.03392 13.90923
4.00002 7.03388 13.99732
4.00002 7.03384 14.08541
4.00002 7.03381 14.17353
4.00002 7.03378 14.26166
4.00001 7.03375 14.34980
4.00001 7.03372 14.43796
4.00001 7.03370 14.52614
4.00001 7.03368 14.61433
4.00001 7.03366 14.70254
4.00001 7.03364 14.79077
4.00001 7.03363 14.87901
4.00001 7.03361 14.96727
4.00001 7.03360 15.05554
4.00001 7.03359 15.14383
4.00000 7.03358 15.23213

Angle 0.235405 0.729161

4.00000 7.03348 4.00000
4.00000 7.03348 4.00000
4.00000 7.03348 4.00000
4.00000 7.03348 4.00000
4.00000 7.03348 4.00000
4.00000 7.03348 4.00000
4.00000 7.03348 4.00000
4.00000 7.03348 4.00000
4.00000 7.03348 4.00000
4.00000 7.03348 4.00000
4.00000 7.03348 4.00000
4.00000 7.03348 4.00000
4.00000 7.03348 4.00000
4.00000 7.03348 4.00000
4.00000 7.03348 4.00000
4.00000 7.03348 4.00000
4.00000 7.03348 4.00000
4.00000 7.03348 4.00000
4.00000 7.03348 4.00000
4.00000 7.03348 4.00000
4.00000 7.03348 4.00000
4.00000 7.03348 4.00000
4.00000 7.03348 4.00000
4.00000 7.03348 4.00000
4.00000 7.03348 4.00000
4.00000 7.03348 4.00000
4.00000 7.03348 4.00000
4.00000 7.03348 4.00000
4.00000 7.03348 4.00000
4.00000 7.03348 4.00000
4.00000 7.03348 4.00000
4.00000 7.03348 4.00000
4.00000 7.03348 4.00000
4.00000 7.03348 4.00000
4.00000 7.03348 4.00000
4.00000 7.03348 4.00000
4.00000 7.03348 4.00000
4.00000 7.03348 4.00000
4.00000 7.03348 4.00000
4.00000 7.03348 4.00000
4.00000 7.03348 4.00000
4.00000 7.03348 4.00000
4.00000 7.03348 4.00000
4.00000 7.03348 4.00000
4.00000 7.03348 4.00000
4.00000 7.03348 4.00000
4.00000 7.03348 4.00000
4.00000 7.03348 4.00000
4.00000 7.03348 4.00000
4.00000 7.03348 4.00000
4.00000 7.03348 4.00000
4.00000 7.03348 4.00000
4.00000 7.03348 4.00000
4.00000 7.03348 4.00000
4.00000 7.03348 4.00000
4.00000 7.03348 4.00000
4.00000 7.03348 4.00000
4.00000 7.03348 4.00000
4.00000 7.03349 4.00000
4.00000 7.03349 4.00000
4.00000 7.03348 4.00000
4.00000 7.03349 4.00000
4.00000 7.03348 4.00000
4.00000 7.03348 4.00000
4.00000 7.03348 4.00000
4.00000 7.03349 4.00000
4.00000 7.03348 4.00000
4.00000 7.03352 4.00000
4.00076 7.04795 4.00076
4.00479 7.12544 4.00479
4.00874 7.20314 4.00874
4.01265 7.28098 4.01265
4.01652 7.35896 4.01652
4.02037 7.43703 4.02037
4.02422 7.51516 4.02422
4.02809 7.59331 4.02809
4.03198 7.67145 4.03198
4.03593 7.74955 4.03593
4.03995 7.82755 4.03995
4.04406 7.90542 4.04406
4.04829 7.98309 4.04829
4.05267 8.06052 4.05267
4.05723 8.13762 4.05723
4.06202 8.21433 4.06202
4.06707 8.29055 4.06707
4.07245 8.36615 4.07245
4.07823 8.44101 4.07823
4.08449 8.51495 4.08449
4.09134 8.58776 4.09134
4.09891 8.65917 4.09891
4.10725 8.72906 4.10725
4.11633 8.79753 4.11633
4.12620 8.86446 4.12620
4.13691 8.92976 4.13691
4.14850 8.99332 4.14850
4.16102 9.05506 4.16102
4.17451 9.11492 4.17451
4.18898 9.17284 4.18898
4.20445 9.22879 4.20445
4.22093 9.28277 4.22093
4.23841 9.33479 4.23841
4.25686 9.38489 4.25686
4.27627 9.43313 4.27627
4.29659 9.47957 4.29659
4.31778 9.52430 4.31778
4.33979 9.56741 4.33979
4.36260 9.60899 4.36260
4.38614 9.64912 4.38614
4.41038 9.68787 4.41038
4.43531 9.72530 4.43531
4.46091 9.76142 4.46090
4.48719 9.79619 4.48718
4.51425 9.82945 4.51424
4.54225 9.86082 4.54226
4.57164 9.88947 4.57165
4.60343 9.91337 4.60342
4.64019 9.92732 4.64019
4.01350 7.29811 7.98360
4.01184 7.26472 8.10620
4.01044 7.23691 8.22297
4.00926 7.21337 8.33530
4.00824 7.19320 8.44411
4.00736 7.17577 8.55007
4.00658 7.16059 8.65370
4.00591 7.14730 8.75538
4.00531 7.13559 8.85541
4.00478 7.12525 8.95404
4.00430 7.11607 9.05147
4.00388 7.10790 9.14786
4.00350 7.10061 9.24335
4.00317 7.09410 9.33805
4.00287 7.08826 9.43207
4.00259 7.08302 9.52547
4.00235 7.07832 9.61835
4.00213 7.07408 9.71075
4.00193 7.07026 9.80273
4.00175 7.06682 9.89434
4.00159 7.06371 9.98562
4.00144 7.06090 10.07661
4.00131 7.05836 10.16733
4.00119 7.05606 10.25783
4.00108 7.05398 10.34811
4.00098 7.05210 10.43821
4.00089 7.05039 10.52814
4.00081 7.04884 10.61792
4.00073 7.04744 10.70758
4.00067 7.04616 10.79711
4.00061 7.04502 10.88653
4.00055 7.04396 10.97588
4.00050 7.04299 11.06515
4.00046 7.04214 11.15432
4.00041 7.04134 11.24344
4.00038 7.04064 11.33249
4.00034 7.03999 11.42150
4.00031 7.03939 11.51048
4.00028 7.03886 11.59939
4.00026 7.03836 11.68830
4.00024 7.03794 11.77713
4.00021 7.03751 11.86599
4.00019 7.03715 11.95481
4.00018 7.03683 12.04358
4.00016 7.03651 12.13238
4.00014 7.03624 12.22115
4.00013 7.03599 12.30991
4.00012 7.03576 12.39867
4.00011 7.03555 12.48742
4.00010 7.03537 12.57616
4.00009 7.03519 12.66491
4.00008 7.03504 12.75365
4.00007 7.03490 12.84239
4.00007 7.03477 12.93114
4.00006 7.03465 13.01988
4.00005 7.03454 13.10863
4.00005 7.03444 13.19739
4.00004 7.03435 13.28614
4.00004 7.03427 13.37491
4.00004 7.03420 13.46368
4.00003 7.03413 13.55245
4.00003 7.03407 13.64123
4.00003 7.03402 13.73002
4.00002 7.03397 13.81882
4.00002 7.03392 13.90763
4.00002 7.03388 13.99644
4.00002 7.03384 14.08527
4.00002 7.03381 14.17410
4.00002 7.03378 14.26295
4.00001 7.03375 14.35180
4.00001 7.03372 14.44066
4.00001 7.03370 14.52954
4.00001 7.03368 14.61842
4.00001 7.03366 14.70731
4.00001 7.03364 14.79621
4.00001 7.03364 14.88501
4.00001 7.03363 14.97393
4.00001 7.03361 15.06287
4.00001 7.03360 15.15181
4.00001 7.03359 15.24077
4.00001 7.03358 15.32973
4.00000 7.03357 15.41870
4.00000 7.03356 15.50769
4.00000 7.03356 15.59668
4.00000 7.03355 15.68568
4.00000 7.03354 15.77470
4.00000 7.03354 15.86372
4.00000 7.03353 15.95275
4.00000 7.03353 16.04179
4.00000 7.03352 16.13084
4.00000 7.03352 16.21990
4.00000 7.03352 16.30897
4.00000 7.03351 16.39805
4.00000 7.03351 16.48714
4.00000 7.03351 16.57623
4.00000 7.03350 16.66534
4.00000 7.03350 16.75446
4.00000 7.03350 16.84358
4.00000 7.03350 16.93271
4.00000 7.03350 17.02185
4.00000 7.03349 17.11100
4.00000 7.03349 17.20016
4.00000 7.03349 17.28933
4.00000 7.03349 17.37851
4.00000 7.03349 17.46769
4.00000 7.03349 17.55688
4.00000 7.03349 17.64609
4.00000 7.03349 17.73529
4.00000 7.03349 17.82451
4.00000 7.03349 17.91374
4.00000 7.03349 18.00297
4.00000 7.03348 18.09221
4.00000 7.03348 18.18146
4.00000 7.03348 18.27072
4.00000 7.03348 18.35999
4.00000 7.03348 18.44926
4.00000 7.03348 18.53854
4.00000 7.03348 18.62783
4.00000 7.03348 18.71713
4.00000 7.03348 18.80643
4.00000 7.03348 18.89574
4.00000 7.03348 18.98506
4.00000 7.03348 19.07438
4.00000 7.03348 19.16372
4.00000 7.03348 19.25306
4.00000 7.03348 19.34241
4.00000 7.03348 19.43176
4.00000 7.03348 19.52112
4.00000 7.03348 19.61049
4.00000 7.03348 19.69987
4.00000 7.03348 19.78925
4.00000 7.03348 19.87864
4.00000 7.03348 19.96804
4.00000 7.03348 20.05744
4.00000 7.03348 20.14685
4.00000 7.03348 20.23626
4.00000 7.03348 20.32569
4.00000 7.03348 20.41512
4.00000 7.03348 20.50455
4.00000 7.03348 20.59399
4.00000 7.03348 20.68344
4.00000 7.03348 20.77290
4.00000 7.03348 20.86236
4.00000 7.03348 20.95183
4.00000 7.03348 21.04130
4.00000 7.03348 21.13078
4.00000 7.03348 21.22027
4.00000 7.03348 21.30976
4.00000 7.03348 21.39926
4.00000 7.03348 21.48876
4.00000 7.03348 21.57827
4.00000 7.03348 21.66779
4.00000 7.03348 21.75731
4.00000 7.03348 21.84684
4.00000 7.03348 21.93637
4.00000 7.03348 22.02591
4.00000 7.03348 22.11546
4.00000 7.03348 22.20501
4.00000 7.03348 22.29456
4.00000 7.03348 22.38412
4.00000 7.03348 22.47369
4.00000 7.03348 22.56326
4.00000 7.03348 22.65284
4.00000 7.03348 22.74242
4.00000 7.03348 22.83201
4.00000 7.03348 22.92161
4.00000 7.03348 23.01121
4.00000 7.03348 23.10081
4.00000 7.03348 23.19042
4.00000 7.03348 23.28003
4.00000 7.03348 23.36965
4.00000 7.03348 23.45928
4.00000 7.03348 23.54891
4.00000 7.03348 23.63854
4.00000 7.03348 23.72818
4.00000 7.03348 23.81783
4.00000 7.03348 23.90748
4.00000 7.03348 23.99713
4.00000 7.03348 24.08679
4.00000 7.03348 24.17646
4.00000 7.03348 24.26613
4.00000 7.03348 24.35580
4.00000 7.03348 24.44548
4.00000 7.03348 24.53516
4.00000 7.03348 24.62485
4.00000 7.03348 24.71454
4.00000 7.03348 24.80424
4.00000 7.03348 24.89394
4.00000 7.03348 24.98365
4.00000 7.03348 25.07336
4.00000 7.03348 25.16307
4.00000 7.03348 25.25279
4.00000 7.03348 25.34251
4.00000 7.03348 25.43224
4.00000 7.03348 25.52197
4.00000 7.03348 25.61171
4.00000 7.03348 25.70145
4.00000 7.03348 25.79120
4.00000 7.03348 25.88095
4.00000 7.03348 25.97070
4.00000 7.03348 26.06046
4.00000 7.03348 26.15022
4.00000 7.03348 26.23998
4.00000 7.03348 26.32975
4.00000 7.03348 26.41953
4.00000 7.03348 26.50930
4.00000 7.03348 26.59909
4.00000 7.03348 26.68887
4.00000 7.03348 26.77866
4.00000 7.03348 26.86845
4.00000 7.03348 26.95825
4.00000 7.03348 27.04805
4.00000 7.03348 27.13786
4.00000 7.03348 27.22766
4.00000 7.03348 27.31748
4.00000 7.03348 27.40729
4.00000 7.03348 27.49711
4.00000 7.03348 27.58694
4.00000 7.03348 27.67676
4.00000 7.03348 27.76659
4.00000 7.03348 27.85643
4.00000 7.03348 27.94627
4.00000 7.03348 28.03611
4.00000 7.03348 28.12595
4.00000 7.03348 28.21580
4.00000 7.03348 28.30565
4.00000 7.03348 28.39551
4.00000 7.03348 28.48537
4.00000 7.03348 28.57523
4.00000 7.03348 28.66509
4.00000 7.03348 28.75496
4.00000 7.03348 28.84483
4.00000 7.03348 28.93471
4.00000 7.03348 29.02459
4.00000 7.03348 29.11447
4.00000 7.03348 29.20435
4.00000 7.03348 29.29424
4.00000 7.03348 29.38413
4.00000 7.03348 29.47403
4.00000 7.03348 29.56393
4.00000 7.03348 29.65383
4.00000 7.03348 29.74373
4.00000 7.03348 29.83364
4.00000 7.03348 29.92355
4.00000 7.03348 30.01346
4.00000 7.03348 30.10338
4.00000 7.03348 30.19330
4.00000 7.03348 30.28322
4.00000 7.03348 30.37315
4.00000 7.03348 30.46308
4.00000 7.03348 30.55301
4.00000 7.03348 30.64294
4.00000 7.03348 30.73288
4.00000 7.03348 30.82282
4.00000 7.03348 30.91276
4.00000 7.03348 31.00271
4.00000 7.03348 31.09266
4.00000 7.03348 31.18261
4.00000 7.03348 31.27256
4.00000 7.03348 31.36252
4.00000 7.03348 31.45248
4.00000 7.03348 31.54244
4.00000 7.03348 31.63241
4.00000 7.03348 31.72237
4.00000 7.03348 31.81234
4.00000 7.03348 31.90232
4.00000 7.03348 31.99229
4.00000 7.03348 32.08227
4.00000 7.03348 32.17225
4.00000 7.03348 32.26224
4.00000 7.03348 32.35222
4.00000 7.03348 32.44221
4.00000 7.03348 32.53220
4.00000 7.03348 32.62220
4.00000 7.03348 32.71219
4.00000 7.03348 32.80219
4.00000 7.03348 32.89219
4.00000 7.03348 32.98220
4.00000 7.03348 33.07220
4.00000 7.03348 33.16221
4.00000 7.03348 33.25222
4.00000 7.03348 33.34224
4.00000 7.03348 33.43225

Angle 0.316935 1.279209

4.00000 7.03348 4.00000
4.00000 7.03348 4.00000
4.00000 7.03348 4.00000
4.00000 7.03348 4.00000
4.00000 7.03348 4.00000
4.00000 7.03348 4.00000
4.00000 7.03348 4.00000
4.00000 7.03348 4.00000
4.00000 7.03348 4.00000
4.00000 7.03348 4.00000
4.00000 7.03348 4.00000
4.00000 7.03348 4.00000
4.00000 7.03348 4.00000
4.00000 7.03348 4.00000
4.00000 7.03348 4.00000
4.00000 7.03348 4.00000
4.00000 7.03348 4.00000
4.00000 7.03348 4.00000
4.00000 7.03348 4.00000
4.00000 7.03348 4.00000
4.00000 7.03348 4.00000
4.00000 7.03348 4.00000
4.00000 7.03348 4.00000
4.00000 7.03348 4.00000
4.00000 7.03348 4.00000
4.00000 7.03348 4.00000
4.00000 7.03348 4.00000
4.00000 7.03348 4.00000
4.00000 7.03348 4.00000
4.00000 7.03348 4.00000
4.00000 7.03348 4.00000
4.00000 7.03348 4.00000
4.00000 7.03348 4.00000
4.00000 7.03348 4.00000
4.00000 7.03348 4.00000
4.00000 7.03348 4.00000
4.00000 7.03348 4.00000
4.00000 7.03348 4.00000
4.00000 7.03348 4.00000
4.00000 7.03348 4.00000
4.00000 7.03348 4.00000
4.00000 7.03348 4.00000
4.00000 7.03348 4.00000
4.00000 7.03348 4.00000
4.00000 7.03348 4.00000
4.00000 7.03348 4.00000
4.00000 7.03348 4.00000
4.00000 7.03348 4.00000
4.00000 7.03348 4.00000
4.00000 7.03348 4.00000
4.00000 7.03348 4.00000
4.00000 7.03348 4.00000
4.00000 7.03348 4.00000
4.00000 7.03348 4.00000
4.00000 7.03348 4.00000
4.00000 7.03348 4.00000
4.00000 7.03348 4.00000
4.00000 7.03348 4.00000
4.00000 7.03348 4.00000
4.00000 7.03348 4.00000
4.00000 7.03348 4.00000
4.00000 7.03348 4.00000
4.00000 7.03348 4.00000
4.00000 7.03348 4.00000
4.00000 7.03348 4.00000
4.00000 7.03348 4.00000
4.00000 7.03348 4.00000
4.00000 7.03348 4.00000
4.00000 7.03348 4.00000
4.00000 7.03348 4.00000
4.00000 7.03348 4.00000
4.00000 7.03348 4.00000
4.00000 7.03348 4.00000
4.00000 7.03348 4.00000
4.00000 7.03348 4.00000
4.00000 7.03348 4.00000
4.00000 7.03348 4.00000
4.00000 7.03348 4.00000
4.00000 7.03348 4.00000
4.00000 7.03348 4.00000
4.00000 7.03348 4.00000
4.00000 7.03348 4.00000
4.00000 7.03348 4.00000
4.00000 7.03348 4.00000
4.00000 7.03348 4.00000
4.00000 7.03348 4.00000
4.00000 7.03348 4.00000
4.00000 7.03348 4.00000
4.00000 7.03348 4.00000
4.00000 7.03348 4.00000
4.00000 7.03348 4.00000
4.00000 7.03348 4.00000
4.00000 7.03348 4.00000
4.00000 7.03348 4.00000
4.00000 7.03348 4.00000
4.00000 7.03348 4.00000
4.00000 7.03348 4.00000
4.00000 7.03348 4.00000
4.00000 7.03348 4.00000
4.00000 7.03348 4.00000
4.00000 7.03348 4.00000
4.00000 7.03348 4.00000
4.00000 7.03348 4.00000
4.00000 7.03348 4.00000
4.00000 7.03348 4.00000
4.00000 7.03348 4.00000
4.00000 7.03348 4.00000
4.00000 7.03348 4.00000
4.00000 7.03348 4.00000
4.00000 7.03348 4.00000
4.00000 7.03348 4.00000
4.00000 7.03348 4.00000
4.00000 7.03348 4.00000
4.00000 7.03348 4.00000
4.00000 7.03348 4.00000
4.00000 7.03348 4.00000
4.00000 7.03348 4.00000
4.00000 7.03348 4.00000
4.00000 7.03348 4.00000
4.00000 7.03348 4.00000
4.00000 7.03348 4.00000
4.00000 7.03348 4.00000
4.00000 7.03348 4.00000
4.00000 7.03348 4.00000
4.00000 7.03348 4.00000
4.00000 7.03348 4.00000
4.00000 7.03348 4.00000
4.00000 7.03348 4.00000
4.00000 7.03348 4.00000
4.00000 7.03348 4.00000
4.00000 7.03348 4.00000
4.00000 7.03348 4.00000
4.00000 7.03348 4.00000
4.00000 7.03348 4.00000
4.00000 7.03348 4.00000
4.00000 7.03348 4.00000
4.00000 7.03348 4.00000
4.00000 7.03348 4.00000
4.00000 7.03348 4.00000
4.00000 7.03348 4.00000
4.00000 7.03348 4.00000
4.00000 7.03348 4.00000
4.00000 7.03348 4.00000
4.00000 7.03348 4.00000
4.00000 7.03348 4.00000
4.00000 7.03348 4.00000
4.00000 7.03348 4.00000
4.00000 7.03348 4.00000
4.00000 7.03348 4.00000
4.00000 7.03348 4.00000
4.00000 7.03348 4.00000
4.00000 7.03348 4.00000
4.00000 7.03348 4.00000
4.00000 7.03348 4.00000
4.00000 7.03348 4.00000
4.00000 7.03348 4.00000
4.00000 7.03348 4.00000
4.00000 7.03348 4.00000
4.00000 7.03349 4.00000
4.00000 7.03348 4.00000
4.00000 7.03348 4.00000
4.00000 7.03349 4.00000
4.00000 7.03348 4.00000
4.00000 7.03348 4.00000
4.00000 7.03348 4.00000
4.00039 7.04084 4.00040
4.00443 7.11847 4.00443
4.00840 7.19641 4.00840
4.01233 7.27451 4.01233
4.01621 7.35274 4.01621
4.02008 7.43106 4.02008
4.02394 7.50944 4.02394
4.02782 7.58784 4.02782
4.03172 7.66624 4.03172
4.03568 7.74458 4.03568
4.03970 7.82284 4.03970
4.04382 7.90095 4.04382
4.04806 7.97887 4.04806
4.05244 8.05655 4.05244
4.05700 8.13390 4.05700
4.06179 8.21086 4.06179
4.06685 8.28731 4.06685
4.07223 8.36317 4.07223
4.07801 8.43827 4.07801
4.08427 8.51245 4.08427
4.09112 8.58550 4.09112
4.09868 8.65715 4.09868
4.10703 8.72727 4.10703
4.11611 8.79596 4.11611
4.12599 8.86310 4.12599
4.13671 8.92860 4.13671
4.14832 8.99236 4.14832
4.16086 9.05429 4.16086
4.17436 9.11432 4.17436
4.18886 9.17240 4.18886
4.20437 9.22850 4.20437
4.22089 9.28262 4.22089
4.23840 9.33477 4.23840
4.25690 9.38499 4.25690
4.27636 9.43334 4.27636
4.29673 9.47988 4.29673
4.31797 9.52470 4.31797
4.34005 9.56790 4.34005
4.36291 9.60955 4.36291
4.38652 9.64975 4.38652
4.41083 9.68856 4.41083
4.43582 9.72605 4.43582
4.46149 9.76222 4.46149
4.48785 9.79703 4.48785
4.51498 9.83031 4.51498
4.54308 9.86170 4.54308
4.57259 9.89029 4.57260
4.60454 9.91403 4.60454
4.64164 9.92750 4.64164
7.98830 7.29675 4.01343
8.11088 7.26354 4.01178
8.22771 7.23585 4.01039
8.34008 7.21243 4.00921
8.44896 7.19236 4.00820
8.55501 7.17501 4.00732
8.65874 7.15990 4.00655
8.76052 7.14666 4.00587
8.86066 7.13501 4.00528
8.95941 7.12472 4.00475
9.05695 7.11558 4.00428
9.15347 7.10745 4.00386
9.24908 7.10020 4.00348
9.34391 7.09372 4.00315
9.43805 7.08791 4.00285
9.53159 7.08270 4.00258
9.62459 7.07802 4.00233
9.71712 7.07380 4.00211
9.80924 7.07001 4.00192
9.90098 7.06658 4.00174
9.99239 7.06349 4.00158
10.08351 7.06070 4.00143
10.17437 7.05817 4.00130
10.26499 7.05589 4.00118
10.35541 7.05382 4.00107
10.44564 7.05195 4.00097
10.53570 7.05025 4.00088
10.62562 7.04872 4.00080
10.71540 7.04732 4.00073
10.80507 7.04606 4.00066
10.89465 7.04489 4.00060
10.98410 7.04387 4.00055
11.07349 7.04291 4.00050
11.16280 7.04205 4.00045
11.25203 7.04129 4.00041
11.34122 7.04057 4.00037
11.43037 7.03991 4.00034
11.51945 7.03934 4.00031
11.60850 7.03881 4.00028
11.69753 7.03831 4.00026
11.78651 7.03787 4.00023
11.87547 7.03748 4.00021
11.96439 7.03713 4.00019
12.05333 7.03678 4.00017
12.14221 7.03649 4.00016
12.23112 7.03621 4.00014
12.32000 7.03596 4.00013
12.40885 7.03574 4.00012
12.49772 7.03553 4.00011
12.58658 7.03534 4.00010
12.67544 7.03517 4.00009
12.76430 7.03502 4.00008
12.85317 7.03488 4.00007
12.94197 7.03477 4.00007
13.03082 7.03465 4.00006
13.11970 7.03453 4.00005
13.20856 7.03443 4.00005
13.29743 7.03434 4.00004
13.38630 7.03426 4.00004
13.47518 7.03419 4.00004
13.56407 7.03412 4.00003
13.65297 7.03406 4.00003
13.74187 7.03401 4.00003
13.83078 7.03396 4.00002
13.91969 7.03392 4.00002
14.00862 7.03387 4.00002
14.09755 7.03384 4.00002
14.18649 7.03380 4.00002
14.27543 7.03377 4.00002
14.36439 7.03374 4.00001
14.45335 7.03372 4.00001
14.54232 7.03370 4.00001
14.63130 7.03367 4.00001
14.72029 7.03366 4.00001
14.80929 7.03364 4.00001
14.89818 7.03364 4.00001
14.98720 7.03362 4.00001
15.07623 7.03361 4.00001
15.16527 7.03360 4.00001
15.25432 7.03359 4.00001
15.34338 7.03358 4.00001
15.43245 7.03357 4.00000
15.52153 7.03356 4.00000
15.61061 7.03355 4.00000
15.69971 7.03355 4.00000
15.78882 7.03354 4.00000
15.87794 7.03354 4.00000
15.96707 7.03353 4.00000
16.05620 7.03353 4.00000
16.14535 7.03352 4.00000
16.23451 7.03352 4.00000
16.32367 7.03351 4.00000
16.41284 7.03351 4.00000
16.50202 7.03351 4.00000
16.59121 7.03351 4.00000
16.68041 7.03350 4.00000
16.76962 7.03350 4.00000
16.85884 7.03350 4.00000
16.94806 7.03350 4.00000
17.03729 7.03350 4.00000
17.12653 7.03349 4.00000
17.21578 7.03349 4.00000
17.30504 7.03349 4.00000
17.39430 7.03349 4.00000
17.48358 7.03349 4.00000
17.57286 7.03349 4.00000
17.66214 7.03349 4.00000
17.75144 7.03349 4.00000
17.84074 7.03349 4.00000
17.93005 7.03349 4.00000
18.01937 7.03349 4.00000
18.10870 7.03348 4.00000
18.19803 7.03348 4.00000
18.28737 7.03348 4.00000
18.37671 7.03348 4.00000
18.46607 7.03348 4.00000
18.55543 7.03348 4.00000
18.64480 7.03348 4.00000
18.73417 7.03348 4.00000
18.82355 7.03348 4.00000
18.91294 7.03348 4.00000
19.00234 7.03348 4.00000
19.09174 7.03348 4.00000
19.18115 7.03348 4.00000
19.27056 7.03348 4.00000
19.35998 7.03348 4.00000
19.44941 7.03348 4.00000
19.53885 7.03348 4.00000
19.62829 7.03348 4.00000
19.71773 7.03348 4.00000
19.80719 7.03348 4.00000
19.89665 7.03348 4.00000
19.98611 7.03348 4.00000
20.07558 7.03348 4.00000
20.16506 7.03348 4.00000
20.25455 7.03348 4.00000
20.34404 7.03348 4.00000
20.43353 7.03348 4.00000
20.52303 7.03348 4.00000
20.61254 7.03348 4.00000
20.70205 7.03348 4.00000
20.79157 7.03348 4.00000
20.88110 7.03348 4.00000
20.97063 7.03348 4.00000
21.06017 7.03348 4.00000
21.14971 7.03348 4.00000
21.23925 7.03348 4.00000
21.32881 7.03348 4.00000
21.41837 7.03348 4.00000
21.50793 7.03348 4.00000
21.59750 7.03348 4.00000
21.68707 7.03348 4.00000
21.77665 7.03348 4.00000
21.86624 7.03348 4.00000
21.95583 7.03348 4.00000
22.04542 7.03348 4.00000
22.13502 7.03348 4.00000
22.22463 7.03348 4.00000
22.31424 7.03348 4.00000
22.40386 7.03348 4.00000
22.49348 7.03348 4.00000
22.58310 7.03348 4.00000
22.67273 7.03348 4.00000
22.76237 7.03348 4.00000
22.85201 7.03348 4.00000
22.94166 7.03348 4.00000
23.03131 7.03348 4.00000
23.12096 7.03348 4.00000
23.21062 7.03348 4.00000
23.30029 7.03348 4.00000
23.38995 7.03348 4.00000
23.47963 7.03348 4.00000
23.56931 7.03348 4.00000
23.65899 7.03348 4.00000
23.74868 7.03348 4.00000
23.83837 7.03348 4.00000
23.92807 7.03348 4.00000
24.01777 7.03348 4.00000
24.10747 7.03348 4.00000
24.19718 7.03348 4.00000
24.28690 7.03348 4.00000
24.37662 7.03348 4.00000
24.46634 7.03348 4.00000
24.55607 7.03348 4.00000
24.64580 7.03348 4.00000
24.73553 7.03348 4.00000

Angle 0.598908 0.295280

4.00000 7.03348 4.00000
4.00000 7.03348 4.00000
4.00000 7.03348 4.00000
4.00000 7.03348 4.00000
4.00000 7.03348 4.00000
4.00000 7.03348 4.00000
4.00000 7.03348 4.00000
4.00000 7.03348 4.00000
4.00000 7.03348 4.00000
4.00000 7.03348 4.00000
4.00000 7.03348 4.00000
4.00000 7.03348 4.00000
4.00000 7.03348 4.00000
4.00000 7.03348 4.00000
4.00000 7.03348 4.00000
4.00000 7.03348 4.00000
4.00000 7.03348 4.00000
4.00000 7.03348 4.00000
4.00000 7.03348 4.00000
4.00000 7.03348 4.00000
4.00000 7.03348 4.00000
4.00000 7.03348 4.00000
4.00000 7.03348 4.00000
4.00000 7.03348 4.00000
4.00000 7.03348 4.00000
4.00000 7.03348 4.00000
4.00000 7.03348 4.00000
4.00000 7.03348 4.00000
4.00000 7.03348 4.00000
4.00000 7.03348 4.00000
4.00000 7.03348 4.00000
4.00000 7.03348 4.00000
4.00000 7.03348 4.00000
4.00000 7.03348 4.00000
4.00000 7.03348 4.00000
4.00000 7.03348 4.00000
4.00000 7.03348 4.00000
4.00000 7.03348 4.00000
4.00000 7.03348 4.00000
4.00000 7.03348 4.00000
4.00000 7.03348 4.00000
4.00000 7.03348 4.00000
4.00000 7.03348 4.00000
4.00000 7.03348 4.00000
4.00000 7.03348 4.00000
4.00000 7.03348 4.00000
4.00000 7.03348 4.00000
4.00000 7.03348 4.00000
4.00000 7.03348 4.00000
4.00000 7.03348 4.00000
4.00000 7.03348 4.00000
4.00000 7.03348 4.00000
4.00000 7.03348 4.00000
4.00000 7.03348 4.00000
4.00000 7.03348 4.00000
4.00000 7.03348 4.00000
4.00000 7.03348 4.00000
4.00000 7.03348 4.00000
4.00000 7.03348 4.00000
4.00000 7.03348 4.00000
4.00000 7.03348 4.00000
4.00000 7.03348 4.00000
4.00000 7.03348 4.00000
4.00000 7.03348 4.00000
4.00000 7.03348 4.00000
4.00000 7.03348 4.00000
4.00000 7.03348 4.00000
4.00000 7.03348 4.00000
4.00000 7.03348 4.00000
4.00000 7.03348 4.00000
4.00000 7.03348 4.00000
4.00000 7.03348 4.00000
4.00000 7.03348 4.00000
4.00000 7.03348 4.00000
4.00000 7.03348 4.00000
4.00000 7.03348 4.00000
4.00000 7.03348 4.00000
4.00000 7.03348 4.00000
4.00000 7.03348 4.00000
4.00000 7.03348 4.00000
4.00000 7.03348 4.00000
4.00000 7.03348 4.00000
4.00000 7.03348 4.00000
4.00000 7.03348 4.00000
4.00000 7.03348 4.00000
4.00000 7.03348 4.00000
4.00000 7.03348 4.00000
4.00000 7.03348 4.00000
4.00000 7.03348 4.00000
4.00000 7.03348 4.00000
4.00000 7.03348 4.00000
4.00000 7.03348 4.00000
4.00000 7.03348 4.00000
4.00000 7.03348 4.00000
4.00000 7.03348 4.00000
4.00000 7.03348 4.00000
4.00000 7.03348 4.00000
4.00000 7.03348 4.00000
4.00000 7.03348 4.00000
4.00000 7.03348 4.00000
4.00000 7.03348 4.00000
4.00000 7.03348 4.00000
4.00000 7.03348 4.00000
4.00000 7.03348 4.00000
4.00000 7.03348 4.00000
4.00000 7.03348 4.00000
4.00000 7.03348 4.00000
4.00000 7.03348 4.00000
4.00000 7.03348 4.00000
4.00000 7.03348 4.00000
4.00000 7.03348 4.00000
4.00000 7.03348 4.00000
4.00000 7.03348 4.00000
4.00000 7.03348 4.00000
4.00000 7.03348 4.00000
4.00000 7.03348 4.00000
4.00000 7.03348 4.00000
4.00000 7.03348 4.00000
4.00000 7.03348 4.00000
4.00000 7.03348 4.00000
4.00000 7.03348 4.00000
4.00000 7.03348 4.00000
4.00000 7.03348 4.00000
4.00000 7.03348 4.00000
4.00000 7.03348 4.00000
4.00000 7.03348 4.00000
4.00000 7.03348 4.00000
4.00000 7.03351 4.00000
4.00000 7.03348 4.00000
4.00000 7.03353 4.00000
4.00000 7.03348 4.00000
4.00000 7.03349 4.00000
4.00000 7.03348 4.00000
4.00000 7.03348 4.00000
4.00000 7.03348 4.00000
4.00155 7.06305 4.00155
4.00555 7.14042 4.00555
4.00949 7.21798 4.00949
4.01338 7.29569 4.01338
4.01724 7.37352 4.01724
4.02108 7.45145 4.02108
4.02493 7.52942 4.02493
4.02879 7.60742 4.02879
4.03268 7.68540 4.03268
4.03663 7.76333 4.03663
4.04066 7.84116 4.04066
4.04478 7.91885 4.04478
4.04902 7.99634 4.04903
4.05343 8.07357 4.05343
4.05801 8.15047 4.05801
4.06283 8.22697 4.06283
4.06793 8.30295 4.06793
4.07336 8.37831 4.07336
4.07920 8.45290 4.07920
4.08553 8.52655 4.08553
4.09247 8.59903 4.09247
4.10015 8.67008 4.10015
4.10859 8.73964 4.10859
4.11778 8.80777 4.11777
4.12775 8.87435 4.12775
4.13857 8.93929 4.13857
4.15028 9.00248 4.15028
4.16292 9.06386 4.16292
4.17652 9.12334 4.17652
4.19111 9.18089 4.19111
4.20670 9.23648 4.20670
4.22330 9.29010 4.22330
4.24089 9.34178 4.24088
4.25944 9.39155 4.25944
4.27894 9.43947 4.27894
4.29935 9.48561 4.29935
4.32062 9.53006 4.32062
4.34271 9.57290 4.34271
4.36558 9.61422 4.36558
4.38918 9.65412 4.38918
4.41348 9.69264 4.41348
4.43845 9.72986 4.43845
4.46409 9.76577 4.46409
4.49043 9.80031 4.49043
4.51755 9.83333 4.51755
4.54567 9.86439 4.54566
4.57523 9.89258 4.57523
4.60737 9.91566 4.60737
4.64496 9.92781 4.64499
7.99795 7.29393 4.01329
8.11958 7.26135 4.01167
8.23567 7.23410 4.01030
8.34742 7.21100 4.00914
8.45576 7.19118 4.00814
8.56132 7.17404 4.00727
8.66460 7.15910 4.00651
8.76596 7.14600 4.00584
8.86572 7.13446 4.00525
8.96411 7.12425 4.00472
9.06131 7.11519 4.00426
9.15750 7.10713 4.00384
9.25279 7.09993 4.00347
9.34732 7.09350 4.00314
9.44116 7.08773 4.00284
9.53441 7.08255 4.00257
9.62714 7.07789 4.00233
9.71940 7.07370 4.00211
9.81124 7.06993 4.00191
9.90272 7.06652 4.00173
9.99388 7.06344 4.00157
10.08475 7.06066 4.00143
10.17536 7.05815 4.00130
10.26574 7.05587 4.00118
10.35591 7.05381 4.00107
10.44590 7.05195 4.00097
10.53573 7.05025 4.00088
10.62542 7.04872 4.00080
10.71497 7.04733 4.00073
10.80441 7.04606 4.00066
10.89375 7.04492 4.00060
10.98299 7.04388 4.00055
11.07215 7.04293 4.00050
11.16124 7.04208 4.00045
11.25027 7.04129 4.00041
11.33925 7.04058 4.00037
11.42817 7.03994 4.00034
11.51705 7.03935 4.00031
11.60589 7.03882 4.00028
11.69470 7.03834 4.00025
11.78348 7.03790 4.00023
11.87225 7.03749 4.00021
11.96096 7.03714 4.00019
12.04970 7.03679 4.00017
12.13839 7.03650 4.00016
12.22709 7.03622 4.00014
12.31576 7.03598 4.00013
12.40445 7.03574 4.00012
12.49312 7.03554 4.00011
12.58180 7.03535 4.00010
12.67043 7.03520 4.00009
12.75911 7.03503 4.00008
12.84778 7.03489 4.00007
12.93645 7.03476 4.00007
13.02513 7.03464 4.00006
13.11381 7.03453 4.00005
13.20250 7.03444 4.00005
13.29119 7.03435 4.00004
13.37990 7.03427 4.00004
13.46861 7.03420 4.00004
13.55732 7.03413 4.00003
13.64605 7.03407 4.00003
13.73478 7.03402 4.00003
13.82353 7.03397 4.00002
13.91228 7.03392 4.00002
14.00104 7.03388 4.00002
14.08981 7.03384 4.00002
14.17858 7.03381 4.00002
14.26737 7.03378 4.00001
14.35617 7.03375 4.00001
14.44497 7.03372 4.00001
14.53379 7.03370 4.00001
14.62262 7.03368 4.00001
14.71145 7.03366 4.00001
14.80030 7.03364 4.00001
14.88915 7.03362 4.00001
14.97802 7.03361 4.00001
15.06690 7.03360 4.00001
15.15579 7.03358 4.00001
15.24449 7.03359 4.00001
15.33341 7.03358 4.00001
15.42233 7.03357 4.00000
15.51127 7.03356 4.00000
15.60022 7.03356 4.00000
15.68918 7.03355 4.00000
15.77815 7.03354 4.00000
15.86714 7.03354 4.00000
15.95613 7.03353 4.00000
16.04513 7.03353 4.00000
16.13415 7.03352 4.00000
16.22317 7.03352 4.00000
16.31220 7.03351 4.00000
16.40125 7.03351 4.00000
16.49030 7.03351 4.00000
16.57936 7.03351 4.00000
16.66843 7.03350 4.00000
16.75751 7.03350 4.00000
16.84660 7.03350 4.00000
16.93570 7.03350 4.00000
17.02481 7.03350 4.00000
17.11393 7.03349 4.00000
17.20305 7.03349 4.00000
17.29219 7.03349 4.00000
17.38133 7.03349 4.00000
17.47048 7.03349 4.00000
17.55964 7.03349 4.00000
17.64881 7.03349 4.00000
17.73798 7.03349 4.00000
17.82716 7.03349 4.00000
17.91636 7.03349 4.00000
18.00556 7.03349 4.00000
18.09476 7.03348 4.00000
18.18398 7.03348 4.00000
18.27320 7.03348 4.00000
18.36243 7.03348 4.00000
18.45167 7.03348 4.00000
18.54091 7.03348 4.00000
18.63017 7.03348 4.00000
18.71943 7.03348 4.00000
18.80869 7.03348 4.00000
18.89797 7.03348 4.00000
18.98725 7.03348 4.00000
19.07654 7.03348 4.00000
19.16584 7.03348 4.00000
19.25514 7.03348 4.00000
19.34445 7.03348 4.00000
19.43377 7.03348 4.00000
19.52309 7.03348 4.00000
19.61242 7.03348 4.00000
19.70176 7.03348 4.00000
19.79110 7.03348 4.00000
19.88045 7.03348 4.00000
19.96981 7.03348 4.00000
20.05917 7.03348 4.00000
20.14854 7.03348 4.00000
20.23792 7.03348 4.00000
20.32730 7.03348 4.00000
20.41669 7.03348 4.00000
20.50609 7.03348 4.00000
20.59549 7.03348 4.00000
20.68490 7.03348 4.00000
20.77431 7.03348 4.00000
20.86373 7.03348 4.00000
20.95316 7.03348 4.00000
21.04259 7.03348 4.00000
21.13203 7.03348 4.00000
21.22148 7.03348 4.00000
21.31093 7.03348 4.00000
21.40038 7.03348 4.00000
21.48985 7.03348 4.00000
21.57931 7.03348 4.00000
21.66879 7.03348 4.00000
21.75827 7.03348 4.00000
21.84775 7.03348 4.00000
21.93724 7.03348 4.00000
22.02674 7.03348 4.00000
22.11624 7.03348 4.00000
22.20575 7.03348 4.00000
22.29526 7.03348 4.00000
22.38478 7.03348 4.00000
22.47430 7.03348 4.00000
22.56383 7.03348 4.00000
22.65337 7.03348 4.00000
22.74291 7.03348 4.00000
22.83245 7.03348 4.00000
22.92200 7.03348 4.00000
23.01156 7.03348 4.00000
23.10112 7.03348 4.00000
23.19069 7.03348 4.00000
23.28026 7.03348 4.00000
23.36983 7.03348 4.00000
23.45942 7.03348 4.00000
23.54900 7.03348 4.00000
23.63859 7.03348 4.00000
23.72819 7.03348 4.00000
23.81779 7.03348 4.00000
23.90740 7.03348 4.00000
23.99701 7.03348 4.00000
24.08662 7.03348 4.00000
24.17624 7.03348 4.00000
24.26587 7.03348 4.00000
24.35550 7.03348 4.00000
24.44513 7.03348 4.00000
24.53477 7.03348 4.00000
24.62442 7.03348 4.00000
24.71407 7.03348 4.00000
24.80372 7.03348 4.00000
24.89338 7.03348 4.00000
24.98304 7.03348 4.00000
25.07271 7.03348 4.00000
25.16238 7.03348 4.00000
25.25205 7.03348 4.00000
25.34173 7.03348 4.00000
25.43142 7.03348 4.00000
25.52111 7.03348 4.00000
25.61080 7.03348 4.00000
25.70050 7.03348 4.00000
25.79020 7.03348 4.00000
25.87990 7.03348 4.00000
25.96961 7.03348 4.00000
26.05933 7.03348 4.00000
26.14905 7.03348 4.00000
26.23877 7.03348 4.00000
26.32850 7.03348 4.00000
26.41823 7.03348 4.00000
26.50796 7.03348 4.00000
26.59770 7.03348 4.00000
26.68744 7.03348 4.00000
26.77719 7.03348 4.00000
26.86694 7.03348 4.00000
26.95670 7.03348 4.00000
27.04645 7.03348 4.00000
27.13622 7.03348 4.00000
27.22598 7.03348 4.00000
27.31575 7.03348 4.00000
27.40553 7.03348 4.00000

