Angle 0.292599 0.594950

4.00000 7.03348 4.00000
4.00000 7.03348 4.00000
4.00000 7.03348 4.00000
4.00000 7.03348 4.00000
4.00000 7.03348 4.00000
4.00000 7.03348 4.00000
4.00000 7.03348 4.00000
4.00000 7.03348 4.00000
4.00000 7.03348 4.00000
4.00000 7.03348 4.00000
4.00000 7.03348 4.00000
4.00000 7.03348 4.00000
4.00000 7.03348 4.00000
4.00000 7.03348 4.00000
4.00000 7.03348 4.00000
4.00000 7.03348 4.00000
4.00000 7.03348 4.00000
4.00000 7.03348 4.00000
4.00000 7.03348 4.00000
4.00000 7.03348 4.00000
4.00000 7.03347 4.00000
4.00000 7.03348 4.00000
4.00000 7.03348 4.00000
4.00000 7.03348 4.00000
4.00000 7.03348 4.00000
4.00000 7.03348 4.00000
4.00000 7.03348 4.00000
4.00000 7.03348 4.00000
4.00000 7.03348 4.00000
4.00000 7.03348 4.00000
4.00000 7.03348 4.00000
4.00000 7.03348 4.00000
4.00000 7.03348 4.00000
4.00000 7.03348 4.00000
4.00000 7.03348 4.00000
4.00000 7.03348 4.00000
4.00000 7.03348 4.00000
4.00000 7.03348 4.00000
4.00000 7.03348 4.00000
4.00000 7.03348 4.00000
4.00000 7.03347 4.00000
4.00000 7.03348 4.00000
4.00000 7.03348 4.00000
4.00000 7.03348 4.00000
4.00000 7.03348 4.00000
4.00000 7.03348 4.00000
4.00000 7.03348 4.00000
4.00000 7.03348 4.00000
4.00000 7.03348 4.00000
4.00000 7.03348 4.00000
4.00000 7.03348 4.00000
4.00000 7.03348 4.00000
4.00000 7.03348 4.00000
4.00000 7.03348 4.00000
4.00000 7.03348 4.00000
4.00000 7.03348 4.00000
4.00000 7.03348 4.00000
4.00000 7.03348 4.00000
4.00000 7.03348 4.00000
4.00000 7.03348 4.00000
4.00000 7.03348 4.00000
4.00000 7.03348 4.00000
4.00000 7.03348 4.00000
4.00000 7.03348 4.00000
4.00000 7.03348 4.00000
4.00000 7.03348 4.00000
4.00000 7.03348 4.00000
4.00000 7.03348 4.00000
4.00000 7.03348 4.00000
4.00000 7.03348 4.00000
4.00000 7.03348 4.00000
4.00000 7.03348 4.00000
4.00000 7.03348 4.00000
4.00000 7.03348 4.00000
4.00000 7.03348 4.00000
4.00000 7.03348 4.00000
4.00000 7.03348 4.00000
4.00000 7.03348 4.00000
4.00000 7.03348 4.00000
4.00000 7.03348 4.00000
4.00000 7.03350 4.00000
4.00000 7.03348 4.00000
4.00000 7.03348 4.00000
4.00000 7.03348 4.00000
4.00000 7.03348 4.00000
4.00000 7.03348 4.00000
4.00228 7.07698 4.00228
4.00597 7.14863 4.00597
4.00962 7.22051 4.00962
4.01323 7.29258 4.01323
4.01681 7.36483 4.01681
4.02038 7.43723 4.02038
4.02396 7.50975 4.02396
4.02755 7.58236 4.02754
4.03116 7.65502 4.03116
4.03482 7.72772 4.03482
4.03854 7.80041 4.03854
4.04234 7.87305 4.04234
4.04623 7.94561 4.04623
4.05024 8.01804 4.05024
4.05440 8.09029 4.05440
4.05874 8.16228 4.05874
4.06329 8.23396 4.06329
4.06809 8.30524 4.06809
4.07319 8.37601 4.07319
4.07865 8.44616 4.07865
4.08454 8.51554 4.08454
4.09096 8.58397 4.09096
4.09802 8.65123 4.09802
4.10577 8.71717 4.10577
4.11418 8.78191 4.11418
4.12328 8.84535 4.12328
4.13311 8.90740 4.13311
4.14373 8.96798 4.14373
4.15517 9.02701 4.15517
4.16746 9.08442 4.16746
4.18063 9.14015 4.18063
4.19470 9.19417 4.19470
4.20967 9.24646 4.20967
4.22556 9.29701 4.22556
4.24234 9.34585 4.24234
4.26001 9.39299 4.26001
4.27853 9.43850 4.27853
4.29789 9.48242 4.29789
4.31804 9.52483 4.31804
4.33894 9.56580 4.33894
4.36057 9.60541 4.36057
4.38288 9.64371 4.38288
4.40584 9.68079 4.40584
4.42943 9.71668 4.42943
4.45364 9.75140 4.45364
4.47848 9.78493 4.47848
4.50400 9.81717 4.50400
4.53032 9.84788 4.53032
4.55771 9.87652 4.55771
4.58674 9.90192 4.58674
4.61885 9.92129 4.61881
7.90622 7.32166 4.01467
8.02779 7.28555 4.01288
8.14301 7.25556 4.01138
8.25339 7.23024 4.01011
8.36000 7.20857 4.00902
8.46359 7.18984 4.00807
8.56470 7.17352 4.00724
8.66377 7.15921 4.00651
8.76112 7.14659 4.00587
8.85700 7.13542 4.00530
8.95164 7.12549 4.00479
9.04520 7.11663 4.00433
9.13784 7.10871 4.00392
9.22966 7.10161 4.00356
9.32078 7.09524 4.00323
9.41128 7.08950 4.00293
9.50123 7.08433 4.00266
9.59070 7.07968 4.00242
9.67976 7.07545 4.00220
9.76843 7.07165 4.00200
9.85680 7.06818 4.00182
9.94485 7.06506 4.00166
10.03265 7.06222 4.00151
10.12022 7.05965 4.00137
10.20759 7.05731 4.00125
10.29478 7.05519 4.00114
10.38182 7.05326 4.00104
10.46871 7.05150 4.00095
10.55548 7.04990 4.00086
10.64215 7.04845 4.00079
10.72872 7.04713 4.00072
10.81522 7.04591 4.00066
10.90164 7.04482 4.00060
10.98800 7.04382 4.00054
11.07429 7.04292 4.00050
11.16057 7.04208 4.00045
11.24681 7.04132 4.00041
11.33301 7.04063 4.00038
11.41917 7.04002 4.00034
11.50533 7.03943 4.00031
11.59148 7.03890 4.00029
11.67761 7.03843 4.00026
11.76373 7.03800 4.00024
11.84985 7.03761 4.00022
11.93600 7.03723 4.00020
12.02212 7.03691 4.00018
12.10824 7.03661 4.00016
12.19440 7.03632 4.00015
12.28053 7.03608 4.00014
12.36671 7.03584 4.00012
12.45291 7.03563 4.00011
12.53908 7.03544 4.00010
12.62531 7.03527 4.00009
12.71156 7.03511 4.00008
12.79775 7.03498 4.00008
12.88404 7.03483 4.00007
12.97034 7.03471 4.00006
13.05668 7.03461 4.00006
13.14305 7.03451 4.00005
13.22945 7.03441 4.00005
13.31588 7.03433 4.00004
13.40234 7.03426 4.00004
13.48848 7.03420 4.00004
13.57493 7.03413 4.00003
13.66142 7.03406 4.00003
13.74794 7.03401 4.00003
13.83449 7.03396 4.00003
13.92108 7.03392 4.00002
14.00769 7.03388 4.00002
14.09434 7.03384 4.00002
14.18101 7.03381 4.00002
14.26772 7.03378 4.00002
14.35446 7.03375 4.00001
14.44123 7.03373 4.00001
14.52804 7.03370 4.00001
14.61487 7.03368 4.00001
14.70173 7.03366 4.00001
14.78862 7.03365 4.00001
14.87554 7.03363 4.00001
14.96249 7.03361 4.00001
15.04947 7.03360 4.00001
15.13647 7.03359 4.00001
15.22351 7.03358 4.00000
15.31057 7.03357 4.00000
15.39766 7.03356 4.00000
15.48477 7.03355 4.00000
15.57192 7.03354 4.00000
15.65909 7.03354 4.00000
15.74628 7.03353 4.00000
15.83177 7.03354 4.00000
15.91891 7.03353 4.00000
16.00607 7.03353 4.00000
16.09327 7.03352 4.00000
16.18049 7.03352 4.00000
16.26774 7.03352 4.00000
16.35502 7.03351 4.00000
16.44232 7.03351 4.00000
16.52966 7.03351 4.00000
16.61701 7.03351 4.00000
16.70440 7.03350 4.00000
16.79181 7.03350 4.00000
16.87924 7.03350 4.00000
16.96670 7.03350 4.00000
17.05419 7.03350 4.00000
17.14169 7.03349 4.00000
17.22923 7.03349 4.00000
17.31678 7.03349 4.00000
17.40436 7.03349 4.00000
17.49196 7.03349 4.00000
17.57959 7.03349 4.00000
17.66723 7.03349 4.00000
17.75490 7.03349 4.00000
17.84259 7.03349 4.00000
17.93031 7.03349 4.00000
18.01804 7.03349 4.00000
18.10579 7.03348 4.00000
18.19357 7.03348 4.00000
18.28136 7.03348 4.00000
18.36918 7.03348 4.00000
18.45701 7.03348 4.00000
18.54487 7.03348 4.00000
18.63274 7.03348 4.00000
18.72063 7.03348 4.00000
18.80855 7.03348 4.00000
18.89648 7.03348 4.00000
18.98443 7.03348 4.00000
19.07240 7.03348 4.00000
19.16038 7.03348 4.00000
19.24839 7.03348 4.00000
19.33641 7.03348 4.00000
19.42445 7.03348 4.00000
19.51250 7.03348 4.00000
19.60058 7.03348 4.00000
19.68867 7.03348 4.00000
19.77677 7.03348 4.00000
19.86490 7.03348 4.00000
19.95304 7.03348 4.00000
20.04119 7.03348 4.00000
20.12937 7.03348 4.00000
20.21755 7.03348 4.00000
20.30576 7.03348 4.00000
20.39398 7.03348 4.00000
20.48221 7.03348 4.00000
20.57046 7.03348 4.00000
20.65873 7.03348 4.00000
20.74701 7.03348 4.00000
20.83530 7.03348 4.00000
20.92361 7.03348 4.00000
21.01193 7.03348 4.00000
21.10027 7.03348 4.00000
21.18862 7.03348 4.00000
21.27699 7.03348 4.00000
21.36537 7.03348 4.00000
21.45376 7.03348 4.00000
21.54216 7.03348 4.00000
21.63058 7.03348 4.00000
21.71902 7.03348 4.00000
21.80746 7.03348 4.00000
21.89592 7.03348 4.00000
21.98440 7.03348 4.00000
22.07288 7.03348 4.00000
22.16138 7.03348 4.00000
22.24989 7.03348 4.00000
22.33841 7.03348 4.00000
22.42695 7.03348 4.00000
22.51549 7.03348 4.00000
22.60405 7.03348 4.00000
22.69262 7.03348 4.00000
22.78121 7.03348 4.00000
22.86980 7.03348 4.00000
22.95841 7.03348 4.00000
23.04703 7.03348 4.00000
23.13566 7.03348 4.00000
23.22430 7.03348 4.00000
23.31295 7.03348 4.00000
23.40161 7.03348 4.00000
23.49029 7.03348 4.00000
23.57897 7.03348 4.00000
23.66767 7.03348 4.00000
23.75637 7.03348 4.00000
23.84509 7.03348 4.00000
23.93382 7.03348 4.00000
24.02256 7.03348 4.00000
24.11131 7.03348 4.00000
24.20006 7.03348 4.00000
24.28883 7.03348 4.00000
24.37761 7.03348 4.00000
24.46640 7.03348 4.00000
24.55520 7.03348 4.00000
24.64401 7.03348 4.00000
24.73283 7.03348 4.00000
24.82165 7.03348 4.00000
24.91049 7.03348 4.00000
24.99934 7.03348 4.00000
25.08820 7.03348 4.00000
25.17706 7.03348 4.00000
25.26594 7.03348 4.00000
25.35482 7.03348 4.00000
25.44372 7.03348 4.00000
25.53262 7.03348 4.00000
25.62153 7.03348 4.00000
25.71045 7.03348 4.00000
25.79938 7.03348 4.00000
25.88832 7.03348 4.00000
25.97726 7.03348 4.00000
26.06622 7.03348 4.00000
26.15518 7.03348 4.00000
26.24416 7.03348 4.00000
26.33314 7.03348 4.00000
26.42213 7.03348 4.00000
26.51112 7.03348 4.00000
26.60013 7.03348 4.00000
26.68914 7.03348 4.00000
26.77816 7.03348 4.00000
26.86719 7.03348 4.00000
26.95623 7.03348 4.00000
27.04528 7.03348 4.00000
27.13433 7.03348 4.00000
27.22339 7.03348 4.00000
27.31246 7.03348 4.00000
27.40154 7.03348 4.00000
27.49062 7.03348 4.00000
27.57971 7.03348 4.00000
27.66881 7.03348 4.00000
27.75792 7.03348 4.00000
27.84703 7.03348 4.00000
27.93615 7.03348 4.00000
28.02528 7.03348 4.00000
28.11441 7.03348 4.00000
28.20356 7.03348 4.00000
28.29271 7.03348 4.00000
28.38186 7.03348 4.00000
28.47103 7.03348 4.00000
28.56020 7.03348 4.00000
28.64938 7.03348 4.00000
28.73856 7.03348 4.00000
28.82775 7.03348 4.00000
28.91695 7.03348 4.00000
29.00615 7.03348 4.00000
29.09536 7.03348 4.00000
29.18458 7.03348 4.00000
29.27381 7.03348 4.00000
29.36304 7.03348 4.00000
29.45227 7.03348 4.00000
29.54152 7.03348 4.00000
29.63077 7.03348 4.00000
29.72002 7.03348 4.00000
29.80928 7.03348 4.00000
29.89855 7.03348 4.00000
29.98783 7.03348 4.00000
30.07711 7.03348 4.00000
30.16640 7.03348 4.00000
30.25569 7.03348 4.00000
30.34499 7.03348 4.00000
30.43429 7.03348 4.00000
30.52360 7.03348 4.00000
30.61292 7.03348 4.00000
30.70224 7.03348 4.00000
30.79157 7.03348 4.00000
30.88090 7.03348 4.00000
30.97024 7.03348 4.00000
31.05959 7.03348 4.00000
31.14894 7.03348 4.00000

Angle 0.436020 5.453480

4.00000 7.03348 4.00000
4.00000 7.03348 4.00000
4.00000 7.03348 4.00000
4.00000 7.03348 4.00000
4.00000 7.03348 4.00000
4.00000 7.03348 4.00000
4.00000 7.03348 4.00000
4.00000 7.03348 4.00000
4.00000 7.03348 4.00000
4.00000 7.03348 4.00000
4.00000 7.03348 4.00000
4.00000 7.03348 4.00000
4.00000 7.03348 4.00000
4.00000 7.03348 4.00000
4.00000 7.03348 4.00000
4.00000 7.03348 4.00000
4.00000 7.03348 4.00000
4.00000 7.03348 4.00000
4.00000 7.03348 4.00000
4.00000 7.03348 4.00000
4.00000 7.03348 4.00000
4.00000 7.03348 4.00000
4.00000 7.03348 4.00000
4.00000 7.03348 4.00000
4.00000 7.03348 4.00000
4.00000 7.03348 4.00000
4.00000 7.03348 4.00000
4.00000 7.03348 4.00000
4.00000 7.03348 4.00000
4.00000 7.03348 4.00000
4.00000 7.03348 4.00000
4.00000 7.03348 4.00000
4.00000 7.03348 4.00000
4.00000 7.03348 4.00000
4.00000 7.03348 4.00000
4.00000 7.03348 4.00000
4.00000 7.03348 4.00000
4.00000 7.03348 4.00000
4.00000 7.03348 4.00000
4.00000 7.03348 4.00000
4.00000 7.03348 4.00000
4.00000 7.03348 4.00000
4.00000 7.03348 4.00000
4.00000 7.03348 4.00000
4.00000 7.03348 4.00000
4.00000 7.03348 4.00000
4.00000 7.03348 4.00000
4.00000 7.03348 4.00000
4.00000 7.03348 4.00000
4.00000 7.03348 4.00000
4.00000 7.03348 4.00000
4.00000 7.03348 4.00000
4.00000 7.03348 4.00000
4.00000 7.03348 4.00000
4.00000 7.03348 4.00000
4.00000 7.03348 4.00000
4.00000 7.03348 4.00000
4.00000 7.03348 4.00000
4.00000 7.03348 4.00000
4.00000 7.03348 4.00000
4.00000 7.03348 4.00000
4.00000 7.03348 4.00000
4.00000 7.03348 4.00000
4.00000 7.03348 4.00000
4.00000 7.03348 4.00000
4.00000 7.03348 4.00000
4.00000 7.03348 4.00000
4.00000 7.03348 4.00000
4.00000 7.03348 4.00000
4.00000 7.03348 4.00000
4.00000 7.03348 4.00000
4.00000 7.03348 4.00000
4.00000 7.03348 4.00000
4.00000 7.03348 4.00000
4.00000 7.03348 4.00000
4.00000 7.03348 4.00000
4.00000 7.03348 4.00000
4.00000 7.03348 4.00000
4.00000 7.03348 4.00000
4.00000 7.03348 4.00000
4.00000 7.03348 4.00000
4.00000 7.03348 4.00000
4.00000 7.03348 4.00000
4.00000 7.03348 4.00000
4.00000 7.03348 4.00000
4.00000 7.03348 4.00000
4.00000 7.03348 4.00000
4.00000 7.03348 4.00000
4.00000 7.03348 4.00000
4.00000 7.03348 4.00000
4.00000 7.03348 4.00000
4.00000 7.03348 4.00000
4.00000 7.03348 4.00000
4.00000 7.03348 4.00000
4.00000 7.03348 4.00000
4.00000 7.03348 4.00000
4.00000 7.03348 4.00000
4.00000 7.03348 4.00000
4.00000 7.03348 4.00000
4.00000 7.03348 4.00000
4.00000 7.03348 4.00000
4.00000 7.03348 4.00000
4.00000 7.03348 4.00000
4.00000 7.03348 4.00000
4.00000 7.03348 4.00000
4.00000 7.03348 4.00000
4.00000 7.03348 4.00000
4.00000 7.03348 4.00000
4.00000 7.03348 4.00000
4.00000 7.03349 4.00000
4.00000 7.03347 4.00000
4.00000 7.03348 4.00000
4.00000 7.03348 4.00000
4.00000 7.03348 4.00000
4.00000 7.03348 4.00000
4.00269 7.08486 4.00269
4.00669 7.16268 4.00669
4.01063 7.24067 4.01063
4.01453 7.31880 4.01453
4.01840 7.39704 4.01840
4.02226 7.47535 4.02226
4.02613 7.55371 4.02613
4.03002 7.63207 4.03002
4.03394 7.71040 4.03394
4.03793 7.78865 4.03793
4.04201 7.86679 4.04201
4.04618 7.94476 4.04618
4.05050 8.02251 4.05050
4.05498 8.09997 4.05498
4.05966 8.17708 4.05966
4.06459 8.25373 4.06459
4.06982 8.32982 4.06982
4.07541 8.40524 4.07541
4.08144 8.47981 4.08144
4.08801 8.55335 4.08801
4.09523 8.62563 4.09523
4.10324 8.69637 4.10324
4.11199 8.76567 4.11199
4.12150 8.83349 4.12150
4.13184 8.89970 4.13184
4.14304 8.96421 4.14304
4.15515 9.02693 4.15515
4.16822 9.08779 4.16822
4.18227 9.14672 4.18227
4.19732 9.20368 4.19732
4.21338 9.25867 4.21338
4.23044 9.31167 4.23044
4.24849 9.36273 4.24849
4.26752 9.41189 4.26752
4.28747 9.45921 4.28747
4.30832 9.50477 4.30832
4.33002 9.54867 4.33002
4.35253 9.59099 4.35253
4.37580 9.63181 4.37580
4.39978 9.67123 4.39978
4.42446 9.70929 4.42446
4.44981 9.74605 4.44981
4.47584 9.78147 4.47584
4.50260 9.81546 4.50260
4.53022 9.84776 4.53022
4.55900 9.87777 4.55900
4.58964 9.90410 4.58963
4.62387 9.92326 4.62386
7.93019 7.31415 4.01430
8.05596 7.27786 4.01249
8.17517 7.24786 4.01099
8.28939 7.22264 4.00973
8.39974 7.20113 4.00864
8.50697 7.18261 4.00770
8.61167 7.16654 4.00689
8.71426 7.15250 4.00617
8.81508 7.14016 4.00554
8.91441 7.12927 4.00498
9.01245 7.11963 4.00449
9.10939 7.11106 4.00404
9.20537 7.10342 4.00365
9.30052 7.09660 4.00330
9.39493 7.09049 4.00298
9.48871 7.08502 4.00270
9.58192 7.08011 4.00244
9.67463 7.07569 4.00221
9.76690 7.07170 4.00200
9.85878 7.06811 4.00182
9.95031 7.06488 4.00165
10.04154 7.06195 4.00149
10.13248 7.05931 4.00136
10.22319 7.05692 4.00123
10.31367 7.05475 4.00112
10.40396 7.05279 4.00102
10.49407 7.05102 4.00092
10.58403 7.04941 4.00084
10.67385 7.04795 4.00076
10.76354 7.04663 4.00069
10.85313 7.04542 4.00063
10.94261 7.04434 4.00057
11.03200 7.04335 4.00052
11.12134 7.04244 4.00047
11.21058 7.04163 4.00043
11.29978 7.04088 4.00039
11.38890 7.04022 4.00035
11.47800 7.03960 4.00032
11.56703 7.03905 4.00029
11.65606 7.03853 4.00027
11.74504 7.03808 4.00024
11.83399 7.03767 4.00022
11.92289 7.03729 4.00020
12.01181 7.03693 4.00018
12.10070 7.03662 4.00016
12.18958 7.03634 4.00015
12.27846 7.03608 4.00013
12.36727 7.03586 4.00013
12.45614 7.03563 4.00011
12.54499 7.03543 4.00010
12.63384 7.03526 4.00009
12.72270 7.03509 4.00008
12.81155 7.03495 4.00008
12.90041 7.03482 4.00007
12.98928 7.03469 4.00006
13.07815 7.03458 4.00006
13.16703 7.03448 4.00005
13.25591 7.03439 4.00005
13.34480 7.03431 4.00004
13.43371 7.03423 4.00004
13.52262 7.03416 4.00003
13.61154 7.03410 4.00003
13.70046 7.03404 4.00003
13.78940 7.03399 4.00003
13.87835 7.03394 4.00002
13.96731 7.03390 4.00002
14.05628 7.03386 4.00002
14.14526 7.03382 4.00002
14.23425 7.03379 4.00002
14.32325 7.03376 4.00001
14.41226 7.03373 4.00001
14.50129 7.03371 4.00001
14.59032 7.03369 4.00001
14.67937 7.03367 4.00001
14.76842 7.03365 4.00001
14.85749 7.03363 4.00001
14.94657 7.03362 4.00001
15.03566 7.03360 4.00001
15.12476 7.03359 4.00001
15.21387 7.03358 4.00000
15.30299 7.03357 4.00000
15.39034 7.03357 4.00000
15.47941 7.03357 4.00000
15.56849 7.03356 4.00000
15.65759 7.03355 4.00000
15.74669 7.03354 4.00000
15.83581 7.03354 4.00000
15.92494 7.03353 4.00000
16.01408 7.03353 4.00000
16.10323 7.03352 4.00000
16.19240 7.03352 4.00000
16.28157 7.03352 4.00000
16.37076 7.03351 4.00000
16.45996 7.03351 4.00000
16.54917 7.03351 4.00000
16.63839 7.03350 4.00000
16.72762 7.03350 4.00000
16.81686 7.03350 4.00000
16.90611 7.03350 4.00000
16.99537 7.03350 4.00000
17.08464 7.03350 4.00000
17.17393 7.03349 4.00000
17.26322 7.03349 4.00000
17.35252 7.03349 4.00000
17.44183 7.03349 4.00000
17.53116 7.03349 4.00000
17.62049 7.03349 4.00000
17.70983 7.03349 4.00000
17.79918 7.03349 4.00000
17.88854 7.03349 4.00000
17.97790 7.03349 4.00000
18.06728 7.03349 4.00000
18.15667 7.03348 4.00000
18.24606 7.03348 4.00000
18.33546 7.03348 4.00000
18.42488 7.03348 4.00000
18.51430 7.03348 4.00000
18.60372 7.03348 4.00000
18.69316 7.03348 4.00000
18.78261 7.03348 4.00000
18.87206 7.03348 4.00000
18.96152 7.03348 4.00000
19.05099 7.03348 4.00000
19.14047 7.03348 4.00000
19.22995 7.03348 4.00000
19.31944 7.03348 4.00000
19.40894 7.03348 4.00000
19.49845 7.03348 4.00000
19.58796 7.03348 4.00000
19.67748 7.03348 4.00000
19.76701 7.03348 4.00000
19.85655 7.03348 4.00000
19.94609 7.03348 4.00000
20.03564 7.03348 4.00000
20.12520 7.03348 4.00000
20.21476 7.03348 4.00000
20.30433 7.03348 4.00000
20.39391 7.03348 4.00000
20.48349 7.03348 4.00000
20.57308 7.03348 4.00000
20.66268 7.03348 4.00000
20.75228 7.03348 4.00000
20.84189 7.03348 4.00000
20.93150 7.03348 4.00000
21.02113 7.03348 4.00000
21.11075 7.03348 4.00000
21.20039 7.03348 4.00000
21.29003 7.03348 4.00000
21.37967 7.03348 4.00000
21.46932 7.03348 4.00000
21.55898 7.03348 4.00000
21.64864 7.03348 4.00000
21.73831 7.03348 4.00000
21.82799 7.03348 4.00000
21.91767 7.03348 4.00000
22.00735 7.03348 4.00000
22.09704 7.03348 4.00000
22.18674 7.03348 4.00000
22.27644 7.03348 4.00000
22.36615 7.03348 4.00000
22.45586 7.03348 4.00000
22.54558 7.03348 4.00000
22.63530 7.03348 4.00000
22.72503 7.03348 4.00000
22.81476 7.03348 4.00000
22.90450 7.03348 4.00000
22.99425 7.03348 4.00000
23.08399 7.03348 4.00000
23.17375 7.03348 4.00000
23.26350 7.03348 4.00000
23.35327 7.03348 4.00000
23.44303 7.03348 4.00000
23.53281 7.03348 4.00000
23.62258 7.03348 4.00000
23.71236 7.03348 4.00000
23.80215 7.03348 4.00000
23.89194 7.03348 4.00000
23.98173 7.03348 4.00000
24.07153 7.03348 4.00000
24.16134 7.03348 4.00000
24.25115 7.03348 4.00000
24.34096 7.03348 4.00000
24.43078 7.03348 4.00000
24.52060 7.03348 4.00000
24.61042 7.03348 4.00000
24.70025 7.03348 4.00000
24.79009 7.03348 4.00000
24.87992 7.03348 4.00000
24.96977 7.03348 4.00000
25.05961 7.03348 4.00000
25.14946 7.03348 4.00000
25.23931 7.03348 4.00000
25.32917 7.03348 4.00000
25.41903 7.03348 4.00000
25.50890 7.03348 4.00000
25.59877 7.03348 4.00000
25.68864 7.03348 4.00000
25.77852 7.03348 4.00000
25.86840 7.03348 4.00000
25.95829 7.03348 4.00000
26.04817 7.03348 4.00000
26.13807 7.03348 4.00000
26.22796 7.03348 4.00000
26.31786 7.03348 4.00000
26.40776 7.03348 4.00000
26.49767 7.03348 4.00000
26.58758 7.03348 4.00000
26.67749 7.03348 4.00000
26.76741 7.03348 4.00000
26.85733 7.03348 4.00000
26.94725 7.03348 4.00000
27.03718 7.03348 4.00000
27.12711 7.03348 4.00000
27.21704 7.03348 4.00000
27.30698 7.03348 4.00000
27.39692 7.03348 4.00000
27.48686 7.03348 4.00000
27.57681 7.03348 4.00000
27.66676 7.03348 4.00000
27.75671 7.03348 4.00000
27.84667 7.03348 4.00000
27.93663 7.03348 4.00000
28.02659 7.03348 4.00000
28.11656 7.03348 4.00000
28.20652 7.03348 4.00000
28.29649 7.03348 4.00000
28.38647 7.03348 4.00000
28.47645 7.03348 4.00000
28.56643 7.03348 4.00000
28.65641 7.03348 4.00000
28.74640 7.03348 4.00000
28.83638 7.03348 4.00000
28.92638 7.03348 4.00000
29.01637 7.03348 4.00000
29.10637 7.03348 4.00000
29.19637 7.03348 4.00000
29.28637 7.03348 4.00000

Angle 0.691629 0.939494

4.00000 7.03348 4.00000
4.00000 7.03348 4.00000
4.00000 7.03348 4.00000
4.00000 7.03348 4.00000
4.00000 7.03348 4.00000
4.00000 7.03348 4.00000
4.00000 7.03348 4.00000
4.00000 7.03348 4.00000
4.00000 7.03348 4.00000
4.00000 7.03348 4.00000
4.00000 7.03348 4.00000
4.00000 7.03348 4.00000
4.00000 7.03348 4.00000
4.00000 7.03348 4.00000
4.00000 7.03348 4.00000
4.00000 7.03348 4.00000
4.00000 7.03348 4.00000
4.00000 7.03348 4.00000
4.00000 7.03348 4.00000
4.00000 7.03348 4.00000
4.00000 7.03348 4.00000
4.00000 7.03348 4.00000
4.00000 7.03348 4.00000
4.00000 7.03348 4.00000
4.00000 7.03348 4.00000
4.00000 7.03348 4.00000
4.00000 7.03348 4.00000
4.00000 7.03348 4.00000
4.00000 7.03348 4.00000
4.00000 7.03348 4.00000
4.00000 7.03348 4.00000
4.00000 7.03348 4.00000
4.00000 7.03348 4.00000
4.00000 7.03349 4.00000
4.00000 7.03348 4.00000
4.00000 7.03348 4.00000
4.00000 7.03348 4.00000
4.00000 7.03348 4.00000
4.00000 7.03351 4.00000
4.00000 7.03348 4.00000
4.00000 7.03348 4.00000
4.00000 7.03350 4.00000
4.00000 7.03350 4.00000
4.00000 7.03348 4.00000
4.00000 7.03348 4.00000
4.00000 7.03349 4.00000
4.00000 7.03348 4.00000
4.00000 7.03348 4.00000
4.00066 7.04607 4.00066
4.00470 7.12385 4.00470
4.00868 7.20183 4.00868
4.01260 7.27997 4.01260
4.01649 7.35823 4.01649
4.02035 7.43658 4.02035
4.02422 7.51498 4.02422
4.02810 7.59341 4.02809
4.03200 7.67182 4.03200
4.03596 7.75018 4.03596
4.03999 7.82845 4.03999
4.04412 7.90657 4.04412
4.04837 7.98450 4.04837
4.05276 8.06218 4.05276
4.05735 8.13952 4.05735
4.06215 8.21647 4.06215
4.06723 8.29291 4.06723
4.07264 8.36873 4.07264
4.07846 8.44378 4.07845
4.08476 8.51791 4.08476
4.09165 8.59088 4.09165
4.09928 8.66244 4.09928
4.10768 8.73247 4.10768
4.11683 8.80106 4.11683
4.12677 8.86810 4.12677
4.13755 8.93349 4.13755
4.14923 8.99712 4.14923
4.16185 9.05892 4.16185
4.17544 9.11882 4.17544
4.19002 9.17676 4.19002
4.20560 9.23273 4.20560
4.22220 9.28671 4.22220
4.23980 9.33872 4.23980
4.25837 9.38880 4.25837
4.27791 9.43701 4.27790
4.29835 9.48343 4.29835
4.31967 9.52813 4.31967
4.34181 9.57121 4.34181
4.36474 9.61275 4.36474
4.38841 9.65285 4.38841
4.41278 9.69156 4.41278
4.43783 9.72895 4.43783
4.46355 9.76503 4.46355
4.48997 9.79973 4.48997
4.51718 9.83289 4.51718
4.54538 9.86409 4.54538
4.57504 9.89241 4.57504
4.60727 9.91560 4.60727
4.64502 9.92781 4.64499
4.01329 7.29382 7.99843
4.01166 7.26112 8.12050
4.01029 7.23381 8.23695
4.00912 7.21069 8.34902
4.00812 7.19085 8.45767
4.00725 7.17370 8.56354
4.00649 7.15875 8.66711
4.00582 7.14566 8.76876
4.00523 7.13412 8.86880
4.00471 7.12392 8.96746
4.00424 7.11488 9.06493
4.00383 7.10682 9.16138
4.00345 7.09964 9.25694
4.00312 7.09320 9.35174
4.00282 7.08745 9.44585
4.00255 7.08228 9.53935
4.00231 7.07764 9.63232
4.00209 7.07346 9.72483
4.00190 7.06970 9.81692
4.00172 7.06631 9.90865
4.00156 7.06324 10.00005
4.00142 7.06048 10.09115
4.00129 7.05798 10.18200
4.00117 7.05571 10.27262
4.00106 7.05366 10.36303
4.00096 7.05180 10.45326
4.00088 7.05012 10.54333
4.00080 7.04859 10.63324
4.00072 7.04721 10.72303
4.00065 7.04595 10.81270
4.00060 7.04481 10.90226
4.00054 7.04379 10.99173
4.00049 7.04283 11.08114
4.00045 7.04199 11.17044
4.00041 7.04120 11.25971
4.00037 7.04051 11.34889
4.00034 7.03986 11.43804
4.00030 7.03928 11.52714
4.00028 7.03877 11.61618
4.00025 7.03827 11.70522
4.00023 7.03784 11.79422
4.00021 7.03744 11.88319
4.00019 7.03708 11.97214
4.00017 7.03676 12.06107
4.00015 7.03646 12.14998
4.00014 7.03619 12.23889
4.00013 7.03594 12.32778
4.00011 7.03572 12.41666
4.00010 7.03552 12.50554
4.00009 7.03533 12.59441
4.00009 7.03516 12.68328
4.00008 7.03501 12.77215
4.00007 7.03487 12.86102
4.00006 7.03474 12.94988
4.00006 7.03462 13.03875
4.00005 7.03452 13.12762
4.00005 7.03442 13.21650
4.00004 7.03434 13.30538
4.00004 7.03426 13.39426
4.00004 7.03419 13.48315
4.00003 7.03412 13.57205
4.00003 7.03406 13.66095
4.00003 7.03401 13.74986
4.00002 7.03396 13.83878
4.00002 7.03391 13.92770
4.00002 7.03387 14.01663
4.00002 7.03383 14.10557
4.00002 7.03380 14.19452
4.00001 7.03377 14.28347
4.00001 7.03374 14.37243
4.00001 7.03372 14.46141
4.00001 7.03369 14.55039
4.00001 7.03367 14.63938
4.00001 7.03365 14.72838
4.00001 7.03364 14.81739
4.00001 7.03364 14.90628
4.00001 7.03362 14.99531
4.00001 7.03361 15.08435
4.00001 7.03360 15.17339
4.00001 7.03359 15.26245
4.00001 7.03358 15.35152
4.00000 7.03357 15.44059
4.00000 7.03356 15.52967
4.00000 7.03355 15.61877
4.00000 7.03355 15.70787
4.00000 7.03354 15.79698
4.00000 7.03354 15.88610
4.00000 7.03353 15.97524
4.00000 7.03353 16.06437
4.00000 7.03352 16.15352
4.00000 7.03352 16.24268
4.00000 7.03351 16.33185
4.00000 7.03351 16.42102
4.00000 7.03351 16.51021
4.00000 7.03351 16.59940
4.00000 7.03350 16.68860
4.00000 7.03350 16.77781
4.00000 7.03350 16.86703
4.00000 7.03350 16.95626
4.00000 7.03350 17.04549
4.00000 7.03349 17.13474
4.00000 7.03349 17.22399
4.00000 7.03349 17.31325
4.00000 7.03349 17.40252
4.00000 7.03349 17.49180
4.00000 7.03349 17.58108
4.00000 7.03349 17.67038
4.00000 7.03349 17.75968
4.00000 7.03349 17.84899
4.00000 7.03349 17.93831
4.00000 7.03349 18.02763
4.00000 7.03348 18.11696
4.00000 7.03348 18.20631
4.00000 7.03348 18.29565
4.00000 7.03348 18.38501
4.00000 7.03348 18.47437
4.00000 7.03348 18.56374
4.00000 7.03348 18.65312
4.00000 7.03348 18.74251
4.00000 7.03348 18.83190
4.00000 7.03348 18.92130
4.00000 7.03348 19.01070
4.00000 7.03348 19.10012
4.00000 7.03348 19.18954
4.00000 7.03348 19.27897
4.00000 7.03348 19.36840
4.00000 7.03348 19.45784
4.00000 7.03348 19.54729
4.00000 7.03348 19.63675
4.00000 7.03348 19.72621
4.00000 7.03348 19.81568
4.00000 7.03348 19.90515
4.00000 7.03348 19.99463
4.00000 7.03348 20.08412
4.00000 7.03348 20.17362
4.00000 7.03348 20.26312
4.00000 7.03348 20.35262
4.00000 7.03348 20.44214
4.00000 7.03348 20.53166
4.00000 7.03348 20.62118
4.00000 7.03348 20.71071
4.00000 7.03348 20.80025
4.00000 7.03348 20.88980
4.00000 7.03348 20.97935
4.00000 7.03348 21.06890
4.00000 7.03348 21.15846
4.00000 7.03348 21.24803
4.00000 7.03348 21.33760
4.00000 7.03348 21.42718
4.00000 7.03348 21.51677
4.00000 7.03348 21.60636
4.00000 7.03348 21.69595
4.00000 7.03348 21.78556
4.00000 7.03348 21.87516
4.00000 7.03348 21.96477
4.00000 7.03348 22.05439
4.00000 7.03348 22.14402
4.00000 7.03348 22.23364
4.00000 7.03348 22.32328
4.00000 7.03348 22.41292
4.00000 7.03348 22.50256
4.00000 7.03348 22.59221
4.00000 7.03348 22.68187
4.00000 7.03348 22.77153
4.00000 7.03348 22.86119
4.00000 7.03348 22.95086
4.00000 7.03348 23.04054
4.00000 7.03348 23.13022
4.00000 7.03348 23.21990
4.00000 7.03348 23.30959
4.00000 7.03348 23.39928
4.00000 7.03348 23.48898
4.00000 7.03348 23.57869
4.00000 7.03348 23.66840
4.00000 7.03348 23.75811
4.00000 7.03348 23.84783
4.00000 7.03348 23.93755
4.00000 7.03348 24.02728
4.00000 7.03348 24.11701
4.00000 7.03348 24.20675
4.00000 7.03348 24.29649
4.00000 7.03348 24.38623
4.00000 7.03348 24.47598
4.00000 7.03348 24.56573
4.00000 7.03348 24.65549
4.00000 7.03348 24.74526
4.00000 7.03348 24.83502
4.00000 7.03348 24.92479
4.00000 7.03348 25.01457
4.00000 7.03348 25.10435
4.00000 7.03348 25.19413
4.00000 7.03348 25.28392
4.00000 7.03348 25.37371
4.00000 7.03348 25.46351
4.00000 7.03348 25.55331
4.00000 7.03348 25.64311
4.00000 7.03348 25.73292
4.00000 7.03348 25.82273
4.00000 7.03348 25.91255
4.00000 7.03348 26.00237
4.00000 7.03348 26.09219
4.00000 7.03348 26.18202
4.00000 7.03348 26.27185
4.00000 7.03348 26.36168
4.00000 7.03348 26.45152
4.00000 7.03348 26.54136
4.00000 7.03348 26.63121
4.00000 7.03348 26.72106
4.00000 7.03348 26.81091
4.00000 7.03348 26.90077
4.00000 7.03348 26.99063
4.00000 7.03348 27.08050
4.00000 7.03348 27.17036
4.00000 7.03348 27.26023
4.00000 7.03348 27.35011
4.00000 7.03348 27.43999
4.00000 7.03348 27.52987
4.00000 7.03348 27.61975
4.00000 7.03348 27.70964
4.00000 7.03348 27.79953
4.00000 7.03348 27.88943
4.00000 7.03348 27.97933
4.00000 7.03348 28.06923
4.00000 7.03348 28.15913
4.00000 7.03348 28.24904
4.00000 7.03348 28.33895
4.00000 7.03348 28.42887
4.00000 7.03348 28.51878
4.00000 7.03348 28.60871
4.00000 7.03348 28.69863
4.00000 7.03348 28.78856
4.00000 7.03348 28.87849
4.00000 7.03348 28.96842
4.00000 7.03348 29.05836
4.00000 7.03348 29.14830
4.00000 7.03348 29.23824
4.00000 7.03348 29.32818
4.00000 7.03348 29.41813
4.00000 7.03348 29.50808
4.00000 7.03348 29.59804
4.00000 7.03348 29.68799
4.00000 7.03348 29.77795
4.00000 7.03348 29.86792
4.00000 7.03348 29.95788
4.00000 7.03348 30.04785
4.00000 7.03348 30.13782
4.00000 7.03348 30.22780
4.00000 7.03348 30.31777
4.00000 7.03348 30.40775
4.00000 7.03348 30.49774
4.00000 7.03348 30.58772
4.00000 7.03348 30.67771
4.00000 7.03348 30.76770
4.00000 7.03348 30.85769
4.00000 7.03348 30.94769
4.00000 7.03348 31.03769
4.00000 7.03348 31.12769
4.00000 7.03348 31.21769
4.00000 7.03348 31.30770
4.00000 7.03348 31.39771
4.00000 7.03348 31.48772
4.00000 7.03348 31.57773
4.00000 7.03348 31.66775
4.00000 7.03348 31.75777
4.00000 7.03348 31.84779
4.00000 7.03348 31.93781
4.00000 7.03348 32.02784
4.00000 7.03348 32.11786
4.00000 7.03348 32.20790
4.00000 7.03348 32.29793
4.00000 7.03348 32.38796
4.00000 7.03348 32.47800
4.00000 7.03348 32.56804
4.00000 7.03348 32.65809
4.00000 7.03348 32.74813
4.00000 7.03348 32.83818
4.00000 7.03348 32.92823
4.00000 7.03348 33.01828
4.00000 7.03348 33.10833
4.00000 7.03348 33.19839
4.00000 7.03348 33.28845
4.00000 7.03348 33.37851
4.00000 7.03348 33.46857
4.00000 7.03348 33.55864
4.00000 7.03348 33.64871
4.00000 7.03348 33.73877
4.00000 7.03348 33.82885
4.00000 7.03348 33.91892
4.00000 7.03348 34.00900
4.00000 7.03348 34.09907
4.00000 7.03348 34.18915
4.00000 7.03348 34.27924
4.00000 7.03348 34.36932
4.00000 7.03348 34.45941
4.00000 7.03348 34.54950
4.00000 7.03348 34.63959
4.00000 7.03348 34.72968
4.00000 7.03348 34.81977
4.00000 7.03348 34.90987
4.00000 7.03348 34.99997
4.00000 7.03348 35.09007
4.00000 7.03348 35.18017
4.00000 7.03348 35.27027

Angle 0.100091 1.069245

4.00000 7.03348 4.00000
4.00000 7.03348 4.00000
4.00000 7.03348 4.00000
4.00000 7.03348 4.00000
4.00000 7.03348 4.00000
4.00000 7.03348 4.00000
4.00000 7.03348 4.00000
4.00000 7.03348 4.00000
4.00000 7.03348 4.00000
4.00000 7.03348 4.00000
4.00000 7.03348 4.00000
4.00000 7.03348 4.00000
4.00000 7.03348 4.00000
4.00000 7.03348 4.00000
4.00000 7.03348 4.00000
4.00000 7.03348 4.00000
4.00000 7.03348 4.00000
4.00000 7.03348 4.00000
4.00000 7.03348 4.00000
4.00000 7.03348 4.00000
4.00000 7.03348 4.00000
4.00000 7.03348 4.00000
4.00000 7.03348 4.00000
4.00000 7.03348 4.00000
4.00000 7.03348 4.00000
4.00000 7.03348 4.00000
4.00000 7.03348 4.00000
4.00000 7.03348 4.00000
4.00000 7.03347 4.00000
4.00000 7.03347 4.00000
4.00000 7.03348 4.00000
4.00000 7.03348 4.00000
4.00000 7.03348 4.00000
4.00000 7.03348 4.00000
4.00000 7.03348 4.00000
4.00000 7.03348 4.00000
4.00000 7.03348 4.00000
4.00000 7.03348 4.00000
4.00000 7.03348 4.00000
4.00000 7.03348 4.00000
4.00000 7.03348 4.00000
4.00000 7.03348 4.00000
4.00000 7.03348 4.00000
4.00000 7.03348 4.00000
4.00000 7.03348 4.00000
4.00000 7.03348 4.00000
4.00000 7.03348 4.00000
4.00000 7.03348 4.00000
4.00000 7.03346 4.00000
4.00000 7.03346 4.00000
4.00000 7.03346 4.00000
4.00000 7.03346 4.00000
4.00000 7.03346 4.00000
4.00000 7.03346 4.00000
4.00000 7.03346 4.00000
4.00000 7.03346 4.00000
4.00000 7.03348 4.00000
4.00000 7.03348 4.00000
4.00000 7.03348 4.00000
4.00000 7.03348 4.00000
4.00000 7.03348 4.00000
4.00000 7.03348 4.00000
4.00000 7.03348 4.00000
4.00000 7.03348 4.00000
4.00000 7.03348 4.00000
4.00000 7.03348 4.00000
4.00000 7.03348 4.00000
4.00000 7.03348 4.00000
4.00000 7.03348 4.00000
4.00000 7.03348 4.00000
4.00000 7.03348 4.00000
4.00000 7.03348 4.00000
4.00000 7.03348 4.00000
4.00000 7.03348 4.00000
4.00000 7.03348 4.00000
4.00000 7.03348 4.00000
4.00000 7.03348 4.00000
4.00000 7.03348 4.00000
4.00000 7.03348 4.00000
4.00000 7.03348 4.00000
4.00000 7.03348 4.00000
4.00000 7.03348 4.00000
4.00000 7.03348 4.00000
4.00000 7.03348 4.00000
4.00000 7.03348 4.00000
4.00000 7.03348 4.00000
4.00000 7.03348 4.00000
4.00000 7.03348 4.00000
4.00000 7.03348 4.00000
4.00000 7.03348 4.00000
4.00000 7.03346 4.00000
4.00000 7.03346 4.00000
4.00000 7.03346 4.00000
4.00000 7.03346 4.00000
4.00000 7.03348 4.00000
4.00000 7.03348 4.00000
4.00000 7.03350 4.00000
4.00000 7.03350 4.00000
4.00000 7.03350 4.00000
4.00000 7.03349 4.00000
4.00000 7.03349 4.00000
4.00000 7.03350 4.00000
4.00000 7.03350 4.00000
4.00000 7.03350 4.00000
4.00000 7.03351 4.00000
4.00000 7.03348 4.00000
4.00000 7.03348 4.00000
4.00000 7.03348 4.00000
4.00000 7.03348 4.00000
4.00000 7.03348 4.00000
4.00000 7.03349 4.00000
4.00000 7.03348 4.00000
4.00000 7.03348 4.00000
4.00150 7.06199 4.00150
4.00483 7.12623 4.00483
4.00812 7.19076 4.00812
4.01138 7.25555 4.01138
4.01462 7.32059 4.01462
4.01785 7.38585 4.01785
4.02108 7.45131 4.02108
4.02431 7.51695 4.02431
4.02757 7.58275 4.02757
4.03084 7.64868 4.03084
4.03416 7.71472 4.03416
4.03753 7.78085 4.03753
4.04097 7.84702 4.04097
4.04448 7.91322 4.04448
4.04809 7.97941 4.04809
4.05181 8.04554 4.05181
4.05566 8.11157 4.05566
4.05968 8.17745 4.05968
4.06389 8.24313 4.06389
4.06831 8.30852 4.06831
4.07300 8.37355 4.07300
4.07800 8.43813 4.07800
4.08336 8.50214 4.08336
4.08916 8.56543 4.08916
4.09547 8.62785 4.09547
4.10239 8.68921 4.10239
4.10987 8.74957 4.10987
4.11794 8.80893 4.11794
4.12663 8.86720 4.12663
4.13597 8.92430 4.13597
4.14600 8.98016 4.14600
4.15675 9.03472 4.15675
4.16825 9.08792 4.16825
4.18052 9.13972 4.18052
4.19358 9.19007 4.19358
4.20744 9.23897 4.20744
4.22210 9.28639 4.22210
4.23755 9.33235 4.23755
4.25379 9.37686 4.25379
4.27081 9.41996 4.27081
4.28857 9.46169 4.28857
4.30705 9.50210 4.30705
4.32623 9.54123 4.32623
4.34607 9.57915 4.34608
4.36656 9.61593 4.36656
4.38764 9.65160 4.38764
4.40932 9.68622 4.40932
4.43156 9.71981 4.43156
4.45436 9.75240 4.45436
4.47774 9.78396 4.47774
4.50173 9.81439 4.50173
4.52642 9.84351 4.52643
4.55204 9.87091 4.55204
4.57899 9.89575 4.57899
4.60822 9.91613 4.60822
4.64199 9.92754 4.64199
4.01360 7.30007 7.97689
4.01207 7.26932 8.08832
4.01076 7.24327 8.19492
4.00964 7.22092 8.29774
4.00866 7.20154 8.39754
4.00780 7.18460 8.49488
4.00705 7.16970 8.59017
4.00638 7.15651 8.68375
4.00578 7.14479 8.77589
4.00524 7.13435 8.86678
4.00476 7.12500 8.95661
4.00433 7.11660 9.04553
4.00394 7.10906 9.13364
4.00359 7.10225 9.22106
4.00327 7.09610 9.30789
4.00298 7.09055 9.39416
4.00272 7.08551 9.47998
4.00249 7.08095 9.56539
4.00227 7.07680 9.65044
4.00207 7.07307 9.73514
4.00189 7.06960 9.81963
4.00173 7.06648 9.90384
4.00158 7.06364 9.98784
4.00145 7.06105 10.07165
4.00133 7.05871 10.15527
4.00121 7.05653 10.23880
4.00111 7.05456 10.32219
4.00102 7.05275 10.40547
4.00093 7.05112 10.48865
4.00085 7.04962 10.57176
4.00078 7.04825 10.65481
4.00071 7.04699 10.73780
4.00065 7.04585 10.82075
4.00060 7.04481 10.90365
4.00054 7.04384 10.98655
4.00050 7.04297 11.06943
4.00046 7.04216 11.15229
4.00042 7.04142 11.23514
4.00038 7.04075 11.31800
4.00035 7.04014 11.40085
4.00032 7.03957 11.48373
4.00029 7.03905 11.56662
4.00027 7.03858 11.64951
4.00025 7.03815 11.73244
4.00023 7.03776 11.81538
4.00021 7.03739 11.89835
4.00019 7.03706 11.98134
4.00017 7.03676 12.06437
4.00016 7.03648 12.14742
4.00014 7.03622 12.23052
4.00013 7.03599 12.31364
4.00012 7.03578 12.39680
4.00011 7.03558 12.48000
4.00010 7.03540 12.56324
4.00009 7.03524 12.64651
4.00008 7.03509 12.72982
4.00008 7.03496 12.81318
4.00007 7.03484 12.89657
4.00007 7.03471 12.98002
4.00006 7.03460 13.06352
4.00005 7.03451 13.14703
4.00005 7.03442 13.23060
4.00005 7.03434 13.31420
4.00004 7.03427 13.39786
4.00004 7.03419 13.48158
4.00003 7.03415 13.56531
4.00003 7.03408 13.64913
4.00003 7.03403 13.73297
4.00002 7.03398 13.81687
4.00002 7.03393 13.90082
4.00002 7.03389 13.98481
4.00002 7.03386 14.06884
4.00002 7.03382 14.15292
4.00002 7.03379 14.23705
4.00001 7.03377 14.32122
4.00001 7.03374 14.40544
4.00001 7.03372 14.48971
4.00001 7.03369 14.57401
4.00001 7.03368 14.65837
4.00001 7.03366 14.74276
4.00001 7.03364 14.82720
4.00001 7.03363 14.91169
4.00001 7.03361 14.99621
4.00001 7.03360 15.08079
4.00001 7.03359 15.16540
4.00000 7.03358 15.25006
4.00000 7.03357 15.33476
4.00000 7.03356 15.41951
4.00000 7.03355 15.50429
4.00000 7.03354 15.58912
4.00000 7.03354 15.67400
4.00000 7.03354 15.75891
4.00000 7.03354 15.84387
4.00000 7.03353 15.92887
4.00000 7.03353 16.01392
4.00000 7.03352 16.09902
4.00000 7.03352 16.18415
4.00000 7.03352 16.26933
4.00000 7.03351 16.35454
4.00000 7.03351 16.43979
4.00000 7.03351 16.52507
4.00000 7.03351 16.61038
4.00000 7.03350 16.69572
4.00000 7.03350 16.78110
4.00000 7.03350 16.86651
4.00000 7.03350 16.95194
4.00000 7.03350 17.03741
4.00000 7.03349 17.12291
4.00000 7.03349 17.20843
4.00000 7.03349 17.29398
4.00000 7.03349 17.37956
4.00000 7.03349 17.46517
4.00000 7.03349 17.55081
4.00000 7.03349 17.63647
4.00000 7.03349 17.72216
4.00000 7.03349 17.80787
4.00000 7.03349 17.89361
4.00000 7.03349 17.97937
4.00000 7.03349 18.06516
4.00000 7.03348 18.15098
4.00000 7.03348 18.23682
4.00000 7.03348 18.32268
4.00000 7.03348 18.40857
4.00000 7.03348 18.49448
4.00000 7.03348 18.58042
4.00000 7.03348 18.66638
4.00000 7.03348 18.75236
4.00000 7.03348 18.83837
4.00000 7.03348 18.92439
4.00000 7.03348 19.01045
4.00000 7.03348 19.09652
4.00000 7.03348 19.18262
4.00000 7.03348 19.26874
4.00000 7.03348 19.35488
4.00000 7.03348 19.44104
4.00000 7.03348 19.52723
4.00000 7.03348 19.61344
4.00000 7.03348 19.69967
4.00000 7.03348 19.78592
4.00000 7.03348 19.87219
4.00000 7.03348 19.95849
4.00000 7.03348 20.04480
4.00000 7.03348 20.13114
4.00000 7.03348 20.21750
4.00000 7.03348 20.30388
4.00000 7.03348 20.39028
4.00000 7.03348 20.47670
4.00000 7.03348 20.56314
4.00000 7.03348 20.64960
4.00000 7.03348 20.73608
4.00000 7.03348 20.82259
4.00000 7.03348 20.90911
4.00000 7.03348 20.99565
4.00000 7.03348 21.08221
4.00000 7.03348 21.16880
4.00000 7.03348 21.25540
4.00000 7.03348 21.34202
4.00000 7.03348 21.42866
4.00000 7.03348 21.51533
4.00000 7.03348 21.60201
4.00000 7.03348 21.68871
4.00000 7.03348 21.77543
4.00000 7.03348 21.86216
4.00000 7.03348 21.94892
4.00000 7.03348 22.03570
4.00000 7.03348 22.12249
4.00000 7.03348 22.20931
4.00000 7.03348 22.29614
4.00000 7.03348 22.38299
4.00000 7.03348 22.46986
4.00000 7.03348 22.55675
4.00000 7.03348 22.64366
4.00000 7.03348 22.73058
4.00000 7.03348 22.81752
4.00000 7.03348 22.90448
4.00000 7.03348 22.99146
4.00000 7.03348 23.07846
4.00000 7.03348 23.16547
4.00000 7.03348 23.25250
4.00000 7.03348 23.33955
4.00000 7.03348 23.42662
4.00000 7.03348 23.51370
4.00000 7.03348 23.60081
4.00000 7.03348 23.68792
4.00000 7.03348 23.77506
4.00000 7.03348 23.86221
4.00000 7.03348 23.94938
4.00000 7.03348 24.03657
4.00000 7.03348 24.12377
4.00000 7.03348 24.21099
4.00000 7.03348 24.29823
4.00000 7.03348 24.38548
4.00000 7.03348 24.47275
4.00000 7.03348 24.56003
4.00000 7.03348 24.64733
4.00000 7.03348 24.73465
4.00000 7.03348 24.82198
4.00000 7.03348 24.90933
4.00000 7.03348 24.99670
4.00000 7.03348 25.08408
4.00000 7.03348 25.17148
4.00000 7.03348 25.25889
4.00000 7.03348 25.34632
4.00000 7.03348 25.43376
4.00000 7.03348 25.52122
4.00000 7.03348 25.60869
4.00000 7.03348 25.69618
4.00000 7.03348 25.78368
4.00000 7.03348 25.87120
4.00000 7.03348 25.95873
4.00000 7.03348 26.04628
4.00000 7.03348 26.13384
4.00000 7.03348 26.22142
4.00000 7.03348 26.30901
4.00000 7.03348 26.39662
4.00000 7.03348 26.48424
4.00000 7.03348 26.57187
4.00000 7.03348 26.65952
4.00000 7.03348 26.74718
4.00000 7.03348 26.83486
4.00000 7.03348 26.92255
4.00000 7.03348 27.01026
4.00000 7.03348 27.09797
4.00000 7.03348 27.18571
4.00000 7.03348 27.27345
4.00000 7.03348 27.36121
4.00000 7.03348 27.44898
4.00000 7.03348 27.53677
4.00000 7.03348 27.62457
4.00000 7.03348 27.71238
4.00000 7.03348 27.80021

Angle 0.154282 1.554813

4.00000 7.03348 4.00000
4.00000 7.03348 4.00000
4.00000 7.03348 4.00000
4.00000 7.03348 4.00000
4.00000 7.03348 4.00000
4.00000 7.03348 4.00000
4.00000 7.03348 4.00000
4.00000 7.03348 4.00000
4.00000 7.03348 4.00000
4.00000 7.03348 4.00000
4.00000 7.03348 4.00000
4.00000 7.03348 4.00000
4.00000 7.03348 4.00000
4.00000 7.03348 4.00000
4.00000 7.03348 4.00000
4.00000 7.03348 4.00000
4.00000 7.03348 4.00000
4.00000 7.03348 4.00000
4.00000 7.03348 4.00000
4.00000 7.03348 4.00000
4.00000 7.03348 4.00000
4.00000 7.03348 4.00000
4.00000 7.03348 4.00000
4.00000 7.03348 4.00000
4.00000 7.03348 4.00000
4.00000 7.03348 4.00000
4.00000 7.03348 4.00000
4.00000 7.03348 4.00000
4.00000 7.03348 4.00000
4.00000 7.03348 4.00000
4.00000 7.03348 4.00000
4.00000 7.03348 4.00000
4.00000 7.03348 4.00000
4.00000 7.03348 4.00000
4.00000 7.03348 4.00000
4.00000 7.03348 4.00000
4.00000 7.03348 4.00000
4.00000 7.03348 4.00000
4.00000 7.03348 4.00000
4.00000 7.03348 4.00000
4.00000 7.03348 4.00000
4.00000 7.03348 4.00000
4.00000 7.03348 4.00000
4.00000 7.03348 4.00000
4.00000 7.03348 4.00000
4.00000 7.03348 4.00000
4.00000 7.03348 4.00000
4.00000 7.03348 4.00000
4.00000 7.03348 4.00000
4.00000 7.03348 4.00000
4.00000 7.03348 4.00000
4.00000 7.03348 4.00000
4.00000 7.03348 4.00000
4.00000 7.03348 4.00000
4.00000 7.03348 4.00000
4.00000 7.03348 4.00000
4.00000 7.03348 4.00000
4.00000 7.03348 4.00000
4.00000 7.03348 4.00000
4.00000 7.03348 4.00000
4.00000 7.03348 4.00000
4.00000 7.03348 4.00000
4.00000 7.03348 4.00000
4.00000 7.03348 4.00000
4.00000 7.03348 4.00000
4.00000 7.03348 4.00000
4.00000 7.03348 4.00000
4.00000 7.03348 4.00000
4.00000 7.03348 4.00000
4.00000 7.03348 4.00000
4.00000 7.03348 4.00000
4.00000 7.03348 4.00000
4.00000 7.03348 4.00000
4.00000 7.03348 4.00000
4.00000 7.03348 4.00000
4.00000 7.03348 4.00000
4.00000 7.03348 4.00000
4.00000 7.03348 4.00000
4.00000 7.03348 4.00000
4.00000 7.03348 4.00000
4.00000 7.03348 4.00000
4.00000 7.03348 4.00000
4.00000 7.03348 4.00000
4.00000 7.03348 4.00000
4.00000 7.03348 4.00000
4.00000 7.03348 4.00000
4.00000 7.03348 4.00000
4.00000 7.03348 4.00000
4.00000 7.03348 4.00000
4.00000 7.03348 4.00000
4.00000 7.03348 4.00000
4.00000 7.03348 4.00000
4.00000 7.03348 4.00000
4.00000 7.03348 4.00000
4.00000 7.03348 4.00000
4.00000 7.03348 4.00000
4.00000 7.03348 4.00000
4.00000 7.03348 4.00000
4.00000 7.03348 4.00000
4.00000 7.03348 4.00000
4.00000 7.03348 4.00000
4.00000 7.03348 4.00000
4.00000 7.03348 4.00000
4.00000 7.03348 4.00000
4.00000 7.03348 4.00000
4.00000 7.03348 4.00000
4.00000 7.03348 4.00000
4.00000 7.03348 4.00000
4.00000 7.03348 4.00000
4.00000 7.03348 4.00000
4.00000 7.03348 4.00000
4.00000 7.03348 4.00000
4.00000 7.03347 4.00000
4.00000 7.03348 4.00000
4.00000 7.03348 4.00000
4.00000 7.03348 4.00000
4.00000 7.03348 4.00000
4.00000 7.03348 4.00000
4.00000 7.03348 4.00000
4.00000 7.03348 4.00000
4.00000 7.03348 4.00000
4.00000 7.03348 4.00000
4.00000 7.03348 4.00000
4.00000 7.03348 4.00000
4.00000 7.03348 4.00000
4.00000 7.03348 4.00000
4.00000 7.03348 4.00000
4.00000 7.03348 4.00000
4.00000 7.03348 4.00000
4.00000 7.03348 4.00000
4.00000 7.03348 4.00000
4.00000 7.03348 4.00000
4.00000 7.03348 4.00000
4.00000 7.03348 4.00000
4.00000 7.03348 4.00000
4.00000 7.03348 4.00000
4.00000 7.03348 4.00000
4.00000 7.03348 4.00000
4.00000 7.03348 4.00000
4.00000 7.03348 4.00000
4.00000 7.03348 4.00000
4.00000 7.03348 4.00000
4.00000 7.03348 4.00000
4.00000 7.03348 4.00000
4.00000 7.03348 4.00000
4.00000 7.03348 4.00000
4.00000 7.03348 4.00000
4.00000 7.03348 4.00000
4.00000 7.03348 4.00000
4.00000 7.03348 4.00000
4.00000 7.03348 4.00000
4.00000 7.03348 4.00000
4.00000 7.03348 4.00000
4.00000 7.03348 4.00000
4.00000 7.03348 4.00000
4.00000 7.03348 4.00000
4.00000 7.03348 4.00000
4.00000 7.03348 4.00000
4.00000 7.03348 4.00000
4.00000 7.03348 4.00000
4.00000 7.03348 4.00000
4.00000 7.03348 4.00000
4.00000 7.03348 4.00000
4.00000 7.03348 4.00000
4.00000 7.03348 4.00000
4.00000 7.03348 4.00000
4.00000 7.03348 4.00000
4.00000 7.03348 4.00000
4.00000 7.03348 4.00000
4.00000 7.03348 4.00000
4.00000 7.03348 4.00000
4.00000 7.03348 4.00000
4.00000 7.03348 4.00000
4.00000 7.03348 4.00000
4.00000 7.03348 4.00000
4.00000 7.03348 4.00000
4.00000 7.03348 4.00000
4.00000 7.03348 4.00000
4.00000 7.03348 4.00000
4.00000 7.03348 4.00000
4.00000 7.03348 4.00000
4.00000 7.03348 4.00000
4.00000 7.03348 4.00000
4.00000 7.03348 4.00000
4.00000 7.03348 4.00000
4.00000 7.03348 4.00000
4.00000 7.03348 4.00000
4.00000 7.03348 4.00000
4.00000 7.03349 4.00000
4.00000 7.03348 4.00000
4.00000 7.03348 4.00000
4.00000 7.03351 4.00000
4.00000 7.03348 4.00000
4.00000 7.03348 4.00000
4.00000 7.03349 4.00000
4.00000 7.03348 4.00000
4.00000 7.03348 4.00000
4.00000 7.03348 4.00000
4.00000 7.03353 4.00000
4.00237 7.07872 4.00237
4.00635 7.15605 4.00635
4.01028 7.23356 4.01028
4.01415 7.31122 4.01415
4.01801 7.38900 4.01801
4.02184 7.46685 4.02184
4.02569 7.54476 4.02569
4.02955 7.62268 4.02955
4.03345 7.70058 4.03345
4.03741 7.77842 4.03741
4.04144 7.85615 4.04144
4.04558 7.93373 4.04558
4.04985 8.01110 4.04985
4.05428 8.08821 4.05428
4.05891 8.16497 4.05891
4.06377 8.24131 4.06377
4.06892 8.31712 4.06892
4.07441 8.39229 4.07441
4.08033 8.46665 4.08033
4.08677 8.54003 4.08677
4.09382 8.61221 4.09382
4.10164 8.68291 4.10164
4.11021 8.75217 4.11021
4.11952 8.81996 4.11952
4.12964 8.88620 4.12964
4.14061 8.95078 4.14061
4.15247 9.01361 4.15247
4.16527 9.07460 4.16527
4.17904 9.13370 4.17904
4.19380 9.19086 4.19380
4.20955 9.24606 4.20955
4.22631 9.29930 4.22631
4.24405 9.35060 4.24405
4.26276 9.40000 4.26276
4.28241 9.44758 4.28241
4.30296 9.49339 4.30295
4.32435 9.53752 4.32436
4.34657 9.58007 4.34657
4.36955 9.62111 4.36955
4.39325 9.66074 4.39325
4.41765 9.69902 4.41765
4.44272 9.73599 4.44272
4.46845 9.77165 4.46846
4.49490 9.80594 4.49490
4.52215 9.83864 4.52215
4.55044 9.86930 4.55044
4.58031 9.89683 4.58031
4.61304 9.91865 4.61305
4.01493 7.32673 7.89042
4.01301 7.28822 8.01819
4.01143 7.25659 8.13879
4.01010 7.23011 8.25402
4.00897 7.20760 8.36510
4.00799 7.18826 8.47289
4.00714 7.17151 8.57799
4.00640 7.15690 8.68088
4.00574 7.14407 8.78191
4.00516 7.13276 8.88138
4.00465 7.12275 8.97951
4.00419 7.11387 9.07649
4.00378 7.10595 9.17247
4.00342 7.09888 9.26759
4.00309 7.09256 9.36195
4.00279 7.08689 9.45565
4.00253 7.08180 9.54876
4.00229 7.07722 9.64136
4.00208 7.07310 9.73351
4.00188 7.06939 9.82525
4.00171 7.06603 9.91663
4.00155 7.06300 10.00769
4.00141 7.06026 10.09848
4.00128 7.05779 10.18900
4.00116 7.05554 10.27930
4.00105 7.05352 10.36940
4.00096 7.05168 10.45932
4.00087 7.05001 10.54910
4.00079 7.04850 10.63870
4.00071 7.04712 10.72821
4.00065 7.04589 10.81758
4.00059 7.04475 10.90687
4.00054 7.04373 10.99605
4.00049 7.04279 11.08518
4.00045 7.04196 11.17420
4.00040 7.04117 11.26319
4.00037 7.04048 11.35212
4.00033 7.03986 11.44098
4.00030 7.03926 11.52983
4.00028 7.03874 11.61863
4.00025 7.03827 11.70739
4.00023 7.03784 11.79613
4.00021 7.03745 11.88482
4.00019 7.03708 11.97353
4.00017 7.03675 12.06221
4.00016 7.03645 12.15088
4.00014 7.03619 12.23954
4.00013 7.03594 12.32819
4.00012 7.03572 12.41684
4.00010 7.03552 12.50548
4.00009 7.03533 12.59412
4.00009 7.03516 12.68276
4.00008 7.03501 12.77140
4.00007 7.03487 12.86005
4.00006 7.03475 12.94870
4.00006 7.03463 13.03735
4.00005 7.03452 13.12601
4.00005 7.03443 13.21468
4.00004 7.03434 13.30335
4.00004 7.03426 13.39203
4.00004 7.03419 13.48072
4.00003 7.03412 13.56942
4.00003 7.03406 13.65812
4.00003 7.03401 13.74684
4.00002 7.03396 13.83557
4.00002 7.03392 13.92430
4.00002 7.03387 14.01305
4.00002 7.03384 14.10180
4.00002 7.03380 14.19057
4.00001 7.03377 14.27935
4.00001 7.03374 14.36814
4.00001 7.03372 14.45694
4.00001 7.03370 14.54575
4.00001 7.03367 14.63457
4.00001 7.03366 14.72340
4.00001 7.03364 14.81224
4.00001 7.03362 14.90110
4.00001 7.03361 14.98997
4.00001 7.03359 15.07884
4.00001 7.03358 15.16773
4.00000 7.03357 15.25663
4.00000 7.03358 15.34475
4.00000 7.03357 15.43364
4.00000 7.03356 15.52254
4.00000 7.03355 15.61145
4.00000 7.03355 15.70038
4.00000 7.03354 15.78932
4.00000 7.03354 15.87827
4.00000 7.03353 15.96723
4.00000 7.03353 16.05620
4.00000 7.03352 16.14519
4.00000 7.03352 16.23419
4.00000 7.03351 16.32320
4.00000 7.03351 16.41222
4.00000 7.03351 16.50125
4.00000 7.03351 16.59030
4.00000 7.03350 16.67935
4.00000 7.03350 16.76842
4.00000 7.03350 16.85750
4.00000 7.03350 16.94659
4.00000 7.03350 17.03568
4.00000 7.03349 17.12479
4.00000 7.03349 17.21391
4.00000 7.03349 17.30304
4.00000 7.03349 17.39218
4.00000 7.03349 17.48133
4.00000 7.03349 17.57049
4.00000 7.03349 17.65966
4.00000 7.03349 17.74884
4.00000 7.03349 17.83803
4.00000 7.03349 17.92723
4.00000 7.03349 18.01644
4.00000 7.03348 18.10566
4.00000 7.03348 18.19488
4.00000 7.03348 18.28412
4.00000 7.03348 18.37336
4.00000 7.03348 18.46262
4.00000 7.03348 18.55188
4.00000 7.03348 18.64115
4.00000 7.03348 18.73043
4.00000 7.03348 18.81972
4.00000 7.03348 18.90902
4.00000 7.03348 18.99832
4.00000 7.03348 19.08764
4.00000 7.03348 19.17696
4.00000 7.03348 19.26629
4.00000 7.03348 19.35563
4.00000 7.03348 19.44497
4.00000 7.03348 19.53433
4.00000 7.03348 19.62369
4.00000 7.03348 19.71306
4.00000 7.03348 19.80244
4.00000 7.03348 19.89182
4.00000 7.03348 19.98122
4.00000 7.03348 20.07062
4.00000 7.03348 20.16003
4.00000 7.03348 20.24944
4.00000 7.03348 20.33886
4.00000 7.03348 20.42829
4.00000 7.03348 20.51773
4.00000 7.03348 20.60717
4.00000 7.03348 20.69662
4.00000 7.03348 20.78608
4.00000 7.03348 20.87555
4.00000 7.03348 20.96502
4.00000 7.03348 21.05450
4.00000 7.03348 21.14398
4.00000 7.03348 21.23347
4.00000 7.03348 21.32297
4.00000 7.03348 21.41248
4.00000 7.03348 21.50199
4.00000 7.03348 21.59150
4.00000 7.03348 21.68103

Angle 0.151748 6.197489

4.00000 7.03348 4.00000
4.00000 7.03348 4.00000
4.00000 7.03348 4.00000
4.00000 7.03348 4.00000
4.00000 7.03348 4.00000
4.00000 7.03348 4.00000
4.00000 7.03348 4.00000
4.00000 7.03348 4.00000
4.00000 7.03348 4.00000
4.00000 7.03348 4.00000
4.00000 7.03348 4.00000
4.00000 7.03348 4.00000
4.00000 7.03348 4.00000
4.00000 7.03348 4.00000
4.00000 7.03348 4.00000
4.00000 7.03348 4.00000
4.00000 7.03348 4.00000
4.00000 7.03348 4.00000
4.00000 7.03348 4.00000
4.00000 7.03348 4.00000
4.00000 7.03348 4.00000
4.00000 7.03348 4.00000
4.00000 7.03348 4.00000
4.00000 7.03348 4.00000
4.00000 7.03348 4.00000
4.00000 7.03348 4.00000
4.00000 7.03348 4.00000
4.00000 7.03348 4.00000
4.00000 7.03348 4.00000
4.00000 7.03348 4.00000
4.00000 7.03348 4.00000
4.00000 7.03348 4.00000
4.00000 7.03348 4.00000
4.00000 7.03348 4.00000
4.00000 7.03348 4.00000
4.00000 7.03348 4.00000
4.00000 7.03348 4.00000
4.00000 7.03348 4.00000
4.00000 7.03348 4.00000
4.00000 7.03348 4.00000
4.00000 7.03348 4.00000
4.00000 7.03348 4.00000
4.00000 7.03348 4.00000
4.00000 7.03348 4.00000
4.00000 7.03348 4.00000
4.00000 7.03348 4.00000
4.00000 7.03348 4.00000
4.00000 7.03348 4.00000
4.00000 7.03348 4.00000
4.00000 7.03348 4.00000
4.00000 7.03348 4.00000
4.00000 7.03348 4.00000
4.00000 7.03348 4.00000
4.00000 7.03348 4.00000
4.00000 7.03348 4.00000
4.00000 7.03348 4.00000
4.00000 7.03348 4.00000
4.00000 7.03348 4.00000
4.00000 7.03348 4.00000
4.00000 7.03348 4.00000
4.00000 7.03348 4.00000
4.00000 7.03348 4.00000
4.00000 7.03348 4.00000
4.00000 7.03348 4.00000
4.00000 7.03348 4.00000
4.00000 7.03348 4.00000
4.00000 7.03348 4.00000
4.00000 7.03348 4.00000
4.00000 7.03348 4.00000
4.00000 7.03348 4.00000
4.00000 7.03348 4.00000
4.00000 7.03348 4.00000
4.00000 7.03348 4.00000
4.00000 7.03348 4.00000
4.00000 7.03348 4.00000
4.00000 7.03349 4.00000
4.00245 7.08034 4.00245
4.00647 7.15827 4.00647
4.01042 7.23638 4.01042
4.01432 7.31462 4.01433
4.01820 7.39298 4.01820
4.02207 7.47140 4.02207
4.02594 7.54987 4.02594
4.02983 7.62835 4.02983
4.03376 7.70679 4.03376
4.03775 7.78516 4.03775
4.04183 7.86342 4.04183
4.04601 7.94151 4.04601
4.05032 8.01938 4.05032
4.05480 8.09696 4.05480
4.05948 8.17418 4.05948
4.06440 8.25095 4.06440
4.06963 8.32717 4.06963
4.07521 8.40271 4.07521
4.08124 8.47741 4.08124
4.08779 8.55108 4.08779
4.09501 8.62349 4.09501
4.10300 8.69437 4.10300
4.11174 8.76380 4.11174
4.12124 8.83173 4.12124
4.13157 8.89807 4.13157
4.14276 8.96270 4.14276
4.15487 9.02554 4.15487
4.16793 9.08651 4.16793
4.18197 9.14555 4.18197
4.19702 9.20261 4.19702
4.21308 9.25769 4.21308
4.23014 9.31079 4.23015
4.24820 9.36194 4.24820
4.26723 9.41118 4.26723
4.28719 9.45858 4.28719
4.30806 9.50421 4.30806
4.32977 9.54818 4.32977
4.35229 9.59055 4.35229
4.37558 9.63144 4.37557
4.39958 9.67090 4.39958
4.42428 9.70902 4.42428
4.44965 9.74582 4.44965
4.47570 9.78129 4.47570
4.50248 9.81532 4.50248
4.53013 9.84766 4.53013
4.55893 9.87770 4.55893
4.58959 9.90406 4.58959
4.62385 9.92326 4.62385
4.66561 9.92624 4.66684
8.05615 7.27780 4.01249
8.17543 7.24781 4.01099
8.28976 7.22256 4.00972
8.40019 7.20105 4.00864
8.50751 7.18253 4.00770
8.61229 7.16645 4.00688
8.71496 7.15240 4.00617
8.81586 7.14006 4.00554
8.91525 7.12918 4.00498
9.01337 7.11954 4.00448
9.11038 7.11098 4.00404
9.20643 7.10334 4.00365
9.30165 7.09652 4.00329
9.39613 7.09042 4.00298
9.48998 7.08495 4.00269
9.58326 7.08004 4.00244
9.67604 7.07562 4.00221
9.76838 7.07164 4.00200
9.86031 7.06807 4.00182
9.95191 7.06483 4.00165
10.04320 7.06191 4.00149
10.13421 7.05927 4.00136
10.22498 7.05688 4.00123
10.31553 7.05472 4.00112
10.40588 7.05276 4.00101
10.49606 7.05099 4.00092
10.58609 7.04936 4.00084
10.67596 7.04792 4.00076
10.76571 7.04660 4.00069
10.85536 7.04540 4.00063
10.94490 7.04432 4.00057
11.03437 7.04332 4.00052
11.12375 7.04242 4.00047
11.21307 7.04160 4.00043
11.30231 7.04087 4.00039
11.39152 7.04019 4.00035
11.48064 7.03959 4.00033
11.56977 7.03902 4.00029
11.65883 7.03852 4.00026
11.74785 7.03807 4.00024
11.83687 7.03764 4.00022
11.92586 7.03727 4.00020
12.01482 7.03693 4.00018
12.10376 7.03661 4.00016
12.19270 7.03633 4.00015
12.28158 7.03608 4.00014
12.37051 7.03583 4.00012
12.45941 7.03561 4.00011
12.54830 7.03542 4.00010
12.63719 7.03524 4.00009
12.72608 7.03508 4.00008
12.81497 7.03494 4.00008
12.90386 7.03481 4.00007
12.99275 7.03468 4.00006
13.08165 7.03457 4.00006
13.17055 7.03447 4.00005
13.25945 7.03438 4.00005
13.34835 7.03430 4.00004
13.43727 7.03422 4.00004
13.52618 7.03415 4.00003
13.61511 7.03409 4.00003
13.70404 7.03404 4.00003
13.79298 7.03398 4.00003
13.88192 7.03394 4.00002
13.97087 7.03389 4.00002
14.05983 7.03385 4.00002
14.14880 7.03382 4.00002
14.23778 7.03379 4.00002
14.32676 7.03376 4.00001
14.41575 7.03373 4.00001
14.50475 7.03371 4.00001
14.59376 7.03368 4.00001
14.68278 7.03366 4.00001
14.77181 7.03365 4.00001
14.86084 7.03363 4.00001
14.94974 7.03363 4.00001
15.03879 7.03362 4.00001
15.12786 7.03360 4.00001
15.21693 7.03359 4.00001
15.30601 7.03358 4.00001
15.39510 7.03357 4.00000
15.48420 7.03357 4.00000
15.57331 7.03356 4.00000
15.66243 7.03355 4.00000
15.75156 7.03354 4.00000
15.84070 7.03354 4.00000
15.92984 7.03353 4.00000
16.01900 7.03353 4.00000
16.10816 7.03352 4.00000
16.19733 7.03352 4.00000
16.28651 7.03352 4.00000
16.37570 7.03351 4.00000
16.46490 7.03351 4.00000
16.55411 7.03351 4.00000
16.64332 7.03350 4.00000
16.73255 7.03350 4.00000
16.82178 7.03350 4.00000
16.91102 7.03350 4.00000
17.00027 7.03350 4.00000
17.08952 7.03350 4.00000
17.17879 7.03349 4.00000
17.26806 7.03349 4.00000
17.35734 7.03349 4.00000
17.44663 7.03349 4.00000
17.53593 7.03349 4.00000
17.62524 7.03349 4.00000
17.71455 7.03349 4.00000
17.80387 7.03349 4.00000
17.89320 7.03349 4.00000
17.98253 7.03349 4.00000
18.07188 7.03349 4.00000
18.16123 7.03348 4.00000
18.25059 7.03348 4.00000
18.33995 7.03348 4.00000
18.42932 7.03348 4.00000
18.51870 7.03348 4.00000
18.60809 7.03348 4.00000
18.69749 7.03348 4.00000
18.78689 7.03348 4.00000
18.87630 7.03348 4.00000
18.96571 7.03348 4.00000
19.05513 7.03348 4.00000
19.14456 7.03348 4.00000
19.23400 7.03348 4.00000
19.32344 7.03348 4.00000
19.41289 7.03348 4.00000
19.50235 7.03348 4.00000
19.59181 7.03348 4.00000
19.68128 7.03348 4.00000
19.77076 7.03348 4.00000
19.86024 7.03348 4.00000
19.94973 7.03348 4.00000
20.03922 7.03348 4.00000
20.12872 7.03348 4.00000
20.21823 7.03348 4.00000
20.30774 7.03348 4.00000
20.39726 7.03348 4.00000
20.48679 7.03348 4.00000
20.57632 7.03348 4.00000
20.66586 7.03348 4.00000
20.75540 7.03348 4.00000
20.84495 7.03348 4.00000
20.93451 7.03348 4.00000
21.02407 7.03348 4.00000
21.11364 7.03348 4.00000
21.20321 7.03348 4.00000
21.29279 7.03348 4.00000
21.38237 7.03348 4.00000
21.47196 7.03348 4.00000
21.56156 7.03348 4.00000
21.65116 7.03348 4.00000
21.74077 7.03348 4.00000
21.83038 7.03348 4.00000
21.91999 7.03348 4.00000
22.00962 7.03348 4.00000
22.09924 7.03348 4.00000
22.18888 7.03348 4.00000
22.27851 7.03348 4.00000
22.36816 7.03348 4.00000
22.45781 7.03348 4.00000
22.54746 7.03348 4.00000
22.63712 7.03348 4.00000
22.72678 7.03348 4.00000
22.81645 7.03348 4.00000
22.90612 7.03348 4.00000
22.99580 7.03348 4.00000
23.08549 7.03348 4.00000
23.17517 7.03348 4.00000
23.26487 7.03348 4.00000
23.35456 7.03348 4.00000
23.44427 7.03348 4.00000
23.53397 7.03348 4.00000
23.62369 7.03348 4.00000
23.71340 7.03348 4.00000
23.80312 7.03348 4.00000
23.89285 7.03348 4.00000
23.98258 7.03348 4.00000
24.07231 7.03348 4.00000
24.16205 7.03348 4.00000
24.25179 7.03348 4.00000
24.34154 7.03348 4.00000
24.43129 7.03348 4.00000
24.52105 7.03348 4.00000
24.61081 7.03348 4.00000
24.70058 7.03348 4.00000
24.79035 7.03348 4.00000
24.88012 7.03348 4.00000
24.96990 7.03348 4.00000
25.05968 7.03348 4.00000
25.14946 7.03348 4.00000
25.23925 7.03348 4.00000
25.32905 7.03348 4.00000
25.41885 7.03348 4.00000
25.50865 7.03348 4.00000
25.59845 7.03348 4.00000
25.68826 7.03348 4.00000
25.77808 7.03348 4.00000
25.86789 7.03348 4.00000
25.95772 7.03348 4.00000
26.04754 7.03348 4.00000
26.13737 7.03348 4.00000
26.22720 7.03348 4.00000
26.31704 7.03348 4.00000
26.40688 7.03348 4.00000
26.49672 7.03348 4.00000
26.58657 7.03348 4.00000
26.67642 7.03348 4.00000
26.76628 7.03348 4.00000
26.85613 7.03348 4.00000
26.94600 7.03348 4.00000
27.03586 7.03348 4.00000
27.12573 7.03348 4.00000
27.21560 7.03348 4.00000
27.30548 7.03348 4.00000
27.39536 7.03348 4.00000
27.48524 7.03348 4.00000
27.57513 7.03348 4.00000
27.66502 7.03348 4.00000
27.75491 7.03348 4.00000
27.84480 7.03348 4.00000
27.93470 7.03348 4.00000
28.02461 7.03348 4.00000
28.11451 7.03348 4.00000
28.20442 7.03348 4.00000
28.29433 7.03348 4.00000
28.38425 7.03348 4.00000
28.47417 7.03348 4.00000
28.56409 7.03348 4.00000
28.65401 7.03348 4.00000
28.74394 7.03348 4.00000
28.83387 7.03348 4.00000
28.92381 7.03348 4.00000
29.01374 7.03348 4.00000
29.10368 7.03348 4.00000
29.19363 7.03348 4.00000
29.28357 7.03348 4.00000
29.37352 7.03348 4.00000
29.46347 7.03348 4.00000
29.55343 7.03348 4.00000
29.64339 7.03348 4.00000
29.73335 7.03348 4.00000
29.82331 7.03348 4.00000
29.91328 7.03348 4.00000
30.00324 7.03348 4.00000
30.09322 7.03348 4.00000
30.18319 7.03348 4.00000
30.27317 7.03348 4.00000
30.36315 7.03348 4.00000
30.45313 7.03348 4.00000
30.54312 7.03348 4.00000
30.63310 7.03348 4.00000
30.72309 7.03348 4.00000
30.81309 7.03348 4.00000
30.90308 7.03348 4.00000
30.99308 7.03348 4.00000
31.08308 7.03348 4.00000
31.17309 7.03348 4.00000
31.26309 7.03348 4.00000
31.35310 7.03348 4.00000
31.44311 7.03348 4.00000
31.53313 7.03348 4.00000
31.62315 7.03348 4.00000
31.71316 7.03348 4.00000
31.80319 7.03348 4.00000
31.89321 7.03348 4.00000
31.98324 7.03348 4.00000
32.07326 7.03348 4.00000
32.16330 7.03348 4.00000
32.25333 7.03348 4.00000
32.34336 7.03348 4.00000
32.43340 7.03348 4.00000
32.52344 7.03348 4.00000
32.61349 7.03348 4.00000
32.70353 7.03348 4.00000
32.79358 7.03348 4.00000

Angle 0.150816 2.595813

4.00000 7.03348 4.00000
4.00000 7.03348 4.00000
4.00000 7.03348 4.00000
4.00000 7.03348 4.00000
4.00000 7.03348 4.00000
4.00000 7.03348 4.00000
4.00000 7.03348 4.00000
4.00000 7.03348 4.00000
4.00000 7.03348 4.00000
4.00000 7.03348 4.00000
4.00000 7.03348 4.00000
4.00000 7.03348 4.00000
4.00000 7.03348 4.00000
4.00000 7.03348 4.00000
4.00000 7.03348 4.00000
4.00000 7.03348 4.00000
4.00000 7.03348 4.00000
4.00000 7.03348 4.00000
4.00000 7.03348 4.00000
4.00000 7.03348 4.00000
4.00000 7.03348 4.00000
4.00000 7.03348 4.00000
4.00000 7.03348 4.00000
4.00000 7.03348 4.00000
4.00000 7.03348 4.00000
4.00000 7.03348 4.00000
4.00000 7.03348 4.00000
4.00000 7.03348 4.00000
4.00000 7.03348 4.00000
4.00000 7.03348 4.00000
4.00000 7.03348 4.00000
4.00000 7.03348 4.00000
4.00000 7.03348 4.00000
4.00000 7.03348 4.00000
4.00000 7.03348 4.00000
4.00000 7.03348 4.00000
4.00000 7.03348 4.00000
4.00000 7.03348 4.00000
4.00000 7.03348 4.00000
4.00000 7.03348 4.00000
4.00000 7.03349 4.00000
4.00000 7.03349 4.00000
4.00000 7.03349 4.00000
4.00000 7.03349 4.00000
4.00000 7.03349 4.00000
4.00000 7.03349 4.00000
4.00000 7.03349 4.00000
4.00000 7.03349 4.00000
4.00000 7.03349 4.00000
4.00000 7.03348 4.00000
4.00000 7.03348 4.00000
4.00000 7.03348 4.00000
4.00000 7.03348 4.00000
4.00000 7.03348 4.00000
4.00000 7.03347 4.00000
4.00000 7.03348 4.00000
4.00000 7.03347 4.00000
4.00000 7.03348 4.00000
4.00000 7.03348 4.00000
4.00000 7.03348 4.00000
4.00000 7.03348 4.00000
4.00000 7.03348 4.00000
4.00000 7.03348 4.00000
4.00000 7.03348 4.00000
4.00000 7.03348 4.00000
4.00000 7.03348 4.00000
4.00000 7.03348 4.00000
4.00000 7.03350 4.00000
4.00000 7.03350 4.00000
4.00000 7.03348 4.00000
4.00000 7.03348 4.00000
4.00000 7.03348 4.00000
4.00000 7.03348 4.00000
4.00000 7.03348 4.00000
4.00000 7.03348 4.00000
4.00000 7.03348 4.00000
4.00000 7.03348 4.00000
4.00000 7.03348 4.00000
4.00000 7.03348 4.00000
4.00000 7.03348 4.00000
4.00000 7.03348 4.00000
4.00000 7.03348 4.00000
4.00000 7.03348 4.00000
4.00000 7.03348 4.00000
4.00000 7.03348 4.00000
4.00000 7.03348 4.00000
4.00000 7.03348 4.00000
4.00000 7.03348 4.00000
4.00000 7.03348 4.00000
4.00000 7.03348 4.00000
4.00000 7.03348 4.00000
4.00000 7.03348 4.00000
4.00000 7.03348 4.00000
4.00000 7.03348 4.00000
4.00000 7.03348 4.00000
4.00000 7.03348 4.00000
4.00000 7.03348 4.00000
4.00000 7.03348 4.00000
4.00000 7.03348 4.00000
4.00000 7.03348 4.00000
4.00000 7.03348 4.00000
4.00000 7.03348 4.00000
4.00000 7.03348 4.00000
4.00000 7.03348 4.00000
4.00000 7.03348 4.00000
4.00000 7.03348 4.00000
4.00000 7.03348 4.00000
4.00000 7.03348 4.00000
4.00000 7.03348 4.00000
4.00000 7.03348 4.00000
4.00000 7.03348 4.00000
4.00000 7.03348 4.00000
4.00000 7.03348 4.00000
4.00000 7.03348 4.00000
4.00000 7.03348 4.00000
4.00000 7.03348 4.00000
4.00000 7.03348 4.00000
4.00000 7.03348 4.00000
4.00000 7.03348 4.00000
4.00000 7.03348 4.00000
4.00000 7.03348 4.00000
4.00000 7.03348 4.00000
4.00000 7.03348 4.00000
4.00000 7.03348 4.00000
4.00000 7.03348 4.00000
4.00000 7.03348 4.00000
4.00000 7.03348 4.00000
4.00000 7.03348 4.00000
4.00000 7.03348 4.00000
4.00000 7.03348 4.00000
4.00000 7.03348 4.00000
4.00000 7.03348 4.00000
4.00000 7.03348 4.00000
4.00000 7.03348 4.00000
4.00000 7.03348 4.00000
4.00000 7.03348 4.00000
4.00000 7.03348 4.00000
4.00000 7.03348 4.00000
4.00000 7.03348 4.00000
4.00000 7.03348 4.00000
4.00000 7.03348 4.00000
4.00000 7.03348 4.00000
4.00000 7.03348 4.00000
4.00000 7.03348 4.00000
4.00000 7.03348 4.00000
4.00000 7.03348 4.00000
4.00000 7.03348 4.00000
4.00000 7.03348 4.00000
4.00000 7.03348 4.00000
4.00000 7.03348 4.00000
4.00000 7.03348 4.00000
4.00000 7.03348 4.00000
4.00000 7.03348 4.00000
4.00000 7.03348 4.00000
4.00000 7.03348 4.00000
4.00000 7.03348 4.00000
4.00000 7.03348 4.00000
4.00000 7.03348 4.00000
4.00000 7.03348 4.00000
4.00000 7.03348 4.00000
4.00000 7.03348 4.00000
4.00000 7.03348 4.00000
4.00000 7.03348 4.00000
4.00000 7.03348 4.00000
4.00000 7.03348 4.00000
4.00000 7.03348 4.00000
4.00000 7.03348 4.00000
4.00000 7.03348 4.00000
4.00000 7.03348 4.00000
4.00000 7.03348 4.00000
4.00000 7.03348 4.00000
4.00000 7.03348 4.00000
4.00000 7.03348 4.00000
4.00000 7.03348 4.00000
4.00000 7.03348 4.00000
4.00000 7.03348 4.00000
4.00000 7.03348 4.00000
4.00000 7.03348 4.00000
4.00000 7.03348 4.00000
4.00000 7.03348 4.00000
4.00000 7.03348 4.00000
4.00000 7.03348 4.00000
4.00000 7.03348 4.00000
4.00000 7.03348 4.00000
4.00000 7.03348 4.00000
4.00000 7.03348 4.00000
4.00000 7.03348 4.00000
4.00000 7.03348 4.00000
4.00000 7.03348 4.00000
4.00000 7.03348 4.00000
4.00000 7.03348 4.00000
4.00000 7.03348 4.00000
4.00000 7.03348 4.00000
4.00000 7.03348 4.00000
4.00000 7.03348 4.00000
4.00000 7.03348 4.00000
4.00000 7.03348 4.00000
4.00000 7.03348 4.00000
4.00000 7.03348 4.00000
4.00000 7.03348 4.00000
4.00000 7.03348 4.00000
4.00000 7.03348 4.00000
4.00000 7.03348 4.00000
4.00000 7.03348 4.00000
4.00000 7.03348 4.00000
4.00000 7.03349 4.00000
4.00000 7.03349 4.00000
4.00000 7.03350 4.00000
4.00000 7.03348 4.00000
4.00000 7.03348 4.00000
4.00000 7.03348 4.00000
4.00000 7.03348 4.00000
4.00000 7.03348 4.00000
4.00368 7.10395 4.00368
4.00761 7.18086 4.00761
4.01150 7.25794 4.01150
4.01534 7.33517 4.01534
4.01917 7.41250 4.01917
4.02298 7.48992 4.02298
4.02680 7.56737 4.02680
4.03065 7.64484 4.03065
4.03455 7.72228 4.03455
4.03850 7.79966 4.03850
4.04254 7.87692 4.04254
4.04669 7.95403 4.04669
4.05097 8.03092 4.05097
4.05542 8.10753 4.05542
4.06008 8.18379 4.06008
4.06498 8.25961 4.06498
4.07018 8.33488 4.07018
4.07574 8.40949 4.07574
4.08173 8.48327 4.08173
4.08826 8.55604 4.08826
4.09544 8.62756 4.09544
4.10339 8.69759 4.10339
4.11206 8.76622 4.11206
4.12149 8.83338 4.12149
4.13172 8.89899 4.13172
4.14280 8.96293 4.14280
4.15479 9.02513 4.15479
4.16770 9.08550 4.16770
4.18158 9.14399 4.18158
4.19645 9.20055 4.19645
4.21231 9.25517 4.21231
4.22915 9.30785 4.22915
4.24698 9.35862 4.24698
4.26576 9.40752 4.26576
4.28546 9.45461 4.28546
4.30605 9.49997 4.30605
4.32748 9.54369 4.32748
4.34971 9.58585 4.34971
4.37270 9.62653 4.37270
4.39640 9.66581 4.39640
4.42078 9.70377 4.42078
4.44584 9.74043 4.44584
4.47156 9.77579 4.47155
4.49798 9.80978 4.49798
4.52523 9.84216 4.52523
4.55355 9.87242 4.55355
4.58352 9.89942 4.58353
4.61657 9.92031 4.61656
4.01472 7.32267 7.90304
4.01285 7.28505 8.02958
4.01130 7.25407 8.14918
4.01000 7.22805 8.26360
4.00888 7.20591 8.37399
4.00792 7.18687 8.48116
4.00708 7.17035 8.58572
4.00635 7.15593 8.68811
4.00570 7.14325 8.78868
4.00513 7.13208 8.88771
4.00462 7.12218 8.98543
4.00416 7.11339 9.08203
4.00376 7.10555 9.17764
4.00340 7.09855 9.27240
4.00308 7.09227 9.36643
4.00278 7.08666 9.45979
4.00252 7.08160 9.55259
4.00228 7.07706 9.64487
4.00207 7.07297 9.73671
4.00188 7.06928 9.82816
4.00170 7.06594 9.91925
4.00155 7.06293 10.01003
4.00140 7.06021 10.10053
4.00128 7.05775 10.19077
4.00116 7.05552 10.28081
4.00105 7.05349 10.37064
4.00096 7.05167 10.46029
4.00087 7.04997 10.54983
4.00079 7.04850 10.63916
4.00072 7.04713 10.72841
4.00065 7.04589 10.81753
4.00059 7.04476 10.90656
4.00054 7.04374 10.99550
4.00049 7.04280 11.08439
4.00045 7.04197 11.17317
4.00040 7.04119 11.26193
4.00037 7.04050 11.35060
4.00033 7.03985 11.43926
4.00031 7.03931 11.52782
4.00028 7.03875 11.61642
4.00025 7.03828 11.70497
4.00023 7.03785 11.79346
4.00021 7.03745 11.88196
4.00019 7.03709 11.97044
4.00017 7.03677 12.05890
4.00016 7.03649 12.14730
4.00014 7.03619 12.23576
4.00013 7.03595 12.32419
4.00012 7.03573 12.41262
4.00011 7.03552 12.50106
4.00010 7.03534 12.58949
4.00009 7.03517 12.67793
4.00008 7.03502 12.76637
4.00007 7.03488 12.85482
4.00006 7.03475 12.94327
4.00006 7.03464 13.03174
4.00005 7.03453 13.12021
4.00005 7.03444 13.20869
4.00004 7.03435 13.29718
4.00004 7.03427 13.38568
4.00004 7.03420 13.47420
4.00003 7.03413 13.56272
4.00003 7.03407 13.65126
4.00003 7.03401 13.73981
4.00002 7.03396 13.82837
4.00002 7.03392 13.91694
4.00002 7.03388 14.00552
4.00002 7.03384 14.09412
4.00002 7.03381 14.18273
4.00001 7.03378 14.27136
4.00001 7.03375 14.35999
4.00001 7.03372 14.44864
4.00001 7.03370 14.53731
4.00001 7.03368 14.62598
4.00001 7.03366 14.71467
4.00001 7.03364 14.80337
4.00001 7.03362 14.89209
4.00001 7.03361 14.98082
4.00001 7.03360 15.06956
4.00001 7.03358 15.15832
4.00000 7.03357 15.24708
4.00000 7.03356 15.33586
4.00000 7.03355 15.42466
4.00000 7.03356 15.51188
4.00000 7.03356 15.60064
4.00000 7.03355 15.68941
4.00000 7.03354 15.77820
4.00000 7.03354 15.86700
4.00000 7.03353 15.95582
4.00000 7.03353 16.04465
4.00000 7.03352 16.13349
4.00000 7.03352 16.22234
4.00000 7.03352 16.31121
4.00000 7.03351 16.40010
4.00000 7.03351 16.48899
4.00000 7.03351 16.57790
4.00000 7.03350 16.66682
4.00000 7.03350 16.75576
4.00000 7.03350 16.84470
4.00000 7.03350 16.93366
4.00000 7.03350 17.02263
4.00000 7.03349 17.11161
4.00000 7.03349 17.20061
4.00000 7.03349 17.28961
4.00000 7.03349 17.37863
4.00000 7.03349 17.46766
4.00000 7.03349 17.55670
4.00000 7.03349 17.64575
4.00000 7.03349 17.73482
4.00000 7.03349 17.82389
4.00000 7.03349 17.91297
4.00000 7.03349 18.00207
4.00000 7.03348 18.09117
4.00000 7.03348 18.18029
4.00000 7.03348 18.26942
4.00000 7.03348 18.35855
4.00000 7.03348 18.44770
4.00000 7.03348 18.53686
4.00000 7.03348 18.62602
4.00000 7.03348 18.71520
4.00000 7.03348 18.80438
4.00000 7.03348 18.89358
4.00000 7.03348 18.98278
4.00000 7.03348 19.07200
4.00000 7.03348 19.16122
4.00000 7.03348 19.25045
4.00000 7.03348 19.33969
4.00000 7.03348 19.42894
4.00000 7.03348 19.51820
4.00000 7.03348 19.60747
4.00000 7.03348 19.69675
4.00000 7.03348 19.78603
4.00000 7.03348 19.87533
4.00000 7.03348 19.96463
4.00000 7.03348 20.05394
4.00000 7.03348 20.14326
4.00000 7.03348 20.23258
4.00000 7.03348 20.32192
4.00000 7.03348 20.41126

Angle 0.180114 3.452212

4.00000 7.03348 4.00000
4.00000 7.03348 4.00000
4.00000 7.03348 4.00000
4.00000 7.03348 4.00000
4.00000 7.03348 4.00000
4.00000 7.03348 4.00000
4.00000 7.03347 4.00000
4.00000 7.03348 4.00000
4.00000 7.03348 4.00000
4.00000 7.03348 4.00000
4.00000 7.03348 4.00000
4.00000 7.03348 4.00000
4.00000 7.03348 4.00000
4.00000 7.03348 4.00000
4.00000 7.03348 4.00000
4.00000 7.03348 4.00000
4.00000 7.03348 4.00000
4.00000 7.03348 4.00000
4.00000 7.03348 4.00000
4.00000 7.03348 4.00000
4.00000 7.03348 4.00000
4.00000 7.03348 4.00000
4.00000 7.03348 4.00000
4.00000 7.03348 4.00000
4.00000 7.03348 4.00000
4.00000 7.03348 4.00000
4.00000 7.03348 4.00000
4.00000 7.03348 4.00000
4.00000 7.03348 4.00000
4.00000 7.03348 4.00000
4.00000 7.03348 4.00000
4.00000 7.03348 4.00000
4.00000 7.03348 4.00000
4.00000 7.03348 4.00000
4.00000 7.03348 4.00000
4.00000 7.03348 4.00000
4.00000 7.03348 4.00000
4.00000 7.03348 4.00000
4.00000 7.03348 4.00000
4.00000 7.03348 4.00000
4.00000 7.03348 4.00000
4.00000 7.03348 4.00000
4.00000 7.03348 4.00000
4.00000 7.03348 4.00000
4.00000 7.03348 4.00000
4.00000 7.03348 4.00000
4.00000 7.03348 4.00000
4.00000 7.03348 4.00000
4.00000 7.03348 4.00000
4.00000 7.03348 4.00000
4.00000 7.03348 4.00000
4.00000 7.03348 4.00000
4.00000 7.03348 4.00000
4.00000 7.03348 4.00000
4.00000 7.03348 4.00000
4.00000 7.03348 4.00000
4.00000 7.03348 4.00000
4.00000 7.03348 4.00000
4.00000 7.03348 4.00000
4.00000 7.03348 4.00000
4.00000 7.03348 4.00000
4.00000 7.03348 4.00000
4.00000 7.03348 4.00000
4.00000 7.03348 4.00000
4.00000 7.03348 4.00000
4.00000 7.03348 4.00000
4.00000 7.03348 4.00000
4.00000 7.03348 4.00000
4.00000 7.03348 4.00000
4.00000 7.03348 4.00000
4.00000 7.03348 4.00000
4.00000 7.03348 4.00000
4.00000 7.03348 4.00000
4.00000 7.03348 4.00000
4.00000 7.03348 4.00000
4.00000 7.03348 4.00000
4.00000 7.03348 4.00000
4.00000 7.03348 4.00000
4.00000 7.03348 4.00000
4.00000 7.03348 4.00000
4.00000 7.03348 4.00000
4.00000 7.03348 4.00000
4.00000 7.03348 4.00000
4.00000 7.03348 4.00000
4.00000 7.03348 4.00000
4.00000 7.03348 4.00000
4.00000 7.03348 4.00000
4.00000 7.03348 4.00000
4.00000 7.03348 4.00000
4.00000 7.03348 4.00000
4.00000 7.03348 4.00000
4.00000 7.03348 4.00000
4.00000 7.03348 4.00000
4.00000 7.03348 4.00000
4.00000 7.03348 4.00000
4.00000 7.03348 4.00000
4.00000 7.03348 4.00000
4.00000 7.03348 4.00000
4.00000 7.03348 4.00000
4.00000 7.03348 4.00000
4.00000 7.03348 4.00000
4.00000 7.03348 4.00000
4.00000 7.03348 4.00000
4.00000 7.03348 4.00000
4.00000 7.03348 4.00000
4.00000 7.03348 4.00000
4.00000 7.03348 4.00000
4.00000 7.03348 4.00000
4.00000 7.03348 4.00000
4.00000 7.03348 4.00000
4.00000 7.03348 4.00000
4.00000 7.03348 4.00000
4.00000 7.03348 4.00000
4.00000 7.03348 4.00000
4.00000 7.03348 4.00000
4.00000 7.03348 4.00000
4.00000 7.03348 4.00000
4.00000 7.03348 4.00000
4.00000 7.03348 4.00000
4.00000 7.03348 4.00000
4.00000 7.03348 4.00000
4.00000 7.03348 4.00000
4.00000 7.03348 4.00000
4.00000 7.03348 4.00000
4.00000 7.03348 4.00000
4.00000 7.03348 4.00000
4.00000 7.03348 4.00000
4.00000 7.03348 4.00000
4.00000 7.03348 4.00000
4.00000 7.03348 4.00000
4.00000 7.03348 4.00000
4.00000 7.03348 4.00000
4.00000 7.03348 4.00000
4.00000 7.03348 4.00000
4.00000 7.03348 4.00000
4.00000 7.03348 4.00000
4.00000 7.03348 4.00000
4.00000 7.03348 4.00000
4.00000 7.03348 4.00000
4.00000 7.03348 4.00000
4.00000 7.03348 4.00000
4.00000 7.03348 4.00000
4.00000 7.03348 4.00000
4.00000 7.03348 4.00000
4.00000 7.03348 4.00000
4.00000 7.03348 4.00000
4.00000 7.03348 4.00000
4.00000 7.03348 4.00000
4.00000 7.03348 4.00000
4.00000 7.03348 4.00000
4.00000 7.03348 4.00000
4.00000 7.03348 4.00000
4.00000 7.03348 4.00000
4.00000 7.03348 4.00000
4.00000 7.03348 4.00000
4.00000 7.03348 4.00000
4.00000 7.03348 4.00000
4.00000 7.03348 4.00000
4.00000 7.03348 4.00000
4.00000 7.03348 4.00000
4.00000 7.03348 4.00000
4.00000 7.03348 4.00000
4.00000 7.03348 4.00000
4.00000 7.03348 4.00000
4.00000 7.03348 4.00000
4.00000 7.03348 4.00000
4.00000 7.03348 4.00000
4.00000 7.03348 4.00000
4.00000 7.03348 4.00000
4.00000 7.03348 4.00000
4.00000 7.03348 4.00000
4.00000 7.03348 4.00000
4.00000 7.03348 4.00000
4.00000 7.03348 4.00000
4.00000 7.03348 4.00000
4.00000 7.03348 4.00000
4.00000 7.03348 4.00000
4.00000 7.03348 4.00000
4.00000 7.03348 4.00000
4.00000 7.03348 4.00000
4.00000 7.03348 4.00000
4.00000 7.03348 4.00000
4.00000 7.03348 4.00000
4.00000 7.03348 4.00000
4.00000 7.03348 4.00000
4.00000 7.03348 4.00000
4.00000 7.03348 4.00000
4.00000 7.03348 4.00000
4.00000 7.03348 4.00000
4.00000 7.03348 4.00000
4.00000 7.03348 4.00000
4.00000 7.03348 4.00000
4.00000 7.03348 4.00000
4.00000 7.03348 4.00000
4.00000 7.03348 4.00000
4.00000 7.03348 4.00000
4.00000 7.03349 4.00000
4.00000 7.03350 4.00000
4.00000 7.03348 4.00000
4.00000 7.03351 4.00000
4.00000 7.03348 4.00000
4.00000 7.03348 4.00000
4.00000 7.03349 4.00000
4.00000 7.03348 4.00000
4.00162 7.06426 4.00162
4.00555 7.14043 4.00555
4.00943 7.21679 4.00943
4.01327 7.29332 4.01326
4.01707 7.36998 4.01707
4.02085 7.44674 4.02085
4.02464 7.52357 4.02464
4.02844 7.60044 4.02844
4.03228 7.67731 4.03228
4.03617 7.75415 4.03617
4.04012 7.83090 4.04012
4.04417 7.90754 4.04417
4.04834 7.98401 4.04834
4.05265 8.06025 4.05265
4.05714 8.13619 4.05714
4.06185 8.21176 4.06185
4.06682 8.28687 4.06682
4.07210 8.36141 4.07210
4.07777 8.43524 4.07777
4.08389 8.50821 4.08389
4.09058 8.58011 4.09058
4.09796 8.65069 4.09796
4.10609 8.71980 4.10609
4.11494 8.78753 4.11495
4.12456 8.85380 4.12456
4.13498 8.91850 4.13498
4.14626 8.98154 4.14626
4.15843 9.04283 4.15843
4.17155 9.10230 4.17155
4.18562 9.15990 4.18562
4.20066 9.21560 4.20066
4.21669 9.26938 4.21669
4.23370 9.32125 4.23370
4.25167 9.37124 4.25167
4.27058 9.41940 4.27058
4.29039 9.46580 4.29039
4.31107 9.51051 4.31107
4.33257 9.55361 4.33257
4.35486 9.59520 4.35486
4.37788 9.63534 4.37788
4.40161 9.67412 4.40161
4.42601 9.71160 4.42601
4.45107 9.74781 4.45106
4.47679 9.78272 4.47679
4.50323 9.81623 4.50323
4.53052 9.84809 4.53052
4.55894 9.87772 4.55895
4.58917 9.90376 4.58919
4.62288 9.92290 4.62289
4.01438 7.31570 7.92518
4.01258 7.27953 8.04978
4.01108 7.24958 8.16788
4.00981 7.22436 8.28107
4.00873 7.20285 8.39039
4.00779 7.18430 8.49664
4.00697 7.16819 8.60038
4.00625 7.15409 8.70202
4.00562 7.14170 8.80191
4.00506 7.13074 8.90033
4.00456 7.12103 8.99747
4.00411 7.11240 9.09351
4.00372 7.10470 9.18861
4.00336 7.09781 9.28287
4.00304 7.09165 9.37642
4.00275 7.08611 9.46933
4.00250 7.08113 9.56168
4.00226 7.07666 9.65353
4.00205 7.07262 9.74496
4.00186 7.06897 9.83600
4.00169 7.06568 9.92669
4.00153 7.06271 10.01708
4.00139 7.06001 10.10720
4.00126 7.05758 10.19708
4.00115 7.05538 10.28674
4.00105 7.05337 10.37622
4.00095 7.05156 10.46552
4.00086 7.04992 10.55467
4.00079 7.04842 10.64369
4.00072 7.04707 10.73259
4.00065 7.04584 10.82138
4.00059 7.04472 10.91008
4.00053 7.04370 10.99871
4.00049 7.04278 11.08724
4.00044 7.04194 11.17573
4.00041 7.04118 11.26414
4.00037 7.04048 11.35253
4.00034 7.03986 11.44085
4.00030 7.03927 11.52915
4.00028 7.03876 11.61741
4.00025 7.03829 11.70563
4.00023 7.03784 11.79386
4.00021 7.03745 11.88205
4.00019 7.03710 11.97023
4.00017 7.03678 12.05840
4.00016 7.03648 12.14652
4.00014 7.03620 12.23469
4.00013 7.03595 12.32283
4.00012 7.03573 12.41098
4.00011 7.03553 12.49912
4.00010 7.03535 12.58727
4.00009 7.03518 12.67543
4.00008 7.03503 12.76359
4.00007 7.03489 12.85175
4.00007 7.03476 12.93993
4.00006 7.03464 13.02811
4.00005 7.03454 13.11630
4.00005 7.03444 13.20450
4.00004 7.03435 13.29271
4.00004 7.03427 13.38094
4.00004 7.03420 13.46917
4.00003 7.03413 13.55742
4.00003 7.03407 13.64568
4.00003 7.03402 13.73395
4.00002 7.03397 13.82224
4.00002 7.03392 13.91053
4.00002 7.03388 13.99885
4.00002 7.03384 14.08717
4.00002 7.03381 14.17551
4.00002 7.03378 14.26386
4.00001 7.03375 14.35223
4.00001 7.03372 14.44061
4.00001 7.03370 14.52900
4.00001 7.03368 14.61741
4.00001 7.03366 14.70583
4.00001 7.03364 14.79427
4.00001 7.03363 14.88272
4.00001 7.03361 14.97118
4.00001 7.03360 15.05966
4.00001 7.03359 15.14815
4.00000 7.03358 15.23666
4.00000 7.03357 15.32517
4.00001 7.03357 15.41289
4.00000 7.03356 15.50140
4.00000 7.03356 15.58993
4.00000 7.03355 15.67847
4.00000 7.03354 15.76702
4.00000 7.03354 15.85560
4.00000 7.03353 15.94418
4.00000 7.03353 16.03278
4.00000 7.03352 16.12140
4.00000 7.03352 16.21003
4.00000 7.03352 16.29867
4.00000 7.03351 16.38733
4.00000 7.03351 16.47600
4.00000 7.03351 16.56468
4.00000 7.03350 16.65338
4.00000 7.03350 16.74209
4.00000 7.03350 16.83081
4.00000 7.03350 16.91955
4.00000 7.03350 17.00830
4.00000 7.03349 17.09706
4.00000 7.03349 17.18584
4.00000 7.03349 17.27462
4.00000 7.03349 17.36342
4.00000 7.03349 17.45223
4.00000 7.03349 17.54106
4.00000 7.03349 17.62989
4.00000 7.03349 17.71874
4.00000 7.03349 17.80760
4.00000 7.03349 17.89647
4.00000 7.03349 17.98535
4.00000 7.03349 18.07424
4.00000 7.03348 18.16315
4.00000 7.03348 18.25206
4.00000 7.03348 18.34099
4.00000 7.03348 18.42993
4.00000 7.03348 18.51888
4.00000 7.03348 18.60783
4.00000 7.03348 18.69680
4.00000 7.03348 18.78578
4.00000 7.03348 18.87477
4.00000 7.03348 18.96377
4.00000 7.03348 19.05278
4.00000 7.03348 19.14180
4.00000 7.03348 19.23083
4.00000 7.03348 19.31987
4.00000 7.03348 19.40892
4.00000 7.03348 19.49798
4.00000 7.03348 19.58705
4.00000 7.03348 19.67613
4.00000 7.03348 19.76522
4.00000 7.03348 19.85431
4.00000 7.03348 19.94342
4.00000 7.03348 20.03253
4.00000 7.03348 20.12166
4.00000 7.03348 20.21079
4.00000 7.03348 20.29993
4.00000 7.03348 20.38909
4.00000 7.03348 20.47824
4.00000 7.03348 20.56741
4.00000 7.03348 20.65659
4.00000 7.03348 20.74578
4.00000 7.03348 20.83497
4.00000 7.03348 20.92417
4.00000 7.03348 21.01338
4.00000 7.03348 21.10260

