Angle 0.366198 0.844506

4.00000 7.03348 4.00000
4.00000 7.03348 4.00000
4.00000 7.03348 4.00000
4.00000 7.03348 4.00000
4.00000 7.03348 4.00000
4.00000 7.03348 4.00000
4.00000 7.03348 4.00000
4.00000 7.03348 4.00000
4.00000 7.03348 4.00000
4.00000 7.03348 4.00000
4.00000 7.03348 4.00000
4.00000 7.03348 4.00000
4.00000 7.03348 4.00000
4.00000 7.03348 4.00000
4.00000 7.03348 4.00000
4.00000 7.03348 4.00000
4.00000 7.03348 4.00000
4.00000 7.03348 4.00000
4.00000 7.03348 4.00000
4.00000 7.03348 4.00000
4.00000 7.03348 4.00000
4.00000 7.03348 4.00000
4.00000 7.03348 4.00000
4.00000 7.03348 4.00000
4.00000 7.03348 4.00000
4.00000 7.03348 4.00000
4.00000 7.03348 4.00000
4.00000 7.03348 4.00000
4.00000 7.03348 4.00000
4.00000 7.03348 4.00000
4.00000 7.03348 4.00000
4.00000 7.03348 4.00000
4.00000 7.03348 4.00000
4.00000 7.03348 4.00000
4.00000 7.03348 4.00000
4.00000 7.03348 4.00000
4.00000 7.03348 4.00000
4.00000 7.03348 4.00000
4.00000 7.03348 4.00000
4.00000 7.03348 4.00000
4.00000 7.03348 4.00000
4.00000 7.03348 4.00000
4.00000 7.03348 4.00000
4.00000 7.03348 4.00000
4.00000 7.03348 4.00000
4.00000 7.03348 4.00000
4.00000 7.03348 4.00000
4.00000 7.03348 4.00000
4.00000 7.03348 4.00000
4.00000 7.03348 4.00000
4.00000 7.03348 4.00000
4.00000 7.03349 4.00000
4.00000 7.03348 4.00000
4.00000 7.03348 4.00000
4.00185 7.06874 4.00185
4.00521 7.13369 4.00521
4.00853 7.19893 4.00853
4.01182 7.26441 4.01182
4.01509 7.33014 4.01509
4.01836 7.39608 4.01836
4.02161 7.46221 4.02162
4.02488 7.52851 4.02488
4.02817 7.59496 4.02817
4.03149 7.66153 4.03149
4.03485 7.72820 4.03485
4.03826 7.79494 4.03826
4.04174 7.86172 4.04174
4.04530 7.92850 4.04530
4.04897 7.99525 4.04897
4.05275 8.06193 4.05275
4.05668 8.12849 4.05668
4.06078 8.19488 4.06078
4.06507 8.26102 4.06507
4.06960 8.32686 4.06960
4.07441 8.39229 4.07441
4.07955 8.45722 4.07955
4.08508 8.52153 4.08508
4.09107 8.58506 4.09107
4.09762 8.64763 4.09762
4.10478 8.70911 4.10478
4.11251 8.76959 4.11251
4.12085 8.82902 4.12085
4.12982 8.88731 4.12982
4.13947 8.94438 4.13947
4.14983 9.00018 4.14983
4.16093 9.05462 4.16093
4.17280 9.10766 4.17280
4.18545 9.15926 4.18545
4.19891 9.20938 4.19891
4.21318 9.25802 4.21318
4.22825 9.30516 4.22825
4.24413 9.35082 4.24413
4.26080 9.39502 4.26080
4.27824 9.43781 4.27824
4.29643 9.47922 4.29643
4.31533 9.51932 4.31533
4.33493 9.55815 4.33492
4.35518 9.59578 4.35518
4.37606 9.63226 4.37606
4.39755 9.66765 4.39754
4.41961 9.70200 4.41961
4.44224 9.73531 4.44224
4.46544 9.76760 4.46545
4.48924 9.79881 4.48924
4.51370 9.82880 4.51369
4.53895 9.85730 4.53895
4.56529 9.88372 4.56529
4.59337 9.90679 4.59337
4.62465 9.92354 4.62465
7.92071 7.31710 4.01445
8.03560 7.28339 4.01277
8.14491 7.25510 4.01135
8.24993 7.23099 4.01015
8.35158 7.21019 4.00910
8.45048 7.19210 4.00818
8.54713 7.17623 4.00738
8.64191 7.16223 4.00667
8.73512 7.14983 4.00603
8.82697 7.13879 4.00547
8.91768 7.12893 4.00496
9.00739 7.12010 4.00451
9.09624 7.11217 4.00410
9.18435 7.10503 4.00373
9.27181 7.09858 4.00340
9.35869 7.09277 4.00310
9.44508 7.08750 4.00283
9.53102 7.08273 4.00258
9.61658 7.07840 4.00235
9.70180 7.07447 4.00215
9.78672 7.07090 4.00196
9.87138 7.06766 4.00179
9.95582 7.06469 4.00164
10.04004 7.06200 4.00150
10.12409 7.05954 4.00137
10.20799 7.05730 4.00125
10.29175 7.05526 4.00114
10.37541 7.05339 4.00105
10.45895 7.05169 4.00096
10.54241 7.05014 4.00088
10.62581 7.04871 4.00080
10.70913 7.04741 4.00073
10.79241 7.04623 4.00067
10.87566 7.04514 4.00061
10.95887 7.04415 4.00056
11.04205 7.04324 4.00051
11.12523 7.04241 4.00047
11.20839 7.04165 4.00043
11.29154 7.04096 4.00039
11.37470 7.04032 4.00036
11.45785 7.03974 4.00033
11.54102 7.03921 4.00030
11.62421 7.03872 4.00028
11.70744 7.03825 4.00025
11.79065 7.03785 4.00023
11.87387 7.03750 4.00021
11.95717 7.03713 4.00019
12.04044 7.03684 4.00018
12.12379 7.03653 4.00016
12.20712 7.03629 4.00015
12.29054 7.03603 4.00013
12.37392 7.03583 4.00012
12.45740 7.03561 4.00011
12.54087 7.03545 4.00010
12.62442 7.03526 4.00009
12.70797 7.03512 4.00009
12.79157 7.03499 4.00008
12.87521 7.03486 4.00007
12.95889 7.03474 4.00007
13.04263 7.03462 4.00006
13.12640 7.03452 4.00005
13.21017 7.03447 4.00005
13.29406 7.03436 4.00005
13.37792 7.03429 4.00004
13.46185 7.03422 4.00004
13.54583 7.03415 4.00004
13.62985 7.03410 4.00003
13.71392 7.03404 4.00003
13.79804 7.03399 4.00003
13.88220 7.03395 4.00002
13.96640 7.03390 4.00002
14.05065 7.03387 4.00002
14.13495 7.03383 4.00002
14.21929 7.03380 4.00002
14.30367 7.03377 4.00001
14.38809 7.03375 4.00001
14.47256 7.03372 4.00001
14.55708 7.03370 4.00001
14.64163 7.03368 4.00001
14.72623 7.03366 4.00001
14.81087 7.03364 4.00001
14.89556 7.03363 4.00001
14.98028 7.03362 4.00001
15.06505 7.03360 4.00001
15.14986 7.03359 4.00001
15.23471 7.03358 4.00001
15.31959 7.03357 4.00000
15.40452 7.03356 4.00000
15.48949 7.03355 4.00000
15.57450 7.03355 4.00000
15.65955 7.03354 4.00000
15.74463 7.03353 4.00000
15.82975 7.03354 4.00000
15.91491 7.03353 4.00000
16.00012 7.03353 4.00000
16.08536 7.03352 4.00000
16.17064 7.03352 4.00000
16.25595 7.03352 4.00000
16.34130 7.03351 4.00000
16.42669 7.03351 4.00000
16.51212 7.03351 4.00000
16.59758 7.03351 4.00000
16.68307 7.03350 4.00000
16.76860 7.03350 4.00000
16.85417 7.03350 4.00000
16.93977 7.03350 4.00000
17.02540 7.03350 4.00000
17.11107 7.03349 4.00000
17.19677 7.03349 4.00000
17.28250 7.03349 4.00000
17.36827 7.03349 4.00000
17.45407 7.03349 4.00000
17.53990 7.03349 4.00000
17.62576 7.03349 4.00000
17.71166 7.03349 4.00000
17.79758 7.03349 4.00000
17.88354 7.03349 4.00000
17.96953 7.03349 4.00000
18.05555 7.03349 4.00000
18.14160 7.03348 4.00000
18.22768 7.03348 4.00000
18.31379 7.03348 4.00000
18.39993 7.03348 4.00000
18.48610 7.03348 4.00000
18.57229 7.03348 4.00000
18.65852 7.03348 4.00000
18.74477 7.03348 4.00000
18.83106 7.03348 4.00000
18.91737 7.03348 4.00000
19.00371 7.03348 4.00000
19.09007 7.03348 4.00000
19.17646 7.03348 4.00000
19.26288 7.03348 4.00000
19.34933 7.03348 4.00000
19.43580 7.03348 4.00000
19.52230 7.03348 4.00000
19.60883 7.03348 4.00000
19.69538 7.03348 4.00000
19.78195 7.03348 4.00000
19.86856 7.03348 4.00000
19.95518 7.03348 4.00000
20.04184 7.03348 4.00000
20.12851 7.03348 4.00000
20.21521 7.03348 4.00000
20.30194 7.03348 4.00000
20.38869 7.03348 4.00000
20.47546 7.03348 4.00000
20.56226 7.03348 4.00000
20.64908 7.03348 4.00000
20.73592 7.03348 4.00000
20.82279 7.03348 4.00000
20.90967 7.03348 4.00000
20.99659 7.03348 4.00000
21.08352 7.03348 4.00000
21.17048 7.03348 4.00000
21.25745 7.03348 4.00000
21.34446 7.03348 4.00000
21.43148 7.03348 4.00000
21.51852 7.03348 4.00000
21.60558 7.03348 4.00000
21.69267 7.03348 4.00000
21.77978 7.03348 4.00000
21.86690 7.03348 4.00000
21.95405 7.03348 4.00000
22.04122 7.03348 4.00000
22.12841 7.03348 4.00000
22.21562 7.03348 4.00000
22.30285 7.03348 4.00000
22.39010 7.03348 4.00000
22.47736 7.03348 4.00000
22.56465 7.03348 4.00000
22.65196 7.03348 4.00000
22.73928 7.03348 4.00000
22.82663 7.03348 4.00000
22.91399 7.03348 4.00000
23.00137 7.03348 4.00000
23.08877 7.03348 4.00000
23.17619 7.03348 4.00000
23.26363 7.03348 4.00000
23.35108 7.03348 4.00000
23.43856 7.03348 4.00000
23.52605 7.03348 4.00000
23.61356 7.03348 4.00000
23.70108 7.03348 4.00000
23.78862 7.03348 4.00000
23.87618 7.03348 4.00000
23.96376 7.03348 4.00000
24.05136 7.03348 4.00000
24.13897 7.03348 4.00000
24.22659 7.03348 4.00000
24.31424 7.03348 4.00000
24.40190 7.03348 4.00000
24.48957 7.03348 4.00000
24.57727 7.03348 4.00000
24.66498 7.03348 4.00000
24.75270 7.03348 4.00000
24.84044 7.03348 4.00000
24.92820 7.03348 4.00000
25.01597 7.03348 4.00000
25.10375 7.03348 4.00000
25.19155 7.03348 4.00000
25.27937 7.03348 4.00000
25.36720 7.03348 4.00000
25.45505 7.03348 4.00000
25.54291 7.03348 4.00000
25.63079 7.03348 4.00000
25.71868 7.03348 4.00000
25.80658 7.03348 4.00000
25.89450 7.03348 4.00000
25.98244 7.03348 4.00000
26.07038 7.03348 4.00000
26.15835 7.03348 4.00000
26.24632 7.03348 4.00000
26.33431 7.03348 4.00000
26.42231 7.03348 4.00000
26.51033 7.03348 4.00000
26.59836 7.03348 4.00000
26.68640 7.03348 4.00000
26.77446 7.03348 4.00000
26.86253 7.03348 4.00000
26.95061 7.03348 4.00000
27.03871 7.03348 4.00000
27.12682 7.03348 4.00000
27.21494 7.03348 4.00000
27.30307 7.03348 4.00000
27.39122 7.03348 4.00000
27.47938 7.03348 4.00000
27.56755 7.03348 4.00000
27.65573 7.03348 4.00000
27.74393 7.03348 4.00000
27.83214 7.03348 4.00000
27.92036 7.03348 4.00000
28.00859 7.03348 4.00000
28.09683 7.03348 4.00000
28.18509 7.03348 4.00000
28.27336 7.03348 4.00000
28.36164 7.03348 4.00000
28.44993 7.03348 4.00000
28.53823 7.03348 4.00000
28.62654 7.03348 4.00000
28.71487 7.03348 4.00000
28.80320 7.03348 4.00000
28.89155 7.03348 4.00000
28.97991 7.03348 4.00000
29.06827 7.03348 4.00000
29.15665 7.03348 4.00000
29.24504 7.03348 4.00000
29.33345 7.03348 4.00000
29.42186 7.03348 4.00000
29.51028 7.03348 4.00000
29.59871 7.03348 4.00000
29.68716 7.03348 4.00000
29.77561 7.03348 4.00000
29.86407 7.03348 4.00000
29.95255 7.03348 4.00000
30.04103 7.03348 4.00000
30.12953 7.03348 4.00000
30.21803 7.03348 4.00000
30.30654 7.03348 4.00000
30.39507 7.03348 4.00000
30.48360 7.03348 4.00000
30.57214 7.03348 4.00000
30.66070 7.03348 4.00000
30.74926 7.03348 4.00000
30.83783 7.03348 4.00000
30.92641 7.03348 4.00000
31.01500 7.03348 4.00000
31.10361 7.03348 4.00000
31.19221 7.03348 4.00000
31.28083 7.03348 4.00000
31.36946 7.03348 4.00000
31.45810 7.03348 4.00000
31.54674 7.03348 4.00000
31.63540 7.03348 4.00000
31.72406 7.03348 4.00000
31.81273 7.03348 4.00000
31.90142 7.03348 4.00000
31.99011 7.03348 4.00000
32.07880 7.03348 4.00000
32.16751 7.03348 4.00000
32.25623 7.03348 4.00000
32.34495 7.03348 4.00000
32.43368 7.03348 4.00000
32.52242 7.03348 4.00000
32.61117 7.03348 4.00000
32.69993 7.03348 4.00000
32.78870 7.03348 4.00000
32.87747 7.03348 4.00000
32.96625 7.03348 4.00000
33.05504 7.03348 4.00000
33.14384 7.03348 4.00000

Angle 0.287788 5.908566

4.00000 7.03348 4.00000
4.00000 7.03348 4.00000
4.00000 7.03348 4.00000
4.00000 7.03348 4.00000
4.00000 7.03348 4.00000
4.00000 7.03348 4.00000
4.00000 7.03348 4.00000
4.00000 7.03348 4.00000
4.00000 7.03348 4.00000
4.00000 7.03348 4.00000
4.00000 7.03348 4.00000
4.00000 7.03347 4.00000
4.00000 7.03349 4.00000
4.00000 7.03348 4.00000
4.00000 7.03348 4.00000
4.00000 7.03348 4.00000
4.00000 7.03348 4.00000
4.00000 7.03348 4.00000
4.00000 7.03348 4.00000
4.00000 7.03347 4.00000
4.00000 7.03348 4.00000
4.00000 7.03348 4.00000
4.00000 7.03348 4.00000
4.00126 7.05745 4.00126
4.00471 7.12396 4.00471
4.00812 7.19073 4.00812
4.01149 7.25775 4.01149
4.01484 7.32500 4.01484
4.01818 7.39246 4.01818
4.02151 7.46009 4.02151
4.02485 7.52788 4.02485
4.02821 7.59581 4.02821
4.03160 7.66384 4.03160
4.03504 7.73195 4.03504
4.03852 7.80011 4.03852
4.04208 7.86829 4.04208
4.04573 7.93645 4.04573
4.04949 8.00455 4.04949
4.05337 8.07256 4.05337
4.05740 8.14041 4.05740
4.06161 8.20805 4.06161
4.06604 8.27541 4.06604
4.07072 8.34241 4.07072
4.07570 8.40896 4.07570
4.08103 8.47494 4.08103
4.08678 8.54021 4.08678
4.09304 8.60461 4.09304
4.09990 8.66794 4.09991
4.10739 8.73016 4.10739
4.11547 8.79132 4.11547
4.12418 8.85134 4.12418
4.13357 8.91015 4.13357
4.14367 8.96765 4.14367
4.15452 9.02379 4.15452
4.16614 9.07850 4.16614
4.17856 9.13174 4.17856
4.19180 9.18345 4.19180
4.20587 9.23363 4.20587
4.22077 9.28225 4.22077
4.23650 9.32934 4.23650
4.25305 9.37490 4.25305
4.27040 9.41897 4.27040
4.28852 9.46160 4.28852
4.30740 9.50283 4.30740
4.32700 9.54274 4.32700
4.34728 9.58138 4.34728
4.36822 9.61881 4.36822
4.38978 9.65510 4.38978
4.41195 9.69028 4.41195
4.43469 9.72441 4.43470
4.45802 9.75747 4.45802
4.48194 9.78944 4.48194
4.50651 9.82022 4.50651
4.53184 9.84956 4.53184
4.55818 9.87698 4.55818
4.58607 9.90141 4.58607
4.61672 9.92038 4.61673
7.89366 7.32568 4.01488
8.01147 7.29011 4.01311
8.12317 7.26046 4.01162
8.23023 7.23530 4.01036
8.33366 7.21369 4.00928
8.43418 7.19494 4.00833
8.53230 7.17855 4.00750
8.62844 7.16413 4.00677
8.72292 7.15137 4.00611
8.81597 7.14005 4.00553
8.90782 7.12996 4.00502
8.99863 7.12092 4.00455
9.08854 7.11282 4.00414
9.17767 7.10554 4.00376
9.26611 7.09899 4.00342
9.35395 7.09307 4.00312
9.44128 7.08772 4.00284
9.52814 7.08288 4.00259
9.61459 7.07850 4.00236
9.70069 7.07452 4.00215
9.78648 7.07091 4.00196
9.87199 7.06763 4.00179
9.95726 7.06464 4.00164
10.04232 7.06193 4.00149
10.12718 7.05945 4.00136
10.21189 7.05720 4.00125
10.29645 7.05515 4.00114
10.38088 7.05328 4.00104
10.46521 7.05157 4.00095
10.54945 7.05001 4.00087
10.63360 7.04858 4.00080
10.71769 7.04728 4.00073
10.80172 7.04611 4.00066
10.88570 7.04502 4.00061
10.96966 7.04403 4.00056
11.05357 7.04312 4.00051
11.13747 7.04230 4.00046
11.22134 7.04155 4.00042
11.30523 7.04084 4.00039
11.38909 7.04021 4.00035
11.47295 7.03964 4.00032
11.55684 7.03909 4.00029
11.64069 7.03863 4.00027
11.72459 7.03819 4.00025
11.80848 7.03779 4.00023
11.89243 7.03739 4.00020
11.97634 7.03708 4.00019
12.06030 7.03677 4.00017
12.14432 7.03647 4.00016
12.22831 7.03623 4.00015
12.31237 7.03597 4.00013
12.39642 7.03578 4.00012
12.48055 7.03556 4.00011
12.56465 7.03540 4.00010
12.64884 7.03521 4.00009
12.73301 7.03508 4.00008
12.81724 7.03495 4.00008
12.90150 7.03482 4.00007
12.98582 7.03469 4.00006
13.07012 7.03463 4.00006
13.15454 7.03450 4.00005
13.23897 7.03441 4.00005
13.32344 7.03433 4.00004
13.40785 7.03426 4.00004
13.49238 7.03419 4.00004
13.57695 7.03413 4.00003
13.66156 7.03407 4.00003
13.74622 7.03402 4.00003
13.83091 7.03397 4.00003
13.91565 7.03393 4.00002
14.00042 7.03389 4.00002
14.08524 7.03385 4.00002
14.17010 7.03382 4.00002
14.25501 7.03379 4.00002
14.33995 7.03376 4.00001
14.42493 7.03373 4.00001
14.50995 7.03371 4.00001
14.59501 7.03369 4.00001
14.68012 7.03367 4.00001
14.76526 7.03365 4.00001
14.85044 7.03364 4.00001
14.93566 7.03362 4.00001
15.02092 7.03361 4.00001
15.10621 7.03360 4.00001
15.19154 7.03358 4.00001
15.27691 7.03357 4.00000
15.36232 7.03356 4.00000
15.44777 7.03356 4.00000
15.53325 7.03355 4.00000
15.61877 7.03354 4.00000
15.70432 7.03353 4.00000
15.78991 7.03353 4.00000
15.87553 7.03352 4.00000
15.96119 7.03352 4.00000
16.04687 7.03353 4.00000
16.13261 7.03352 4.00000
16.21837 7.03352 4.00000
16.30417 7.03352 4.00000
16.39000 7.03351 4.00000
16.47587 7.03351 4.00000
16.56177 7.03351 4.00000
16.64770 7.03350 4.00000
16.73366 7.03350 4.00000
16.81966 7.03350 4.00000
16.90569 7.03350 4.00000
16.99175 7.03350 4.00000
17.07784 7.03350 4.00000
17.16396 7.03349 4.00000
17.25011 7.03349 4.00000
17.33629 7.03349 4.00000
17.42251 7.03349 4.00000
17.50875 7.03349 4.00000
17.59502 7.03349 4.00000
17.68132 7.03349 4.00000
17.76765 7.03349 4.00000
17.85401 7.03349 4.00000
17.94039 7.03349 4.00000
18.02681 7.03349 4.00000
18.11325 7.03348 4.00000
18.19972 7.03348 4.00000
18.28622 7.03348 4.00000
18.37274 7.03348 4.00000
18.45930 7.03348 4.00000
18.54587 7.03348 4.00000
18.63248 7.03348 4.00000
18.71911 7.03348 4.00000
18.80577 7.03348 4.00000
18.89245 7.03348 4.00000
18.97916 7.03348 4.00000
19.06589 7.03348 4.00000
19.15265 7.03348 4.00000
19.23943 7.03348 4.00000
19.32624 7.03348 4.00000
19.41307 7.03348 4.00000
19.49993 7.03348 4.00000
19.58681 7.03348 4.00000
19.67371 7.03348 4.00000
19.76064 7.03348 4.00000
19.84759 7.03348 4.00000
19.93456 7.03348 4.00000
20.02156 7.03348 4.00000
20.10857 7.03348 4.00000
20.19562 7.03348 4.00000
20.28268 7.03348 4.00000
20.36976 7.03348 4.00000
20.45687 7.03348 4.00000
20.54400 7.03348 4.00000
20.63115 7.03348 4.00000
20.71832 7.03348 4.00000
20.80552 7.03348 4.00000
20.89273 7.03348 4.00000
20.97996 7.03348 4.00000
21.06722 7.03348 4.00000
21.15450 7.03348 4.00000
21.24179 7.03348 4.00000
21.32911 7.03348 4.00000
21.41644 7.03348 4.00000
21.50380 7.03348 4.00000
21.59117 7.03348 4.00000
21.67857 7.03348 4.00000
21.76598 7.03348 4.00000
21.85341 7.03348 4.00000
21.94087 7.03348 4.00000
22.02834 7.03348 4.00000
22.11582 7.03348 4.00000
22.20333 7.03348 4.00000
22.29086 7.03348 4.00000
22.37840 7.03348 4.00000
22.46596 7.03348 4.00000
22.55354 7.03348 4.00000
22.64114 7.03348 4.00000
22.72875 7.03348 4.00000
22.81638 7.03348 4.00000
22.90403 7.03348 4.00000
22.99170 7.03348 4.00000
23.07938 7.03348 4.00000
23.16708 7.03348 4.00000
23.25480 7.03348 4.00000
23.34253 7.03348 4.00000
23.43028 7.03348 4.00000
23.51805 7.03348 4.00000
23.60583 7.03348 4.00000
23.69363 7.03348 4.00000
23.78144 7.03348 4.00000
23.86927 7.03348 4.00000
23.95711 7.03348 4.00000
24.04497 7.03348 4.00000
24.13285 7.03348 4.00000
24.22074 7.03348 4.00000
24.30865 7.03348 4.00000
24.39657 7.03348 4.00000
24.48450 7.03348 4.00000
24.57245 7.03348 4.00000
24.66042 7.03348 4.00000
24.74840 7.03348 4.00000
24.83639 7.03348 4.00000
24.92440 7.03348 4.00000
25.01242 7.03348 4.00000
25.10046 7.03348 4.00000
25.18851 7.03348 4.00000
25.27658 7.03348 4.00000
25.36465 7.03348 4.00000
25.45275 7.03348 4.00000
25.54085 7.03348 4.00000
25.62897 7.03348 4.00000
25.71710 7.03348 4.00000
25.80525 7.03348 4.00000
25.89341 7.03348 4.00000
25.98158 7.03348 4.00000
26.06976 7.03348 4.00000
26.15796 7.03348 4.00000
26.24617 7.03348 4.00000
26.33439 7.03348 4.00000
26.42262 7.03348 4.00000
26.51087 7.03348 4.00000
26.59913 7.03348 4.00000
26.68740 7.03348 4.00000
26.77569 7.03348 4.00000
26.86398 7.03348 4.00000
26.95229 7.03348 4.00000
27.04061 7.03348 4.00000
27.12894 7.03348 4.00000
27.21729 7.03348 4.00000
27.30564 7.03348 4.00000
27.39401 7.03348 4.00000
27.48238 7.03348 4.00000
27.57077 7.03348 4.00000
27.65917 7.03348 4.00000
27.74759 7.03348 4.00000
27.83601 7.03348 4.00000
27.92444 7.03348 4.00000
28.01289 7.03348 4.00000
28.10134 7.03348 4.00000
28.18981 7.03348 4.00000
28.27828 7.03348 4.00000
28.36677 7.03348 4.00000
28.45527 7.03348 4.00000
28.54378 7.03348 4.00000
28.63230 7.03348 4.00000
28.72083 7.03348 4.00000
28.80937 7.03348 4.00000
28.89791 7.03348 4.00000
28.98647 7.03348 4.00000
29.07504 7.03348 4.00000
29.16362 7.03348 4.00000
29.25221 7.03348 4.00000
29.34081 7.03348 4.00000
29.42942 7.03348 4.00000
29.51804 7.03348 4.00000
29.60667 7.03348 4.00000
29.69530 7.03348 4.00000
29.78395 7.03348 4.00000
29.87261 7.03348 4.00000
29.96127 7.03348 4.00000
30.04995 7.03348 4.00000
30.13863 7.03348 4.00000
30.22733 7.03348 4.00000
30.31603 7.03348 4.00000
30.40474 7.03348 4.00000
30.49346 7.03348 4.00000
30.58219 7.03348 4.00000
30.67093 7.03348 4.00000
30.75967 7.03348 4.00000
30.84843 7.03348 4.00000
30.93719 7.03348 4.00000
31.02596 7.03348 4.00000
31.11475 7.03348 4.00000
31.20354 7.03348 4.00000
31.29233 7.03348 4.00000
31.38114 7.03348 4.00000
31.46995 7.03348 4.00000
31.55878 7.03348 4.00000
31.64761 7.03348 4.00000
31.73645 7.03348 4.00000
31.82529 7.03348 4.00000
31.91415 7.03348 4.00000
32.00301 7.03348 4.00000
32.09188 7.03348 4.00000
32.18076 7.03348 4.00000
32.26965 7.03348 4.00000
32.35854 7.03348 4.00000
32.44744 7.03348 4.00000
32.53635 7.03348 4.00000
32.62527 7.03348 4.00000
32.71419 7.03348 4.00000
32.80313 7.03348 4.00000
32.89206 7.03348 4.00000
32.98101 7.03348 4.00000
33.06997 7.03348 4.00000
33.15893 7.03348 4.00000
33.24790 7.03348 4.00000
33.33687 7.03348 4.00000
33.42585 7.03348 4.00000
33.51484 7.03348 4.00000
33.60384 7.03348 4.00000
33.69285 7.03348 4.00000
33.78186 7.03348 4.00000
33.87088 7.03348 4.00000
33.95990 7.03348 4.00000
34.04893 7.03348 4.00000
34.13797 7.03348 4.00000
34.22702 7.03348 4.00000
34.31607 7.03348 4.00000
34.40513 7.03348 4.00000
34.49419 7.03348 4.00000
34.58326 7.03348 4.00000
34.67234 7.03348 4.00000
34.76143 7.03348 4.00000
34.85052 7.03348 4.00000
34.93961 7.03348 4.00000
35.02872 7.03348 4.00000
35.11783 7.03348 4.00000
35.20694 7.03348 4.00000
35.29607 7.03348 4.00000
35.38520 7.03348 4.00000
35.47433 7.03348 4.00000
35.56347 7.03348 4.00000
35.65262 7.03348 4.00000
35.74177 7.03348 4.00000
35.83093 7.03348 4.00000
35.92010 7.03348 4.00000
36.00927 7.03348 4.00000
36.09845 7.03348 4.00000

Angle 0.611836 2.061685

4.00000 7.03348 4.00000
4.00000 7.03348 4.00000
4.00000 7.03348 4.00000
4.00000 7.03348 4.00000
4.00000 7.03348 4.00000
4.00000 7.03348 4.00000
4.00000 7.03348 4.00000
4.00000 7.03348 4.00000
4.00000 7.03348 4.00000
4.00000 7.03348 4.00000
4.00000 7.03348 4.00000
4.00000 7.03348 4.00000
4.00000 7.03348 4.00000
4.00000 7.03348 4.00000
4.00000 7.03348 4.00000
4.00000 7.03348 4.00000
4.00000 7.03348 4.00000
4.00000 7.03348 4.00000
4.00000 7.03348 4.00000
4.00000 7.03348 4.00000
4.00000 7.03348 4.00000
4.00000 7.03348 4.00000
4.00000 7.03348 4.00000
4.00000 7.03348 4.00000
4.00000 7.03348 4.00000
4.00000 7.03348 4.00000
4.00000 7.03348 4.00000
4.00000 7.03348 4.00000
4.00000 7.03348 4.00000
4.00000 7.03348 4.00000
4.00000 7.03348 4.00000
4.00000 7.03348 4.00000
4.00000 7.03348 4.00000
4.00000 7.03348 4.00000
4.00000 7.03348 4.00000
4.00000 7.03348 4.00000
4.00000 7.03348 4.00000
4.00000 7.03348 4.00000
4.00000 7.03348 4.00000
4.00000 7.03348 4.00000
4.00000 7.03348 4.00000
4.00000 7.03348 4.00000
4.00000 7.03348 4.00000
4.00000 7.03348 4.00000
4.00000 7.03348 4.00000
4.00000 7.03348 4.00000
4.00000 7.03348 4.00000
4.00000 7.03348 4.00000
4.00000 7.03348 4.00000
4.00000 7.03348 4.00000
4.00000 7.03348 4.00000
4.00000 7.03348 4.00000
4.00000 7.03348 4.00000
4.00000 7.03348 4.00000
4.00000 7.03348 4.00000
4.00000 7.03348 4.00000
4.00000 7.03348 4.00000
4.00000 7.03348 4.00000
4.00000 7.03348 4.00000
4.00000 7.03348 4.00000
4.00000 7.03348 4.00000
4.00000 7.03348 4.00000
4.00000 7.03348 4.00000
4.00000 7.03348 4.00000
4.00000 7.03348 4.00000
4.00000 7.03348 4.00000
4.00000 7.03348 4.00000
4.00000 7.03348 4.00000
4.00000 7.03348 4.00000
4.00000 7.03348 4.00000
4.00000 7.03350 4.00000
4.00000 7.03351 4.00000
4.00000 7.03348 4.00000
4.00000 7.03348 4.00000
4.00000 7.03348 4.00000
4.00000 7.03348 4.00000
4.00161 7.06409 4.00161
4.00353 7.10113 4.00353
4.00546 7.13860 4.00546
4.00739 7.17649 4.00739
4.00933 7.21479 4.00933
4.01128 7.25350 4.01128
4.01323 7.29261 4.01323
4.01519 7.33211 4.01519
4.01717 7.37200 4.01717
4.01915 7.41227 4.01915
4.02116 7.45292 4.02116
4.02318 7.49392 4.02318
4.02522 7.53529 4.02522
4.02728 7.57700 4.02728
4.02937 7.61905 4.02937
4.03148 7.66143 4.03148
4.03363 7.70413 4.03363
4.03581 7.74715 4.03581
4.03803 7.79046 4.03803
4.04029 7.83406 4.04029
4.04259 7.87793 4.04259
4.04495 7.92207 4.04495
4.04737 7.96645 4.04737
4.04985 8.01106 4.04985
4.05240 8.05589 4.05240
4.05503 8.10091 4.05503
4.05775 8.14611 4.05775
4.06056 8.19146 4.06056
4.06348 8.23694 4.06348
4.06652 8.28252 4.06652
4.06970 8.32816 4.06970
4.07302 8.37384 4.07302
4.07652 8.41950 4.07652
4.08021 8.46511 4.08021
4.08411 8.51061 4.08411
4.08825 8.55595 4.08825
4.09268 8.60105 4.09268
4.09742 8.64583 4.09742
4.10251 8.69022 4.10251
4.10791 8.73428 4.10791
4.11364 8.77800 4.11364
4.11972 8.82133 4.11972
4.12616 8.86423 4.12616
4.13299 8.90666 4.13299
4.14021 8.94859 4.14021
4.14786 8.98997 4.14786
4.15594 9.03076 4.15594
4.16446 9.07094 4.16446
4.17346 9.11048 4.17346
4.18293 9.14934 4.18293
4.19288 9.18750 4.19288
4.20334 9.22494 4.20334
4.21429 9.26165 4.21429
4.22576 9.29762 4.22575
4.23772 9.33284 4.23772
4.25020 9.36731 4.25020
4.26317 9.40103 4.26317
4.27664 9.43403 4.27664
4.29061 9.46629 4.29061
4.30505 9.49785 4.30505
4.31996 9.52873 4.31996
4.33533 9.55893 4.33533
4.35115 9.58848 4.35115
4.36741 9.61740 4.36741
4.38408 9.64572 4.38408
4.40118 9.67344 4.40118
4.41868 9.70058 4.41868
4.43658 9.72715 4.43658
4.45489 9.75314 4.45489
4.47362 9.77853 4.47362
4.49278 9.80328 4.49278
4.51242 9.82729 4.51242
4.53261 9.85041 4.53261
4.55350 9.87237 4.55350
4.57532 9.89266 4.57532
4.59857 9.91032 4.59857
4.62423 9.92339 4.62423
4.65454 9.92786 4.65403
7.99226 7.29559 4.01338
8.08355 7.27056 4.01213
8.17173 7.24867 4.01103
8.25741 7.22938 4.01007
8.34101 7.21225 4.00920
8.42289 7.19694 4.00843
8.50333 7.18321 4.00773
8.58254 7.17083 4.00711
8.66070 7.15963 4.00653
8.73796 7.14947 4.00602
8.81444 7.14023 4.00554
8.89026 7.13181 4.00511
8.96549 7.12412 4.00472
9.04021 7.11708 4.00436
9.11450 7.11063 4.00402
9.18841 7.10471 4.00372
9.26200 7.09928 4.00344
9.33529 7.09428 4.00318
9.40834 7.08968 4.00294
9.48120 7.08544 4.00272
9.55386 7.08153 4.00252
9.62638 7.07793 4.00233
9.69875 7.07463 4.00216
9.77107 7.07153 4.00200
9.84328 7.06870 4.00185
9.91543 7.06607 4.00171
9.98753 7.06365 4.00158
10.05960 7.06140 4.00147
10.13165 7.05933 4.00136
10.20369 7.05741 4.00126
10.27574 7.05563 4.00116
10.34779 7.05399 4.00108
10.41988 7.05247 4.00100
10.49199 7.05106 4.00092
10.56415 7.04975 4.00086
10.63635 7.04854 4.00079
10.70860 7.04742 4.00073
10.78091 7.04638 4.00068
10.85328 7.04542 4.00063
10.92572 7.04453 4.00058
10.99823 7.04371 4.00054
11.07081 7.04295 4.00050
11.14347 7.04224 4.00046
11.21621 7.04159 4.00043
11.28905 7.04097 4.00040
11.36196 7.04042 4.00037
11.43496 7.03990 4.00034
11.50805 7.03942 4.00031
11.58124 7.03897 4.00029
11.65451 7.03856 4.00027
11.72789 7.03817 4.00025
11.80136 7.03782 4.00023
11.87492 7.03749 4.00021
11.94859 7.03719 4.00020
12.02235 7.03690 4.00018
12.09621 7.03665 4.00017
12.17017 7.03640 4.00016
12.24424 7.03618 4.00014
12.31840 7.03598 4.00013
12.39266 7.03579 4.00012
12.46702 7.03561 4.00011
12.54148 7.03545 4.00010
12.61605 7.03530 4.00010
12.69071 7.03516 4.00009
12.76548 7.03503 4.00008
12.84035 7.03492 4.00008
12.91531 7.03480 4.00007
12.99039 7.03471 4.00006
13.06553 7.03461 4.00006
13.14081 7.03452 4.00006
13.21616 7.03444 4.00005
13.29164 7.03437 4.00005
13.36717 7.03430 4.00004
13.44285 7.03424 4.00004
13.51866 7.03418 4.00004
13.59442 7.03412 4.00003
13.67039 7.03407 4.00003
13.74649 7.03403 4.00003
13.82271 7.03399 4.00003
13.89907 7.03395 4.00002
13.97508 7.03391 4.00002
14.05151 7.03387 4.00002
14.12807 7.03384 4.00002
14.20476 7.03382 4.00002
14.28156 7.03379 4.00002
14.35849 7.03377 4.00002
14.43552 7.03375 4.00001
14.51265 7.03373 4.00001
14.58989 7.03371 4.00001
14.66723 7.03369 4.00001
14.74467 7.03368 4.00001
14.82219 7.03366 4.00001
14.89789 7.03364 4.00001
14.97538 7.03363 4.00001
15.05298 7.03362 4.00001
15.13069 7.03360 4.00001
15.20851 7.03359 4.00001
15.28644 7.03359 4.00001
15.36446 7.03358 4.00001
15.44258 7.03357 4.00000
15.52079 7.03356 4.00000
15.59909 7.03356 4.00000
15.67748 7.03355 4.00000
15.75596 7.03354 4.00000
15.83451 7.03354 4.00000
15.91316 7.03352 4.00000
15.99187 7.03352 4.00000
16.07066 7.03352 4.00000
16.14952 7.03351 4.00000
16.22845 7.03351 4.00000
16.30746 7.03351 4.00000
16.38654 7.03350 4.00000
16.46569 7.03350 4.00000
16.54490 7.03350 4.00000
16.62418 7.03349 4.00000
16.70353 7.03349 4.00000
16.78295 7.03349 4.00000
16.86242 7.03350 4.00000
16.94197 7.03350 4.00000
17.02158 7.03350 4.00000
17.10126 7.03349 4.00000
17.18100 7.03349 4.00000
17.26079 7.03349 4.00000
17.34065 7.03349 4.00000
17.42057 7.03349 4.00000
17.50055 7.03349 4.00000
17.58059 7.03349 4.00000
17.66069 7.03349 4.00000
17.74085 7.03349 4.00000
17.82106 7.03349 4.00000
17.90133 7.03349 4.00000
17.98166 7.03349 4.00000
18.06204 7.03349 4.00000
18.14248 7.03348 4.00000
18.22298 7.03348 4.00000
18.30353 7.03348 4.00000
18.38414 7.03348 4.00000
18.46480 7.03348 4.00000
18.54551 7.03348 4.00000
18.62628 7.03348 4.00000
18.70710 7.03348 4.00000
18.78797 7.03348 4.00000
18.86890 7.03348 4.00000
18.94988 7.03348 4.00000
19.03091 7.03348 4.00000
19.11199 7.03348 4.00000
19.19313 7.03348 4.00000
19.27431 7.03348 4.00000
19.35555 7.03348 4.00000
19.43683 7.03348 4.00000
19.51817 7.03348 4.00000
19.59956 7.03348 4.00000
19.68099 7.03348 4.00000
19.76247 7.03348 4.00000
19.84400 7.03348 4.00000
19.92558 7.03348 4.00000
20.00721 7.03348 4.00000
20.08889 7.03348 4.00000
20.17061 7.03348 4.00000
20.25238 7.03348 4.00000
20.33420 7.03348 4.00000
20.41606 7.03348 4.00000
20.49797 7.03348 4.00000
20.57992 7.03348 4.00000
20.66192 7.03348 4.00000
20.74396 7.03348 4.00000
20.82605 7.03348 4.00000
20.90819 7.03348 4.00000
20.99037 7.03348 4.00000
21.07259 7.03348 4.00000
21.15485 7.03348 4.00000
21.23716 7.03348 4.00000
21.31952 7.03348 4.00000
21.40191 7.03348 4.00000
21.48435 7.03348 4.00000
21.56683 7.03348 4.00000
21.64935 7.03348 4.00000
21.73191 7.03348 4.00000
21.81452 7.03348 4.00000
21.89716 7.03348 4.00000
21.97985 7.03348 4.00000
22.06257 7.03348 4.00000
22.14534 7.03348 4.00000
22.22815 7.03348 4.00000
22.31099 7.03348 4.00000
22.39388 7.03348 4.00000
22.47681 7.03348 4.00000
22.55977 7.03348 4.00000
22.64277 7.03348 4.00000
22.72581 7.03348 4.00000
22.80889 7.03348 4.00000
22.89201 7.03348 4.00000
22.97516 7.03348 4.00000
23.05835 7.03348 4.00000
23.14158 7.03348 4.00000
23.22485 7.03348 4.00000
23.30815 7.03348 4.00000
23.39149 7.03348 4.00000
23.47486 7.03348 4.00000
23.55827 7.03348 4.00000
23.64172 7.03348 4.00000
23.72520 7.03348 4.00000
23.80872 7.03348 4.00000
23.89227 7.03348 4.00000
23.97585 7.03348 4.00000
24.05947 7.03348 4.00000
24.14313 7.03348 4.00000
24.22682 7.03348 4.00000
24.31054 7.03348 4.00000
24.39430 7.03348 4.00000
24.47809 7.03348 4.00000
24.56191 7.03348 4.00000
24.64576 7.03348 4.00000
24.72965 7.03348 4.00000
24.81357 7.03348 4.00000
24.89752 7.03348 4.00000
24.98151 7.03348 4.00000
25.06552 7.03348 4.00000
25.14957 7.03348 4.00000
25.23365 7.03348 4.00000
25.31776 7.03348 4.00000
25.40190 7.03348 4.00000
25.48607 7.03348 4.00000
25.57028 7.03348 4.00000
25.65451 7.03348 4.00000
25.73877 7.03348 4.00000
25.82306 7.03348 4.00000
25.90739 7.03348 4.00000
25.99174 7.03348 4.00000
26.07612 7.03348 4.00000
26.16053 7.03348 4.00000
26.24497 7.03348 4.00000
26.32944 7.03348 4.00000
26.41394 7.03348 4.00000
26.49846 7.03348 4.00000
26.58302 7.03348 4.00000
26.66760 7.03348 4.00000
26.75221 7.03348 4.00000
26.83685 7.03348 4.00000
26.92151 7.03348 4.00000
27.00620 7.03348 4.00000
27.09092 7.03348 4.00000
27.17567 7.03348 4.00000
27.26044 7.03348 4.00000
27.34524 7.03348 4.00000
27.43007 7.03348 4.00000

Angle 0.631130 4.229982

4.00000 7.03348 4.00000
4.00000 7.03348 4.00000
4.00000 7.03348 4.00000
4.00000 7.03348 4.00000
4.00000 7.03348 4.00000
4.00000 7.03348 4.00000
4.00000 7.03348 4.00000
4.00000 7.03348 4.00000
4.00000 7.03348 4.00000
4.00000 7.03348 4.00000
4.00000 7.03348 4.00000
4.00000 7.03348 4.00000
4.00000 7.03348 4.00000
4.00000 7.03348 4.00000
4.00000 7.03348 4.00000
4.00000 7.03348 4.00000
4.00000 7.03348 4.00000
4.00000 7.03348 4.00000
4.00000 7.03348 4.00000
4.00000 7.03348 4.00000
4.00000 7.03348 4.00000
4.00000 7.03348 4.00000
4.00000 7.03348 4.00000
4.00000 7.03348 4.00000
4.00000 7.03348 4.00000
4.00000 7.03348 4.00000
4.00000 7.03348 4.00000
4.00000 7.03348 4.00000
4.00000 7.03348 4.00000
4.00000 7.03348 4.00000
4.00000 7.03348 4.00000
4.00000 7.03348 4.00000
4.00000 7.03348 4.00000
4.00000 7.03348 4.00000
4.00000 7.03348 4.00000
4.00000 7.03348 4.00000
4.00000 7.03348 4.00000
4.00000 7.03348 4.00000
4.00000 7.03348 4.00000
4.00000 7.03348 4.00000
4.00000 7.03348 4.00000
4.00000 7.03348 4.00000
4.00000 7.03348 4.00000
4.00000 7.03348 4.00000
4.00000 7.03348 4.00000
4.00000 7.03348 4.00000
4.00000 7.03348 4.00000
4.00000 7.03348 4.00000
4.00000 7.03348 4.00000
4.00000 7.03348 4.00000
4.00000 7.03348 4.00000
4.00000 7.03348 4.00000
4.00000 7.03348 4.00000
4.00000 7.03348 4.00000
4.00000 7.03348 4.00000
4.00000 7.03348 4.00000
4.00000 7.03348 4.00000
4.00000 7.03348 4.00000
4.00000 7.03348 4.00000
4.00000 7.03348 4.00000
4.00000 7.03348 4.00000
4.00000 7.03348 4.00000
4.00000 7.03348 4.00000
4.00000 7.03348 4.00000
4.00000 7.03348 4.00000
4.00000 7.03348 4.00000
4.00000 7.03348 4.00000
4.00000 7.03348 4.00000
4.00000 7.03348 4.00000
4.00000 7.03348 4.00000
4.00000 7.03348 4.00000
4.00000 7.03348 4.00000
4.00000 7.03348 4.00000
4.00000 7.03348 4.00000
4.00000 7.03348 4.00000
4.00000 7.03348 4.00000
4.00000 7.03348 4.00000
4.00000 7.03347 4.00000
4.00057 7.04422 4.00057
4.00391 7.10846 4.00391
4.00721 7.17298 4.00721
4.01049 7.23776 4.01049
4.01374 7.30281 4.01374
4.01697 7.36807 4.01697
4.02020 7.43355 4.02020
4.02344 7.49921 4.02344
4.02669 7.56503 4.02669
4.02996 7.63099 4.02996
4.03327 7.69707 4.03327
4.03663 7.76324 4.03663
4.04005 7.82947 4.04005
4.04354 7.89572 4.04354
4.04712 7.96198 4.04712
4.05082 8.02818 4.05082
4.05464 8.09430 4.05464
4.05862 8.16029 4.05862
4.06277 8.22608 4.06277
4.06714 8.29161 4.06714
4.07176 8.35680 4.07176
4.07668 8.42155 4.07668
4.08195 8.48577 4.08195
4.08763 8.54931 4.08763
4.09380 8.61202 4.09380
4.10057 8.67370 4.10057
4.10792 8.73436 4.10792
4.11584 8.79403 4.11584
4.12438 8.85262 4.12438
4.13356 8.91006 4.13356
4.14342 8.96628 4.14342
4.15399 9.02121 4.15399
4.16531 9.07480 4.16531
4.17740 9.12698 4.17740
4.19027 9.17773 4.19027
4.20394 9.22702 4.20394
4.21841 9.27484 4.21841
4.23368 9.32119 4.23368
4.24974 9.36609 4.24974
4.26658 9.40956 4.26658
4.28417 9.45164 4.28417
4.30249 9.49239 4.30249
4.32151 9.53185 4.32152
4.34122 9.57009 4.34122
4.36156 9.60716 4.36156
4.38252 9.64311 4.38252
4.40406 9.67800 4.40406
4.42618 9.71186 4.42618
4.44886 9.74471 4.44886
4.47211 9.77653 4.47211
4.49596 9.80727 4.49596
4.52050 9.83674 4.52050
4.54588 9.86462 4.54588
4.57247 9.89019 4.57247
4.60105 9.91190 4.60105
4.63344 9.92608 4.63344
7.94991 7.30812 4.01400
8.06276 7.27603 4.01240
8.17043 7.24898 4.01105
8.27411 7.22583 4.00989
8.37460 7.20580 4.00888
8.47252 7.18832 4.00799
8.56830 7.17297 4.00721
8.66230 7.15941 4.00652
8.75479 7.14737 4.00591
8.84600 7.13664 4.00536
8.93611 7.12705 4.00487
9.02526 7.11844 4.00443
9.11359 7.11071 4.00403
9.20121 7.10374 4.00367
9.28819 7.09745 4.00334
9.37463 7.09176 4.00305
9.46059 7.08661 4.00278
9.54612 7.08194 4.00254
9.63129 7.07770 4.00232
9.71612 7.07385 4.00212
9.80068 7.07034 4.00193
9.88498 7.06715 4.00177
9.96905 7.06425 4.00162
10.05294 7.06160 4.00148
10.13666 7.05919 4.00135
10.22022 7.05700 4.00124
10.30367 7.05499 4.00113
10.38700 7.05315 4.00103
10.47024 7.05147 4.00095
10.55339 7.04995 4.00087
10.63650 7.04854 4.00079
10.71952 7.04728 4.00073
10.80252 7.04609 4.00066
10.88547 7.04503 4.00061
10.96841 7.04404 4.00056
11.05131 7.04315 4.00051
11.13420 7.04234 4.00047
11.21709 7.04159 4.00043
11.29997 7.04090 4.00039
11.38286 7.04027 4.00036
11.46576 7.03970 4.00033
11.54867 7.03917 4.00030
11.63160 7.03869 4.00027
11.71455 7.03824 4.00025
11.79751 7.03784 4.00023
11.88050 7.03747 4.00021
11.96352 7.03713 4.00019
12.04657 7.03682 4.00018
12.12965 7.03654 4.00016
12.21278 7.03627 4.00014
12.29590 7.03604 4.00013
12.37911 7.03581 4.00012
12.46230 7.03562 4.00011
12.54558 7.03543 4.00010
12.62885 7.03527 4.00009
12.71221 7.03511 4.00008
12.79560 7.03497 4.00008
12.87898 7.03485 4.00007
12.96245 7.03472 4.00007
13.04597 7.03462 4.00006
13.12954 7.03452 4.00005
13.21315 7.03442 4.00005
13.29668 7.03436 4.00005
13.38037 7.03427 4.00004
13.46410 7.03420 4.00004
13.54788 7.03414 4.00003
13.63170 7.03408 4.00003
13.71546 7.03404 4.00003
13.79934 7.03400 4.00003
13.88330 7.03393 4.00002
13.96729 7.03389 4.00002
14.05133 7.03385 4.00002
14.13541 7.03383 4.00002
14.21954 7.03380 4.00002
14.30373 7.03377 4.00001
14.38796 7.03374 4.00001
14.47223 7.03372 4.00001
14.55655 7.03370 4.00001
14.64092 7.03368 4.00001
14.72533 7.03366 4.00001
14.80978 7.03364 4.00001
14.89427 7.03363 4.00001
14.97881 7.03361 4.00001
15.06338 7.03360 4.00001
15.14800 7.03359 4.00001
15.23266 7.03358 4.00000
15.31736 7.03357 4.00000
15.40209 7.03356 4.00000
15.48687 7.03355 4.00000
15.57168 7.03354 4.00000
15.65654 7.03354 4.00000
15.74143 7.03353 4.00000
15.82635 7.03353 4.00000
15.91132 7.03352 4.00000
15.99632 7.03352 4.00000
16.08136 7.03351 4.00000
16.16643 7.03351 4.00000
16.25153 7.03352 4.00000
16.33668 7.03351 4.00000
16.42186 7.03351 4.00000
16.50708 7.03351 4.00000
16.59233 7.03351 4.00000
16.67761 7.03350 4.00000
16.76293 7.03350 4.00000
16.84828 7.03350 4.00000
16.93367 7.03350 4.00000
17.01909 7.03350 4.00000
17.10454 7.03349 4.00000
17.19002 7.03349 4.00000
17.27554 7.03349 4.00000
17.36108 7.03349 4.00000
17.44666 7.03349 4.00000
17.53227 7.03349 4.00000
17.61791 7.03349 4.00000
17.70358 7.03349 4.00000
17.78928 7.03349 4.00000
17.87501 7.03349 4.00000
17.96077 7.03349 4.00000
18.04656 7.03349 4.00000
18.13238 7.03348 4.00000
18.21823 7.03348 4.00000
18.30410 7.03348 4.00000
18.39001 7.03348 4.00000
18.47594 7.03348 4.00000
18.56190 7.03348 4.00000
18.64789 7.03348 4.00000
18.73391 7.03348 4.00000
18.81995 7.03348 4.00000
18.90602 7.03348 4.00000
18.99212 7.03348 4.00000
19.07825 7.03348 4.00000
19.16440 7.03348 4.00000
19.25058 7.03348 4.00000
19.33678 7.03348 4.00000
19.42301 7.03348 4.00000
19.50926 7.03348 4.00000
19.59555 7.03348 4.00000
19.68185 7.03348 4.00000
19.76818 7.03348 4.00000
19.85454 7.03348 4.00000
19.94092 7.03348 4.00000
20.02732 7.03348 4.00000
20.11375 7.03348 4.00000
20.20021 7.03348 4.00000
20.28668 7.03348 4.00000
20.37319 7.03348 4.00000
20.45971 7.03348 4.00000
20.54626 7.03348 4.00000
20.63283 7.03348 4.00000
20.71942 7.03348 4.00000
20.80604 7.03348 4.00000
20.89268 7.03348 4.00000
20.97934 7.03348 4.00000
21.06602 7.03348 4.00000
21.15273 7.03348 4.00000
21.23946 7.03348 4.00000
21.32621 7.03348 4.00000
21.41298 7.03348 4.00000
21.49977 7.03348 4.00000
21.58659 7.03348 4.00000
21.67342 7.03348 4.00000
21.76028 7.03348 4.00000
21.84715 7.03348 4.00000
21.93405 7.03348 4.00000
22.02097 7.03348 4.00000
22.10791 7.03348 4.00000
22.19487 7.03348 4.00000
22.28184 7.03348 4.00000
22.36884 7.03348 4.00000
22.45586 7.03348 4.00000
22.54290 7.03348 4.00000
22.62996 7.03348 4.00000
22.71703 7.03348 4.00000
22.80413 7.03348 4.00000
22.89124 7.03348 4.00000
22.97837 7.03348 4.00000
23.06553 7.03348 4.00000
23.15270 7.03348 4.00000
23.23988 7.03348 4.00000
23.32709 7.03348 4.00000
23.41432 7.03348 4.00000
23.50156 7.03348 4.00000
23.58882 7.03348 4.00000
23.67610 7.03348 4.00000
23.76339 7.03348 4.00000
23.85071 7.03348 4.00000
23.93804 7.03348 4.00000
24.02539 7.03348 4.00000
24.11275 7.03348 4.00000
24.20013 7.03348 4.00000
24.28753 7.03348 4.00000
24.37495 7.03348 4.00000
24.46238 7.03348 4.00000
24.54983 7.03348 4.00000
24.63730 7.03348 4.00000
24.72478 7.03348 4.00000
24.81227 7.03348 4.00000
24.89979 7.03348 4.00000
24.98732 7.03348 4.00000
25.07486 7.03348 4.00000
25.16242 7.03348 4.00000
25.25000 7.03348 4.00000
25.33759 7.03348 4.00000
25.42520 7.03348 4.00000
25.51282 7.03348 4.00000
25.60046 7.03348 4.00000
25.68811 7.03348 4.00000
25.77578 7.03348 4.00000
25.86346 7.03348 4.00000
25.95116 7.03348 4.00000
26.03887 7.03348 4.00000
26.12659 7.03348 4.00000
26.21433 7.03348 4.00000
26.30209 7.03348 4.00000
26.38986 7.03348 4.00000
26.47764 7.03348 4.00000
26.56543 7.03348 4.00000
26.65325 7.03348 4.00000
26.74107 7.03348 4.00000
26.82891 7.03348 4.00000
26.91676 7.03348 4.00000
27.00462 7.03348 4.00000
27.09250 7.03348 4.00000
27.18039 7.03348 4.00000
27.26830 7.03348 4.00000
27.35622 7.03348 4.00000
27.44415 7.03348 4.00000
27.53209 7.03348 4.00000
27.62005 7.03348 4.00000
27.70802 7.03348 4.00000
27.79600 7.03348 4.00000
27.88399 7.03348 4.00000
27.97200 7.03348 4.00000
28.06002 7.03348 4.00000
28.14805 7.03348 4.00000
28.23610 7.03348 4.00000
28.32415 7.03348 4.00000
28.41222 7.03348 4.00000
28.50030 7.03348 4.00000
28.58839 7.03348 4.00000
28.67650 7.03348 4.00000
28.76461 7.03348 4.00000
28.85274 7.03348 4.00000
28.94088 7.03348 4.00000
29.02903 7.03348 4.00000
29.11719 7.03348 4.00000
29.20536 7.03348 4.00000
29.29355 7.03348 4.00000
29.38174 7.03348 4.00000
29.46995 7.03348 4.00000
29.55817 7.03348 4.00000
29.64640 7.03348 4.00000
29.73464 7.03348 4.00000
29.82289 7.03348 4.00000
29.91115 7.03348 4.00000
29.99942 7.03348 4.00000
30.08770 7.03348 4.00000
30.17600 7.03348 4.00000
30.26430 7.03348 4.00000
30.35261 7.03348 4.00000
30.44094 7.03348 4.00000
30.52927 7.03348 4.00000
30.61762 7.03348 4.00000
30.70597 7.03348 4.00000
30.79434 7.03348 4.00000
30.88271 7.03348 4.00000

Angle 0.064712 1.507922

4.00000 7.03348 4.00000
4.00000 7.03348 4.00000
4.00000 7.03346 4.00000
4.00000 7.03345 4.00000
4.00000 7.03348 4.00000
4.00000 7.03348 4.00000
4.00000 7.03348 4.00000
4.00000 7.03348 4.00000
4.00000 7.03348 4.00000
4.00000 7.03348 4.00000
4.00000 7.03348 4.00000
4.00000 7.03348 4.00000
4.00000 7.03348 4.00000
4.00000 7.03348 4.00000
4.00000 7.03348 4.00000
4.00000 7.03348 4.00000
4.00000 7.03348 4.00000
4.00000 7.03348 4.00000
4.00000 7.03348 4.00000
4.00000 7.03348 4.00000
4.00000 7.03348 4.00000
4.00000 7.03348 4.00000
4.00000 7.03348 4.00000
4.00000 7.03348 4.00000
4.00000 7.03348 4.00000
4.00000 7.03348 4.00000
4.00000 7.03348 4.00000
4.00000 7.03348 4.00000
4.00000 7.03348 4.00000
4.00000 7.03348 4.00000
4.00000 7.03348 4.00000
4.00000 7.03348 4.00000
4.00000 7.03348 4.00000
4.00000 7.03348 4.00000
4.00000 7.03348 4.00000
4.00000 7.03348 4.00000
4.00000 7.03348 4.00000
4.00000 7.03348 4.00000
4.00000 7.03348 4.00000
4.00000 7.03348 4.00000
4.00000 7.03348 4.00000
4.00000 7.03348 4.00000
4.00000 7.03348 4.00000
4.00000 7.03348 4.00000
4.00000 7.03348 4.00000
4.00000 7.03348 4.00000
4.00000 7.03348 4.00000
4.00000 7.03348 4.00000
4.00000 7.03348 4.00000
4.00000 7.03348 4.00000
4.00000 7.03348 4.00000
4.00000 7.03348 4.00000
4.00000 7.03348 4.00000
4.00000 7.03348 4.00000
4.00000 7.03348 4.00000
4.00000 7.03348 4.00000
4.00000 7.03348 4.00000
4.00000 7.03348 4.00000
4.00000 7.03348 4.00000
4.00000 7.03348 4.00000
4.00000 7.03348 4.00000
4.00000 7.03348 4.00000
4.00000 7.03348 4.00000
4.00000 7.03348 4.00000
4.00000 7.03348 4.00000
4.00000 7.03348 4.00000
4.00000 7.03348 4.00000
4.00000 7.03348 4.00000
4.00000 7.03348 4.00000
4.00000 7.03348 4.00000
4.00000 7.03348 4.00000
4.00000 7.03348 4.00000
4.00000 7.03348 4.00000
4.00000 7.03348 4.00000
4.00000 7.03348 4.00000
4.00000 7.03348 4.00000
4.00000 7.03348 4.00000
4.00000 7.03348 4.00000
4.00000 7.03348 4.00000
4.00000 7.03348 4.00000
4.00000 7.03348 4.00000
4.00000 7.03348 4.00000
4.00000 7.03348 4.00000
4.00000 7.03348 4.00000
4.00000 7.03348 4.00000
4.00000 7.03348 4.00000
4.00000 7.03348 4.00000
4.00000 7.03348 4.00000
4.00000 7.03348 4.00000
4.00000 7.03348 4.00000
4.00000 7.03348 4.00000
4.00000 7.03348 4.00000
4.00000 7.03348 4.00000
4.00000 7.03348 4.00000
4.00000 7.03348 4.00000
4.00000 7.03348 4.00000
4.00000 7.03348 4.00000
4.00000 7.03348 4.00000
4.00000 7.03348 4.00000
4.00000 7.03348 4.00000
4.00000 7.03348 4.00000
4.00000 7.03348 4.00000
4.00000 7.03348 4.00000
4.00000 7.03348 4.00000
4.00000 7.03348 4.00000
4.00000 7.03348 4.00000
4.00000 7.03348 4.00000
4.00000 7.03348 4.00000
4.00000 7.03348 4.00000
4.00000 7.03348 4.00000
4.00000 7.03348 4.00000
4.00000 7.03348 4.00000
4.00000 7.03348 4.00000
4.00000 7.03348 4.00000
4.00000 7.03348 4.00000
4.00000 7.03348 4.00000
4.00000 7.03348 4.00000
4.00000 7.03348 4.00000
4.00000 7.03348 4.00000
4.00000 7.03348 4.00000
4.00000 7.03348 4.00000
4.00000 7.03348 4.00000
4.00000 7.03348 4.00000
4.00000 7.03348 4.00000
4.00000 7.03348 4.00000
4.00000 7.03348 4.00000
4.00000 7.03348 4.00000
4.00000 7.03348 4.00000
4.00000 7.03348 4.00000
4.00000 7.03348 4.00000
4.00000 7.03348 4.00000
4.00000 7.03348 4.00000
4.00000 7.03348 4.00000
4.00000 7.03349 4.00000
4.00000 7.03348 4.00000
4.00000 7.03350 4.00000
4.00000 7.03348 4.00000
4.00000 7.03348 4.00000
4.00000 7.03348 4.00000
4.00000 7.03350 4.00000
4.00000 7.03348 4.00000
4.00000 7.03348 4.00000
4.00000 7.03348 4.00000
4.00235 7.07841 4.00235
4.00637 7.15637 4.00637
4.01032 7.23451 4.01032
4.01423 7.31280 4.01424
4.01812 7.39119 4.01811
4.02198 7.46966 4.02198
4.02585 7.54817 4.02585
4.02975 7.62669 4.02975
4.03368 7.70517 4.03368
4.03767 7.78358 4.03767
4.04175 7.86188 4.04174
4.04593 7.94001 4.04592
4.05024 8.01792 4.05024
4.05472 8.09555 4.05471
4.05939 8.17281 4.05939
4.06432 8.24963 4.06432
4.06954 8.32590 4.06954
4.07512 8.40148 4.07512
4.08114 8.47623 4.08114
4.08769 8.54995 4.08769
4.09489 8.62241 4.09489
4.10288 8.69335 4.10288
4.11161 8.76283 4.11161
4.12111 8.83081 4.12111
4.13143 8.89720 4.13143
4.14261 8.96188 4.14261
4.15471 9.02477 4.15471
4.16777 9.08579 4.16777
4.18181 9.14487 4.18181
4.19685 9.20199 4.19685
4.21290 9.25711 4.21290
4.22996 9.31025 4.22996
4.24802 9.36144 4.24802
4.26704 9.41071 4.26704
4.28701 9.45815 4.28701
4.30787 9.50382 4.30787
4.32958 9.54781 4.32958
4.35211 9.59022 4.35210
4.37539 9.63113 4.37539
4.39940 9.67062 4.39940
4.42410 9.70876 4.42410
4.44948 9.74558 4.44948
4.47554 9.78107 4.47553
4.50232 9.81512 4.50232
4.52997 9.84748 4.52997
4.55878 9.87755 4.55877
4.58943 9.90395 4.58943
4.62368 9.92320 4.62366
7.92970 7.31430 4.01431
8.05565 7.27795 4.01250
8.17501 7.24790 4.01100
8.28938 7.22264 4.00973
8.39986 7.20111 4.00864
8.50723 7.18257 4.00770
8.61204 7.16648 4.00688
8.71474 7.15243 4.00617
8.81568 7.14009 4.00554
8.91511 7.12920 4.00498
9.01326 7.11955 4.00448
9.11030 7.11098 4.00404
9.20638 7.10335 4.00365
9.30162 7.09653 4.00329
9.39613 7.09042 4.00298
9.49001 7.08495 4.00269
9.58331 7.08004 4.00244
9.67612 7.07562 4.00221
9.76848 7.07164 4.00200
9.86045 7.06805 4.00181
9.95208 7.06482 4.00164
10.04339 7.06189 4.00149
10.13443 7.05925 4.00135
10.22522 7.05687 4.00123
10.31579 7.05470 4.00112
10.40618 7.05273 4.00101
10.49637 7.05097 4.00092
10.58643 7.04934 4.00084
10.67632 7.04791 4.00076
10.76608 7.04659 4.00069
10.85577 7.04538 4.00062
10.94534 7.04429 4.00057
11.03481 7.04331 4.00052
11.12420 7.04243 4.00047
11.21355 7.04159 4.00043
11.30282 7.04086 4.00039
11.39203 7.04018 4.00035
11.48120 7.03958 4.00032
11.57032 7.03903 4.00029
11.65940 7.03853 4.00027
11.74847 7.03806 4.00024
11.83749 7.03764 4.00022
11.92650 7.03727 4.00020
12.01548 7.03692 4.00018
12.10445 7.03661 4.00016
12.19341 7.03633 4.00015
12.28230 7.03608 4.00014
12.37125 7.03583 4.00012
12.46017 7.03561 4.00011
12.54908 7.03542 4.00010
12.63799 7.03524 4.00009
12.72690 7.03508 4.00008
12.81581 7.03494 4.00008
12.90472 7.03480 4.00007
12.99364 7.03468 4.00006
13.08255 7.03457 4.00006
13.17147 7.03447 4.00005
13.26040 7.03438 4.00005
13.34932 7.03430 4.00004
13.43826 7.03422 4.00004
13.52720 7.03415 4.00003
13.61615 7.03409 4.00003
13.70510 7.03403 4.00003
13.79407 7.03398 4.00003
13.88304 7.03393 4.00002
13.97202 7.03389 4.00002
14.06100 7.03385 4.00002
14.15000 7.03382 4.00002
14.23900 7.03379 4.00002
14.32802 7.03376 4.00001
14.41704 7.03373 4.00001
14.50607 7.03371 4.00001
14.59511 7.03368 4.00001
14.68416 7.03366 4.00001
14.77322 7.03365 4.00001
14.86229 7.03363 4.00001
14.95137 7.03361 4.00001
15.04046 7.03360 4.00001
15.12910 7.03360 4.00001
15.21819 7.03359 4.00001
15.30728 7.03358 4.00001
15.39639 7.03357 4.00000
15.48551 7.03356 4.00000
15.57464 7.03356 4.00000
15.66378 7.03355 4.00000
15.75293 7.03354 4.00000
15.84208 7.03354 4.00000
15.93125 7.03353 4.00000
16.02043 7.03353 4.00000
16.10962 7.03352 4.00000
16.19882 7.03352 4.00000
16.28803 7.03352 4.00000
16.37725 7.03351 4.00000
16.46648 7.03351 4.00000
16.55572 7.03351 4.00000
16.64497 7.03350 4.00000
16.73422 7.03350 4.00000
16.82349 7.03350 4.00000
16.91277 7.03350 4.00000
17.00205 7.03350 4.00000
17.09134 7.03350 4.00000
17.18065 7.03349 4.00000
17.26996 7.03349 4.00000
17.35928 7.03349 4.00000
17.44861 7.03349 4.00000
17.53794 7.03349 4.00000
17.62729 7.03349 4.00000
17.71664 7.03349 4.00000
17.80601 7.03349 4.00000
17.89538 7.03349 4.00000
17.98475 7.03349 4.00000
18.07414 7.03349 4.00000
18.16353 7.03348 4.00000
18.25294 7.03348 4.00000
18.34235 7.03348 4.00000
18.43176 7.03348 4.00000
18.52119 7.03348 4.00000
18.61062 7.03348 4.00000
18.70006 7.03348 4.00000
18.78951 7.03348 4.00000
18.87897 7.03348 4.00000
18.96843 7.03348 4.00000
19.05790 7.03348 4.00000
19.14737 7.03348 4.00000
19.23686 7.03348 4.00000
19.32635 7.03348 4.00000
19.41585 7.03348 4.00000
19.50535 7.03348 4.00000
19.59486 7.03348 4.00000
19.68438 7.03348 4.00000
19.77390 7.03348 4.00000
19.86343 7.03348 4.00000
19.95297 7.03348 4.00000
20.04252 7.03348 4.00000
20.13207 7.03348 4.00000
20.22162 7.03348 4.00000
20.31119 7.03348 4.00000
20.40076 7.03348 4.00000
20.49033 7.03348 4.00000
20.57991 7.03348 4.00000
20.66950 7.03348 4.00000
20.75909 7.03348 4.00000
20.84869 7.03348 4.00000
20.93830 7.03348 4.00000
21.02791 7.03348 4.00000
21.11753 7.03348 4.00000
21.20715 7.03348 4.00000
21.29678 7.03348 4.00000
21.38642 7.03348 4.00000
21.47606 7.03348 4.00000
21.56570 7.03348 4.00000
21.65535 7.03348 4.00000
21.74501 7.03348 4.00000
21.83467 7.03348 4.00000
21.92434 7.03348 4.00000
22.01401 7.03348 4.00000
22.10369 7.03348 4.00000
22.19337 7.03348 4.00000
22.28306 7.03348 4.00000
22.37275 7.03348 4.00000
22.46245 7.03348 4.00000
22.55215 7.03348 4.00000
22.64186 7.03348 4.00000
22.73158 7.03348 4.00000
22.82129 7.03348 4.00000
22.91102 7.03348 4.00000
23.00075 7.03348 4.00000
23.09048 7.03348 4.00000
23.18022 7.03348 4.00000
23.26996 7.03348 4.00000
23.35971 7.03348 4.00000
23.44946 7.03348 4.00000
23.53921 7.03348 4.00000
23.62897 7.03348 4.00000
23.71874 7.03348 4.00000
23.80851 7.03348 4.00000
23.89828 7.03348 4.00000
23.98806 7.03348 4.00000
24.07784 7.03348 4.00000
24.16763 7.03348 4.00000
24.25742 7.03348 4.00000
24.34722 7.03348 4.00000
24.43702 7.03348 4.00000
24.52682 7.03348 4.00000
24.61663 7.03348 4.00000
24.70645 7.03348 4.00000
24.79626 7.03348 4.00000
24.88608 7.03348 4.00000
24.97591 7.03348 4.00000
25.06574 7.03348 4.00000
25.15557 7.03348 4.00000
25.24541 7.03348 4.00000
25.33525 7.03348 4.00000
25.42509 7.03348 4.00000
25.51494 7.03348 4.00000
25.60479 7.03348 4.00000
25.69465 7.03348 4.00000
25.78451 7.03348 4.00000
25.87437 7.03348 4.00000
25.96424 7.03348 4.00000
26.05411 7.03348 4.00000
26.14399 7.03348 4.00000
26.23386 7.03348 4.00000
26.32375 7.03348 4.00000
26.41363 7.03348 4.00000
26.50352 7.03348 4.00000
26.59341 7.03348 4.00000
26.68331 7.03348 4.00000
26.77321 7.03348 4.00000

Angle 0.672508 0.650795

4.00000 7.03348 4.00000
4.00000 7.03348 4.00000
4.00000 7.03348 4.00000
4.00000 7.03348 4.00000
4.00000 7.03348 4.00000
4.00000 7.03348 4.00000
4.00000 7.03348 4.00000
4.00000 7.03348 4.00000
4.00000 7.03348 4.00000
4.00000 7.03348 4.00000
4.00000 7.03348 4.00000
4.00000 7.03348 4.00000
4.00000 7.03348 4.00000
4.00000 7.03348 4.00000
4.00000 7.03348 4.00000
4.00000 7.03348 4.00000
4.00000 7.03348 4.00000
4.00000 7.03348 4.00000
4.00000 7.03348 4.00000
4.00000 7.03348 4.00000
4.00000 7.03348 4.00000
4.00000 7.03348 4.00000
4.00000 7.03348 4.00000
4.00000 7.03348 4.00000
4.00000 7.03348 4.00000
4.00000 7.03348 4.00000
4.00000 7.03348 4.00000
4.00000 7.03348 4.00000
4.00000 7.03348 4.00000
4.00000 7.03348 4.00000
4.00000 7.03348 4.00000
4.00000 7.03348 4.00000
4.00000 7.03348 4.00000
4.00000 7.03348 4.00000
4.00000 7.03348 4.00000
4.00000 7.03348 4.00000
4.00000 7.03348 4.00000
4.00000 7.03348 4.00000
4.00000 7.03348 4.00000
4.00000 7.03348 4.00000
4.00000 7.03348 4.00000
4.00000 7.03348 4.00000
4.00000 7.03348 4.00000
4.00000 7.03348 4.00000
4.00000 7.03348 4.00000
4.00000 7.03348 4.00000
4.00000 7.03348 4.00000
4.00000 7.03348 4.00000
4.00000 7.03348 4.00000
4.00000 7.03348 4.00000
4.00000 7.03348 4.00000
4.00000 7.03348 4.00000
4.00000 7.03348 4.00000
4.00000 7.03348 4.00000
4.00000 7.03348 4.00000
4.00000 7.03348 4.00000
4.00000 7.03348 4.00000
4.00000 7.03348 4.00000
4.00000 7.03348 4.00000
4.00000 7.03349 4.00000
4.00000 7.03350 4.00000
4.00000 7.03348 4.00000
4.00000 7.03348 4.00000
4.00000 7.03348 4.00000
4.00000 7.03349 4.00000
4.00000 7.03348 4.00000
4.00000 7.03348 4.00000
4.00000 7.03348 4.00000
4.00000 7.03348 4.00000
4.00074 7.04755 4.00074
4.00463 7.12246 4.00463
4.00846 7.19758 4.00846
4.01224 7.27289 4.01225
4.01600 7.34834 4.01600
4.01973 7.42392 4.01973
4.02346 7.49959 4.02346
4.02720 7.57532 4.02720
4.03096 7.65108 4.03096
4.03478 7.72683 4.03478
4.03865 7.80253 4.03865
4.04261 7.87815 4.04261
4.04667 7.95363 4.04667
4.05086 8.02892 4.05086
4.05521 8.10397 4.05521
4.05976 8.17870 4.05976
4.06454 8.25304 4.06454
4.06961 8.32688 4.06961
4.07501 8.40010 4.07501
4.08083 8.47257 4.08083
4.08714 8.54412 4.08714
4.09406 8.61452 4.09406
4.10171 8.68352 4.10171
4.11008 8.75116 4.11008
4.11916 8.81744 4.11916
4.12900 8.88224 4.12900
4.13966 8.94548 4.13966
4.15118 9.00707 4.15118
4.16359 9.06693 4.16359
4.17692 9.12500 4.17692
4.19120 9.18123 4.19120
4.20645 9.23560 4.20645
4.22265 9.28810 4.22265
4.23981 9.33875 4.23981
4.25790 9.38758 4.25790
4.27691 9.43465 4.27691
4.29679 9.48001 4.29679
4.31751 9.52375 4.31751
4.33902 9.56595 4.33902
4.36130 9.60669 4.36129
4.38428 9.64605 4.38428
4.40795 9.68409 4.40795
4.43228 9.72087 4.43228
4.45725 9.75641 4.45725
4.48289 9.79066 4.48289
4.50925 9.82351 4.50925
4.53649 9.85465 4.53649
4.56495 9.88340 4.56495
4.59540 9.90820 4.59540
4.62981 9.92516 4.62980
4.01403 7.30876 7.94778
4.01231 7.27412 8.06999
4.01086 7.24530 8.18614
4.00964 7.22093 8.29766
4.00859 7.20007 8.40554
4.00768 7.18203 8.51050
4.00688 7.16634 8.61305
4.00618 7.15258 8.71360
4.00556 7.14046 8.81247
4.00501 7.12974 8.90992
4.00452 7.12021 9.00614
4.00408 7.11174 9.10130
4.00369 7.10417 9.19555
4.00334 7.09739 9.28900
4.00302 7.09131 9.38175
4.00274 7.08585 9.47389
4.00249 7.08094 9.56549
4.00225 7.07651 9.65662
4.00205 7.07252 9.74732
4.00186 7.06891 9.83765
4.00169 7.06565 9.92765
4.00153 7.06270 10.01736
4.00139 7.06003 10.10680
4.00127 7.05761 10.19602
4.00115 7.05541 10.28503
4.00105 7.05343 10.37385
4.00095 7.05162 10.46252
4.00087 7.04998 10.55104
4.00079 7.04849 10.63943
4.00072 7.04714 10.72771
4.00066 7.04591 10.81589
4.00060 7.04479 10.90399
4.00054 7.04379 10.99199
4.00049 7.04285 11.07995
4.00045 7.04202 11.16784
4.00041 7.04125 11.25568
4.00037 7.04057 11.34345
4.00034 7.03993 11.43122
4.00031 7.03936 11.51893
4.00028 7.03882 11.60664
4.00026 7.03834 11.69431
4.00023 7.03790 11.78198
4.00021 7.03754 11.86958
4.00019 7.03715 11.95724
4.00018 7.03683 12.04485
4.00016 7.03652 12.13248
4.00014 7.03625 12.22009
4.00013 7.03601 12.30768
4.00012 7.03577 12.39531
4.00011 7.03557 12.48293
4.00010 7.03538 12.57055
4.00009 7.03522 12.65819
4.00008 7.03506 12.74584
4.00008 7.03492 12.83342
4.00007 7.03478 12.92108
4.00006 7.03467 13.00875
4.00006 7.03456 13.09644
4.00005 7.03446 13.18414
4.00005 7.03438 13.27185
4.00004 7.03429 13.35958
4.00004 7.03422 13.44733
4.00003 7.03415 13.53509
4.00003 7.03409 13.62287
4.00003 7.03404 13.71067
4.00003 7.03399 13.79849
4.00002 7.03394 13.88632
4.00002 7.03390 13.97416
4.00002 7.03386 14.06203
4.00002 7.03382 14.14991
4.00002 7.03379 14.23781
4.00001 7.03376 14.32572
4.00001 7.03374 14.41365
4.00001 7.03371 14.50160
4.00001 7.03369 14.58957
4.00001 7.03367 14.67755
4.00001 7.03365 14.76555
4.00001 7.03363 14.85356
4.00001 7.03362 14.94159
4.00001 7.03360 15.02964
4.00001 7.03359 15.11770
4.00001 7.03358 15.20578
4.00000 7.03357 15.29388
4.00000 7.03356 15.38199
4.00001 7.03358 15.46928
4.00000 7.03356 15.55740
4.00000 7.03355 15.64552
4.00000 7.03355 15.73367
4.00000 7.03354 15.82183
4.00000 7.03353 15.91000
4.00000 7.03353 15.99820
4.00000 7.03352 16.08641
4.00000 7.03352 16.17464
4.00000 7.03352 16.26288
4.00000 7.03351 16.35114
4.00000 7.03351 16.43942
4.00000 7.03351 16.52771
4.00000 7.03351 16.61602
4.00000 7.03350 16.70434
4.00000 7.03350 16.79268
4.00000 7.03350 16.88103
4.00000 7.03350 16.96940
4.00000 7.03350 17.05778
4.00000 7.03349 17.14618
4.00000 7.03349 17.23459
4.00000 7.03349 17.32302
4.00000 7.03349 17.41146
4.00000 7.03349 17.49991
4.00000 7.03349 17.58838
4.00000 7.03349 17.67686
4.00000 7.03349 17.76536
4.00000 7.03349 17.85387
4.00000 7.03349 17.94239
4.00000 7.03349 18.03092
4.00000 7.03348 18.11947
4.00000 7.03348 18.20803
4.00000 7.03348 18.29660
4.00000 7.03348 18.38519
4.00000 7.03348 18.47379
4.00000 7.03348 18.56240
4.00000 7.03348 18.65102
4.00000 7.03348 18.73966
4.00000 7.03348 18.82830
4.00000 7.03348 18.91696
4.00000 7.03348 19.00563
4.00000 7.03348 19.09432
4.00000 7.03348 19.18301
4.00000 7.03348 19.27172
4.00000 7.03348 19.36043
4.00000 7.03348 19.44916
4.00000 7.03348 19.53790
4.00000 7.03348 19.62665
4.00000 7.03348 19.71541
4.00000 7.03348 19.80419
4.00000 7.03348 19.89297
4.00000 7.03348 19.98176
4.00000 7.03348 20.07057
4.00000 7.03348 20.15938
4.00000 7.03348 20.24821
4.00000 7.03348 20.33704
4.00000 7.03348 20.42589
4.00000 7.03348 20.51474
4.00000 7.03348 20.60361
4.00000 7.03348 20.69249
4.00000 7.03348 20.78137
4.00000 7.03348 20.87027
4.00000 7.03348 20.95917
4.00000 7.03348 21.04809
4.00000 7.03348 21.13701
4.00000 7.03348 21.22595
4.00000 7.03348 21.31489
4.00000 7.03348 21.40384
4.00000 7.03348 21.49281
4.00000 7.03348 21.58178
4.00000 7.03348 21.67076
4.00000 7.03348 21.75975
4.00000 7.03348 21.84875
4.00000 7.03348 21.93775
4.00000 7.03348 22.02677
4.00000 7.03348 22.11579
4.00000 7.03348 22.20483
4.00000 7.03348 22.29387
4.00000 7.03348 22.38292
4.00000 7.03348 22.47198
4.00000 7.03348 22.56105
4.00000 7.03348 22.65012
4.00000 7.03348 22.73921
4.00000 7.03348 22.82830
4.00000 7.03348 22.91740
4.00000 7.03348 23.00651
4.00000 7.03348 23.09563
4.00000 7.03348 23.18475
4.00000 7.03348 23.27389
4.00000 7.03348 23.36303
4.00000 7.03348 23.45218
4.00000 7.03348 23.54133
4.00000 7.03348 23.63050
4.00000 7.03348 23.71967
4.00000 7.03348 23.80885
4.00000 7.03348 23.89803
4.00000 7.03348 23.98723
4.00000 7.03348 24.07643
4.00000 7.03348 24.16564
4.00000 7.03348 24.25485
4.00000 7.03348 24.34408
4.00000 7.03348 24.43331
4.00000 7.03348 24.52254
4.00000 7.03348 24.61179
4.00000 7.03348 24.70104
4.00000 7.03348 24.79030
4.00000 7.03348 24.87956
4.00000 7.03348 24.96883
4.00000 7.03348 25.05811
4.00000 7.03348 25.14740
4.00000 7.03348 25.23669
4.00000 7.03348 25.32599
4.00000 7.03348 25.41530
4.00000 7.03348 25.50461
4.00000 7.03348 25.59393
4.00000 7.03348 25.68325
4.00000 7.03348 25.77258
4.00000 7.03348 25.86192
4.00000 7.03348 25.95127
4.00000 7.03348 26.04062
4.00000 7.03348 26.12997
4.00000 7.03348 26.21934
4.00000 7.03348 26.30871
4.00000 7.03348 26.39808
4.00000 7.03348 26.48746
4.00000 7.03348 26.57685
4.00000 7.03348 26.66624
4.00000 7.03348 26.75564
4.00000 7.03348 26.84505
4.00000 7.03348 26.93446
4.00000 7.03348 27.02387
4.00000 7.03348 27.11330
4.00000 7.03348 27.20273
4.00000 7.03348 27.29216
4.00000 7.03348 27.38160
4.00000 7.03348 27.47104
4.00000 7.03348 27.56049
4.00000 7.03348 27.64995
4.00000 7.03348 27.73941
4.00000 7.03348 27.82888
4.00000 7.03348 27.91835
4.00000 7.03348 28.00783
4.00000 7.03348 28.09731
4.00000 7.03348 28.18680
4.00000 7.03348 28.27629
4.00000 7.03348 28.36579
4.00000 7.03348 28.45530
4.00000 7.03348 28.54481
4.00000 7.03348 28.63432
4.00000 7.03348 28.72384
4.00000 7.03348 28.81336
4.00000 7.03348 28.90289
4.00000 7.03348 28.99243
4.00000 7.03348 29.08197
4.00000 7.03348 29.17151
4.00000 7.03348 29.26106
4.00000 7.03348 29.35061
4.00000 7.03348 29.44017
4.00000 7.03348 29.52974
4.00000 7.03348 29.61930
4.00000 7.03348 29.70888
4.00000 7.03348 29.79845
4.00000 7.03348 29.88804
4.00000 7.03348 29.97762
4.00000 7.03348 30.06721
4.00000 7.03348 30.15681
4.00000 7.03348 30.24641
4.00000 7.03348 30.33602
4.00000 7.03348 30.42563
4.00000 7.03348 30.51524
4.00000 7.03348 30.60486
4.00000 7.03348 30.69448
4.00000 7.03348 30.78411
4.00000 7.03348 30.87374
4.00000 7.03348 30.96337
4.00000 7.03348 31.05301
4.00000 7.03348 31.14266
4.00000 7.03348 31.23231
4.00000 7.03348 31.32196
4.00000 7.03348 31.41162
4.00000 7.03348 31.50128
4.00000 7.03348 31.59094
4.00000 7.03348 31.68061
4.00000 7.03348 31.77028
4.00000 7.03348 31.85996
4.00000 7.03348 31.94964
4.00000 7.03348 32.03932
4.00000 7.03348 32.12901
4.00000 7.03348 32.21871
4.00000 7.03348 32.30840
4.00000 7.03348 32.39810
4.00000 7.03348 32.48781
4.00000 7.03348 32.57752
4.00000 7.03348 32.66723
4.00000 7.03348 32.75694
4.00000 7.03348 32.84666
4.00000 7.03348 32.93639
4.00000 7.03348 33.02611

Angle 0.048069 4.814267

4.00000 7.03348 4.00000
4.00000 7.03348 4.00000
4.00000 7.03348 4.00000
4.00000 7.03348 4.00000
4.00000 7.03348 4.00000
4.00000 7.03348 4.00000
4.00000 7.03348 4.00000
4.00000 7.03348 4.00000
4.00000 7.03348 4.00000
4.00000 7.03348 4.00000
4.00000 7.03348 4.00000
4.00000 7.03348 4.00000
4.00000 7.03348 4.00000
4.00000 7.03348 4.00000
4.00000 7.03348 4.00000
4.00000 7.03348 4.00000
4.00000 7.03348 4.00000
4.00000 7.03348 4.00000
4.00000 7.03348 4.00000
4.00000 7.03348 4.00000
4.00000 7.03348 4.00000
4.00000 7.03348 4.00000
4.00000 7.03348 4.00000
4.00000 7.03348 4.00000
4.00000 7.03348 4.00000
4.00000 7.03348 4.00000
4.00000 7.03348 4.00000
4.00000 7.03348 4.00000
4.00000 7.03348 4.00000
4.00000 7.03348 4.00000
4.00000 7.03348 4.00000
4.00000 7.03348 4.00000
4.00000 7.03348 4.00000
4.00000 7.03348 4.00000
4.00000 7.03348 4.00000
4.00000 7.03348 4.00000
4.00000 7.03348 4.00000
4.00000 7.03348 4.00000
4.00000 7.03348 4.00000
4.00000 7.03348 4.00000
4.00000 7.03348 4.00000
4.00000 7.03348 4.00000
4.00000 7.03348 4.00000
4.00000 7.03348 4.00000
4.00000 7.03348 4.00000
4.00000 7.03348 4.00000
4.00000 7.03348 4.00000
4.00000 7.03348 4.00000
4.00000 7.03348 4.00000
4.00000 7.03348 4.00000
4.00000 7.03348 4.00000
4.00000 7.03348 4.00000
4.00000 7.03348 4.00000
4.00000 7.03348 4.00000
4.00000 7.03348 4.00000
4.00000 7.03348 4.00000
4.00000 7.03348 4.00000
4.00000 7.03348 4.00000
4.00000 7.03348 4.00000
4.00000 7.03348 4.00000
4.00000 7.03348 4.00000
4.00000 7.03348 4.00000
4.00000 7.03348 4.00000
4.00000 7.03348 4.00000
4.00000 7.03348 4.00000
4.00000 7.03349 4.00000
4.00000 7.03349 4.00000
4.00000 7.03349 4.00000
4.00000 7.03349 4.00000
4.00000 7.03349 4.00000
4.00000 7.03349 4.00000
4.00000 7.03349 4.00000
4.00000 7.03348 4.00000
4.00000 7.03348 4.00000
4.00000 7.03348 4.00000
4.00000 7.03348 4.00000
4.00000 7.03348 4.00000
4.00000 7.03348 4.00000
4.00000 7.03348 4.00000
4.00000 7.03348 4.00000
4.00000 7.03348 4.00000
4.00000 7.03348 4.00000
4.00000 7.03348 4.00000
4.00000 7.03348 4.00000
4.00000 7.03348 4.00000
4.00000 7.03348 4.00000
4.00000 7.03348 4.00000
4.00000 7.03348 4.00000
4.00000 7.03348 4.00000
4.00000 7.03348 4.00000
4.00000 7.03348 4.00000
4.00000 7.03348 4.00000
4.00000 7.03348 4.00000
4.00000 7.03348 4.00000
4.00000 7.03348 4.00000
4.00000 7.03348 4.00000
4.00000 7.03348 4.00000
4.00000 7.03348 4.00000
4.00000 7.03348 4.00000
4.00000 7.03348 4.00000
4.00000 7.03348 4.00000
4.00000 7.03348 4.00000
4.00000 7.03348 4.00000
4.00000 7.03348 4.00000
4.00000 7.03348 4.00000
4.00000 7.03348 4.00000
4.00000 7.03348 4.00000
4.00000 7.03348 4.00000
4.00000 7.03348 4.00000
4.00000 7.03348 4.00000
4.00000 7.03348 4.00000
4.00000 7.03348 4.00000
4.00000 7.03348 4.00000
4.00000 7.03348 4.00000
4.00000 7.03348 4.00000
4.00000 7.03348 4.00000
4.00000 7.03348 4.00000
4.00000 7.03348 4.00000
4.00000 7.03348 4.00000
4.00000 7.03348 4.00000
4.00000 7.03348 4.00000
4.00000 7.03348 4.00000
4.00000 7.03348 4.00000
4.00000 7.03348 4.00000
4.00000 7.03348 4.00000
4.00000 7.03348 4.00000
4.00000 7.03348 4.00000
4.00000 7.03348 4.00000
4.00000 7.03348 4.00000
4.00000 7.03348 4.00000
4.00000 7.03348 4.00000
4.00000 7.03348 4.00000
4.00000 7.03348 4.00000
4.00000 7.03348 4.00000
4.00000 7.03348 4.00000
4.00000 7.03348 4.00000
4.00000 7.03348 4.00000
4.00000 7.03348 4.00000
4.00000 7.03348 4.00000
4.00000 7.03348 4.00000
4.00000 7.03348 4.00000
4.00000 7.03348 4.00000
4.00000 7.03348 4.00000
4.00000 7.03348 4.00000
4.00000 7.03348 4.00000
4.00000 7.03348 4.00000
4.00000 7.03348 4.00000
4.00000 7.03348 4.00000
4.00000 7.03348 4.00000
4.00000 7.03348 4.00000
4.00000 7.03349 4.00000
4.00000 7.03348 4.00000
4.00000 7.03348 4.00000
4.00000 7.03348 4.00000
4.00000 7.03349 4.00000
4.00000 7.03348 4.00000
4.00000 7.03348 4.00000
4.00000 7.03348 4.00000
4.00195 7.07062 4.00195
4.00559 7.14112 4.00559
4.00918 7.21185 4.00918
4.01274 7.28280 4.01274
4.01627 7.35393 4.01627
4.01979 7.42522 4.01979
4.02331 7.49665 4.02331
4.02684 7.56818 4.02684
4.03040 7.63979 4.03040
4.03400 7.71145 4.03400
4.03765 7.78312 4.03765
4.04137 7.85477 4.04137
4.04519 7.92636 4.04519
4.04911 7.99785 4.04911
4.05317 8.06919 4.05317
4.05739 8.14032 4.05739
4.06181 8.21117 4.06181
4.06646 8.28167 4.06646
4.07139 8.35172 4.07139
4.07665 8.42122 4.07665
4.08231 8.49004 4.08231
4.08845 8.55800 4.08845
4.09516 8.62492 4.09516
4.10255 8.69059 4.10255
4.11059 8.75506 4.11059
4.11929 8.81831 4.11929
4.12869 8.88025 4.12869
4.13883 8.94080 4.13883
4.14977 8.99987 4.14977
4.16152 9.05740 4.16152
4.17413 9.11332 4.17413
4.18760 9.16758 4.18760
4.20197 9.22017 4.20197
4.21722 9.27106 4.21722
4.23336 9.32027 4.23336
4.25038 9.36781 4.25038
4.26826 9.41372 4.26826
4.28697 9.45806 4.28697
4.30647 9.50087 4.30647
4.32675 9.54225 4.32674
4.34775 9.58224 4.34774
4.36944 9.62093 4.36944
4.39179 9.65838 4.39179
4.41478 9.69464 4.41478
4.43838 9.72975 4.43838
4.46259 9.76372 4.46259
4.48743 9.79650 4.48743
4.51298 9.82795 4.51298
4.53938 9.85776 4.53938
4.56697 9.88526 4.56697
4.59650 9.90895 4.59651
4.62981 9.92516 4.62982
4.01410 7.31005 7.94354
4.01241 7.27624 8.06199
4.01100 7.24797 8.17470
4.00979 7.22396 8.28303
4.00875 7.20332 8.38787
4.00785 7.18542 8.48991
4.00705 7.16977 8.58965
4.00635 7.15601 8.68747
4.00573 7.14386 8.78366
4.00518 7.13307 8.87848
4.00468 7.12347 8.97212
4.00424 7.11489 9.06475
4.00385 7.10721 9.15649
4.00349 7.10031 9.24747
4.00317 7.09412 9.33777
4.00288 7.08853 9.42748
4.00262 7.08350 9.51668
4.00238 7.07894 9.60542
4.00217 7.07483 9.69376
4.00197 7.07110 9.78175
4.00180 7.06772 9.86942
4.00164 7.06466 9.95681
4.00149 7.06188 10.04397
4.00136 7.05935 10.13090
4.00124 7.05705 10.21765
4.00113 7.05497 10.30422
4.00103 7.05307 10.39064
4.00094 7.05134 10.47695
4.00086 7.04977 10.56313
4.00078 7.04834 10.64921
4.00071 7.04703 10.73521
4.00065 7.04584 10.82115
4.00060 7.04476 10.90700
4.00054 7.04376 10.99282
4.00049 7.04287 11.07857
4.00045 7.04205 11.16429
4.00042 7.04130 11.24998
4.00038 7.04063 11.33564
4.00034 7.03999 11.42130
4.00031 7.03942 11.50693
4.00029 7.03891 11.59255
4.00026 7.03843 11.67818
4.00024 7.03800 11.76380
4.00022 7.03760 11.84941
4.00020 7.03724 11.93504
4.00018 7.03691 12.02066
4.00016 7.03661 12.10632
4.00015 7.03634 12.19197
4.00014 7.03609 12.27763
4.00012 7.03586 12.36332
4.00011 7.03565 12.44903
4.00010 7.03546 12.53473
4.00009 7.03528 12.62048
4.00009 7.03512 12.70625
4.00008 7.03498 12.79204
4.00007 7.03485 12.87786
4.00006 7.03473 12.96370
4.00006 7.03462 13.04957
4.00005 7.03452 13.13547
4.00005 7.03443 13.22139
4.00004 7.03435 13.30735
4.00004 7.03427 13.39333
4.00004 7.03420 13.47934
4.00003 7.03414 13.56538
4.00003 7.03408 13.65144
4.00003 7.03402 13.73754
4.00002 7.03398 13.82366
4.00002 7.03393 13.90981
4.00002 7.03389 13.99599
4.00002 7.03385 14.08220
4.00002 7.03382 14.16843
4.00002 7.03379 14.25470
4.00001 7.03376 14.34099
4.00001 7.03373 14.42731
4.00001 7.03371 14.51366
4.00001 7.03369 14.60003
4.00001 7.03367 14.68643
4.00001 7.03365 14.77286
4.00001 7.03363 14.85932
4.00001 7.03362 14.94580
4.00001 7.03361 15.03231
4.00001 7.03359 15.11885
4.00001 7.03358 15.20541
4.00000 7.03357 15.29200
4.00000 7.03356 15.37861
4.00000 7.03355 15.46525
4.00000 7.03355 15.55192
4.00000 7.03355 15.63782
4.00000 7.03355 15.72451
4.00000 7.03354 15.81122
4.00000 7.03353 15.89796
4.00000 7.03353 15.98473
4.00000 7.03353 16.07152
4.00000 7.03352 16.15834
4.00000 7.03352 16.24519
4.00000 7.03351 16.33206
4.00000 7.03351 16.41895
4.00000 7.03351 16.50587
4.00000 7.03351 16.59282
4.00000 7.03350 16.67979
4.00000 7.03350 16.76678
4.00000 7.03350 16.85380
4.00000 7.03350 16.94084
4.00000 7.03350 17.02790
4.00000 7.03349 17.11499
4.00000 7.03349 17.20210
4.00000 7.03349 17.28923
4.00000 7.03349 17.37639
4.00000 7.03349 17.46357
4.00000 7.03349 17.55077
4.00000 7.03349 17.63799
4.00000 7.03349 17.72523
4.00000 7.03349 17.81250
4.00000 7.03349 17.89978
4.00000 7.03349 17.98709
4.00000 7.03349 18.07442
4.00000 7.03348 18.16177
4.00000 7.03348 18.24913
4.00000 7.03348 18.33652
4.00000 7.03348 18.42393
4.00000 7.03348 18.51136
4.00000 7.03348 18.59881
4.00000 7.03348 18.68628
4.00000 7.03348 18.77377
4.00000 7.03348 18.86128
4.00000 7.03348 18.94880
4.00000 7.03348 19.03635
4.00000 7.03348 19.12391
4.00000 7.03348 19.21150
4.00000 7.03348 19.29910
4.00000 7.03348 19.38672
4.00000 7.03348 19.47436
4.00000 7.03348 19.56201
4.00000 7.03348 19.64969
4.00000 7.03348 19.73738
4.00000 7.03348 19.82509
4.00000 7.03348 19.91281
4.00000 7.03348 20.00056
4.00000 7.03348 20.08832
4.00000 7.03348 20.17610
4.00000 7.03348 20.26389
4.00000 7.03348 20.35170
4.00000 7.03348 20.43953
4.00000 7.03348 20.52737
4.00000 7.03348 20.61523
4.00000 7.03348 20.70311
4.00000 7.03348 20.79100
4.00000 7.03348 20.87891
4.00000 7.03348 20.96683
4.00000 7.03348 21.05477
4.00000 7.03348 21.14273
4.00000 7.03348 21.23070
4.00000 7.03348 21.31869
4.00000 7.03348 21.40669
4.00000 7.03348 21.49470
4.00000 7.03348 21.58273
4.00000 7.03348 21.67078
4.00000 7.03348 21.75884
4.00000 7.03348 21.84691
4.00000 7.03348 21.93500
4.00000 7.03348 22.02310
4.00000 7.03348 22.11122
4.00000 7.03348 22.19935
4.00000 7.03348 22.28750
4.00000 7.03348 22.37566
4.00000 7.03348 22.46383
4.00000 7.03348 22.55202
4.00000 7.03348 22.64022
4.00000 7.03348 22.72843
4.00000 7.03348 22.81666
4.00000 7.03348 22.90490
4.00000 7.03348 22.99315
4.00000 7.03348 23.08142
4.00000 7.03348 23.16969
4.00000 7.03348 23.25799
4.00000 7.03348 23.34629
4.00000 7.03348 23.43461
4.00000 7.03348 23.52294
4.00000 7.03348 23.61128
4.00000 7.03348 23.69963
4.00000 7.03348 23.78800
4.00000 7.03348 23.87638
4.00000 7.03348 23.96477
4.00000 7.03348 24.05317
4.00000 7.03348 24.14158
4.00000 7.03348 24.23001
4.00000 7.03348 24.31845
4.00000 7.03348 24.40690
4.00000 7.03348 24.49536
4.00000 7.03348 24.58383

Angle 0.049582 0.253452

4.00000 7.03348 4.00000
4.00000 7.03348 4.00000
4.00000 7.03348 4.00000
4.00000 7.03348 4.00000
4.00000 7.03348 4.00000
4.00000 7.03348 4.00000
4.00000 7.03348 4.00000
4.00000 7.03348 4.00000
4.00000 7.03348 4.00000
4.00000 7.03348 4.00000
4.00000 7.03348 4.00000
4.00000 7.03348 4.00000
4.00000 7.03348 4.00000
4.00000 7.03348 4.00000
4.00000 7.03348 4.00000
4.00000 7.03348 4.00000
4.00000 7.03348 4.00000
4.00000 7.03348 4.00000
4.00000 7.03348 4.00000
4.00000 7.03348 4.00000
4.00000 7.03348 4.00000
4.00000 7.03348 4.00000
4.00000 7.03348 4.00000
4.00000 7.03348 4.00000
4.00000 7.03348 4.00000
4.00000 7.03348 4.00000
4.00000 7.03348 4.00000
4.00000 7.03348 4.00000
4.00000 7.03348 4.00000
4.00000 7.03348 4.00000
4.00000 7.03348 4.00000
4.00000 7.03348 4.00000
4.00000 7.03348 4.00000
4.00000 7.03348 4.00000
4.00000 7.03348 4.00000
4.00000 7.03348 4.00000
4.00000 7.03348 4.00000
4.00000 7.03348 4.00000
4.00000 7.03348 4.00000
4.00000 7.03348 4.00000
4.00000 7.03348 4.00000
4.00000 7.03348 4.00000
4.00000 7.03348 4.00000
4.00000 7.03348 4.00000
4.00000 7.03348 4.00000
4.00000 7.03348 4.00000
4.00000 7.03348 4.00000
4.00000 7.03348 4.00000
4.00000 7.03348 4.00000
4.00000 7.03348 4.00000
4.00000 7.03348 4.00000
4.00000 7.03348 4.00000
4.00000 7.03348 4.00000
4.00000 7.03348 4.00000
4.00000 7.03348 4.00000
4.00000 7.03348 4.00000
4.00000 7.03348 4.00000
4.00000 7.03348 4.00000
4.00000 7.03348 4.00000
4.00000 7.03348 4.00000
4.00000 7.03348 4.00000
4.00000 7.03348 4.00000
4.00000 7.03348 4.00000
4.00000 7.03348 4.00000
4.00000 7.03348 4.00000
4.00000 7.03348 4.00000
4.00000 7.03348 4.00000
4.00000 7.03348 4.00000
4.00000 7.03348 4.00000
4.00000 7.03348 4.00000
4.00000 7.03348 4.00000
4.00000 7.03348 4.00000
4.00000 7.03348 4.00000
4.00000 7.03348 4.00000
4.00000 7.03348 4.00000
4.00000 7.03348 4.00000
4.00000 7.03348 4.00000
4.00000 7.03348 4.00000
4.00000 7.03348 4.00000
4.00000 7.03348 4.00000
4.00000 7.03348 4.00000
4.00000 7.03348 4.00000
4.00000 7.03348 4.00000
4.00000 7.03348 4.00000
4.00000 7.03348 4.00000
4.00000 7.03348 4.00000
4.00000 7.03348 4.00000
4.00000 7.03348 4.00000
4.00000 7.03348 4.00000
4.00000 7.03348 4.00000
4.00000 7.03348 4.00000
4.00000 7.03348 4.00000
4.00000 7.03348 4.00000
4.00000 7.03348 4.00000
4.00000 7.03348 4.00000
4.00000 7.03348 4.00000
4.00000 7.03348 4.00000
4.00000 7.03348 4.00000
4.00000 7.03348 4.00000
4.00000 7.03348 4.00000
4.00000 7.03348 4.00000
4.00000 7.03348 4.00000
4.00000 7.03348 4.00000
4.00000 7.03348 4.00000
4.00000 7.03348 4.00000
4.00000 7.03348 4.00000
4.00000 7.03348 4.00000
4.00000 7.03348 4.00000
4.00000 7.03348 4.00000
4.00000 7.03348 4.00000
4.00000 7.03348 4.00000
4.00000 7.03348 4.00000
4.00000 7.03348 4.00000
4.00000 7.03350 4.00000
4.00026 7.03840 4.00026
4.00385 7.10721 4.00385
4.00738 7.17628 4.00738
4.01088 7.24559 4.01088
4.01435 7.31511 4.01435
4.01780 7.38482 4.01780
4.02124 7.45469 4.02124
4.02470 7.52469 4.02470
4.02816 7.59481 4.02816
4.03166 7.66501 4.03166
4.03520 7.73527 4.03520
4.03881 7.80555 4.03881
4.04248 7.87581 4.04248
4.04625 7.94603 4.04625
4.05014 8.01614 4.05014
4.05416 8.08612 4.05416
4.05835 8.15589 4.05835
4.06273 8.22540 4.06273
4.06735 8.29457 4.06735
4.07224 8.36331 4.07224
4.07747 8.43151 4.07747
4.08309 8.49903 4.08309
4.08919 8.56573 4.08919
4.09585 8.63141 4.09585
4.10318 8.69588 4.10318
4.11113 8.75921 4.11113
4.11973 8.82137 4.11973
4.12901 8.88227 4.12901
4.13902 8.94183 4.13902
4.14979 8.99997 4.14979
4.16136 9.05662 4.16136
4.17375 9.11172 4.17375
4.18699 9.16523 4.18699
4.20110 9.21712 4.20110
4.21607 9.26738 4.21607
4.23191 9.31600 4.23191
4.24860 9.36301 4.24860
4.26613 9.40844 4.26613
4.28447 9.45234 4.28447
4.30360 9.49477 4.30360
4.32348 9.53578 4.32348
4.34408 9.57545 4.34408
4.36536 9.61385 4.36536
4.38730 9.65103 4.38730
4.40986 9.68705 4.40985
4.43302 9.72195 4.43302
4.45677 9.75575 4.45677
4.48114 9.78840 4.48114
4.50618 9.81981 4.50618
4.53200 9.84973 4.53200
4.55886 9.87764 4.55886
4.58735 9.90239 4.58735
4.61880 9.92128 4.61881
4.65652 9.92770 4.65655
4.70699 9.90889 4.70685
8.13602 7.25727 4.01147
8.24450 7.23217 4.01021
8.34930 7.21063 4.00912
8.45116 7.19198 4.00818
8.55060 7.17569 4.00735
8.64804 7.16138 4.00662
8.74380 7.14874 4.00598
8.83813 7.13752 4.00541
8.93124 7.12754 4.00489
9.02330 7.11863 4.00443
9.11444 7.11064 4.00402
9.20480 7.10347 4.00365
9.29447 7.09702 4.00332
9.38353 7.09120 4.00302
9.47206 7.08596 4.00275
9.56012 7.08121 4.00250
9.64777 7.07692 4.00228
9.73506 7.07304 4.00207
9.82203 7.06951 4.00189
9.90872 7.06631 4.00172
9.99515 7.06340 4.00157
10.08138 7.06075 4.00143
10.16739 7.05837 4.00130
10.25325 7.05618 4.00119
10.33896 7.05419 4.00109
10.42453 7.05237 4.00099
10.51000 7.05072 4.00091
10.59536 7.04921 4.00083
10.68064 7.04784 4.00076
10.76584 7.04660 4.00069
10.85098 7.04546 4.00063
10.93606 7.04442 4.00058
11.02110 7.04347 4.00053
11.10611 7.04261 4.00048
11.19109 7.04182 4.00044
11.27605 7.04109 4.00040
11.36099 7.04044 4.00037
11.44593 7.03982 4.00033
11.53085 7.03927 4.00031
11.61578 7.03877 4.00028
11.70070 7.03831 4.00025
11.78564 7.03788 4.00023
11.87057 7.03751 4.00021
11.95553 7.03715 4.00019
12.04047 7.03684 4.00018
12.12547 7.03654 4.00016
12.21044 7.03629 4.00015
12.29547 7.03603 4.00013
12.38052 7.03581 4.00012
12.46555 7.03562 4.00011
12.55065 7.03542 4.00010
12.63577 7.03525 4.00009
12.72091 7.03510 4.00008
12.80604 7.03497 4.00008
12.89124 7.03483 4.00007
12.97647 7.03471 4.00006
13.06173 7.03460 4.00006
13.14702 7.03450 4.00005
13.23234 7.03441 4.00005
13.31770 7.03433 4.00004
13.40310 7.03425 4.00004
13.48852 7.03418 4.00003
13.57398 7.03412 4.00003
13.65947 7.03406 4.00003
13.74500 7.03401 4.00003
13.83056 7.03396 4.00002
13.91615 7.03392 4.00002
14.00177 7.03388 4.00002
14.08742 7.03385 4.00002
14.17311 7.03381 4.00002
14.25883 7.03378 4.00001
14.34458 7.03375 4.00001
14.43037 7.03373 4.00001
14.51618 7.03371 4.00001
14.60203 7.03368 4.00001
14.68791 7.03367 4.00001
14.77381 7.03365 4.00001
14.85975 7.03363 4.00001
14.94572 7.03362 4.00001
15.03172 7.03360 4.00001
15.11775 7.03359 4.00001
15.20381 7.03358 4.00000
15.28990 7.03357 4.00000
15.37601 7.03356 4.00000
15.46216 7.03355 4.00000
15.54833 7.03355 4.00000
15.63454 7.03354 4.00000
15.72077 7.03353 4.00000
15.80703 7.03353 4.00000
15.89332 7.03352 4.00000
15.97963 7.03352 4.00000
16.06557 7.03353 4.00000
16.15194 7.03352 4.00000
16.23835 7.03352 4.00000
16.32478 7.03351 4.00000
16.41123 7.03351 4.00000
16.49772 7.03351 4.00000
16.58423 7.03351 4.00000
16.67076 7.03350 4.00000
16.75732 7.03350 4.00000
16.84391 7.03350 4.00000
16.93052 7.03350 4.00000
17.01716 7.03350 4.00000
17.10382 7.03349 4.00000
17.19051 7.03349 4.00000
17.27722 7.03349 4.00000
17.36396 7.03349 4.00000
17.45072 7.03349 4.00000
17.53751 7.03349 4.00000
17.62431 7.03349 4.00000
17.71115 7.03349 4.00000
17.79800 7.03349 4.00000
17.88488 7.03349 4.00000
17.97178 7.03349 4.00000
18.05870 7.03349 4.00000
18.14565 7.03348 4.00000
18.23262 7.03348 4.00000
18.31961 7.03348 4.00000
18.40662 7.03348 4.00000
18.49366 7.03348 4.00000
18.58071 7.03348 4.00000
18.66779 7.03348 4.00000
18.75489 7.03348 4.00000
18.84201 7.03348 4.00000
18.92915 7.03348 4.00000
19.01631 7.03348 4.00000
19.10349 7.03348 4.00000
19.19069 7.03348 4.00000
19.27792 7.03348 4.00000
19.36516 7.03348 4.00000
19.45242 7.03348 4.00000
19.53970 7.03348 4.00000
19.62700 7.03348 4.00000
19.71433 7.03348 4.00000
19.80167 7.03348 4.00000
19.88903 7.03348 4.00000
19.97640 7.03348 4.00000
20.06380 7.03348 4.00000
20.15122 7.03348 4.00000
20.23865 7.03348 4.00000
20.32610 7.03348 4.00000
20.41357 7.03348 4.00000
20.50106 7.03348 4.00000
20.58857 7.03348 4.00000
20.67609 7.03348 4.00000
20.76364 7.03348 4.00000
20.85120 7.03348 4.00000
20.93877 7.03348 4.00000
21.02637 7.03348 4.00000
21.11398 7.03348 4.00000
21.20161 7.03348 4.00000
21.28925 7.03348 4.00000
21.37691 7.03348 4.00000
21.46459 7.03348 4.00000
21.55229 7.03348 4.00000
21.64000 7.03348 4.00000
21.72772 7.03348 4.00000
21.81547 7.03348 4.00000
21.90323 7.03348 4.00000
21.99100 7.03348 4.00000
22.07879 7.03348 4.00000
22.16660 7.03348 4.00000
22.25442 7.03348 4.00000
22.34226 7.03348 4.00000
22.43011 7.03348 4.00000
22.51798 7.03348 4.00000
22.60586 7.03348 4.00000
22.69376 7.03348 4.00000
22.78167 7.03348 4.00000
22.86959 7.03348 4.00000
22.95753 7.03348 4.00000
23.04549 7.03348 4.00000
23.13346 7.03348 4.00000
23.22144 7.03348 4.00000
23.30944 7.03348 4.00000
23.39745 7.03348 4.00000
23.48548 7.03348 4.00000
23.57352 7.03348 4.00000
23.66157 7.03348 4.00000
23.74964 7.03348 4.00000
23.83772 7.03348 4.00000
23.92581 7.03348 4.00000
24.01392 7.03348 4.00000
24.10204 7.03348 4.00000
24.19017 7.03348 4.00000
24.27832 7.03348 4.00000
24.36648 7.03348 4.00000
24.45465 7.03348 4.00000
24.54283 7.03348 4.00000
24.63103 7.03348 4.00000
24.71924 7.03348 4.00000
24.80746 7.03348 4.00000
24.89569 7.03348 4.00000
24.98394 7.03348 4.00000
25.07220 7.03348 4.00000
25.16047 7.03348 4.00000
25.24875 7.03348 4.00000
25.33704 7.03348 4.00000
25.42535 7.03348 4.00000
25.51367 7.03348 4.00000
25.60200 7.03348 4.00000
25.69034 7.03348 4.00000
25.77869 7.03348 4.00000
25.86705 7.03348 4.00000
25.95543 7.03348 4.00000
26.04382 7.03348 4.00000
26.13221 7.03348 4.00000
26.22062 7.03348 4.00000
26.30904 7.03348 4.00000
26.39747 7.03348 4.00000
26.48591 7.03348 4.00000
26.57436 7.03348 4.00000
26.66283 7.03348 4.00000
26.75130 7.03348 4.00000
26.83978 7.03348 4.00000
26.92828 7.03348 4.00000
27.01678 7.03348 4.00000
27.10529 7.03348 4.00000
27.19382 7.03348 4.00000
27.28235 7.03348 4.00000
27.37090 7.03348 4.00000
27.45945 7.03348 4.00000
27.54802 7.03348 4.00000
27.63659 7.03348 4.00000
27.72518 7.03348 4.00000
27.81377 7.03348 4.00000
27.90238 7.03348 4.00000
27.99099 7.03348 4.00000
28.07961 7.03348 4.00000
28.16824 7.03348 4.00000
28.25689 7.03348 4.00000

