0.3058
0.3075
0.3092
0.3109
0.3127
0.3144
0.3162
0.3180
0.3199
0.3217
0.3236
0.3255
0.3274
0.3293
0.3309
0.3325
0.3342
0.3357
0.3373
0.3388
0.3404
0.3416
0.3428
0.3441
0.3456
0.3471
0.3487
0.3503
0.3519
0.3529
0.3545
0.3561
0.3577
0.3594
0.3610
0.3631
0.3651
0.3668
0.3687
0.3706
0.3724
0.3741
0.3759
0.3776
0.3795
0.3815
0.3835
0.3858
0.3883
0.3910
0.3940
0.3974
0.4012
0.4064
0.4129
0.4176
0.4181
0.4183
0.4184
0.4177
0.4168
0.4162
0.4157
0.4152
0.4146
0.4139
0.4132
0.4125
0.4117
0.4109
0.4101
0.4093
0.4084
0.4075
0.4067
0.4058
0.4050
0.4042
0.4037
0.4034
0.4030
0.4027
0.4024
0.4019
0.4015
0.4010
0.4005
0.4000
0.3995
0.3989
0.3981
0.3965
0.3955
0.3960
0.3966
0.3973
0.3980
0.3989
0.3998
0.4008
0.4018
0.4029
0.4040
0.4052
0.4066
0.4080
0.4096
0.4113
0.4131
0.4151
0.4171
0.4192
0.4214
0.4235
0.4258
0.4281
0.4306
0.4333
0.4362
0.4393
0.4425
0.4460
0.4496
0.4535
0.4577
0.4622
0.4669
0.4728
0.4755
0.4783
0.4810
0.4811
0.4871
0.4924
0.4980
0.5038
0.5098
0.5157
0.5213
0.5269
0.5325
0.5384
0.5444
0.5506
0.5571
0.5638
0.5705
0.5762
0.5859
0.5983
0.6173
0.6259
0.6303
0.6348
0.6393
0.6439
0.6486
0.6533
0.6581
0.6630
0.6679
0.6731
0.6783
0.6837
0.6893
0.6951
0.7011
0.7075
0.7142
0.7214
0.7295
0.7391
0.7523
0.7560
0.7598
0.7635
0.7675
0.7714
0.7756
0.7798
0.7842
0.7889
0.7938
0.7993
0.8056
0.8149
0.8206
0.8222
0.8237
0.8252
0.8267
0.8281
0.8296
0.8310
0.8326
0.8340
0.8354
0.8368
0.8382
0.8395
0.8408
0.8421
0.8434
0.8446
0.8459
0.8472
0.8484
0.8496
0.8507
0.8520
0.8532
0.8543
0.8554
0.8565
0.8576
0.8587
0.8598
0.8608
0.8619
0.8629
0.8639
0.8650
0.8659
0.8669
0.8678
0.8689
0.8698
0.8707
0.8716
0.8725
0.8734
0.8743
0.8751
0.8763
0.8771
0.8779
0.8787
0.8796
0.8803
0.8811
0.8820
0.8827
0.8835
0.8843
0.8850
0.8857
0.8864
0.8872
0.8878
0.8887
0.8893
0.8900
0.8907
0.8912
0.8920
0.8925
0.8933
0.8938
0.8946
0.8951
0.8964
0.8972
0.8977
0.8983
0.8986
0.8994
0.9000
0.9005
0.9010
0.9013
0.9020
0.9027
0.9033
0.9036
0.9041
0.9045
0.9051
0.9058
0.9061
0.9065
0.9073
0.9082
0.9084
0.9087
0.9095
0.9098
0.9102
0.9113
0.9115
0.9117
0.9124
0.9126
0.9132
0.9134
0.9136
0.9138
0.9141
0.9143
0.9145
0.9147
0.9149
0.9151
0.9153
0.9155
0.9157
0.9159
0.9161
0.9164
0.9166
0.9168
0.9170
0.9172
0.9174
0.9176
0.9178
0.9179
0.9181
0.9183
0.9185
0.9195
0.9196
0.9198
0.9200
0.9202
0.9203
0.9205
0.9207
0.9208
0.9210
0.9212
0.9214
0.9215
0.9217
0.9219
0.9220
0.9222
0.9223
0.9225
0.9227
0.9228
0.9230
0.9232
0.9233
0.9235
0.9236
0.9238
0.9239
0.9241
0.9242
0.9244
0.9245
0.9247
0.9248
0.9250
0.9251
0.9253
0.9254
0.9256
0.9257
0.9259
0.9260
0.9261
0.9263
0.9264
0.9266
0.9267
0.9268
0.9270
0.9271
0.9273
0.9274
0.9275
0.9277
0.9278
0.9279
0.9281
0.9282
0.9283
0.9284
0.9286
0.9287
0.9288
0.9289
0.9291
0.9292
0.9293
0.9294
0.9296
0.9297
0.9298
0.9299
0.9300
0.9302
0.9303
0.9304
0.9305
0.9306
0.9307
0.9309
0.9310
