0.4083
0.4071
0.4058
0.4048
0.4036
0.4025
0.4014
0.4003
0.3989
0.3974
0.3962
0.3950
0.3939
0.3928
0.3919
0.3910
0.3903
0.3896
0.3890
0.3885
0.3881
0.3878
0.3875
0.3875
0.3875
0.3876
0.3877
0.3879
0.3881
0.3884
0.3888
0.3893
0.3901
0.3910
0.3921
0.3932
0.3943
0.3961
0.3981
0.4006
0.4038
0.4084
0.4128
0.4137
0.4146
0.4155
0.4151
0.4161
0.4169
0.4178
0.4187
0.4197
0.4207
0.4219
0.4231
0.4244
0.4257
0.4272
0.4287
0.4303
0.4320
0.4338
0.4356
0.4374
0.4393
0.4411
0.4429
0.4441
0.4448
0.4456
0.4457
0.4486
0.4528
0.4574
0.4622
0.4677
0.4745
0.4861
0.4894
0.4927
0.4960
0.4994
0.5028
0.5063
0.5098
0.5133
0.5168
0.5203
0.5238
0.5273
0.5307
0.5341
0.5375
0.5409
0.5444
0.5479
0.5515
0.5551
0.5588
0.5626
0.5664
0.5704
0.5745
0.5787
0.5832
0.5878
0.5927
0.5978
0.6032
0.6088
0.6148
0.6209
0.6271
0.6331
0.6386
0.6436
0.6480
0.6519
0.6552
0.6579
0.6600
0.6615
0.6628
0.6639
0.6647
0.6654
0.6661
0.6668
0.6673
0.6677
0.6680
0.6682
0.6683
0.6682
0.6683
0.6685
0.6687
0.6690
0.6693
0.6698
0.6703
0.6708
0.6715
0.6721
0.6729
0.6737
0.6745
0.6754
0.6764
0.6774
0.6785
0.6796
0.6808
0.6820
0.6833
0.6846
0.6860
0.6874
0.6889
0.6904
0.6921
0.6938
0.6956
0.6975
0.6997
0.7018
0.7044
0.7067
0.7095
0.7119
0.7146
0.7164
0.7181
0.7196
0.7204
0.7213
0.7222
0.7218
0.7214
0.7209
0.7203
0.7179
0.7186
0.7194
0.7207
0.7219
0.7228
0.7237
0.7247
0.7258
0.7279
0.7290
0.7303
0.7316
0.7329
0.7342
0.7356
0.7371
0.7385
0.7400
0.7416
0.7431
0.7461
0.7477
0.7494
0.7511
0.7528
0.7544
0.7565
0.7583
0.7605
0.7625
0.7651
0.7676
0.7713
0.7748
0.7720
0.7726
0.7737
0.7754
0.7766
0.7779
0.7792
0.7810
0.7823
0.7837
0.7851
0.7865
0.7887
0.7901
0.7916
0.7932
0.7947
0.7963
0.7987
0.8004
0.8020
0.8037
0.8055
0.8072
0.8090
0.8108
0.8127
0.8146
0.8165
0.8185
0.8205
0.8225
0.8246
0.8267
0.8289
0.8311
0.8333
0.8356
0.8379
0.8403
0.8427
0.8452
0.8477
0.8503
0.8528
0.8555
0.8583
0.8611
0.8640
0.8670
0.8701
0.8733
0.8767
0.8802
0.8842
0.8885
0.8942
0.9024
0.9028
0.9032
0.9036
0.9040
0.9044
0.9048
0.9052
0.9056
0.9060
0.9064
0.9068
0.9072
0.9076
0.9080
0.9083
0.9087
0.9091
0.9095
0.9098
0.9102
0.9105
0.9109
0.9112
0.9116
0.9119
0.9123
0.9126
0.9129
0.9133
0.9136
0.9139
0.9148
0.9152
0.9155
0.9157
0.9161
0.9164
0.9173
0.9176
0.9180
0.9182
0.9185
0.9187
0.9190
0.9192
0.9194
0.9197
0.9199
0.9202
0.9204
0.9206
0.9208
0.9211
0.9213
0.9215
0.9218
0.9220
0.9222
0.9224
0.9226
0.9228
0.9231
0.9233
0.9235
0.9237
0.9239
0.9241
0.9243
0.9245
0.9247
0.9249
0.9251
0.9253
0.9255
0.9257
0.9259
0.9261
0.9274
0.9276
0.9278
0.9280
0.9281
0.9284
0.9285
0.9287
0.9289
0.9290
0.9292
0.9293
0.9296
0.9297
0.9298
0.9300
0.9301
0.9303
0.9304
0.9305
0.9307
0.9308
0.9310
0.9311
0.9312
0.9314
0.9315
0.9316
0.9318
0.9319
0.9320
0.9322
0.9323
0.9324
0.9326
0.9327
0.9328
0.9329
0.9331
0.9332
0.9333
0.9335
0.9336
0.9337
0.9338
0.9339
0.9341
0.9342
0.9343
