0.3309
0.3304
0.3299
0.3295
0.3290
0.3287
0.3283
0.3280
0.3278
0.3275
0.3274
0.3272
0.3271
0.3270
0.3270
0.3269
0.3270
0.3270
0.3270
0.3271
0.3272
0.3273
0.3274
0.3275
0.3276
0.3277
0.3277
0.3278
0.3277
0.3276
0.3275
0.3272
0.3268
0.3261
0.3249
0.3225
0.3201
0.3207
0.3213
0.3214
0.3215
0.3217
0.3217
0.3217
0.3217
0.3216
0.3214
0.3211
0.3209
0.3206
0.3203
0.3199
0.3196
0.3192
0.3188
0.3184
0.3179
0.3175
0.3170
0.3166
0.3161
0.3157
0.3151
0.3145
0.3139
0.3132
0.3124
0.3117
0.3109
0.3100
0.3091
0.3081
0.3072
0.3062
0.3053
0.3045
0.3038
0.3033
0.3030
0.3028
0.3027
0.3023
0.3020
0.3019
0.3019
0.3021
0.3025
0.3030
0.3036
0.3043
0.3053
0.3065
0.3078
0.3092
0.3107
0.3123
0.3139
0.3156
0.3174
0.3192
0.3206
0.3200
0.3213
0.3228
0.3243
0.3258
0.3274
0.3291
0.3308
0.3326
0.3344
0.3362
0.3381
0.3400
0.3420
0.3440
0.3461
0.3483
0.3504
0.3526
0.3548
0.3570
0.3593
0.3616
0.3640
0.3666
0.3692
0.3720
0.3749
0.3780
0.3813
0.3847
0.3883
0.3921
0.3965
0.4010
0.4057
0.4105
0.4161
0.4246
0.4266
0.4289
0.4310
0.4332
0.4355
0.4379
0.4404
0.4430
0.4456
0.4484
0.4512
0.4541
0.4571
0.4602
0.4634
0.4667
0.4701
0.4736
0.4772
0.4809
0.4847
0.4886
0.4927
0.4969
0.5012
0.5057
0.5102
0.5150
0.5198
0.5249
0.5300
0.5353
0.5408
0.5465
0.5531
0.5591
0.5653
0.5716
0.5781
0.5849
0.5920
0.5993
0.6070
0.6151
0.6235
0.6327
0.6389
0.6453
0.6519
0.6586
0.6655
0.6732
0.6774
0.6817
0.6861
0.6907
0.6955
0.7006
0.7058
0.7112
0.7170
0.7233
0.7302
0.7395
0.7453
0.7483
0.7515
0.7548
0.7582
0.7617
0.7654
0.7691
0.7730
0.7769
0.7806
0.7859
0.7869
0.7877
0.7888
0.7899
0.7910
0.7921
0.7932
0.7942
0.7955
0.7965
0.7976
0.7992
0.8003
0.8014
0.8025
0.8037
0.8056
0.8068
0.8080
0.8093
0.8106
0.8119
0.8133
0.8146
0.8170
0.8184
0.8199
0.8214
0.8229
0.8244
0.8260
0.8276
0.8293
0.8321
0.8338
0.8355
0.8373
0.8391
0.8409
0.8428
0.8446
0.8466
0.8485
0.8505
0.8525
0.8546
0.8567
0.8589
0.8611
0.8634
0.8658
0.8681
0.8705
0.8730
0.8755
0.8781
0.8808
0.8836
0.8864
0.8894
0.8926
0.8959
0.8995
0.9033
0.9078
0.9130
0.9228
0.9242
0.9247
0.9250
0.9254
0.9259
0.9262
0.9266
0.9270
0.9273
0.9277
0.9283
0.9286
0.9289
0.9293
0.9296
0.9299
0.9302
0.9305
0.9309
0.9312
0.9315
0.9318
0.9321
0.9324
0.9328
0.9331
0.9334
0.9337
0.9341
0.9344
0.9346
0.9349
0.9353
0.9356
0.9359
0.9361
0.9364
0.9367
0.9369
0.9372
0.9375
0.9377
0.9380
0.9382
0.9385
0.9387
0.9390
0.9392
0.9394
0.9397
0.9399
0.9403
0.9405
0.9408
0.9410
0.9412
0.9415
0.9417
0.9419
0.9421
0.9423
0.9425
0.9427
0.9429
0.9431
0.9433
0.9435
0.9437
0.9439
0.9441
0.9443
0.9445
0.9446
0.9448
0.9450
0.9452
0.9454
0.9455
0.9457
0.9459
0.9461
0.9462
0.9464
0.9466
0.9467
0.9469
0.9470
0.9472
0.9474
0.9475
0.9476
0.9478
0.9479
0.9481
0.9483
0.9484
0.9486
0.9487
0.9488
0.9490
0.9491
0.9493
0.9494
0.9496
0.9497
0.9498
0.9500
0.9501
0.9502
0.9504
0.9505
0.9506
0.9507
0.9509
0.9510
0.9511
0.9512
