0.4503
0.4488
0.4473
0.4461
0.4450
0.4438
0.4427
0.4417
0.4406
0.4396
0.4386
0.4377
0.4367
0.4358
0.4349
0.4340
0.4331
0.4322
0.4314
0.4306
0.4297
0.4289
0.4281
0.4274
0.4266
0.4258
0.4250
0.4242
0.4234
0.4226
0.4217
0.4208
0.4199
0.4190
0.4181
0.4172
0.4164
0.4155
0.4148
0.4140
0.4134
0.4129
0.4125
0.4122
0.4120
0.4119
0.4120
0.4123
0.4127
0.4136
0.4147
0.4162
0.4184
0.4221
0.4217
0.4210
0.4203
0.4196
0.4189
0.4182
0.4176
0.4169
0.4164
0.4158
0.4153
0.4149
0.4145
0.4142
0.4140
0.4138
0.4137
0.4135
0.4135
0.4134
0.4135
0.4136
0.4138
0.4142
0.4146
0.4151
0.4157
0.4163
0.4171
0.4178
0.4187
0.4195
0.4203
0.4210
0.4217
0.4224
0.4231
0.4237
0.4244
0.4251
0.4259
0.4267
0.4275
0.4284
0.4292
0.4298
0.4304
0.4307
0.4298
0.4312
0.4337
0.4363
0.4391
0.4421
0.4454
0.4492
0.4525
0.4572
0.4629
0.4743
0.4752
0.4756
0.4761
0.4766
0.4771
0.4775
0.4780
0.4785
0.4790
0.4795
0.4800
0.4805
0.4811
0.4816
0.4821
0.4827
0.4832
0.4838
0.4844
0.4850
0.4856
0.4862
0.4869
0.4876
0.4883
0.4890
0.4898
0.4906
0.4914
0.4922
0.4932
0.4942
0.4952
0.4963
0.4974
0.4986
0.4998
0.5011
0.5025
0.5039
0.5053
0.5068
0.5084
0.5101
0.5118
0.5136
0.5154
0.5173
0.5194
0.5214
0.5236
0.5258
0.5281
0.5305
0.5330
0.5355
0.5380
0.5407
0.5434
0.5461
0.5489
0.5517
0.5544
0.5572
0.5599
0.5630
0.5658
0.5685
0.5713
0.5741
0.5771
0.5791
0.5797
0.5816
0.5833
0.5849
0.5867
0.5885
0.5904
0.5924
0.5944
0.5965
0.5987
0.6010
0.6034
0.6067
0.6093
0.6118
0.6145
0.6173
0.6204
0.6234
0.6266
0.6298
0.6331
0.6367
0.6403
0.6442
0.6481
0.6522
0.6565
0.6610
0.6656
0.6704
0.6755
0.6808
0.6862
0.6919
0.6979
0.7041
0.7105
0.7172
0.7241
0.7312
0.7387
0.7465
0.7546
0.7635
0.7737
0.7853
0.7915
0.7985
0.8073
0.8168
0.8236
0.8344
0.8357
0.8370
0.8382
0.8395
0.8407
0.8420
0.8432
0.8444
0.8456
0.8468
0.8479
0.8491
0.8502
0.8513
0.8525
0.8536
0.8546
0.8557
0.8568
0.8578
0.8589
0.8599
0.8609
0.8619
0.8629
0.8639
0.8648
0.8658
0.8668
0.8677
0.8686
0.8695
0.8704
0.8713
0.8722
0.8731
0.8740
0.8748
0.8756
0.8765
0.8773
0.8781
0.8789
0.8797
0.8805
0.8813
0.8821
0.8828
0.8836
0.8843
0.8851
0.8858
0.8865
0.8872
0.8879
0.8886
0.8893
0.8900
0.8907
0.8914
0.8920
0.8927
0.8934
0.8940
0.8947
0.8953
0.8959
0.8966
0.8973
0.8979
0.8985
0.8991
0.8997
0.9002
0.9008
0.9014
0.9019
0.9025
0.9031
0.9036
0.9041
0.9047
0.9052
0.9057
0.9062
0.9068
0.9072
0.9077
0.9083
0.9088
0.9092
0.9096
0.9103
0.9107
0.9111
0.9116
0.9120
0.9125
0.9128
0.9133
0.9138
0.9141
0.9145
0.9150
0.9154
0.9157
0.9161
0.9165
0.9170
0.9174
0.9178
0.9183
0.9182
0.9188
0.9191
0.9196
0.9199
0.9201
0.9204
0.9207
0.9212
0.9215
0.9218
0.9221
0.9227
0.9227
0.9230
0.9233
0.9236
0.9238
0.9250
0.9253
0.9261
0.9263
0.9266
0.9268
0.9270
0.9273
0.9275
0.9277
0.9280
0.9282
0.9284
0.9286
0.9288
0.9291
0.9293
0.9295
0.9297
0.9299
0.9302
0.9304
0.9306
0.9308
0.9310
0.9312
0.9314
0.9316
0.9318
0.9320
