0.4016
0.4013
0.4010
0.4007
0.4004
0.3999
0.3994
0.3987
0.3980
0.3970
0.3959
0.3945
0.3928
0.3905
0.3873
0.3865
0.3874
0.3883
0.3892
0.3901
0.3910
0.3920
0.3929
0.3939
0.3949
0.3958
0.3968
0.3979
0.3989
0.4000
0.4011
0.4022
0.4033
0.4044
0.4054
0.4065
0.4076
0.4087
0.4099
0.4110
0.4122
0.4134
0.4147
0.4159
0.4172
0.4185
0.4198
0.4211
0.4224
0.4238
0.4251
0.4267
0.4283
0.4299
0.4315
0.4332
0.4348
0.4364
0.4379
0.4395
0.4409
0.4422
0.4435
0.4449
0.4461
0.4474
0.4486
0.4499
0.4511
0.4523
0.4535
0.4546
0.4558
0.4568
0.4579
0.4589
0.4598
0.4607
0.4616
0.4626
0.4635
0.4643
0.4651
0.4661
0.4671
0.4680
0.4700
0.4718
0.4737
0.4757
0.4777
0.4797
0.4817
0.4839
0.4863
0.4889
0.4917
0.4945
0.4971
0.4981
0.4931
0.4902
0.4923
0.4948
0.4975
0.5002
0.5031
0.5061
0.5091
0.5122
0.5153
0.5186
0.5218
0.5251
0.5285
0.5318
0.5352
0.5388
0.5422
0.5457
0.5492
0.5528
0.5564
0.5602
0.5638
0.5676
0.5714
0.5750
0.5786
0.5821
0.5855
0.5889
0.5922
0.5955
0.5987
0.6018
0.6047
0.6075
0.6101
0.6115
0.6137
0.6178
0.6219
0.6261
0.6304
0.6348
0.6394
0.6441
0.6490
0.6541
0.6595
0.6654
0.6720
0.6807
0.6827
0.6867
0.6908
0.6949
0.7002
0.7046
0.7090
0.7136
0.7183
0.7234
0.7288
0.7347
0.7416
0.7515
0.7579
0.7604
0.7628
0.7653
0.7677
0.7701
0.7725
0.7748
0.7772
0.7795
0.7817
0.7839
0.7861
0.7881
0.7901
0.7920
0.7938
0.7956
0.7973
0.7989
0.8006
0.8022
0.8038
0.8055
0.8071
0.8087
0.8103
0.8119
0.8135
0.8151
0.8167
0.8183
0.8198
0.8214
0.8230
0.8246
0.8262
0.8278
0.8297
0.8315
0.8335
0.8353
0.8374
0.8392
0.8410
0.8431
0.8446
0.8463
0.8478
0.8498
0.8512
0.8525
0.8541
0.8555
0.8569
0.8584
0.8600
0.8600
0.8614
0.8606
0.8608
0.8605
0.8589
0.8579
0.8587
0.8596
0.8607
0.8617
0.8626
0.8634
0.8642
0.8651
0.8659
0.8667
0.8675
0.8683
0.8691
0.8700
0.8707
0.8715
0.8723
0.8731
0.8739
0.8747
0.8754
0.8762
0.8769
0.8777
0.8784
0.8792
0.8799
0.8806
0.8814
0.8821
0.8828
0.8835
0.8842
0.8849
0.8856
0.8862
0.8869
0.8875
0.8882
0.8888
0.8896
0.8910
0.8917
0.8920
0.8927
0.8935
0.8938
0.8945
0.8949
0.8955
0.8960
0.8967
0.8974
0.8977
0.8984
0.8987
0.8992
0.8995
0.9003
0.9005
0.9008
0.9015
0.9018
0.9021
0.9024
0.9034
0.9037
0.9040
0.9043
0.9045
0.9048
0.9051
0.9053
0.9056
0.9059
0.9072
0.9075
0.9077
0.9080
0.9082
0.9085
0.9087
0.9089
0.9110
0.9112
0.9114
0.9116
0.9119
0.9121
0.9123
0.9125
0.9127
0.9129
0.9131
0.9133
0.9135
0.9137
0.9139
0.9142
0.9144
0.9146
0.9148
0.9150
0.9152
0.9154
0.9156
0.9158
0.9160
0.9162
0.9164
0.9166
0.9168
0.9170
0.9172
0.9174
0.9176
0.9178
0.9180
0.9182
0.9184
0.9186
0.9188
0.9189
0.9191
0.9193
0.9195
0.9197
0.9204
0.9206
0.9207
0.9209
0.9211
0.9213
0.9214
0.9216
0.9218
0.9220
0.9221
0.9223
0.9225
0.9226
0.9228
0.9230
0.9231
0.9233
0.9235
0.9236
0.9238
0.9240
0.9241
0.9243
0.9245
0.9246
0.9248
0.9249
0.9251
0.9253
0.9254
0.9256
0.9257
0.9259
0.9260
0.9262
0.9263
0.9265
0.9266
0.9268
0.9269
