0.4077
0.4079
0.4081
0.4082
0.4083
0.4083
0.4084
0.4084
0.4085
0.4086
0.4087
0.4091
0.4097
0.4107
0.4121
0.4141
0.4168
0.4208
0.4230
0.4222
0.4215
0.4209
0.4203
0.4200
0.4199
0.4204
0.4227
0.4223
0.4218
0.4214
0.4211
0.4207
0.4204
0.4201
0.4199
0.4198
0.4197
0.4196
0.4196
0.4196
0.4197
0.4199
0.4202
0.4206
0.4212
0.4218
0.4224
0.4232
0.4241
0.4251
0.4261
0.4271
0.4282
0.4293
0.4305
0.4317
0.4329
0.4342
0.4354
0.4365
0.4377
0.4388
0.4398
0.4409
0.4419
0.4430
0.4441
0.4452
0.4463
0.4476
0.4490
0.4506
0.4522
0.4541
0.4560
0.4582
0.4605
0.4631
0.4659
0.4691
0.4727
0.4772
0.4838
0.4886
0.4896
0.4909
0.4925
0.4942
0.4961
0.4981
0.5004
0.5030
0.5060
0.5095
0.5142
0.5217
0.5272
0.5272
0.5272
0.5273
0.5273
0.5275
0.5277
0.5279
0.5282
0.5286
0.5291
0.5297
0.5303
0.5310
0.5317
0.5325
0.5333
0.5341
0.5351
0.5361
0.5371
0.5383
0.5396
0.5409
0.5423
0.5437
0.5451
0.5462
0.5474
0.5483
0.5493
0.5502
0.5512
0.5521
0.5530
0.5542
0.5554
0.5566
0.5579
0.5595
0.5610
0.5627
0.5644
0.5662
0.5682
0.5702
0.5724
0.5747
0.5771
0.5803
0.5830
0.5859
0.5891
0.5924
0.5958
0.5996
0.6035
0.6076
0.6124
0.6166
0.6212
0.6270
0.6340
0.6352
0.6365
0.6377
0.6389
0.6404
0.6415
0.6432
0.6444
0.6461
0.6474
0.6489
0.6509
0.6525
0.6542
0.6558
0.6580
0.6588
0.6603
0.6588
0.6609
0.6631
0.6663
0.6686
0.6711
0.6734
0.6760
0.6786
0.6813
0.6841
0.6869
0.6899
0.6943
0.6974
0.7004
0.7037
0.7071
0.7106
0.7143
0.7179
0.7218
0.7258
0.7299
0.7343
0.7387
0.7433
0.7482
0.7532
0.7587
0.7644
0.7706
0.7772
0.7849
0.7944
0.8059
0.8088
0.8119
0.8150
0.8181
0.8213
0.8246
0.8279
0.8312
0.8346
0.8381
0.8418
0.8452
0.8493
0.8536
0.8579
0.8620
0.8701
0.8710
0.8719
0.8728
0.8737
0.8745
0.8754
0.8762
0.8770
0.8778
0.8786
0.8794
0.8802
0.8810
0.8817
0.8825
0.8833
0.8840
0.8847
0.8855
0.8862
0.8869
0.8876
0.8883
0.8889
0.8896
0.8902
0.8909
0.8915
0.8922
0.8928
0.8935
0.8940
0.8946
0.8953
0.8958
0.8964
0.8971
0.8976
0.8981
0.8987
0.8992
0.8998
0.9003
0.9008
0.9013
0.9018
0.9023
0.9028
0.9033
0.9038
0.9043
0.9048
0.9052
0.9057
0.9063
0.9067
0.9072
0.9076
0.9081
0.9085
0.9090
0.9094
0.9098
0.9102
0.9107
0.9111
0.9115
0.9119
0.9123
0.9127
0.9131
0.9135
0.9139
0.9142
0.9146
0.9150
0.9160
0.9163
0.9167
0.9170
0.9174
0.9177
0.9181
0.9184
0.9187
0.9191
0.9194
0.9197
0.9201
0.9204
0.9207
0.9209
0.9213
0.9216
0.9219
0.9223
0.9225
0.9228
0.9229
0.9231
0.9236
0.9239
0.9241
0.9242
0.9244
0.9246
0.9248
0.9249
0.9251
0.9253
0.9255
0.9256
0.9258
0.9260
0.9262
0.9264
0.9266
0.9267
0.9269
0.9271
0.9273
0.9275
0.9276
0.9278
0.9280
0.9282
0.9284
0.9286
0.9289
0.9290
0.9292
0.9294
0.9296
0.9297
0.9302
0.9304
0.9305
0.9307
0.9309
0.9311
0.9312
0.9314
0.9316
0.9317
0.9319
0.9321
0.9323
0.9324
0.9326
0.9328
0.9329
0.9331
0.9333
0.9334
0.9336
0.9337
0.9339
0.9341
0.9342
0.9344
0.9345
0.9347
0.9348
0.9350
0.9351
0.9353
0.9354
0.9356
0.9357
0.9358
