0.6557
0.6528
0.6494
0.6460
0.6427
0.6392
0.6358
0.6323
0.6287
0.6252
0.6216
0.6179
0.6142
0.6105
0.6068
0.6031
0.5995
0.5959
0.5924
0.5888
0.5852
0.5816
0.5780
0.5742
0.5705
0.5668
0.5630
0.5593
0.5556
0.5520
0.5485
0.5451
0.5417
0.5384
0.5351
0.5318
0.5285
0.5251
0.5216
0.5182
0.5147
0.5112
0.5076
0.5041
0.5004
0.4968
0.4935
0.4900
0.4864
0.4826
0.4787
0.4748
0.4709
0.4669
0.4627
0.4581
0.4526
0.4476
0.4424
0.4373
0.4320
0.4267
0.4195
0.4153
0.4110
0.4067
0.4024
0.3981
0.3938
0.3896
0.3854
0.3813
0.3772
0.3731
0.3691
0.3652
0.3612
0.3572
0.3532
0.3491
0.3449
0.3405
0.3359
0.3312
0.3268
0.3224
0.3179
0.3133
0.3081
0.3021
0.2993
0.2965
0.2938
0.2911
0.2886
0.2861
0.2836
0.2813
0.2790
0.2769
0.2748
0.2728
0.2709
0.2691
0.2674
0.2658
0.2644
0.2630
0.2618
0.2607
0.2597
0.2589
0.2582
0.2577
0.2573
0.2571
0.2570
0.2571
0.2574
0.2578
0.2584
0.2592
0.2602
0.2613
0.2627
0.2643
0.2661
0.2681
0.2703
0.2728
0.2756
0.2786
0.2819
0.2856
0.2896
0.2941
0.2991
0.3048
0.3114
0.3212
0.3292
0.3315
0.3338
0.3363
0.3389
0.3416
0.3445
0.3475
0.3506
0.3539
0.3573
0.3608
0.3645
0.3682
0.3722
0.3763
0.3804
0.3847
0.3892
0.3937
0.3984
0.4031
0.4080
0.4132
0.4182
0.4234
0.4287
0.4340
0.4395
0.4450
0.4507
0.4565
0.4624
0.4685
0.4749
0.4817
0.4890
0.4974
0.5085
0.5183
0.5232
0.5283
0.5334
0.5387
0.5441
0.5497
0.5553
0.5613
0.5673
0.5735
0.5805
0.5871
0.5940
0.6012
0.6087
0.6165
0.6249
0.6339
0.6441
0.6601
0.6664
0.6717
0.6770
0.6824
0.6879
0.6936
0.6994
0.7053
0.7114
0.7176
0.7240
0.7306
0.7373
0.7441
0.7512
0.7585
0.7665
0.7753
0.7849
0.7894
0.7940
0.7988
0.8036
0.8084
0.8134
0.8185
0.8237
0.8291
0.8345
0.8400
0.8456
0.8513
0.8570
0.8628
0.8686
0.8743
0.8840
0.8877
0.8913
0.8945
0.8975
0.9000
0.9023
0.9044
0.9062
0.9081
0.9095
0.9104
0.9111
0.9118
0.9125
0.9134
0.9141
0.9147
0.9154
0.9160
0.9169
0.9176
0.9182
0.9188
0.9194
0.9203
0.9209
0.9214
0.9222
0.9228
0.9233
0.9239
0.9244
0.9250
0.9255
0.9260
0.9265
0.9270
0.9275
0.9280
0.9285
0.9290
0.9295
0.9299
0.9304
0.9309
0.9313
0.9318
0.9322
0.9327
0.9331
0.9336
0.9339
0.9344
0.9348
0.9353
0.9357
0.9361
0.9365
0.9369
0.9374
0.9377
0.9381
0.9384
0.9388
0.9393
0.9397
0.9400
0.9403
0.9407
0.9410
0.9413
0.9415
0.9418
0.9423
0.9425
0.9428
0.9431
0.9433
0.9436
0.9438
0.9441
0.9444
0.9440
0.9443
0.9445
0.9448
0.9450
0.9453
0.9454
0.9458
0.9459
0.9462
0.9464
0.9466
0.9469
0.9471
0.9472
0.9474
0.9477
0.9490
0.9491
0.9493
0.9494
0.9496
0.9497
0.9499
0.9503
0.9504
0.9506
0.9507
0.9517
0.9518
0.9519
0.9521
0.9522
0.9524
0.9525
0.9526
0.9528
0.9529
0.9531
0.9532
0.9534
0.9535
0.9537
0.9538
0.9540
0.9541
0.9542
0.9544
0.9545
0.9546
0.9547
0.9549
0.9550
0.9551
0.9557
0.9558
0.9559
0.9561
0.9562
0.9563
0.9564
0.9565
0.9566
0.9567
0.9568
0.9569
0.9570
0.9571
0.9572
0.9573
0.9574
0.9575
0.9576
0.9577
0.9578
0.9579
0.9580
0.9581
0.9582
0.9583
0.9584
