0.2830
0.2834
0.2845
0.2856
0.2866
0.2875
0.2884
0.2892
0.2900
0.2906
0.2912
0.2915
0.2918
0.2919
0.2921
0.2922
0.2924
0.2926
0.2928
0.2929
0.2931
0.2933
0.2936
0.2938
0.2941
0.2944
0.2948
0.2951
0.2955
0.2958
0.2961
0.2964
0.2969
0.2973
0.2979
0.2984
0.2990
0.2995
0.3001
0.3007
0.3012
0.3018
0.3026
0.3033
0.3041
0.3049
0.3057
0.3066
0.3075
0.3085
0.3095
0.3106
0.3117
0.3128
0.3138
0.3137
0.3140
0.3158
0.3177
0.3195
0.3213
0.3232
0.3226
0.3243
0.3261
0.3278
0.3296
0.3313
0.3331
0.3349
0.3368
0.3387
0.3406
0.3425
0.3445
0.3465
0.3487
0.3509
0.3531
0.3555
0.3579
0.3605
0.3631
0.3659
0.3687
0.3719
0.3752
0.3788
0.3837
0.3824
0.3848
0.3866
0.3884
0.3905
0.3927
0.3951
0.3977
0.4004
0.4033
0.4063
0.4095
0.4128
0.4160
0.4193
0.4228
0.4263
0.4301
0.4342
0.4385
0.4429
0.4475
0.4523
0.4573
0.4625
0.4679
0.4735
0.4795
0.4857
0.4924
0.4995
0.5073
0.5162
0.5222
0.5282
0.5342
0.5402
0.5464
0.5526
0.5588
0.5650
0.5711
0.5771
0.5832
0.5894
0.5955
0.6004
0.6055
0.6109
0.6174
0.6212
0.6248
0.6285
0.6324
0.6363
0.6397
0.6432
0.6468
0.6506
0.6546
0.6593
0.6659
0.6722
0.6741
0.6763
0.6771
0.6779
0.6788
0.6796
0.6804
0.6813
0.6821
0.6829
0.6837
0.6846
0.6854
0.6862
0.6871
0.6879
0.6887
0.6896
0.6904
0.6913
0.6921
0.6930
0.6939
0.6948
0.6957
0.6965
0.6975
0.6984
0.6993
0.7002
0.7012
0.7021
0.7031
0.7040
0.7050
0.7060
0.7072
0.7082
0.7093
0.7103
0.7114
0.7125
0.7137
0.7146
0.7161
0.7170
0.7185
0.7195
0.7206
0.7223
0.7234
0.7245
0.7263
0.7276
0.7288
0.7301
0.7314
0.7328
0.7353
0.7367
0.7382
0.7397
0.7413
0.7429
0.7446
0.7463
0.7486
0.7504
0.7523
0.7560
0.7580
0.7600
0.7622
0.7643
0.7666
0.7689
0.7714
0.7739
0.7765
0.7792
0.7821
0.7850
0.7882
0.7913
0.7949
0.7986
0.8027
0.8070
0.8120
0.8178
0.8255
0.8346
0.8355
0.8365
0.8377
0.8388
0.8399
0.8409
0.8420
0.8427
0.8440
0.8448
0.8458
0.8466
0.8473
0.8488
0.8494
0.8502
0.8510
0.8525
0.8534
0.8542
0.8550
0.8565
0.8573
0.8581
0.8588
0.8596
0.8604
0.8622
0.8621
0.8629
0.8636
0.8644
0.8651
0.8658
0.8676
0.8683
0.8690
0.8697
0.8704
0.8711
0.8718
0.8724
0.8731
0.8738
0.8744
0.8751
0.8757
0.8764
0.8770
0.8776
0.8782
0.8789
0.8795
0.8801
0.8807
0.8812
0.8818
0.8824
0.8830
0.8835
0.8841
0.8847
0.8852
0.8858
0.8863
0.8868
0.8874
0.8879
0.8884
0.8889
0.8894
0.8899
0.8904
0.8909
0.8914
0.8919
0.8924
0.8929
0.8933
0.8938
0.8943
0.8947
0.8952
0.8956
0.8961
0.8965
0.8970
0.8974
0.8978
0.8983
0.8987
0.8991
0.8995
0.9000
0.9004
0.9008
0.9012
0.9015
0.9020
0.9024
0.9027
0.9031
0.9035
0.9038
0.9042
0.9045
0.9050
0.9053
0.9057
0.9060
0.9063
0.9068
0.9071
0.9074
0.9077
0.9080
0.9085
0.9088
0.9091
0.9093
0.9096
0.9099
0.9102
0.9104
0.9107
0.9110
0.9112
0.9115
0.9118
0.9120
0.9123
0.9126
0.9128
0.9131
0.9133
0.9136
0.9139
0.9141
0.9144
0.9146
0.9149
0.9151
0.9154
0.9156
0.9159
0.9161
0.9163
0.9166
0.9168
0.9171
0.9173
0.9175
0.9178
0.9180
0.9182
0.9185
