0.4454
0.4462
0.4469
0.4476
0.4479
0.4481
0.4475
0.4469
0.4464
0.4456
0.4448
0.4442
0.4414
0.4410
0.4406
0.4402
0.4398
0.4393
0.4387
0.4380
0.4374
0.4367
0.4361
0.4355
0.4349
0.4343
0.4338
0.4332
0.4327
0.4323
0.4319
0.4316
0.4315
0.4314
0.4313
0.4311
0.4310
0.4311
0.4312
0.4312
0.4314
0.4317
0.4321
0.4326
0.4331
0.4337
0.4344
0.4351
0.4359
0.4367
0.4376
0.4385
0.4395
0.4406
0.4416
0.4427
0.4438
0.4450
0.4461
0.4472
0.4483
0.4494
0.4505
0.4515
0.4524
0.4532
0.4539
0.4545
0.4544
0.4531
0.4548
0.4565
0.4582
0.4601
0.4619
0.4637
0.4651
0.4660
0.4675
0.4684
0.4679
0.4677
0.4700
0.4724
0.4749
0.4774
0.4800
0.4826
0.4853
0.4880
0.4908
0.4936
0.4965
0.4994
0.5024
0.5054
0.5085
0.5117
0.5151
0.5185
0.5220
0.5256
0.5293
0.5332
0.5374
0.5417
0.5463
0.5514
0.5569
0.5631
0.5684
0.5710
0.5737
0.5764
0.5791
0.5818
0.5845
0.5872
0.5899
0.5925
0.5954
0.5982
0.6011
0.6039
0.6066
0.6093
0.6120
0.6146
0.6165
0.6183
0.6200
0.6216
0.6234
0.6249
0.6267
0.6282
0.6300
0.6315
0.6331
0.6350
0.6365
0.6382
0.6404
0.6422
0.6439
0.6458
0.6485
0.6505
0.6529
0.6555
0.6587
0.6614
0.6641
0.6669
0.6705
0.6733
0.6761
0.6789
0.6818
0.6849
0.6880
0.6913
0.6946
0.6981
0.7016
0.7066
0.7103
0.7140
0.7180
0.7219
0.7260
0.7300
0.7342
0.7386
0.7429
0.7473
0.7518
0.7565
0.7612
0.7660
0.7709
0.7758
0.7808
0.7858
0.7908
0.7960
0.8010
0.8060
0.8110
0.8160
0.8211
0.8260
0.8310
0.8359
0.8409
0.8460
0.8522
0.8623
0.8653
0.8685
0.8715
0.8701
0.8723
0.8746
0.8769
0.8793
0.8818
0.8845
0.8875
0.8910
0.8947
0.8955
0.8964
0.8972
0.8979
0.8987
0.8995
0.9002
0.9009
0.9017
0.9024
0.9031
0.9038
0.9045
0.9052
0.9059
0.9066
0.9072
0.9079
0.9086
0.9092
0.9098
0.9104
0.9111
0.9117
0.9123
0.9128
0.9134
0.9140
0.9146
0.9151
0.9157
0.9162
0.9168
0.9173
0.9178
0.9183
0.9189
0.9194
0.9199
0.9203
0.9208
0.9213
0.9218
0.9223
0.9227
0.9232
0.9236
0.9241
0.9245
0.9249
0.9254
0.9258
0.9262
0.9266
0.9270
0.9274
0.9278
0.9282
0.9286
0.9290
0.9293
0.9297
0.9301
0.9305
0.9308
0.9312
0.9315
0.9319
0.9322
0.9326
0.9329
0.9332
0.9335
0.9339
0.9342
0.9345
0.9348
0.9351
0.9354
0.9356
0.9361
0.9364
0.9366
0.9369
0.9372
0.9375
0.9377
0.9379
0.9382
0.9383
0.9386
0.9390
0.9393
0.9395
0.9398
0.9400
0.9402
0.9405
0.9407
0.9409
0.9411
0.9413
0.9416
0.9417
0.9420
0.9421
0.9423
0.9424
0.9426
0.9427
0.9429
0.9431
0.9433
0.9434
0.9436
0.9437
0.9438
0.9440
0.9441
0.9442
0.9444
0.9445
0.9446
0.9448
0.9449
0.9450
0.9452
0.9453
0.9454
0.9455
0.9457
0.9458
0.9459
0.9460
0.9462
0.9463
0.9464
0.9477
0.9478
0.9479
0.9480
0.9481
0.9482
0.9483
0.9484
0.9485
0.9487
0.9488
0.9489
0.9490
0.9491
0.9492
0.9493
0.9494
0.9495
0.9495
0.9496
0.9497
0.9498
0.9499
0.9500
0.9501
0.9502
0.9503
0.9504
0.9505
0.9506
0.9507
0.9508
0.9509
0.9510
0.9510
0.9511
0.9512
0.9513
0.9514
0.9515
0.9516
0.9517
0.9517
0.9518
0.9519
0.9520
0.9521
0.9522
0.9522
0.9523
0.9524
0.9525
