0.3709
0.3707
0.3705
0.3702
0.3699
0.3696
0.3693
0.3690
0.3687
0.3684
0.3681
0.3678
0.3674
0.3671
0.3669
0.3667
0.3665
0.3663
0.3662
0.3660
0.3658
0.3657
0.3657
0.3656
0.3656
0.3658
0.3659
0.3663
0.3666
0.3671
0.3677
0.3684
0.3691
0.3700
0.3710
0.3720
0.3732
0.3745
0.3758
0.3772
0.3788
0.3804
0.3821
0.3834
0.3848
0.3866
0.3886
0.3904
0.3930
0.3958
0.3986
0.4016
0.4047
0.4080
0.4113
0.4148
0.4181
0.4185
0.4215
0.4245
0.4276
0.4308
0.4342
0.4379
0.4421
0.4478
0.4580
0.4588
0.4602
0.4620
0.4638
0.4656
0.4668
0.4672
0.4695
0.4720
0.4745
0.4772
0.4800
0.4830
0.4861
0.4863
0.4888
0.4913
0.4941
0.4970
0.4999
0.5029
0.5060
0.5093
0.5126
0.5153
0.5175
0.5192
0.5200
0.5212
0.5245
0.5278
0.5311
0.5344
0.5376
0.5409
0.5442
0.5475
0.5507
0.5539
0.5570
0.5601
0.5632
0.5661
0.5690
0.5720
0.5750
0.5783
0.5817
0.5852
0.5887
0.5924
0.5960
0.5995
0.6029
0.6064
0.6100
0.6138
0.6178
0.6219
0.6261
0.6305
0.6349
0.6395
0.6442
0.6491
0.6541
0.6592
0.6645
0.6701
0.6759
0.6820
0.6888
0.6968
0.7092
0.7114
0.7135
0.7156
0.7176
0.7194
0.7211
0.7227
0.7241
0.7253
0.7263
0.7271
0.7276
0.7279
0.7278
0.7257
0.7274
0.7292
0.7310
0.7329
0.7347
0.7365
0.7383
0.7402
0.7420
0.7440
0.7459
0.7478
0.7498
0.7518
0.7538
0.7559
0.7580
0.7601
0.7623
0.7644
0.7667
0.7689
0.7713
0.7734
0.7760
0.7783
0.7809
0.7833
0.7862
0.7889
0.7919
0.7946
0.7975
0.8012
0.8045
0.8081
0.8126
0.8168
0.8211
0.8212
0.8231
0.8242
0.8253
0.8264
0.8281
0.8292
0.8303
0.8314
0.8324
0.8335
0.8345
0.8356
0.8366
0.8376
0.8400
0.8410
0.8419
0.8429
0.8438
0.8448
0.8457
0.8467
0.8476
0.8483
0.8494
0.8507
0.8518
0.8525
0.8536
0.8543
0.8549
0.8561
0.8568
0.8574
0.8581
0.8595
0.8601
0.8607
0.8613
0.8620
0.8626
0.8632
0.8639
0.8659
0.8665
0.8671
0.8677
0.8683
0.8688
0.8694
0.8700
0.8706
0.8711
0.8733
0.8738
0.8743
0.8749
0.8754
0.8759
0.8765
0.8770
0.8774
0.8779
0.8784
0.8791
0.8796
0.8800
0.8805
0.8810
0.8814
0.8819
0.8824
0.8828
0.8833
0.8837
0.8843
0.8848
0.8852
0.8857
0.8861
0.8866
0.8870
0.8874
0.8879
0.8883
0.8888
0.8892
0.8896
0.8900
0.8905
0.8909
0.8913
0.8917
0.8921
0.8925
0.8930
0.8934
0.8938
0.8956
0.8960
0.8964
0.8968
0.8971
0.8975
0.8979
0.8983
0.8987
0.8990
0.8994
0.8997
0.9001
0.9005
0.9009
0.9012
0.9016
0.9019
0.9023
0.9027
0.9031
0.9034
0.9036
0.9040
0.9044
0.9048
0.9051
0.9055
0.9059
0.9062
0.9066
0.9070
0.9073
0.9077
0.9080
0.9083
0.9087
0.9090
0.9093
0.9097
0.9100
0.9103
0.9106
0.9109
0.9112
0.9115
0.9118
0.9121
0.9124
0.9127
0.9130
0.9133
0.9136
0.9138
0.9141
0.9144
0.9146
0.9149
0.9152
0.9154
0.9157
0.9160
0.9162
0.9165
0.9167
0.9170
0.9172
0.9174
0.9177
0.9179
0.9181
0.9184
0.9186
0.9188
0.9191
0.9193
0.9195
0.9197
0.9199
0.9202
0.9204
0.9206
0.9208
0.9210
0.9212
0.9214
0.9216
0.9218
0.9220
0.9222
0.9224
0.9226
0.9228
0.9230
0.9232
0.9234
0.9235
0.9237
0.9239
0.9241
0.9243
0.9244
0.9246
0.9248
0.9250
0.9251
