0.5644
0.5646
0.5648
0.5649
0.5649
0.5648
0.5647
0.5646
0.5644
0.5640
0.5635
0.5626
0.5616
0.5605
0.5593
0.5579
0.5564
0.5548
0.5530
0.5510
0.5489
0.5465
0.5440
0.5412
0.5380
0.5342
0.5289
0.5285
0.5278
0.5273
0.5270
0.5269
0.5265
0.5262
0.5261
0.5257
0.5252
0.5246
0.5240
0.5233
0.5225
0.5216
0.5206
0.5195
0.5182
0.5169
0.5154
0.5139
0.5123
0.5109
0.5095
0.5082
0.5070
0.5058
0.5047
0.5037
0.5029
0.5021
0.5014
0.5008
0.5004
0.5001
0.4999
0.4998
0.5000
0.5000
0.5002
0.5008
0.4986
0.4963
0.4937
0.4909
0.4878
0.4869
0.4859
0.4849
0.4838
0.4827
0.4814
0.4800
0.4783
0.4750
0.4740
0.4739
0.4739
0.4738
0.4736
0.4735
0.4734
0.4734
0.4732
0.4730
0.4731
0.4733
0.4739
0.4747
0.4757
0.4769
0.4781
0.4795
0.4809
0.4821
0.4832
0.4842
0.4852
0.4864
0.4876
0.4890
0.4910
0.4929
0.4949
0.4968
0.4986
0.5004
0.5020
0.5034
0.5046
0.5055
0.5047
0.5078
0.5109
0.5142
0.5176
0.5211
0.5247
0.5284
0.5323
0.5362
0.5402
0.5444
0.5486
0.5532
0.5577
0.5623
0.5671
0.5721
0.5771
0.5823
0.5877
0.5932
0.5989
0.6048
0.6109
0.6172
0.6237
0.6304
0.6374
0.6446
0.6520
0.6596
0.6675
0.6769
0.6867
0.6913
0.6960
0.7008
0.7056
0.7104
0.7153
0.7199
0.7241
0.7284
0.7328
0.7374
0.7421
0.7470
0.7521
0.7575
0.7633
0.7710
0.7788
0.7876
0.7899
0.7922
0.7945
0.7969
0.7994
0.8018
0.8042
0.8066
0.8091
0.8118
0.8144
0.8170
0.8197
0.8225
0.8254
0.8284
0.8315
0.8347
0.8381
0.8416
0.8453
0.8492
0.8534
0.8579
0.8630
0.8692
0.8788
0.8841
0.8850
0.8859
0.8868
0.8876
0.8885
0.8893
0.8902
0.8910
0.8918
0.8926
0.8933
0.8942
0.8949
0.8966
0.8973
0.8989
0.8995
0.9002
0.9010
0.9016
0.9023
0.9030
0.9036
0.9042
0.9050
0.9056
0.9062
0.9068
0.9074
0.9079
0.9085
0.9090
0.9096
0.9101
0.9106
0.9112
0.9117
0.9122
0.9127
0.9132
0.9137
0.9142
0.9147
0.9152
0.9157
0.9161
0.9166
0.9170
0.9175
0.9179
0.9184
0.9188
0.9192
0.9197
0.9201
0.9205
0.9209
0.9213
0.9217
0.9235
0.9239
0.9243
0.9246
0.9250
0.9253
0.9257
0.9260
0.9263
0.9267
0.9270
0.9274
0.9277
0.9281
0.9284
0.9287
0.9290
0.9293
0.9297
0.9300
0.9304
0.9307
0.9310
0.9313
0.9316
0.9319
0.9323
0.9326
0.9329
0.9332
0.9335
0.9338
0.9341
0.9344
0.9347
0.9351
0.9354
0.9357
0.9360
0.9367
0.9370
0.9373
0.9375
0.9379
0.9381
0.9385
0.9387
0.9390
0.9393
0.9395
0.9398
0.9401
0.9404
0.9406
0.9409
0.9411
0.9414
0.9416
0.9419
0.9421
0.9424
0.9426
0.9429
0.9431
0.9433
0.9436
0.9438
0.9441
0.9443
0.9446
0.9448
0.9450
0.9453
0.9455
0.9457
0.9460
0.9462
0.9464
0.9467
0.9469
0.9471
0.9474
0.9476
0.9478
0.9481
0.9483
0.9485
0.9487
0.9489
0.9491
0.9494
0.9496
0.9498
0.9500
0.9502
0.9503
0.9505
0.9507
0.9509
0.9511
0.9513
0.9514
0.9516
0.9518
0.9519
0.9521
0.9523
0.9524
0.9526
0.9527
0.9529
0.9530
0.9532
0.9533
0.9535
0.9536
0.9537
0.9539
0.9540
0.9541
0.9543
0.9544
0.9545
0.9547
0.9548
0.9549
0.9550
0.9552
0.9553
0.9554
0.9555
0.9556
0.9557
0.9559
0.9560
0.9561
0.9562
0.9563
0.9564
0.9565
0.9566
