0.2589
0.2639
0.2690
0.2743
0.2796
0.2849
0.2904
0.2957
0.3008
0.3056
0.3103
0.3149
0.3194
0.3238
0.3280
0.3324
0.3367
0.3411
0.3454
0.3499
0.3545
0.3588
0.3631
0.3672
0.3713
0.3754
0.3794
0.3833
0.3868
0.3903
0.3938
0.3973
0.4009
0.4044
0.4079
0.4113
0.4148
0.4182
0.4216
0.4249
0.4283
0.4316
0.4349
0.4382
0.4414
0.4446
0.4478
0.4510
0.4541
0.4572
0.4603
0.4633
0.4663
0.4692
0.4722
0.4750
0.4779
0.4807
0.4834
0.4861
0.4889
0.4915
0.4940
0.4966
0.4992
0.5019
0.5046
0.5074
0.5104
0.5134
0.5165
0.5197
0.5229
0.5262
0.5296
0.5330
0.5366
0.5402
0.5440
0.5477
0.5516
0.5555
0.5594
0.5634
0.5675
0.5716
0.5757
0.5798
0.5839
0.5880
0.5920
0.5959
0.5996
0.6027
0.6051
0.6108
0.6164
0.6221
0.6281
0.6343
0.6406
0.6471
0.6538
0.6608
0.6680
0.6758
0.6845
0.6970
0.7025
0.7075
0.7124
0.7174
0.7224
0.7260
0.7312
0.7360
0.7392
0.7427
0.7462
0.7497
0.7533
0.7568
0.7604
0.7638
0.7673
0.7706
0.7740
0.7772
0.7802
0.7831
0.7836
0.7848
0.7877
0.7905
0.7925
0.7949
0.7974
0.7998
0.8023
0.8048
0.8074
0.8100
0.8126
0.8153
0.8180
0.8207
0.8235
0.8263
0.8291
0.8320
0.8349
0.8379
0.8409
0.8440
0.8471
0.8503
0.8536
0.8571
0.8606
0.8645
0.8683
0.8721
0.8751
0.8771
0.8785
0.8792
0.8797
0.8799
0.8798
0.8794
0.8787
0.8812
0.8831
0.8851
0.8869
0.8888
0.8905
0.8922
0.8935
0.8947
0.8957
0.8969
0.8979
0.8990
0.9001
0.9010
0.9022
0.9031
0.9041
0.9050
0.9060
0.9069
0.9078
0.9086
0.9094
0.9102
0.9110
0.9118
0.9125
0.9135
0.9142
0.9149
0.9155
0.9162
0.9168
0.9175
0.9180
0.9187
0.9192
0.9199
0.9203
0.9209
0.9214
0.9218
0.9225
0.9229
0.9233
0.9237
0.9241
0.9246
0.9250
0.9252
0.9257
0.9260
0.9265
0.9268
0.9272
0.9274
0.9279
0.9280
0.9285
0.9286
0.9289
0.9291
0.9294
0.9294
0.9296
0.9295
0.9294
0.9296
0.9294
0.9290
0.9285
0.9279
0.9266
0.9251
0.9246
0.9250
0.9254
0.9258
0.9261
0.9265
0.9269
0.9273
0.9277
0.9280
0.9284
0.9288
0.9292
0.9296
0.9314
0.9318
0.9321
0.9324
0.9328
0.9331
0.9334
0.9338
0.9341
0.9344
0.9347
0.9350
0.9354
0.9357
0.9360
0.9363
0.9366
0.9369
0.9372
0.9375
0.9378
0.9380
0.9383
0.9386
0.9389
0.9391
0.9394
0.9397
0.9399
0.9402
0.9404
0.9407
0.9409
0.9412
0.9414
0.9417
0.9419
0.9421
0.9424
0.9426
0.9428
0.9430
0.9433
0.9435
0.9437
0.9439
0.9442
0.9444
0.9446
0.9448
0.9450
0.9452
0.9454
0.9456
0.9457
0.9459
0.9461
0.9463
0.9465
0.9467
0.9468
0.9470
0.9472
0.9474
0.9475
0.9477
0.9479
0.9480
0.9482
0.9483
0.9485
0.9487
0.9489
0.9490
0.9491
0.9493
0.9495
0.9496
0.9497
0.9499
0.9500
0.9502
0.9504
0.9505
0.9507
0.9508
0.9509
0.9511
0.9512
0.9513
0.9515
0.9516
0.9517
0.9519
0.9520
0.9521
0.9522
0.9524
0.9525
0.9526
0.9527
0.9529
0.9530
0.9531
0.9532
0.9533
0.9534
0.9535
0.9537
0.9538
0.9539
0.9541
0.9542
0.9543
0.9544
0.9545
0.9546
0.9547
0.9548
0.9549
0.9550
0.9551
0.9552
0.9552
0.9553
0.9554
0.9555
0.9556
0.9557
0.9558
0.9559
0.9560
0.9561
0.9562
0.9562
0.9563
0.9564
0.9565
0.9566
0.9567
