0.4150
0.4121
0.4093
0.4066
0.4039
0.4013
0.3987
0.3963
0.3939
0.3916
0.3894
0.3873
0.3853
0.3833
0.3814
0.3796
0.3779
0.3762
0.3746
0.3730
0.3714
0.3700
0.3685
0.3671
0.3657
0.3644
0.3631
0.3617
0.3604
0.3591
0.3578
0.3565
0.3552
0.3539
0.3526
0.3513
0.3500
0.3486
0.3472
0.3457
0.3442
0.3427
0.3412
0.3397
0.3382
0.3368
0.3354
0.3341
0.3329
0.3318
0.3309
0.3301
0.3267
0.3248
0.3229
0.3211
0.3193
0.3175
0.3157
0.3140
0.3123
0.3106
0.3090
0.3074
0.3058
0.3043
0.3028
0.3014
0.3000
0.2988
0.2975
0.2964
0.2953
0.2944
0.2934
0.2926
0.2918
0.2911
0.2905
0.2899
0.2894
0.2891
0.2888
0.2885
0.2884
0.2884
0.2884
0.2886
0.2888
0.2892
0.2896
0.2900
0.2905
0.2911
0.2917
0.2925
0.2933
0.2943
0.2953
0.2965
0.2978
0.2991
0.3006
0.3022
0.3045
0.3071
0.3099
0.3129
0.3162
0.3197
0.3235
0.3275
0.3318
0.3364
0.3415
0.3474
0.3553
0.3637
0.3645
0.3654
0.3663
0.3672
0.3681
0.3692
0.3703
0.3715
0.3728
0.3742
0.3757
0.3775
0.3793
0.3814
0.3838
0.3865
0.3897
0.3933
0.3991
0.4030
0.4043
0.4055
0.4068
0.4081
0.4095
0.4109
0.4123
0.4138
0.4154
0.4169
0.4186
0.4203
0.4220
0.4238
0.4256
0.4276
0.4295
0.4316
0.4336
0.4358
0.4383
0.4408
0.4434
0.4460
0.4487
0.4514
0.4542
0.4570
0.4598
0.4625
0.4652
0.4679
0.4704
0.4727
0.4746
0.4755
0.4800
0.4845
0.4892
0.4939
0.4988
0.5037
0.5088
0.5147
0.5200
0.5256
0.5313
0.5373
0.5435
0.5499
0.5567
0.5638
0.5715
0.5799
0.5892
0.5991
0.6034
0.6095
0.6157
0.6225
0.6333
0.6387
0.6426
0.6466
0.6508
0.6552
0.6599
0.6649
0.6703
0.6761
0.6826
0.6905
0.7036
0.7062
0.7089
0.7116
0.7143
0.7170
0.7197
0.7224
0.7252
0.7279
0.7306
0.7334
0.7362
0.7390
0.7417
0.7445
0.7474
0.7503
0.7531
0.7561
0.7590
0.7620
0.7651
0.7682
0.7714
0.7748
0.7782
0.7819
0.7857
0.7898
0.7943
0.7992
0.8050
0.8131
0.8182
0.8196
0.8210
0.8224
0.8238
0.8251
0.8265
0.8278
0.8291
0.8305
0.8317
0.8330
0.8343
0.8356
0.8368
0.8380
0.8392
0.8404
0.8415
0.8428
0.8439
0.8451
0.8462
0.8473
0.8484
0.8494
0.8506
0.8517
0.8527
0.8536
0.8548
0.8556
0.8568
0.8576
0.8587
0.8594
0.8602
0.8615
0.8622
0.8633
0.8640
0.8654
0.8661
0.8668
0.8675
0.8682
0.8689
0.8695
0.8713
0.8719
0.8725
0.8732
0.8739
0.8745
0.8752
0.8758
0.8764
0.8770
0.8790
0.8795
0.8801
0.8807
0.8813
0.8818
0.8834
0.8840
0.8845
0.8851
0.8856
0.8862
0.8867
0.8873
0.8878
0.8883
0.8888
0.8893
0.8899
0.8904
0.8909
0.8915
0.8920
0.8925
0.8935
0.8939
0.8945
0.8949
0.8955
0.8959
0.8964
0.8968
0.8972
0.8978
0.8982
0.8986
0.8989
0.8997
0.9000
0.9004
0.9008
0.9011
0.9015
0.9019
0.9022
0.9032
0.9036
0.9040
0.9043
0.9046
0.9050
0.9054
0.9056
0.9060
0.9064
0.9067
0.9071
0.9075
0.9079
0.9080
0.9084
0.9088
0.9092
0.9096
0.9099
0.9103
0.9107
0.9110
0.9114
0.9117
0.9121
0.9124
0.9128
0.9131
0.9135
0.9138
0.9141
0.9145
0.9148
0.9151
0.9154
0.9157
0.9160
0.9164
0.9167
0.9170
0.9173
0.9176
0.9179
0.9182
0.9184
0.9187
0.9190
0.9193
0.9196
0.9199
0.9201
0.9204
