0.36620
0.28779
0.61184
0.63113
0.06471
0.67251
0.04807
0.04958
0.28733
0.48138
0.70516
0.31956
0.55646
0.16905
0.04149
0.37148
0.05496
0.57994
0.17636
0.32488
0.71529
0.22180
0.55514
0.58098
0.39712
0.46587
0.34239
0.31274
0.64477
0.65646
0.46389
0.31053
0.10597
0.64273
0.15978
0.32318
0.24787
0.56726
0.46312
0.66758
0.45991
0.54456
0.48447
0.51909
0.46367
0.67606
0.69727
0.57390
0.43048
0.48700
0.66014
0.36987
0.26462
0.22076
0.54451
0.25200
0.50536
0.59113
0.17742
0.05222
0.59941
0.11719
0.54581
0.63044
0.69159
0.24728
0.43647
0.40125
0.20381
0.52275
0.37840
0.55079
0.13364
0.59186
0.24455
0.30426
0.12571
0.37144
0.14580
0.34531
0.03854
0.00787
0.47576
0.64696
0.32189
0.15460
0.58978
0.67289
0.33664
0.50472
0.68605
0.14023
0.64760
0.07092
0.34893
0.63912
0.45079
0.65113
0.50969
0.02307
0.18131
0.39320
0.28782
0.30673
0.46898
0.72994
0.20360
0.18277
0.50162
0.23540
0.31693
0.59891
0.31967
0.47469
0.57196
0.39837
0.23361
0.15576
0.29457
0.31236
0.20451
0.30606
0.57470
0.15994
0.44290
0.31522
0.45359
0.21619
0.28619
0.46164
0.15635
0.19015
0.35275
0.34336
0.70789
0.64036
0.36690
0.09104
0.40213
0.13406
0.41351
0.51962
0.64859
0.20888
0.27923
0.52161
0.17379
0.63915
0.14679
0.20540
0.40937
0.33164
0.20533
0.15600
0.05770
0.29351
0.46343
0.02104
0.19126
0.38250
0.21928
0.11783
0.16376
0.63861
0.69749
0.12003
0.59141
0.13469
0.33599
0.01457
0.09501
0.54206
0.48601
0.61295
0.18698
0.16457
0.14169
0.55646
0.28497
0.01277
0.50293
0.31209
0.03955
0.39246
0.27753
0.25216
0.67860
0.60439
0.33207
0.41722
0.26849
0.61832
0.02499
0.38527
0.22365
0.34235
0.18783
0.01849
0.19294
0.33218
0.51206
0.44114
0.35078
0.08885
0.00623
0.26517
0.47090
0.72735
0.14352
0.57457
0.37385
0.06348
0.62978
0.12961
0.36177
0.56488
0.64745
0.37633
0.64215
0.19958
0.52077
0.25510
0.21623
0.22770
0.15634
0.00407
0.55207
0.13613
0.22604
0.06418
0.07654
0.71855
0.18503
0.28236
0.48855
0.14173
0.05066
0.09493
0.29510
0.44141
0.54254
0.56018
0.19456
0.12952
0.37687
0.62967
0.64027
0.66423
0.12183
0.27323
0.28578
0.29362
0.22946
0.34197
0.07006
0.59519
0.30525
0.68787
0.60920
0.57781
0.57821
0.71054
0.14509
0.25917
0.25354
0.03602
0.57002
0.22908
0.05008
0.52273
0.64367
0.02179
0.51857
0.17503
0.39525
0.71643
0.07161
0.30618
0.63943
0.22334
0.12908
0.36327
0.22516
0.50902
0.54282
0.30828
0.41503
0.32179
0.31159
0.39630
0.36937
0.02532
0.06250
0.61954
0.16026
0.07711
0.51278
0.10706
0.43383
0.59294
0.44664
0.30038
0.22619
0.57469
0.04371
0.58129
0.36361
0.67596
0.47953
0.05778
0.62441
0.20286
0.03905
0.70441
0.68354
0.42035
0.25227
0.35840
0.41684
0.30405
0.19284
0.14988
0.28066
0.57555
0.62155
0.44143
0.56800
0.73322
0.34056
0.66731
0.71708
0.24388
0.35354
0.26135
0.71399
0.05122
0.10305
0.00625
0.54661
0.24540
0.32025
0.10517
0.31409
0.21338
0.71615
0.26589
0.70921
0.21277
0.13752
0.46189
0.07333
0.65366
0.29132
0.32203
0.59049
0.26713
0.02277
0.42856
0.17707
0.01701
0.06978
0.15775
0.64421
0.62227
0.61037
0.26294
0.11212
0.20413
0.29260
0.43602
0.69163
0.10009
0.15428
0.15175
0.15082
0.18011
0.11154
0.49454
0.69130
0.63034
0.45003
0.32479
0.72167
0.41260
0.35649
0.00540
0.18037
0.19124
0.54556
0.06975
0.40196
0.61670
0.56759
0.56467
0.34656
0.47576
0.04471
0.18450
0.48009
0.45354
0.47821
0.27662
0.62206
0.53133
0.04492
0.25517
0.52319
0.06515
0.41114
0.24557
0.15525
0.66647
0.44343
0.09810
0.22458
0.08345
0.41407
0.71283
0.57663
0.41463
0.18788
0.09088
0.06678
0.63005
0.54490
0.32017
0.58937
0.12018
0.05758
0.17099
0.58796
0.46006
0.61188
0.38840
0.11072
0.02256
0.56556
0.63825
0.24040
0.36462
0.21386
0.41599
0.21221
0.43391
0.27827
0.72295
0.10396
0.03215
0.13745
0.46836
0.34978
0.66596
0.02445
0.06990
0.00689
0.28243
0.66012
0.37976
0.59077
0.22272
0.49857
0.72117
0.70144
0.03457
0.44319
0.25979
0.65239
0.20736
0.37188
0.00349
0.60434
0.46235
0.66095
0.23890
0.36665
0.72087
0.08255
0.65204
0.50226
0.51960
0.45757
0.65839
0.44915
0.08927
0.25900
0.27103
0.48429
0.41483
0.71810
0.10424
0.71686
0.51138
0.51030
0.34386
0.72598
0.39107
0.19654
0.05208
0.07383
0.11640
0.17972
0.57001
0.22073
0.52065
0.08201
0.70881
0.19723
0.21722
0.09160
0.49128
0.05855
0.27063
