Angle 0.579416 6.067365

4.00000 7.03348 4.00000
4.00000 7.03348 4.00000
4.00000 7.03348 4.00000
4.00000 7.03349 4.00000
4.00000 7.03349 4.00000
4.00000 7.03349 4.00000
4.00000 7.03349 4.00000
4.00000 7.03348 4.00000
4.00000 7.03348 4.00000
4.00000 7.03349 4.00000
4.00000 7.03348 4.00000
4.00000 7.03348 4.00000
4.00000 7.03348 4.00000
4.00000 7.03349 4.00000
4.00000 7.03349 4.00000
4.00000 7.03349 4.00000
4.00000 7.03348 4.00000
4.00000 7.03348 4.00000
4.00000 7.03349 4.00000
4.00000 7.03346 4.00000
4.00000 7.03348 4.00000
4.00000 7.03348 4.00000
4.00000 7.03348 4.00000
4.00000 7.03348 4.00000
4.00000 7.03348 4.00000
4.00000 7.03348 4.00000
4.00000 7.03348 4.00000
4.00000 7.03347 4.00000
4.00000 7.03346 4.00000
4.00000 7.03348 4.00000
4.00000 7.03347 4.00000
4.00000 7.03348 4.00000
4.00000 7.03348 4.00000
4.00000 7.03348 4.00000
4.00000 7.03348 4.00000
4.00000 7.03348 4.00000
4.00000 7.03348 4.00000
4.00000 7.03348 4.00000
4.00000 7.03348 4.00000
4.00000 7.03348 4.00000
4.00000 7.03348 4.00000
4.00000 7.03350 4.00000
4.00000 7.03348 4.00000
4.00000 7.03348 4.00000
4.00000 7.03348 4.00000
4.00000 7.03348 4.00000
4.00000 7.03348 4.00000
4.00000 7.03348 4.00000
4.00000 7.03348 4.00000
4.00000 7.03348 4.00000
4.00000 7.03348 4.00000
4.00000 7.03348 4.00000
4.00000 7.03350 4.00000
4.00000 7.03348 4.00000
4.00000 7.03348 4.00000
4.00000 7.03348 4.00000
4.00000 7.03348 4.00000
4.00000 7.03348 4.00000
4.00000 7.03348 4.00000
4.00000 7.03348 4.00000
4.00000 7.03348 4.00000
4.00000 7.03348 4.00000
4.00000 7.03347 4.00000
4.00000 7.03347 4.00000
4.00000 7.03346 4.00000
4.00000 7.03346 4.00000
4.00000 7.03346 4.00000
4.00000 7.03346 4.00000
4.00000 7.03348 4.00000
4.00000 7.03348 4.00000
4.00000 7.03348 4.00000
4.00000 7.03348 4.00000
4.00000 7.03348 4.00000
4.00000 7.03348 4.00000
4.00000 7.03348 4.00000
4.00000 7.03348 4.00000
4.00000 7.03350 4.00000
4.00000 7.03348 4.00000
4.00000 7.03348 4.00000
4.00000 7.03347 4.00000
4.00000 7.03348 4.00000
4.00000 7.03348 4.00000
4.00000 7.03348 4.00000
4.00000 7.03348 4.00000
4.00000 7.03349 4.00000
4.00000 7.03349 4.00000
4.00000 7.03348 4.00000
4.00000 7.03348 4.00000
4.00000 7.03350 4.00000
4.00171 7.05977 4.00171
4.00643 7.13337 4.00643
4.01109 7.20724 4.01109
4.01570 7.28133 4.01570
4.02029 7.35559 4.02029
4.02486 7.42998 4.02485
4.02943 7.50445 4.02943
4.03402 7.57894 4.03402
4.03865 7.65341 4.03865
4.04334 7.72781 4.04334
4.04810 7.80208 4.04810
4.05296 7.87615 4.05296
4.05795 7.94996 4.05795
4.06310 8.02344 4.06310
4.06843 8.09649 4.06843
4.07398 8.16902 4.07398
4.07979 8.24093 4.07979
4.08592 8.31208 4.08592
4.09242 8.38234 4.09242
4.09936 8.45153 4.09937
4.10682 8.51945 4.10682
4.11489 8.58587 4.11489
4.12367 8.65053 4.12367
4.13324 8.71328 4.13324
4.14352 8.77432 4.14352
4.15455 8.83358 4.15455
4.16637 8.89100 4.16637
4.17900 8.94652 4.17901
4.19249 9.00009 4.19249
4.20685 9.05166 4.20685
4.22211 9.10121 4.22211
4.23828 9.14871 4.23828
4.25539 9.19416 4.25539
4.27345 9.23755 4.27344
4.29246 9.27886 4.29246
4.31245 9.31811 4.31245
4.33342 9.35528 4.33341
4.35539 9.39034 4.35538
4.37838 9.42327 4.37838
4.40243 9.45401 4.40243
4.42757 9.48247 4.42757
4.45387 9.50856 4.45387
4.48140 9.53210 4.48140
4.51024 9.55290 4.51024
4.54052 9.57071 4.54051
4.57237 9.58523 4.57237
4.60595 9.59611 4.60595
4.64142 9.60298 4.64146
4.67894 9.60549 4.67906
7.46771 7.47589 4.02767
7.62288 7.40718 4.02345
7.76141 7.35484 4.02024
7.88924 7.31308 4.01767
8.00952 7.27880 4.01555
8.12422 7.25007 4.01376
8.23460 7.22564 4.01224
8.34156 7.20463 4.01092
8.44575 7.18640 4.00978
8.54765 7.17047 4.00878
8.64765 7.15647 4.00789
8.74603 7.14412 4.00711
8.84306 7.13316 4.00642
8.93889 7.12342 4.00580
9.03374 7.11471 4.00524
9.12770 7.10692 4.00474
9.22090 7.09995 4.00430
9.31344 7.09367 4.00389
9.40536 7.08804 4.00353
9.49679 7.08296 4.00320
9.58776 7.07838 4.00291
9.67832 7.07425 4.00264
9.76855 7.07050 4.00240
9.85845 7.06712 4.00218
9.94808 7.06405 4.00198
10.03747 7.06128 4.00181
10.12664 7.05875 4.00164
10.21563 7.05647 4.00149
10.30444 7.05439 4.00136
10.39311 7.05251 4.00124
10.48166 7.05080 4.00113
10.57008 7.04924 4.00102
10.65841 7.04783 4.00093
10.74664 7.04654 4.00085
10.83481 7.04537 4.00077
10.92291 7.04431 4.00071
11.01095 7.04334 4.00064
11.09896 7.04246 4.00058
11.18692 7.04165 4.00053
11.27485 7.04092 4.00048
11.36274 7.04026 4.00044
11.45061 7.03966 4.00040
11.53848 7.03910 4.00037
11.62632 7.03860 4.00033
11.71416 7.03815 4.00030
11.80200 7.03773 4.00028
11.88983 7.03735 4.00025
11.97767 7.03700 4.00023
12.06550 7.03669 4.00021
12.15335 7.03641 4.00019
12.24120 7.03615 4.00017
12.32907 7.03590 4.00016
12.41694 7.03569 4.00014
12.50482 7.03549 4.00013
12.59272 7.03531 4.00012
12.68065 7.03514 4.00011
12.76857 7.03500 4.00010
12.85651 7.03487 4.00009
12.94448 7.03474 4.00008
13.03247 7.03461 4.00008
13.12047 7.03452 4.00007
13.20849 7.03443 4.00006
13.29653 7.03435 4.00006
13.38460 7.03426 4.00005
13.47267 7.03420 4.00005
13.56077 7.03413 4.00004
13.64889 7.03408 4.00004
13.73703 7.03402 4.00004
13.82519 7.03397 4.00003
13.91338 7.03393 4.00003
14.00158 7.03389 4.00003
14.08981 7.03385 4.00002
14.17805 7.03382 4.00002
14.26632 7.03379 4.00002
14.35461 7.03376 4.00002
14.44291 7.03374 4.00002
14.53124 7.03371 4.00002
14.61959 7.03369 4.00001
14.70795 7.03367 4.00001
14.79634 7.03366 4.00001
14.88474 7.03364 4.00001
14.97317 7.03363 4.00001
15.06161 7.03361 4.00001
15.15007 7.03360 4.00001
15.23855 7.03359 4.00001
15.32705 7.03358 4.00001
15.41556 7.03357 4.00001
15.50410 7.03356 4.00001
15.59265 7.03355 4.00000
15.68122 7.03355 4.00000
15.76981 7.03354 4.00000
15.85841 7.03354 4.00000
15.94704 7.03353 4.00000
16.03567 7.03353 4.00000
16.12433 7.03352 4.00000
16.21300 7.03352 4.00000
16.30169 7.03351 4.00000
16.39040 7.03351 4.00000
16.47912 7.03351 4.00000
16.56786 7.03351 4.00000
16.65661 7.03350 4.00000
16.74538 7.03350 4.00000
16.83417 7.03350 4.00000
16.92297 7.03350 4.00000
17.01179 7.03350 4.00000
17.10062 7.03349 4.00000
17.18946 7.03349 4.00000
17.27832 7.03349 4.00000
17.36720 7.03349 4.00000
17.45608 7.03349 4.00000
17.54499 7.03349 4.00000
17.63390 7.03349 4.00000
17.72283 7.03349 4.00000
17.81177 7.03349 4.00000
17.90073 7.03349 4.00000
17.98969 7.03349 4.00000
18.07867 7.03348 4.00000
18.16767 7.03348 4.00000
18.25667 7.03348 4.00000
18.34569 7.03348 4.00000
18.43472 7.03348 4.00000
18.52376 7.03348 4.00000
18.61282 7.03348 4.00000
18.70188 7.03348 4.00000
18.79096 7.03348 4.00000
18.88005 7.03348 4.00000
18.96914 7.03348 4.00000
19.05825 7.03348 4.00000
19.14738 7.03348 4.00000
19.23651 7.03348 4.00000
19.32565 7.03348 4.00000
19.41480 7.03348 4.00000
19.50397 7.03348 4.00000
19.59314 7.03348 4.00000
19.68233 7.03348 4.00000
19.77152 7.03348 4.00000
19.86073 7.03348 4.00000
19.94994 7.03348 4.00000
20.03916 7.03348 4.00000
20.12840 7.03348 4.00000
20.21764 7.03348 4.00000
20.30689 7.03348 4.00000
20.39616 7.03348 4.00000
20.48543 7.03348 4.00000
20.57471 7.03348 4.00000
20.66400 7.03348 4.00000
20.75330 7.03348 4.00000
20.84260 7.03348 4.00000
20.93192 7.03348 4.00000
21.02125 7.03348 4.00000
21.11058 7.03348 4.00000
21.19992 7.03348 4.00000
21.28927 7.03348 4.00000
21.37863 7.03348 4.00000
21.46800 7.03348 4.00000
21.55738 7.03348 4.00000
21.64677 7.03348 4.00000
21.73617 7.03348 4.00000
21.82557 7.03348 4.00000
21.91498 7.03348 4.00000
22.00440 7.03348 4.00000
22.09383 7.03348 4.00000
22.18327 7.03348 4.00000
22.27271 7.03348 4.00000
22.36216 7.03348 4.00000
22.45162 7.03348 4.00000
22.54108 7.03348 4.00000
22.63055 7.03348 4.00000
22.72003 7.03348 4.00000
22.80952 7.03348 4.00000
22.89902 7.03348 4.00000
22.98852 7.03348 4.00000
23.07802 7.03348 4.00000
23.16754 7.03348 4.00000
23.25706 7.03348 4.00000
23.34659 7.03347 4.00000
23.43612 7.03348 4.00000
23.52566 7.03347 4.00000
23.61520 7.03348 4.00000
23.70475 7.03347 4.00000
23.79430 7.03347 4.00000
23.88386 7.03347 4.00000
23.97343 7.03347 4.00000
24.06300 7.03347 4.00000
24.15258 7.03347 4.00000
24.24216 7.03347 4.00000
24.33175 7.03347 4.00000
24.42134 7.03347 4.00000
24.51095 7.03347 4.00000
24.60055 7.03347 4.00000
24.69016 7.03347 4.00000
24.77978 7.03347 4.00000
24.86941 7.03347 4.00000
24.95903 7.03348 4.00000
25.04866 7.03348 4.00000
25.13831 7.03348 4.00000
25.22795 7.03348 4.00000
25.31761 7.03347 4.00000
25.40726 7.03348 4.00000
25.49692 7.03348 4.00000
25.58659 7.03348 4.00000
25.67626 7.03348 4.00000
25.76594 7.03348 4.00000
25.85562 7.03348 4.00000
25.94531 7.03348 4.00000
26.03500 7.03348 4.00000
26.12471 7.03348 4.00000
26.21441 7.03348 4.00000
26.30413 7.03348 4.00000
26.39385 7.03348 4.00000
26.48357 7.03348 4.00000
26.57330 7.03348 4.00000
26.66303 7.03348 4.00000
26.75276 7.03348 4.00000
26.84249 7.03348 4.00000
26.93223 7.03348 4.00000
27.02198 7.03348 4.00000
27.11173 7.03348 4.00000
27.20148 7.03348 4.00000
27.29124 7.03348 4.00000
27.38101 7.03348 4.00000
27.47078 7.03348 4.00000
27.56055 7.03348 4.00000
27.65033 7.03348 4.00000
27.74011 7.03348 4.00000
27.82990 7.03348 4.00000
27.91969 7.03348 4.00000
28.00949 7.03348 4.00000
28.09929 7.03348 4.00000
28.18910 7.03348 4.00000
28.27891 7.03348 4.00000
28.36873 7.03347 4.00000
28.45854 7.03348 4.00000
28.54837 7.03347 4.00000
28.63818 7.03348 4.00000
28.72801 7.03348 4.00000
28.81785 7.03348 4.00000
28.90767 7.03349 4.00000
28.99753 7.03348 4.00000
29.08738 7.03347 4.00000
29.17722 7.03348 4.00000
29.26707 7.03348 4.00000
29.35693 7.03347 4.00000
29.44679 7.03348 4.00000
29.53666 7.03348 4.00000
29.62652 7.03348 4.00000
29.71639 7.03348 4.00000
29.80627 7.03348 4.00000
29.89614 7.03348 4.00000
29.98603 7.03348 4.00000
30.07591 7.03348 4.00000
30.16580 7.03348 4.00000
30.25569 7.03348 4.00000
30.34559 7.03348 4.00000
30.43550 7.03348 4.00000
30.52539 7.03348 4.00000
30.61530 7.03348 4.00000
30.70521 7.03348 4.00000
30.79513 7.03348 4.00000
30.88504 7.03348 4.00000
30.97496 7.03348 4.00000
31.06488 7.03348 4.00000

Angle 0.151823 3.499059

4.00000 7.03348 4.00000
4.00000 7.03348 4.00000
4.00000 7.03348 4.00000
4.00000 7.03348 4.00000
4.00000 7.03348 4.00000
4.00000 7.03348 4.00000
4.00000 7.03348 4.00000
4.00000 7.03349 4.00000
4.00000 7.03348 4.00000
4.00000 7.03348 4.00000
4.00000 7.03348 4.00000
4.00000 7.03348 4.00000
4.00000 7.03348 4.00000
4.00000 7.03348 4.00000
4.00000 7.03348 4.00000
4.00000 7.03348 4.00000
4.00000 7.03348 4.00000
4.00000 7.03348 4.00000
4.00000 7.03348 4.00000
4.00000 7.03347 4.00000
4.00000 7.03348 4.00000
4.00000 7.03348 4.00000
4.00000 7.03348 4.00000
4.00000 7.03348 4.00000
4.00000 7.03348 4.00000
4.00000 7.03348 4.00000
4.00000 7.03348 4.00000
4.00000 7.03348 4.00000
4.00000 7.03348 4.00000
4.00000 7.03348 4.00000
4.00000 7.03348 4.00000
4.00000 7.03348 4.00000
4.00000 7.03348 4.00000
4.00000 7.03348 4.00000
4.00000 7.03348 4.00000
4.00000 7.03348 4.00000
4.00000 7.03348 4.00000
4.00000 7.03348 4.00000
4.00000 7.03348 4.00000
4.00000 7.03348 4.00000
4.00000 7.03348 4.00000
4.00000 7.03347 4.00000
4.00000 7.03347 4.00000
4.00000 7.03348 4.00000
4.00000 7.03348 4.00000
4.00000 7.03348 4.00000
4.00000 7.03348 4.00000
4.00000 7.03348 4.00000
4.00000 7.03347 4.00000
4.00000 7.03348 4.00000
4.00000 7.03348 4.00000
4.00000 7.03348 4.00000
4.00000 7.03348 4.00000
4.00000 7.03345 4.00000
4.00000 7.03348 4.00000
4.00000 7.03345 4.00000
4.00000 7.03341 4.00000
4.00000 7.03348 4.00000
4.00000 7.03348 4.00000
4.00000 7.03348 4.00000
4.00000 7.03348 4.00000
4.00000 7.03348 4.00000
3.99998 7.03375 3.99998
4.00000 7.03347 4.00000
4.00000 7.03348 4.00000
4.00000 7.03347 4.00000
4.00000 7.03348 4.00000
4.00000 7.03341 4.00000
4.00000 7.03348 4.00000
4.00000 7.03348 4.00000
4.00000 7.03348 4.00000
4.00000 7.03348 4.00000
4.00000 7.03348 4.00000
4.00000 7.03342 4.00000
4.00000 7.03348 4.00000
4.00000 7.03348 4.00000
4.00000 7.03343 4.00000
4.00000 7.03345 4.00000
4.00000 7.03346 4.00000
4.00000 7.03347 4.00000
4.00000 7.03348 4.00000
4.00000 7.03348 4.00000
4.00000 7.03348 4.00000
4.00000 7.03348 4.00000
4.00000 7.03348 4.00000
4.00000 7.03348 4.00000
4.00000 7.03348 4.00000
4.00000 7.03348 4.00000
4.00000 7.03348 4.00000
4.00000 7.03349 4.00000
4.00000 7.03349 4.00000
4.00000 7.03349 4.00000
4.00000 7.03349 4.00000
4.00000 7.03349 4.00000
4.00000 7.03349 4.00000
4.00000 7.03349 4.00000
4.00000 7.03349 4.00000
4.00000 7.03348 4.00000
4.00000 7.03348 4.00000
4.00000 7.03348 4.00000
4.00000 7.03348 4.00000
4.00000 7.03349 4.00000
4.00000 7.03347 4.00000
4.00000 7.03348 4.00000
4.00000 7.03348 4.00000
4.00000 7.03348 4.00000
4.00000 7.03348 4.00000
4.00000 7.03348 4.00000
4.00000 7.03348 4.00000
4.00000 7.03347 4.00000
4.00000 7.03348 4.00000
4.00000 7.03348 4.00000
4.00000 7.03349 4.00000
4.00000 7.03348 4.00000
4.00000 7.03348 4.00000
4.00000 7.03348 4.00000
4.00000 7.03348 4.00000
4.00000 7.03347 4.00000
4.00000 7.03347 4.00000
4.00000 7.03348 4.00000
4.00000 7.03347 4.00000
4.00000 7.03347 4.00000
4.00000 7.03347 4.00000
4.00000 7.03348 4.00000
4.00000 7.03348 4.00000
4.00000 7.03347 4.00000
4.00000 7.03348 4.00000
4.00000 7.03348 4.00000
4.00000 7.03348 4.00000
4.00000 7.03348 4.00000
4.00000 7.03348 4.00000
4.00000 7.03348 4.00000
4.00000 7.03348 4.00000
4.00000 7.03348 4.00000
4.00000 7.03348 4.00000
4.00000 7.03348 4.00000
4.00000 7.03348 4.00000
4.00000 7.03348 4.00000
4.00000 7.03348 4.00000
4.00000 7.03348 4.00000
4.00000 7.03348 4.00000
4.00000 7.03348 4.00000
4.00000 7.03347 4.00000
4.00000 7.03347 4.00000
4.00000 7.03348 4.00000
4.00000 7.03348 4.00000
4.00000 7.03348 4.00000
4.00000 7.03349 4.00000
4.00000 7.03349 4.00000
4.00000 7.03348 4.00000
4.00000 7.03347 4.00000
4.00000 7.03348 4.00000
4.00000 7.03348 4.00000
4.00000 7.03348 4.00000
4.00000 7.03348 4.00000
4.00000 7.03348 4.00000
4.00000 7.03347 4.00000
4.00000 7.03348 4.00000
4.00000 7.03348 4.00000
4.00000 7.03348 4.00000
4.00000 7.03348 4.00000
4.00000 7.03348 4.00000
4.00000 7.03348 4.00000
4.00000 7.03348 4.00000
4.00000 7.03348 4.00000
4.00000 7.03348 4.00000
4.00000 7.03348 4.00000
4.00000 7.03348 4.00000
4.00000 7.03348 4.00000
4.00000 7.03348 4.00000
4.00000 7.03348 4.00000
4.00000 7.03348 4.00000
4.00000 7.03348 4.00000
4.00000 7.03348 4.00000
4.00000 7.03348 4.00000
4.00000 7.03348 4.00000
4.00000 7.03348 4.00000
4.00000 7.03349 4.00000
4.00000 7.03348 4.00000
4.00000 7.03348 4.00000
4.00000 7.03348 4.00000
4.00000 7.03348 4.00000
4.00000 7.03348 4.00000
4.00000 7.03347 4.00000
4.00000 7.03347 4.00000
4.00000 7.03348 4.00000
4.00000 7.03348 4.00000
4.00000 7.03348 4.00000
4.00000 7.03348 4.00000
4.00000 7.03347 4.00000
4.00000 7.03348 4.00000
4.00000 7.03348 4.00000
4.00000 7.03349 4.00000
4.00000 7.03348 4.00000
4.00000 7.03348 4.00000
4.00000 7.03348 4.00000
4.00000 7.03348 4.00000
4.00000 7.03348 4.00000
4.00000 7.03348 4.00000
4.00000 7.03347 4.00000
4.00000 7.03349 4.00000
4.00000 7.03348 4.00000
4.00000 7.03347 4.00000
4.00000 7.03348 4.00000
4.00000 7.03348 4.00000
4.00000 7.03348 4.00000
4.00000 7.03348 4.00000
4.00000 7.03348 4.00000
4.00000 7.03347 4.00000
4.00000 7.03348 4.00000
4.00000 7.03348 4.00000
4.00443 7.10207 4.00443
4.00929 7.17862 4.00929
4.01409 7.25538 4.01409
4.01885 7.33230 4.01885
4.02359 7.40934 4.02359
4.02832 7.48644 4.02832
4.03307 7.56355 4.03307
4.03785 7.64061 4.03785
4.04269 7.71756 4.04269
4.04760 7.79435 4.04760
4.05261 7.87091 4.05262
4.05776 7.94716 4.05776
4.06307 8.02303 4.06307
4.06857 8.09841 4.06857
4.07431 8.17321 4.07431
4.08033 8.24731 4.08033
4.08668 8.32056 4.08668
4.09344 8.39281 4.09344
4.10067 8.46388 4.10067
4.10846 8.53353 4.10846
4.11692 8.60152 4.11692
4.12617 8.66754 4.12617
4.13622 8.73158 4.13622
4.14702 8.79378 4.14703
4.15863 8.85406 4.15863
4.17108 8.91235 4.17108
4.18440 8.96860 4.18440
4.19862 9.02275 4.19862
4.21377 9.07477 4.21377
4.22988 9.12462 4.22988
4.24695 9.17231 4.24695
4.26501 9.21781 4.26501
4.28406 9.26113 4.28406
4.30413 9.30226 4.30413
4.32521 9.34119 4.32521
4.34734 9.37793 4.34734
4.37052 9.41242 4.37052
4.39479 9.44463 4.39479
4.42019 9.47449 4.42019
4.44677 9.50187 4.44677
4.47461 9.52664 4.47461
4.50379 9.54859 4.50379
4.53444 9.56746 4.53444
4.56670 9.58295 4.56670
4.60073 9.59470 4.60073
4.63671 9.60233 4.63671
4.67483 9.60544 4.67483
7.45314 7.48295 4.02811
7.61333 7.41108 4.02370
7.75555 7.35689 4.02037
7.88634 7.31397 4.01772
8.00920 7.27889 4.01555
8.12620 7.24960 4.01373
8.23871 7.22478 4.01218
8.34766 7.20350 4.01085
8.45374 7.18508 4.00970
8.55746 7.16903 4.00869
8.65923 7.15494 4.00780
8.75933 7.14253 4.00701
8.85800 7.13156 4.00631
8.95548 7.12182 4.00569
9.05191 7.11314 4.00514
9.14744 7.10538 4.00464
9.24219 7.09845 4.00420
9.33624 7.09223 4.00380
9.42970 7.08663 4.00344
9.52261 7.08162 4.00312
9.61505 7.07709 4.00283
9.70709 7.07301 4.00256
9.79876 7.06933 4.00233
9.89012 7.06599 4.00211
9.98117 7.06299 4.00192
10.07198 7.06027 4.00174
10.16255 7.05780 4.00158
10.25293 7.05557 4.00144
10.34314 7.05355 4.00131
10.43318 7.05171 4.00119
10.52309 7.05005 4.00108
10.61287 7.04854 4.00098
10.70255 7.04717 4.00089
10.79213 7.04592 4.00081
10.88162 7.04479 4.00074
10.97104 7.04377 4.00067
11.06040 7.04283 4.00061
11.14970 7.04199 4.00056
11.23896 7.04121 4.00050
11.32817 7.04052 4.00046
11.41735 7.03988 4.00042
11.50650 7.03930 4.00038
11.59562 7.03877 4.00035
11.68472 7.03829 4.00031
11.77381 7.03786 4.00029
11.86288 7.03747 4.00026
11.95194 7.03710 4.00024
12.04099 7.03678 4.00021
12.13004 7.03648 4.00019
12.21909 7.03621 4.00018
12.30813 7.03596 4.00016
12.39718 7.03574 4.00015
12.48623 7.03553 4.00013
12.57528 7.03535 4.00012
12.66435 7.03518 4.00011
12.75341 7.03502 4.00010
12.84249 7.03489 4.00009
12.93157 7.03476 4.00008
13.02066 7.03464 4.00008
13.10977 7.03454 4.00007
13.19888 7.03444 4.00006
13.28800 7.03435 4.00006
13.37714 7.03427 4.00005
13.46629 7.03420 4.00005
13.55545 7.03414 4.00004
13.64462 7.03408 4.00004
13.73381 7.03402 4.00004
13.82301 7.03397 4.00003
13.91222 7.03393 4.00003
14.00145 7.03389 4.00003
14.09068 7.03385 4.00002
14.17994 7.03382 4.00002
14.26920 7.03379 4.00002
14.35848 7.03376 4.00002
14.44777 7.03373 4.00002
14.53708 7.03371 4.00002
14.62639 7.03369 4.00001
14.71572 7.03367 4.00001
14.80507 7.03365 4.00001
14.89442 7.03364 4.00001
14.98379 7.03362 4.00001
15.07317 7.03361 4.00001
15.16257 7.03360 4.00001
15.25198 7.03359 4.00001
15.34140 7.03358 4.00001
15.43083 7.03357 4.00001
15.52027 7.03356 4.00001
15.60973 7.03355 4.00000
15.69919 7.03355 4.00000
15.78867 7.03354 4.00000
15.87816 7.03354 4.00000
15.96766 7.03353 4.00000
16.05718 7.03353 4.00000
16.14670 7.03352 4.00000
16.23624 7.03352 4.00000
16.32578 7.03351 4.00000
16.41534 7.03351 4.00000
16.50491 7.03351 4.00000
16.59448 7.03351 4.00000
16.68407 7.03350 4.00000
16.77367 7.03350 4.00000
16.86328 7.03350 4.00000
16.95289 7.03350 4.00000
17.04252 7.03350 4.00000
17.13216 7.03349 4.00000
17.22180 7.03349 4.00000
17.31146 7.03349 4.00000
17.40112 7.03349 4.00000
17.49079 7.03349 4.00000
17.58048 7.03349 4.00000
17.67017 7.03349 4.00000
17.75986 7.03349 4.00000
17.84957 7.03349 4.00000
17.93929 7.03349 4.00000
18.02901 7.03349 4.00000
18.11874 7.03348 4.00000
18.20848 7.03348 4.00000
18.29823 7.03348 4.00000
18.38798 7.03348 4.00000
18.47775 7.03348 4.00000
18.56752 7.03348 4.00000
18.65729 7.03348 4.00000
18.74708 7.03348 4.00000
18.83687 7.03348 4.00000
18.92667 7.03348 4.00000
19.01648 7.03348 4.00000
19.10629 7.03348 4.00000
19.19611 7.03348 4.00000
19.28593 7.03348 4.00000
19.37577 7.03348 4.00000
19.46561 7.03348 4.00000
19.55545 7.03348 4.00000
19.64531 7.03348 4.00000
19.73516 7.03348 4.00000
19.82503 7.03348 4.00000
19.91490 7.03348 4.00000
20.00478 7.03348 4.00000
20.09466 7.03348 4.00000
20.18455 7.03348 4.00000
20.27444 7.03348 4.00000
20.36434 7.03348 4.00000
20.45425 7.03348 4.00000

Angle 0.064617 1.965197

4.00000 7.03348 4.00000
4.00000 7.03348 4.00000
4.00000 7.03348 4.00000
4.00000 7.03348 4.00000
4.00000 7.03348 4.00000
4.00000 7.03348 4.00000
4.00000 7.03348 4.00000
4.00000 7.03348 4.00000
4.00000 7.03348 4.00000
4.00000 7.03349 4.00000
4.00000 7.03349 4.00000
4.00000 7.03349 4.00000
4.00000 7.03349 4.00000
4.00000 7.03348 4.00000
4.00000 7.03348 4.00000
4.00000 7.03348 4.00000
4.00000 7.03348 4.00000
4.00000 7.03348 4.00000
4.00000 7.03348 4.00000
4.00000 7.03348 4.00000
4.00000 7.03348 4.00000
4.00000 7.03348 4.00000
4.00000 7.03348 4.00000
4.00000 7.03348 4.00000
4.00000 7.03348 4.00000
4.00000 7.03348 4.00000
4.00000 7.03348 4.00000
4.00000 7.03348 4.00000
4.00000 7.03349 4.00000
4.00000 7.03349 4.00000
4.00000 7.03349 4.00000
4.00000 7.03349 4.00000
4.00000 7.03349 4.00000
4.00000 7.03349 4.00000
4.00000 7.03349 4.00000
4.00000 7.03349 4.00000
4.00000 7.03349 4.00000
4.00000 7.03349 4.00000
4.00000 7.03349 4.00000
4.00000 7.03350 4.00000
4.00000 7.03350 4.00000
4.00000 7.03350 4.00000
4.00000 7.03348 4.00000
4.00000 7.03348 4.00000
4.00000 7.03348 4.00000
4.00000 7.03348 4.00000
4.00000 7.03348 4.00000
4.00000 7.03348 4.00000
4.00000 7.03348 4.00000
4.00000 7.03348 4.00000
4.00000 7.03348 4.00000
4.00000 7.03349 4.00000
4.00000 7.03350 4.00000
4.00001 7.03357 4.00001
4.00000 7.03350 4.00000
4.00092 7.04754 4.00092
4.00194 7.06333 4.00194
4.00299 7.07962 4.00299
4.00407 7.09641 4.00407
4.00518 7.11370 4.00518
4.00631 7.13149 4.00631
4.00747 7.14977 4.00747
4.00866 7.16855 4.00866
4.00987 7.18782 4.00987
4.01111 7.20758 4.01111
4.01238 7.22782 4.01238
4.01367 7.24855 4.01367
4.01499 7.26977 4.01499
4.01633 7.29146 4.01633
4.01770 7.31363 4.01770
4.01910 7.33627 4.01910
4.02052 7.35939 4.02052
4.02197 7.38296 4.02197
4.02345 7.40701 4.02345
4.02495 7.43151 4.02495
4.02648 7.45646 4.02648
4.02804 7.48186 4.02804
4.02963 7.50771 4.02963
4.03125 7.53400 4.03125
4.03290 7.56073 4.03289
4.03457 7.58788 4.03457
4.03628 7.61546 4.03628
4.03803 7.64346 4.03803
4.03981 7.67187 4.03981
4.04162 7.70068 4.04162
4.04347 7.72989 4.04347
4.04536 7.75949 4.04536
4.04728 7.78948 4.04728
4.04925 7.81983 4.04925
4.05127 7.85056 4.05127
4.05333 7.88163 4.05333
4.05544 7.91306 4.05544
4.05760 7.94481 4.05760
4.05982 7.97689 4.05982
4.06209 8.00928 4.06209
4.06443 8.04197 4.06443
4.06683 8.07494 4.06683
4.06930 8.10818 4.06930
4.07185 8.14167 4.07185
4.07448 8.17540 4.07448
4.07719 8.20934 4.07719
4.08001 8.24348 4.08001
4.08292 8.27779 4.08292
4.08594 8.31224 4.08594
4.08907 8.34682 4.08908
4.09234 8.38149 4.09234
4.09575 8.41622 4.09575
4.09931 8.45098 4.09931
4.10303 8.48573 4.10303
4.10693 8.52043 4.10693
4.11103 8.55503 4.11103
4.11535 8.58949 4.11535
4.11990 8.62374 4.11991
4.12472 8.65773 4.12472
4.12980 8.69144 4.12980
4.13512 8.72493 4.13512
4.14070 8.75817 4.14070
4.14655 8.79115 4.14655
4.15266 8.82383 4.15266
4.15907 8.85620 4.15907
4.16577 8.88821 4.16577
4.17278 8.91985 4.17278
4.18010 8.95109 4.18010
4.18776 8.98191 4.18776
4.19576 9.01228 4.19576
4.20410 9.04219 4.20410
4.21281 9.07160 4.21281
4.22188 9.10051 4.22188
4.23133 9.12889 4.23133
4.24117 9.15672 4.24117
4.25141 9.18398 4.25141
4.26205 9.21067 4.26205
4.27310 9.23675 4.27310
4.28457 9.26223 4.28457
4.29647 9.28707 4.29647
4.30881 9.31127 4.30881
4.32160 9.33481 4.32160
4.33484 9.35766 4.33484
4.34854 9.37982 4.34854
4.36273 9.40125 4.36273
4.37740 9.42193 4.37740
4.39257 9.44184 4.39257
4.40826 9.46093 4.40826
4.42449 9.47917 4.42449
4.44127 9.49652 4.44127
4.45864 9.51291 4.45864
4.47662 9.52828 4.47662
4.49524 9.54257 4.49524
4.51455 9.55568 4.51455
4.53458 9.56753 4.53458
4.55538 9.57801 4.55538
4.57700 9.58699 4.57700
4.59951 9.59436 4.59951
4.62297 9.59998 4.62297
4.64743 9.60370 4.64743
4.67297 9.60540 4.67297
7.38507 7.51740 4.03022
7.50234 7.45955 4.02667
7.60814 7.41322 4.02383
7.70618 7.37476 4.02146
7.79859 7.34208 4.01945
7.88674 7.31384 4.01771
7.97154 7.28914 4.01619
8.05368 7.26730 4.01483
8.13362 7.24787 4.01362
8.21176 7.23045 4.01254
8.28838 7.21476 4.01156
8.36373 7.20057 4.01067
8.43799 7.18768 4.00986
8.51132 7.17594 4.00912
8.58385 7.16523 4.00845
8.65569 7.15541 4.00783
8.72693 7.14641 4.00726
8.79768 7.13814 4.00673
8.86797 7.13052 4.00625
8.93789 7.12350 4.00580
9.00750 7.11700 4.00539
9.07678 7.11104 4.00501
9.14586 7.10550 4.00465
9.21473 7.10039 4.00432
9.28345 7.09562 4.00402
9.35200 7.09125 4.00374
9.42045 7.08717 4.00348
9.48883 7.08337 4.00324
9.55711 7.07987 4.00301
9.62536 7.07661 4.00280
9.69357 7.07358 4.00260
9.76178 7.07077 4.00242
9.82998 7.06815 4.00225
9.89819 7.06571 4.00209
9.96643 7.06345 4.00195
10.03469 7.06135 4.00181
10.10301 7.05940 4.00168
10.17137 7.05758 4.00157
10.23980 7.05589 4.00146
10.30830 7.05431 4.00135
10.37687 7.05284 4.00126
10.44553 7.05148 4.00117
10.51427 7.05021 4.00109
10.58310 7.04902 4.00101
10.65203 7.04792 4.00094
10.72106 7.04690 4.00087
10.79018 7.04596 4.00081
10.85943 7.04506 4.00075
10.92877 7.04424 4.00070
10.99823 7.04347 4.00065
11.06781 7.04276 4.00060
11.13750 7.04210 4.00056
11.20732 7.04148 4.00052
11.27725 7.04091 4.00048
11.34730 7.04037 4.00045
11.41748 7.03988 4.00042
11.48779 7.03941 4.00039
11.55822 7.03899 4.00036
11.62877 7.03859 4.00033
11.69945 7.03822 4.00031
11.77026 7.03788 4.00029
11.84119 7.03755 4.00027
11.91226 7.03727 4.00025
11.98344 7.03698 4.00023
12.05476 7.03673 4.00021
12.12626 7.03646 4.00019
12.19778 7.03627 4.00018
12.26950 7.03607 4.00017
12.34131 7.03587 4.00016
12.41328 7.03571 4.00014
12.48540 7.03554 4.00013
12.55769 7.03538 4.00013
12.63016 7.03525 4.00012
12.70235 7.03511 4.00011
12.77496 7.03499 4.00010
12.84777 7.03488 4.00009
12.92047 7.03477 4.00008
12.99345 7.03468 4.00008
13.06661 7.03459 4.00007
13.13995 7.03451 4.00007
13.21325 7.03443 4.00006
13.28684 7.03436 4.00006
13.36058 7.03429 4.00005
13.43447 7.03423 4.00005
13.50849 7.03417 4.00005
13.58265 7.03412 4.00004
13.65626 7.03406 4.00004
13.73012 7.03402 4.00004
13.80458 7.03399 4.00004
13.87918 7.03395 4.00003
13.95303 7.03391 4.00003
14.02774 7.03388 4.00003
14.10260 7.03385 4.00003
14.17759 7.03382 4.00002
14.25272 7.03379 4.00002
14.32796 7.03377 4.00002
14.40333 7.03375 4.00002
14.47881 7.03373 4.00002
14.55441 7.03371 4.00002
14.63011 7.03369 4.00001
14.70591 7.03367 4.00001
14.78182 7.03366 4.00001
14.85783 7.03364 4.00001
14.93394 7.03363 4.00001
15.01014 7.03362 4.00001
15.08644 7.03361 4.00001
15.16283 7.03360 4.00001
15.23931 7.03359 4.00001
15.31588 7.03358 4.00001
15.39254 7.03357 4.00001
15.46929 7.03357 4.00001
15.54612 7.03356 4.00001
15.62304 7.03355 4.00001
15.70004 7.03355 4.00001
15.77713 7.03354 4.00000
15.85430 7.03354 4.00000
15.93155 7.03353 4.00000
16.00889 7.03353 4.00000
16.08630 7.03352 4.00000
16.16380 7.03352 4.00000
16.24138 7.03352 4.00000
16.31903 7.03351 4.00000
16.39677 7.03351 4.00000
16.47458 7.03351 4.00000
16.55246 7.03351 4.00000
16.63043 7.03350 4.00000
16.70847 7.03350 4.00000
16.78659 7.03350 4.00000
16.86478 7.03350 4.00000
16.94305 7.03350 4.00000
17.02139 7.03350 4.00000
17.09981 7.03349 4.00000
17.17829 7.03349 4.00000
17.25686 7.03349 4.00000
17.33549 7.03349 4.00000
17.41419 7.03349 4.00000
17.49297 7.03349 4.00000
17.57181 7.03349 4.00000
17.65073 7.03349 4.00000
17.72972 7.03349 4.00000
17.80877 7.03349 4.00000
17.88790 7.03349 4.00000
17.96709 7.03349 4.00000
18.04635 7.03349 4.00000
18.12567 7.03348 4.00000
18.20507 7.03348 4.00000
18.28452 7.03348 4.00000
18.36405 7.03348 4.00000
18.44364 7.03348 4.00000
18.52329 7.03348 4.00000
18.60301 7.03348 4.00000
18.68279 7.03348 4.00000
18.76264 7.03348 4.00000
18.84255 7.03348 4.00000
18.92252 7.03348 4.00000
19.00255 7.03348 4.00000
19.08265 7.03348 4.00000
19.16280 7.03348 4.00000
19.24301 7.03348 4.00000
19.32329 7.03348 4.00000
19.40362 7.03348 4.00000
19.48402 7.03348 4.00000
19.56447 7.03348 4.00000
19.64498 7.03348 4.00000
19.72555 7.03348 4.00000
19.80617 7.03348 4.00000
19.88685 7.03348 4.00000
19.96759 7.03348 4.00000
20.04839 7.03348 4.00000
20.12924 7.03348 4.00000
20.21014 7.03348 4.00000
20.29110 7.03348 4.00000
20.37211 7.03348 4.00000
20.45349 7.03348 4.00000
20.53492 7.03348 4.00000
20.61641 7.03348 4.00000
20.69795 7.03348 4.00000
20.77954 7.03348 4.00000
20.86119 7.03348 4.00000
20.94288 7.03348 4.00000
21.02462 7.03348 4.00000
21.10642 7.03348 4.00000
21.18826 7.03348 4.00000
21.27015 7.03348 4.00000
21.35209 7.03348 4.00000
21.43408 7.03348 4.00000
21.51611 7.03348 4.00000
21.59819 7.03348 4.00000
21.68031 7.03348 4.00000
21.76249 7.03348 4.00000
21.84470 7.03348 4.00000
21.92696 7.03348 4.00000
22.00927 7.03348 4.00000
22.09162 7.03348 4.00000
22.17401 7.03348 4.00000
22.25646 7.03348 4.00000
22.33895 7.03348 4.00000
22.42148 7.03348 4.00000
22.50405 7.03348 4.00000
22.58667 7.03348 4.00000
22.66933 7.03348 4.00000
22.75202 7.03348 4.00000
22.83477 7.03348 4.00000
22.91753 7.03348 4.00000
23.00035 7.03348 4.00000
23.08321 7.03348 4.00000
23.16611 7.03348 4.00000
23.24904 7.03348 4.00000
23.33201 7.03348 4.00000
23.41502 7.03348 4.00000
23.49806 7.03348 4.00000
23.58115 7.03348 4.00000
23.66427 7.03348 4.00000
23.74743 7.03348 4.00000
23.83062 7.03348 4.00000
23.91386 7.03348 4.00000
23.99713 7.03348 4.00000
24.08043 7.03348 4.00000
24.16378 7.03348 4.00000
24.24715 7.03348 4.00000
24.33057 7.03348 4.00000
24.41402 7.03348 4.00000
24.49750 7.03348 4.00000
24.58102 7.03348 4.00000
24.66458 7.03348 4.00000
24.74817 7.03348 4.00000
24.83179 7.03348 4.00000
24.91545 7.03348 4.00000
24.99914 7.03348 4.00000
25.08287 7.03348 4.00000
25.16663 7.03348 4.00000
25.25042 7.03348 4.00000
25.33425 7.03348 4.00000
25.41811 7.03348 4.00000
25.50200 7.03348 4.00000
25.58593 7.03348 4.00000
25.66989 7.03348 4.00000
25.75388 7.03348 4.00000
25.83791 7.03348 4.00000
25.92198 7.03348 4.00000
26.00606 7.03348 4.00000
26.09018 7.03348 4.00000
26.17434 7.03348 4.00000
26.25853 7.03349 4.00000

Angle 0.106836 0.228988

4.00000 7.03348 4.00000
4.00000 7.03348 4.00000
4.00000 7.03348 4.00000
4.00000 7.03348 4.00000
4.00000 7.03348 4.00000
4.00000 7.03348 4.00000
4.00000 7.03348 4.00000
4.00000 7.03348 4.00000
4.00000 7.03348 4.00000
4.00000 7.03348 4.00000
4.00000 7.03348 4.00000
4.00000 7.03348 4.00000
4.00000 7.03348 4.00000
4.00000 7.03348 4.00000
4.00000 7.03348 4.00000
4.00000 7.03348 4.00000
4.00000 7.03348 4.00000
4.00000 7.03348 4.00000
4.00000 7.03348 4.00000
4.00000 7.03348 4.00000
4.00000 7.03348 4.00000
4.00000 7.03348 4.00000
4.00000 7.03348 4.00000
4.00000 7.03348 4.00000
4.00000 7.03348 4.00000
4.00000 7.03348 4.00000
4.00000 7.03348 4.00000
4.00000 7.03348 4.00000
4.00000 7.03348 4.00000
4.00000 7.03348 4.00000
4.00000 7.03348 4.00000
4.00000 7.03348 4.00000
4.00000 7.03348 4.00000
4.00000 7.03348 4.00000
4.00000 7.03348 4.00000
4.00000 7.03348 4.00000
4.00000 7.03348 4.00000
4.00000 7.03348 4.00000
4.00000 7.03348 4.00000
4.00000 7.03348 4.00000
4.00000 7.03348 4.00000
4.00000 7.03348 4.00000
4.00000 7.03348 4.00000
4.00000 7.03348 4.00000
4.00000 7.03348 4.00000
4.00000 7.03348 4.00000
4.00000 7.03348 4.00000
4.00000 7.03348 4.00000
4.00000 7.03348 4.00000
4.00000 7.03348 4.00000
4.00000 7.03348 4.00000
4.00000 7.03348 4.00000
4.00000 7.03348 4.00000
4.00000 7.03348 4.00000
4.00000 7.03348 4.00000
4.00000 7.03348 4.00000
4.00000 7.03348 4.00000
4.00000 7.03349 4.00000
4.00000 7.03348 4.00000
4.00000 7.03348 4.00000
4.00000 7.03348 4.00000
4.00000 7.03348 4.00000
4.00000 7.03348 4.00000
4.00000 7.03348 4.00000
4.00000 7.03348 4.00000
4.00000 7.03348 4.00000
4.00000 7.03348 4.00000
4.00000 7.03348 4.00000
4.00000 7.03348 4.00000
4.00000 7.03348 4.00000
4.00000 7.03348 4.00000
4.00000 7.03348 4.00000
4.00000 7.03348 4.00000
4.00000 7.03348 4.00000
4.00000 7.03348 4.00000
4.00000 7.03349 4.00000
4.00000 7.03348 4.00000
4.00000 7.03348 4.00000
4.00000 7.03348 4.00000
4.00000 7.03348 4.00000
4.00000 7.03348 4.00000
4.00000 7.03348 4.00000
4.00000 7.03349 4.00000
4.00000 7.03348 4.00000
4.00000 7.03348 4.00000
4.00000 7.03348 4.00000
4.00000 7.03348 4.00000
4.00000 7.03348 4.00000
4.00000 7.03348 4.00000
4.00000 7.03348 4.00000
4.00000 7.03348 4.00000
4.00000 7.03348 4.00000
4.00000 7.03348 4.00000
4.00000 7.03348 4.00000
4.00000 7.03348 4.00000
4.00000 7.03348 4.00000
4.00000 7.03350 4.00000
4.00000 7.03349 4.00000
4.00000 7.03348 4.00000
4.00312 7.08157 4.00312
4.00797 7.15772 4.00798
4.01277 7.23412 4.01277
4.01752 7.31069 4.01752
4.02224 7.38740 4.02224
4.02695 7.46418 4.02695
4.03168 7.54099 4.03168
4.03643 7.61778 4.03643
4.04122 7.69448 4.04123
4.04610 7.77104 4.04610
4.05106 7.84739 4.05106
4.05614 7.92347 4.05614
4.06138 7.99919 4.06138
4.06679 8.07446 4.06679
4.07243 8.14920 4.07243
4.07833 8.22328 4.07833
4.08455 8.29657 4.08455
4.09115 8.36893 4.09115
4.09818 8.44018 4.09818
4.10575 8.51010 4.10575
4.11394 8.57846 4.11394
4.12287 8.64498 4.12287
4.13263 8.70946 4.13263
4.14313 8.77212 4.14313
4.15442 8.83289 4.15442
4.16653 8.89172 4.16653
4.17949 8.94854 4.17949
4.19334 9.00329 4.19334
4.20810 9.05593 4.20811
4.22381 9.10643 4.22381
4.24047 9.15478 4.24047
4.25811 9.20097 4.25811
4.27673 9.24499 4.27673
4.29635 9.28683 4.29635
4.31699 9.32650 4.31699
4.33865 9.36398 4.33865
4.36136 9.39925 4.36136
4.38514 9.43227 4.38514
4.41002 9.46298 4.41002
4.43606 9.49129 4.43606
4.46331 9.51705 4.46331
4.49186 9.54010 4.49187
4.52183 9.56020 4.52183
4.55334 9.57706 4.55333
4.58654 9.59036 4.58653
4.62160 9.59971 4.62161
4.65873 9.60472 4.65872
4.69810 9.60504 4.69803
7.54877 7.43857 4.02538
7.69712 7.37814 4.02167
7.83188 7.33110 4.01878
7.95749 7.29309 4.01643
8.07654 7.26158 4.01448
8.19058 7.23503 4.01282
8.30072 7.21237 4.01141
8.40776 7.19280 4.01018
8.51225 7.17579 4.00911
8.61460 7.16092 4.00817
8.71517 7.14784 4.00735
8.81424 7.13628 4.00661
8.91202 7.12603 4.00596
9.00869 7.11691 4.00538
9.10440 7.10878 4.00486
9.19929 7.10151 4.00440
9.29345 7.09498 4.00398
9.38698 7.08913 4.00360
9.47994 7.08387 4.00327
9.57242 7.07913 4.00296
9.66447 7.07484 4.00268
9.75611 7.07099 4.00244
9.84744 7.06751 4.00221
9.93845 7.06436 4.00200
10.02918 7.06152 4.00182
10.11970 7.05894 4.00166
10.21000 7.05661 4.00150
10.30012 7.05449 4.00137
10.39007 7.05257 4.00124
10.47988 7.05083 4.00113
10.56956 7.04925 4.00103
10.65912 7.04781 4.00093
10.74858 7.04652 4.00085
10.83796 7.04533 4.00077
10.92727 7.04426 4.00070
11.01650 7.04328 4.00064
11.10568 7.04239 4.00058
11.19480 7.04159 4.00053
11.28388 7.04085 4.00048
11.37292 7.04019 4.00044
11.46195 7.03958 4.00040
11.55093 7.03903 4.00036
11.63989 7.03853 4.00033
11.72884 7.03807 4.00030
11.81778 7.03766 4.00027
11.90670 7.03728 4.00025
11.99561 7.03694 4.00023
12.08453 7.03663 4.00021
12.17343 7.03634 4.00019
12.26234 7.03608 4.00017
12.35125 7.03585 4.00015
12.44016 7.03564 4.00014
12.52909 7.03544 4.00013
12.61801 7.03526 4.00012
12.70694 7.03510 4.00011
12.79588 7.03496 4.00010
12.88483 7.03482 4.00009
12.97379 7.03470 4.00008
13.06276 7.03459 4.00007
13.15174 7.03449 4.00007
13.24073 7.03440 4.00006
13.32973 7.03432 4.00006
13.41876 7.03424 4.00005
13.50779 7.03417 4.00005
13.59683 7.03411 4.00004
13.68589 7.03405 4.00004
13.77496 7.03400 4.00003
13.86405 7.03395 4.00003
13.95315 7.03391 4.00003
14.04226 7.03387 4.00003
14.13139 7.03384 4.00002
14.22053 7.03380 4.00002
14.30969 7.03377 4.00002
14.39886 7.03375 4.00002
14.48804 7.03372 4.00002
14.57724 7.03370 4.00001
14.66645 7.03368 4.00001
14.75568 7.03366 4.00001
14.84492 7.03365 4.00001
14.93417 7.03363 4.00001
15.02344 7.03362 4.00001
15.11272 7.03361 4.00001
15.20202 7.03359 4.00001
15.29133 7.03358 4.00001
15.38065 7.03357 4.00001
15.46999 7.03357 4.00001
15.55934 7.03356 4.00000
15.64871 7.03355 4.00000
15.73809 7.03354 4.00000
15.82748 7.03354 4.00000
15.91688 7.03353 4.00000
16.00629 7.03353 4.00000
16.09572 7.03352 4.00000
16.18516 7.03352 4.00000
16.27461 7.03352 4.00000
16.36407 7.03351 4.00000
16.45354 7.03351 4.00000
16.54303 7.03351 4.00000
16.63252 7.03350 4.00000
16.72203 7.03350 4.00000
16.81155 7.03350 4.00000
16.90107 7.03350 4.00000
16.99061 7.03350 4.00000
17.08016 7.03350 4.00000
17.16971 7.03349 4.00000
17.25927 7.03349 4.00000
17.34884 7.03349 4.00000
17.43842 7.03349 4.00000
17.52801 7.03348 4.00000
17.61761 7.03349 4.00000
17.70722 7.03348 4.00000
17.79683 7.03348 4.00000
17.88645 7.03348 4.00000
17.97608 7.03348 4.00000
18.06571 7.03348 4.00000
18.15536 7.03348 4.00000
18.24501 7.03348 4.00000
18.33467 7.03348 4.00000
18.42434 7.03348 4.00000
18.51401 7.03348 4.00000
18.60369 7.03348 4.00000
18.69338 7.03348 4.00000
18.78308 7.03347 4.00000
18.87277 7.03348 4.00000
18.96249 7.03348 4.00000
19.05221 7.03348 4.00000
19.14194 7.03348 4.00000
19.23168 7.03348 4.00000
19.32142 7.03348 4.00000
19.41116 7.03348 4.00000
19.50091 7.03348 4.00000
19.59067 7.03348 4.00000
19.68045 7.03348 4.00000
19.77024 7.03348 4.00000
19.86003 7.03348 4.00000
19.94984 7.03348 4.00000
20.03964 7.03348 4.00000
20.12946 7.03348 4.00000
20.21928 7.03348 4.00000
20.30911 7.03348 4.00000
20.39894 7.03348 4.00000
20.48878 7.03348 4.00000
20.57863 7.03348 4.00000
20.66846 7.03348 4.00000
20.75830 7.03348 4.00000
20.84814 7.03348 4.00000
20.93800 7.03348 4.00000
21.02786 7.03348 4.00000
21.11773 7.03348 4.00000
21.20760 7.03348 4.00000
21.29748 7.03348 4.00000
21.38737 7.03348 4.00000
21.47726 7.03348 4.00000
21.56716 7.03348 4.00000
21.65706 7.03348 4.00000
21.74697 7.03348 4.00000
21.83689 7.03348 4.00000
21.92681 7.03348 4.00000
22.01674 7.03348 4.00000
22.10667 7.03348 4.00000
22.19661 7.03348 4.00000
22.28655 7.03348 4.00000
22.37650 7.03348 4.00000
22.46646 7.03347 4.00000
22.55640 7.03348 4.00000
22.64636 7.03348 4.00000
22.73633 7.03348 4.00000
22.82630 7.03347 4.00000
22.91626 7.03348 4.00000
23.00624 7.03348 4.00000
23.09622 7.03348 4.00000
23.18620 7.03348 4.00000
23.27620 7.03347 4.00000
23.36618 7.03348 4.00000
23.45618 7.03348 4.00000
23.54618 7.03348 4.00000
23.63618 7.03348 4.00000
23.72619 7.03348 4.00000
23.81620 7.03348 4.00000
23.90622 7.03348 4.00000
23.99624 7.03348 4.00000
24.08626 7.03348 4.00000
24.17630 7.03348 4.00000
24.26633 7.03348 4.00000
24.35637 7.03348 4.00000
24.44640 7.03348 4.00000
24.53645 7.03348 4.00000
24.62650 7.03348 4.00000
24.71655 7.03348 4.00000
24.80660 7.03348 4.00000
24.89667 7.03348 4.00000
24.98673 7.03348 4.00000
25.07679 7.03348 4.00000
25.16687 7.03347 4.00000
25.25694 7.03348 4.00000
25.34701 7.03348 4.00000
25.43710 7.03347 4.00000
25.52717 7.03348 4.00000
25.61726 7.03348 4.00000
25.70735 7.03348 4.00000
25.79744 7.03348 4.00000
25.88754 7.03348 4.00000
25.97764 7.03348 4.00000
26.06774 7.03348 4.00000
26.15785 7.03348 4.00000
26.24796 7.03348 4.00000
26.33807 7.03348 4.00000
26.42818 7.03348 4.00000
26.51830 7.03348 4.00000
26.60842 7.03348 4.00000
26.69854 7.03348 4.00000
26.78867 7.03348 4.00000
26.87880 7.03348 4.00000
26.96893 7.03348 4.00000
27.05906 7.03348 4.00000
27.14920 7.03348 4.00000
27.23934 7.03348 4.00000
27.32948 7.03348 4.00000
27.41962 7.03348 4.00000
27.50977 7.03348 4.00000
27.59992 7.03348 4.00000
27.69007 7.03348 4.00000
27.78022 7.03348 4.00000
27.87038 7.03348 4.00000
27.96054 7.03348 4.00000
28.05070 7.03348 4.00000
28.14087 7.03348 4.00000
28.23103 7.03348 4.00000
28.32120 7.03348 4.00000
28.41137 7.03348 4.00000
28.50155 7.03348 4.00000
28.59172 7.03348 4.00000
28.68190 7.03348 4.00000
28.77208 7.03348 4.00000
28.86227 7.03348 4.00000
28.95245 7.03348 4.00000
29.04264 7.03348 4.00000
29.13283 7.03348 4.00000
29.22302 7.03348 4.00000
29.31322 7.03348 4.00000
29.40342 7.03348 4.00000
29.49361 7.03348 4.00000
29.58382 7.03348 4.00000
29.67402 7.03348 4.00000
29.76423 7.03348 4.00000
29.85443 7.03348 4.00000
29.94464 7.03348 4.00000
30.03486 7.03348 4.00000
30.12507 7.03348 4.00000
30.21529 7.03348 4.00000
30.30551 7.03348 4.00000
30.39573 7.03348 4.00000
30.48594 7.03348 4.00000

Angle 0.384118 0.797717

4.00000 7.03348 4.00000
4.00000 7.03348 4.00000
4.00000 7.03348 4.00000
4.00000 7.03348 4.00000
4.00000 7.03347 4.00000
4.00000 7.03347 4.00000
4.00000 7.03348 4.00000
4.00000 7.03348 4.00000
4.00000 7.03348 4.00000
4.00000 7.03348 4.00000
4.00000 7.03348 4.00000
4.00000 7.03348 4.00000
4.00000 7.03348 4.00000
4.00000 7.03348 4.00000
4.00000 7.03348 4.00000
4.00000 7.03348 4.00000
4.00000 7.03348 4.00000
4.00000 7.03348 4.00000
4.00000 7.03348 4.00000
4.00000 7.03348 4.00000
4.00000 7.03348 4.00000
4.00000 7.03348 4.00000
4.00000 7.03348 4.00000
4.00000 7.03348 4.00000
4.00000 7.03348 4.00000
4.00000 7.03347 4.00000
4.00000 7.03348 4.00000
4.00000 7.03348 4.00000
4.00000 7.03348 4.00000
4.00000 7.03348 4.00000
4.00000 7.03348 4.00000
4.00000 7.03348 4.00000
4.00000 7.03348 4.00000
4.00000 7.03348 4.00000
4.00000 7.03348 4.00000
4.00000 7.03348 4.00000
4.00000 7.03348 4.00000
4.00000 7.03348 4.00000
4.00000 7.03348 4.00000
4.00000 7.03348 4.00000
4.00000 7.03348 4.00000
4.00000 7.03348 4.00000
4.00000 7.03348 4.00000
4.00000 7.03348 4.00000
4.00000 7.03345 4.00000
4.00000 7.03348 4.00000
4.00000 7.03349 4.00000
4.00000 7.03348 4.00000
4.00000 7.03348 4.00000
4.00000 7.03348 4.00000
4.00000 7.03348 4.00000
4.00000 7.03348 4.00000
4.00000 7.03348 4.00000
4.00000 7.03351 4.00000
4.00000 7.03348 4.00000
4.00000 7.03348 4.00000
4.00000 7.03348 4.00000
4.00000 7.03348 4.00000
4.00000 7.03348 4.00000
4.00000 7.03348 4.00000
4.00000 7.03348 4.00000
4.00000 7.03348 4.00000
4.00000 7.03348 4.00000
4.00000 7.03348 4.00000
4.00000 7.03348 4.00000
4.00000 7.03348 4.00000
4.00000 7.03348 4.00000
4.00000 7.03348 4.00000
4.00000 7.03348 4.00000
4.00000 7.03348 4.00000
4.00000 7.03348 4.00000
4.00000 7.03348 4.00000
4.00000 7.03348 4.00000
4.00000 7.03348 4.00000
4.00000 7.03347 4.00000
4.00000 7.03348 4.00000
4.00000 7.03348 4.00000
4.00000 7.03348 4.00000
4.00000 7.03348 4.00000
4.00000 7.03348 4.00000
4.00000 7.03347 4.00000
4.00000 7.03347 4.00000
4.00000 7.03347 4.00000
4.00000 7.03347 4.00000
4.00000 7.03347 4.00000
4.00000 7.03348 4.00000
4.00000 7.03348 4.00000
4.00000 7.03348 4.00000
4.00000 7.03348 4.00000
4.00000 7.03348 4.00000
4.00000 7.03348 4.00000
4.00000 7.03348 4.00000
4.00000 7.03348 4.00000
4.00000 7.03348 4.00000
4.00000 7.03347 4.00000
4.00000 7.03346 4.00000
4.00000 7.03348 4.00000
4.00000 7.03348 4.00000
4.00000 7.03348 4.00000
4.00000 7.03348 4.00000
4.00000 7.03348 4.00000
4.00000 7.03346 4.00000
4.00000 7.03348 4.00000
4.00000 7.03348 4.00000
4.00000 7.03348 4.00000
4.00000 7.03348 4.00000
4.00000 7.03349 4.00000
4.00000 7.03349 4.00000
4.00000 7.03349 4.00000
4.00000 7.03347 4.00000
4.00000 7.03349 4.00000
4.00000 7.03348 4.00000
4.00000 7.03348 4.00000
4.00000 7.03348 4.00000
4.00000 7.03348 4.00000
4.00000 7.03348 4.00000
4.00000 7.03348 4.00000
4.00000 7.03348 4.00000
4.00000 7.03349 4.00000
4.00000 7.03348 4.00000
4.00000 7.03348 4.00000
4.00000 7.03348 4.00000
4.00000 7.03348 4.00000
4.00000 7.03348 4.00000
4.00000 7.03348 4.00000
4.00000 7.03348 4.00000
4.00000 7.03349 4.00000
4.00000 7.03348 4.00000
4.00000 7.03348 4.00000
4.00000 7.03349 4.00000
4.00000 7.03348 4.00000
4.00000 7.03348 4.00000
4.00000 7.03348 4.00000
4.00000 7.03348 4.00000
4.00000 7.03348 4.00000
4.00000 7.03348 4.00000
4.00000 7.03349 4.00000
4.00000 7.03348 4.00000
4.00000 7.03348 4.00000
4.00000 7.03350 4.00000
4.00001 7.03358 4.00001
4.00153 7.05705 4.00153
4.00563 7.12079 4.00563
4.00968 7.18487 4.00968
4.01371 7.24925 4.01371
4.01772 7.31389 4.01772
4.02172 7.37877 4.02171
4.02571 7.44386 4.02571
4.02972 7.50912 4.02972
4.03375 7.57452 4.03375
4.03781 7.64001 4.03781
4.04193 7.70556 4.04193
4.04610 7.77113 4.04610
4.05036 7.83668 4.05036
4.05470 7.90215 4.05470
4.05916 7.96751 4.05916
4.06376 8.03268 4.06376
4.06851 8.09761 4.06851
4.07344 8.16223 4.07344
4.07859 8.22645 4.07859
4.08399 8.29019 4.08399
4.08968 8.35333 4.08968
4.09570 8.41577 4.09570
4.10212 8.47735 4.10212
4.10898 8.53794 4.10898
4.11637 8.59733 4.11637
4.12437 8.65533 4.12437
4.13301 8.71185 4.13301
4.14225 8.76706 4.14225
4.15210 8.82089 4.15210
4.16260 8.87329 4.16260
4.17378 8.92421 4.17378
4.18565 8.97360 4.18565
4.19825 9.02141 4.19825
4.21160 9.06763 4.21160
4.22571 9.11221 4.22571
4.24060 9.15514 4.24060
4.25628 9.19641 4.25628
4.27277 9.23600 4.27277
4.29008 9.27391 4.29008
4.30821 9.31012 4.30821
4.32718 9.34463 4.32718
4.34701 9.37741 4.34701
4.36771 9.40844 4.36771
4.38931 9.43768 4.38931
4.41183 9.46507 4.41183
4.43532 9.49053 4.43532
4.45982 9.51396 4.45982
4.48540 9.53522 4.48540
4.51214 9.55414 4.51214
4.54013 9.57051 4.54012
4.56948 9.58408 4.56948
4.60033 9.59459 4.60033
4.63280 9.60173 4.63281
4.66709 9.60520 4.66702
7.40123 7.50900 4.02971
7.55456 7.43602 4.02523
7.68982 7.38090 4.02184
7.81371 7.33705 4.01914
7.92973 7.30103 4.01692
8.03996 7.27082 4.01505
8.14577 7.24506 4.01345
8.24808 7.22285 4.01206
8.34757 7.20351 4.01085
8.44474 7.18656 4.00979
8.53999 7.17161 4.00885
8.63362 7.15834 4.00801
8.72588 7.14654 4.00726
8.81696 7.13599 4.00660
8.90702 7.12654 4.00599
8.99621 7.11804 4.00545
9.08464 7.11039 4.00496
9.17240 7.10349 4.00452
9.25959 7.09725 4.00412
9.34628 7.09160 4.00376
9.43252 7.08648 4.00343
9.51837 7.08184 4.00313
9.60390 7.07761 4.00285
9.68911 7.07378 4.00261
9.77407 7.07027 4.00239
9.85879 7.06711 4.00218
9.94333 7.06420 4.00200
10.02771 7.06155 4.00182
10.11189 7.05915 4.00167
10.19599 7.05694 4.00152
10.27997 7.05492 4.00140
10.36382 7.05311 4.00128
10.44763 7.05143 4.00117
10.53136 7.04990 4.00107
10.61504 7.04851 4.00098
10.69867 7.04723 4.00090
10.78229 7.04605 4.00082
10.86587 7.04498 4.00075
10.94943 7.04400 4.00069
11.03298 7.04311 4.00063
11.11654 7.04229 4.00057
11.20010 7.04155 4.00052
11.28366 7.04086 4.00048
11.36726 7.04023 4.00044
11.45084 7.03966 4.00041
11.53445 7.03914 4.00037
11.61810 7.03864 4.00034
11.70176 7.03821 4.00031
11.78546 7.03780 4.00028
11.86919 7.03744 4.00026
11.95295 7.03710 4.00024
12.03677 7.03677 4.00021
12.12059 7.03651 4.00020
12.20445 7.03625 4.00018
12.28837 7.03602 4.00017
12.37232 7.03580 4.00015
12.45632 7.03560 4.00014
12.54036 7.03542 4.00013
12.62444 7.03525 4.00012
12.70858 7.03509 4.00011
12.79275 7.03496 4.00010
12.87697 7.03483 4.00009
12.96124 7.03471 4.00009
13.04555 7.03461 4.00007
13.12990 7.03451 4.00007
13.21430 7.03443 4.00006
13.29875 7.03434 4.00006
13.38325 7.03427 4.00005
13.46780 7.03420 4.00005
13.55240 7.03414 4.00005
13.63705 7.03408 4.00004
13.72174 7.03403 4.00004
13.80647 7.03398 4.00004
13.89125 7.03394 4.00003
13.97608 7.03390 4.00003
14.06095 7.03386 4.00003
14.14587 7.03383 4.00003
14.23066 7.03380 4.00002
14.31565 7.03377 4.00002
14.40068 7.03375 4.00002
14.48576 7.03372 4.00002
14.57088 7.03370 4.00001
14.65603 7.03368 4.00001
14.74124 7.03367 4.00001
14.82648 7.03365 4.00001
14.91176 7.03363 4.00001
14.99708 7.03362 4.00001
15.08245 7.03361 4.00001
15.16785 7.03360 4.00001
15.25329 7.03359 4.00001
15.33877 7.03358 4.00001
15.42429 7.03357 4.00001
15.50985 7.03356 4.00001
15.59544 7.03355 4.00001
15.68107 7.03355 4.00000
15.76674 7.03354 4.00000
15.85244 7.03354 4.00000
15.93818 7.03353 4.00000
16.02395 7.03353 4.00000
16.10976 7.03352 4.00000
16.19561 7.03352 4.00000
16.28148 7.03352 4.00000
16.36740 7.03351 4.00000
16.45334 7.03351 4.00000
16.53932 7.03351 4.00000
16.62533 7.03350 4.00000
16.71138 7.03350 4.00000
16.79745 7.03350 4.00000
16.88356 7.03350 4.00000
16.96970 7.03350 4.00000
17.05587 7.03350 4.00000
17.14208 7.03349 4.00000
17.22831 7.03349 4.00000
17.31457 7.03349 4.00000
17.40087 7.03349 4.00000
17.48719 7.03349 4.00000
17.57354 7.03349 4.00000
17.65993 7.03349 4.00000
17.74634 7.03349 4.00000
17.83278 7.03349 4.00000
17.91925 7.03349 4.00000
18.00575 7.03349 4.00000
18.09227 7.03348 4.00000
18.17882 7.03348 4.00000
18.26541 7.03348 4.00000
18.35201 7.03348 4.00000
18.43865 7.03348 4.00000
18.52531 7.03348 4.00000
18.61200 7.03348 4.00000
18.69871 7.03348 4.00000
18.78545 7.03348 4.00000
18.87222 7.03348 4.00000
18.95901 7.03348 4.00000
19.04583 7.03348 4.00000
19.13266 7.03348 4.00000
19.21953 7.03348 4.00000
19.30642 7.03348 4.00000
19.39333 7.03348 4.00000
19.48027 7.03348 4.00000
19.56723 7.03348 4.00000
19.65421 7.03348 4.00000
19.74122 7.03347 4.00000
19.82825 7.03348 4.00000
19.91530 7.03347 4.00000
20.00238 7.03347 4.00000
20.08947 7.03347 4.00000
20.17659 7.03347 4.00000
20.26373 7.03347 4.00000
20.35089 7.03347 4.00000
20.43807 7.03347 4.00000
20.52528 7.03347 4.00000
20.61250 7.03347 4.00000
20.69974 7.03347 4.00000
20.78701 7.03347 4.00000
20.87430 7.03347 4.00000
20.96160 7.03347 4.00000
21.04893 7.03347 4.00000
21.13627 7.03347 4.00000
21.22364 7.03347 4.00000
21.31101 7.03348 4.00000
21.39841 7.03348 4.00000
21.48584 7.03348 4.00000
21.57328 7.03348 4.00000
21.66074 7.03348 4.00000
21.74822 7.03348 4.00000
21.83572 7.03348 4.00000
21.92323 7.03348 4.00000
22.01076 7.03348 4.00000
22.09832 7.03348 4.00000
22.18588 7.03348 4.00000
22.27347 7.03348 4.00000
22.36108 7.03348 4.00000
22.44870 7.03348 4.00000
22.53634 7.03348 4.00000
22.62399 7.03348 4.00000
22.71166 7.03348 4.00000
22.79935 7.03348 4.00000
22.88706 7.03348 4.00000
22.97478 7.03348 4.00000
23.06252 7.03348 4.00000
23.15028 7.03348 4.00000
23.23805 7.03347 4.00000
23.32583 7.03348 4.00000
23.41364 7.03348 4.00000
23.50145 7.03348 4.00000
23.58929 7.03348 4.00000
23.67714 7.03348 4.00000
23.76500 7.03348 4.00000
23.85288 7.03348 4.00000
23.94078 7.03348 4.00000
24.02869 7.03348 4.00000
24.11662 7.03348 4.00000
24.20456 7.03348 4.00000
24.29251 7.03348 4.00000
24.38048 7.03348 4.00000
24.46846 7.03348 4.00000
24.55646 7.03348 4.00000
24.64447 7.03348 4.00000
24.73250 7.03348 4.00000
24.82054 7.03348 4.00000
24.90860 7.03348 4.00000
24.99666 7.03348 4.00000
25.08475 7.03348 4.00000
25.17285 7.03347 4.00000
25.26095 7.03348 4.00000

Angle 0.430266 0.393376

4.00000 7.03348 4.00000
4.00000 7.03348 4.00000
4.00000 7.03348 4.00000
4.00000 7.03350 4.00000
4.00000 7.03348 4.00000
4.00000 7.03348 4.00000
4.00000 7.03348 4.00000
4.00000 7.03348 4.00000
4.00000 7.03348 4.00000
4.00000 7.03348 4.00000
4.00000 7.03348 4.00000
4.00000 7.03348 4.00000
4.00000 7.03348 4.00000
4.00000 7.03348 4.00000
4.00000 7.03348 4.00000
4.00000 7.03348 4.00000
4.00000 7.03348 4.00000
4.00000 7.03348 4.00000
4.00000 7.03348 4.00000
4.00000 7.03348 4.00000
4.00000 7.03348 4.00000
4.00000 7.03348 4.00000
4.00000 7.03348 4.00000
4.00000 7.03348 4.00000
4.00000 7.03348 4.00000
4.00000 7.03348 4.00000
4.00000 7.03348 4.00000
4.00000 7.03348 4.00000
4.00000 7.03350 4.00000
4.00000 7.03348 4.00000
4.00000 7.03348 4.00000
4.00000 7.03348 4.00000
4.00000 7.03348 4.00000
4.00000 7.03348 4.00000
4.00000 7.03348 4.00000
4.00000 7.03348 4.00000
4.00000 7.03348 4.00000
4.00000 7.03348 4.00000
4.00000 7.03348 4.00000
4.00000 7.03348 4.00000
4.00000 7.03348 4.00000
4.00000 7.03348 4.00000
4.00000 7.03348 4.00000
4.00000 7.03349 4.00000
4.00000 7.03348 4.00000
4.00000 7.03348 4.00000
4.00000 7.03348 4.00000
4.00000 7.03348 4.00000
4.00000 7.03348 4.00000
4.00000 7.03348 4.00000
4.00000 7.03348 4.00000
4.00000 7.03348 4.00000
4.00000 7.03348 4.00000
4.00000 7.03348 4.00000
4.00000 7.03348 4.00000
4.00000 7.03348 4.00000
4.00000 7.03348 4.00000
4.00000 7.03348 4.00000
4.00000 7.03348 4.00000
4.00000 7.03348 4.00000
4.00000 7.03348 4.00000
4.00000 7.03348 4.00000
4.00000 7.03348 4.00000
4.00000 7.03348 4.00000
4.00000 7.03348 4.00000
4.00000 7.03348 4.00000
4.00000 7.03348 4.00000
4.00000 7.03348 4.00000
4.00000 7.03348 4.00000
4.00000 7.03348 4.00000
4.00000 7.03348 4.00000
4.00000 7.03348 4.00000
4.00000 7.03348 4.00000
4.00000 7.03348 4.00000
4.00000 7.03351 4.00000
4.00000 7.03348 4.00000
4.00000 7.03348 4.00000
4.00000 7.03348 4.00000
4.00000 7.03348 4.00000
4.00000 7.03348 4.00000
4.00000 7.03348 4.00000
4.00000 7.03349 4.00000
4.00000 7.03347 4.00000
4.00000 7.03348 4.00000
4.00000 7.03348 4.00000
4.00430 7.09996 4.00430
4.00908 7.17523 4.00908
4.01380 7.25074 4.01380
4.01849 7.32642 4.01849
4.02315 7.40223 4.02315
4.02781 7.47813 4.02781
4.03248 7.55406 4.03248
4.03719 7.62995 4.03719
4.04194 7.70578 4.04194
4.04677 7.78146 4.04677
4.05169 7.85694 4.05169
4.05673 7.93216 4.05673
4.06193 8.00702 4.06193
4.06731 8.08146 4.06731
4.07291 8.15536 4.07291
4.07877 8.22862 4.07877
4.08495 8.30111 4.08495
4.09150 8.37268 4.09150
4.09849 8.44317 4.09849
4.10601 8.51234 4.10601
4.11414 8.58000 4.11414
4.12300 8.64584 4.12300
4.13267 8.70969 4.13267
4.14307 8.77177 4.14307
4.15424 8.83200 4.15424
4.16622 8.89032 4.16622
4.17904 8.94668 4.17904
4.19274 9.00102 4.19274
4.20733 9.05329 4.20733
4.22284 9.10347 4.22284
4.23930 9.15154 4.23930
4.25671 9.19749 4.25671
4.27510 9.24131 4.27510
4.29447 9.28299 4.29447
4.31484 9.32254 4.31484
4.33621 9.35995 4.33621
4.35861 9.39519 4.35862
4.38207 9.42822 4.38207
4.40661 9.45899 4.40661
4.43228 9.48741 4.43228
4.45914 9.51335 4.45914
4.48727 9.53665 4.48727
4.51677 9.55709 4.51678
4.54777 9.57439 4.54777
4.58042 9.58824 4.58042
4.61487 9.59827 4.61488
4.65131 9.60410 4.65132
4.03175 7.54224 7.33888
4.02630 7.45358 7.51532
4.02239 7.38988 7.66637
4.01937 7.34071 7.80268
4.01693 7.30118 7.92924
4.01491 7.26854 8.04882
4.01321 7.24111 8.16316
4.01174 7.21772 8.27345
4.01048 7.19757 8.38048
4.00938 7.18007 8.48488
4.00842 7.16477 8.58708
4.00757 7.15131 8.68746
4.00681 7.13942 8.78629
4.00614 7.12888 8.88380
4.00555 7.11950 8.98018
4.00501 7.11114 9.07557
4.00453 7.10366 9.17012
4.00410 7.09695 9.26392
4.00372 7.09093 9.35707
4.00337 7.08552 9.44964
4.00306 7.08064 9.54173
4.00277 7.07625 9.63336
4.00252 7.07228 9.72460
4.00229 7.06869 9.81551
4.00208 7.06545 9.90610
4.00189 7.06252 9.99642
4.00171 7.05986 10.08651
4.00156 7.05745 10.17638
4.00142 7.05527 10.26606
4.00129 7.05329 10.35558
4.00117 7.05148 10.44496
4.00107 7.04985 10.53420
4.00097 7.04837 10.62333
4.00088 7.04702 10.71236
4.00080 7.04580 10.80130
4.00073 7.04469 10.89017
4.00067 7.04368 10.97897
4.00061 7.04276 11.06772
4.00055 7.04192 11.15641
4.00050 7.04116 11.24506
4.00046 7.04047 11.33368
4.00041 7.03985 11.42227
4.00038 7.03927 11.51083
4.00034 7.03875 11.59937
4.00031 7.03828 11.68790
4.00029 7.03785 11.77641
4.00026 7.03745 11.86493
4.00024 7.03709 11.95343
4.00021 7.03677 12.04193
4.00020 7.03648 12.13043
4.00018 7.03621 12.21893
4.00016 7.03596 12.30743
4.00015 7.03574 12.39595
4.00013 7.03554 12.48446
4.00012 7.03535 12.57300
4.00011 7.03518 12.66153
4.00010 7.03503 12.75008
4.00009 7.03489 12.83864
4.00008 7.03476 12.92721
4.00008 7.03465 13.01580
4.00007 7.03455 13.10439
4.00006 7.03445 13.19300
4.00006 7.03436 13.28163
4.00005 7.03428 13.37028
4.00005 7.03421 13.45894
4.00004 7.03414 13.54761
4.00004 7.03408 13.63630
4.00004 7.03403 13.72501
4.00003 7.03398 13.81374
4.00003 7.03393 13.90247
4.00003 7.03389 13.99123
4.00002 7.03386 14.08001
4.00002 7.03382 14.16880
4.00002 7.03379 14.25760
4.00002 7.03376 14.34643
4.00002 7.03374 14.43527
4.00002 7.03369 14.52414
4.00001 7.03369 14.61299
4.00001 7.03367 14.70188
4.00001 7.03366 14.79079
4.00001 7.03364 14.87971
4.00001 7.03363 14.96865
4.00001 7.03361 15.05760
4.00001 7.03360 15.14657
4.00001 7.03359 15.23556
4.00001 7.03358 15.32456
4.00001 7.03357 15.41358
4.00001 7.03356 15.50261
4.00000 7.03355 15.59166
4.00000 7.03355 15.68073
4.00000 7.03354 15.76980
4.00000 7.03354 15.85890
4.00000 7.03353 15.94799
4.00000 7.03353 16.03711
4.00000 7.03352 16.12623
4.00000 7.03352 16.21537
4.00000 7.03352 16.30453
4.00000 7.03351 16.39369
4.00000 7.03351 16.48287
4.00000 7.03351 16.57206
4.00000 7.03350 16.66127
4.00000 7.03350 16.75049
4.00000 7.03350 16.83972
4.00000 7.03350 16.92896
4.00000 7.03350 17.01821
4.00000 7.03350 17.10748
4.00000 7.03349 17.19676
4.00000 7.03349 17.28605
4.00000 7.03349 17.37535
4.00000 7.03349 17.46466
4.00000 7.03349 17.55399
4.00000 7.03349 17.64333
4.00000 7.03348 17.73268
4.00000 7.03349 17.82203
4.00000 7.03349 17.91139
4.00000 7.03349 18.00077
4.00000 7.03348 18.09017
4.00000 7.03348 18.17957
4.00000 7.03348 18.26898
4.00000 7.03348 18.35839
4.00000 7.03348 18.44783
4.00000 7.03348 18.53726
4.00000 7.03348 18.62670
4.00000 7.03348 18.71617
4.00000 7.03348 18.80564
4.00000 7.03348 18.89511
4.00000 7.03348 18.98459
4.00000 7.03348 19.07408
4.00000 7.03348 19.16358
4.00000 7.03348 19.25309
4.00000 7.03348 19.34260
4.00000 7.03348 19.43212
4.00000 7.03348 19.52166
4.00000 7.03348 19.61120
4.00000 7.03348 19.70075
4.00000 7.03348 19.79030
4.00000 7.03348 19.87987
4.00000 7.03348 19.96944
4.00000 7.03348 20.05903
4.00000 7.03348 20.14861
4.00000 7.03348 20.23821
4.00000 7.03348 20.32782
4.00000 7.03348 20.41743
4.00000 7.03348 20.50705
4.00000 7.03348 20.59668
4.00000 7.03348 20.68631
4.00000 7.03348 20.77596
4.00000 7.03348 20.86561
4.00000 7.03347 20.95527
4.00000 7.03348 21.04493
4.00000 7.03348 21.13460
4.00000 7.03347 21.22429
4.00000 7.03348 21.31396
4.00000 7.03348 21.40366
4.00000 7.03348 21.49336
4.00000 7.03348 21.58307
4.00000 7.03348 21.67278
4.00000 7.03348 21.76250
4.00000 7.03348 21.85223
4.00000 7.03348 21.94197
4.00000 7.03348 22.03171
4.00000 7.03348 22.12146
4.00000 7.03348 22.21121
4.00000 7.03348 22.30097
4.00000 7.03348 22.39073
4.00000 7.03348 22.48051
4.00000 7.03348 22.57028
4.00000 7.03348 22.66007
4.00000 7.03348 22.74986
4.00000 7.03348 22.83965
4.00000 7.03348 22.92945
4.00000 7.03348 23.01925
4.00000 7.03348 23.10906
4.00000 7.03348 23.19888
4.00000 7.03348 23.28870
4.00000 7.03348 23.37853
4.00000 7.03348 23.46836
4.00000 7.03348 23.55819
4.00000 7.03348 23.64804
4.00000 7.03348 23.73788
4.00000 7.03348 23.82774
4.00000 7.03348 23.91760
4.00000 7.03348 24.00746
4.00000 7.03348 24.09733
4.00000 7.03348 24.18720
4.00000 7.03348 24.27708
4.00000 7.03348 24.36697
4.00000 7.03348 24.45685
4.00000 7.03348 24.54675
4.00000 7.03348 24.63665
4.00000 7.03348 24.72655
4.00000 7.03348 24.81646
4.00000 7.03348 24.90637
4.00000 7.03348 24.99629
4.00000 7.03348 25.08622
4.00000 7.03348 25.17615
4.00000 7.03348 25.26608
4.00000 7.03348 25.35602
4.00000 7.03348 25.44596
4.00000 7.03348 25.53590
4.00000 7.03348 25.62586
4.00000 7.03348 25.71581
4.00000 7.03348 25.80577
4.00000 7.03348 25.89574
4.00000 7.03348 25.98571
4.00000 7.03348 26.07568
4.00000 7.03348 26.16564
4.00000 7.03348 26.25561
4.00000 7.03349 26.34557
4.00000 7.03349 26.43554
4.00000 7.03348 26.52552
4.00000 7.03348 26.61550
4.00000 7.03348 26.70549
4.00000 7.03348 26.79548
4.00000 7.03348 26.88548
4.00000 7.03348 26.97548
4.00000 7.03348 27.06548
4.00000 7.03348 27.15549
4.00000 7.03348 27.24550
4.00000 7.03347 27.33554
4.00000 7.03348 27.42558
4.00000 7.03348 27.51559
4.00000 7.03348 27.60563
4.00000 7.03348 27.69566
4.00000 7.03348 27.78571
4.00000 7.03348 27.87577
4.00000 7.03348 27.96581
4.00000 7.03348 28.05586
4.00000 7.03348 28.14593
4.00000 7.03348 28.23599
4.00000 7.03348 28.32606
4.00000 7.03348 28.41614
4.00000 7.03348 28.50621
4.00000 7.03348 28.59629
4.00000 7.03348 28.68637
4.00000 7.03348 28.77646
4.00000 7.03348 28.86656
4.00000 7.03348 28.95665
4.00000 7.03348 29.04675
4.00000 7.03348 29.13686
4.00000 7.03348 29.22696
4.00000 7.03348 29.31708
4.00000 7.03348 29.40719
4.00000 7.03348 29.49731
4.00000 7.03348 29.58743
4.00000 7.03348 29.67755
4.00000 7.03348 29.76768
4.00000 7.03348 29.85782
4.00000 7.03348 29.94797
4.00000 7.03348 30.03811
4.00000 7.03348 30.12827
4.00000 7.03348 30.21841
4.00000 7.03348 30.30857
4.00000 7.03348 30.39874
4.00000 7.03348 30.48890
4.00000 7.03348 30.57907
4.00000 7.03348 30.66923
4.00000 7.03348 30.75939
4.00000 7.03348 30.84958
4.00000 7.03348 30.93976
4.00000 7.03348 31.02994
4.00000 7.03348 31.12012
4.00000 7.03348 31.21031
4.00000 7.03348 31.30049
4.00000 7.03348 31.39068
4.00000 7.03348 31.48088
4.00000 7.03348 31.57107
4.00000 7.03348 31.66127

Angle 0.322932 3.229834

4.00000 7.03348 4.00000
4.00000 7.03348 4.00000
4.00000 7.03348 4.00000
4.00000 7.03347 4.00000
4.00000 7.03348 4.00000
4.00000 7.03348 4.00000
4.00000 7.03348 4.00000
4.00000 7.03348 4.00000
4.00000 7.03348 4.00000
4.00000 7.03348 4.00000
4.00000 7.03348 4.00000
4.00000 7.03348 4.00000
4.00000 7.03348 4.00000
4.00000 7.03348 4.00000
4.00000 7.03348 4.00000
4.00000 7.03348 4.00000
4.00000 7.03348 4.00000
4.00000 7.03348 4.00000
4.00000 7.03348 4.00000
4.00000 7.03348 4.00000
4.00000 7.03348 4.00000
4.00000 7.03348 4.00000
4.00000 7.03348 4.00000
4.00000 7.03348 4.00000
4.00000 7.03348 4.00000
4.00000 7.03348 4.00000
4.00000 7.03348 4.00000
4.00000 7.03348 4.00000
4.00000 7.03348 4.00000
4.00000 7.03348 4.00000
4.00000 7.03348 4.00000
4.00000 7.03348 4.00000
4.00000 7.03348 4.00000
4.00000 7.03348 4.00000
4.00000 7.03348 4.00000
4.00000 7.03348 4.00000
4.00000 7.03348 4.00000
4.00000 7.03348 4.00000
4.00000 7.03348 4.00000
4.00000 7.03347 4.00000
4.00000 7.03347 4.00000
4.00000 7.03348 4.00000
4.00000 7.03348 4.00000
4.00000 7.03348 4.00000
4.00000 7.03348 4.00000
4.00000 7.03348 4.00000
4.00000 7.03348 4.00000
4.00000 7.03348 4.00000
4.00000 7.03348 4.00000
4.00000 7.03348 4.00000
4.00000 7.03348 4.00000
4.00000 7.03348 4.00000
4.00000 7.03348 4.00000
4.00000 7.03348 4.00000
4.00000 7.03347 4.00000
4.00000 7.03348 4.00000
4.00000 7.03348 4.00000
4.00000 7.03348 4.00000
4.00000 7.03348 4.00000
4.00000 7.03348 4.00000
4.00000 7.03348 4.00000
4.00000 7.03348 4.00000
4.00000 7.03348 4.00000
4.00000 7.03348 4.00000
4.00000 7.03348 4.00000
4.00000 7.03348 4.00000
4.00000 7.03348 4.00000
4.00000 7.03348 4.00000
4.00000 7.03348 4.00000
4.00000 7.03348 4.00000
4.00000 7.03348 4.00000
4.00000 7.03348 4.00000
4.00000 7.03348 4.00000
4.00000 7.03348 4.00000
4.00000 7.03348 4.00000
4.00000 7.03346 4.00000
4.00000 7.03348 4.00000
4.00000 7.03349 4.00000
4.00000 7.03348 4.00000
4.00000 7.03348 4.00000
4.00000 7.03348 4.00000
4.00000 7.03348 4.00000
4.00000 7.03348 4.00000
4.00000 7.03348 4.00000
4.00000 7.03348 4.00000
4.00000 7.03348 4.00000
4.00000 7.03348 4.00000
4.00000 7.03348 4.00000
4.00000 7.03348 4.00000
4.00000 7.03348 4.00000
4.00000 7.03348 4.00000
4.00000 7.03348 4.00000
4.00000 7.03348 4.00000
4.00000 7.03348 4.00000
4.00000 7.03348 4.00000
4.00000 7.03348 4.00000
4.00000 7.03348 4.00000
4.00000 7.03348 4.00000
4.00000 7.03348 4.00000
4.00000 7.03348 4.00000
4.00000 7.03348 4.00000
4.00000 7.03348 4.00000
4.00000 7.03348 4.00000
4.00000 7.03348 4.00000
4.00000 7.03348 4.00000
4.00000 7.03348 4.00000
4.00000 7.03348 4.00000
4.00000 7.03348 4.00000
4.00000 7.03348 4.00000
4.00000 7.03348 4.00000
4.00000 7.03348 4.00000
4.00000 7.03348 4.00000
4.00000 7.03348 4.00000
4.00000 7.03348 4.00000
4.00000 7.03348 4.00000
4.00000 7.03348 4.00000
4.00000 7.03348 4.00000
4.00000 7.03348 4.00000
4.00000 7.03348 4.00000
4.00000 7.03348 4.00000
4.00000 7.03348 4.00000
4.00000 7.03348 4.00000
4.00000 7.03348 4.00000
4.00000 7.03348 4.00000
4.00000 7.03348 4.00000
4.00000 7.03348 4.00000
4.00000 7.03348 4.00000
4.00000 7.03348 4.00000
4.00000 7.03348 4.00000
4.00000 7.03348 4.00000
4.00000 7.03348 4.00000
4.00000 7.03348 4.00000
4.00000 7.03348 4.00000
4.00000 7.03348 4.00000
4.00000 7.03348 4.00000
4.00000 7.03348 4.00000
4.00000 7.03348 4.00000
4.00000 7.03348 4.00000
4.00000 7.03348 4.00000
4.00000 7.03348 4.00000
4.00000 7.03348 4.00000
4.00000 7.03348 4.00000
4.00000 7.03348 4.00000
4.00000 7.03348 4.00000
4.00000 7.03348 4.00000
4.00000 7.03348 4.00000
4.00000 7.03348 4.00000
4.00000 7.03348 4.00000
4.00000 7.03348 4.00000
4.00000 7.03348 4.00000
4.00000 7.03348 4.00000
4.00000 7.03348 4.00000
4.00000 7.03348 4.00000
4.00000 7.03348 4.00000
4.00000 7.03348 4.00000
4.00000 7.03348 4.00000
4.00000 7.03348 4.00000
4.00000 7.03347 4.00000
4.00000 7.03348 4.00000
4.00000 7.03348 4.00000
4.00000 7.03348 4.00000
4.00000 7.03348 4.00000
4.00000 7.03348 4.00000
4.00000 7.03348 4.00000
4.00000 7.03348 4.00000
4.00000 7.03348 4.00000
4.00000 7.03348 4.00000
4.00000 7.03348 4.00000
4.00000 7.03348 4.00000
4.00000 7.03348 4.00000
4.00000 7.03348 4.00000
4.00000 7.03348 4.00000
4.00000 7.03348 4.00000
4.00000 7.03348 4.00000
4.00000 7.03348 4.00000
4.00000 7.03348 4.00000
4.00000 7.03349 4.00000
4.00000 7.03348 4.00000
4.00000 7.03347 4.00000
4.00000 7.03348 4.00000
4.00000 7.03348 4.00000
4.00000 7.03348 4.00000
4.00000 7.03348 4.00000
4.00000 7.03348 4.00000
4.00000 7.03348 4.00000
4.00000 7.03348 4.00000
4.00000 7.03347 4.00000
4.00000 7.03349 4.00000
4.00000 7.03348 4.00000
4.00169 7.05948 4.00169
4.00595 7.12576 4.00595
4.01016 7.19237 4.01016
4.01433 7.25926 4.01433
4.01849 7.32639 4.01849
4.02263 7.39374 4.02263
4.02678 7.46125 4.02678
4.03093 7.52890 4.03093
4.03512 7.59665 4.03512
4.03934 7.66446 4.03934
4.04362 7.73227 4.04362
4.04797 7.80006 4.04797
4.05241 7.86777 4.05241
4.05695 7.93535 4.05695
4.06163 8.00273 4.06163
4.06645 8.06985 4.06645
4.07146 8.13664 4.07146
4.07668 8.20302 4.07668
4.08215 8.26889 4.08215
4.08791 8.33415 4.08791
4.09401 8.39866 4.09401
4.10050 8.46230 4.10050
4.10745 8.52489 4.10745
4.11493 8.58624 4.11493
4.12304 8.64613 4.12304
4.13183 8.70443 4.13183
4.14125 8.76131 4.14124
4.15130 8.81673 4.15130
4.16204 8.87063 4.16204
4.17348 8.92294 4.17348
4.18566 8.97363 4.18566
4.19859 9.02265 4.19859
4.21231 9.06996 4.21231
4.22682 9.11555 4.22682
4.24215 9.15939 4.24215
4.25831 9.20147 4.25831
4.27531 9.24177 4.27530
4.29316 9.28030 4.29316
4.31187 9.31704 4.31187
4.33147 9.35198 4.33147
4.35195 9.38510 4.35195
4.37335 9.41638 4.37335
4.39569 9.44575 4.39569
4.41900 9.47317 4.41899
4.44332 9.49853 4.44332
4.46872 9.52172 4.46872
4.49526 9.54258 4.49526
4.52304 9.56092 4.52304
4.55216 9.57651 4.55216
4.58275 9.58907 4.58275
4.61495 9.59829 4.61495
4.64890 9.60386 4.64890
4.68428 9.60547 4.68524
4.02722 7.46849 7.48326
4.02331 7.40480 7.62872
4.02028 7.35544 7.75969
4.01782 7.31557 7.88109
4.01578 7.28253 7.99565
4.01404 7.25461 8.10508
4.01256 7.23071 8.21053
4.01126 7.21004 8.31279
4.01013 7.19199 8.41248
4.00914 7.17614 8.51002
4.00825 7.16215 8.60577
4.00747 7.14973 8.70001
4.00677 7.13867 8.79296
4.00614 7.12878 8.88481
4.00557 7.11992 8.97570
4.00506 7.11196 9.06577
4.00461 7.10480 9.15510
4.00419 7.09833 9.24383
4.00382 7.09249 9.33200
4.00348 7.08721 9.41969
4.00317 7.08242 9.50696
4.00289 7.07809 9.59384
4.00264 7.07415 9.68042
4.00241 7.07058 9.76669
4.00220 7.06732 9.85273
4.00200 7.06434 9.93857
4.00183 7.06167 10.02418
4.00167 7.05919 10.10966
4.00153 7.05698 10.19495
4.00139 7.05491 10.28017
4.00128 7.05308 10.36521
4.00116 7.05137 10.45022
4.00106 7.04984 10.53511
4.00097 7.04841 10.61998
4.00089 7.04713 10.70475
4.00081 7.04596 10.78949
4.00074 7.04489 10.87420
4.00068 7.04390 10.95889
4.00062 7.04300 11.04356
4.00056 7.04217 11.12823
4.00052 7.04140 11.21289
4.00047 7.04075 11.29751
4.00043 7.04012 11.38216
4.00040 7.03955 11.46682
4.00036 7.03903 11.55149
4.00033 7.03855 11.63618
4.00030 7.03812 11.72088
4.00028 7.03771 11.80561
4.00025 7.03735 11.89036
4.00023 7.03701 11.97515
4.00021 7.03671 12.05995
4.00019 7.03643 12.14480
4.00018 7.03618 12.22966
4.00016 7.03594 12.31457
4.00015 7.03573 12.39950
4.00014 7.03554 12.48448
4.00012 7.03537 12.56947
4.00011 7.03520 12.65451
4.00010 7.03505 12.73960
4.00009 7.03491 12.82472
4.00009 7.03479 12.90988
4.00008 7.03467 12.99508
4.00007 7.03457 13.08030
4.00007 7.03448 13.16557
4.00006 7.03439 13.25089
4.00005 7.03431 13.33624
4.00005 7.03424 13.42163
4.00005 7.03417 13.50706
4.00004 7.03411 13.59254
4.00004 7.03406 13.67806
4.00003 7.03401 13.76359
4.00003 7.03396 13.84918
4.00003 7.03392 13.93481
4.00003 7.03388 14.02049
4.00003 7.03385 14.10620
4.00002 7.03381 14.19195
4.00002 7.03378 14.27774
4.00002 7.03376 14.36358
4.00002 7.03374 14.44943
4.00002 7.03371 14.53535
4.00002 7.03369 14.62129
4.00001 7.03368 14.70726
4.00001 7.03366 14.79329
4.00001 7.03364 14.87934
4.00001 7.03364 14.96542
4.00001 7.03361 15.05156
4.00001 7.03360 15.13772
4.00001 7.03359 15.22392
4.00001 7.03358 15.31016
4.00001 7.03357 15.39643
4.00001 7.03356 15.48274
4.00001 7.03356 15.56907
4.00001 7.03355 15.65545
4.00000 7.03355 15.74185
4.00000 7.03354 15.82828
4.00000 7.03353 15.91476
4.00000 7.03353 16.00126
4.00000 7.03352 16.08776
4.00000 7.03352 16.17429
4.00000 7.03352 16.26085
4.00000 7.03351 16.34745
4.00000 7.03350 16.43408
4.00000 7.03351 16.52072
4.00000 7.03350 16.60741
4.00000 7.03350 16.69412
4.00000 7.03349 16.78087
4.00000 7.03349 16.86764
4.00000 7.03349 16.95443
4.00000 7.03349 17.04126
4.00000 7.03349 17.12811
4.00000 7.03349 17.21499
4.00000 7.03349 17.30190
4.00000 7.03348 17.38883
4.00000 7.03348 17.47579
4.00000 7.03348 17.56278
4.00000 7.03348 17.64979
4.00000 7.03348 17.73682
4.00000 7.03348 17.82389
4.00000 7.03348 17.91097
4.00000 7.03348 17.99808
4.00000 7.03348 18.08521
4.00000 7.03348 18.17236
4.00000 7.03348 18.25955
4.00000 7.03348 18.34675
4.00000 7.03348 18.43398
4.00000 7.03348 18.52123
4.00000 7.03348 18.60850
4.00000 7.03348 18.69580
4.00000 7.03348 18.78312
4.00000 7.03348 18.87046
4.00000 7.03348 18.95782
4.00000 7.03348 19.04520
4.00000 7.03348 19.13261
4.00000 7.03348 19.22004
4.00000 7.03348 19.30748
4.00000 7.03348 19.39494
4.00000 7.03348 19.48242
4.00000 7.03348 19.56992
4.00000 7.03348 19.65744
4.00000 7.03348 19.74498
4.00000 7.03348 19.83254
4.00000 7.03348 19.92012
4.00000 7.03347 20.00774
4.00000 7.03348 20.09536
4.00000 7.03348 20.18300
4.00000 7.03348 20.27067
4.00000 7.03348 20.35835
4.00000 7.03348 20.44605
4.00000 7.03348 20.53377
4.00000 7.03348 20.62151
4.00000 7.03348 20.70927
4.00000 7.03348 20.79704
4.00000 7.03348 20.88483
4.00000 7.03348 20.97264
4.00000 7.03348 21.06046
4.00000 7.03348 21.14830
4.00000 7.03348 21.23616
4.00000 7.03348 21.32404

Angle 0.445728 1.226262

4.00000 7.03348 4.00000
4.00000 7.03348 4.00000
4.00000 7.03348 4.00000
4.00000 7.03348 4.00000
4.00000 7.03348 4.00000
4.00000 7.03348 4.00000
4.00000 7.03348 4.00000
4.00000 7.03349 4.00000
4.00000 7.03348 4.00000
4.00000 7.03348 4.00000
4.00000 7.03348 4.00000
4.00000 7.03348 4.00000
4.00000 7.03348 4.00000
4.00000 7.03348 4.00000
4.00000 7.03348 4.00000
4.00000 7.03348 4.00000
4.00000 7.03348 4.00000
4.00000 7.03348 4.00000
4.00000 7.03348 4.00000
4.00000 7.03348 4.00000
4.00000 7.03348 4.00000
4.00000 7.03348 4.00000
4.00000 7.03348 4.00000
4.00000 7.03348 4.00000
4.00000 7.03348 4.00000
4.00000 7.03348 4.00000
4.00000 7.03348 4.00000
4.00000 7.03348 4.00000
4.00000 7.03348 4.00000
4.00000 7.03348 4.00000
4.00000 7.03348 4.00000
4.00000 7.03349 4.00000
4.00000 7.03348 4.00000
4.00000 7.03348 4.00000
4.00000 7.03348 4.00000
4.00171 7.05981 4.00171
4.00635 7.13210 4.00635
4.01092 7.20468 4.01093
4.01546 7.27748 4.01546
4.01997 7.35047 4.01997
4.02447 7.42360 4.02446
4.02896 7.49683 4.02896
4.03348 7.57010 4.03347
4.03802 7.64338 4.03802
4.04262 7.71661 4.04262
4.04730 7.78974 4.04730
4.05207 7.86270 4.05207
4.05696 7.93543 4.05696
4.06199 8.00787 4.06199
4.06720 8.07993 4.06720
4.07261 8.15152 4.07261
4.07827 8.22255 4.07827
4.08423 8.29289 4.08423
4.09053 8.36241 4.09053
4.09724 8.43096 4.09724
4.10443 8.49834 4.10443
4.11218 8.56436 4.11218
4.12060 8.62876 4.12060
4.12978 8.69130 4.12978
4.13967 8.75214 4.13967
4.15027 8.81129 4.15027
4.16164 8.86868 4.16164
4.17378 8.92425 4.17378
4.18675 8.97794 4.18675
4.20056 9.02971 4.20056
4.21524 9.07953 4.21524
4.23081 9.12736 4.23081
4.24729 9.17320 4.24729
4.26468 9.21703 4.26468
4.28301 9.25886 4.28301
4.30229 9.29866 4.30229
4.32252 9.33645 4.32252
4.34373 9.37219 4.34373
4.36592 9.40588 4.36592
4.38913 9.43746 4.38913
4.41340 9.46687 4.41340
4.43876 9.49401 4.43876
4.46528 9.51877 4.46528
4.49304 9.54096 4.49304
4.52214 9.56038 4.52213
4.55269 9.57676 4.55269
4.58485 9.58979 4.58485
4.61878 9.59912 4.61878
4.65463 9.60440 4.65463
7.35185 7.53512 4.03132
7.52258 7.45027 4.02610
7.66980 7.38855 4.02231
7.80310 7.34057 4.01936
7.92709 7.30180 4.01697
8.04440 7.26967 4.01497
8.15663 7.24258 4.01330
8.26493 7.21943 4.01185
8.37009 7.19943 4.01060
8.47268 7.18201 4.00951
8.57316 7.16674 4.00854
8.67184 7.15330 4.00770
8.76901 7.14141 4.00694
8.86490 7.13084 4.00627
8.95968 7.12141 4.00567
9.05350 7.11300 4.00513
9.14649 7.10546 4.00465
9.23876 7.09869 4.00422
9.33041 7.09259 4.00382
9.42149 7.08710 4.00347
9.51207 7.08216 4.00316
9.60224 7.07769 4.00287
9.69203 7.07364 4.00261
9.78148 7.06999 4.00237
9.87063 7.06668 4.00216
9.95952 7.06368 4.00196
10.04819 7.06095 4.00179
10.13666 7.05848 4.00163
10.22494 7.05624 4.00148
10.31307 7.05420 4.00135
10.40107 7.05235 4.00123
10.48894 7.05066 4.00112
10.57671 7.04913 4.00102
10.66439 7.04774 4.00093
10.75198 7.04647 4.00085
10.83952 7.04531 4.00077
10.92699 7.04426 4.00070
11.01441 7.04331 4.00064
11.10179 7.04244 4.00058
11.18915 7.04164 4.00053
11.27647 7.04091 4.00048
11.36377 7.04025 4.00044
11.45106 7.03965 4.00040
11.53833 7.03911 4.00037
11.62560 7.03861 4.00033
11.71286 7.03815 4.00031
11.80013 7.03774 4.00028
11.88741 7.03735 4.00025
11.97467 7.03701 4.00023
12.06196 7.03670 4.00021
12.14924 7.03641 4.00020
12.23655 7.03616 4.00017
12.32386 7.03592 4.00016
12.41120 7.03570 4.00015
12.49855 7.03551 4.00013
12.58591 7.03533 4.00012
12.67330 7.03516 4.00011
12.76071 7.03501 4.00010
12.84813 7.03488 4.00009
12.93558 7.03475 4.00008
13.02305 7.03464 4.00008
13.11054 7.03454 4.00007
13.19806 7.03444 4.00006
13.28560 7.03436 4.00006
13.37316 7.03428 4.00005
13.46074 7.03421 4.00005
13.54835 7.03414 4.00004
13.63598 7.03408 4.00004
13.72364 7.03403 4.00004
13.81132 7.03398 4.00003
13.89902 7.03394 4.00003
13.98675 7.03390 4.00003
14.07451 7.03386 4.00002
14.16228 7.03382 4.00002
14.25008 7.03379 4.00002
14.33790 7.03377 4.00002
14.42575 7.03374 4.00002
14.51362 7.03372 4.00002
14.60152 7.03370 4.00001
14.68943 7.03368 4.00001
14.77737 7.03366 4.00001
14.86533 7.03364 4.00001
14.95332 7.03363 4.00001
15.04133 7.03361 4.00001
15.12936 7.03360 4.00001
15.21741 7.03359 4.00001
15.30548 7.03358 4.00001
15.39358 7.03357 4.00001
15.48169 7.03356 4.00001
15.56983 7.03356 4.00001
15.65799 7.03355 4.00000
15.74617 7.03354 4.00000
15.83436 7.03354 4.00000
15.92258 7.03353 4.00000
16.01082 7.03353 4.00000
16.09908 7.03352 4.00000
16.18736 7.03352 4.00000
16.27566 7.03352 4.00000
16.36398 7.03351 4.00000
16.45231 7.03351 4.00000
16.54065 7.03351 4.00000
16.62901 7.03350 4.00000
16.71740 7.03350 4.00000
16.80580 7.03350 4.00000
16.89422 7.03350 4.00000
16.98265 7.03350 4.00000
17.07111 7.03350 4.00000
17.15958 7.03349 4.00000
17.24806 7.03349 4.00000
17.33657 7.03349 4.00000
17.42509 7.03349 4.00000
17.51363 7.03349 4.00000
17.60218 7.03349 4.00000
17.69075 7.03349 4.00000
17.77933 7.03349 4.00000
17.86794 7.03348 4.00000
17.95655 7.03349 4.00000
18.04519 7.03348 4.00000
18.13384 7.03348 4.00000
18.22250 7.03348 4.00000
18.31118 7.03348 4.00000
18.39987 7.03348 4.00000
18.48857 7.03348 4.00000
18.57729 7.03348 4.00000
18.66603 7.03348 4.00000
18.75478 7.03348 4.00000
18.84354 7.03348 4.00000
18.93231 7.03348 4.00000
19.02110 7.03347 4.00000
19.10990 7.03347 4.00000
19.19872 7.03347 4.00000
19.28755 7.03347 4.00000
19.37639 7.03347 4.00000
19.46523 7.03348 4.00000
19.55410 7.03348 4.00000
19.64298 7.03348 4.00000
19.73187 7.03348 4.00000
19.82077 7.03348 4.00000
19.90968 7.03348 4.00000
19.99861 7.03348 4.00000
20.08755 7.03348 4.00000
20.17650 7.03348 4.00000
20.26547 7.03348 4.00000
20.35444 7.03348 4.00000
20.44342 7.03348 4.00000
20.53241 7.03348 4.00000
20.62141 7.03348 4.00000
20.71043 7.03348 4.00000
20.79945 7.03348 4.00000
20.88849 7.03348 4.00000
20.97753 7.03348 4.00000
21.06659 7.03348 4.00000
21.15565 7.03348 4.00000
21.24473 7.03348 4.00000
21.33382 7.03348 4.00000
21.42293 7.03348 4.00000
21.51204 7.03348 4.00000
21.60116 7.03348 4.00000
21.69029 7.03348 4.00000
21.77943 7.03348 4.00000
21.86859 7.03348 4.00000
21.95775 7.03348 4.00000
22.04692 7.03348 4.00000
22.13610 7.03348 4.00000
22.22528 7.03348 4.00000
22.31448 7.03348 4.00000
22.40369 7.03348 4.00000
22.49290 7.03348 4.00000
22.58213 7.03348 4.00000
22.67136 7.03348 4.00000
22.76060 7.03348 4.00000
22.84985 7.03348 4.00000
22.93911 7.03347 4.00000
23.02837 7.03348 4.00000
23.11765 7.03348 4.00000
23.20693 7.03348 4.00000
23.29622 7.03347 4.00000
23.38551 7.03349 4.00000
23.47483 7.03348 4.00000
23.56414 7.03348 4.00000
23.65346 7.03348 4.00000
23.74279 7.03349 4.00000
23.83214 7.03348 4.00000
23.92148 7.03348 4.00000
24.01084 7.03348 4.00000
24.10020 7.03348 4.00000
24.18957 7.03348 4.00000
24.27895 7.03348 4.00000
24.36834 7.03348 4.00000
24.45774 7.03348 4.00000
24.54714 7.03348 4.00000
24.63655 7.03348 4.00000
24.72596 7.03348 4.00000
24.81538 7.03348 4.00000
24.90481 7.03348 4.00000
24.99425 7.03348 4.00000
25.08369 7.03348 4.00000
25.17314 7.03348 4.00000
25.26259 7.03348 4.00000
25.35206 7.03348 4.00000
25.44152 7.03348 4.00000
25.53100 7.03348 4.00000
25.62047 7.03348 4.00000
25.70996 7.03348 4.00000
25.79945 7.03348 4.00000
25.88895 7.03348 4.00000
25.97845 7.03348 4.00000
26.06794 7.03348 4.00000
26.15746 7.03348 4.00000
26.24698 7.03347 4.00000
26.33649 7.03348 4.00000
26.42601 7.03348 4.00000
26.51554 7.03348 4.00000
26.60507 7.03348 4.00000
26.69461 7.03348 4.00000
26.78415 7.03348 4.00000
26.87370 7.03348 4.00000
26.96325 7.03348 4.00000
27.05281 7.03348 4.00000
27.14238 7.03348 4.00000
27.23195 7.03348 4.00000
27.32152 7.03348 4.00000
27.41110 7.03348 4.00000
27.50069 7.03348 4.00000
27.59028 7.03348 4.00000
27.67987 7.03348 4.00000
27.76947 7.03348 4.00000
27.85908 7.03348 4.00000
27.94869 7.03348 4.00000
28.03830 7.03348 4.00000
28.12792 7.03348 4.00000
28.21755 7.03348 4.00000
28.30718 7.03348 4.00000
28.39681 7.03348 4.00000
28.48645 7.03348 4.00000
28.57610 7.03348 4.00000
28.66574 7.03348 4.00000
28.75540 7.03348 4.00000
28.84505 7.03348 4.00000
28.93471 7.03348 4.00000
29.02438 7.03348 4.00000
29.11405 7.03348 4.00000
29.20372 7.03348 4.00000
29.29340 7.03348 4.00000
29.38308 7.03348 4.00000
29.47277 7.03348 4.00000
29.56246 7.03348 4.00000
29.65215 7.03348 4.00000
29.74185 7.03348 4.00000
29.83155 7.03348 4.00000
29.92126 7.03348 4.00000
30.01096 7.03348 4.00000
30.10068 7.03348 4.00000
30.19039 7.03348 4.00000
30.28012 7.03348 4.00000
30.36984 7.03348 4.00000
30.45957 7.03348 4.00000
30.54930 7.03348 4.00000
30.63904 7.03348 4.00000
30.72877 7.03348 4.00000
30.81852 7.03348 4.00000
30.90826 7.03349 4.00000
30.99804 7.03348 4.00000
31.08779 7.03348 4.00000
31.17755 7.03349 4.00000
31.26732 7.03349 4.00000
31.35711 7.03348 4.00000
31.44687 7.03349 4.00000
31.53665 7.03349 4.00000
31.62646 7.03347 4.00000
31.71623 7.03349 4.00000
31.80602 7.03348 4.00000
31.89580 7.03348 4.00000
31.98560 7.03348 4.00000
32.07540 7.03348 4.00000
32.16520 7.03348 4.00000
32.25500 7.03348 4.00000
32.34481 7.03348 4.00000
32.43462 7.03348 4.00000
32.52443 7.03348 4.00000
32.61425 7.03348 4.00000
32.70407 7.03348 4.00000
32.79389 7.03348 4.00000
32.88371 7.03348 4.00000
32.97354 7.03348 4.00000
33.06337 7.03348 4.00000
33.15321 7.03348 4.00000
33.24304 7.03348 4.00000
33.33288 7.03348 4.00000
33.42272 7.03348 4.00000
33.51257 7.03348 4.00000
33.60242 7.03348 4.00000
33.69227 7.03348 4.00000
33.78213 7.03348 4.00000
33.87198 7.03348 4.00000
33.96184 7.03348 4.00000
34.05170 7.03348 4.00000
34.14157 7.03348 4.00000
34.23144 7.03348 4.00000
34.32132 7.03348 4.00000
34.41120 7.03348 4.00000
34.50108 7.03348 4.00000
34.59096 7.03348 4.00000
34.68085 7.03348 4.00000
34.77074 7.03348 4.00000
34.86064 7.03348 4.00000
34.95054 7.03348 4.00000
35.04044 7.03348 4.00000
35.13035 7.03348 4.00000
35.22026 7.03348 4.00000
35.31017 7.03348 4.00000
35.40009 7.03348 4.00000
35.49001 7.03348 4.00000
35.57993 7.03348 4.00000
35.66986 7.03348 4.00000
35.75979 7.03348 4.00000

