Angle 0.143951 3.633300

4.00000 7.03348 4.00000
4.00000 7.03348 4.00000
4.00000 7.03348 4.00000
4.00000 7.03348 4.00000
4.00000 7.03348 4.00000
4.00000 7.03348 4.00000
4.00000 7.03346 4.00001
4.00000 7.03348 4.00000
4.00000 7.03348 4.00000
4.00000 7.03347 4.00000
4.00000 7.03347 4.00000
4.00000 7.03348 4.00000
4.00000 7.03345 4.00000
4.00000 7.03341 4.00001
4.00000 7.03348 4.00000
4.00000 7.03348 4.00000
4.00000 7.03349 4.00000
4.00000 7.03348 4.00000
4.00000 7.03351 4.00000
4.00000 7.03348 4.00000
4.00000 7.03348 4.00000
4.00000 7.03348 4.00000
4.00000 7.03348 4.00000
4.00000 7.03348 4.00000
4.00000 7.03348 4.00000
4.00000 7.03351 4.00000
4.00000 7.03351 4.00000
4.00000 7.03348 4.00000
4.00000 7.03348 4.00000
4.00000 7.03348 4.00000
4.00000 7.03348 4.00000
4.00000 7.03348 4.00000
4.00000 7.03348 4.00000
4.00000 7.03348 4.00000
4.00000 7.03348 4.00000
4.00000 7.03348 4.00000
4.00000 7.03348 4.00000
4.00000 7.03348 4.00000
4.00000 7.03348 4.00000
4.00000 7.03348 4.00000
4.00000 7.03348 4.00000
4.00000 7.03348 4.00000
4.00000 7.03348 4.00000
4.00000 7.03348 4.00000
4.00000 7.03348 4.00000
4.00000 7.03348 4.00000
4.00000 7.03347 4.00000
4.00000 7.03348 4.00000
4.00000 7.03348 4.00000
4.00000 7.03348 4.00000
4.00000 7.03348 4.00000
4.00000 7.03348 4.00000
4.00000 7.03348 4.00000
4.00000 7.03348 4.00000
4.00000 7.03348 4.00000
4.00000 7.03348 4.00000
4.00000 7.03348 4.00000
4.00000 7.03348 4.00000
4.00000 7.03348 4.00000
4.00000 7.03348 4.00000
4.00000 7.03348 4.00000
4.00000 7.03348 4.00000
4.00000 7.03348 4.00000
4.00000 7.03348 4.00000
4.00000 7.03348 4.00000
4.00000 7.03348 4.00000
4.00000 7.03348 4.00000
4.00000 7.03348 4.00000
4.00000 7.03348 4.00000
4.00000 7.03348 4.00000
4.00000 7.03348 4.00000
4.00000 7.03348 4.00000
4.00000 7.03348 4.00000
4.00000 7.03348 4.00000
4.00000 7.03348 4.00000
4.00000 7.03348 4.00000
4.00000 7.03348 4.00000
4.00000 7.03347 4.00000
4.00000 7.03348 4.00000
4.00000 7.03348 4.00000
4.00000 7.03348 4.00000
4.00000 7.03348 4.00000
4.00000 7.03348 4.00000
4.00000 7.03348 4.00000
4.00000 7.03348 4.00000
4.00000 7.03348 4.00000
4.00000 7.03348 4.00000
4.00000 7.03348 4.00000
4.00000 7.03348 4.00000
4.00000 7.03348 4.00000
4.00000 7.03348 4.00000
4.00000 7.03347 4.00000
4.00000 7.03347 4.00000
4.00000 7.03347 4.00000
4.00000 7.03347 4.00000
4.00000 7.03348 4.00000
4.00000 7.03348 4.00000
4.00000 7.03348 4.00000
4.00000 7.03348 4.00000
4.00000 7.03348 4.00000
4.00000 7.03348 4.00000
4.00000 7.03348 4.00000
4.00000 7.03348 4.00000
4.00000 7.03347 4.00000
4.00000 7.03348 4.00000
4.00000 7.03348 4.00000
4.00000 7.03348 4.00000
4.00000 7.03348 4.00000
4.00000 7.03348 4.00000
4.00000 7.03348 4.00000
4.00000 7.03348 4.00000
4.00000 7.03348 4.00000
4.00000 7.03347 4.00000
4.00000 7.03348 4.00000
4.00000 7.03348 4.00000
4.00000 7.03348 4.00000
4.00000 7.03348 4.00000
4.00000 7.03348 4.00000
4.00000 7.03348 4.00000
4.00000 7.03349 4.00000
4.00000 7.03348 4.00000
4.00000 7.03348 4.00000
4.00000 7.03348 4.00000
4.00000 7.03348 4.00000
4.00000 7.03348 4.00000
4.00000 7.03348 4.00000
4.00000 7.03348 4.00000
4.00000 7.03347 4.00000
4.00000 7.03348 4.00000
4.00000 7.03348 4.00000
4.00000 7.03348 4.00000
4.00000 7.03348 4.00000
4.00000 7.03348 4.00000
4.00000 7.03348 4.00000
4.00000 7.03348 4.00000
4.00000 7.03348 4.00000
4.00000 7.03348 4.00000
4.00000 7.03348 4.00000
4.00000 7.03348 4.00000
4.00000 7.03348 4.00000
4.00000 7.03349 4.00000
4.00000 7.03348 4.00000
4.00000 7.03348 4.00000
4.00000 7.03348 4.00000
4.00000 7.03348 4.00000
4.00000 7.03348 4.00000
4.00000 7.03348 4.00000
4.00000 7.03348 4.00000
4.00000 7.03348 4.00000
4.00000 7.03348 4.00000
4.00000 7.03348 4.00000
4.00000 7.03348 4.00000
4.00000 7.03348 4.00000
4.00000 7.03348 4.00000
4.00000 7.03348 4.00000
4.00000 7.03348 4.00000
4.00000 7.03348 4.00000
4.00000 7.03348 4.00000
4.00000 7.03348 4.00000
4.00000 7.03348 4.00000
4.00000 7.03348 4.00000
4.00000 7.03349 4.00000
4.00000 7.03348 4.00000
4.00000 7.03348 4.00000
4.00000 7.03348 4.00000
4.00000 7.03348 4.00000
4.00000 7.03348 4.00000
4.00000 7.03348 4.00000
4.00000 7.03348 4.00000
4.00000 7.03348 4.00000
4.00000 7.03348 4.00000
4.00000 7.03348 4.00000
4.00000 7.03348 4.00000
4.00000 7.03348 4.00000
4.00000 7.03348 4.00000
4.00000 7.03348 4.00000
4.00000 7.03349 4.00000
4.00000 7.03348 4.00000
4.00000 7.03348 4.00000
4.00000 7.03348 4.00000
4.00000 7.03348 4.00000
4.00000 7.03348 4.00000
4.00000 7.03348 4.00000
4.00000 7.03348 4.00000
4.00000 7.03349 4.00000
4.00000 7.03348 4.00000
4.00000 7.03348 4.00000
4.00000 7.03347 4.00000
4.00000 7.03348 4.00000
4.00384 7.09277 4.00384
4.00863 7.16814 4.00863
4.01337 7.24375 4.01337
4.01807 7.31954 4.01807
4.02274 7.39547 4.02274
4.02740 7.47147 4.02740
4.03208 7.54751 4.03208
4.03679 7.62353 4.03679
4.04154 7.69947 4.04154
4.04637 7.77528 4.04637
4.05129 7.85089 4.05129
4.05633 7.92624 4.05633
4.06152 8.00124 4.06152
4.06689 8.07581 4.06689
4.07248 8.14986 4.07248
4.07833 8.22327 4.07833
4.08449 8.29592 4.08449
4.09102 8.36766 4.09102
4.09799 8.43831 4.09799
4.10548 8.50768 4.10548
4.11357 8.57553 4.11357
4.12239 8.64159 4.12239
4.13202 8.70564 4.13202
4.14239 8.76790 4.14239
4.15353 8.82833 4.15353
4.16547 8.88684 4.16547
4.17826 8.94339 4.17826
4.19191 8.99791 4.19191
4.20647 9.05036 4.20647
4.22195 9.10072 4.22195
4.23837 9.14896 4.23837
4.25575 9.19508 4.25575
4.27411 9.23906 4.27411
4.29345 9.28090 4.29345
4.31379 9.32060 4.31379
4.33513 9.35815 4.33513
4.35751 9.39353 4.35751
4.38094 9.42671 4.38094
4.40545 9.45762 4.40545
4.43110 9.48618 4.43110
4.45793 9.51226 4.45793
4.48603 9.53571 4.48603
4.51550 9.55629 4.51550
4.54647 9.57374 4.54647
4.57907 9.58775 4.57907
4.61349 9.59795 4.61349
4.64989 9.60396 4.64989
4.03200 7.54624 7.33158
4.02647 7.45627 7.50945
4.02251 7.39185 7.66131
4.01946 7.34223 7.79816
4.01700 7.30238 7.92511
4.01497 7.26951 8.04500
4.01325 7.24191 8.15960
4.01179 7.21839 8.27009
4.01052 7.19813 8.37731
4.00941 7.18056 8.48184
4.00844 7.16519 8.58419
4.00759 7.15166 8.68471
4.00683 7.13972 8.78367
4.00616 7.12914 8.88130
4.00556 7.11973 8.97778
4.00503 7.11133 9.07327
4.00454 7.10383 9.16791
4.00411 7.09710 9.26180
4.00373 7.09106 9.35504
4.00338 7.08563 9.44770
4.00306 7.08074 9.53986
4.00278 7.07633 9.63158
4.00252 7.07235 9.72290
4.00229 7.06875 9.81387
4.00208 7.06550 9.90454
4.00189 7.06256 9.99493
4.00172 7.05990 10.08509
4.00156 7.05747 10.17504
4.00142 7.05529 10.26478
4.00129 7.05331 10.35437
4.00117 7.05151 10.44381
4.00107 7.04987 10.53311
4.00097 7.04839 10.62231
4.00088 7.04704 10.71141
4.00080 7.04581 10.80040
4.00073 7.04470 10.88933
4.00067 7.04369 10.97819
4.00060 7.04277 11.06700
4.00055 7.04193 11.15575
4.00050 7.04117 11.24447
4.00045 7.04048 11.33314
4.00041 7.03985 11.42178
4.00038 7.03927 11.51041
4.00034 7.03875 11.59901
4.00031 7.03828 11.68759
4.00028 7.03785 11.77616
4.00026 7.03746 11.86472
4.00023 7.03710 11.95328
4.00021 7.03677 12.04183
4.00019 7.03648 12.13039
4.00018 7.03621 12.21894
4.00016 7.03596 12.30750
4.00015 7.03574 12.39606
4.00013 7.03554 12.48463
4.00012 7.03535 12.57321
4.00011 7.03518 12.66180
4.00010 7.03503 12.75040
4.00009 7.03489 12.83900
4.00008 7.03476 12.92763
4.00008 7.03465 13.01626
4.00007 7.03454 13.10491
4.00006 7.03445 13.19357
4.00006 7.03436 13.28226
4.00005 7.03427 13.37096
4.00005 7.03420 13.45967
4.00004 7.03413 13.54839
4.00004 7.03408 13.63713
4.00003 7.03402 13.72589
4.00003 7.03398 13.81462
4.00003 7.03393 13.90341
4.00003 7.03389 13.99221
4.00002 7.03385 14.08103
4.00002 7.03382 14.16986
4.00002 7.03378 14.25872
4.00002 7.03376 14.34759
4.00002 7.03374 14.43647
4.00002 7.03371 14.52537
4.00001 7.03368 14.61429
4.00001 7.03367 14.70322
4.00001 7.03366 14.79217
4.00001 7.03364 14.88113
4.00001 7.03363 14.97012
4.00001 7.03361 15.05911
4.00001 7.03360 15.14813
4.00001 7.03359 15.23716
4.00001 7.03358 15.32620
4.00001 7.03357 15.41526
4.00001 7.03356 15.50434
4.00000 7.03355 15.59342
4.00000 7.03355 15.68253
4.00000 7.03354 15.77164
4.00000 7.03354 15.86077
4.00000 7.03353 15.94991
4.00000 7.03353 16.03907
4.00000 7.03352 16.12824
4.00000 7.03351 16.21743
4.00000 7.03351 16.30663
4.00000 7.03351 16.39584
4.00000 7.03351 16.48507
4.00000 7.03351 16.57431
4.00000 7.03350 16.66356
4.00000 7.03350 16.75283
4.00000 7.03350 16.84211
4.00000 7.03350 16.93140
4.00000 7.03350 17.02070
4.00000 7.03349 17.11000
4.00000 7.03349 17.19932
4.00000 7.03349 17.28865
4.00000 7.03349 17.37799
4.00000 7.03349 17.46734
4.00000 7.03348 17.55672
4.00000 7.03349 17.64609
4.00000 7.03349 17.73549
4.00000 7.03349 17.82489
4.00000 7.03349 17.91431
4.00000 7.03349 18.00373
4.00000 7.03348 18.09317
4.00000 7.03348 18.18261
4.00000 7.03348 18.27207
4.00000 7.03348 18.36153
4.00000 7.03348 18.45101
4.00000 7.03348 18.54049
4.00000 7.03348 18.62999
4.00000 7.03348 18.71949
4.00000 7.03348 18.80900
4.00000 7.03348 18.89852
4.00000 7.03348 18.98805
4.00000 7.03348 19.07759
4.00000 7.03348 19.16713
4.00000 7.03347 19.25669
4.00000 7.03348 19.34623
4.00000 7.03347 19.43580
4.00000 7.03348 19.52537
4.00000 7.03347 19.61495
4.00000 7.03348 19.70454
4.00000 7.03348 19.79415
4.00000 7.03348 19.88376
4.00000 7.03348 19.97336
4.00000 7.03348 20.06298
4.00000 7.03348 20.15261
4.00000 7.03347 20.24227
4.00000 7.03348 20.33191
4.00000 7.03348 20.42157
4.00000 7.03348 20.51124
4.00000 7.03348 20.60091
4.00000 7.03348 20.69060
4.00000 7.03348 20.78029
4.00000 7.03348 20.86999
4.00000 7.03348 20.95969
4.00000 7.03348 21.04940
4.00000 7.03348 21.13912
4.00000 7.03348 21.22884
4.00000 7.03348 21.31858
4.00000 7.03348 21.40830
4.00000 7.03348 21.49805
4.00000 7.03348 21.58779
4.00000 7.03348 21.67755
4.00000 7.03348 21.76730
4.00000 7.03348 21.85707
4.00000 7.03348 21.94683
4.00000 7.03348 22.03661
4.00000 7.03348 22.12639
4.00000 7.03348 22.21616
4.00000 7.03348 22.30596

Angle 0.452641 1.954415

4.00000 7.03348 4.00000
4.00000 7.03348 4.00000
4.00000 7.03348 4.00000
4.00000 7.03348 4.00000
4.00000 7.03348 4.00000
4.00000 7.03348 4.00000
4.00000 7.03348 4.00000
4.00000 7.03348 4.00000
4.00000 7.03348 4.00000
4.00000 7.03348 4.00000
4.00000 7.03348 4.00000
4.00000 7.03348 4.00000
4.00000 7.03348 4.00000
4.00000 7.03348 4.00000
4.00000 7.03348 4.00000
4.00000 7.03348 4.00000
4.00000 7.03348 4.00000
4.00000 7.03348 4.00000
4.00000 7.03348 4.00000
4.00000 7.03348 4.00000
4.00000 7.03347 4.00000
4.00000 7.03347 4.00000
4.00000 7.03347 4.00000
4.00000 7.03348 4.00000
4.00000 7.03348 4.00000
4.00000 7.03348 4.00000
4.00000 7.03348 4.00000
4.00000 7.03348 4.00000
4.00000 7.03348 4.00000
4.00000 7.03348 4.00000
4.00000 7.03348 4.00000
4.00000 7.03348 4.00000
4.00000 7.03348 4.00000
4.00000 7.03348 4.00000
4.00000 7.03348 4.00000
4.00000 7.03348 4.00000
4.00000 7.03348 4.00000
4.00000 7.03348 4.00000
4.00000 7.03348 4.00000
4.00000 7.03348 4.00000
4.00000 7.03348 4.00000
4.00000 7.03348 4.00000
4.00000 7.03348 4.00000
4.00000 7.03348 4.00000
4.00000 7.03348 4.00000
4.00000 7.03348 4.00000
4.00000 7.03348 4.00000
4.00000 7.03348 4.00000
4.00000 7.03348 4.00000
4.00000 7.03348 4.00000
4.00000 7.03348 4.00000
4.00000 7.03348 4.00000
4.00000 7.03348 4.00000
4.00000 7.03348 4.00000
4.00000 7.03348 4.00000
4.00000 7.03348 4.00000
4.00000 7.03348 4.00000
4.00000 7.03348 4.00000
4.00000 7.03348 4.00000
4.00000 7.03348 4.00000
4.00000 7.03348 4.00000
4.00000 7.03348 4.00000
4.00000 7.03348 4.00000
4.00000 7.03348 4.00000
4.00000 7.03348 4.00000
4.00000 7.03348 4.00000
4.00000 7.03348 4.00000
4.00000 7.03348 4.00000
4.00000 7.03348 4.00000
4.00000 7.03348 4.00000
4.00000 7.03348 4.00000
4.00000 7.03348 4.00000
4.00000 7.03348 4.00000
4.00000 7.03348 4.00000
4.00000 7.03348 4.00000
4.00000 7.03348 4.00000
4.00000 7.03348 4.00000
4.00000 7.03348 4.00000
4.00000 7.03348 4.00000
4.00000 7.03348 4.00000
4.00000 7.03348 4.00000
4.00000 7.03348 4.00000
4.00000 7.03348 4.00000
4.00000 7.03348 4.00000
4.00000 7.03348 4.00000
4.00000 7.03348 4.00000
4.00000 7.03348 4.00000
4.00000 7.03348 4.00000
4.00000 7.03348 4.00000
4.00000 7.03348 4.00000
4.00000 7.03348 4.00000
4.00000 7.03348 4.00000
4.00000 7.03348 4.00000
4.00000 7.03348 4.00000
4.00000 7.03348 4.00000
4.00000 7.03348 4.00000
4.00000 7.03348 4.00000
4.00000 7.03348 4.00000
4.00000 7.03348 4.00000
4.00000 7.03348 4.00000
4.00000 7.03348 4.00000
4.00000 7.03348 4.00000
4.00000 7.03348 4.00000
4.00000 7.03348 4.00000
4.00000 7.03348 4.00000
4.00000 7.03348 4.00000
4.00000 7.03348 4.00000
4.00000 7.03348 4.00000
4.00000 7.03348 4.00000
4.00000 7.03348 4.00000
4.00000 7.03348 4.00000
4.00000 7.03348 4.00000
4.00000 7.03348 4.00000
4.00000 7.03348 4.00000
4.00000 7.03347 4.00000
4.00000 7.03347 4.00000
4.00000 7.03348 4.00000
4.00000 7.03347 4.00000
4.00000 7.03347 4.00000
4.00000 7.03348 4.00000
4.00000 7.03348 4.00000
4.00000 7.03348 4.00000
4.00000 7.03348 4.00000
4.00000 7.03347 4.00000
4.00000 7.03347 4.00000
4.00000 7.03348 4.00000
4.00000 7.03348 4.00000
4.00000 7.03348 4.00000
4.00000 7.03347 4.00000
4.00000 7.03347 4.00000
4.00000 7.03347 4.00000
4.00000 7.03348 4.00000
4.00000 7.03348 4.00000
4.00000 7.03348 4.00000
4.00000 7.03348 4.00000
4.00000 7.03348 4.00000
4.00000 7.03348 4.00000
4.00000 7.03348 4.00000
4.00000 7.03348 4.00000
4.00000 7.03348 4.00000
4.00000 7.03348 4.00000
4.00000 7.03349 4.00000
4.00000 7.03348 4.00000
4.00000 7.03348 4.00000
4.00000 7.03348 4.00000
4.00000 7.03348 4.00000
4.00000 7.03348 4.00000
4.00000 7.03348 4.00000
4.00000 7.03348 4.00000
4.00000 7.03349 4.00000
4.00000 7.03348 4.00000
4.00000 7.03348 4.00000
4.00000 7.03348 4.00000
4.00000 7.03348 4.00000
4.00000 7.03349 4.00000
4.00000 7.03348 4.00000
4.00000 7.03348 4.00000
4.00000 7.03348 4.00000
4.00000 7.03348 4.00000
4.00000 7.03348 4.00000
4.00000 7.03348 4.00000
4.00000 7.03348 4.00000
4.00000 7.03348 4.00000
4.00000 7.03348 4.00000
4.00000 7.03348 4.00000
4.00000 7.03348 4.00000
4.00000 7.03348 4.00000
4.00000 7.03348 4.00000
4.00000 7.03348 4.00000
4.00000 7.03348 4.00000
4.00000 7.03348 4.00000
4.00000 7.03348 4.00000
4.00000 7.03348 4.00000
4.00000 7.03348 4.00000
4.00000 7.03348 4.00000
4.00000 7.03348 4.00000
4.00000 7.03348 4.00000
4.00000 7.03348 4.00000
4.00000 7.03348 4.00000
4.00000 7.03348 4.00000
4.00000 7.03348 4.00000
4.00000 7.03348 4.00000
4.00000 7.03348 4.00000
4.00000 7.03348 4.00000
4.00000 7.03348 4.00000
4.00000 7.03348 4.00000
4.00000 7.03348 4.00000
4.00000 7.03348 4.00000
4.00000 7.03348 4.00000
4.00000 7.03348 4.00000
4.00000 7.03348 4.00000
4.00000 7.03348 4.00000
4.00000 7.03348 4.00000
4.00000 7.03348 4.00000
4.00000 7.03348 4.00000
4.00000 7.03348 4.00000
4.00000 7.03348 4.00000
4.00000 7.03348 4.00000
4.00000 7.03348 4.00000
4.00000 7.03348 4.00000
4.00000 7.03348 4.00000
4.00000 7.03348 4.00000
4.00000 7.03348 4.00000
4.00000 7.03348 4.00000
4.00000 7.03348 4.00000
4.00000 7.03348 4.00000
4.00000 7.03348 4.00000
4.00000 7.03348 4.00000
4.00000 7.03348 4.00000
4.00000 7.03348 4.00000
4.00000 7.03348 4.00000
4.00000 7.03348 4.00000
4.00000 7.03348 4.00000
4.00000 7.03348 4.00000
4.00000 7.03348 4.00000
4.00000 7.03348 4.00000
4.00000 7.03348 4.00000
4.00000 7.03348 4.00000
4.00000 7.03348 4.00000
4.00000 7.03348 4.00000
4.00000 7.03348 4.00000
4.00000 7.03348 4.00000
4.00000 7.03348 4.00000
4.00000 7.03348 4.00000
4.00000 7.03348 4.00000
4.00000 7.03348 4.00000
4.00000 7.03348 4.00000
4.00000 7.03348 4.00000
4.00000 7.03348 4.00000
4.00000 7.03348 4.00000
4.00000 7.03348 4.00000
4.00000 7.03348 4.00000
4.00000 7.03348 4.00000
4.00000 7.03348 4.00000
4.00000 7.03349 4.00000
4.00000 7.03349 4.00000
4.00000 7.03348 4.00000
4.00000 7.03348 4.00000
4.00000 7.03348 4.00000
4.00000 7.03348 4.00000
4.00000 7.03348 4.00000
4.00000 7.03348 4.00000
4.00000 7.03348 4.00000
4.00000 7.03348 4.00000
4.00086 7.04667 4.00086
4.00521 7.11422 4.00521
4.00951 7.18208 4.00951
4.01377 7.25023 4.01377
4.01801 7.31862 4.01801
4.02223 7.38720 4.02223
4.02645 7.45595 4.02645
4.03068 7.52483 4.03068
4.03494 7.59379 4.03494
4.03924 7.66279 4.03923
4.04359 7.73179 4.04359
4.04801 7.80075 4.04801
4.05253 7.86960 4.05253
4.05715 7.93830 4.05715
4.06191 8.00677 4.06191
4.06683 8.07497 4.06683
4.07194 8.14279 4.07194
4.07726 8.21017 4.07727
4.08285 8.27700 4.08285
4.08874 8.34317 4.08874
4.09498 8.40854 4.09498
4.10164 8.47296 4.10164
4.10878 8.53627 4.10878
4.11649 8.59825 4.11649
4.12485 8.65867 4.12485
4.13391 8.71747 4.13391
4.14361 8.77481 4.14361
4.15397 8.83061 4.15397
4.16504 8.88483 4.16504
4.17684 8.93740 4.17684
4.18940 8.98828 4.18940
4.20274 9.03742 4.20274
4.21688 9.08480 4.21688
4.23185 9.13039 4.23185
4.24766 9.17418 4.24766
4.26432 9.21615 4.26432
4.28184 9.25630 4.28184
4.30024 9.29461 4.30024
4.31952 9.33109 4.31952
4.33971 9.36571 4.33971
4.36082 9.39845 4.36082
4.38286 9.42927 4.38286
4.40588 9.45813 4.40588
4.42991 9.48494 4.42991
4.45500 9.50959 4.45499
4.48121 9.53195 4.48121
4.50863 9.55184 4.50863
4.53737 9.56904 4.53737
4.56753 9.58329 4.56753
4.59926 9.59429 4.59926
4.63272 9.60171 4.63270
4.66803 9.60524 4.66803
4.70534 9.60458 4.70536
4.02490 7.43063 7.56698
4.02150 7.37526 7.70483
4.01879 7.33135 7.83111
4.01657 7.29537 7.94940
4.01470 7.26525 8.06183
4.01311 7.23963 8.16977
4.01173 7.21758 8.27416
4.01054 7.19842 8.37570
4.00948 7.18166 8.47490
4.00855 7.16690 8.57214
4.00773 7.15384 8.66774
4.00699 7.14223 8.76195
4.00633 7.13189 8.85497
4.00575 7.12263 8.94695
4.00522 7.11433 9.03805
4.00474 7.10686 9.12838
4.00431 7.10013 9.21805
4.00392 7.09408 9.30711
4.00357 7.08861 9.39566
4.00325 7.08366 9.48375
4.00296 7.07917 9.57146
4.00270 7.07510 9.65882
4.00246 7.07141 9.74586
4.00224 7.06806 9.83264
4.00204 7.06499 9.91921
4.00187 7.06224 10.00551
4.00171 7.05972 10.09167
4.00156 7.05741 10.17767
4.00142 7.05530 10.26355
4.00130 7.05342 10.34927
4.00118 7.05169 10.43491
4.00108 7.05010 10.52045
4.00099 7.04865 10.60594
4.00090 7.04733 10.69134
4.00082 7.04613 10.77671
4.00075 7.04503 10.86203
4.00069 7.04403 10.94731
4.00063 7.04311 11.03257
4.00057 7.04228 11.11781
4.00052 7.04152 11.20304
4.00048 7.04082 11.28826
4.00044 7.04019 11.37348
4.00040 7.03960 11.45871
4.00036 7.03907 11.54394
4.00033 7.03859 11.62919
4.00030 7.03813 11.71445
4.00028 7.03776 11.79969
4.00025 7.03737 11.88501
4.00023 7.03703 11.97032
4.00021 7.03674 12.05565
4.00019 7.03644 12.14103
4.00018 7.03619 12.22641
4.00016 7.03595 12.31183
4.00015 7.03574 12.39728
4.00014 7.03554 12.48277
4.00013 7.03536 12.56828
4.00012 7.03520 12.65384
4.00010 7.03505 12.73941
4.00009 7.03491 12.82503
4.00009 7.03479 12.91068
4.00008 7.03467 12.99637
4.00007 7.03457 13.08210
4.00007 7.03447 13.16786
4.00006 7.03439 13.25365
4.00006 7.03431 13.33949
4.00005 7.03424 13.42536
4.00005 7.03417 13.51127
4.00004 7.03411 13.59720
4.00004 7.03405 13.68318
4.00004 7.03400 13.76920
4.00003 7.03396 13.85520
4.00003 7.03392 13.94129
4.00003 7.03388 14.02740
4.00002 7.03384 14.11356
4.00002 7.03381 14.19975
4.00002 7.03378 14.28597
4.00002 7.03376 14.37223
4.00002 7.03373 14.45853
4.00002 7.03371 14.54486
4.00001 7.03369 14.63122
4.00001 7.03367 14.71762
4.00001 7.03365 14.80405
4.00001 7.03364 14.89051
4.00001 7.03362 14.97701
4.00001 7.03361 15.06354
4.00001 7.03360 15.15010
4.00001 7.03359 15.23670
4.00001 7.03358 15.32332
4.00001 7.03357 15.40998
4.00001 7.03356 15.49667
4.00001 7.03356 15.58338
4.00001 7.03355 15.67013
4.00000 7.03354 15.75691
4.00000 7.03354 15.84372
4.00000 7.03353 15.93056
4.00000 7.03353 16.01743
4.00000 7.03352 16.10432
4.00000 7.03352 16.19125
4.00000 7.03352 16.27820
4.00000 7.03351 16.36518
4.00000 7.03351 16.45219
4.00000 7.03351 16.53922
4.00000 7.03350 16.62629

Angle 0.170227 5.545998

4.00000 7.03348 4.00000
4.00000 7.03348 4.00000
4.00000 7.03348 4.00000
4.00000 7.03348 4.00000
4.00000 7.03348 4.00000
4.00000 7.03348 4.00000
4.00000 7.03348 4.00000
4.00000 7.03348 4.00000
4.00000 7.03348 4.00000
4.00000 7.03348 4.00000
4.00000 7.03348 4.00000
4.00000 7.03348 4.00000
4.00000 7.03348 4.00000
4.00000 7.03348 4.00000
4.00000 7.03348 4.00000
4.00000 7.03348 4.00000
4.00000 7.03348 4.00000
4.00000 7.03348 4.00000
4.00000 7.03348 4.00000
4.00000 7.03348 4.00000
4.00000 7.03348 4.00000
4.00000 7.03348 4.00000
4.00252 7.07238 4.00252
4.00727 7.14656 4.00726
4.01195 7.22100 4.01195
4.01659 7.29565 4.01659
4.02120 7.37045 4.02120
4.02580 7.44536 4.02581
4.03041 7.52034 4.03041
4.03503 7.59533 4.03504
4.03971 7.67028 4.03971
4.04444 7.74513 4.04444
4.04925 7.81983 4.04925
4.05418 7.89431 4.05418
4.05923 7.96851 4.05923
4.06445 8.04233 4.06445
4.06987 8.11570 4.06987
4.07552 8.18851 4.07552
4.08145 8.26065 4.08145
4.08772 8.33198 4.08772
4.09437 8.40235 4.09437
4.10149 8.47159 4.10149
4.10916 8.53947 4.10916
4.11748 8.60576 4.11748
4.12656 8.67017 4.12656
4.13640 8.73271 4.13640
4.14698 8.79352 4.14698
4.15832 8.85250 4.15832
4.17046 8.90960 4.17046
4.18345 8.96476 4.18344
4.19729 9.01792 4.19729
4.21203 9.06906 4.21203
4.22769 9.11814 4.22769
4.24427 9.16515 4.24427
4.26180 9.21007 4.26180
4.28030 9.25291 4.28030
4.29976 9.29366 4.29976
4.32021 9.33231 4.32020
4.34165 9.36885 4.34165
4.36411 9.40326 4.36411
4.38762 9.43550 4.38762
4.41220 9.46550 4.41220
4.43791 9.49316 4.43791
4.46481 9.51836 4.46480
4.49297 9.54092 4.49297
4.52251 9.56061 4.52252
4.55356 9.57716 4.55356
4.58625 9.59026 4.58625
4.62076 9.59953 4.62076
4.65726 9.60461 4.65726
7.36778 7.52655 4.03079
7.53805 7.44332 4.02567
7.68550 7.38254 4.02194
7.81931 7.33520 4.01903
7.94396 7.29692 4.01667
8.06199 7.26520 4.01470
8.17503 7.23845 4.01304
8.28416 7.21559 4.01161
8.39017 7.19586 4.01037
8.49362 7.17869 4.00930
8.59497 7.16365 4.00835
8.69453 7.15042 4.00751
8.79261 7.13870 4.00676
8.88939 7.12831 4.00611
8.98507 7.11905 4.00552
9.07979 7.11079 4.00499
9.17369 7.10338 4.00452
9.26686 7.09675 4.00409
9.35940 7.09079 4.00371
9.45138 7.08542 4.00336
9.54287 7.08059 4.00305
9.63393 7.07622 4.00277
9.72462 7.07228 4.00252
9.81496 7.06871 4.00229
9.90502 7.06548 4.00208
9.99480 7.06256 4.00189
10.08435 7.05992 4.00172
10.17371 7.05751 4.00156
10.26287 7.05534 4.00142
10.35189 7.05335 4.00129
10.44075 7.05157 4.00118
10.52949 7.04994 4.00107
10.61813 7.04846 4.00097
10.70667 7.04711 4.00089
10.79513 7.04589 4.00081
10.88351 7.04477 4.00074
10.97183 7.04376 4.00067
11.06011 7.04284 4.00061
11.14833 7.04200 4.00056
11.23652 7.04124 4.00051
11.32468 7.04054 4.00046
11.41281 7.03991 4.00042
11.50092 7.03934 4.00038
11.58901 7.03881 4.00035
11.67709 7.03833 4.00032
11.76516 7.03790 4.00029
11.85323 7.03750 4.00026
11.94129 7.03714 4.00024
12.02936 7.03682 4.00022
12.11743 7.03652 4.00020
12.20550 7.03625 4.00018
12.29359 7.03600 4.00016
12.38168 7.03577 4.00015
12.46978 7.03557 4.00014
12.55789 7.03538 4.00012
12.64601 7.03521 4.00011
12.73415 7.03506 4.00010
12.82230 7.03492 4.00009
12.91047 7.03479 4.00009
12.99866 7.03467 4.00008
13.08686 7.03456 4.00007
13.17508 7.03447 4.00007
13.26332 7.03438 4.00006
13.35157 7.03430 4.00005
13.43985 7.03422 4.00005
13.52814 7.03416 4.00005
13.61645 7.03410 4.00004
13.70478 7.03404 4.00004
13.79313 7.03399 4.00003
13.88150 7.03394 4.00003
13.96988 7.03390 4.00003
14.05829 7.03386 4.00003
14.14672 7.03383 4.00002
14.23516 7.03380 4.00002
14.32363 7.03377 4.00002
14.41211 7.03374 4.00002
14.50061 7.03372 4.00002
14.58914 7.03370 4.00002
14.67768 7.03368 4.00001
14.76623 7.03366 4.00001
14.85481 7.03364 4.00001
14.94341 7.03363 4.00001
15.03202 7.03362 4.00001
15.12065 7.03360 4.00001
15.20930 7.03359 4.00001
15.29797 7.03358 4.00001
15.38665 7.03357 4.00001
15.47535 7.03356 4.00001
15.56407 7.03356 4.00001
15.65280 7.03355 4.00000
15.74155 7.03354 4.00000
15.83032 7.03354 4.00000
15.91910 7.03353 4.00000
16.00790 7.03353 4.00000
16.09671 7.03352 4.00000
16.18554 7.03352 4.00000
16.27439 7.03352 4.00000
16.36326 7.03351 4.00000
16.45214 7.03351 4.00000
16.54104 7.03351 4.00000
16.62996 7.03350 4.00000
16.71889 7.03350 4.00000
16.80783 7.03350 4.00000
16.89679 7.03350 4.00000
16.98576 7.03350 4.00000
17.07475 7.03350 4.00000
17.16375 7.03349 4.00000
17.25276 7.03349 4.00000
17.34179 7.03349 4.00000
17.43083 7.03349 4.00000
17.51989 7.03349 4.00000
17.60895 7.03349 4.00000
17.69803 7.03349 4.00000
17.78712 7.03349 4.00000
17.87623 7.03349 4.00000
17.96534 7.03349 4.00000
18.05447 7.03348 4.00000
18.14360 7.03348 4.00000
18.23275 7.03348 4.00000
18.32191 7.03348 4.00000
18.41107 7.03348 4.00000
18.50025 7.03348 4.00000
18.58944 7.03348 4.00000
18.67863 7.03348 4.00000
18.76784 7.03348 4.00000
18.85706 7.03348 4.00000
18.94628 7.03348 4.00000
19.03552 7.03348 4.00000
19.12477 7.03348 4.00000
19.21403 7.03347 4.00000
19.30329 7.03347 4.00000
19.39257 7.03347 4.00000
19.48186 7.03347 4.00000
19.57115 7.03347 4.00000
19.66046 7.03347 4.00000
19.74977 7.03348 4.00000
19.83909 7.03348 4.00000
19.92843 7.03348 4.00000
20.01777 7.03348 4.00000
20.10712 7.03348 4.00000
20.19648 7.03348 4.00000
20.28585 7.03348 4.00000
20.37522 7.03348 4.00000
20.46461 7.03348 4.00000
20.55401 7.03348 4.00000
20.64342 7.03348 4.00000
20.73284 7.03348 4.00000
20.82227 7.03348 4.00000
20.91171 7.03348 4.00000
21.00115 7.03348 4.00000
21.09061 7.03348 4.00000
21.18007 7.03348 4.00000
21.26954 7.03348 4.00000
21.35902 7.03348 4.00000
21.44849 7.03348 4.00000
21.53797 7.03348 4.00000
21.62745 7.03348 4.00000
21.71695 7.03348 4.00000
21.80645 7.03348 4.00000
21.89596 7.03348 4.00000
21.98548 7.03348 4.00000
22.07501 7.03348 4.00000
22.16454 7.03348 4.00000
22.25408 7.03348 4.00000
22.34363 7.03348 4.00000
22.43318 7.03348 4.00000
22.52274 7.03348 4.00000
22.61231 7.03348 4.00000
22.70189 7.03348 4.00000
22.79147 7.03348 4.00000
22.88106 7.03348 4.00000
22.97066 7.03348 4.00000
23.06027 7.03348 4.00000
23.14988 7.03347 4.00000
23.23949 7.03348 4.00000
23.32911 7.03348 4.00000
23.41874 7.03348 4.00000
23.50838 7.03347 4.00000
23.59802 7.03348 4.00000
23.68767 7.03347 4.00000
23.77732 7.03348 4.00000
23.86698 7.03348 4.00000
23.95664 7.03348 4.00000
24.04631 7.03348 4.00000
24.13598 7.03348 4.00000
24.22566 7.03348 4.00000
24.31535 7.03348 4.00000
24.40505 7.03348 4.00000
24.49474 7.03348 4.00000
24.58444 7.03348 4.00000
24.67415 7.03348 4.00000
24.76386 7.03348 4.00000
24.85358 7.03348 4.00000
24.94330 7.03348 4.00000
25.03303 7.03348 4.00000
25.12277 7.03348 4.00000
25.21250 7.03348 4.00000
25.30225 7.03348 4.00000
25.39200 7.03348 4.00000
25.48176 7.03348 4.00000
25.57151 7.03348 4.00000
25.66128 7.03348 4.00000
25.75105 7.03348 4.00000
25.84082 7.03348 4.00000
25.93060 7.03348 4.00000
26.02038 7.03348 4.00000
26.11017 7.03348 4.00000
26.19996 7.03348 4.00000
26.28976 7.03348 4.00000
26.37957 7.03347 4.00000
26.46937 7.03348 4.00000
26.55918 7.03348 4.00000
26.64899 7.03348 4.00000
26.73881 7.03348 4.00000
26.82864 7.03348 4.00000
26.91846 7.03348 4.00000
27.00830 7.03348 4.00000
27.09813 7.03348 4.00000
27.18797 7.03348 4.00000
27.27782 7.03348 4.00000
27.36766 7.03348 4.00000
27.45751 7.03348 4.00000
27.54737 7.03348 4.00000
27.63723 7.03348 4.00000
27.72709 7.03348 4.00000
27.81696 7.03348 4.00000
27.90683 7.03348 4.00000
27.99671 7.03348 4.00000
28.08659 7.03348 4.00000
28.17647 7.03348 4.00000
28.26635 7.03348 4.00000
28.35624 7.03348 4.00000
28.44614 7.03348 4.00000
28.53603 7.03348 4.00000
28.62593 7.03348 4.00000
28.71584 7.03348 4.00000
28.80575 7.03348 4.00000
28.89566 7.03348 4.00000
28.98557 7.03348 4.00000
29.07549 7.03348 4.00000
29.16541 7.03348 4.00000
29.25533 7.03348 4.00000
29.34526 7.03348 4.00000
29.43519 7.03348 4.00000
29.52513 7.03348 4.00000
29.61507 7.03348 4.00000
29.70501 7.03348 4.00000
29.79495 7.03348 4.00000
29.88490 7.03348 4.00000
29.97485 7.03348 4.00000
30.06481 7.03348 4.00000
30.15477 7.03348 4.00000
30.24473 7.03348 4.00000
30.33469 7.03348 4.00000
30.42466 7.03348 4.00000
30.51463 7.03348 4.00000
30.60461 7.03348 4.00000
30.69458 7.03348 4.00000
30.78456 7.03348 4.00000
30.87454 7.03348 4.00000
30.96453 7.03348 4.00000
31.05452 7.03348 4.00000
31.14451 7.03348 4.00000
31.23451 7.03348 4.00000
31.32449 7.03349 4.00000
31.41448 7.03349 4.00000
31.50449 7.03348 4.00000
31.59449 7.03348 4.00000
31.68449 7.03348 4.00000
31.77450 7.03348 4.00000
31.86451 7.03348 4.00000
31.95452 7.03348 4.00000
32.04454 7.03348 4.00000
32.13456 7.03348 4.00000
32.22458 7.03348 4.00000
32.31460 7.03348 4.00000
32.40463 7.03348 4.00000
32.49465 7.03348 4.00000
32.58468 7.03348 4.00000
32.67471 7.03349 4.00000
32.76475 7.03348 4.00000
32.85480 7.03348 4.00000
32.94484 7.03348 4.00000
33.03489 7.03348 4.00000
33.12494 7.03348 4.00000
33.21500 7.03348 4.00000
33.30505 7.03348 4.00000
33.39511 7.03348 4.00000
33.48517 7.03348 4.00000
33.57523 7.03348 4.00000
33.66530 7.03348 4.00000
33.75537 7.03348 4.00000
33.84544 7.03348 4.00000
33.93551 7.03348 4.00000
34.02559 7.03348 4.00000
34.11567 7.03348 4.00000
34.20575 7.03348 4.00000
34.29584 7.03348 4.00000
34.38593 7.03348 4.00000
34.47602 7.03348 4.00000
34.56612 7.03348 4.00000
34.65622 7.03348 4.00000
34.74632 7.03348 4.00000
34.83642 7.03348 4.00000
34.92652 7.03348 4.00000
35.01663 7.03348 4.00000
35.10674 7.03348 4.00000
35.19686 7.03348 4.00000
35.28697 7.03348 4.00000
35.37710 7.03348 4.00000
35.46722 7.03348 4.00000
35.55735 7.03348 4.00000
35.64747 7.03348 4.00000
35.73760 7.03348 4.00000
35.82774 7.03348 4.00000
35.91787 7.03348 4.00000
36.00802 7.03348 4.00000
36.09815 7.03348 4.00000
36.18829 7.03348 4.00000
36.27844 7.03348 4.00000
36.36859 7.03348 4.00000
36.45874 7.03348 4.00000
36.54889 7.03348 4.00000
36.63905 7.03348 4.00000
36.72921 7.03348 4.00000
36.81937 7.03348 4.00000
36.90953 7.03348 4.00000
36.99969 7.03348 4.00000
37.08986 7.03348 4.00000
37.18002 7.03348 4.00000

Angle 0.105621 5.395220

4.00000 7.03348 4.00000
4.00000 7.03348 4.00000
4.00000 7.03348 4.00000
4.00000 7.03348 4.00000
4.00000 7.03348 4.00000
4.00000 7.03348 4.00000
4.00000 7.03348 4.00000
4.00000 7.03348 4.00000
4.00000 7.03348 4.00000
4.00000 7.03349 4.00000
4.00000 7.03348 4.00000
4.00000 7.03348 4.00000
4.00000 7.03348 4.00000
4.00000 7.03348 4.00000
4.00000 7.03348 4.00000
4.00000 7.03348 4.00000
4.00000 7.03348 4.00000
4.00000 7.03348 4.00000
4.00000 7.03348 4.00000
4.00000 7.03348 4.00000
4.00000 7.03348 4.00000
4.00000 7.03346 4.00000
4.00000 7.03348 4.00000
4.00000 7.03347 4.00000
4.00000 7.03348 4.00000
4.00000 7.03348 4.00000
4.00000 7.03348 4.00000
4.00000 7.03348 4.00000
4.00000 7.03348 4.00000
4.00000 7.03348 4.00000
4.00000 7.03348 4.00000
4.00000 7.03348 4.00000
4.00000 7.03348 4.00000
4.00000 7.03348 4.00000
4.00000 7.03348 4.00000
4.00000 7.03348 4.00000
4.00000 7.03348 4.00000
4.00000 7.03348 4.00000
4.00000 7.03348 4.00000
4.00000 7.03348 4.00000
4.00000 7.03348 4.00000
4.00000 7.03348 4.00000
4.00000 7.03347 4.00000
4.00000 7.03348 4.00000
4.00000 7.03348 4.00000
4.00000 7.03348 4.00000
4.00000 7.03348 4.00000
4.00000 7.03348 4.00000
4.00000 7.03348 4.00000
4.00000 7.03348 4.00000
4.00000 7.03348 4.00000
4.00000 7.03348 4.00000
4.00000 7.03348 4.00000
4.00000 7.03348 4.00000
4.00000 7.03348 4.00000
4.00000 7.03348 4.00000
4.00000 7.03348 4.00000
4.00000 7.03348 4.00000
4.00000 7.03348 4.00000
4.00000 7.03348 4.00000
4.00000 7.03348 4.00000
4.00000 7.03348 4.00000
4.00000 7.03348 4.00000
4.00000 7.03348 4.00000
4.00000 7.03348 4.00000
4.00000 7.03348 4.00000
4.00000 7.03348 4.00000
4.00000 7.03348 4.00000
4.00000 7.03348 4.00000
4.00000 7.03349 4.00000
4.00000 7.03349 4.00000
4.00000 7.03350 4.00000
4.00000 7.03348 4.00000
4.00000 7.03348 4.00000
4.00000 7.03349 4.00000
4.00000 7.03348 4.00000
4.00000 7.03348 4.00000
4.00000 7.03348 4.00000
4.00000 7.03349 4.00000
4.00000 7.03348 4.00000
4.00000 7.03348 4.00000
4.00000 7.03348 4.00000
4.00000 7.03348 4.00000
4.00000 7.03348 4.00000
4.00000 7.03348 4.00000
4.00000 7.03348 4.00000
4.00000 7.03348 4.00000
4.00000 7.03348 4.00000
4.00000 7.03348 4.00000
4.00000 7.03348 4.00000
4.00000 7.03348 4.00000
4.00000 7.03348 4.00000
4.00000 7.03349 4.00000
4.00000 7.03348 4.00000
4.00000 7.03348 4.00000
4.00000 7.03348 4.00000
4.00000 7.03348 4.00000
4.00000 7.03348 4.00000
4.00000 7.03348 4.00000
4.00001 7.03352 4.00000
4.00000 7.03348 4.00000
4.00000 7.03351 4.00000
4.00000 7.03348 4.00000
4.00000 7.03348 4.00000
4.00000 7.03348 4.00000
4.00000 7.03349 4.00000
4.00000 7.03348 4.00000
4.00000 7.03348 4.00000
4.00163 7.05848 4.00163
4.00523 7.11460 4.00523
4.00882 7.17110 4.00882
4.01238 7.22795 4.01238
4.01594 7.28513 4.01594
4.01949 7.34261 4.01949
4.02304 7.40037 4.02304
4.02660 7.45839 4.02660
4.03018 7.51665 4.03018
4.03378 7.57511 4.03378
4.03742 7.63374 4.03742
4.04110 7.69252 4.04110
4.04484 7.75143 4.04484
4.04864 7.81041 4.04864
4.05252 7.86945 4.05252
4.05649 7.92850 4.05649
4.06056 7.98752 4.06056
4.06475 8.04646 4.06475
4.06908 8.10527 4.06908
4.07358 8.16390 4.07358
4.07825 8.22228 4.07825
4.08314 8.28034 4.08314
4.08827 8.33800 4.08826
4.09367 8.39517 4.09367
4.09939 8.45175 4.09939
4.10547 8.50761 4.10547
4.11196 8.56263 4.11196
4.11894 8.61664 4.11894
4.12646 8.66948 4.12646
4.13451 8.72117 4.13451
4.14308 8.77181 4.14308
4.15218 8.82134 4.15218
4.16185 8.86970 4.16185
4.17210 8.91685 4.17210
4.18295 8.96275 4.18295
4.19443 9.00736 4.19443
4.20655 9.05065 4.20655
4.21934 9.09258 4.21934
4.23280 9.13315 4.23280
4.24695 9.17232 4.24696
4.26181 9.21009 4.26181
4.27738 9.24644 4.27738
4.29368 9.28137 4.29368
4.31070 9.31485 4.31071
4.32848 9.34687 4.32848
4.34702 9.37742 4.34702
4.36633 9.40647 4.36633
4.38644 9.43397 4.38644
4.40738 9.45989 4.40737
4.42916 9.48415 4.42916
4.45184 9.50667 4.45184
4.47547 9.52734 4.47547
4.50011 9.54603 4.50011
4.52583 9.56257 4.52583
4.55272 9.57677 4.55272
4.58089 9.58841 4.58089
4.61044 9.59723 4.61044
4.64150 9.60299 4.64150
4.67442 9.60542 4.67396
4.02896 7.49689 7.42500
4.02489 7.43054 7.56716
4.02174 7.37929 7.69409
4.01920 7.33790 7.81111
4.01708 7.30355 7.92113
4.01528 7.27447 8.02592
4.01373 7.24949 8.12668
4.01237 7.22781 8.22424
4.01119 7.20882 8.31919
4.01014 7.19208 8.41200
4.00920 7.17723 8.50302
4.00837 7.16400 8.59253
4.00762 7.15216 8.68075
4.00695 7.14154 8.76788
4.00634 7.13198 8.85406
4.00579 7.12335 8.93943
4.00529 7.11555 9.02408
4.00484 7.10848 9.10812
4.00443 7.10206 9.19162
4.00406 7.09623 9.27464
4.00372 7.09092 9.35727
4.00341 7.08609 9.43952
4.00312 7.08168 9.52148
4.00286 7.07765 9.60317
4.00263 7.07397 9.68462
4.00241 7.07061 9.76587
4.00221 7.06753 9.84694
4.00203 7.06472 9.92786
4.00186 7.06214 10.00866
4.00171 7.05978 10.08934
4.00157 7.05761 10.16994
4.00144 7.05563 10.25046
4.00132 7.05380 10.33094
4.00121 7.05214 10.41135
4.00111 7.05061 10.49175
4.00102 7.04921 10.57211
4.00094 7.04792 10.65246
4.00086 7.04673 10.73281
4.00079 7.04565 10.81316
4.00073 7.04465 10.89352
4.00067 7.04374 10.97390
4.00061 7.04289 11.05430
4.00056 7.04213 11.13472
4.00052 7.04141 11.21518
4.00047 7.04075 11.29569
4.00043 7.04017 11.37621
4.00040 7.03962 11.45679
4.00037 7.03911 11.53741
4.00034 7.03865 11.61808
4.00031 7.03822 11.69881
4.00028 7.03783 11.77958
4.00026 7.03747 11.86041
4.00024 7.03715 11.94130
4.00022 7.03684 12.02225
4.00020 7.03657 12.10325
4.00018 7.03631 12.18431
4.00017 7.03605 12.26547
4.00016 7.03586 12.34663
4.00014 7.03567 12.42788
4.00013 7.03549 12.50920
4.00012 7.03532 12.59056
4.00011 7.03516 12.67200
4.00010 7.03503 12.75350
4.00009 7.03490 12.83508
4.00009 7.03478 12.91671
4.00008 7.03467 12.99841
4.00007 7.03457 13.08017
4.00007 7.03446 13.16201
4.00006 7.03439 13.24388
4.00005 7.03432 13.32584
4.00005 7.03425 13.40786
4.00004 7.03417 13.48997
4.00004 7.03413 13.57212
4.00004 7.03404 13.65433
4.00004 7.03402 13.73658
4.00004 7.03398 13.81891
4.00003 7.03394 13.90133
4.00003 7.03390 13.98381
4.00003 7.03386 14.06634
4.00002 7.03383 14.14894
4.00002 7.03380 14.23160
4.00002 7.03377 14.31432
4.00002 7.03375 14.39710
4.00002 7.03373 14.47993
4.00002 7.03370 14.56283
4.00001 7.03369 14.64578
4.00001 7.03367 14.72879
4.00001 7.03365 14.81185
4.00001 7.03364 14.89497
4.00001 7.03362 14.97814
4.00001 7.03361 15.06137
4.00001 7.03360 15.14465
4.00001 7.03359 15.22798
4.00001 7.03358 15.31136
4.00001 7.03357 15.39480
4.00001 7.03356 15.47828
4.00001 7.03356 15.56182
4.00000 7.03355 15.64540
4.00000 7.03354 15.72903
4.00000 7.03354 15.81272
4.00000 7.03353 15.89645
4.00000 7.03353 15.98022
4.00000 7.03353 16.06405
4.00000 7.03352 16.14792
4.00000 7.03352 16.23183
4.00000 7.03351 16.31580
4.00000 7.03351 16.39980
4.00000 7.03351 16.48386
4.00000 7.03351 16.56795
4.00000 7.03350 16.65209
4.00000 7.03350 16.73628
4.00000 7.03350 16.82050
4.00000 7.03350 16.90477
4.00000 7.03350 16.98908
4.00000 7.03350 17.07344
4.00000 7.03349 17.15783
4.00000 7.03349 17.24227
4.00000 7.03349 17.32675
4.00000 7.03349 17.41127
4.00000 7.03349 17.49583
4.00000 7.03349 17.58042
4.00000 7.03349 17.66506
4.00000 7.03349 17.74974
4.00000 7.03349 17.83446
4.00000 7.03349 17.91921
4.00000 7.03349 18.00400
4.00000 7.03348 18.08883
4.00000 7.03348 18.17370
4.00000 7.03348 18.25861
4.00000 7.03348 18.34355
4.00000 7.03348 18.42853
4.00000 7.03348 18.51354
4.00000 7.03348 18.59859
4.00000 7.03348 18.68368
4.00000 7.03348 18.76880
4.00000 7.03348 18.85396
4.00000 7.03348 18.93915
4.00000 7.03348 19.02438
4.00000 7.03348 19.10964
4.00000 7.03348 19.19494
4.00000 7.03348 19.28027
4.00000 7.03348 19.36563
4.00000 7.03348 19.45103
4.00000 7.03348 19.53646
4.00000 7.03348 19.62192
4.00000 7.03348 19.70741
4.00000 7.03348 19.79294
4.00000 7.03348 19.87850
4.00000 7.03348 19.96409
4.00000 7.03348 20.04971
4.00000 7.03348 20.13536
4.00000 7.03348 20.22105
4.00000 7.03348 20.30676
4.00000 7.03348 20.39250
4.00000 7.03348 20.47828
4.00000 7.03348 20.56408
4.00000 7.03348 20.64991
4.00000 7.03348 20.73577
4.00000 7.03348 20.82166
4.00000 7.03348 20.90758
4.00000 7.03347 20.99353
4.00000 7.03347 21.07950
4.00000 7.03347 21.16550
4.00000 7.03348 21.25151
4.00000 7.03347 21.33757
4.00000 7.03347 21.42365
4.00000 7.03347 21.50975
4.00000 7.03347 21.59588
4.00000 7.03347 21.68204
4.00000 7.03347 21.76822
4.00000 7.03347 21.85442
4.00000 7.03347 21.94065
4.00000 7.03347 22.02691
4.00000 7.03347 22.11318
4.00000 7.03347 22.19949
4.00000 7.03347 22.28581
4.00000 7.03347 22.37217
4.00000 7.03348 22.45853
4.00000 7.03348 22.54493
4.00000 7.03348 22.63135
4.00000 7.03348 22.71779
4.00000 7.03348 22.80426
4.00000 7.03348 22.89075
4.00000 7.03348 22.97726
4.00000 7.03348 23.06380
4.00000 7.03348 23.15035
4.00000 7.03348 23.23693
4.00000 7.03348 23.32353
4.00000 7.03348 23.41015
4.00000 7.03348 23.49680
4.00000 7.03348 23.58346
4.00000 7.03348 23.67015
4.00000 7.03348 23.75685
4.00000 7.03348 23.84358
4.00000 7.03348 23.93032
4.00000 7.03348 24.01708
4.00000 7.03348 24.10386
4.00000 7.03348 24.19067
4.00000 7.03348 24.27749
4.00000 7.03348 24.36433
4.00000 7.03348 24.45120
4.00000 7.03348 24.53808
4.00000 7.03348 24.62499
4.00000 7.03348 24.71191
4.00000 7.03348 24.79886
4.00000 7.03348 24.88582
4.00000 7.03348 24.97280
4.00000 7.03348 25.05980
4.00000 7.03348 25.14682
4.00000 7.03348 25.23386
4.00000 7.03348 25.32091
4.00000 7.03348 25.40798
4.00000 7.03348 25.49508
4.00000 7.03348 25.58218
4.00000 7.03348 25.66931
4.00000 7.03348 25.75645
4.00000 7.03348 25.84361
4.00000 7.03348 25.93079
4.00000 7.03348 26.01799
4.00000 7.03348 26.10520
4.00000 7.03348 26.19243
4.00000 7.03348 26.27967
4.00000 7.03348 26.36694
4.00000 7.03348 26.45422
4.00000 7.03348 26.54151
4.00000 7.03347 26.62882
4.00000 7.03348 26.71614
4.00000 7.03348 26.80348
4.00000 7.03348 26.89084
4.00000 7.03348 26.97822
4.00000 7.03347 27.06561
4.00000 7.03348 27.15301
4.00000 7.03348 27.24043

Angle 0.252041 2.009511

4.00000 7.03348 4.00000
4.00000 7.03348 4.00000
4.00000 7.03348 4.00000
4.00000 7.03348 4.00000
4.00000 7.03348 4.00000
4.00000 7.03348 4.00000
4.00000 7.03348 4.00000
4.00000 7.03348 4.00000
4.00000 7.03348 4.00000
4.00000 7.03348 4.00000
4.00000 7.03348 4.00000
4.00000 7.03348 4.00000
4.00000 7.03348 4.00000
4.00000 7.03348 4.00000
4.00000 7.03348 4.00000
4.00000 7.03348 4.00000
4.00000 7.03348 4.00000
4.00000 7.03348 4.00000
4.00000 7.03348 4.00000
4.00000 7.03348 4.00000
4.00000 7.03348 4.00000
4.00000 7.03347 4.00000
4.00000 7.03348 4.00000
4.00000 7.03348 4.00000
4.00000 7.03348 4.00000
4.00000 7.03348 4.00000
4.00000 7.03348 4.00000
4.00000 7.03348 4.00000
4.00000 7.03348 4.00000
4.00000 7.03348 4.00000
4.00000 7.03348 4.00000
4.00000 7.03348 4.00000
4.00000 7.03348 4.00000
4.00000 7.03348 4.00000
4.00000 7.03348 4.00000
4.00000 7.03348 4.00000
4.00000 7.03348 4.00000
4.00000 7.03348 4.00000
4.00000 7.03350 4.00000
4.00000 7.03349 4.00000
4.00000 7.03348 4.00000
4.00000 7.03348 4.00000
4.00000 7.03348 4.00000
4.00000 7.03348 4.00000
4.00000 7.03348 4.00000
4.00000 7.03348 4.00000
4.00000 7.03348 4.00000
4.00000 7.03347 4.00000
4.00000 7.03348 4.00000
4.00000 7.03348 4.00000
4.00000 7.03348 4.00000
4.00000 7.03348 4.00000
4.00000 7.03348 4.00000
4.00000 7.03347 4.00000
4.00000 7.03347 4.00000
4.00000 7.03348 4.00000
4.00000 7.03348 4.00000
4.00000 7.03348 4.00000
4.00000 7.03348 4.00000
4.00000 7.03348 4.00000
4.00000 7.03348 4.00000
4.00000 7.03348 4.00000
4.00000 7.03348 4.00000
4.00000 7.03348 4.00000
4.00000 7.03348 4.00000
4.00000 7.03348 4.00000
4.00000 7.03348 4.00000
4.00000 7.03348 4.00000
4.00000 7.03348 4.00000
4.00000 7.03348 4.00000
4.00000 7.03345 4.00000
4.00000 7.03348 4.00000
4.00000 7.03348 4.00000
4.00000 7.03348 4.00000
4.00000 7.03348 4.00000
4.00000 7.03348 4.00000
4.00000 7.03348 4.00000
4.00000 7.03347 4.00000
4.00000 7.03348 4.00000
4.00000 7.03348 4.00000
4.00000 7.03347 4.00000
4.00000 7.03348 4.00000
4.00000 7.03348 4.00000
4.00000 7.03348 4.00000
4.00000 7.03348 4.00000
4.00000 7.03349 4.00000
4.00000 7.03350 4.00000
4.00000 7.03348 4.00000
4.00000 7.03348 4.00000
4.00000 7.03347 4.00000
4.00000 7.03347 4.00000
4.00000 7.03348 4.00000
4.00000 7.03348 4.00000
4.00000 7.03348 4.00000
4.00000 7.03348 4.00000
4.00000 7.03348 4.00000
4.00000 7.03348 4.00000
4.00000 7.03348 4.00000
4.00000 7.03348 4.00000
4.00000 7.03349 4.00000
4.00000 7.03349 4.00000
4.00000 7.03349 4.00000
4.00000 7.03349 4.00000
4.00000 7.03349 4.00000
4.00000 7.03349 4.00000
4.00000 7.03348 4.00000
4.00000 7.03348 4.00000
4.00000 7.03348 4.00000
4.00000 7.03347 4.00000
4.00000 7.03348 4.00000
4.00000 7.03348 4.00000
4.00000 7.03348 4.00000
4.00000 7.03348 4.00000
4.00000 7.03348 4.00000
4.00000 7.03348 4.00000
4.00000 7.03348 4.00000
4.00000 7.03348 4.00000
4.00000 7.03348 4.00000
4.00000 7.03348 4.00000
4.00000 7.03348 4.00000
4.00000 7.03348 4.00000
4.00000 7.03348 4.00000
4.00000 7.03347 4.00000
4.00000 7.03348 4.00000
4.00000 7.03348 4.00000
4.00000 7.03348 4.00000
4.00000 7.03348 4.00000
4.00000 7.03348 4.00000
4.00000 7.03348 4.00000
4.00000 7.03348 4.00000
4.00000 7.03348 4.00000
4.00000 7.03348 4.00000
4.00000 7.03348 4.00000
4.00000 7.03348 4.00000
4.00000 7.03348 4.00000
4.00000 7.03348 4.00000
4.00000 7.03348 4.00000
4.00000 7.03348 4.00000
4.00000 7.03348 4.00000
4.00000 7.03348 4.00000
4.00000 7.03348 4.00000
4.00000 7.03348 4.00000
4.00000 7.03348 4.00000
4.00000 7.03348 4.00000
4.00000 7.03348 4.00000
4.00000 7.03348 4.00000
4.00000 7.03348 4.00000
4.00000 7.03348 4.00000
4.00000 7.03348 4.00000
4.00000 7.03348 4.00000
4.00000 7.03348 4.00000
4.00000 7.03348 4.00000
4.00000 7.03348 4.00000
4.00000 7.03348 4.00000
4.00000 7.03348 4.00000
4.00000 7.03348 4.00000
4.00000 7.03348 4.00000
4.00000 7.03348 4.00000
4.00000 7.03348 4.00000
4.00000 7.03348 4.00000
4.00000 7.03348 4.00000
4.00000 7.03348 4.00000
4.00000 7.03347 4.00000
4.00000 7.03348 4.00000
4.00000 7.03347 4.00000
4.00000 7.03348 4.00000
4.00000 7.03346 4.00000
4.00000 7.03348 4.00000
4.00000 7.03348 4.00000
4.00000 7.03348 4.00000
4.00000 7.03348 4.00000
4.00000 7.03348 4.00000
4.00000 7.03348 4.00000
4.00000 7.03348 4.00000
4.00000 7.03349 4.00000
4.00000 7.03348 4.00000
4.00000 7.03348 4.00000
4.00000 7.03346 4.00000
4.00000 7.03347 4.00000
4.00000 7.03348 4.00000
4.00000 7.03348 4.00000
4.00000 7.03348 4.00000
4.00000 7.03348 4.00000
4.00000 7.03348 4.00000
4.00000 7.03348 4.00000
4.00000 7.03348 4.00000
4.00000 7.03348 4.00000
4.00000 7.03348 4.00000
4.00000 7.03348 4.00000
4.00000 7.03348 4.00000
4.00000 7.03348 4.00000
4.00000 7.03348 4.00000
4.00000 7.03348 4.00000
4.00000 7.03348 4.00000
4.00000 7.03348 4.00000
4.00000 7.03348 4.00000
4.00000 7.03348 4.00000
4.00000 7.03348 4.00000
4.00000 7.03348 4.00000
4.00000 7.03348 4.00000
4.00000 7.03348 4.00000
4.00000 7.03348 4.00000
4.00000 7.03348 4.00000
4.00000 7.03349 4.00000
4.00000 7.03348 4.00000
4.00000 7.03348 4.00000
4.00000 7.03348 4.00000
4.00000 7.03347 4.00000
4.00000 7.03349 4.00000
4.00000 7.03348 4.00000
4.00000 7.03348 4.00000
4.00000 7.03348 4.00000
4.00000 7.03348 4.00000
4.00000 7.03348 4.00000
4.00000 7.03348 4.00000
4.00000 7.03348 4.00000
4.00153 7.05708 4.00153
4.00522 7.11442 4.00522
4.00888 7.17214 4.00888
4.01252 7.23019 4.01252
4.01615 7.28857 4.01615
4.01977 7.34725 4.01977
4.02340 7.40619 4.02340
4.02703 7.46538 4.02703
4.03068 7.52479 4.03068
4.03436 7.58438 4.03436
4.03807 7.64414 4.03807
4.04183 7.70403 4.04183
4.04565 7.76401 4.04565
4.04953 7.82406 4.04953
4.05350 7.88414 4.05350
4.05756 7.94419 4.05756
4.06173 8.00419 4.06173
4.06603 8.06408 4.06603
4.07048 8.12380 4.07048
4.07511 8.18330 4.07511
4.07993 8.24251 4.07993
4.08497 8.30134 4.08497
4.09028 8.35972 4.09028
4.09588 8.41753 4.09588
4.10183 8.47468 4.10183
4.10817 8.53102 4.10817
4.11496 8.58641 4.11496
4.12227 8.64069 4.12227
4.13015 8.69371 4.13015
4.13856 8.74562 4.13856
4.14751 8.79641 4.14751
4.15701 8.84602 4.15701
4.16711 8.89440 4.16711
4.17781 8.94150 4.17781
4.18914 8.98729 4.18914
4.20113 9.03173 4.20113
4.21378 9.07479 4.21378
4.22712 9.11644 4.22712
4.24116 9.15668 4.24116
4.25591 9.19547 4.25591
4.27138 9.23280 4.27139
4.28759 9.26868 4.28759
4.30455 9.30308 4.30455
4.32226 9.33599 4.32226
4.34074 9.36739 4.34074
4.36002 9.39726 4.36001
4.38008 9.42557 4.38008
4.40099 9.45226 4.40099
4.42275 9.47729 4.42275
4.44540 9.50056 4.44541
4.46901 9.52197 4.46901
4.49363 9.54139 4.49363
4.51932 9.55867 4.51932
4.54619 9.57361 4.54619
4.57432 9.58598 4.57432
4.60384 9.59555 4.60384
4.63487 9.60205 4.63487
4.66752 9.60522 4.66752
7.39544 7.51199 4.02989
7.54277 7.44122 4.02555
7.67309 7.38729 4.02223
7.79260 7.34410 4.01958
7.90459 7.30845 4.01738
8.01102 7.27840 4.01552
8.11317 7.25269 4.01392
8.21198 7.23040 4.01254
8.30804 7.21094 4.01132
8.40186 7.19382 4.01025
8.49383 7.17866 4.00929
8.58422 7.16517 4.00844
8.67328 7.15312 4.00768
8.76119 7.14232 4.00700
8.84813 7.13261 4.00638
8.93423 7.12385 4.00582
9.01958 7.11595 4.00532
9.10431 7.10878 4.00486
9.18847 7.10229 4.00445
9.27215 7.09640 4.00407
9.35540 7.09104 4.00372
9.43828 7.08616 4.00341
9.52085 7.08171 4.00312
9.60313 7.07765 4.00286
9.68517 7.07394 4.00262
9.76699 7.07056 4.00241
9.84863 7.06747 4.00221
9.93011 7.06465 4.00202
10.01147 7.06205 4.00186
10.09270 7.05969 4.00170
10.17384 7.05751 4.00156
10.25491 7.05553 4.00143
10.33591 7.05370 4.00132
10.41688 7.05201 4.00121
10.49775 7.05052 4.00111
10.57865 7.04910 4.00102
10.65952 7.04781 4.00093
10.74037 7.04663 4.00086
10.82122 7.04555 4.00079
10.90209 7.04455 4.00072
10.98296 7.04364 4.00066
11.06385 7.04280 4.00061
11.14478 7.04202 4.00056
11.22571 7.04133 4.00051
11.30669 7.04068 4.00047
11.38770 7.04008 4.00043
11.46875 7.03954 4.00040
11.54985 7.03904 4.00036
11.63099 7.03858 4.00033
11.71217 7.03816 4.00030
11.79342 7.03776 4.00028
11.87470 7.03741 4.00026
11.95604 7.03709 4.00024
12.03744 7.03679 4.00022
12.11889 7.03651 4.00020
12.20040 7.03626 4.00018
12.28197 7.03603 4.00017
12.36362 7.03580 4.00015
12.44529 7.03562 4.00014
12.52703 7.03545 4.00013
12.60884 7.03528 4.00012
12.69071 7.03513 4.00011
12.77264 7.03499 4.00010
12.85463 7.03486 4.00009
12.93669 7.03475 4.00008
13.01881 7.03464 4.00008
13.10100 7.03455 4.00007
13.18325 7.03446 4.00006
13.26556 7.03438 4.00006
13.34793 7.03430 4.00005
13.43037 7.03423 4.00005
13.51287 7.03417 4.00005
13.59542 7.03411 4.00004
13.67804 7.03406 4.00004
13.76072 7.03401 4.00004
13.84346 7.03396 4.00003
13.92625 7.03392 4.00003
14.00911 7.03389 4.00003
14.09202 7.03385 4.00003
14.17499 7.03382 4.00002
14.25802 7.03379 4.00002
14.34111 7.03376 4.00002
14.42425 7.03374 4.00002
14.50744 7.03372 4.00002
14.59070 7.03370 4.00002
14.67400 7.03368 4.00001
14.75736 7.03366 4.00001
14.84078 7.03365 4.00001
14.92425 7.03363 4.00001
15.00777 7.03362 4.00001
15.09134 7.03361 4.00001
15.17497 7.03360 4.00001
15.25865 7.03359 4.00001
15.34237 7.03358 4.00001
15.42615 7.03357 4.00001
15.50998 7.03356 4.00001
15.59386 7.03355 4.00001
15.67779 7.03355 4.00001
15.76177 7.03354 4.00000
15.84579 7.03354 4.00000
15.92987 7.03353 4.00000
16.01399 7.03353 4.00000
16.09815 7.03352 4.00000
16.18237 7.03352 4.00000
16.26663 7.03352 4.00000
16.35094 7.03351 4.00000
16.43529 7.03351 4.00000
16.51968 7.03351 4.00000
16.60412 7.03351 4.00000
16.68860 7.03350 4.00000
16.77313 7.03350 4.00000
16.85770 7.03350 4.00000
16.94231 7.03350 4.00000
17.02696 7.03350 4.00000
17.11165 7.03349 4.00000
17.19638 7.03349 4.00000
17.28116 7.03349 4.00000
17.36597 7.03349 4.00000
17.45083 7.03349 4.00000
17.53572 7.03349 4.00000
17.62066 7.03349 4.00000
17.70563 7.03349 4.00000
17.79064 7.03349 4.00000
17.87568 7.03349 4.00000
17.96077 7.03349 4.00000
18.04589 7.03349 4.00000

Angle 0.520802 0.590968

4.00000 7.03348 4.00000
4.00000 7.03348 4.00000
4.00000 7.03348 4.00000
4.00000 7.03348 4.00000
4.00000 7.03348 4.00000
4.00000 7.03348 4.00000
4.00000 7.03348 4.00000
4.00000 7.03348 4.00000
4.00000 7.03348 4.00000
4.00000 7.03348 4.00000
4.00000 7.03348 4.00000
4.00000 7.03348 4.00000
4.00000 7.03348 4.00000
4.00000 7.03348 4.00000
4.00000 7.03348 4.00000
4.00000 7.03348 4.00000
4.00000 7.03348 4.00000
4.00000 7.03348 4.00000
4.00000 7.03348 4.00000
4.00000 7.03348 4.00000
4.00000 7.03348 4.00000
4.00000 7.03348 4.00000
4.00000 7.03348 4.00000
4.00000 7.03348 4.00000
4.00000 7.03348 4.00000
4.00000 7.03348 4.00000
4.00000 7.03348 4.00000
4.00000 7.03348 4.00000
4.00000 7.03348 4.00000
4.00000 7.03348 4.00000
4.00000 7.03348 4.00000
4.00000 7.03348 4.00000
4.00000 7.03348 4.00000
4.00000 7.03348 4.00000
4.00000 7.03348 4.00000
4.00000 7.03348 4.00000
4.00000 7.03348 4.00000
4.00000 7.03348 4.00000
4.00000 7.03348 4.00000
4.00000 7.03348 4.00000
4.00000 7.03348 4.00000
4.00000 7.03348 4.00000
4.00000 7.03348 4.00000
4.00000 7.03348 4.00000
4.00000 7.03348 4.00000
4.00000 7.03348 4.00000
4.00000 7.03348 4.00000
4.00000 7.03348 4.00000
4.00000 7.03348 4.00000
4.00000 7.03348 4.00000
4.00000 7.03348 4.00000
4.00000 7.03348 4.00000
4.00000 7.03348 4.00000
4.00000 7.03348 4.00000
4.00000 7.03348 4.00000
4.00000 7.03348 4.00000
4.00000 7.03348 4.00000
4.00000 7.03348 4.00000
4.00000 7.03348 4.00000
4.00000 7.03348 4.00000
4.00000 7.03348 4.00000
4.00000 7.03348 4.00000
4.00000 7.03348 4.00000
4.00000 7.03348 4.00000
4.00000 7.03348 4.00000
4.00000 7.03348 4.00000
4.00000 7.03349 4.00000
4.00000 7.03348 4.00000
4.00000 7.03348 4.00000
4.00000 7.03348 4.00000
4.00000 7.03348 4.00000
4.00000 7.03348 4.00000
4.00000 7.03348 4.00000
4.00000 7.03348 4.00000
4.00000 7.03348 4.00000
4.00000 7.03348 4.00000
4.00000 7.03348 4.00000
4.00000 7.03348 4.00000
4.00000 7.03348 4.00000
4.00000 7.03348 4.00000
4.00000 7.03348 4.00000
4.00000 7.03348 4.00000
4.00000 7.03348 4.00000
4.00000 7.03348 4.00000
4.00000 7.03348 4.00000
4.00000 7.03348 4.00000
4.00000 7.03348 4.00000
4.00000 7.03348 4.00000
4.00000 7.03348 4.00000
4.00000 7.03348 4.00000
4.00000 7.03348 4.00000
4.00000 7.03348 4.00000
4.00000 7.03348 4.00000
4.00000 7.03348 4.00000
4.00000 7.03348 4.00000
4.00000 7.03348 4.00000
4.00000 7.03348 4.00000
4.00000 7.03348 4.00000
4.00000 7.03348 4.00000
4.00000 7.03348 4.00000
4.00000 7.03348 4.00000
4.00000 7.03348 4.00000
4.00000 7.03348 4.00000
4.00000 7.03348 4.00000
4.00000 7.03348 4.00000
4.00000 7.03347 4.00000
4.00000 7.03348 4.00000
4.00000 7.03348 4.00000
4.00000 7.03348 4.00000
4.00000 7.03348 4.00000
4.00000 7.03348 4.00000
4.00000 7.03348 4.00000
4.00000 7.03348 4.00000
4.00000 7.03348 4.00000
4.00000 7.03348 4.00000
4.00000 7.03348 4.00000
4.00000 7.03348 4.00000
4.00000 7.03348 4.00000
4.00000 7.03348 4.00000
4.00000 7.03348 4.00000
4.00000 7.03348 4.00000
4.00000 7.03348 4.00000
4.00000 7.03348 4.00000
4.00000 7.03348 4.00000
4.00000 7.03348 4.00000
4.00000 7.03348 4.00000
4.00000 7.03348 4.00000
4.00000 7.03348 4.00000
4.00000 7.03350 4.00000
4.00000 7.03350 4.00000
4.00000 7.03351 4.00000
4.00000 7.03348 4.00000
4.00000 7.03348 4.00000
4.00000 7.03348 4.00000
4.00000 7.03348 4.00000
4.00000 7.03348 4.00000
4.00000 7.03348 4.00000
4.00000 7.03348 4.00000
4.00000 7.03348 4.00000
4.00000 7.03348 4.00000
4.00207 7.06532 4.00207
4.00612 7.12854 4.00612
4.01014 7.19210 4.01014
4.01413 7.25595 4.01413
4.01810 7.32008 4.01810
4.02206 7.38444 4.02206
4.02603 7.44901 4.02602
4.03000 7.51375 4.03000
4.03400 7.57863 4.03400
4.03804 7.64362 4.03804
4.04212 7.70866 4.04212
4.04627 7.77374 4.04627
4.05049 7.83879 4.05049
4.05481 7.90378 4.05481
4.05924 7.96866 4.05924
4.06381 8.03336 4.06381
4.06853 8.09783 4.06853
4.07343 8.16200 4.07343
4.07854 8.22578 4.07854
4.08390 8.28909 4.08390
4.08954 8.35182 4.08954
4.09551 8.41387 4.09551
4.10187 8.47509 4.10187
4.10867 8.53532 4.10867
4.11599 8.59440 4.11599
4.12390 8.65212 4.12390
4.13246 8.70837 4.13246
4.14159 8.76333 4.14159
4.15134 8.81694 4.15134
4.16173 8.86914 4.16173
4.17279 8.91989 4.17279
4.18453 8.96913 4.18453
4.19699 9.01682 4.19699
4.21019 9.06293 4.21019
4.22414 9.10744 4.22414
4.23886 9.15032 4.23886
4.25436 9.19156 4.25436
4.27066 9.23114 4.27066
4.28777 9.26906 4.28777
4.30570 9.30531 4.30570
4.32446 9.33988 4.32446
4.34407 9.37274 4.34407
4.36453 9.40388 4.36453
4.38589 9.43325 4.38588
4.40815 9.46080 4.40815
4.43136 9.48646 4.43136
4.45557 9.51012 4.45557
4.48084 9.53166 4.48084
4.50724 9.55092 4.50724
4.53486 9.56769 4.53486
4.56382 9.58174 4.56382
4.59423 9.59281 4.59423
4.62623 9.60060 4.62624
4.65997 9.60481 4.65997
7.36612 7.52743 4.03084
7.52402 7.44962 4.02606
7.66181 7.39166 4.02250
7.78727 7.34591 4.01969
7.90432 7.30853 4.01739
8.01527 7.27727 4.01545
8.12155 7.25070 4.01380
8.22421 7.22781 4.01237
8.32390 7.20793 4.01113
8.42122 7.19050 4.01004
8.51653 7.17515 4.00907
8.61018 7.16154 4.00821
8.70240 7.14943 4.00745
8.79342 7.13861 4.00676
8.88339 7.12893 4.00615
8.97247 7.12022 4.00559
9.06077 7.11238 4.00509
9.14838 7.10531 4.00464
9.23540 7.09892 4.00423
9.32193 7.09313 4.00386
9.40798 7.08789 4.00352
9.49364 7.08313 4.00322
9.57894 7.07881 4.00294
9.66396 7.07487 4.00268
9.74870 7.07129 4.00245
9.83321 7.06803 4.00224
9.91751 7.06506 4.00205
10.00164 7.06235 4.00188
10.08562 7.05988 4.00172
10.16947 7.05762 4.00157
10.25321 7.05556 4.00144
10.33684 7.05369 4.00131
10.42042 7.05196 4.00120
10.50390 7.05039 4.00110
10.58734 7.04895 4.00101
10.67075 7.04763 4.00092
10.75410 7.04644 4.00084
10.83744 7.04533 4.00077
10.92076 7.04433 4.00071
11.00407 7.04342 4.00065
11.08739 7.04257 4.00059
11.17071 7.04178 4.00054
11.25402 7.04109 4.00049
11.33736 7.04045 4.00045
11.42071 7.03986 4.00042
11.50409 7.03931 4.00038
11.58748 7.03882 4.00035
11.67092 7.03837 4.00032
11.75437 7.03795 4.00029
11.83786 7.03757 4.00027
11.92139 7.03722 4.00024
12.00495 7.03691 4.00022
12.08855 7.03662 4.00020
12.17221 7.03634 4.00019
12.25588 7.03610 4.00017
12.33960 7.03588 4.00016
12.42337 7.03567 4.00014
12.50718 7.03548 4.00014
12.59105 7.03532 4.00012
12.67494 7.03516 4.00012
12.75891 7.03502 4.00010
12.84291 7.03488 4.00009
12.92696 7.03476 4.00009
13.01106 7.03465 4.00008
13.09521 7.03455 4.00007
13.17941 7.03446 4.00007
13.26366 7.03438 4.00006
13.34796 7.03430 4.00006
13.43230 7.03423 4.00005
13.51663 7.03416 4.00005
13.60105 7.03411 4.00004
13.68553 7.03405 4.00004
13.77006 7.03400 4.00004
13.85463 7.03396 4.00003
13.93925 7.03392 4.00003
14.02391 7.03388 4.00003
14.10862 7.03384 4.00002
14.19338 7.03381 4.00002
14.27818 7.03378 4.00002
14.36303 7.03376 4.00002
14.44792 7.03373 4.00002
14.53286 7.03371 4.00002
14.61784 7.03369 4.00002
14.70286 7.03367 4.00001
14.78793 7.03366 4.00001
14.87303 7.03364 4.00001
14.95818 7.03363 4.00001
15.04337 7.03361 4.00001
15.12861 7.03360 4.00001
15.21388 7.03359 4.00001
15.29919 7.03358 4.00001
15.38455 7.03357 4.00001
15.46994 7.03357 4.00001
15.55537 7.03356 4.00001
15.64085 7.03355 4.00001
15.72636 7.03354 4.00001
15.81190 7.03354 4.00000
15.89749 7.03353 4.00000
15.98311 7.03353 4.00000
16.06877 7.03352 4.00000
16.15447 7.03352 4.00000
16.24020 7.03352 4.00000
16.32596 7.03351 4.00000
16.41177 7.03351 4.00000
16.49760 7.03351 4.00000
16.58348 7.03351 4.00000
16.66938 7.03350 4.00000
16.75532 7.03350 4.00000
16.84130 7.03350 4.00000
16.92731 7.03350 4.00000
17.01335 7.03350 4.00000
17.09942 7.03349 4.00000
17.18552 7.03349 4.00000
17.27166 7.03349 4.00000
17.35783 7.03349 4.00000
17.44403 7.03349 4.00000
17.53026 7.03349 4.00000
17.61652 7.03349 4.00000
17.70281 7.03349 4.00000
17.78913 7.03349 4.00000
17.87549 7.03349 4.00000
17.96187 7.03349 4.00000
18.04828 7.03349 4.00000
18.13468 7.03348 4.00000
18.22111 7.03348 4.00000
18.30756 7.03348 4.00000
18.39405 7.03348 4.00000
18.48057 7.03348 4.00000
18.56710 7.03348 4.00000
18.65368 7.03348 4.00000
18.74028 7.03348 4.00000
18.82691 7.03348 4.00000
18.91356 7.03348 4.00000
19.00024 7.03348 4.00000
19.08694 7.03348 4.00000
19.17367 7.03348 4.00000
19.26042 7.03348 4.00000
19.34720 7.03348 4.00000
19.43400 7.03347 4.00000
19.52083 7.03347 4.00000
19.60768 7.03347 4.00000
19.69455 7.03347 4.00000
19.78145 7.03347 4.00000
19.86837 7.03347 4.00000
19.95532 7.03347 4.00000
20.04228 7.03348 4.00000
20.12927 7.03348 4.00000
20.21628 7.03348 4.00000
20.30331 7.03348 4.00000
20.39037 7.03348 4.00000
20.47745 7.03348 4.00000
20.56455 7.03348 4.00000
20.65168 7.03347 4.00000
20.73881 7.03348 4.00000
20.82598 7.03348 4.00000
20.91316 7.03348 4.00000
21.00037 7.03348 4.00000
21.08760 7.03348 4.00000
21.17483 7.03348 4.00000
21.26209 7.03348 4.00000
21.34937 7.03348 4.00000
21.43667 7.03348 4.00000
21.52399 7.03348 4.00000
21.61132 7.03348 4.00000
21.69868 7.03348 4.00000
21.78606 7.03348 4.00000
21.87345 7.03348 4.00000
21.96088 7.03347 4.00000
22.04831 7.03348 4.00000
22.13577 7.03348 4.00000
22.22324 7.03348 4.00000
22.31074 7.03348 4.00000
22.39825 7.03348 4.00000
22.48578 7.03348 4.00000
22.57332 7.03348 4.00000
22.66089 7.03348 4.00000
22.74847 7.03348 4.00000
22.83607 7.03348 4.00000
22.92368 7.03348 4.00000
23.01131 7.03348 4.00000
23.09896 7.03348 4.00000
23.18662 7.03348 4.00000
23.27431 7.03348 4.00000
23.36200 7.03348 4.00000
23.44972 7.03348 4.00000
23.53744 7.03348 4.00000
23.62519 7.03348 4.00000
23.71295 7.03348 4.00000
23.80073 7.03348 4.00000
23.88852 7.03348 4.00000
23.97633 7.03347 4.00000
24.06414 7.03348 4.00000
24.15198 7.03348 4.00000
24.23983 7.03348 4.00000
24.32770 7.03348 4.00000
24.41557 7.03349 4.00000
24.50348 7.03348 4.00000
24.59138 7.03348 4.00000
24.67931 7.03348 4.00000
24.76724 7.03348 4.00000
24.85519 7.03348 4.00000
24.94316 7.03347 4.00000
25.03113 7.03348 4.00000
25.11913 7.03348 4.00000
25.20713 7.03348 4.00000
25.29516 7.03347 4.00000

Angle 0.562918 2.737098

4.00000 7.03348 4.00000
4.00000 7.03348 4.00000
4.00000 7.03348 4.00000
4.00000 7.03348 4.00000
4.00000 7.03348 4.00000
4.00000 7.03348 4.00000
4.00000 7.03348 4.00000
4.00000 7.03348 4.00000
4.00000 7.03348 4.00000
4.00000 7.03348 4.00000
4.00000 7.03348 4.00000
4.00000 7.03348 4.00000
4.00000 7.03348 4.00000
4.00000 7.03348 4.00000
4.00000 7.03348 4.00000
4.00000 7.03347 4.00000
4.00000 7.03348 4.00000
4.00000 7.03348 4.00000
4.00000 7.03348 4.00000
4.00000 7.03348 4.00000
4.00000 7.03348 4.00000
4.00000 7.03347 4.00000
4.00000 7.03348 4.00000
4.00000 7.03348 4.00000
4.00000 7.03348 4.00000
4.00000 7.03348 4.00000
4.00000 7.03348 4.00000
4.00000 7.03348 4.00000
4.00000 7.03348 4.00000
4.00000 7.03348 4.00000
4.00000 7.03348 4.00000
4.00000 7.03348 4.00000
4.00000 7.03349 4.00000
4.00000 7.03348 4.00000
4.00000 7.03348 4.00000
4.00000 7.03348 4.00000
4.00000 7.03348 4.00000
4.00000 7.03348 4.00000
4.00000 7.03348 4.00000
4.00000 7.03348 4.00000
4.00000 7.03348 4.00000
4.00000 7.03348 4.00000
4.00000 7.03348 4.00000
4.00000 7.03348 4.00000
4.00000 7.03348 4.00000
4.00000 7.03348 4.00000
4.00000 7.03348 4.00000
4.00000 7.03348 4.00000
4.00000 7.03348 4.00000
4.00000 7.03348 4.00000
4.00000 7.03348 4.00000
4.00000 7.03348 4.00000
4.00000 7.03348 4.00000
4.00000 7.03348 4.00000
4.00000 7.03348 4.00000
4.00000 7.03348 4.00000
4.00000 7.03348 4.00000
4.00000 7.03348 4.00000
4.00000 7.03348 4.00000
4.00000 7.03348 4.00000
4.00000 7.03348 4.00000
4.00000 7.03348 4.00000
4.00000 7.03347 4.00000
4.00000 7.03347 4.00000
4.00000 7.03347 4.00000
4.00000 7.03348 4.00000
4.00000 7.03348 4.00000
4.00000 7.03348 4.00000
4.00000 7.03348 4.00000
4.00000 7.03348 4.00000
4.00000 7.03348 4.00000
4.00000 7.03348 4.00000
4.00000 7.03348 4.00000
4.00000 7.03348 4.00000
4.00000 7.03348 4.00000
4.00000 7.03348 4.00000
4.00000 7.03348 4.00000
4.00000 7.03348 4.00000
4.00000 7.03348 4.00000
4.00000 7.03348 4.00000
4.00000 7.03348 4.00000
4.00000 7.03348 4.00000
4.00000 7.03348 4.00000
4.00000 7.03348 4.00000
4.00000 7.03348 4.00000
4.00000 7.03348 4.00000
4.00000 7.03348 4.00000
4.00000 7.03348 4.00000
4.00000 7.03348 4.00000
4.00000 7.03348 4.00000
4.00000 7.03348 4.00000
4.00000 7.03348 4.00000
4.00000 7.03348 4.00000
4.00000 7.03349 4.00000
4.00000 7.03349 4.00000
4.00000 7.03349 4.00000
4.00000 7.03348 4.00000
4.00000 7.03348 4.00000
4.00000 7.03348 4.00000
4.00000 7.03348 4.00000
4.00000 7.03348 4.00000
4.00000 7.03348 4.00000
4.00000 7.03348 4.00000
4.00000 7.03348 4.00000
4.00000 7.03348 4.00000
4.00000 7.03348 4.00000
4.00000 7.03348 4.00000
4.00000 7.03350 4.00000
4.00000 7.03348 4.00000
4.00000 7.03348 4.00000
4.00000 7.03348 4.00000
4.00000 7.03348 4.00000
4.00000 7.03348 4.00000
4.00000 7.03348 4.00000
4.00000 7.03348 4.00000
4.00000 7.03348 4.00000
4.00000 7.03348 4.00000
4.00000 7.03348 4.00000
4.00000 7.03348 4.00000
4.00000 7.03348 4.00000
4.00000 7.03348 4.00000
4.00000 7.03348 4.00000
4.00000 7.03348 4.00000
4.00000 7.03348 4.00000
4.00000 7.03348 4.00000
4.00000 7.03348 4.00000
4.00000 7.03348 4.00000
4.00000 7.03348 4.00000
4.00000 7.03348 4.00000
4.00000 7.03348 4.00000
4.00000 7.03348 4.00000
4.00000 7.03348 4.00000
4.00000 7.03348 4.00000
4.00000 7.03348 4.00000
4.00000 7.03348 4.00000
4.00000 7.03348 4.00000
4.00000 7.03348 4.00000
4.00000 7.03348 4.00000
4.00000 7.03348 4.00000
4.00000 7.03348 4.00000
4.00000 7.03348 4.00000
4.00000 7.03348 4.00000
4.00000 7.03348 4.00000
4.00000 7.03348 4.00000
4.00000 7.03348 4.00000
4.00000 7.03348 4.00000
4.00000 7.03348 4.00000
4.00000 7.03348 4.00000
4.00000 7.03348 4.00000
4.00000 7.03348 4.00000
4.00000 7.03348 4.00000
4.00000 7.03351 4.00000
4.00000 7.03348 4.00000
4.00000 7.03348 4.00000
4.00000 7.03348 4.00000
4.00000 7.03348 4.00000
4.00000 7.03348 4.00000
4.00000 7.03348 4.00000
4.00000 7.03348 4.00000
4.00000 7.03348 4.00000
4.00000 7.03348 4.00000
4.00000 7.03347 4.00000
4.00000 7.03348 4.00000
4.00000 7.03348 4.00000
4.00000 7.03348 4.00000
4.00000 7.03347 4.00000
4.00000 7.03348 4.00000
4.00000 7.03348 4.00000
4.00000 7.03348 4.00000
4.00000 7.03348 4.00000
4.00000 7.03348 4.00000
4.00000 7.03348 4.00000
4.00000 7.03348 4.00000
4.00000 7.03348 4.00000
4.00000 7.03348 4.00000
4.00000 7.03348 4.00000
4.00000 7.03348 4.00000
4.00000 7.03347 4.00000
4.00000 7.03348 4.00000
4.00000 7.03348 4.00000
4.00000 7.03348 4.00000
4.00000 7.03348 4.00000
4.00000 7.03348 4.00000
4.00000 7.03348 4.00000
4.00000 7.03348 4.00000
4.00000 7.03348 4.00000
4.00000 7.03349 4.00000
4.00000 7.03348 4.00000
4.00000 7.03348 4.00000
4.00000 7.03347 4.00000
4.00000 7.03348 4.00000
4.00000 7.03348 4.00000
4.00000 7.03348 4.00000
4.00000 7.03348 4.00000
4.00000 7.03349 4.00000
4.00000 7.03349 4.00000
4.00000 7.03349 4.00000
4.00000 7.03348 4.00000
4.00000 7.03348 4.00000
4.00000 7.03348 4.00000
4.00000 7.03348 4.00000
4.00000 7.03348 4.00000
4.00000 7.03348 4.00000
4.00000 7.03348 4.00000
4.00000 7.03348 4.00000
4.00000 7.03348 4.00000
4.00000 7.03348 4.00000
4.00000 7.03348 4.00000
4.00000 7.03348 4.00000
4.00000 7.03348 4.00000
4.00000 7.03348 4.00000
4.00000 7.03348 4.00000
4.00000 7.03348 4.00000
4.00000 7.03348 4.00000
4.00000 7.03348 4.00000
4.00000 7.03348 4.00000
4.00000 7.03348 4.00000
4.00000 7.03348 4.00000
4.00000 7.03348 4.00000
4.00000 7.03348 4.00000
4.00000 7.03348 4.00000
4.00000 7.03348 4.00000
4.00000 7.03348 4.00000
4.00000 7.03348 4.00000
4.00000 7.03348 4.00000
4.00000 7.03348 4.00000
4.00000 7.03348 4.00000
4.00000 7.03348 4.00000
4.00000 7.03348 4.00000
4.00000 7.03348 4.00000
4.00000 7.03348 4.00000
4.00000 7.03348 4.00000
4.00000 7.03348 4.00000
4.00000 7.03348 4.00000
4.00000 7.03348 4.00000
4.00000 7.03348 4.00000
4.00000 7.03348 4.00000
4.00000 7.03348 4.00000
4.00000 7.03348 4.00000
4.00000 7.03348 4.00000
4.00000 7.03347 4.00000
4.00000 7.03348 4.00000
4.00000 7.03348 4.00000
4.00000 7.03348 4.00000
4.00000 7.03348 4.00000
4.00000 7.03348 4.00000
4.00000 7.03348 4.00000
4.00000 7.03348 4.00000
4.00000 7.03348 4.00000
4.00000 7.03348 4.00000
4.00000 7.03348 4.00000
4.00000 7.03348 4.00000
4.00000 7.03347 4.00000
4.00000 7.03349 4.00000
4.00000 7.03348 4.00000
4.00000 7.03348 4.00000
4.00000 7.03347 4.00000
4.00059 7.04247 4.00059
4.00530 7.11563 4.00530
4.00995 7.18906 4.00995
4.01455 7.26273 4.01455
4.01912 7.33659 4.01912
4.02367 7.41059 4.02367
4.02821 7.48469 4.02821
4.03278 7.55883 4.03278
4.03737 7.63296 4.03737
4.04202 7.70705 4.04202
4.04674 7.78102 4.04674
4.05155 7.85482 4.05155
4.05648 7.92839 4.05648
4.06155 8.00165 4.06155
4.06680 8.07452 4.06680
4.07225 8.14692 4.07225
4.07796 8.21872 4.07796
4.08396 8.28983 4.08396
4.09031 8.36010 4.09031
4.09708 8.42937 4.09708
4.10433 8.49745 4.10433
4.11215 8.56413 4.11215
4.12065 8.62916 4.12065
4.12993 8.69228 4.12993
4.13993 8.75366 4.13993
4.15066 8.81332 4.15066
4.16215 8.87117 4.16216
4.17445 8.92716 4.17446
4.18759 8.98123 4.18759
4.20158 9.03333 4.20158
4.21645 9.08343 4.21646
4.23224 9.13152 4.23224
4.24894 9.17756 4.24894
4.26658 9.22157 4.26658
4.28517 9.26352 4.28517
4.30472 9.30342 4.30472
4.32525 9.34125 4.32525
4.34676 9.37701 4.34676
4.36928 9.41067 4.36928
4.39283 9.44217 4.39284
4.41746 9.47146 4.41746
4.44321 9.49842 4.44321
4.47015 9.52293 4.47015
4.49836 9.54480 4.49836
4.52795 9.56380 4.52795
4.55904 9.57966 4.55904
4.59179 9.59206 4.59179
4.62637 9.60062 4.62635
4.66292 9.60499 4.66293
4.70153 9.60483 4.70174
4.02510 7.43396 7.55925
4.02153 7.37576 7.70349
4.01871 7.33007 7.83506
4.01642 7.29294 7.95798
4.01451 7.26205 8.07460
4.01288 7.23593 8.18644
4.01148 7.21356 8.29453
4.01027 7.19421 8.39960
4.00921 7.17736 8.50220
4.00828 7.16257 8.60276
4.00745 7.14954 8.70158
4.00672 7.13799 8.79896
4.00607 7.12773 8.89508
4.00549 7.11859 8.99013
4.00497 7.11042 9.08425
4.00450 7.10311 9.17755
4.00408 7.09653 9.27015
4.00370 7.09062 9.36214
4.00336 7.08532 9.45356
4.00305 7.08050 9.54454
4.00277 7.07616 9.63508
4.00252 7.07224 9.72526
4.00229 7.06870 9.81510
4.00208 7.06550 9.90465
4.00189 7.06259 9.99395
4.00172 7.05994 10.08304
4.00157 7.05756 10.17191
4.00142 7.05539 10.26061
4.00130 7.05341 10.34916
4.00118 7.05163 10.43756
4.00108 7.05000 10.52585
4.00098 7.04852 10.61404
4.00089 7.04717 10.70214
4.00081 7.04595 10.79016
4.00074 7.04484 10.87811
4.00067 7.04382 10.96600
4.00061 7.04290 11.05385
4.00056 7.04205 11.14165
4.00051 7.04130 11.22941
4.00046 7.04060 11.31715
4.00042 7.03996 11.40488
4.00039 7.03939 11.49257
4.00035 7.03886 11.58026
4.00032 7.03838 11.66793
4.00029 7.03794 11.75561
4.00027 7.03755 11.84327
4.00024 7.03718 11.93095
4.00022 7.03685 12.01862
4.00020 7.03656 12.10630
4.00018 7.03627 12.19400
4.00017 7.03603 12.28168
4.00015 7.03580 12.36941
4.00014 7.03560 12.45712
4.00013 7.03541 12.54486
4.00011 7.03524 12.63261
4.00010 7.03508 12.72038
4.00010 7.03494 12.80817
4.00009 7.03481 12.89597
4.00008 7.03469 12.98380
4.00007 7.03458 13.07164
4.00007 7.03448 13.15950
4.00006 7.03439 13.24739
4.00006 7.03431 13.33529
4.00005 7.03424 13.42323
4.00005 7.03417 13.51117
4.00004 7.03411 13.59914
4.00004 7.03405 13.68713
4.00004 7.03400 13.77515
4.00003 7.03395 13.86317
4.00003 7.03391 13.95122
4.00003 7.03387 14.03931
4.00003 7.03384 14.12741
4.00002 7.03381 14.21554
4.00002 7.03378 14.30365
4.00002 7.03375 14.39182
4.00002 7.03373 14.48000
4.00002 7.03370 14.56821
4.00001 7.03368 14.65645
4.00001 7.03367 14.74471
4.00001 7.03365 14.83299
4.00001 7.03363 14.92129
4.00001 7.03362 15.00961
4.00001 7.03361 15.09795
4.00001 7.03360 15.18632
4.00001 7.03359 15.27470
4.00001 7.03358 15.36310
4.00000 7.03357 15.45151
4.00000 7.03356 15.53995
4.00001 7.03355 15.62839
4.00000 7.03355 15.71687
4.00001 7.03354 15.80536
4.00000 7.03353 15.89388
4.00000 7.03353 15.98241

Angle 0.410152 2.189690

4.00000 7.03348 4.00000
4.00000 7.03348 4.00000
4.00000 7.03348 4.00000
4.00000 7.03348 4.00000
4.00000 7.03348 4.00000
4.00000 7.03348 4.00000
4.00000 7.03345 4.00000
4.00000 7.03348 4.00000
4.00000 7.03348 4.00000
4.00000 7.03348 4.00000
4.00000 7.03348 4.00000
4.00000 7.03347 4.00000
4.00000 7.03348 4.00000
4.00000 7.03348 4.00000
4.00000 7.03348 4.00000
4.00000 7.03348 4.00000
4.00000 7.03348 4.00000
4.00000 7.03347 4.00000
4.00000 7.03347 4.00000
4.00000 7.03348 4.00000
4.00000 7.03348 4.00000
4.00000 7.03348 4.00000
4.00000 7.03348 4.00000
4.00000 7.03349 4.00000
4.00000 7.03349 4.00000
4.00000 7.03349 4.00000
4.00000 7.03349 4.00000
4.00000 7.03348 4.00000
4.00000 7.03348 4.00000
4.00000 7.03348 4.00000
4.00000 7.03347 4.00000
4.00000 7.03348 4.00000
4.00000 7.03348 4.00000
4.00000 7.03348 4.00000
4.00000 7.03348 4.00000
4.00000 7.03347 4.00000
4.00000 7.03347 4.00000
4.00000 7.03347 4.00000
4.00000 7.03348 4.00000
4.00000 7.03349 4.00000
4.00000 7.03348 4.00000
4.00000 7.03349 4.00000
4.00000 7.03348 4.00000
4.00000 7.03348 4.00000
4.00000 7.03348 4.00000
4.00000 7.03348 4.00000
4.00000 7.03348 4.00000
4.00000 7.03348 4.00000
4.00000 7.03348 4.00000
4.00000 7.03348 4.00000
4.00000 7.03348 4.00000
4.00000 7.03348 4.00000
4.00001 7.03350 3.99999
4.00000 7.03348 4.00000
4.00000 7.03348 4.00000
4.00000 7.03347 4.00000
4.00000 7.03348 4.00000
4.00000 7.03348 4.00000
4.00000 7.03348 4.00000
4.00000 7.03348 4.00000
4.00000 7.03348 4.00000
4.00000 7.03348 4.00000
4.00000 7.03348 4.00000
4.00000 7.03348 4.00000
4.00000 7.03348 4.00000
4.00000 7.03348 4.00000
4.00000 7.03348 4.00000
4.00000 7.03348 4.00000
4.00000 7.03348 4.00000
4.00000 7.03348 4.00000
4.00000 7.03348 4.00000
4.00000 7.03348 4.00000
4.00000 7.03348 4.00000
4.00000 7.03348 4.00000
4.00000 7.03348 4.00000
4.00000 7.03348 4.00000
4.00000 7.03348 4.00000
4.00000 7.03348 4.00000
4.00000 7.03348 4.00000
4.00000 7.03348 4.00000
4.00000 7.03348 4.00000
4.00000 7.03348 4.00000
4.00000 7.03348 4.00000
4.00000 7.03348 4.00000
4.00000 7.03348 4.00000
4.00000 7.03348 4.00000
4.00000 7.03348 4.00000
4.00000 7.03348 4.00000
4.00000 7.03348 4.00000
4.00000 7.03348 4.00000
4.00000 7.03348 4.00000
4.00000 7.03347 4.00000
4.00000 7.03347 4.00000
4.00000 7.03347 4.00000
4.00000 7.03347 4.00000
4.00000 7.03348 4.00000
4.00000 7.03348 4.00000
4.00000 7.03348 4.00000
4.00000 7.03347 4.00000
4.00000 7.03348 4.00000
4.00000 7.03348 4.00000
4.00000 7.03348 4.00000
4.00000 7.03348 4.00000
4.00000 7.03348 4.00000
4.00000 7.03348 4.00000
4.00000 7.03348 4.00000
4.00000 7.03348 4.00000
4.00000 7.03348 4.00000
4.00000 7.03348 4.00000
4.00000 7.03348 4.00000
4.00000 7.03348 4.00000
4.00000 7.03348 4.00000
4.00000 7.03348 4.00000
4.00000 7.03348 4.00000
4.00014 7.03561 4.00014
4.00427 7.09951 4.00427
4.00836 7.16391 4.00837
4.01242 7.22862 4.01243
4.01646 7.29360 4.01646
4.02049 7.35883 4.02048
4.02450 7.42427 4.02450
4.02853 7.48988 4.02853
4.03258 7.55563 4.03258
4.03666 7.62150 4.03666
4.04078 7.68742 4.04078
4.04496 7.75337 4.04496
4.04922 7.81931 4.04922
4.05357 7.88518 4.05357
4.05802 7.95093 4.05802
4.06260 8.01652 4.06260
4.06734 8.08186 4.06734
4.07225 8.14691 4.07225
4.07738 8.21157 4.07738
4.08274 8.27575 4.08274
4.08839 8.33936 4.08839
4.09437 8.40228 4.09436
4.10072 8.46437 4.10072
4.10752 8.52547 4.10752
4.11483 8.58542 4.11483
4.12273 8.64399 4.12273
4.13130 8.70105 4.13130
4.14046 8.75677 4.14046
4.15024 8.81111 4.15024
4.16067 8.86402 4.16067
4.17177 8.91543 4.17177
4.18358 8.96530 4.18358
4.19611 9.01359 4.19611
4.20939 9.06027 4.20939
4.22344 9.10530 4.22344
4.23827 9.14867 4.23827
4.25389 9.19036 4.25389
4.27033 9.23036 4.27033
4.28759 9.26867 4.28759
4.30568 9.30526 4.30568
4.32461 9.34014 4.32461
4.34440 9.37328 4.34440
4.36507 9.40465 4.36507
4.38664 9.43423 4.38664
4.40913 9.46195 4.40913
4.43259 9.48773 4.43259
4.45706 9.51148 4.45706
4.48261 9.53306 4.48261
4.50932 9.55230 4.50932
4.53728 9.56900 4.53728
4.56659 9.58291 4.56659
4.59740 9.59375 4.59740
4.62983 9.60124 4.62983
4.66404 9.60505 4.66404
7.38739 7.51618 4.03015
7.54319 7.44104 4.02553
7.67999 7.38464 4.02207
7.80498 7.33994 4.01932
7.92186 7.30333 4.01706
8.03278 7.27268 4.01517
8.13918 7.24658 4.01354
8.24200 7.22410 4.01214
8.34194 7.20455 4.01092
8.43953 7.18743 4.00984
8.53516 7.17233 4.00889
8.62914 7.15895 4.00805
8.72172 7.14705 4.00730
8.81312 7.13641 4.00662
8.90348 7.12689 4.00602
8.99294 7.11834 4.00547
9.08165 7.11064 4.00498
9.16968 7.10369 4.00454
9.25713 7.09742 4.00413
9.34406 7.09173 4.00377
9.43054 7.08659 4.00344
9.51665 7.08191 4.00314
9.60238 7.07768 4.00287
9.68783 7.07383 4.00261
9.77301 7.07032 4.00239
9.85794 7.06715 4.00219
9.94270 7.06423 4.00200
10.02728 7.06157 4.00183
10.11169 7.05916 4.00167
10.19598 7.05695 4.00153
10.28016 7.05494 4.00140
10.36424 7.05310 4.00128
10.44825 7.05142 4.00117
10.53220 7.04987 4.00107
10.61605 7.04849 4.00098
10.69989 7.04720 4.00089
10.78368 7.04603 4.00082
10.86746 7.04496 4.00075
10.95121 7.04399 4.00068
11.03495 7.04309 4.00063
11.11871 7.04226 4.00057
11.20244 7.04152 4.00052
11.28618 7.04084 4.00048
11.36994 7.04021 4.00044
11.45372 7.03964 4.00040
11.53751 7.03911 4.00037
11.62133 7.03863 4.00034
11.70516 7.03820 4.00031
11.78905 7.03779 4.00028
11.87294 7.03742 4.00026
11.95688 7.03708 4.00024
12.04085 7.03678 4.00021
12.12485 7.03649 4.00020
12.20890 7.03624 4.00018
12.29298 7.03600 4.00017
12.37710 7.03579 4.00015
12.46127 7.03559 4.00013
12.54546 7.03542 4.00012
12.62972 7.03524 4.00011
12.71401 7.03509 4.00010
12.79835 7.03495 4.00009
12.88271 7.03483 4.00009
12.96714 7.03471 4.00008
13.05161 7.03460 4.00007
13.13612 7.03451 4.00007
13.22068 7.03442 4.00006
13.30529 7.03434 4.00005
13.38994 7.03426 4.00005
13.47463 7.03419 4.00004
13.55936 7.03414 4.00004
13.64413 7.03408 4.00004
13.72895 7.03403 4.00003
13.81382 7.03398 4.00003
13.89873 7.03394 4.00003
13.98369 7.03390 4.00003
14.06869 7.03386 4.00002
14.15374 7.03383 4.00002
14.23882 7.03380 4.00002
14.32395 7.03377 4.00002
14.40912 7.03374 4.00002
14.49433 7.03372 4.00002
14.57959 7.03370 4.00001
14.66488 7.03368 4.00001
14.75022 7.03366 4.00001
14.83560 7.03365 4.00001
14.92101 7.03363 4.00001
15.00647 7.03362 4.00001
15.09196 7.03361 4.00001
15.17750 7.03360 4.00001
15.26307 7.03359 4.00001
15.34868 7.03358 4.00001
15.43433 7.03357 4.00001
15.52001 7.03356 4.00001
15.60574 7.03355 4.00000
15.69149 7.03355 4.00000
15.77730 7.03354 4.00000
15.86314 7.03353 4.00000
15.94900 7.03353 4.00000
16.03492 7.03352 4.00000
16.12086 7.03352 4.00000
16.20684 7.03351 4.00000
16.29286 7.03351 4.00000
16.37891 7.03351 4.00000
16.46500 7.03350 4.00000
16.55112 7.03350 4.00000
16.63727 7.03350 4.00000
16.72345 7.03350 4.00000
16.80967 7.03349 4.00000
16.89592 7.03349 4.00000
16.98220 7.03349 4.00000
17.06851 7.03349 4.00000
17.15486 7.03349 4.00000
17.24123 7.03348 4.00000
17.32762 7.03349 4.00000
17.41406 7.03349 4.00000
17.50052 7.03349 4.00000
17.58701 7.03349 4.00000
17.67353 7.03349 4.00000
17.76008 7.03349 4.00000
17.84665 7.03349 4.00000
17.93325 7.03349 4.00000
18.01988 7.03349 4.00000
18.10654 7.03348 4.00000
18.19322 7.03348 4.00000
18.27993 7.03348 4.00000
18.36667 7.03348 4.00000
18.45344 7.03348 4.00000
18.54023 7.03348 4.00000
18.62705 7.03348 4.00000
18.71389 7.03348 4.00000
18.80076 7.03348 4.00000
18.88765 7.03348 4.00000
18.97456 7.03348 4.00000
19.06150 7.03348 4.00000
19.14847 7.03348 4.00000
19.23544 7.03348 4.00000
19.32245 7.03348 4.00000
19.40948 7.03348 4.00000
19.49654 7.03348 4.00000
19.58360 7.03348 4.00000
19.67070 7.03348 4.00000
19.75781 7.03348 4.00000
19.84495 7.03348 4.00000
19.93211 7.03348 4.00000
20.01929 7.03348 4.00000
20.10650 7.03348 4.00000
20.19372 7.03348 4.00000
20.28097 7.03348 4.00000
20.36823 7.03348 4.00000
20.45552 7.03348 4.00000
20.54283 7.03348 4.00000
20.63016 7.03348 4.00000
20.71750 7.03348 4.00000
20.80487 7.03348 4.00000
20.89226 7.03348 4.00000
20.97967 7.03348 4.00000
21.06709 7.03348 4.00000
21.15454 7.03347 4.00000
21.24200 7.03348 4.00000
21.32948 7.03348 4.00000
21.41698 7.03348 4.00000
21.50451 7.03348 4.00000
21.59205 7.03348 4.00000
21.67961 7.03347 4.00000
21.76718 7.03348 4.00000
21.85478 7.03348 4.00000
21.94239 7.03348 4.00000
22.03002 7.03348 4.00000
22.11766 7.03348 4.00000
22.20533 7.03347 4.00000
22.29300 7.03348 4.00000
22.38070 7.03348 4.00000
22.46841 7.03348 4.00000
22.55614 7.03348 4.00000
22.64388 7.03348 4.00000
22.73165 7.03348 4.00000
22.81942 7.03348 4.00000
22.90722 7.03348 4.00000
22.99503 7.03348 4.00000
23.08286 7.03348 4.00000
23.17069 7.03348 4.00000
23.25855 7.03348 4.00000
23.34642 7.03348 4.00000
23.43431 7.03348 4.00000
23.52221 7.03348 4.00000
23.61013 7.03348 4.00000
23.69806 7.03348 4.00000
23.78601 7.03348 4.00000
23.87396 7.03348 4.00000
23.96194 7.03348 4.00000
24.04993 7.03348 4.00000
24.13794 7.03348 4.00000
24.22596 7.03348 4.00000
24.31400 7.03347 4.00000
24.40204 7.03348 4.00000
24.49010 7.03348 4.00000
24.57818 7.03348 4.00000
24.66627 7.03348 4.00000
24.75437 7.03348 4.00000
24.84249 7.03348 4.00000
24.93062 7.03348 4.00000
25.01876 7.03348 4.00000
25.10692 7.03348 4.00000
25.19509 7.03348 4.00000
25.28327 7.03348 4.00000
25.37146 7.03348 4.00000
25.45967 7.03348 4.00000
25.54789 7.03348 4.00000
25.63612 7.03348 4.00000
25.72436 7.03348 4.00000
25.81262 7.03348 4.00000
25.90088 7.03348 4.00000
25.98916 7.03348 4.00000
26.07745 7.03348 4.00000
26.16576 7.03348 4.00000
26.25407 7.03348 4.00000
26.34240 7.03348 4.00000
26.43073 7.03348 4.00000
26.51908 7.03348 4.00000
26.60744 7.03348 4.00000
26.69581 7.03348 4.00000
26.78420 7.03348 4.00000
26.87259 7.03348 4.00000
26.96099 7.03348 4.00000
27.04941 7.03348 4.00000
27.13784 7.03348 4.00000
27.22627 7.03348 4.00000
27.31472 7.03348 4.00000
27.40318 7.03348 4.00000
27.49165 7.03348 4.00000
27.58013 7.03348 4.00000
27.66862 7.03348 4.00000

