Angle 0.567533 2.839918

4.00000 7.03348 4.00000
4.00000 7.03352 4.00001
4.00000 7.03348 4.00000
4.00000 7.03348 4.00000
4.00000 7.03348 4.00000
4.00000 7.03349 4.00000
4.00000 7.03349 4.00000
4.00000 7.03348 4.00000
4.00000 7.03348 4.00000
4.00000 7.03348 4.00000
4.00000 7.03348 4.00000
4.00000 7.03348 4.00000
4.00000 7.03348 4.00000
4.00000 7.03348 4.00000
4.00000 7.03348 4.00000
4.00000 7.03347 4.00000
4.00000 7.03348 4.00000
4.00000 7.03348 4.00000
4.00000 7.03348 4.00000
4.00000 7.03348 4.00000
4.00000 7.03348 4.00000
4.00000 7.03348 4.00000
4.00000 7.03348 4.00000
4.00000 7.03348 4.00000
4.00000 7.03348 4.00000
4.00000 7.03348 4.00000
4.00000 7.03348 4.00000
4.00000 7.03348 4.00000
4.00000 7.03348 4.00000
4.00000 7.03348 4.00000
4.00000 7.03348 4.00000
4.00000 7.03348 4.00000
4.00000 7.03348 4.00000
4.00000 7.03348 4.00000
4.00000 7.03348 4.00000
4.00000 7.03348 4.00000
4.00000 7.03348 4.00000
4.00000 7.03348 4.00000
4.00000 7.03349 4.00000
4.00000 7.03348 4.00000
4.00000 7.03348 4.00000
4.00000 7.03349 4.00000
4.00000 7.03348 4.00000
4.00000 7.03348 4.00000
4.00000 7.03348 4.00000
4.00000 7.03348 4.00000
4.00000 7.03348 4.00000
4.00000 7.03348 4.00000
4.00000 7.03348 4.00000
4.00000 7.03347 4.00000
4.00000 7.03348 4.00000
4.00000 7.03348 4.00000
4.00000 7.03348 4.00000
4.00000 7.03347 4.00000
4.00000 7.03348 4.00000
4.00000 7.03348 4.00000
4.00000 7.03349 4.00000
4.00000 7.03348 4.00000
4.00000 7.03347 4.00000
4.00000 7.03348 4.00000
4.00000 7.03348 4.00000
4.00000 7.03348 4.00000
4.00000 7.03348 4.00000
4.00000 7.03348 4.00000
4.00000 7.03348 4.00000
4.00000 7.03348 4.00000
4.00000 7.03348 4.00000
4.00000 7.03348 4.00000
4.00000 7.03348 4.00000
4.00000 7.03348 4.00000
4.00000 7.03348 4.00000
4.00000 7.03348 4.00000
4.00000 7.03348 4.00000
4.00000 7.03348 4.00000
4.00000 7.03347 4.00000
4.00000 7.03348 4.00000
4.00000 7.03348 4.00000
4.00000 7.03348 4.00000
4.00000 7.03348 4.00000
4.00000 7.03348 4.00000
4.00000 7.03348 4.00000
4.00000 7.03349 4.00000
4.00000 7.03348 4.00000
4.00000 7.03348 4.00000
4.00000 7.03348 4.00000
4.00000 7.03348 4.00000
4.00000 7.03349 4.00000
4.00000 7.03348 4.00000
4.00000 7.03349 4.00000
4.00000 7.03348 4.00000
4.00000 7.03348 4.00000
4.00000 7.03348 4.00000
4.00000 7.03348 4.00000
4.00000 7.03349 4.00000
4.00000 7.03348 4.00000
4.00000 7.03347 4.00000
4.00000 7.03348 4.00000
4.00000 7.03348 4.00000
4.00000 7.03348 4.00000
4.00000 7.03348 4.00000
4.00000 7.03348 4.00000
4.00000 7.03348 4.00000
4.00000 7.03348 4.00000
4.00000 7.03348 4.00000
4.00000 7.03348 4.00000
4.00000 7.03348 4.00000
4.00000 7.03348 4.00000
4.00000 7.03348 4.00000
4.00000 7.03348 4.00000
4.00000 7.03348 4.00000
4.00000 7.03348 4.00000
4.00000 7.03348 4.00000
4.00000 7.03348 4.00000
4.00000 7.03348 4.00000
4.00000 7.03348 4.00000
4.00000 7.03348 4.00000
4.00000 7.03348 4.00000
4.00000 7.03348 4.00000
4.00000 7.03348 4.00000
4.00000 7.03348 4.00000
4.00000 7.03347 4.00000
4.00000 7.03348 4.00000
4.00000 7.03348 4.00000
4.00000 7.03348 4.00000
4.00000 7.03348 4.00000
4.00000 7.03348 4.00000
4.00000 7.03348 4.00000
4.00000 7.03348 4.00000
4.00000 7.03348 4.00000
4.00000 7.03348 4.00000
4.00000 7.03348 4.00000
4.00000 7.03348 4.00000
4.00000 7.03348 4.00000
4.00000 7.03348 4.00000
4.00000 7.03348 4.00000
4.00000 7.03348 4.00000
4.00000 7.03348 4.00000
4.00000 7.03348 4.00000
4.00000 7.03347 4.00000
4.00000 7.03347 4.00000
4.00000 7.03348 4.00000
4.00000 7.03348 4.00000
4.00000 7.03348 4.00000
4.00000 7.03348 4.00000
4.00000 7.03348 4.00000
4.00000 7.03348 4.00000
4.00000 7.03348 4.00000
4.00000 7.03348 4.00000
4.00000 7.03348 4.00000
4.00000 7.03348 4.00000
4.00000 7.03348 4.00000
4.00000 7.03347 4.00000
4.00000 7.03347 4.00000
4.00000 7.03347 4.00000
4.00000 7.03347 4.00000
4.00000 7.03347 4.00000
4.00000 7.03346 4.00000
4.00000 7.03346 4.00000
4.00000 7.03348 4.00000
4.00000 7.03348 4.00000
4.00000 7.03348 4.00000
4.00000 7.03348 4.00000
4.00000 7.03348 4.00000
4.00000 7.03348 4.00000
4.00000 7.03346 4.00000
4.00000 7.03347 4.00000
4.00000 7.03348 4.00000
4.00000 7.03345 4.00000
4.00000 7.03347 4.00000
4.00000 7.03348 4.00000
4.00000 7.03346 4.00000
4.00000 7.03349 4.00000
4.00000 7.03349 4.00000
4.00000 7.03348 4.00000
4.00000 7.03348 4.00000
4.00000 7.03347 4.00000
4.00000 7.03348 4.00000
4.00000 7.03349 4.00000
4.00000 7.03349 4.00000
4.00000 7.03346 4.00000
4.00000 7.03350 4.00000
4.00000 7.03347 4.00000
4.00000 7.03349 4.00000
4.00000 7.03348 4.00000
4.00000 7.03349 4.00000
4.00000 7.03349 4.00000
4.00000 7.03349 4.00000
4.00000 7.03348 4.00000
4.00000 7.03347 4.00000
4.00000 7.03348 4.00000
4.00000 7.03348 4.00000
4.00000 7.03348 4.00000
4.00000 7.03348 4.00000
4.00000 7.03348 4.00000
4.00000 7.03348 4.00000
4.00000 7.03348 4.00000
4.00000 7.03348 4.00000
4.00000 7.03348 4.00000
4.00000 7.03348 4.00000
4.00000 7.03348 4.00000
4.00000 7.03348 4.00000
4.00000 7.03348 4.00000
4.00000 7.03347 4.00000
4.00000 7.03347 4.00000
4.00000 7.03349 4.00000
4.00000 7.03348 4.00000
4.00000 7.03348 4.00000
4.00000 7.03349 4.00000
4.00000 7.03348 4.00000
4.00000 7.03348 4.00000
4.00000 7.03348 4.00000
4.00000 7.03348 4.00000
4.00000 7.03348 4.00000
4.00000 7.03347 4.00000
4.00000 7.03348 4.00000
4.00000 7.03347 4.00000
4.00000 7.03348 4.00000
4.00000 7.03347 4.00000
4.00000 7.03347 4.00000
4.00000 7.03348 4.00000
4.00000 7.03348 4.00000
4.00000 7.03348 4.00000
4.00000 7.03349 4.00000
4.00000 7.03348 4.00000
4.00000 7.03348 4.00000
4.00000 7.03348 4.00000
4.00000 7.03348 4.00000
4.00000 7.03349 4.00000
4.00000 7.03348 4.00000
4.00000 7.03349 4.00000
4.00000 7.03348 4.00000
4.00000 7.03348 4.00000
4.00000 7.03349 4.00000
4.00000 7.03348 4.00000
4.00000 7.03347 4.00000
4.00000 7.03348 4.00000
4.00000 7.03348 4.00000
4.00000 7.03348 4.00000
4.00000 7.03348 4.00000
4.00000 7.03348 4.00000
4.00000 7.03348 4.00000
4.00000 7.03348 4.00000
4.00000 7.03348 4.00000
4.00000 7.03348 4.00000
4.00000 7.03348 4.00000
4.00000 7.03348 4.00000
4.00000 7.03348 4.00000
4.00000 7.03348 4.00000
4.00000 7.03348 4.00000
4.00000 7.03348 4.00000
4.00000 7.03348 4.00000
4.00000 7.03348 4.00000
4.00000 7.03348 4.00000
4.00000 7.03348 4.00000
4.00000 7.03348 4.00000
4.00000 7.03348 4.00000
4.00000 7.03348 4.00000
4.00000 7.03348 4.00000
4.00000 7.03348 4.00000
4.00000 7.03348 4.00000
4.00000 7.03351 4.00000
4.00188 7.06241 4.00188
4.00635 7.13218 4.00635
4.01077 7.20223 4.01077
4.01516 7.27254 4.01516
4.01951 7.34306 4.01952
4.02386 7.41375 4.02386
4.02821 7.48457 4.02821
4.03257 7.55547 4.03257
4.03697 7.62642 4.03697
4.04141 7.69736 4.04141
4.04592 7.76825 4.04592
4.05051 7.83903 4.05051
4.05521 7.90964 4.05521
4.06003 7.98003 4.06003
4.06502 8.05012 4.06502
4.07018 8.11984 4.07018
4.07557 8.18909 4.07557
4.08121 8.25777 4.08121
4.08715 8.32577 4.08715
4.09345 8.39295 4.09345
4.10017 8.45916 4.10017
4.10737 8.52422 4.10737
4.11515 8.58791 4.11515
4.12359 8.65000 4.12359
4.13277 8.71035 4.13277
4.14261 8.76914 4.14261
4.15314 8.82633 4.15314
4.16441 8.88185 4.16440
4.17643 8.93563 4.17643
4.18923 8.98764 4.18923
4.20285 9.03783 4.20285
4.21731 9.08616 4.21731
4.23262 9.13262 4.23262
4.24880 9.17719 4.24880
4.26586 9.21985 4.26586
4.28382 9.26061 4.28382
4.30269 9.29946 4.30269
4.32248 9.33637 4.32248
4.34320 9.37136 4.34320
4.36488 9.40437 4.36488
4.38753 9.43539 4.38753
4.41119 9.46434 4.41119
4.43590 9.49113 4.43590
4.46173 9.51566 4.46173
4.48873 9.53776 4.48873
4.51702 9.55724 4.51702
4.54668 9.57385 4.54668
4.57787 9.58731 4.57786
4.61071 9.59730 4.61071
4.64539 9.60347 4.64539
4.68188 9.60549 4.68221
4.72088 9.60310 4.72074
7.62594 7.40592 4.02338
7.76044 7.35517 4.02026
7.88488 7.31439 4.01775
8.00212 7.28076 4.01566
8.11398 7.25249 4.01391
8.22175 7.22833 4.01241
8.32621 7.20749 4.01110
8.42801 7.18935 4.00997
8.52760 7.17346 4.00897
8.62534 7.15946 4.00808
8.72152 7.14708 4.00730
8.81638 7.13605 4.00660
8.91011 7.12623 4.00597
9.00285 7.11744 4.00541
9.09474 7.10956 4.00491
9.18588 7.10248 4.00446
9.27638 7.09611 4.00405
9.36632 7.09037 4.00368
9.45575 7.08518 4.00335
9.54476 7.08049 4.00305
9.63337 7.07625 4.00277
9.72164 7.07240 4.00253
9.80963 7.06891 4.00230
9.89734 7.06575 4.00210
9.98484 7.06286 4.00191
10.07212 7.06027 4.00174
10.15923 7.05789 4.00159
10.24617 7.05573 4.00145
10.33299 7.05377 4.00132
10.41970 7.05197 4.00120
10.50629 7.05035 4.00110
10.59280 7.04886 4.00100
10.67924 7.04751 4.00091
10.76561 7.04628 4.00083
10.85193 7.04515 4.00076
10.93820 7.04413 4.00069
11.02444 7.04320 4.00063
11.11065 7.04234 4.00058
11.19682 7.04158 4.00053
11.28301 7.04086 4.00048
11.36916 7.04022 4.00044
11.45531 7.03963 4.00040
11.54148 7.03908 4.00037
11.62763 7.03860 4.00033
11.71379 7.03815 4.00030
11.79996 7.03774 4.00028
11.88615 7.03736 4.00025
11.97235 7.03702 4.00023
12.05856 7.03671 4.00021
12.14479 7.03643 4.00019
12.23105 7.03617 4.00018
12.31733 7.03594 4.00016
12.40363 7.03572 4.00015
12.48995 7.03552 4.00013
12.57630 7.03535 4.00012
12.66268 7.03518 4.00011
12.74909 7.03503 4.00010
12.83552 7.03490 4.00009
12.92198 7.03477 4.00008
13.00846 7.03466 4.00008
13.09499 7.03455 4.00007
13.18154 7.03446 4.00006
13.26812 7.03437 4.00006
13.35473 7.03429 4.00005
13.44138 7.03422 4.00005
13.52804 7.03416 4.00004
13.61474 7.03410 4.00004
13.70148 7.03404 4.00004
13.78825 7.03399 4.00003
13.87505 7.03395 4.00003
13.96189 7.03391 4.00003
14.04876 7.03387 4.00003
14.13565 7.03383 4.00003
14.22258 7.03380 4.00002
14.30954 7.03377 4.00002
14.39653 7.03375 4.00002
14.48355 7.03372 4.00002
14.57060 7.03370 4.00002
14.65767 7.03368 4.00002
14.74478 7.03367 4.00002
14.83191 7.03365 4.00001
14.91907 7.03363 4.00001
15.00626 7.03362 4.00001
15.09347 7.03361 4.00001
15.18071 7.03360 4.00001
15.26798 7.03359 4.00001
15.35528 7.03358 4.00001

Angle 0.683948 0.312153

4.00000 7.03348 4.00000
4.00000 7.03348 4.00000
4.00000 7.03348 4.00000
4.00000 7.03348 4.00000
4.00000 7.03348 4.00000
4.00000 7.03348 4.00000
4.00000 7.03348 4.00000
4.00000 7.03348 4.00000
4.00000 7.03348 4.00000
4.00000 7.03348 4.00000
4.00000 7.03348 4.00000
4.00000 7.03348 4.00000
4.00000 7.03348 4.00000
4.00000 7.03348 4.00000
4.00000 7.03348 4.00000
4.00000 7.03348 4.00000
4.00000 7.03348 4.00000
4.00000 7.03348 4.00000
4.00000 7.03348 4.00000
4.00000 7.03349 4.00000
4.00000 7.03349 4.00000
4.00000 7.03348 4.00000
4.00000 7.03348 4.00000
4.00000 7.03348 4.00000
4.00000 7.03348 4.00000
4.00000 7.03348 4.00000
4.00000 7.03348 4.00000
4.00000 7.03348 4.00000
4.00000 7.03348 4.00000
4.00000 7.03348 4.00000
4.00000 7.03348 4.00000
4.00000 7.03348 4.00000
4.00000 7.03348 4.00000
4.00000 7.03348 4.00000
4.00000 7.03348 4.00000
4.00000 7.03348 4.00000
4.00000 7.03348 4.00000
4.00000 7.03348 4.00000
4.00000 7.03348 4.00000
4.00000 7.03348 4.00000
4.00000 7.03348 4.00000
4.00000 7.03348 4.00000
4.00000 7.03349 4.00000
4.00000 7.03348 4.00000
4.00000 7.03348 4.00000
4.00000 7.03348 4.00000
4.00000 7.03348 4.00000
4.00000 7.03348 4.00000
4.00000 7.03348 4.00000
4.00000 7.03348 4.00000
4.00000 7.03348 4.00000
4.00000 7.03348 4.00000
4.00000 7.03348 4.00000
4.00000 7.03348 4.00000
4.00000 7.03348 4.00000
4.00000 7.03348 4.00000
4.00000 7.03348 4.00000
4.00000 7.03348 4.00000
4.00000 7.03348 4.00000
4.00000 7.03348 4.00000
4.00000 7.03348 4.00000
4.00000 7.03348 4.00000
4.00000 7.03348 4.00000
4.00000 7.03348 4.00000
4.00000 7.03348 4.00000
4.00000 7.03348 4.00000
4.00000 7.03348 4.00000
4.00000 7.03348 4.00000
4.00000 7.03348 4.00000
4.00000 7.03348 4.00000
4.00000 7.03348 4.00000
4.00000 7.03348 4.00000
4.00000 7.03348 4.00000
4.00000 7.03348 4.00000
4.00000 7.03348 4.00000
4.00000 7.03348 4.00000
4.00000 7.03348 4.00000
4.00000 7.03348 4.00000
4.00000 7.03348 4.00000
4.00000 7.03348 4.00000
4.00000 7.03348 4.00000
4.00000 7.03348 4.00000
4.00000 7.03348 4.00000
4.00000 7.03348 4.00000
4.00000 7.03348 4.00000
4.00000 7.03348 4.00000
4.00000 7.03348 4.00000
4.00000 7.03348 4.00000
4.00000 7.03348 4.00000
4.00000 7.03348 4.00000
4.00000 7.03348 4.00000
4.00000 7.03348 4.00000
4.00000 7.03348 4.00000
4.00000 7.03349 4.00000
4.00000 7.03348 4.00000
4.00000 7.03348 4.00000
4.00000 7.03348 4.00000
4.00000 7.03348 4.00000
4.00000 7.03348 4.00000
4.00000 7.03348 4.00000
4.00000 7.03348 4.00000
4.00000 7.03348 4.00000
4.00000 7.03348 4.00000
4.00000 7.03348 4.00000
4.00000 7.03348 4.00000
4.00000 7.03348 4.00000
4.00000 7.03348 4.00000
4.00000 7.03348 4.00000
4.00000 7.03349 4.00000
4.00000 7.03348 4.00000
4.00000 7.03348 4.00000
4.00000 7.03348 4.00000
4.00000 7.03348 4.00000
4.00000 7.03348 4.00000
4.00000 7.03348 4.00000
4.00000 7.03348 4.00000
4.00000 7.03348 4.00000
4.00000 7.03348 4.00000
4.00000 7.03348 4.00000
4.00000 7.03348 4.00000
4.00000 7.03348 4.00000
4.00000 7.03348 4.00000
4.00000 7.03348 4.00000
4.00000 7.03348 4.00000
4.00000 7.03348 4.00000
4.00000 7.03348 4.00000
4.00000 7.03348 4.00000
4.00000 7.03348 4.00000
4.00000 7.03348 4.00000
4.00000 7.03348 4.00000
4.00000 7.03348 4.00000
4.00000 7.03348 4.00000
4.00000 7.03348 4.00000
4.00000 7.03348 4.00000
4.00000 7.03348 4.00000
4.00000 7.03348 4.00000
4.00302 7.08017 4.00302
4.00771 7.15360 4.00771
4.01234 7.22729 4.01234
4.01693 7.30120 4.01693
4.02150 7.37527 4.02150
4.02605 7.44945 4.02605
4.03061 7.52371 4.03061
4.03520 7.59798 4.03520
4.03983 7.67222 4.03983
4.04452 7.74637 4.04452
4.04929 7.82038 4.04929
4.05417 7.89418 4.05417
4.05918 7.96771 4.05918
4.06435 8.04089 4.06435
4.06971 8.11363 4.06971
4.07531 8.18583 4.07531
4.08118 8.25739 4.08118
4.08737 8.32816 4.08737
4.09395 8.39801 4.09395
4.10098 8.46675 4.10098
4.10854 8.53419 4.10854
4.11673 8.60009 4.11673
4.12567 8.66417 4.12567
4.13536 8.72640 4.13536
4.14578 8.78692 4.14578
4.15694 8.84566 4.15694
4.16890 8.90256 4.16890
4.18167 8.95756 4.18167
4.19530 9.01060 4.19530
4.20981 9.06165 4.20980
4.22521 9.11069 4.22521
4.24153 9.15769 4.24153
4.25878 9.20264 4.25878
4.27698 9.24554 4.27698
4.29613 9.28638 4.29613
4.31626 9.32515 4.31626
4.33736 9.36186 4.33737
4.35947 9.39646 4.35947
4.38261 9.42893 4.38261
4.40680 9.45922 4.40680
4.43209 9.48722 4.43209
4.45854 9.51282 4.45854
4.48624 9.53586 4.48623
4.51525 9.55613 4.51525
4.54573 9.57338 4.54573
4.57780 9.58728 4.57779
4.61161 9.59751 4.61161
4.64736 9.60369 4.64736
4.03257 7.55542 7.31515
4.02692 7.46357 7.49370
4.02290 7.39812 7.64539
4.01981 7.34780 7.78173
4.01732 7.30743 7.90801
4.01526 7.27415 8.02713
4.01352 7.24618 8.14091
4.01203 7.22235 8.25054
4.01075 7.20181 8.35687
4.00963 7.18397 8.46053
4.00864 7.16836 8.56199
4.00778 7.15464 8.66157
4.00701 7.14250 8.75960
4.00633 7.13176 8.85627
4.00572 7.12216 8.95183
4.00517 7.11361 9.04639
4.00468 7.10595 9.14009
4.00424 7.09910 9.23304
4.00385 7.09292 9.32535
4.00349 7.08737 9.41708
4.00317 7.08236 9.50830
4.00287 7.07784 9.59909
4.00261 7.07376 9.68948
4.00237 7.07007 9.77953
4.00216 7.06673 9.86926
4.00196 7.06371 9.95872
4.00179 7.06096 10.04796
4.00163 7.05848 10.13698
4.00148 7.05622 10.22582
4.00135 7.05417 10.31450
4.00123 7.05231 10.40303
4.00112 7.05062 10.49143
4.00102 7.04908 10.57973
4.00092 7.04768 10.66793
4.00084 7.04641 10.75604
4.00077 7.04525 10.84408
4.00070 7.04420 10.93206
4.00064 7.04325 11.01998
4.00058 7.04237 11.10787
4.00053 7.04158 11.19571
4.00048 7.04086 11.28352
4.00044 7.04020 11.37131
4.00040 7.03960 11.45907
4.00036 7.03905 11.54683
4.00033 7.03856 11.63456
4.00030 7.03810 11.72230
4.00027 7.03770 11.81002
4.00025 7.03732 11.89776
4.00023 7.03698 11.98548
4.00021 7.03666 12.07322
4.00019 7.03638 12.16097
4.00018 7.03613 12.24871
4.00015 7.03589 12.33648
4.00014 7.03567 12.42425
4.00013 7.03548 12.51204
4.00012 7.03531 12.59983
4.00011 7.03512 12.68768
4.00010 7.03499 12.77549
4.00009 7.03485 12.86335
4.00008 7.03473 12.95122
4.00008 7.03463 13.03910
4.00007 7.03452 13.12702
4.00006 7.03443 13.21495
4.00006 7.03434 13.30290
4.00005 7.03426 13.39086
4.00005 7.03419 13.47885
4.00004 7.03413 13.56687
4.00004 7.03407 13.65490
4.00004 7.03402 13.74295
4.00003 7.03397 13.83102
4.00003 7.03393 13.91912
4.00003 7.03389 14.00723
4.00002 7.03385 14.09537
4.00002 7.03382 14.18354
4.00002 7.03379 14.27172
4.00002 7.03376 14.35992
4.00002 7.03373 14.44815
4.00002 7.03371 14.53639
4.00001 7.03369 14.62466
4.00001 7.03367 14.71295
4.00001 7.03365 14.80125
4.00001 7.03364 14.88958
4.00001 7.03362 14.97793
4.00001 7.03361 15.06629
4.00001 7.03360 15.15468
4.00001 7.03359 15.24308
4.00001 7.03358 15.33150
4.00001 7.03357 15.41995
4.00001 7.03356 15.50841
4.00001 7.03355 15.59689
4.00000 7.03355 15.68538
4.00000 7.03354 15.77390
4.00000 7.03354 15.86243
4.00000 7.03353 15.95098
4.00000 7.03353 16.03955
4.00000 7.03352 16.12813
4.00000 7.03352 16.21673
4.00000 7.03351 16.30535
4.00000 7.03351 16.39399
4.00000 7.03351 16.48264
4.00000 7.03351 16.57130
4.00000 7.03350 16.65999
4.00000 7.03350 16.74868
4.00000 7.03350 16.83740
4.00000 7.03350 16.92613
4.00000 7.03350 17.01487
4.00000 7.03349 17.10363
4.00000 7.03349 17.19240
4.00000 7.03349 17.28119
4.00000 7.03349 17.36999
4.00000 7.03349 17.45881
4.00000 7.03349 17.54764
4.00000 7.03349 17.63649
4.00000 7.03349 17.72535
4.00000 7.03349 17.81422
4.00000 7.03349 17.90311
4.00000 7.03349 17.99201
4.00000 7.03348 18.08092
4.00000 7.03348 18.16984
4.00000 7.03348 18.25878
4.00000 7.03348 18.34774
4.00000 7.03348 18.43671
4.00000 7.03348 18.52569
4.00000 7.03348 18.61469
4.00000 7.03348 18.70369
4.00000 7.03348 18.79272
4.00000 7.03348 18.88175
4.00000 7.03348 18.97079
4.00000 7.03348 19.05985
4.00000 7.03348 19.14892
4.00000 7.03348 19.23799
4.00000 7.03348 19.32708
4.00000 7.03348 19.41618
4.00000 7.03348 19.50530
4.00000 7.03348 19.59442
4.00000 7.03348 19.68355
4.00000 7.03348 19.77269
4.00000 7.03348 19.86185
4.00000 7.03348 19.95101
4.00000 7.03347 20.04019
4.00000 7.03348 20.12936
4.00000 7.03347 20.21856
4.00000 7.03348 20.30775
4.00000 7.03347 20.39697
4.00000 7.03347 20.48618
4.00000 7.03347 20.57541
4.00000 7.03347 20.66465
4.00000 7.03347 20.75389
4.00000 7.03347 20.84315
4.00000 7.03347 20.93241
4.00000 7.03347 21.02168
4.00000 7.03347 21.11096
4.00000 7.03347 21.20025
4.00000 7.03347 21.28955
4.00000 7.03347 21.37886
4.00000 7.03347 21.46817
4.00000 7.03347 21.55750
4.00000 7.03347 21.64683
4.00000 7.03348 21.73616
4.00000 7.03348 21.82551
4.00000 7.03348 21.91487
4.00000 7.03348 22.00423
4.00000 7.03348 22.09361
4.00000 7.03348 22.18299
4.00000 7.03348 22.27238
4.00000 7.03348 22.36177
4.00000 7.03348 22.45118
4.00000 7.03348 22.54059
4.00000 7.03348 22.63001
4.00000 7.03348 22.71944
4.00000 7.03348 22.80888
4.00000 7.03348 22.89833
4.00000 7.03348 22.98778
4.00000 7.03348 23.07724
4.00000 7.03348 23.16671
4.00000 7.03348 23.25618
4.00000 7.03348 23.34566
4.00000 7.03348 23.43515
4.00000 7.03347 23.52465
4.00000 7.03348 23.61414
4.00000 7.03348 23.70364
4.00000 7.03348 23.79315
4.00000 7.03348 23.88267
4.00000 7.03348 23.97220
4.00000 7.03348 24.06173
4.00000 7.03348 24.15127
4.00000 7.03348 24.24081
4.00000 7.03348 24.33036
4.00000 7.03348 24.41992
4.00000 7.03348 24.50949
4.00000 7.03348 24.59906
4.00000 7.03348 24.68863
4.00000 7.03348 24.77822
4.00000 7.03348 24.86780
4.00000 7.03348 24.95740
4.00000 7.03348 25.04700
4.00000 7.03347 25.13662
4.00000 7.03348 25.22622
4.00000 7.03348 25.31584
4.00000 7.03348 25.40546
4.00000 7.03347 25.49510
4.00000 7.03348 25.58473
4.00000 7.03348 25.67437
4.00000 7.03348 25.76401
4.00000 7.03348 25.85367
4.00000 7.03348 25.94333
4.00000 7.03348 26.03298
4.00000 7.03348 26.12266
4.00000 7.03348 26.21233
4.00000 7.03349 26.30200
4.00000 7.03348 26.39169
4.00000 7.03348 26.48138
4.00000 7.03348 26.57107
4.00000 7.03348 26.66077
4.00000 7.03348 26.75047
4.00000 7.03348 26.84018

Angle 0.658887 6.218994

4.00000 7.03348 4.00000
4.00000 7.03348 4.00000
4.00000 7.03348 4.00000
4.00000 7.03348 4.00000
4.00000 7.03348 4.00000
4.00000 7.03348 4.00000
4.00000 7.03348 4.00000
4.00000 7.03348 4.00000
4.00000 7.03348 4.00000
4.00000 7.03348 4.00000
4.00000 7.03348 4.00000
4.00000 7.03348 4.00000
4.00000 7.03348 4.00000
4.00000 7.03348 4.00000
4.00000 7.03348 4.00000
4.00000 7.03348 4.00000
4.00000 7.03348 4.00000
4.00000 7.03348 4.00000
4.00000 7.03348 4.00000
4.00000 7.03348 4.00000
4.00000 7.03348 4.00000
4.00000 7.03348 4.00000
4.00000 7.03348 4.00000
4.00000 7.03348 4.00000
4.00000 7.03348 4.00000
4.00000 7.03348 4.00000
4.00000 7.03348 4.00000
4.00000 7.03348 4.00000
4.00000 7.03348 4.00000
4.00000 7.03348 4.00000
4.00000 7.03348 4.00000
4.00000 7.03348 4.00000
4.00000 7.03348 4.00000
4.00000 7.03348 4.00000
4.00000 7.03347 4.00000
4.00000 7.03348 4.00000
4.00000 7.03349 4.00000
4.00000 7.03350 4.00000
4.00000 7.03348 4.00000
4.00000 7.03348 4.00000
4.00000 7.03348 4.00000
4.00000 7.03349 4.00000
4.00000 7.03348 4.00000
4.00000 7.03348 4.00000
4.00000 7.03348 4.00000
4.00000 7.03348 4.00000
4.00000 7.03348 4.00000
4.00000 7.03348 4.00000
4.00000 7.03354 4.00000
4.00395 7.09452 4.00395
4.00798 7.15781 4.00798
4.01197 7.22141 4.01197
4.01595 7.28531 4.01595
4.01991 7.34946 4.01991
4.02386 7.41383 4.02386
4.02783 7.47840 4.02783
4.03181 7.54312 4.03181
4.03582 7.60797 4.03582
4.03987 7.67290 4.03987
4.04398 7.73789 4.04398
4.04815 7.80288 4.04815
4.05241 7.86783 4.05241
4.05677 7.93270 4.05677
4.06125 7.99743 4.06125
4.06588 8.06196 4.06588
4.07067 8.12623 4.07067
4.07565 8.19016 4.07565
4.08086 8.25368 4.08086
4.08633 8.31669 4.08633
4.09211 8.37906 4.09211
4.09824 8.44070 4.09824
4.10477 8.50144 4.10477
4.11178 8.56114 4.11178
4.11934 8.61959 4.11934
4.12753 8.67660 4.12753
4.13632 8.73224 4.13632
4.14571 8.78657 4.14571
4.15572 8.83953 4.15572
4.16638 8.89107 4.16638
4.17772 8.94112 4.17772
4.18976 8.98966 4.18976
4.20252 9.03664 4.20252
4.21602 9.08203 4.21602
4.23028 9.12581 4.23028
4.24532 9.16796 4.24532
4.26115 9.20847 4.26115
4.27777 9.24732 4.27777
4.29521 9.28451 4.29521
4.31347 9.32002 4.31347
4.33257 9.35385 4.33257
4.35251 9.38596 4.35251
4.37333 9.41634 4.37333
4.39504 9.44494 4.39504
4.41767 9.47169 4.41767
4.44128 9.49652 4.44128
4.46590 9.51930 4.46590
4.49160 9.53990 4.49160
4.51848 9.55815 4.51848
4.54661 9.57382 4.54661
4.57613 9.58667 4.57613
4.60716 9.59642 4.60716
4.63983 9.60277 4.63983
4.67428 9.60543 4.67428
4.02869 7.49250 7.43378
4.02450 7.42420 7.58198
4.02129 7.37185 7.71403
4.01870 7.32988 7.83564
4.01656 7.29522 7.94992
4.01475 7.26602 8.05876
4.01320 7.24105 8.16341
4.01185 7.21947 8.26472
4.01067 7.20064 8.36334
4.00964 7.18410 8.45975
4.00872 7.16948 8.55431
4.00790 7.15652 8.64729
4.00716 7.14496 8.73895
4.00651 7.13462 8.82948
4.00592 7.12534 8.91902
4.00539 7.11700 9.00772
4.00491 7.10949 9.09568
4.00447 7.10270 9.18301
4.00408 7.09656 9.26977
4.00372 7.09099 9.35605
4.00340 7.08595 9.44189
4.00310 7.08137 9.52735
4.00284 7.07721 9.61249
4.00259 7.07342 9.69735
4.00237 7.06999 9.78193
4.00217 7.06684 9.86632
4.00198 7.06397 9.95052
4.00181 7.06134 10.03456
4.00166 7.05897 10.11842
4.00151 7.05678 10.20220
4.00139 7.05480 10.28584
4.00127 7.05298 10.36942
4.00116 7.05134 10.45288
4.00106 7.04980 10.53634
4.00097 7.04840 10.61973
4.00089 7.04716 10.70304
4.00081 7.04598 10.78637
4.00075 7.04495 10.86963
4.00068 7.04396 10.95292
4.00062 7.04305 11.03622
4.00057 7.04226 11.11946
4.00052 7.04151 11.20275
4.00048 7.04083 11.28604
4.00044 7.04018 11.36937
4.00040 7.03964 11.45267
4.00037 7.03909 11.53604
4.00033 7.03861 11.61941
4.00031 7.03820 11.70278
4.00028 7.03780 11.78621
4.00026 7.03743 11.86968
4.00024 7.03710 11.95318
4.00022 7.03679 12.03672
4.00020 7.03651 12.12031
4.00018 7.03625 12.20393
4.00018 7.03602 12.28759
4.00015 7.03580 12.37131
4.00014 7.03560 12.45505
4.00013 7.03542 12.53885
4.00012 7.03526 12.62270
4.00011 7.03510 12.70659
4.00010 7.03496 12.79052
4.00009 7.03484 12.87451
4.00008 7.03472 12.95853
4.00008 7.03462 13.04261
4.00007 7.03452 13.12673
4.00006 7.03443 13.21089
4.00006 7.03435 13.29511
4.00005 7.03427 13.37936
4.00005 7.03421 13.46368
4.00004 7.03414 13.54803
4.00004 7.03409 13.63243
4.00004 7.03404 13.71689
4.00003 7.03399 13.80137
4.00003 7.03394 13.88592
4.00003 7.03390 13.97052
4.00003 7.03387 14.05516
4.00002 7.03383 14.13985
4.00003 7.03381 14.22460
4.00002 7.03378 14.30940
4.00002 7.03376 14.39424
4.00002 7.03373 14.47913
4.00002 7.03371 14.56394
4.00001 7.03369 14.64890
4.00001 7.03367 14.73390
4.00001 7.03365 14.81895
4.00001 7.03364 14.90405
4.00001 7.03362 14.98919
4.00001 7.03361 15.07438
4.00001 7.03360 15.15960
4.00001 7.03359 15.24489
4.00001 7.03358 15.33020
4.00001 7.03357 15.41554
4.00000 7.03357 15.50091
4.00000 7.03355 15.58633
4.00000 7.03354 15.67179
4.00000 7.03354 15.75727
4.00000 7.03353 15.84281
4.00000 7.03352 15.92838
4.00000 7.03352 16.01399
4.00000 7.03352 16.09963
4.00000 7.03352 16.18531
4.00000 7.03351 16.27103
4.00000 7.03351 16.35678
4.00000 7.03350 16.44257
4.00000 7.03350 16.52839
4.00000 7.03350 16.61425
4.00000 7.03350 16.70014
4.00000 7.03349 16.78607
4.00000 7.03350 16.87201
4.00000 7.03350 16.95801
4.00000 7.03350 17.04403
4.00000 7.03349 17.13009
4.00000 7.03349 17.21618
4.00000 7.03349 17.30230
4.00000 7.03349 17.38845
4.00000 7.03349 17.47463
4.00000 7.03349 17.56084
4.00000 7.03349 17.64709
4.00000 7.03349 17.73337
4.00000 7.03349 17.81967
4.00000 7.03349 17.90600
4.00000 7.03349 17.99237
4.00000 7.03348 18.07875
4.00000 7.03348 18.16516
4.00000 7.03348 18.25160
4.00000 7.03348 18.33807
4.00000 7.03348 18.42457
4.00000 7.03348 18.51109
4.00000 7.03348 18.59764
4.00000 7.03348 18.68421
4.00000 7.03348 18.77082
4.00000 7.03348 18.85745
4.00000 7.03348 18.94411
4.00000 7.03348 19.03080
4.00000 7.03348 19.11751
4.00000 7.03348 19.20425
4.00000 7.03348 19.29102
4.00000 7.03348 19.37781
4.00000 7.03348 19.46462
4.00000 7.03348 19.55146
4.00000 7.03348 19.63833
4.00000 7.03348 19.72521
4.00000 7.03348 19.81212
4.00000 7.03348 19.89905
4.00000 7.03348 19.98601
4.00000 7.03348 20.07299
4.00000 7.03348 20.15999
4.00000 7.03348 20.24701
4.00000 7.03348 20.33406
4.00000 7.03348 20.42113
4.00000 7.03348 20.50822
4.00000 7.03348 20.59533
4.00000 7.03348 20.68246
4.00000 7.03348 20.76961
4.00000 7.03347 20.85679
4.00000 7.03348 20.94397
4.00000 7.03348 21.03119
4.00000 7.03348 21.11842
4.00000 7.03348 21.20568
4.00000 7.03349 21.29294
4.00000 7.03348 21.38025
4.00000 7.03348 21.46756
4.00000 7.03348 21.55489
4.00000 7.03347 21.64225
4.00000 7.03348 21.72961
4.00000 7.03348 21.81700
4.00000 7.03348 21.90440
4.00000 7.03348 21.99184
4.00000 7.03348 22.07928
4.00000 7.03348 22.16674
4.00000 7.03348 22.25422
4.00000 7.03348 22.34172
4.00000 7.03348 22.42924
4.00000 7.03348 22.51677
4.00000 7.03348 22.60432
4.00000 7.03348 22.69189
4.00000 7.03348 22.77948
4.00000 7.03348 22.86708
4.00000 7.03348 22.95470
4.00000 7.03348 23.04233
4.00000 7.03348 23.12998
4.00000 7.03348 23.21765
4.00000 7.03348 23.30533
4.00000 7.03348 23.39303
4.00000 7.03348 23.48074
4.00000 7.03348 23.56847
4.00000 7.03348 23.65622
4.00000 7.03348 23.74397
4.00000 7.03348 23.83173
4.00000 7.03348 23.91952
4.00000 7.03348 24.00732
4.00000 7.03348 24.09512
4.00000 7.03348 24.18294
4.00000 7.03348 24.27077
4.00000 7.03348 24.35862
4.00000 7.03348 24.44648
4.00000 7.03348 24.53435
4.00000 7.03348 24.62224
4.00000 7.03348 24.71014
4.00000 7.03348 24.79806
4.00000 7.03348 24.88599
4.00000 7.03348 24.97393
4.00000 7.03348 25.06188
4.00000 7.03348 25.14985
4.00000 7.03348 25.23783
4.00000 7.03348 25.32583
4.00000 7.03348 25.41384
4.00000 7.03348 25.50185
4.00000 7.03348 25.58989
4.00000 7.03348 25.67793
4.00000 7.03348 25.76599
4.00000 7.03348 25.85406
4.00000 7.03348 25.94214
4.00000 7.03348 26.03024
4.00000 7.03348 26.11834
4.00000 7.03348 26.20646
4.00000 7.03348 26.29459
4.00000 7.03348 26.38274
4.00000 7.03348 26.47089
4.00000 7.03348 26.55906
4.00000 7.03348 26.64723
4.00000 7.03348 26.73542
4.00000 7.03348 26.82362
4.00000 7.03348 26.91183
4.00000 7.03348 27.00006
4.00000 7.03348 27.08829
4.00000 7.03348 27.17654
4.00000 7.03348 27.26479
4.00000 7.03348 27.35306
4.00000 7.03348 27.44134
4.00000 7.03348 27.52963
4.00000 7.03348 27.61793
4.00000 7.03348 27.70624
4.00000 7.03348 27.79456
4.00000 7.03348 27.88290
4.00000 7.03348 27.97124
4.00000 7.03348 28.05960
4.00000 7.03348 28.14796
4.00000 7.03348 28.23634
4.00000 7.03348 28.32473
4.00000 7.03348 28.41313
4.00000 7.03348 28.50154
4.00000 7.03348 28.58996
4.00000 7.03348 28.67839
4.00000 7.03348 28.76683
4.00000 7.03348 28.85529
4.00000 7.03348 28.94376
4.00000 7.03348 29.03224
4.00000 7.03348 29.12073
4.00000 7.03348 29.20923
4.00000 7.03349 29.29772
4.00000 7.03348 29.38626
4.00000 7.03349 29.47478
4.00000 7.03349 29.56332
4.00000 7.03348 29.65188
4.00000 7.03348 29.74044
4.00000 7.03349 29.82901
4.00000 7.03347 29.91762
4.00000 7.03349 30.00620
4.00000 7.03348 30.09481
4.00000 7.03348 30.18343
4.00000 7.03348 30.27206
4.00000 7.03348 30.36070
4.00000 7.03348 30.44935
4.00000 7.03348 30.53802
4.00000 7.03348 30.62669
4.00000 7.03348 30.71538
4.00000 7.03348 30.80407
4.00000 7.03348 30.89278
4.00000 7.03348 30.98150
4.00000 7.03348 31.07023
4.00000 7.03348 31.15898
4.00000 7.03348 31.24773
4.00000 7.03348 31.33650
4.00000 7.03348 31.42527
4.00000 7.03348 31.51406
4.00000 7.03348 31.60287
4.00000 7.03348 31.69168
4.00000 7.03348 31.78051
4.00000 7.03348 31.86935
4.00000 7.03348 31.95820
4.00000 7.03348 32.04706
4.00000 7.03348 32.13593
4.00000 7.03348 32.22482
4.00000 7.03348 32.31372
4.00000 7.03348 32.40263
4.00000 7.03348 32.49156
4.00000 7.03348 32.58050
4.00000 7.03348 32.66945
4.00000 7.03348 32.75841
4.00000 7.03348 32.84740
4.00000 7.03348 32.93639
4.00000 7.03348 33.02539
4.00000 7.03348 33.11440
4.00000 7.03348 33.20342
4.00000 7.03348 33.29247
4.00000 7.03348 33.38151

Angle 0.139788 0.210904

4.00000 7.03348 4.00000
4.00000 7.03348 4.00000
4.00000 7.03348 4.00000
4.00000 7.03348 4.00000
4.00000 7.03348 4.00000
4.00000 7.03348 4.00000
4.00000 7.03348 4.00000
4.00000 7.03348 4.00000
4.00000 7.03348 4.00000
4.00000 7.03348 4.00000
4.00000 7.03347 4.00000
4.00000 7.03347 4.00000
4.00000 7.03348 4.00000
4.00000 7.03348 4.00000
4.00000 7.03348 4.00000
4.00000 7.03348 4.00000
4.00000 7.03348 4.00000
4.00000 7.03348 4.00000
4.00000 7.03348 4.00000
4.00000 7.03348 4.00000
4.00000 7.03348 4.00000
4.00000 7.03348 4.00000
4.00000 7.03348 4.00000
4.00000 7.03348 4.00000
4.00000 7.03348 4.00000
4.00000 7.03348 4.00000
4.00000 7.03348 4.00000
4.00000 7.03348 4.00000
4.00000 7.03348 4.00000
4.00000 7.03348 4.00000
4.00000 7.03348 4.00000
4.00000 7.03348 4.00000
4.00000 7.03347 4.00000
4.00000 7.03348 4.00000
4.00000 7.03348 4.00000
4.00000 7.03347 4.00000
4.00000 7.03348 4.00000
4.00000 7.03348 4.00000
4.00000 7.03348 4.00000
4.00000 7.03348 4.00000
4.00000 7.03348 4.00000
4.00000 7.03348 4.00000
4.00000 7.03348 4.00000
4.00000 7.03348 4.00000
3.99999 7.03349 4.00000
4.00000 7.03348 4.00000
4.00000 7.03348 4.00000
4.00000 7.03348 4.00000
4.00000 7.03348 4.00000
4.00000 7.03348 4.00000
4.00000 7.03348 4.00000
4.00000 7.03348 4.00000
4.00000 7.03348 4.00000
4.00000 7.03348 4.00000
4.00000 7.03348 4.00000
4.00000 7.03346 4.00000
4.00000 7.03348 4.00000
4.00000 7.03348 4.00000
4.00000 7.03350 4.00000
4.00000 7.03348 4.00000
4.00000 7.03348 4.00000
4.00000 7.03348 4.00000
4.00000 7.03348 4.00000
4.00000 7.03348 4.00000
4.00000 7.03348 4.00000
4.00000 7.03348 4.00000
4.00000 7.03348 4.00000
4.00000 7.03348 4.00000
4.00000 7.03348 4.00000
4.00000 7.03348 4.00000
4.00000 7.03348 4.00000
4.00000 7.03348 4.00000
4.00000 7.03348 4.00000
4.00000 7.03348 4.00000
4.00000 7.03349 4.00000
4.00000 7.03349 4.00000
4.00000 7.03349 4.00000
4.00000 7.03349 4.00000
4.00000 7.03349 4.00000
4.00000 7.03349 4.00000
4.00000 7.03348 4.00000
4.00000 7.03349 4.00000
4.00000 7.03348 4.00000
4.00000 7.03348 4.00000
4.00000 7.03348 4.00000
4.00000 7.03347 4.00000
4.00000 7.03348 4.00000
4.00000 7.03348 4.00000
4.00000 7.03348 4.00000
4.00000 7.03348 4.00000
4.00000 7.03347 4.00000
4.00000 7.03347 4.00000
4.00000 7.03348 4.00000
4.00000 7.03348 4.00000
4.00000 7.03348 4.00000
4.00000 7.03349 4.00000
4.00000 7.03349 4.00000
4.00000 7.03349 4.00000
4.00000 7.03348 4.00000
4.00000 7.03348 4.00000
4.00000 7.03348 4.00000
4.00000 7.03348 4.00000
4.00000 7.03347 4.00000
4.00000 7.03348 4.00000
4.00000 7.03348 4.00000
4.00000 7.03348 4.00000
4.00000 7.03348 4.00000
4.00000 7.03348 4.00000
4.00000 7.03348 4.00000
4.00000 7.03348 4.00000
4.00329 7.08432 4.00329
4.00810 7.15980 4.00810
4.01286 7.23552 4.01286
4.01756 7.31143 4.01756
4.02225 7.38747 4.02225
4.02692 7.46361 4.02692
4.03160 7.53977 4.03160
4.03631 7.61592 4.03631
4.04107 7.69200 4.04107
4.04590 7.76795 4.04590
4.05082 7.84370 4.05082
4.05585 7.91919 4.05585
4.06104 7.99435 4.06104
4.06640 8.06908 4.06640
4.07197 8.14329 4.07197
4.07781 8.21688 4.07781
4.08395 8.28971 4.08395
4.09046 8.36164 4.09046
4.09739 8.43249 4.09740
4.10484 8.50207 4.10485
4.11290 8.57015 4.11290
4.12167 8.63645 4.12167
4.13125 8.70075 4.13125
4.14158 8.76323 4.14158
4.15267 8.82388 4.15267
4.16457 8.88262 4.16457
4.17731 8.93938 4.17731
4.19092 8.99412 4.19092
4.20543 9.04679 4.20543
4.22087 9.09736 4.22087
4.23725 9.14581 4.23724
4.25458 9.19212 4.25458
4.27290 9.23629 4.27290
4.29220 9.27832 4.29220
4.31250 9.31821 4.31250
4.33381 9.35594 4.33381
4.35615 9.39149 4.35615
4.37954 9.42484 4.37954
4.40402 9.45592 4.40402
4.42963 9.48464 4.42963
4.45642 9.51090 4.45642
4.48449 9.53451 4.48449
4.51391 9.55528 4.51391
4.54483 9.57293 4.54483
4.57738 9.58714 4.57738
4.61174 9.59755 4.61174
4.64808 9.60377 4.64807
4.68679 9.60543 4.68636
4.72743 9.60227 4.72729
4.02267 7.39440 7.65482
4.01958 7.34419 7.79235
4.01710 7.30394 7.91979
4.01505 7.27079 8.04005
4.01332 7.24296 8.15496
4.01184 7.21927 8.26571
4.01056 7.19888 8.37315
4.00945 7.18118 8.47790
4.00848 7.16573 8.58041
4.00762 7.15212 8.68109
4.00686 7.14012 8.78019
4.00618 7.12949 8.87794
4.00558 7.12003 8.97455
4.00504 7.11160 9.07016
4.00456 7.10405 9.16491
4.00413 7.09730 9.25891
4.00374 7.09124 9.35224
4.00339 7.08578 9.44501
4.00307 7.08087 9.53726
4.00279 7.07645 9.62906
4.00253 7.07245 9.72047
4.00230 7.06883 9.81154
4.00208 7.06558 9.90228
4.00189 7.06263 9.99276
4.00172 7.05995 10.08300
4.00156 7.05753 10.17301
4.00142 7.05533 10.26284
4.00129 7.05334 10.35251
4.00118 7.05154 10.44201
4.00107 7.04990 10.53139
4.00097 7.04842 10.62066
4.00088 7.04706 10.70982
4.00080 7.04584 10.79889
4.00073 7.04471 10.88790
4.00067 7.04371 10.97682
4.00061 7.04278 11.06569
4.00055 7.04194 11.15451
4.00050 7.04118 11.24329
4.00046 7.04049 11.33203
4.00042 7.03985 11.42074
4.00038 7.03928 11.50942
4.00034 7.03876 11.59808
4.00031 7.03829 11.68672
4.00029 7.03785 11.77536
4.00026 7.03746 11.86398
4.00024 7.03710 11.95260
4.00022 7.03678 12.04121
4.00020 7.03648 12.12982
4.00018 7.03621 12.21844
4.00016 7.03596 12.30705
4.00015 7.03574 12.39567
4.00013 7.03554 12.48430
4.00012 7.03535 12.57294
4.00011 7.03518 12.66158
4.00010 7.03503 12.75024
4.00009 7.03489 12.83890
4.00008 7.03477 12.92757
4.00008 7.03465 13.01626
4.00007 7.03453 13.10498
4.00006 7.03445 13.19368
4.00006 7.03436 13.28241
4.00005 7.03428 13.37116
4.00005 7.03421 13.45992
4.00004 7.03415 13.54869
4.00004 7.03408 13.63748
4.00004 7.03403 13.72629
4.00004 7.03398 13.81511
4.00003 7.03394 13.90394
4.00003 7.03389 13.99280
4.00003 7.03386 14.08167
4.00002 7.03382 14.17056
4.00002 7.03379 14.25946
4.00002 7.03376 14.34838
4.00002 7.03374 14.43731
4.00002 7.03371 14.52625
4.00001 7.03369 14.61522
4.00001 7.03367 14.70420
4.00001 7.03366 14.79320
4.00001 7.03364 14.88221
4.00001 7.03363 14.97124
4.00001 7.03361 15.06029
4.00001 7.03360 15.14935
4.00001 7.03359 15.23842
4.00001 7.03358 15.32751
4.00001 7.03357 15.41662
4.00001 7.03356 15.50574
4.00001 7.03355 15.59487
4.00001 7.03355 15.68402
4.00001 7.03354 15.77318
4.00000 7.03354 15.86236
4.00000 7.03353 15.95155
4.00000 7.03353 16.04075
4.00000 7.03352 16.12996
4.00000 7.03352 16.21919
4.00000 7.03351 16.30843
4.00000 7.03351 16.39768
4.00000 7.03351 16.48695
4.00000 7.03351 16.57623
4.00000 7.03350 16.66552
4.00000 7.03350 16.75482
4.00000 7.03350 16.84413
4.00000 7.03350 16.93347
4.00000 7.03350 17.02282
4.00000 7.03349 17.11219
4.00000 7.03349 17.20156
4.00000 7.03349 17.29095
4.00000 7.03349 17.38035
4.00000 7.03349 17.46976
4.00000 7.03349 17.55918
4.00000 7.03349 17.64861
4.00000 7.03349 17.73805
4.00000 7.03349 17.82750
4.00000 7.03349 17.91696
4.00000 7.03349 18.00643
4.00000 7.03348 18.09591
4.00000 7.03348 18.18540
4.00000 7.03348 18.27490
4.00000 7.03348 18.36441
4.00000 7.03348 18.45393
4.00000 7.03348 18.54345
4.00000 7.03348 18.63299
4.00000 7.03348 18.72253
4.00000 7.03348 18.81208
4.00000 7.03348 18.90163
4.00000 7.03348 18.99119
4.00000 7.03348 19.08076
4.00000 7.03348 19.17033
4.00000 7.03348 19.25992
4.00000 7.03347 19.34950
4.00000 7.03348 19.43909
4.00000 7.03348 19.52869
4.00000 7.03347 19.61829
4.00000 7.03347 19.70790
4.00000 7.03347 19.79752
4.00000 7.03347 19.88715
4.00000 7.03347 19.97678
4.00000 7.03347 20.06641
4.00000 7.03347 20.15606
4.00000 7.03347 20.24571
4.00000 7.03347 20.33537
4.00000 7.03347 20.42503
4.00000 7.03348 20.51469
4.00000 7.03348 20.60437
4.00000 7.03348 20.69406
4.00000 7.03348 20.78375
4.00000 7.03348 20.87345
4.00000 7.03348 20.96315
4.00000 7.03348 21.05285
4.00000 7.03348 21.14256
4.00000 7.03348 21.23227
4.00000 7.03348 21.32199
4.00000 7.03348 21.41175
4.00000 7.03348 21.50151
4.00000 7.03348 21.59128
4.00000 7.03348 21.68105
4.00000 7.03348 21.77083
4.00000 7.03348 21.86061
4.00000 7.03348 21.95040
4.00000 7.03348 22.04020
4.00000 7.03348 22.13000
4.00000 7.03348 22.21981
4.00000 7.03348 22.30959
4.00000 7.03348 22.39938
4.00000 7.03348 22.48917
4.00000 7.03348 22.57898
4.00000 7.03348 22.66879
4.00000 7.03348 22.75860
4.00000 7.03348 22.84843
4.00000 7.03348 22.93825
4.00000 7.03348 23.02809
4.00000 7.03348 23.11793
4.00000 7.03348 23.20777
4.00000 7.03348 23.29762
4.00000 7.03348 23.38748
4.00000 7.03348 23.47734
4.00000 7.03348 23.56721
4.00000 7.03348 23.65709
4.00000 7.03348 23.74697
4.00000 7.03347 23.83686
4.00000 7.03348 23.92675
4.00000 7.03348 24.01665
4.00000 7.03348 24.10656
4.00000 7.03348 24.19645
4.00000 7.03348 24.28636
4.00000 7.03348 24.37627
4.00000 7.03347 24.46620
4.00000 7.03348 24.55611
4.00000 7.03348 24.64604
4.00000 7.03348 24.73596
4.00000 7.03347 24.82588
4.00000 7.03348 24.91581
4.00000 7.03348 25.00576
4.00000 7.03348 25.09569
4.00000 7.03348 25.18563
4.00000 7.03348 25.27557
4.00000 7.03348 25.36552
4.00000 7.03348 25.45548
4.00000 7.03348 25.54543
4.00000 7.03348 25.63540
4.00000 7.03348 25.72536
4.00000 7.03348 25.81533
4.00000 7.03348 25.90531
4.00000 7.03348 25.99529
4.00000 7.03348 26.08528
4.00000 7.03348 26.17526
4.00000 7.03348 26.26526
4.00000 7.03348 26.35525
4.00000 7.03348 26.44525
4.00000 7.03348 26.53525
4.00000 7.03348 26.62526
4.00000 7.03348 26.71527
4.00000 7.03348 26.80529
4.00000 7.03348 26.89531
4.00000 7.03348 26.98533
4.00000 7.03348 27.07536
4.00000 7.03348 27.16539
4.00000 7.03348 27.25542
4.00000 7.03348 27.34545
4.00000 7.03348 27.43549
4.00000 7.03348 27.52554
4.00000 7.03348 27.61559
4.00000 7.03348 27.70564
4.00000 7.03348 27.79570
4.00000 7.03348 27.88576
4.00000 7.03348 27.97582
4.00000 7.03348 28.06588
4.00000 7.03348 28.15595
4.00000 7.03348 28.24602
4.00000 7.03348 28.33609
4.00000 7.03348 28.42617
4.00000 7.03348 28.51625
4.00000 7.03348 28.60633
4.00000 7.03348 28.69642
4.00000 7.03348 28.78650
4.00000 7.03348 28.87659
4.00000 7.03348 28.96669
4.00000 7.03348 29.05678
4.00000 7.03348 29.14687
4.00000 7.03348 29.23697
4.00000 7.03348 29.32707
4.00000 7.03348 29.41718

Angle 0.690958 0.259891

4.00000 7.03347 4.00000
4.00000 7.03348 4.00000
4.00000 7.03348 4.00000
4.00000 7.03348 4.00000
4.00000 7.03348 4.00000
4.00000 7.03348 4.00000
4.00000 7.03348 4.00000
4.00000 7.03348 4.00000
4.00000 7.03348 4.00000
4.00000 7.03348 4.00000
4.00000 7.03348 4.00000
4.00000 7.03348 4.00000
4.00000 7.03348 4.00000
4.00000 7.03348 4.00000
4.00000 7.03348 4.00000
4.00000 7.03348 4.00000
4.00000 7.03348 4.00000
4.00000 7.03348 4.00000
4.00000 7.03348 4.00000
4.00000 7.03348 4.00000
4.00000 7.03348 4.00000
4.00000 7.03346 4.00000
4.00000 7.03348 4.00000
4.00000 7.03348 4.00000
4.00000 7.03349 4.00000
4.00000 7.03348 4.00000
4.00000 7.03348 4.00000
4.00000 7.03348 4.00000
4.00000 7.03348 4.00000
4.00000 7.03348 4.00000
4.00000 7.03348 4.00000
4.00000 7.03348 4.00000
4.00000 7.03348 4.00000
4.00000 7.03348 4.00000
4.00000 7.03353 4.00002
4.00000 7.03348 4.00000
4.00000 7.03348 4.00000
4.00000 7.03348 4.00000
4.00000 7.03347 4.00000
4.00000 7.03347 4.00000
4.00000 7.03348 4.00000
4.00000 7.03348 4.00000
4.00000 7.03348 4.00000
4.00000 7.03348 4.00000
4.00000 7.03348 4.00000
4.00000 7.03348 4.00000
4.00000 7.03348 4.00000
4.00000 7.03348 4.00000
4.00000 7.03348 4.00000
4.00000 7.03349 4.00000
4.00000 7.03349 4.00000
4.00000 7.03348 4.00000
4.00000 7.03348 4.00000
4.00000 7.03348 4.00000
4.00000 7.03348 4.00000
4.00000 7.03348 4.00000
4.00000 7.03348 4.00000
4.00000 7.03350 4.00000
4.00000 7.03350 4.00000
4.00000 7.03350 4.00000
4.00000 7.03349 4.00000
4.00000 7.03348 4.00000
4.00000 7.03348 4.00000
4.00000 7.03348 4.00000
4.00000 7.03348 4.00000
4.00000 7.03348 4.00000
4.00000 7.03348 4.00000
4.00000 7.03348 4.00000
4.00000 7.03348 4.00000
4.00000 7.03348 4.00000
4.00000 7.03348 4.00000
4.00000 7.03348 4.00000
4.00000 7.03348 4.00000
4.00000 7.03348 4.00000
4.00000 7.03348 4.00000
4.00000 7.03348 4.00000
4.00000 7.03348 4.00000
4.00000 7.03348 4.00000
4.00000 7.03348 4.00000
4.00000 7.03348 4.00000
4.00000 7.03348 4.00000
4.00000 7.03348 4.00000
4.00000 7.03348 4.00000
4.00000 7.03347 4.00000
4.00000 7.03348 4.00000
4.00000 7.03348 4.00000
4.00000 7.03348 4.00000
4.00000 7.03348 4.00000
4.00000 7.03348 4.00000
4.00000 7.03348 4.00000
4.00000 7.03347 4.00000
4.00000 7.03348 4.00000
4.00000 7.03348 4.00000
4.00000 7.03348 4.00000
4.00000 7.03348 4.00000
4.00000 7.03348 4.00000
4.00000 7.03348 4.00000
4.00000 7.03348 4.00000
4.00000 7.03348 4.00000
4.00000 7.03347 4.00000
4.00000 7.03348 4.00000
4.00000 7.03348 4.00000
4.00000 7.03348 4.00000
4.00000 7.03348 4.00000
4.00000 7.03348 4.00000
4.00000 7.03348 4.00000
4.00000 7.03347 4.00000
4.00000 7.03348 4.00000
4.00000 7.03348 4.00000
4.00000 7.03347 4.00000
4.00000 7.03348 4.00000
4.00000 7.03348 4.00000
4.00000 7.03347 4.00000
4.00000 7.03348 4.00000
4.00000 7.03348 4.00000
4.00000 7.03348 4.00000
4.00000 7.03348 4.00000
4.00000 7.03348 4.00000
4.00000 7.03348 4.00000
4.00000 7.03348 4.00000
4.00000 7.03349 4.00000
4.00000 7.03349 4.00000
4.00000 7.03349 4.00000
4.00000 7.03349 4.00000
4.00000 7.03346 4.00000
4.00000 7.03346 4.00000
4.00000 7.03346 4.00000
4.00000 7.03345 4.00000
4.00000 7.03347 4.00000
4.00000 7.03347 4.00000
4.00000 7.03348 4.00000
4.00000 7.03347 4.00000
4.00000 7.03348 4.00000
4.00000 7.03348 4.00000
4.00000 7.03348 4.00000
4.00000 7.03349 4.00000
4.00365 7.08990 4.00365
4.00836 7.16380 4.00836
4.01301 7.23795 4.01301
4.01762 7.31230 4.01762
4.02220 7.38679 4.02220
4.02678 7.46140 4.02678
4.03137 7.53605 4.03137
4.03599 7.61072 4.03599
4.04065 7.68533 4.04065
4.04538 7.75985 4.04538
4.05019 7.83421 4.05019
4.05512 7.90833 4.05512
4.06018 7.98217 4.06018
4.06542 8.05562 4.06542
4.07085 8.12861 4.07085
4.07652 8.20103 4.07652
4.08249 8.27277 4.08249
4.08879 8.34368 4.08879
4.09549 8.41362 4.09549
4.10267 8.48240 4.10267
4.11040 8.54981 4.11040
4.11879 8.61559 4.11880
4.12796 8.67948 4.12796
4.13787 8.74155 4.13788
4.14852 8.80189 4.14852
4.15993 8.86042 4.15993
4.17215 8.91707 4.17215
4.18520 8.97178 4.18520
4.19911 9.02451 4.19911
4.21391 9.07523 4.21391
4.22963 9.12390 4.22963
4.24627 9.17051 4.24627
4.26385 9.21506 4.26386
4.28240 9.25753 4.28240
4.30191 9.29792 4.30191
4.32240 9.33623 4.32240
4.34388 9.37245 4.34388
4.36638 9.40654 4.36638
4.38992 9.43847 4.38992
4.41453 9.46816 4.41453
4.44027 9.49552 4.44027
4.46720 9.52042 4.46720
4.49540 9.54268 4.49540
4.52498 9.56207 4.52498
4.55606 9.57832 4.55606
4.58880 9.59110 4.58880
4.62336 9.60005 4.62336
4.65991 9.60480 4.65990
4.69861 9.60501 4.69861
4.02540 7.43881 7.54821
4.02174 7.37924 7.69420
4.01887 7.33268 7.82700
4.01654 7.29495 7.95089
4.01460 7.26363 8.06830
4.01296 7.23717 8.18083
4.01155 7.21454 8.28951
4.01032 7.19499 8.39513
4.00925 7.17797 8.49823
4.00831 7.16306 8.59923
4.00748 7.14992 8.69850
4.00674 7.13829 8.79629
4.00609 7.12797 8.89280
4.00550 7.11877 8.98823
4.00497 7.11055 9.08271
4.00450 7.10319 9.17637
4.00408 7.09659 9.26931
4.00370 7.09065 9.36163
4.00336 7.08531 9.45340
4.00305 7.08049 9.54468
4.00277 7.07615 9.63554
4.00251 7.07222 9.72602
4.00228 7.06867 9.81617
4.00208 7.06545 9.90603
4.00189 7.06252 9.99565
4.00172 7.05990 10.08499
4.00156 7.05750 10.17417
4.00142 7.05532 10.26316
4.00129 7.05335 10.35199
4.00118 7.05157 10.44067
4.00107 7.04994 10.52924
4.00098 7.04846 10.61770
4.00089 7.04712 10.70607
4.00081 7.04590 10.79436
4.00074 7.04478 10.88258
4.00067 7.04377 10.97074
4.00061 7.04285 11.05885
4.00056 7.04201 11.14691
4.00051 7.04125 11.23493
4.00046 7.04056 11.32293
4.00042 7.03992 11.41090
4.00038 7.03935 11.49885
4.00035 7.03882 11.58679
4.00032 7.03835 11.67472
4.00029 7.03791 11.76264
4.00026 7.03752 11.85055
4.00024 7.03716 11.93846
4.00022 7.03684 12.02638
4.00020 7.03653 12.11430
4.00018 7.03625 12.20223
4.00017 7.03601 12.29016
4.00015 7.03578 12.37811
4.00014 7.03558 12.46607
4.00013 7.03540 12.55402
4.00011 7.03522 12.64202
4.00010 7.03506 12.73001
4.00009 7.03492 12.81803
4.00009 7.03479 12.90606
4.00008 7.03467 12.99411
4.00007 7.03457 13.08217
4.00007 7.03447 13.17026
4.00006 7.03438 13.25836
4.00005 7.03430 13.34648
4.00005 7.03423 13.43462
4.00004 7.03416 13.52278
4.00005 7.03410 13.61096
4.00004 7.03405 13.69916
4.00003 7.03399 13.78738
4.00003 7.03395 13.87562
4.00003 7.03391 13.96389
4.00003 7.03387 14.05217
4.00002 7.03383 14.14049
4.00002 7.03380 14.22882
4.00002 7.03377 14.31718
4.00002 7.03375 14.40549
4.00002 7.03372 14.49387
4.00002 7.03370 14.58228
4.00001 7.03368 14.67071
4.00001 7.03366 14.75916
4.00001 7.03365 14.84763
4.00001 7.03363 14.93612
4.00001 7.03362 15.02464
4.00001 7.03361 15.11318
4.00001 7.03359 15.20173
4.00001 7.03358 15.29030
4.00001 7.03357 15.37890
4.00001 7.03357 15.46751
4.00001 7.03356 15.55614
4.00001 7.03355 15.64479
4.00001 7.03354 15.73345
4.00001 7.03354 15.82213
4.00001 7.03353 15.91083
4.00000 7.03353 15.99955
4.00000 7.03352 16.08828
4.00000 7.03352 16.17703
4.00000 7.03352 16.26579
4.00000 7.03351 16.35457
4.00000 7.03351 16.44337
4.00000 7.03351 16.53218
4.00000 7.03350 16.62100
4.00000 7.03350 16.70984
4.00000 7.03350 16.79869
4.00000 7.03350 16.88756
4.00000 7.03350 16.97644
4.00000 7.03350 17.06534
4.00000 7.03349 17.15425
4.00000 7.03349 17.24317
4.00000 7.03349 17.33211
4.00000 7.03349 17.42105
4.00000 7.03349 17.51002
4.00000 7.03349 17.59899
4.00000 7.03349 17.68798
4.00000 7.03349 17.77698
4.00000 7.03349 17.86599
4.00000 7.03349 17.95501
4.00000 7.03349 18.04405
4.00000 7.03348 18.13309
4.00000 7.03348 18.22215
4.00000 7.03348 18.31126
4.00000 7.03348 18.40038
4.00000 7.03348 18.48951
4.00000 7.03348 18.57866
4.00000 7.03348 18.66781
4.00000 7.03348 18.75698
4.00000 7.03348 18.84616
4.00000 7.03348 18.93535
4.00000 7.03348 19.02455
4.00000 7.03348 19.11376
4.00000 7.03348 19.20298
4.00000 7.03348 19.29220
4.00000 7.03348 19.38144
4.00000 7.03348 19.47069
4.00000 7.03348 19.55995
4.00000 7.03348 19.64922
4.00000 7.03348 19.73849
4.00000 7.03348 19.82778
4.00000 7.03348 19.91707
4.00000 7.03348 20.00638
4.00000 7.03347 20.09567
4.00000 7.03348 20.18498
4.00000 7.03347 20.27429
4.00000 7.03348 20.36362
4.00000 7.03347 20.45295
4.00000 7.03347 20.54227
4.00000 7.03347 20.63161
4.00000 7.03347 20.72095
4.00000 7.03347 20.81030
4.00000 7.03347 20.89966
4.00000 7.03347 20.98902
4.00000 7.03347 21.07839
4.00000 7.03347 21.16777
4.00000 7.03347 21.25715
4.00000 7.03347 21.34655
4.00000 7.03347 21.43594
4.00000 7.03347 21.52535
4.00000 7.03347 21.61476
4.00000 7.03348 21.70417
4.00000 7.03348 21.79361
4.00000 7.03348 21.88304
4.00000 7.03348 21.97249
4.00000 7.03348 22.06194
4.00000 7.03348 22.15139
4.00000 7.03348 22.24085
4.00000 7.03348 22.33031
4.00000 7.03348 22.41978
4.00000 7.03348 22.50925
4.00000 7.03348 22.59873
4.00000 7.03348 22.68822
4.00000 7.03348 22.77775
4.00000 7.03348 22.86729
4.00000 7.03348 22.95683
4.00000 7.03348 23.04639
4.00000 7.03348 23.13594
4.00000 7.03348 23.22551
4.00000 7.03348 23.31508
4.00000 7.03348 23.40466
4.00000 7.03348 23.49423
4.00000 7.03348 23.58378
4.00000 7.03348 23.67333
4.00000 7.03348 23.76289
4.00000 7.03348 23.85246
4.00000 7.03348 23.94204
4.00000 7.03348 24.03163
4.00000 7.03348 24.12122
4.00000 7.03348 24.21081
4.00000 7.03348 24.30042
4.00000 7.03348 24.39003
4.00000 7.03348 24.47965
4.00000 7.03348 24.56927
4.00000 7.03348 24.65890
4.00000 7.03348 24.74854
4.00000 7.03348 24.83818
4.00000 7.03348 24.92783
4.00000 7.03348 25.01749
4.00000 7.03347 25.10717
4.00000 7.03348 25.19682
4.00000 7.03348 25.28649
4.00000 7.03348 25.37616
4.00000 7.03348 25.46586
4.00000 7.03348 25.55555
4.00000 7.03348 25.64526
4.00000 7.03347 25.73499
4.00000 7.03348 25.82467
4.00000 7.03348 25.91438
4.00000 7.03349 26.00409
4.00000 7.03348 26.09381
4.00000 7.03348 26.18353
4.00000 7.03347 26.27327
4.00000 7.03348 26.36302
4.00000 7.03347 26.45275
4.00000 7.03348 26.54248
4.00000 7.03348 26.63221
4.00000 7.03348 26.72196
4.00000 7.03348 26.81170
4.00000 7.03348 26.90145

Angle 0.072688 5.595128

4.00000 7.03348 4.00000
4.00000 7.03348 4.00000
4.00000 7.03348 4.00000
4.00000 7.03348 4.00000
4.00000 7.03348 4.00000
4.00000 7.03348 4.00000
4.00000 7.03348 4.00000
4.00000 7.03348 4.00000
4.00000 7.03348 4.00000
4.00000 7.03348 4.00000
4.00000 7.03348 4.00000
4.00000 7.03348 4.00000
4.00000 7.03348 4.00000
4.00000 7.03348 4.00000
4.00000 7.03348 4.00000
4.00000 7.03348 4.00000
4.00000 7.03348 4.00000
4.00000 7.03348 4.00000
4.00000 7.03348 4.00000
4.00000 7.03348 4.00000
4.00000 7.03349 4.00000
4.00000 7.03348 4.00000
4.00000 7.03348 4.00000
4.00000 7.03348 4.00000
4.00000 7.03348 4.00000
4.00000 7.03350 4.00000
4.00000 7.03347 4.00000
4.00000 7.03348 4.00000
4.00000 7.03348 4.00000
4.00000 7.03348 4.00000
4.00000 7.03348 4.00000
4.00000 7.03348 4.00000
4.00000 7.03348 4.00000
4.00000 7.03348 4.00000
4.00000 7.03348 4.00000
4.00000 7.03348 4.00000
4.00000 7.03348 4.00000
4.00000 7.03348 4.00000
4.00000 7.03348 4.00000
4.00000 7.03348 4.00000
4.00000 7.03348 4.00000
4.00000 7.03348 4.00000
4.00000 7.03349 4.00000
4.00000 7.03348 4.00000
4.00000 7.03348 4.00000
4.00000 7.03348 4.00000
4.00000 7.03348 4.00000
4.00000 7.03348 4.00000
4.00000 7.03348 4.00000
4.00000 7.03348 4.00000
4.00000 7.03348 4.00000
4.00000 7.03348 4.00000
4.00000 7.03348 4.00000
4.00000 7.03348 4.00000
4.00000 7.03348 4.00000
4.00000 7.03348 4.00000
4.00000 7.03348 4.00000
4.00000 7.03348 4.00000
4.00000 7.03348 4.00000
4.00000 7.03348 4.00000
4.00000 7.03348 4.00000
4.00000 7.03348 4.00000
4.00000 7.03347 4.00000
4.00000 7.03348 4.00000
4.00000 7.03348 4.00000
4.00000 7.03348 4.00000
4.00000 7.03348 4.00000
4.00000 7.03348 4.00000
4.00000 7.03348 4.00000
4.00000 7.03348 4.00000
4.00000 7.03348 4.00000
4.00000 7.03348 4.00000
4.00000 7.03348 4.00000
4.00000 7.03348 4.00000
4.00000 7.03348 4.00000
4.00000 7.03348 4.00000
4.00000 7.03348 4.00000
4.00000 7.03348 4.00000
4.00000 7.03347 4.00000
4.00000 7.03349 4.00000
4.00000 7.03348 4.00000
4.00000 7.03348 4.00000
4.00000 7.03348 4.00000
4.00000 7.03348 4.00000
4.00000 7.03347 4.00000
4.00000 7.03348 4.00000
4.00000 7.03348 4.00000
4.00000 7.03348 4.00000
4.00000 7.03348 4.00000
4.00000 7.03348 4.00000
4.00000 7.03348 4.00000
4.00000 7.03348 4.00000
4.00000 7.03348 4.00000
4.00000 7.03347 4.00000
4.00000 7.03348 4.00000
4.00000 7.03348 4.00000
4.00000 7.03348 4.00000
4.00000 7.03348 4.00000
4.00000 7.03348 4.00000
4.00000 7.03348 4.00000
4.00000 7.03348 4.00000
4.00000 7.03348 4.00000
4.00000 7.03348 4.00000
4.00000 7.03348 4.00000
4.00000 7.03348 4.00000
4.00000 7.03348 4.00000
4.00000 7.03348 4.00000
4.00000 7.03348 4.00000
4.00000 7.03348 4.00000
4.00000 7.03348 4.00000
4.00000 7.03347 4.00000
4.00000 7.03347 4.00000
4.00000 7.03347 4.00000
4.00000 7.03346 4.00000
4.00000 7.03348 4.00000
4.00000 7.03348 4.00000
4.00000 7.03348 4.00000
4.00000 7.03348 4.00000
4.00000 7.03348 4.00000
4.00000 7.03348 4.00000
4.00000 7.03348 4.00000
4.00000 7.03348 4.00000
4.00000 7.03348 4.00000
4.00000 7.03348 4.00000
4.00000 7.03348 4.00000
4.00000 7.03348 4.00000
4.00000 7.03348 4.00000
4.00000 7.03348 4.00000
4.00000 7.03348 4.00000
4.00000 7.03348 4.00000
4.00000 7.03348 4.00000
4.00000 7.03349 4.00000
4.00000 7.03348 4.00000
4.00000 7.03348 4.00000
4.00000 7.03348 4.00000
4.00000 7.03348 4.00000
4.00000 7.03348 4.00000
4.00000 7.03350 4.00000
4.00000 7.03347 4.00000
4.00000 7.03348 4.00000
4.00237 7.07002 4.00237
4.00726 7.14639 4.00726
4.01207 7.22301 4.01207
4.01685 7.29981 4.01685
4.02159 7.37675 4.02159
4.02632 7.45378 4.02632
4.03105 7.53083 4.03105
4.03581 7.60787 4.03581
4.04062 7.68482 4.04062
4.04549 7.76164 4.04549
4.05046 7.83825 4.05046
4.05554 7.91459 4.05554
4.06077 7.99058 4.06077
4.06618 8.06613 4.06618
4.07181 8.14115 4.07181
4.07770 8.21551 4.07770
4.08390 8.28910 4.08390
4.09047 8.36177 4.09047
4.09748 8.43332 4.09748
4.10501 8.50357 4.10501
4.11316 8.57228 4.11316
4.12205 8.63915 4.12205
4.13176 8.70397 4.13176
4.14222 8.76694 4.14222
4.15347 8.82803 4.15347
4.16554 8.88717 4.16554
4.17847 8.94428 4.17847
4.19229 8.99932 4.19229
4.20702 9.05225 4.20702
4.22270 9.10303 4.22270
4.23933 9.15164 4.23933
4.25695 9.19808 4.25695
4.27555 9.24233 4.27555
4.29516 9.28440 4.29516
4.31579 9.32429 4.31577
4.33744 9.36198 4.33744
4.36014 9.39745 4.36014
4.38391 9.43066 4.38391
4.40879 9.46156 4.40879
4.43483 9.49004 4.43483
4.46209 9.51598 4.46209
4.49065 9.53919 4.49064
4.52061 9.55946 4.52061
4.55212 9.57649 4.55212
4.58532 9.58995 4.58532
4.62040 9.59946 4.62039
4.65752 9.60463 4.65752
7.37226 7.52417 4.03064
7.54442 7.44049 4.02550
7.69350 7.37951 4.02176
7.82881 7.33210 4.01884
7.95486 7.29382 4.01647
8.07424 7.26214 4.01451
8.18857 7.23548 4.01285
8.29899 7.21269 4.01143
8.40625 7.19306 4.01020
8.51094 7.17600 4.00913
8.61349 7.16109 4.00819
8.71426 7.14796 4.00735
8.81352 7.13637 4.00662
8.91148 7.12609 4.00597
9.00833 7.11695 4.00538
9.10422 7.10879 4.00486
9.19927 7.10150 4.00440
9.29359 7.09497 4.00398
9.38727 7.08911 4.00360
9.48039 7.08384 4.00326
9.57301 7.07909 4.00296
9.66519 7.07482 4.00268
9.75699 7.07096 4.00243
9.84845 7.06748 4.00221
9.93961 7.06433 4.00200
10.03049 7.06148 4.00182
10.12114 7.05890 4.00165
10.21158 7.05656 4.00150
10.30183 7.05445 4.00136
10.39191 7.05253 4.00124
10.48185 7.05079 4.00113
10.57165 7.04921 4.00102
10.66135 7.04778 4.00093
10.75094 7.04648 4.00085
10.84045 7.04530 4.00077
10.92987 7.04423 4.00070
11.01923 7.04325 4.00064
11.10853 7.04237 4.00058
11.19778 7.04156 4.00053
11.28698 7.04083 4.00048
11.37615 7.04017 4.00043
11.46528 7.03956 4.00040
11.55439 7.03901 4.00036
11.64347 7.03851 4.00033
11.73254 7.03806 4.00030
11.82159 7.03764 4.00027
11.91063 7.03727 4.00025
11.99966 7.03692 4.00022
12.08868 7.03661 4.00020
12.17770 7.03633 4.00018
12.26672 7.03607 4.00017
12.35575 7.03584 4.00015
12.44477 7.03562 4.00014
12.53380 7.03543 4.00013
12.62283 7.03525 4.00011
12.71187 7.03509 4.00010
12.80092 7.03495 4.00009
12.88997 7.03481 4.00009
12.97904 7.03470 4.00008
13.06811 7.03458 4.00007
13.15720 7.03448 4.00006
13.24629 7.03439 4.00006
13.33541 7.03430 4.00005
13.42452 7.03424 4.00005
13.51366 7.03416 4.00004
13.60280 7.03411 4.00004
13.69196 7.03405 4.00004
13.78113 7.03400 4.00003
13.87031 7.03395 4.00003
13.95951 7.03391 4.00003
14.04872 7.03387 4.00002
14.13794 7.03383 4.00003
14.22718 7.03380 4.00002
14.31643 7.03377 4.00002
14.40570 7.03375 4.00002
14.49497 7.03372 4.00002
14.58426 7.03370 4.00001
14.67357 7.03368 4.00001
14.76289 7.03366 4.00001
14.85222 7.03364 4.00001
14.94156 7.03363 4.00001
15.03092 7.03361 4.00001
15.12028 7.03360 4.00001
15.20967 7.03359 4.00001
15.29907 7.03358 4.00001
15.38847 7.03357 4.00001
15.47789 7.03356 4.00001
15.56732 7.03355 4.00000
15.65676 7.03354 4.00000
15.74622 7.03354 4.00000
15.83569 7.03353 4.00000
15.92516 7.03353 4.00000
16.01465 7.03352 4.00000
16.10416 7.03352 4.00000
16.19367 7.03351 4.00000
16.28319 7.03351 4.00000
16.37273 7.03350 4.00000
16.46227 7.03350 4.00000
16.55182 7.03351 4.00000
16.64139 7.03350 4.00000
16.73096 7.03350 4.00000
16.82055 7.03350 4.00000
16.91015 7.03350 4.00000
16.99975 7.03350 4.00000
17.08937 7.03349 4.00000
17.17900 7.03349 4.00000
17.26864 7.03349 4.00000
17.35829 7.03349 4.00000
17.44795 7.03349 4.00000
17.53761 7.03349 4.00000
17.62727 7.03349 4.00000
17.71695 7.03349 4.00000
17.80664 7.03349 4.00000
17.89633 7.03349 4.00000
17.98603 7.03349 4.00000
18.07574 7.03348 4.00000
18.16546 7.03348 4.00000
18.25519 7.03348 4.00000
18.34493 7.03348 4.00000
18.43468 7.03348 4.00000
18.52443 7.03348 4.00000
18.61420 7.03348 4.00000
18.70397 7.03348 4.00000
18.79375 7.03348 4.00000
18.88354 7.03348 4.00000
18.97333 7.03348 4.00000
19.06313 7.03348 4.00000
19.15294 7.03348 4.00000
19.24275 7.03348 4.00000
19.33257 7.03348 4.00000
19.42240 7.03348 4.00000
19.51223 7.03348 4.00000
19.60207 7.03348 4.00000
19.69191 7.03348 4.00000
19.78177 7.03348 4.00000
19.87162 7.03348 4.00000
19.96149 7.03347 4.00000
20.05135 7.03348 4.00000
20.14122 7.03348 4.00000
20.23110 7.03348 4.00000
20.32099 7.03348 4.00000
20.41089 7.03347 4.00000
20.50078 7.03348 4.00000
20.59068 7.03348 4.00000
20.68060 7.03347 4.00000
20.77051 7.03348 4.00000
20.86043 7.03348 4.00000
20.95037 7.03347 4.00000
21.04030 7.03348 4.00000
21.13024 7.03348 4.00000
21.22018 7.03348 4.00000
21.31014 7.03348 4.00000
21.40010 7.03348 4.00000
21.49006 7.03348 4.00000
21.58003 7.03348 4.00000
21.67000 7.03348 4.00000
21.75998 7.03348 4.00000
21.84996 7.03348 4.00000
21.93994 7.03348 4.00000
22.02993 7.03348 4.00000
22.11992 7.03348 4.00000
22.20992 7.03348 4.00000
22.29992 7.03348 4.00000
22.38993 7.03348 4.00000
22.47993 7.03348 4.00000
22.56995 7.03348 4.00000
22.65997 7.03348 4.00000
22.74999 7.03348 4.00000
22.84001 7.03348 4.00000
22.93004 7.03348 4.00000
23.02007 7.03348 4.00000
23.11011 7.03348 4.00000
23.20014 7.03348 4.00000
23.29018 7.03348 4.00000
23.38022 7.03348 4.00000
23.47027 7.03348 4.00000
23.56032 7.03348 4.00000
23.65038 7.03348 4.00000
23.74043 7.03348 4.00000
23.83050 7.03348 4.00000
23.92056 7.03348 4.00000
24.01063 7.03348 4.00000
24.10070 7.03348 4.00000
24.19078 7.03348 4.00000
24.28086 7.03348 4.00000
24.37094 7.03348 4.00000
24.46103 7.03348 4.00000
24.55112 7.03348 4.00000
24.64121 7.03348 4.00000
24.73131 7.03348 4.00000
24.82140 7.03348 4.00000
24.91151 7.03348 4.00000
25.00161 7.03348 4.00000
25.09172 7.03348 4.00000
25.18184 7.03348 4.00000
25.27196 7.03348 4.00000
25.36208 7.03348 4.00000
25.45220 7.03348 4.00000
25.54233 7.03348 4.00000
25.63246 7.03348 4.00000
25.72259 7.03348 4.00000
25.81273 7.03348 4.00000
25.90287 7.03348 4.00000
25.99301 7.03348 4.00000
26.08315 7.03348 4.00000
26.17330 7.03348 4.00000
26.26345 7.03348 4.00000
26.35360 7.03348 4.00000
26.44376 7.03348 4.00000
26.53391 7.03348 4.00000
26.62407 7.03348 4.00000
26.71424 7.03348 4.00000
26.80440 7.03348 4.00000

Angle 0.185653 0.991579

4.00000 7.03348 4.00000
4.00000 7.03348 4.00000
4.00000 7.03348 4.00000
4.00000 7.03348 4.00000
4.00000 7.03348 4.00000
4.00000 7.03348 4.00000
4.00000 7.03348 4.00000
4.00000 7.03348 4.00000
4.00000 7.03348 4.00000
4.00000 7.03348 4.00000
4.00000 7.03348 4.00000
4.00000 7.03348 4.00000
4.00000 7.03348 4.00000
4.00000 7.03348 4.00000
4.00000 7.03348 4.00000
4.00000 7.03348 4.00000
4.00000 7.03348 4.00000
4.00000 7.03348 4.00000
4.00000 7.03348 4.00000
4.00000 7.03348 4.00000
4.00000 7.03348 4.00000
4.00000 7.03348 4.00000
4.00000 7.03348 4.00000
4.00000 7.03350 4.00000
4.00000 7.03348 4.00000
4.00000 7.03347 4.00000
4.00000 7.03348 4.00000
4.00000 7.03348 4.00000
4.00000 7.03348 4.00000
4.00000 7.03348 4.00000
4.00000 7.03348 4.00000
4.00000 7.03348 4.00000
4.00000 7.03348 4.00000
4.00000 7.03349 4.00000
4.00000 7.03349 4.00000
4.00000 7.03348 4.00000
4.00000 7.03348 4.00000
4.00000 7.03348 4.00000
4.00000 7.03348 4.00000
4.00000 7.03348 4.00000
4.00000 7.03348 4.00000
4.00000 7.03348 4.00000
4.00000 7.03348 4.00000
4.00000 7.03348 4.00000
4.00000 7.03348 4.00000
4.00000 7.03348 4.00000
4.00000 7.03348 4.00000
4.00000 7.03348 4.00000
4.00000 7.03347 4.00000
4.00000 7.03347 4.00000
4.00000 7.03348 4.00000
4.00000 7.03347 4.00000
4.00000 7.03348 4.00000
4.00000 7.03349 4.00000
4.00000 7.03349 4.00000
4.00000 7.03350 4.00000
4.00000 7.03348 4.00000
4.00000 7.03348 4.00000
4.00000 7.03348 4.00000
4.00000 7.03348 4.00000
4.00000 7.03348 4.00000
4.00000 7.03348 4.00000
4.00000 7.03348 4.00000
4.00000 7.03348 4.00000
4.00000 7.03348 4.00000
4.00000 7.03348 4.00000
4.00000 7.03349 4.00000
4.00000 7.03348 4.00000
4.00000 7.03348 4.00000
4.00000 7.03348 4.00000
4.00000 7.03348 4.00000
4.00000 7.03348 4.00000
4.00000 7.03348 4.00000
4.00000 7.03348 4.00000
4.00000 7.03348 4.00000
4.00000 7.03345 4.00000
4.00000 7.03345 4.00000
4.00000 7.03348 4.00000
4.00000 7.03348 4.00000
4.00000 7.03348 4.00000
4.00000 7.03347 4.00000
4.00000 7.03347 4.00000
4.00000 7.03346 4.00000
4.00000 7.03348 4.00000
4.00000 7.03348 4.00000
4.00000 7.03347 4.00000
4.00000 7.03348 4.00000
4.00000 7.03348 4.00000
4.00000 7.03348 4.00000
4.00000 7.03348 4.00000
4.00000 7.03348 4.00000
4.00000 7.03348 4.00000
4.00000 7.03348 4.00000
4.00000 7.03348 4.00000
4.00000 7.03348 4.00000
4.00000 7.03349 4.00000
4.00000 7.03348 4.00000
4.00000 7.03348 4.00000
4.00000 7.03348 4.00000
4.00000 7.03348 4.00000
4.00000 7.03348 4.00000
4.00000 7.03347 4.00000
4.00000 7.03350 4.00000
4.00000 7.03347 4.00000
4.00000 7.03348 4.00000
4.00000 7.03352 4.00000
4.00435 7.10077 4.00435
4.00888 7.17216 4.00888
4.01337 7.24380 4.01337
4.01782 7.31566 4.01783
4.02226 7.38769 4.02226
4.02669 7.45985 4.02669
4.03113 7.53210 4.03113
4.03560 7.60438 4.03560
4.04011 7.67666 4.04011
4.04468 7.74888 4.04468
4.04933 7.82098 4.04933
4.05408 7.89291 4.05408
4.05896 7.96461 4.05896
4.06400 8.03599 4.06400
4.06921 8.10699 4.06921
4.07465 8.17751 4.07465
4.08034 8.24745 4.08034
4.08634 8.31668 4.08633
4.09269 8.38508 4.09269
4.09946 8.45247 4.09946
4.10673 8.51868 4.10673
4.11458 8.58350 4.11458
4.12311 8.64666 4.12311
4.13240 8.70801 4.13240
4.14237 8.76774 4.14236
4.15304 8.82582 4.15305
4.16447 8.88216 4.16447
4.17667 8.93671 4.17668
4.18969 8.98941 4.18969
4.20354 9.04023 4.20354
4.21825 9.08915 4.21825
4.23383 9.13612 4.23383
4.25031 9.18114 4.25031
4.26769 9.22419 4.26769
4.28600 9.26528 4.28600
4.30523 9.30440 4.30523
4.32541 9.34154 4.32541
4.34654 9.37667 4.34654
4.36865 9.40978 4.36865
4.39177 9.44082 4.39177
4.41592 9.46973 4.41593
4.44117 9.49641 4.44117
4.46755 9.52073 4.46756
4.49517 9.54251 4.49517
4.52411 9.56156 4.52411
4.55450 9.57760 4.55450
4.58647 9.59034 4.58647
4.62019 9.59942 4.62019
4.65582 9.60450 4.65582
4.03117 7.53269 7.35635
4.02603 7.44916 7.52504
4.02229 7.38815 7.67085
4.01936 7.34059 7.80304
4.01699 7.30210 7.92608
4.01501 7.27016 8.04251
4.01333 7.24318 8.15398
4.01189 7.22011 8.26154
4.01064 7.20016 8.36600
4.00955 7.18277 8.46792
4.00859 7.16753 8.56773
4.00774 7.15409 8.66578
4.00699 7.14218 8.76234
4.00632 7.13160 8.85761
4.00572 7.12216 8.95179
4.00518 7.11373 9.04502
4.00469 7.10616 9.13744
4.00426 7.09936 9.22913
4.00387 7.09325 9.32019
4.00351 7.08773 9.41071
4.00319 7.08275 9.50074
4.00290 7.07825 9.59036
4.00264 7.07419 9.67959
4.00240 7.07050 9.76850
4.00219 7.06717 9.85711
4.00199 7.06414 9.94547
4.00181 7.06138 10.03360
4.00165 7.05889 10.12153
4.00151 7.05662 10.20929
4.00137 7.05456 10.29690
4.00125 7.05268 10.38438
4.00114 7.05098 10.47173
4.00104 7.04942 10.55900
4.00095 7.04801 10.64616
4.00086 7.04673 10.73325
4.00078 7.04556 10.82028
4.00072 7.04450 10.90724
4.00065 7.04352 10.99418
4.00059 7.04263 11.08107
4.00054 7.04182 11.16793
4.00049 7.04109 11.25477
4.00045 7.04042 11.34157
4.00041 7.03980 11.42838
4.00037 7.03925 11.51518
4.00034 7.03874 11.60197
4.00031 7.03828 11.68876
4.00028 7.03785 11.77556
4.00026 7.03747 11.86236
4.00024 7.03711 11.94917
4.00022 7.03679 12.03599
4.00020 7.03650 12.12283
4.00018 7.03623 12.20968
4.00016 7.03599 12.29654
4.00015 7.03576 12.38343
4.00014 7.03557 12.47033
4.00012 7.03538 12.55727
4.00011 7.03521 12.64421
4.00010 7.03506 12.73118
4.00009 7.03492 12.81818
4.00009 7.03479 12.90519
4.00008 7.03467 12.99224
4.00007 7.03457 13.07930
4.00007 7.03448 13.16640
4.00006 7.03439 13.25352
4.00005 7.03431 13.34067
4.00005 7.03424 13.42785
4.00005 7.03417 13.51506
4.00004 7.03411 13.60229
4.00004 7.03405 13.68955
4.00003 7.03400 13.77683
4.00003 7.03396 13.86415
4.00003 7.03391 13.95145
4.00003 7.03387 14.03882
4.00002 7.03384 14.12621
4.00002 7.03381 14.21363
4.00002 7.03378 14.30107
4.00002 7.03375 14.38854
4.00002 7.03373 14.47604
4.00001 7.03371 14.56356
4.00001 7.03369 14.65111
4.00001 7.03367 14.73869
4.00001 7.03365 14.82629
4.00001 7.03363 14.91391
4.00001 7.03362 15.00156
4.00001 7.03361 15.08924
4.00001 7.03360 15.17694
4.00001 7.03359 15.26467
4.00001 7.03358 15.35242
4.00001 7.03357 15.44019
4.00001 7.03356 15.52798
4.00000 7.03355 15.61580
4.00000 7.03355 15.70365
4.00000 7.03354 15.79151
4.00000 7.03353 15.87940
4.00000 7.03353 15.96731
4.00000 7.03353 16.05524
4.00000 7.03352 16.14319
4.00000 7.03352 16.23116
4.00000 7.03351 16.31915
4.00000 7.03351 16.40717
4.00000 7.03351 16.49520
4.00000 7.03351 16.58325
4.00000 7.03350 16.67133
4.00000 7.03350 16.75942
4.00000 7.03350 16.84754
4.00000 7.03350 16.93567
4.00000 7.03350 17.02382
4.00000 7.03349 17.11200
4.00000 7.03349 17.20019
4.00000 7.03349 17.28840
4.00000 7.03349 17.37662
4.00000 7.03349 17.46487
4.00000 7.03349 17.55314
4.00000 7.03348 17.64142
4.00000 7.03349 17.72971
4.00000 7.03348 17.81804
4.00000 7.03349 17.90636
4.00000 7.03349 17.99471
4.00000 7.03348 18.08308
4.00000 7.03348 18.17147
4.00000 7.03348 18.25987
4.00000 7.03348 18.34828
4.00000 7.03348 18.43671
4.00000 7.03348 18.52516
4.00000 7.03348 18.61362
4.00000 7.03348 18.70210
4.00000 7.03348 18.79060
4.00000 7.03348 18.87910
4.00000 7.03348 18.96763
4.00000 7.03348 19.05616
4.00000 7.03348 19.14472
4.00000 7.03348 19.23329
4.00000 7.03348 19.32187
4.00000 7.03348 19.41046
4.00000 7.03348 19.49907
4.00000 7.03348 19.58770
4.00000 7.03348 19.67633
4.00000 7.03348 19.76499
4.00000 7.03348 19.85365
4.00000 7.03348 19.94233
4.00000 7.03348 20.03102
4.00000 7.03348 20.11972
4.00000 7.03348 20.20843
4.00000 7.03348 20.29717
4.00000 7.03348 20.38590
4.00000 7.03348 20.47466
4.00000 7.03348 20.56342
4.00000 7.03348 20.65220
4.00000 7.03348 20.74099
4.00000 7.03348 20.82979
4.00000 7.03348 20.91861
4.00000 7.03348 21.00743
4.00000 7.03348 21.09627
4.00000 7.03348 21.18511
4.00000 7.03348 21.27397
4.00000 7.03348 21.36284
4.00000 7.03348 21.45172
4.00000 7.03348 21.54061
4.00000 7.03348 21.62951
4.00000 7.03348 21.71842
4.00000 7.03348 21.80735
4.00000 7.03348 21.89628
4.00000 7.03348 21.98522
4.00000 7.03348 22.07418
4.00000 7.03348 22.16314
4.00000 7.03348 22.25211
4.00000 7.03348 22.34110
4.00000 7.03348 22.43009
4.00000 7.03348 22.51909
4.00000 7.03348 22.60811
4.00000 7.03348 22.69713
4.00000 7.03348 22.78616
4.00000 7.03348 22.87520
4.00000 7.03348 22.96425
4.00000 7.03348 23.05331
4.00000 7.03348 23.14238
4.00000 7.03348 23.23146
4.00000 7.03348 23.32054
4.00000 7.03348 23.40964
4.00000 7.03348 23.49874
4.00000 7.03348 23.58786
4.00000 7.03348 23.67698
4.00000 7.03348 23.76611
4.00000 7.03348 23.85525
4.00000 7.03348 23.94440
4.00000 7.03348 24.03355
4.00000 7.03348 24.12272
4.00000 7.03348 24.21189
4.00000 7.03348 24.30107
4.00000 7.03348 24.39026
4.00000 7.03348 24.47946
4.00000 7.03348 24.56866
4.00000 7.03348 24.65787
4.00000 7.03348 24.74710
4.00000 7.03348 24.83632
4.00000 7.03348 24.92556
4.00000 7.03348 25.01480
4.00000 7.03348 25.10406
4.00000 7.03348 25.19332
4.00000 7.03348 25.28259
4.00000 7.03348 25.37186
4.00000 7.03348 25.46115
4.00000 7.03348 25.55044
4.00000 7.03348 25.63974
4.00000 7.03348 25.72904
4.00000 7.03348 25.81836
4.00000 7.03348 25.90768
4.00000 7.03349 25.99699
4.00000 7.03349 26.08632
4.00000 7.03348 26.17567
4.00000 7.03349 26.26501
4.00000 7.03349 26.35435
4.00000 7.03348 26.44373
4.00000 7.03348 26.53309
4.00000 7.03349 26.62245
4.00000 7.03349 26.71183
4.00000 7.03348 26.80123
4.00000 7.03348 26.89062
4.00000 7.03348 26.98001
4.00000 7.03348 27.06942
4.00000 7.03348 27.15883
4.00000 7.03348 27.24825
4.00000 7.03348 27.33767
4.00000 7.03348 27.42710
4.00000 7.03348 27.51654
4.00000 7.03348 27.60599
4.00000 7.03348 27.69544
4.00000 7.03348 27.78490
4.00000 7.03348 27.87436
4.00000 7.03348 27.96383
4.00000 7.03348 28.05331
4.00000 7.03348 28.14280
4.00000 7.03348 28.23230
4.00000 7.03348 28.32180
4.00000 7.03348 28.41131
4.00000 7.03348 28.50082
4.00000 7.03348 28.59034
4.00000 7.03348 28.67987
4.00000 7.03348 28.76941
4.00000 7.03348 28.85896
4.00000 7.03348 28.94851
4.00000 7.03348 29.03806
4.00000 7.03348 29.12763
4.00000 7.03348 29.21720
4.00000 7.03348 29.30677

Angle 0.698426 6.257774

4.00000 7.03348 4.00000
4.00000 7.03348 4.00000
4.00000 7.03348 4.00000
4.00000 7.03348 4.00000
4.00000 7.03348 4.00000
4.00000 7.03348 4.00000
4.00000 7.03348 4.00000
4.00000 7.03348 4.00000
4.00000 7.03348 4.00000
4.00000 7.03348 4.00000
4.00000 7.03348 4.00000
4.00000 7.03348 4.00000
4.00000 7.03348 4.00000
4.00000 7.03348 4.00000
4.00000 7.03348 4.00000
4.00000 7.03348 4.00000
4.00000 7.03348 4.00000
4.00000 7.03348 4.00000
4.00000 7.03348 4.00000
4.00000 7.03348 4.00000
4.00000 7.03348 4.00000
4.00000 7.03349 4.00000
4.00000 7.03348 4.00000
4.00000 7.03348 4.00000
4.00000 7.03348 4.00000
4.00000 7.03348 4.00000
4.00000 7.03348 4.00000
4.00000 7.03348 4.00000
4.00000 7.03349 4.00000
4.00000 7.03349 4.00000
4.00000 7.03349 4.00000
4.00000 7.03348 4.00000
4.00000 7.03348 4.00000
4.00000 7.03348 4.00000
4.00000 7.03348 4.00000
4.00000 7.03348 4.00000
4.00000 7.03349 4.00000
4.00000 7.03348 4.00000
4.00000 7.03348 4.00000
4.00000 7.03348 4.00000
4.00000 7.03348 4.00000
4.00000 7.03348 4.00000
4.00000 7.03348 4.00000
4.00000 7.03348 4.00000
4.00000 7.03348 4.00000
4.00000 7.03348 4.00000
4.00000 7.03348 4.00000
4.00000 7.03348 4.00000
4.00000 7.03348 4.00000
4.00000 7.03348 4.00000
4.00000 7.03348 4.00000
4.00000 7.03348 4.00000
4.00000 7.03348 4.00000
4.00000 7.03348 4.00000
4.00000 7.03348 4.00000
4.00000 7.03348 4.00000
4.00000 7.03348 4.00000
4.00000 7.03348 4.00000
4.00000 7.03348 4.00000
4.00000 7.03348 4.00000
4.00000 7.03348 4.00000
4.00000 7.03348 4.00000
4.00000 7.03348 4.00000
4.00000 7.03348 4.00000
4.00000 7.03348 4.00000
4.00000 7.03348 4.00000
4.00000 7.03348 4.00000
4.00000 7.03348 4.00000
4.00000 7.03348 4.00000
4.00000 7.03349 4.00000
4.00000 7.03348 4.00000
4.00000 7.03348 4.00000
4.00000 7.03348 4.00000
4.00000 7.03348 4.00000
4.00000 7.03348 4.00000
4.00000 7.03348 4.00000
4.00000 7.03348 4.00000
4.00000 7.03348 4.00000
4.00000 7.03348 4.00000
4.00000 7.03348 4.00000
4.00000 7.03348 4.00000
4.00000 7.03348 4.00000
4.00000 7.03347 4.00000
4.00000 7.03348 4.00000
4.00000 7.03349 4.00000
4.00000 7.03348 4.00000
4.00000 7.03348 4.00000
4.00000 7.03348 4.00000
4.00000 7.03348 4.00000
4.00000 7.03348 4.00000
4.00000 7.03348 4.00000
4.00000 7.03348 4.00000
4.00000 7.03348 4.00000
4.00000 7.03348 4.00000
4.00000 7.03348 4.00000
4.00000 7.03348 4.00000
4.00000 7.03348 4.00000
4.00000 7.03348 4.00000
4.00000 7.03348 4.00000
4.00000 7.03348 4.00000
4.00000 7.03348 4.00000
4.00000 7.03348 4.00000
4.00000 7.03348 4.00000
4.00000 7.03348 4.00000
4.00000 7.03348 4.00000
4.00000 7.03348 4.00000
4.00000 7.03348 4.00000
4.00000 7.03348 4.00000
4.00000 7.03349 4.00000
4.00000 7.03348 4.00000
4.00000 7.03347 4.00000
4.00000 7.03348 4.00000
4.00000 7.03348 4.00000
4.00136 7.05436 4.00136
4.00558 7.12001 4.00558
4.00976 7.18599 4.00976
4.01390 7.25226 4.01390
4.01802 7.31879 4.01802
4.02213 7.38553 4.02213
4.02624 7.45246 4.02624
4.03036 7.51953 4.03036
4.03450 7.58671 4.03450
4.03868 7.65396 4.03868
4.04292 7.72124 4.04292
4.04722 7.78850 4.04722
4.05161 7.85570 4.05161
4.05610 7.92279 4.05610
4.06071 7.98970 4.06071
4.06547 8.05638 4.06547
4.07040 8.12276 4.07040
4.07554 8.18875 4.07554
4.08091 8.25427 4.08091
4.08656 8.31922 4.08656
4.09253 8.38347 4.09253
4.09888 8.44689 4.09888
4.10566 8.50933 4.10566
4.11295 8.57060 4.11295
4.12084 8.63050 4.12084
4.12939 8.68883 4.12939
4.13858 8.74573 4.13858
4.14839 8.80121 4.14839
4.15887 8.85521 4.15887
4.17003 8.90766 4.17003
4.18191 8.95853 4.18191
4.19454 9.00776 4.19454
4.20793 9.05533 4.20793
4.22210 9.10119 4.22210
4.23708 9.14534 4.23708
4.25287 9.18775 4.25287
4.26949 9.22841 4.26949
4.28696 9.26733 4.28696
4.30527 9.30448 4.30527
4.32445 9.33986 4.32445
4.34451 9.37345 4.34451
4.36547 9.40522 4.36546
4.38734 9.43514 4.38734
4.41016 9.46314 4.41016
4.43397 9.48916 4.43397
4.45883 9.51307 4.45883
4.48478 9.53474 4.48478
4.51193 9.55400 4.51193
4.54036 9.57063 4.54036
4.57020 9.58437 4.57020
4.60158 9.59494 4.60158
4.63463 9.60202 4.63463
4.66949 9.60530 4.66954
4.70642 9.60450 4.70629
7.56871 7.42987 4.02485
7.70448 7.37539 4.02150
7.82904 7.33202 4.01883
7.94582 7.29639 4.01663
8.05686 7.26650 4.01478
8.16351 7.24103 4.01320
8.26669 7.21907 4.01183
8.36705 7.19997 4.01063
8.46512 7.18323 4.00958
8.56126 7.16847 4.00865
8.65579 7.15540 4.00783
8.74894 7.14376 4.00709
8.84092 7.13338 4.00643
8.93189 7.12408 4.00584
9.02198 7.11573 4.00531
9.11131 7.10822 4.00483
9.19998 7.10145 4.00439
9.28808 7.09533 4.00400
9.37566 7.08981 4.00365
9.46280 7.08480 4.00332
9.54956 7.08025 4.00303
9.63597 7.07613 4.00277
9.72208 7.07238 4.00252
9.80793 7.06897 4.00230
9.89354 7.06588 4.00210
9.97896 7.06306 4.00192
10.06420 7.06049 4.00176
10.14929 7.05815 4.00160
10.23425 7.05602 4.00147
10.31909 7.05407 4.00134
10.40387 7.05227 4.00122
10.48851 7.05067 4.00112
10.57310 7.04919 4.00102
10.65764 7.04784 4.00093
10.74213 7.04660 4.00085
10.82659 7.04548 4.00078
10.91102 7.04444 4.00071
10.99544 7.04350 4.00065
11.07982 7.04265 4.00060
11.16420 7.04186 4.00055
11.24859 7.04114 4.00050
11.33298 7.04048 4.00046
11.41738 7.03988 4.00042
11.50181 7.03932 4.00038
11.58621 7.03883 4.00035
11.67066 7.03836 4.00032
11.75512 7.03795 4.00029
11.83962 7.03756 4.00027
11.92413 7.03721 4.00024
12.00868 7.03689 4.00022
12.09326 7.03660 4.00020
12.17787 7.03633 4.00019
12.26251 7.03608 4.00017
12.34719 7.03586 4.00016
12.43192 7.03565 4.00014
12.51667 7.03547 4.00013
12.60146 7.03530 4.00011
12.68630 7.03514 4.00011
12.77116 7.03500 4.00010
12.85608 7.03486 4.00009
12.94104 7.03474 4.00008
13.02604 7.03464 4.00008
13.11108 7.03454 4.00007
13.19616 7.03444 4.00006
13.28128 7.03436 4.00006
13.36644 7.03428 4.00005
13.45165 7.03421 4.00005
13.53689 7.03415 4.00005
13.62218 7.03409 4.00004
13.70751 7.03404 4.00004
13.79288 7.03399 4.00004
13.87829 7.03395 4.00003
13.96374 7.03391 4.00003
14.04923 7.03387 4.00003
14.13476 7.03383 4.00002
14.22032 7.03380 4.00002
14.30593 7.03378 4.00002
14.39158 7.03375 4.00002
14.47727 7.03373 4.00002
14.56299 7.03370 4.00002
14.64875 7.03369 4.00001
14.73455 7.03367 4.00001
14.82039 7.03365 4.00001
14.90626 7.03364 4.00001
14.99217 7.03362 4.00001
15.07812 7.03361 4.00001
15.16410 7.03360 4.00001
15.25012 7.03359 4.00001
15.33617 7.03358 4.00001
15.42226 7.03357 4.00001
15.50839 7.03356 4.00001
15.59454 7.03355 4.00001
15.68073 7.03355 4.00001
15.76696 7.03354 4.00000
15.85321 7.03354 4.00000
15.93950 7.03353 4.00000
16.02583 7.03353 4.00000
16.11218 7.03352 4.00000
16.19857 7.03352 4.00000
16.28499 7.03352 4.00000
16.37144 7.03351 4.00000
16.45792 7.03351 4.00000
16.54443 7.03351 4.00000
16.63097 7.03350 4.00000
16.71754 7.03350 4.00000
16.80414 7.03350 4.00000
16.89077 7.03350 4.00000
16.97742 7.03350 4.00000
17.06411 7.03350 4.00000
17.15083 7.03349 4.00000
17.23757 7.03349 4.00000
17.32434 7.03349 4.00000
17.41114 7.03349 4.00000
17.49796 7.03349 4.00000
17.58482 7.03349 4.00000
17.67170 7.03349 4.00000
17.75860 7.03349 4.00000
17.84553 7.03349 4.00000
17.93246 7.03349 4.00000
18.01941 7.03349 4.00000
18.10639 7.03348 4.00000
18.19339 7.03348 4.00000
18.28042 7.03348 4.00000
18.36747 7.03348 4.00000
18.45455 7.03348 4.00000
18.54166 7.03348 4.00000
18.62878 7.03348 4.00000
18.71594 7.03348 4.00000
18.80310 7.03348 4.00000
18.89031 7.03348 4.00000
18.97753 7.03348 4.00000
19.06477 7.03348 4.00000
19.15204 7.03348 4.00000
19.23933 7.03348 4.00000
19.32664 7.03348 4.00000
19.41397 7.03348 4.00000
19.50132 7.03347 4.00000
19.58870 7.03347 4.00000
19.67609 7.03347 4.00000
19.76351 7.03347 4.00000
19.85095 7.03347 4.00000
19.93840 7.03347 4.00000
20.02588 7.03347 4.00000
20.11338 7.03347 4.00000
20.20088 7.03348 4.00000
20.28842 7.03348 4.00000
20.37597 7.03348 4.00000
20.46355 7.03348 4.00000
20.55114 7.03348 4.00000
20.63875 7.03348 4.00000
20.72638 7.03348 4.00000
20.81403 7.03348 4.00000
20.90170 7.03348 4.00000
20.98938 7.03348 4.00000
21.07708 7.03348 4.00000
21.16480 7.03348 4.00000
21.25254 7.03348 4.00000
21.34029 7.03348 4.00000
21.42806 7.03348 4.00000
21.51584 7.03348 4.00000
21.60365 7.03348 4.00000
21.69146 7.03348 4.00000
21.77930 7.03348 4.00000
21.86715 7.03348 4.00000
21.95502 7.03348 4.00000
22.04290 7.03348 4.00000
22.13080 7.03348 4.00000
22.21873 7.03348 4.00000
22.30666 7.03348 4.00000
22.39461 7.03348 4.00000
22.48258 7.03348 4.00000
22.57056 7.03348 4.00000
22.65856 7.03348 4.00000
22.74657 7.03348 4.00000
22.83460 7.03348 4.00000
22.92264 7.03348 4.00000
23.01070 7.03348 4.00000
23.09877 7.03348 4.00000
23.18685 7.03348 4.00000
23.27495 7.03348 4.00000
23.36306 7.03348 4.00000
23.45119 7.03348 4.00000
23.53933 7.03348 4.00000
23.62749 7.03348 4.00000
23.71565 7.03348 4.00000
23.80384 7.03348 4.00000
23.89203 7.03348 4.00000
23.98024 7.03347 4.00000
24.06846 7.03348 4.00000
24.15670 7.03348 4.00000
24.24494 7.03347 4.00000
24.33320 7.03348 4.00000
24.42147 7.03348 4.00000
24.50976 7.03348 4.00000
24.59806 7.03348 4.00000
24.68637 7.03348 4.00000
24.77469 7.03348 4.00000
24.86302 7.03348 4.00000
24.95137 7.03348 4.00000
25.03974 7.03347 4.00000
25.12810 7.03348 4.00000
25.21648 7.03348 4.00000
25.30488 7.03347 4.00000
25.39328 7.03348 4.00000
25.48170 7.03348 4.00000
25.57013 7.03348 4.00000
25.65857 7.03348 4.00000
25.74702 7.03348 4.00000
25.83549 7.03348 4.00000
25.92396 7.03348 4.00000
26.01244 7.03348 4.00000
26.10094 7.03348 4.00000
26.18945 7.03348 4.00000
26.27797 7.03348 4.00000
26.36649 7.03348 4.00000
26.45503 7.03348 4.00000
26.54358 7.03348 4.00000
26.63214 7.03348 4.00000
26.72071 7.03348 4.00000
26.80929 7.03348 4.00000
26.89788 7.03348 4.00000
26.98648 7.03348 4.00000
27.07509 7.03348 4.00000
27.16370 7.03348 4.00000
27.25233 7.03348 4.00000
27.34098 7.03347 4.00000
27.42962 7.03348 4.00000
27.51827 7.03348 4.00000
27.60694 7.03348 4.00000
27.69561 7.03348 4.00000
27.78429 7.03348 4.00000
27.87299 7.03348 4.00000
27.96169 7.03348 4.00000

