Angle 0.198502 1.193438

4.00000 7.03348 4.00000
4.00000 7.03348 4.00000
4.00000 7.03348 4.00000
4.00000 7.03348 4.00000
4.00000 7.03348 4.00000
4.00000 7.03348 4.00000
4.00000 7.03348 4.00000
4.00000 7.03348 4.00000
4.00000 7.03348 4.00000
4.00000 7.03348 4.00000
4.00000 7.03348 4.00000
4.00000 7.03348 4.00000
4.00000 7.03348 4.00000
4.00000 7.03348 4.00000
4.00000 7.03348 4.00000
4.00000 7.03348 4.00000
4.00000 7.03348 4.00000
4.00000 7.03348 4.00000
4.00000 7.03348 4.00000
4.00000 7.03348 4.00000
4.00000 7.03348 4.00000
4.00000 7.03348 4.00000
4.00000 7.03348 4.00000
4.00000 7.03348 4.00000
4.00000 7.03348 4.00000
4.00000 7.03348 4.00000
4.00000 7.03348 4.00000
4.00000 7.03348 4.00000
4.00000 7.03348 4.00000
4.00000 7.03348 4.00000
4.00000 7.03348 4.00000
4.00000 7.03348 4.00000
4.00000 7.03348 4.00000
4.00000 7.03348 4.00000
4.00000 7.03348 4.00000
4.00000 7.03348 4.00000
4.00000 7.03348 4.00000
4.00000 7.03348 4.00000
4.00000 7.03348 4.00000
4.00000 7.03348 4.00000
4.00000 7.03348 4.00000
4.00000 7.03348 4.00000
4.00000 7.03347 4.00000
4.00000 7.03348 4.00000
4.00000 7.03348 4.00000
4.00000 7.03348 4.00000
4.00000 7.03348 4.00000
4.00000 7.03348 4.00000
4.00000 7.03348 4.00000
4.00000 7.03348 4.00000
4.00000 7.03348 4.00000
4.00000 7.03348 4.00000
4.00000 7.03347 4.00000
4.00000 7.03347 4.00000
4.00000 7.03348 4.00000
4.00000 7.03348 4.00000
4.00000 7.03348 4.00000
4.00000 7.03348 4.00000
4.00000 7.03348 4.00000
4.00000 7.03348 4.00000
4.00000 7.03347 4.00000
4.00000 7.03347 4.00000
4.00000 7.03347 4.00000
4.00000 7.03347 4.00000
4.00000 7.03347 4.00000
4.00000 7.03347 4.00000
4.00000 7.03347 4.00000
4.00000 7.03347 4.00000
4.00000 7.03348 4.00000
4.00000 7.03348 4.00000
4.00000 7.03348 4.00000
4.00000 7.03348 4.00000
4.00000 7.03348 4.00000
4.00000 7.03348 4.00000
4.00000 7.03348 4.00000
4.00000 7.03348 4.00000
4.00000 7.03348 4.00000
4.00000 7.03348 4.00000
4.00000 7.03348 4.00000
4.00000 7.03348 4.00000
4.00000 7.03348 4.00000
4.00000 7.03348 4.00000
4.00000 7.03348 4.00000
4.00000 7.03348 4.00000
4.00000 7.03348 4.00000
4.00000 7.03348 4.00000
4.00000 7.03348 4.00000
4.00000 7.03348 4.00000
4.00000 7.03349 4.00000
4.00000 7.03348 4.00000
4.00000 7.03348 4.00000
4.00000 7.03348 4.00000
4.00000 7.03348 4.00000
4.00000 7.03349 4.00000
4.00000 7.03349 4.00000
4.00000 7.03350 4.00000
4.00000 7.03348 4.00000
4.00000 7.03348 4.00000
4.00000 7.03347 4.00000
4.00000 7.03348 4.00000
4.00000 7.03348 4.00000
4.00000 7.03348 4.00000
4.00000 7.03348 4.00000
4.00152 7.05701 4.00153
4.00644 7.13355 4.00644
4.01128 7.21035 4.01128
4.01607 7.28735 4.01607
4.02083 7.36449 4.02083
4.02558 7.44172 4.02558
4.03032 7.51898 4.03032
4.03509 7.59623 4.03509
4.03990 7.67341 4.03990
4.04478 7.75045 4.04478
4.04974 7.82730 4.04974
4.05482 7.90387 4.05482
4.06004 7.98011 4.06004
4.06544 8.05592 4.06544
4.07105 8.13120 4.07105
4.07691 8.20584 4.07691
4.08308 8.27971 4.08308
4.08962 8.35268 4.08962
4.09659 8.42455 4.09659
4.10407 8.49514 4.10407
4.11216 8.56420 4.11216
4.12097 8.63146 4.12097
4.13061 8.69665 4.13061
4.14101 8.75997 4.14101
4.15220 8.82141 4.15220
4.16420 8.88089 4.16420
4.17706 8.93835 4.17707
4.19082 8.99373 4.19082
4.20549 9.04698 4.20549
4.22110 9.09808 4.22110
4.23767 9.14701 4.23767
4.25523 9.19375 4.25522
4.27378 9.23830 4.27377
4.29333 9.28066 4.29333
4.31390 9.32082 4.31390
4.33551 9.35877 4.33550
4.35816 9.39450 4.35816
4.38188 9.42797 4.38188
4.40672 9.45912 4.40672
4.43271 9.48786 4.43271
4.45992 9.51405 4.45992
4.48842 9.53752 4.48842
4.51833 9.55806 4.51833
4.54978 9.57537 4.54978
4.58291 9.58912 4.58291
4.61791 9.59894 4.61791
4.65495 9.60443 4.65495
4.69412 9.60523 4.69430
7.53425 7.44502 4.02578
7.68468 7.38284 4.02196
7.82090 7.33467 4.01900
7.94763 7.29588 4.01660
8.06754 7.26381 4.01462
8.18235 7.23681 4.01294
8.29310 7.21384 4.01150
8.40069 7.19402 4.01026
8.50565 7.17682 4.00918
8.60846 7.16178 4.00823
8.70947 7.14855 4.00739
8.80894 7.13688 4.00665
8.90711 7.12653 4.00599
9.00415 7.11732 4.00541
9.10022 7.10912 4.00488
9.19544 7.10178 4.00441
9.28992 7.09521 4.00399
9.38376 7.08932 4.00361
9.47703 7.08402 4.00327
9.56979 7.07925 4.00297
9.66212 7.07495 4.00269
9.75406 7.07108 4.00244
9.84565 7.06758 4.00221
9.93694 7.06442 4.00201
10.02795 7.06156 4.00182
10.11873 7.05897 4.00166
10.20929 7.05662 4.00150
10.29966 7.05450 4.00137
10.38987 7.05257 4.00124
10.47992 7.05083 4.00113
10.56985 7.04924 4.00103
10.65966 7.04781 4.00093
10.74937 7.04650 4.00085
10.83898 7.04532 4.00077
10.92852 7.04424 4.00070
11.01799 7.04326 4.00064
11.10739 7.04238 4.00058
11.19675 7.04157 4.00053
11.28606 7.04084 4.00048
11.37533 7.04017 4.00044
11.46457 7.03956 4.00040
11.55377 7.03902 4.00036
11.64296 7.03851 4.00033
11.73213 7.03806 4.00030
11.82128 7.03764 4.00027
11.91042 7.03727 4.00025
11.99955 7.03692 4.00023
12.08867 7.03661 4.00020
12.17779 7.03633 4.00019
12.26691 7.03607 4.00017
12.35603 7.03584 4.00015
12.44514 7.03562 4.00014
12.53427 7.03543 4.00013
12.62339 7.03525 4.00012
12.71252 7.03509 4.00011
12.80166 7.03495 4.00010
12.89081 7.03481 4.00009
12.97996 7.03469 4.00008
13.06913 7.03458 4.00007
13.15830 7.03448 4.00007
13.24749 7.03439 4.00006
13.33668 7.03431 4.00005
13.42589 7.03423 4.00005
13.51511 7.03417 4.00004
13.60434 7.03410 4.00004
13.69358 7.03405 4.00004
13.78284 7.03400 4.00003
13.87211 7.03395 4.00003
13.96139 7.03391 4.00003
14.05068 7.03387 4.00003
14.13999 7.03383 4.00002
14.22931 7.03380 4.00002
14.31864 7.03377 4.00002
14.40798 7.03375 4.00002
14.49734 7.03372 4.00002
14.58671 7.03370 4.00001
14.67609 7.03368 4.00001
14.76549 7.03366 4.00001
14.85489 7.03364 4.00001
14.94431 7.03363 4.00001
15.03375 7.03362 4.00001
15.12319 7.03360 4.00001
15.21265 7.03359 4.00001
15.30212 7.03358 4.00001
15.39160 7.03357 4.00001
15.48109 7.03356 4.00001
15.57059 7.03356 4.00001
15.66011 7.03355 4.00000
15.74963 7.03354 4.00000
15.83917 7.03354 4.00000
15.92872 7.03353 4.00000
16.01828 7.03353 4.00000
16.10785 7.03352 4.00000
16.19743 7.03352 4.00000
16.28702 7.03352 4.00000
16.37662 7.03351 4.00000
16.46624 7.03351 4.00000
16.55586 7.03351 4.00000
16.64549 7.03350 4.00000
16.73513 7.03350 4.00000
16.82478 7.03350 4.00000
16.91444 7.03350 4.00000
17.00411 7.03350 4.00000
17.09379 7.03350 4.00000
17.18348 7.03349 4.00000
17.27317 7.03349 4.00000
17.36288 7.03349 4.00000
17.45259 7.03349 4.00000
17.54232 7.03349 4.00000
17.63205 7.03349 4.00000
17.72179 7.03349 4.00000
17.81154 7.03349 4.00000
17.90129 7.03349 4.00000
17.99106 7.03349 4.00000
18.08083 7.03348 4.00000
18.17061 7.03348 4.00000
18.26039 7.03348 4.00000
18.35019 7.03348 4.00000
18.43999 7.03348 4.00000
18.52980 7.03348 4.00000
18.61962 7.03348 4.00000
18.70944 7.03348 4.00000
18.79928 7.03348 4.00000
18.88911 7.03348 4.00000
18.97896 7.03347 4.00000
19.06881 7.03348 4.00000
19.15867 7.03348 4.00000
19.24854 7.03348 4.00000
19.33841 7.03347 4.00000
19.42829 7.03347 4.00000
19.51817 7.03347 4.00000
19.60806 7.03347 4.00000
19.69796 7.03347 4.00000
19.78787 7.03347 4.00000
19.87778 7.03347 4.00000
19.96769 7.03347 4.00000
20.05761 7.03347 4.00000
20.14754 7.03347 4.00000
20.23747 7.03347 4.00000
20.32740 7.03348 4.00000
20.41735 7.03348 4.00000
20.50730 7.03347 4.00000
20.59725 7.03348 4.00000
20.68721 7.03348 4.00000
20.77717 7.03348 4.00000
20.86714 7.03348 4.00000
20.95712 7.03348 4.00000
21.04710 7.03348 4.00000
21.13708 7.03348 4.00000
21.22707 7.03348 4.00000
21.31707 7.03348 4.00000
21.40706 7.03348 4.00000
21.49706 7.03348 4.00000
21.58707 7.03348 4.00000
21.67709 7.03348 4.00000
21.76710 7.03348 4.00000
21.85713 7.03348 4.00000
21.94715 7.03348 4.00000
22.03719 7.03348 4.00000
22.12722 7.03348 4.00000
22.21727 7.03348 4.00000
22.30731 7.03348 4.00000
22.39736 7.03348 4.00000
22.48742 7.03348 4.00000
22.57747 7.03348 4.00000
22.66754 7.03348 4.00000
22.75760 7.03348 4.00000
22.84767 7.03348 4.00000
22.93775 7.03348 4.00000
23.02782 7.03348 4.00000
23.11790 7.03348 4.00000
23.20799 7.03348 4.00000
23.29808 7.03348 4.00000
23.38817 7.03348 4.00000
23.47827 7.03348 4.00000
23.56836 7.03348 4.00000
23.65847 7.03348 4.00000
23.74857 7.03347 4.00000
23.83868 7.03348 4.00000
23.92879 7.03348 4.00000
24.01890 7.03349 4.00000
24.10903 7.03348 4.00000
24.19915 7.03348 4.00000
24.28928 7.03348 4.00000
24.37942 7.03347 4.00000
24.46954 7.03348 4.00000
24.55968 7.03348 4.00000
24.64984 7.03347 4.00000
24.73997 7.03348 4.00000
24.83012 7.03348 4.00000
24.92027 7.03348 4.00000
25.01042 7.03348 4.00000
25.10057 7.03347 4.00000
25.19073 7.03348 4.00000
25.28089 7.03348 4.00000
25.37105 7.03348 4.00000
25.46123 7.03347 4.00000
25.55139 7.03348 4.00000
25.64157 7.03348 4.00000
25.73174 7.03348 4.00000
25.82192 7.03348 4.00000
25.91211 7.03348 4.00000
26.00229 7.03348 4.00000
26.09248 7.03348 4.00000
26.18267 7.03348 4.00000
26.27286 7.03348 4.00000
26.36305 7.03348 4.00000
26.45325 7.03348 4.00000
26.54344 7.03348 4.00000
26.63365 7.03348 4.00000
26.72384 7.03348 4.00000
26.81405 7.03348 4.00000
26.90426 7.03348 4.00000
26.99446 7.03348 4.00000
27.08466 7.03348 4.00000
27.17487 7.03348 4.00000
27.26508 7.03348 4.00000
27.35530 7.03348 4.00000
27.44551 7.03348 4.00000
27.53573 7.03348 4.00000
27.62595 7.03348 4.00000
27.71617 7.03348 4.00000
27.80639 7.03348 4.00000
27.89662 7.03348 4.00000
27.98685 7.03348 4.00000
28.07708 7.03348 4.00000
28.16731 7.03348 4.00000
28.25755 7.03348 4.00000
28.34778 7.03348 4.00000
28.43802 7.03348 4.00000
28.52826 7.03348 4.00000
28.61851 7.03348 4.00000
28.70875 7.03348 4.00000
28.79900 7.03348 4.00000
28.88925 7.03348 4.00000
28.97951 7.03348 4.00000
29.06976 7.03348 4.00000
29.16002 7.03348 4.00000
29.25028 7.03348 4.00000
29.34055 7.03348 4.00000
29.43081 7.03348 4.00000
29.52108 7.03348 4.00000
29.61134 7.03348 4.00000
29.70161 7.03348 4.00000
29.79189 7.03348 4.00000
29.88216 7.03348 4.00000
29.97243 7.03348 4.00000
30.06271 7.03348 4.00000
30.15299 7.03348 4.00000

Angle 0.517406 1.885391

4.00000 7.03348 4.00000
4.00000 7.03348 4.00000
4.00000 7.03348 4.00000
4.00000 7.03348 4.00000
4.00000 7.03348 4.00000
4.00000 7.03347 4.00000
4.00000 7.03348 4.00000
4.00000 7.03348 4.00000
4.00000 7.03348 4.00000
4.00000 7.03348 4.00000
4.00000 7.03348 4.00000
4.00000 7.03347 4.00000
4.00000 7.03347 4.00000
4.00000 7.03348 4.00000
4.00000 7.03348 4.00000
4.00000 7.03348 4.00000
4.00000 7.03348 4.00000
4.00000 7.03348 4.00000
4.00000 7.03348 4.00000
4.00000 7.03348 4.00000
4.00000 7.03348 4.00000
4.00000 7.03348 4.00000
4.00000 7.03348 4.00000
4.00000 7.03348 4.00000
4.00000 7.03348 4.00000
4.00000 7.03348 4.00000
4.00000 7.03348 4.00000
4.00000 7.03348 4.00000
4.00000 7.03348 4.00000
4.00000 7.03348 4.00000
4.00000 7.03348 4.00000
4.00000 7.03348 4.00000
4.00000 7.03348 4.00000
4.00000 7.03348 4.00000
4.00000 7.03348 4.00000
4.00000 7.03348 4.00000
4.00000 7.03348 4.00000
4.00000 7.03348 4.00000
4.00000 7.03348 4.00000
4.00000 7.03348 4.00000
4.00000 7.03348 4.00000
4.00000 7.03348 4.00000
4.00000 7.03348 4.00000
4.00000 7.03348 4.00000
4.00000 7.03348 4.00000
4.00000 7.03348 4.00000
4.00000 7.03348 4.00000
4.00000 7.03348 4.00000
4.00000 7.03348 4.00000
4.00000 7.03348 4.00000
4.00000 7.03348 4.00000
4.00000 7.03348 4.00000
4.00000 7.03348 4.00000
4.00000 7.03348 4.00000
4.00000 7.03348 4.00000
4.00000 7.03348 4.00000
4.00000 7.03348 4.00000
4.00000 7.03348 4.00000
4.00000 7.03348 4.00000
4.00000 7.03348 4.00000
4.00000 7.03348 4.00000
4.00000 7.03348 4.00000
4.00000 7.03348 4.00000
4.00000 7.03348 4.00000
4.00000 7.03348 4.00000
4.00000 7.03348 4.00000
4.00000 7.03348 4.00000
4.00000 7.03349 4.00000
4.00000 7.03348 4.00000
4.00033 7.03856 4.00033
4.00478 7.10749 4.00478
4.00917 7.17673 4.00917
4.01352 7.24624 4.01352
4.01785 7.31599 4.01784
4.02215 7.38592 4.02215
4.02645 7.45601 4.02645
4.03077 7.52620 4.03077
4.03511 7.59647 4.03511
4.03948 7.66676 4.03948
4.04392 7.73702 4.04392
4.04843 7.80722 4.04843
4.05304 7.87728 4.05304
4.05776 7.94717 4.05776
4.06262 8.01680 4.06262
4.06765 8.08610 4.06765
4.07288 8.15500 4.07288
4.07834 8.22341 4.07834
4.08408 8.29120 4.08408
4.09014 8.35827 4.09014
4.09658 8.42448 4.09658
4.10346 8.48965 4.10346
4.11086 8.55359 4.11086
4.11886 8.61610 4.11886
4.12758 8.67693 4.12758
4.13697 8.73614 4.13697
4.14703 8.79382 4.14703
4.15779 8.84989 4.15779
4.16928 8.90429 4.16928
4.18153 8.95698 4.18153
4.19457 9.00789 4.19457
4.20842 9.05700 4.20842
4.22311 9.10428 4.22310
4.23864 9.14971 4.23864
4.25504 9.19327 4.25504
4.27231 9.23495 4.27231
4.29048 9.27475 4.29048
4.30955 9.31266 4.30955
4.32953 9.34868 4.32953
4.35044 9.38277 4.35044
4.37230 9.41492 4.37230
4.39514 9.44507 4.39514
4.41899 9.47316 4.41899
4.44389 9.49909 4.44389
4.46992 9.52274 4.46992
4.49714 9.54393 4.49714
4.52565 9.56247 4.52565
4.55558 9.57810 4.55558
4.58704 9.59052 4.58704
4.62019 9.59942 4.62020
4.65521 9.60445 4.65520
7.35011 7.53606 4.03137
7.51726 7.45270 4.02625
7.66168 7.39170 4.02251
7.79252 7.34413 4.01958
7.91428 7.30556 4.01720
8.02946 7.27354 4.01522
8.13970 7.24646 4.01354
8.24607 7.22326 4.01209
8.34935 7.20319 4.01083
8.45010 7.18568 4.00974
8.54876 7.17030 4.00877
8.64567 7.15673 4.00791
8.74111 7.14468 4.00715
8.83524 7.13400 4.00647
8.92833 7.12441 4.00586
9.02043 7.11587 4.00531
9.11173 7.10819 4.00482
9.20232 7.10128 4.00438
9.29230 7.09506 4.00398
9.38173 7.08944 4.00362
9.47068 7.08436 4.00330
9.55921 7.07977 4.00300
9.64738 7.07561 4.00273
9.73522 7.07184 4.00249
9.82276 7.06843 4.00227
9.91007 7.06531 4.00207
9.99715 7.06249 4.00188
10.08404 7.05992 4.00172
10.17077 7.05758 4.00157
10.25732 7.05548 4.00143
10.34378 7.05353 4.00130
10.43011 7.05177 4.00119
10.51637 7.05014 4.00108
10.60249 7.04870 4.00099
10.68857 7.04737 4.00090
10.77460 7.04616 4.00083
10.86057 7.04505 4.00076
10.94650 7.04404 4.00069
11.03240 7.04312 4.00063
11.11827 7.04227 4.00058
11.20414 7.04150 4.00052
11.28999 7.04081 4.00048
11.37582 7.04017 4.00044
11.46167 7.03958 4.00040
11.54750 7.03905 4.00036
11.63335 7.03857 4.00033
11.71920 7.03812 4.00030
11.80507 7.03772 4.00027
11.89095 7.03735 4.00025
11.97685 7.03701 4.00023
12.06276 7.03670 4.00021
12.14871 7.03642 4.00019
12.23467 7.03616 4.00018
12.32065 7.03593 4.00016
12.40667 7.03571 4.00015
12.49271 7.03552 4.00013
12.57877 7.03534 4.00012
12.66487 7.03518 4.00011
12.75100 7.03503 4.00010
12.83715 7.03489 4.00009
12.92334 7.03477 4.00009
13.00956 7.03466 4.00008
13.09581 7.03455 4.00007
13.18210 7.03446 4.00007
13.26841 7.03437 4.00006
13.35476 7.03429 4.00005
13.44112 7.03422 4.00005
13.52753 7.03416 4.00004
13.61398 7.03410 4.00004
13.70045 7.03404 4.00004
13.78696 7.03399 4.00003
13.87350 7.03395 4.00003
13.96008 7.03391 4.00003
14.04668 7.03387 4.00003
14.13332 7.03384 4.00002
14.22000 7.03380 4.00002
14.30670 7.03378 4.00002
14.39344 7.03375 4.00002
14.48020 7.03373 4.00002
14.56700 7.03370 4.00002
14.65384 7.03368 4.00001
14.74070 7.03367 4.00001
14.82759 7.03365 4.00001
14.91451 7.03363 4.00001
15.00147 7.03362 4.00001
15.08845 7.03361 4.00001
15.17547 7.03360 4.00001
15.26251 7.03359 4.00001
15.34958 7.03358 4.00001
15.43668 7.03357 4.00001
15.52381 7.03356 4.00001
15.61097 7.03355 4.00001
15.69816 7.03355 4.00001
15.78537 7.03354 4.00000
15.87261 7.03354 4.00000
15.95988 7.03353 4.00000
16.04718 7.03353 4.00000
16.13450 7.03352 4.00000
16.22185 7.03352 4.00000
16.30923 7.03351 4.00000
16.39663 7.03351 4.00000
16.48406 7.03351 4.00000
16.57151 7.03351 4.00000
16.65899 7.03350 4.00000
16.74646 7.03350 4.00000
16.83395 7.03350 4.00000
16.92147 7.03350 4.00000
17.00901 7.03350 4.00000
17.09657 7.03349 4.00000
17.18415 7.03349 4.00000
17.27176 7.03349 4.00000
17.35939 7.03349 4.00000
17.44704 7.03349 4.00000
17.53472 7.03349 4.00000
17.62241 7.03349 4.00000
17.71014 7.03348 4.00000
17.79787 7.03349 4.00000
17.88564 7.03348 4.00000
17.97341 7.03349 4.00000
18.06123 7.03348 4.00000
18.14905 7.03348 4.00000
18.23690 7.03348 4.00000
18.32476 7.03348 4.00000
18.41265 7.03348 4.00000
18.50055 7.03348 4.00000
18.58847 7.03348 4.00000
18.67642 7.03348 4.00000
18.76438 7.03348 4.00000
18.85236 7.03348 4.00000
18.94035 7.03348 4.00000
19.02837 7.03347 4.00000
19.11640 7.03347 4.00000
19.20446 7.03347 4.00000
19.29251 7.03348 4.00000
19.38060 7.03348 4.00000
19.46870 7.03348 4.00000
19.55682 7.03348 4.00000
19.64495 7.03348 4.00000
19.73311 7.03348 4.00000
19.82128 7.03348 4.00000
19.90946 7.03348 4.00000
19.99767 7.03348 4.00000
20.08589 7.03348 4.00000
20.17412 7.03348 4.00000
20.26236 7.03348 4.00000
20.35061 7.03348 4.00000
20.43888 7.03348 4.00000
20.52717 7.03348 4.00000
20.61547 7.03348 4.00000
20.70378 7.03348 4.00000
20.79211 7.03348 4.00000
20.88045 7.03348 4.00000
20.96881 7.03348 4.00000
21.05720 7.03348 4.00000
21.14559 7.03348 4.00000
21.23401 7.03348 4.00000
21.32243 7.03348 4.00000
21.41087 7.03348 4.00000
21.49933 7.03348 4.00000
21.58779 7.03348 4.00000
21.67627 7.03348 4.00000
21.76477 7.03348 4.00000
21.85328 7.03348 4.00000
21.94179 7.03348 4.00000
22.03033 7.03348 4.00000
22.11887 7.03348 4.00000
22.20743 7.03348 4.00000
22.29600 7.03348 4.00000
22.38458 7.03348 4.00000
22.47317 7.03348 4.00000
22.56178 7.03348 4.00000
22.65040 7.03348 4.00000
22.73903 7.03348 4.00000
22.82767 7.03348 4.00000
22.91632 7.03347 4.00000
23.00496 7.03348 4.00000
23.09364 7.03348 4.00000
23.18231 7.03348 4.00000
23.27102 7.03348 4.00000
23.35973 7.03347 4.00000
23.44844 7.03348 4.00000
23.53717 7.03348 4.00000
23.62591 7.03348 4.00000
23.71467 7.03348 4.00000
23.80343 7.03347 4.00000
23.89220 7.03348 4.00000
23.98098 7.03348 4.00000
24.06977 7.03347 4.00000
24.15857 7.03348 4.00000
24.24739 7.03348 4.00000
24.33621 7.03348 4.00000
24.42505 7.03348 4.00000
24.51389 7.03348 4.00000
24.60275 7.03348 4.00000
24.69162 7.03348 4.00000
24.78049 7.03348 4.00000
24.86938 7.03348 4.00000
24.95827 7.03348 4.00000
25.04718 7.03348 4.00000
25.13609 7.03348 4.00000
25.22501 7.03348 4.00000
25.31394 7.03348 4.00000
25.40288 7.03348 4.00000
25.49182 7.03348 4.00000
25.58078 7.03348 4.00000
25.66974 7.03348 4.00000
25.75872 7.03348 4.00000
25.84769 7.03348 4.00000
25.93669 7.03348 4.00000
26.02568 7.03348 4.00000
26.11467 7.03348 4.00000
26.20369 7.03348 4.00000
26.29270 7.03347 4.00000
26.38172 7.03348 4.00000
26.47075 7.03348 4.00000
26.55977 7.03348 4.00000
26.64881 7.03348 4.00000
26.73786 7.03348 4.00000
26.82691 7.03348 4.00000
26.91597 7.03348 4.00000
27.00504 7.03348 4.00000
27.09411 7.03348 4.00000
27.18319 7.03348 4.00000
27.27228 7.03348 4.00000
27.36138 7.03348 4.00000
27.45048 7.03348 4.00000
27.53959 7.03348 4.00000
27.62871 7.03348 4.00000
27.71783 7.03348 4.00000
27.80696 7.03348 4.00000
27.89610 7.03348 4.00000
27.98524 7.03348 4.00000
28.07440 7.03348 4.00000
28.16356 7.03348 4.00000
28.25272 7.03348 4.00000
28.34190 7.03348 4.00000
28.43107 7.03348 4.00000
28.52026 7.03348 4.00000
28.60945 7.03348 4.00000
28.69865 7.03348 4.00000
28.78785 7.03348 4.00000
28.87706 7.03348 4.00000
28.96628 7.03348 4.00000
29.05550 7.03348 4.00000
29.14473 7.03348 4.00000
29.23396 7.03348 4.00000
29.32320 7.03348 4.00000
29.41245 7.03348 4.00000
29.50170 7.03348 4.00000
29.59096 7.03348 4.00000
29.68022 7.03348 4.00000
29.76949 7.03348 4.00000
29.85876 7.03348 4.00000
29.94804 7.03348 4.00000
30.03733 7.03348 4.00000
30.12662 7.03348 4.00000
30.21592 7.03348 4.00000
30.30522 7.03348 4.00000
30.39453 7.03348 4.00000
30.48384 7.03348 4.00000
30.57316 7.03348 4.00000
30.66249 7.03348 4.00000
30.75182 7.03348 4.00000
30.84115 7.03348 4.00000
30.93050 7.03348 4.00000
31.01985 7.03348 4.00000
31.10920 7.03348 4.00000
31.19856 7.03349 4.00000
31.28794 7.03348 4.00000
31.37731 7.03349 4.00000
31.46669 7.03349 4.00000
31.55609 7.03348 4.00000
31.64547 7.03349 4.00000
31.73486 7.03349 4.00000
31.82428 7.03348 4.00000
31.91368 7.03348 4.00000
32.00308 7.03349 4.00000
32.09251 7.03348 4.00000
32.18193 7.03348 4.00000
32.27136 7.03348 4.00000

Angle 0.179152 4.120527

4.00000 7.03348 4.00000
4.00000 7.03349 4.00000
4.00000 7.03349 4.00000
4.00000 7.03349 4.00000
4.00000 7.03348 4.00000
4.00000 7.03348 4.00000
4.00000 7.03348 4.00000
4.00000 7.03348 4.00000
4.00000 7.03348 4.00000
4.00000 7.03348 4.00000
4.00000 7.03349 4.00000
4.00000 7.03349 4.00000
4.00000 7.03350 4.00000
4.00000 7.03350 4.00000
4.00000 7.03350 4.00000
4.00000 7.03350 4.00000
4.00000 7.03350 4.00000
4.00000 7.03348 4.00000
4.00000 7.03348 4.00000
4.00000 7.03348 4.00000
4.00000 7.03348 4.00000
4.00000 7.03348 4.00000
4.00000 7.03349 4.00000
4.00000 7.03348 4.00000
4.00000 7.03348 4.00000
4.00000 7.03348 4.00000
4.00000 7.03348 4.00000
4.00000 7.03348 4.00000
4.00000 7.03348 4.00000
4.00000 7.03348 4.00000
4.00000 7.03348 4.00000
4.00000 7.03348 4.00000
4.00000 7.03348 4.00000
4.00000 7.03348 4.00000
4.00000 7.03348 4.00000
4.00000 7.03348 4.00000
4.00000 7.03348 4.00000
4.00000 7.03348 4.00000
4.00000 7.03348 4.00000
4.00000 7.03348 4.00000
4.00000 7.03348 4.00000
4.00000 7.03348 4.00000
4.00000 7.03348 4.00000
4.00000 7.03348 4.00000
4.00000 7.03348 4.00000
4.00000 7.03348 4.00000
4.00000 7.03348 4.00000
4.00000 7.03348 4.00000
4.00000 7.03348 4.00000
4.00000 7.03348 4.00000
4.00000 7.03348 4.00000
4.00000 7.03348 4.00000
4.00000 7.03348 4.00000
4.00000 7.03348 4.00000
4.00000 7.03348 4.00000
4.00000 7.03348 4.00000
4.00000 7.03348 4.00000
4.00000 7.03348 4.00000
4.00000 7.03348 4.00000
4.00000 7.03348 4.00000
4.00000 7.03348 4.00000
4.00000 7.03348 4.00000
4.00000 7.03348 4.00000
4.00000 7.03348 4.00000
4.00000 7.03348 4.00000
4.00000 7.03348 4.00000
4.00000 7.03348 4.00000
4.00000 7.03348 4.00000
4.00000 7.03348 4.00000
4.00000 7.03348 4.00000
4.00000 7.03348 4.00000
4.00000 7.03348 4.00000
4.00000 7.03348 4.00000
4.00000 7.03348 4.00000
4.00000 7.03348 4.00000
4.00000 7.03348 4.00000
4.00000 7.03348 4.00000
4.00000 7.03348 4.00000
4.00000 7.03348 4.00000
4.00000 7.03348 4.00000
4.00000 7.03348 4.00000
4.00000 7.03348 4.00000
4.00000 7.03348 4.00000
4.00000 7.03348 4.00000
4.00000 7.03349 4.00000
4.00000 7.03349 4.00000
4.00000 7.03349 4.00000
4.00000 7.03348 4.00000
4.00000 7.03348 4.00000
4.00000 7.03348 4.00000
4.00000 7.03348 4.00000
4.00000 7.03348 4.00000
4.00000 7.03348 4.00000
4.00000 7.03348 4.00000
4.00000 7.03348 4.00000
4.00000 7.03348 4.00000
4.00000 7.03348 4.00000
4.00000 7.03348 4.00000
4.00000 7.03348 4.00000
4.00000 7.03348 4.00000
4.00000 7.03348 4.00000
4.00000 7.03348 4.00000
4.00000 7.03348 4.00000
4.00000 7.03348 4.00000
4.00000 7.03348 4.00000
4.00000 7.03348 4.00000
4.00000 7.03348 4.00000
4.00000 7.03348 4.00000
4.00000 7.03348 4.00000
4.00000 7.03348 4.00000
4.00000 7.03348 4.00000
4.00000 7.03348 4.00000
4.00000 7.03348 4.00000
4.00000 7.03348 4.00000
4.00000 7.03348 4.00000
4.00000 7.03348 4.00000
4.00000 7.03348 4.00000
4.00000 7.03348 4.00000
4.00000 7.03348 4.00000
4.00000 7.03348 4.00000
4.00000 7.03348 4.00000
4.00000 7.03348 4.00000
4.00000 7.03348 4.00000
4.00000 7.03348 4.00000
4.00000 7.03348 4.00000
4.00000 7.03348 4.00000
4.00000 7.03348 4.00000
4.00000 7.03348 4.00000
4.00000 7.03349 4.00000
4.00000 7.03349 4.00000
4.00000 7.03348 4.00000
4.00000 7.03348 4.00000
4.00000 7.03348 4.00000
4.00000 7.03348 4.00000
4.00000 7.03348 4.00000
4.00000 7.03348 4.00000
4.00000 7.03348 4.00000
4.00000 7.03348 4.00000
4.00000 7.03348 4.00000
4.00000 7.03348 4.00000
4.00000 7.03348 4.00000
4.00000 7.03348 4.00000
4.00000 7.03348 4.00000
4.00000 7.03348 4.00000
4.00000 7.03348 4.00000
4.00000 7.03346 4.00000
4.00000 7.03348 4.00000
4.00454 7.10377 4.00454
4.00907 7.17517 4.00907
4.01356 7.24683 4.01356
4.01801 7.31871 4.01801
4.02245 7.39076 4.02245
4.02688 7.46293 4.02688
4.03132 7.53518 4.03132
4.03579 7.60748 4.03579
4.04030 7.67976 4.04030
4.04488 7.75198 4.04488
4.04953 7.82409 4.04953
4.05429 7.89602 4.05429
4.05918 7.96771 4.05918
4.06422 8.03909 4.06422
4.06944 8.11008 4.06944
4.07489 8.18058 4.07489
4.08059 8.25049 4.08059
4.08661 8.31970 4.08661
4.09298 8.38806 4.09298
4.09977 8.45541 4.09977
4.10707 8.52157 4.10707
4.11494 8.58632 4.11494
4.12351 8.64941 4.12351
4.13283 8.71069 4.13282
4.14282 8.77036 4.14282
4.15354 8.82836 4.15354
4.16500 8.88463 4.16500
4.17724 8.93910 4.17724
4.19030 8.99173 4.19030
4.20418 9.04247 4.20418
4.21893 9.09130 4.21893
4.23456 9.13819 4.23456
4.25107 9.18312 4.25107
4.26850 9.22609 4.26850
4.28685 9.26710 4.28685
4.30613 9.30613 4.30613
4.32635 9.34318 4.32635
4.34752 9.37822 4.34753
4.36969 9.41124 4.36969
4.39285 9.44219 4.39285
4.41705 9.47100 4.41706
4.44235 9.49758 4.44235
4.46879 9.52178 4.46879
4.49647 9.54345 4.49647
4.52548 9.56237 4.52548
4.55594 9.57826 4.55594
4.58799 9.59084 4.58799
4.62180 9.59974 4.62179
4.65752 9.60463 4.65752
4.69527 9.60517 4.69534
4.02583 7.44594 7.53220
4.02214 7.38568 7.67726
4.01924 7.33862 7.80895
4.01689 7.30048 7.93163
4.01493 7.26880 8.04782
4.01326 7.24203 8.15908
4.01183 7.21912 8.26648
4.01059 7.19930 8.37082
4.00950 7.18202 8.47264
4.00855 7.16687 8.57237
4.00771 7.15350 8.67035
4.00695 7.14166 8.76684
4.00629 7.13114 8.86207
4.00569 7.12175 8.95621
4.00515 7.11335 9.04940
4.00467 7.10582 9.14178
4.00424 7.09905 9.23346
4.00385 7.09297 9.32450
4.00350 7.08748 9.41499
4.00318 7.08252 9.50502
4.00289 7.07805 9.59461
4.00263 7.07400 9.68383
4.00239 7.07033 9.77273
4.00218 7.06701 9.86133
4.00198 7.06400 9.94968
4.00181 7.06126 10.03781
4.00164 7.05878 10.12574
4.00150 7.05652 10.21350
4.00136 7.05445 10.30112
4.00124 7.05260 10.38857
4.00113 7.05090 10.47593
4.00103 7.04936 10.56318
4.00094 7.04795 10.65035
4.00086 7.04667 10.73744
4.00078 7.04549 10.82448
4.00071 7.04442 10.91147
4.00065 7.04347 10.99838
4.00059 7.04258 11.08528
4.00054 7.04177 11.17214
4.00049 7.04104 11.25899
4.00045 7.04038 11.34579
4.00041 7.03978 11.43260
4.00037 7.03922 11.51940
4.00034 7.03870 11.60621
4.00031 7.03824 11.69300
4.00028 7.03782 11.77980
4.00026 7.03744 11.86660
4.00023 7.03709 11.95342
4.00021 7.03677 12.04025
4.00020 7.03649 12.12708
4.00018 7.03621 12.21395
4.00016 7.03598 12.30081
4.00015 7.03576 12.38770
4.00014 7.03556 12.47460
4.00012 7.03537 12.56153
4.00011 7.03521 12.64848
4.00010 7.03505 12.73546
4.00009 7.03491 12.82246
4.00009 7.03479 12.90948
4.00008 7.03467 12.99653
4.00007 7.03457 13.08361
4.00007 7.03447 13.17070
4.00006 7.03438 13.25783
4.00006 7.03430 13.34500
4.00005 7.03423 13.43216
4.00005 7.03416 13.51937
4.00004 7.03410 13.60661
4.00004 7.03405 13.69386
4.00003 7.03400 13.78115
4.00003 7.03395 13.86847
4.00003 7.03391 13.95582
4.00003 7.03387 14.04316
4.00002 7.03384 14.13055
4.00002 7.03380 14.21798
4.00002 7.03378 14.30544
4.00002 7.03375 14.39293
4.00002 7.03373 14.48044
4.00001 7.03370 14.56791
4.00001 7.03368 14.65546
4.00001 7.03367 14.74304
4.00001 7.03365 14.83064
4.00001 7.03363 14.91828
4.00001 7.03362 15.00594
4.00001 7.03361 15.09363
4.00001 7.03360 15.18135
4.00001 7.03359 15.26909
4.00001 7.03358 15.35686
4.00001 7.03357 15.44465
4.00001 7.03356 15.53247
4.00001 7.03355 15.62030
4.00001 7.03355 15.70817
4.00000 7.03354 15.79605
4.00000 7.03353 15.88396
4.00000 7.03353 15.97189
4.00000 7.03353 16.05984
4.00000 7.03352 16.14781
4.00000 7.03352 16.23581
4.00000 7.03351 16.32382
4.00000 7.03351 16.41185
4.00000 7.03351 16.49991
4.00000 7.03351 16.58798
4.00000 7.03350 16.67608
4.00000 7.03350 16.76419
4.00000 7.03350 16.85232
4.00000 7.03350 16.94047
4.00000 7.03350 17.02864
4.00000 7.03349 17.11683
4.00000 7.03349 17.20503
4.00000 7.03349 17.29325
4.00000 7.03349 17.38149
4.00000 7.03349 17.46975
4.00000 7.03349 17.55807
4.00000 7.03349 17.64642
4.00000 7.03349 17.73478
4.00000 7.03349 17.82317
4.00000 7.03349 17.91157
4.00000 7.03349 17.99998
4.00000 7.03348 18.08842
4.00000 7.03348 18.17687
4.00000 7.03348 18.26533
4.00000 7.03348 18.35382
4.00000 7.03348 18.44232
4.00000 7.03348 18.53083
4.00000 7.03348 18.61936
4.00000 7.03348 18.70790
4.00000 7.03348 18.79646
4.00000 7.03348 18.88501
4.00000 7.03348 18.97359
4.00000 7.03348 19.06218
4.00000 7.03348 19.15078
4.00000 7.03348 19.23939
4.00000 7.03348 19.32801
4.00000 7.03348 19.41664
4.00000 7.03348 19.50528
4.00000 7.03348 19.59393
4.00000 7.03347 19.68260
4.00000 7.03347 19.77127
4.00000 7.03347 19.85996
4.00000 7.03347 19.94866
4.00000 7.03347 20.03737
4.00000 7.03347 20.12609
4.00000 7.03347 20.21483
4.00000 7.03347 20.30357
4.00000 7.03347 20.39233
4.00000 7.03347 20.48109
4.00000 7.03348 20.56986
4.00000 7.03348 20.65865
4.00000 7.03348 20.74746
4.00000 7.03348 20.83627
4.00000 7.03348 20.92510
4.00000 7.03348 21.01393
4.00000 7.03348 21.10276
4.00000 7.03348 21.19161
4.00000 7.03348 21.28046
4.00000 7.03348 21.36933
4.00000 7.03348 21.45824
4.00000 7.03348 21.54715
4.00000 7.03348 21.63608
4.00000 7.03348 21.72502
4.00000 7.03348 21.81397
4.00000 7.03348 21.90293
4.00000 7.03348 21.99190
4.00000 7.03348 22.08088
4.00000 7.03348 22.16986
4.00000 7.03348 22.25886
4.00000 7.03348 22.34783
4.00000 7.03348 22.43681
4.00000 7.03348 22.52579
4.00000 7.03348 22.61479
4.00000 7.03348 22.70379
4.00000 7.03348 22.79281
4.00000 7.03348 22.88183
4.00000 7.03348 22.97086
4.00000 7.03348 23.05990
4.00000 7.03348 23.14896
4.00000 7.03348 23.23802
4.00000 7.03348 23.32708
4.00000 7.03348 23.41616
4.00000 7.03348 23.50525
4.00000 7.03348 23.59435
4.00000 7.03348 23.68345
4.00000 7.03348 23.77257
4.00000 7.03348 23.86169
4.00000 7.03348 23.95083
4.00000 7.03347 24.03999
4.00000 7.03348 24.12916
4.00000 7.03347 24.21835
4.00000 7.03348 24.30749
4.00000 7.03348 24.39666
4.00000 7.03348 24.48584
4.00000 7.03350 24.57502
4.00000 7.03348 24.66425
4.00000 7.03349 24.75345
4.00000 7.03348 24.84267
4.00000 7.03348 24.93188
4.00000 7.03348 25.02111
4.00000 7.03348 25.11033
4.00000 7.03347 25.19957
4.00000 7.03348 25.28880
4.00000 7.03348 25.37806
4.00000 7.03348 25.46731
4.00000 7.03348 25.55657
4.00000 7.03348 25.64584

Angle 0.018430 1.482040

4.00000 7.03348 4.00000
4.00000 7.03348 4.00000
4.00000 7.03348 4.00000
4.00000 7.03348 4.00000
4.00000 7.03348 4.00000
4.00000 7.03348 4.00000
4.00000 7.03348 4.00000
4.00000 7.03348 4.00000
4.00000 7.03347 4.00000
4.00000 7.03348 4.00000
4.00000 7.03348 4.00000
4.00000 7.03348 4.00000
4.00000 7.03348 4.00000
4.00000 7.03345 4.00000
4.00000 7.03348 4.00000
4.00000 7.03348 4.00000
4.00000 7.03348 4.00000
4.00000 7.03348 4.00000
4.00000 7.03349 4.00000
4.00000 7.03348 4.00000
4.00000 7.03348 4.00000
4.00000 7.03348 4.00000
4.00000 7.03348 4.00000
4.00000 7.03347 4.00000
4.00000 7.03348 4.00000
4.00000 7.03348 4.00000
4.00000 7.03349 4.00000
4.00000 7.03349 4.00000
4.00000 7.03348 4.00000
4.00000 7.03348 4.00000
4.00000 7.03348 4.00000
4.00000 7.03348 4.00000
4.00000 7.03348 4.00000
4.00000 7.03348 4.00000
4.00000 7.03348 4.00000
4.00000 7.03348 4.00000
4.00000 7.03348 4.00000
4.00000 7.03348 4.00000
4.00000 7.03348 4.00000
4.00000 7.03348 4.00000
4.00000 7.03348 4.00000
4.00000 7.03348 4.00000
4.00000 7.03348 4.00000
4.00000 7.03348 4.00000
4.00000 7.03348 4.00000
4.00000 7.03348 4.00000
4.00000 7.03348 4.00000
4.00000 7.03351 4.00000
4.00000 7.03348 4.00000
4.00000 7.03348 4.00000
4.00000 7.03348 4.00000
4.00000 7.03348 4.00000
4.00000 7.03348 4.00000
4.00000 7.03348 4.00000
4.00000 7.03348 4.00000
4.00000 7.03348 4.00000
4.00000 7.03348 4.00000
4.00000 7.03348 4.00000
4.00000 7.03348 4.00000
4.00000 7.03348 4.00000
4.00000 7.03348 4.00000
4.00000 7.03348 4.00000
4.00000 7.03348 4.00000
4.00000 7.03350 4.00000
4.00000 7.03348 4.00000
4.00017 7.03613 4.00017
4.00383 7.09260 4.00382
4.00745 7.14945 4.00745
4.01105 7.20665 4.01105
4.01464 7.26419 4.01464
4.01822 7.32205 4.01822
4.02180 7.38018 4.02180
4.02538 7.43859 4.02538
4.02898 7.49722 4.02898
4.03261 7.55607 4.03261
4.03626 7.61510 4.03626
4.03996 7.67428 4.03996
4.04370 7.73358 4.04370
4.04751 7.79298 4.04751
4.05139 7.85242 4.05139
4.05536 7.91189 4.05536
4.05943 7.97132 4.05943
4.06361 8.03069 4.06362
4.06794 8.08994 4.06794
4.07242 8.14900 4.07242
4.07707 8.20783 4.07707
4.08194 8.26635 4.08194
4.08704 8.32448 4.08704
4.09240 8.38212 4.09240
4.09808 8.43919 4.09808
4.10412 8.49556 4.10412
4.11056 8.55109 4.11056
4.11746 8.60564 4.11746
4.12491 8.65904 4.12491
4.13291 8.71124 4.13291
4.14143 8.76236 4.14143
4.15048 8.81237 4.15048
4.16009 8.86121 4.16009
4.17029 8.90883 4.17029
4.18110 8.95519 4.18110
4.19253 9.00024 4.19253
4.20461 9.04396 4.20461
4.21736 9.08632 4.21736
4.23079 9.12730 4.23079
4.24491 9.16687 4.24491
4.25974 9.20502 4.25974
4.27529 9.24174 4.27529
4.29156 9.27701 4.29156
4.30858 9.31083 4.30858
4.32635 9.34318 4.32635
4.34488 9.37404 4.34488
4.36419 9.40338 4.36419
4.38431 9.43118 4.38430
4.40524 9.45737 4.40524
4.42704 9.48191 4.42704
4.44973 9.50469 4.44973
4.47337 9.52562 4.47337
4.49802 9.54456 4.49802
4.52376 9.56135 4.52376
4.55066 9.57579 4.55066
4.57885 9.58767 4.57885
4.60842 9.59674 4.60842
4.63951 9.60272 4.63948
4.67220 9.60538 4.67220
7.41650 7.50119 4.02923
7.56026 7.43353 4.02507
7.68827 7.38148 4.02188
7.80610 7.33957 4.01930
7.91678 7.30482 4.01716
8.02214 7.27545 4.01534
8.12337 7.25027 4.01377
8.22136 7.22841 4.01241
8.31674 7.20926 4.01121
8.40992 7.19241 4.01016
8.50125 7.17750 4.00922
8.59108 7.16421 4.00838
8.67962 7.15231 4.00763
8.76704 7.14164 4.00695
8.85352 7.13203 4.00635
8.93915 7.12338 4.00579
9.02407 7.11555 4.00529
9.10837 7.10846 4.00484
9.19213 7.10202 4.00443
9.27542 7.09617 4.00405
9.35828 7.09086 4.00371
9.44079 7.08602 4.00340
9.52300 7.08159 4.00312
9.60490 7.07757 4.00286
9.68659 7.07388 4.00262
9.76809 7.07050 4.00240
9.84936 7.06744 4.00220
9.93053 7.06461 4.00202
10.01152 7.06205 4.00186
10.09246 7.05966 4.00170
10.17325 7.05753 4.00156
10.25399 7.05555 4.00144
10.33468 7.05372 4.00132
10.41531 7.05206 4.00121
10.49591 7.05053 4.00111
10.57647 7.04914 4.00102
10.65706 7.04783 4.00093
10.73762 7.04663 4.00087
10.81815 7.04558 4.00079
10.89871 7.04459 4.00072
10.97929 7.04368 4.00066
11.05989 7.04284 4.00061
11.14051 7.04207 4.00056
11.22120 7.04133 4.00051
11.30185 7.04072 4.00047
11.38258 7.04012 4.00043
11.46335 7.03957 4.00040
11.54419 7.03905 4.00036
11.62503 7.03861 4.00034
11.70594 7.03819 4.00031
11.78690 7.03780 4.00028
11.86792 7.03744 4.00026
11.94899 7.03712 4.00024
12.03012 7.03681 4.00022
12.11131 7.03654 4.00020
12.19255 7.03629 4.00018
12.27386 7.03605 4.00017
12.35522 7.03584 4.00015
12.43665 7.03564 4.00014
12.51814 7.03546 4.00013
12.59969 7.03530 4.00012
12.68130 7.03515 4.00011
12.76298 7.03501 4.00010
12.84472 7.03488 4.00009
12.92652 7.03476 4.00008
13.00838 7.03466 4.00008
13.09031 7.03456 4.00007
13.17230 7.03447 4.00006
13.25435 7.03439 4.00006
13.33646 7.03431 4.00005
13.41864 7.03424 4.00005
13.50088 7.03418 4.00005
13.58318 7.03412 4.00004
13.66554 7.03406 4.00004
13.74797 7.03402 4.00004
13.83045 7.03397 4.00003
13.91299 7.03393 4.00003
13.99560 7.03389 4.00003
14.07826 7.03386 4.00002
14.16099 7.03382 4.00002
14.24377 7.03380 4.00002
14.32661 7.03377 4.00002
14.40948 7.03377 4.00002
14.49246 7.03372 4.00002
14.57547 7.03370 4.00001
14.65854 7.03368 4.00001
14.74167 7.03367 4.00001
14.82485 7.03365 4.00001
14.90809 7.03364 4.00001
14.99138 7.03362 4.00001
15.07472 7.03361 4.00001
15.15812 7.03360 4.00001
15.24158 7.03359 4.00001
15.32508 7.03358 4.00001
15.40864 7.03357 4.00001
15.49225 7.03356 4.00001
15.57592 7.03356 4.00000
15.65963 7.03355 4.00001
15.74340 7.03354 4.00000
15.82722 7.03354 4.00000
15.91108 7.03353 4.00000
15.99500 7.03353 4.00000
16.07896 7.03352 4.00000
16.16298 7.03352 4.00000
16.24704 7.03352 4.00000
16.33115 7.03351 4.00000
16.41530 7.03351 4.00000
16.49951 7.03351 4.00000
16.58376 7.03351 4.00000
16.66805 7.03350 4.00000
16.75234 7.03349 4.00000
16.83667 7.03350 4.00000
16.92104 7.03350 4.00000
17.00546 7.03349 4.00000
17.08992 7.03349 4.00000
17.17443 7.03349 4.00000
17.25897 7.03349 4.00000
17.34356 7.03348 4.00000
17.42819 7.03348 4.00000
17.51285 7.03349 4.00000
17.59755 7.03349 4.00000
17.68230 7.03349 4.00000
17.76709 7.03349 4.00000
17.85192 7.03349 4.00000
17.93678 7.03349 4.00000
18.02169 7.03349 4.00000
18.10663 7.03348 4.00000
18.19161 7.03348 4.00000
18.27663 7.03348 4.00000
18.36169 7.03348 4.00000
18.44678 7.03348 4.00000
18.53191 7.03348 4.00000
18.61707 7.03348 4.00000
18.70227 7.03348 4.00000
18.78751 7.03348 4.00000
18.87277 7.03348 4.00000
18.95807 7.03348 4.00000
19.04340 7.03348 4.00000
19.12877 7.03348 4.00000
19.21416 7.03348 4.00000
19.29960 7.03348 4.00000
19.38507 7.03348 4.00000
19.47057 7.03348 4.00000
19.55610 7.03348 4.00000
19.64167 7.03348 4.00000
19.72727 7.03348 4.00000
19.81290 7.03348 4.00000
19.89857 7.03348 4.00000
19.98426 7.03348 4.00000
20.06998 7.03348 4.00000
20.15574 7.03348 4.00000
20.24152 7.03348 4.00000
20.32734 7.03348 4.00000
20.41318 7.03348 4.00000
20.49905 7.03348 4.00000
20.58496 7.03348 4.00000
20.67089 7.03348 4.00000
20.75685 7.03348 4.00000
20.84283 7.03348 4.00000
20.92885 7.03348 4.00000
21.01489 7.03348 4.00000
21.10096 7.03348 4.00000
21.18706 7.03348 4.00000
21.27318 7.03348 4.00000
21.35933 7.03348 4.00000
21.44551 7.03348 4.00000
21.53172 7.03348 4.00000
21.61795 7.03347 4.00000
21.70419 7.03348 4.00000
21.79048 7.03348 4.00000
21.87678 7.03348 4.00000
21.96311 7.03348 4.00000
22.04946 7.03348 4.00000
22.13584 7.03348 4.00000
22.22225 7.03348 4.00000
22.30867 7.03348 4.00000
22.39511 7.03349 4.00000
22.48160 7.03348 4.00000
22.56810 7.03348 4.00000
22.65462 7.03348 4.00000
22.74118 7.03347 4.00000
22.82774 7.03348 4.00000
22.91433 7.03348 4.00000
23.00094 7.03348 4.00000
23.08759 7.03347 4.00000
23.17424 7.03348 4.00000
23.26093 7.03348 4.00000
23.34763 7.03348 4.00000
23.43436 7.03348 4.00000
23.52110 7.03348 4.00000
23.60788 7.03347 4.00000
23.69466 7.03348 4.00000
23.78147 7.03348 4.00000
23.86830 7.03348 4.00000
23.95515 7.03348 4.00000
24.04202 7.03348 4.00000
24.12892 7.03348 4.00000
24.21582 7.03348 4.00000
24.30276 7.03348 4.00000
24.38970 7.03348 4.00000
24.47667 7.03348 4.00000
24.56366 7.03348 4.00000
24.65067 7.03348 4.00000
24.73769 7.03348 4.00000
24.82472 7.03348 4.00000
24.91177 7.03348 4.00000
24.99884 7.03348 4.00000
25.08592 7.03348 4.00000
25.17303 7.03348 4.00000
25.26015 7.03348 4.00000
25.34729 7.03348 4.00000
25.43444 7.03348 4.00000
25.52162 7.03348 4.00000
25.60881 7.03348 4.00000
25.69601 7.03348 4.00000
25.78324 7.03348 4.00000
25.87048 7.03348 4.00000
25.95773 7.03348 4.00000
26.04501 7.03348 4.00000
26.13229 7.03348 4.00000
26.21960 7.03348 4.00000
26.30692 7.03348 4.00000
26.39426 7.03348 4.00000
26.48161 7.03348 4.00000
26.56897 7.03348 4.00000
26.65636 7.03348 4.00000
26.74376 7.03348 4.00000
26.83117 7.03348 4.00000
26.91860 7.03348 4.00000
27.00604 7.03348 4.00000
27.09350 7.03348 4.00000
27.18097 7.03348 4.00000
27.26846 7.03348 4.00000
27.35596 7.03348 4.00000
27.44347 7.03348 4.00000
27.53100 7.03348 4.00000
27.61855 7.03348 4.00000
27.70610 7.03348 4.00000
27.79367 7.03348 4.00000
27.88126 7.03348 4.00000
27.96885 7.03348 4.00000
28.05647 7.03348 4.00000
28.14409 7.03348 4.00000
28.23173 7.03348 4.00000
28.31938 7.03348 4.00000
28.40704 7.03348 4.00000
28.49472 7.03348 4.00000
28.58240 7.03348 4.00000
28.67011 7.03348 4.00000
28.75782 7.03348 4.00000
28.84555 7.03348 4.00000
28.93329 7.03348 4.00000
29.02104 7.03348 4.00000
29.10880 7.03348 4.00000
29.19658 7.03348 4.00000
29.28437 7.03348 4.00000
29.37217 7.03348 4.00000
29.45998 7.03348 4.00000
29.54780 7.03348 4.00000
29.63564 7.03348 4.00000
29.72349 7.03348 4.00000
29.81135 7.03348 4.00000
29.89922 7.03348 4.00000
29.98711 7.03348 4.00000
30.07502 7.03348 4.00000
30.16292 7.03349 4.00000
30.25086 7.03348 4.00000
30.33879 7.03349 4.00000
30.42673 7.03349 4.00000
30.51470 7.03348 4.00000
30.60267 7.03348 4.00000
30.69065 7.03349 4.00000
30.77865 7.03348 4.00000
30.86665 7.03348 4.00000
30.95467 7.03348 4.00000
31.04269 7.03348 4.00000

Angle 0.290876 4.847089

4.00000 7.03348 4.00000
4.00000 7.03348 4.00000
4.00000 7.03348 4.00000
4.00000 7.03348 4.00000
4.00000 7.03348 4.00000
4.00000 7.03348 4.00000
4.00000 7.03348 4.00000
4.00000 7.03348 4.00000
4.00000 7.03348 4.00000
4.00000 7.03348 4.00000
4.00000 7.03348 4.00000
4.00000 7.03348 4.00000
4.00000 7.03348 4.00000
4.00000 7.03348 4.00000
4.00000 7.03348 4.00000
4.00000 7.03348 4.00000
4.00000 7.03348 4.00000
4.00000 7.03348 4.00000
4.00000 7.03348 4.00000
4.00000 7.03348 4.00000
4.00000 7.03348 4.00000
4.00000 7.03348 4.00000
4.00000 7.03348 4.00000
4.00000 7.03348 4.00000
4.00000 7.03348 4.00000
4.00000 7.03348 4.00000
4.00000 7.03348 4.00000
4.00000 7.03348 4.00000
4.00000 7.03348 4.00000
4.00000 7.03348 4.00000
4.00000 7.03348 4.00000
4.00000 7.03348 4.00000
4.00000 7.03348 4.00000
4.00000 7.03348 4.00000
4.00000 7.03348 4.00000
4.00000 7.03348 4.00000
4.00000 7.03348 4.00000
4.00000 7.03348 4.00000
4.00000 7.03348 4.00000
4.00000 7.03348 4.00000
4.00000 7.03348 4.00000
4.00000 7.03348 4.00000
4.00000 7.03348 4.00000
4.00000 7.03348 4.00000
4.00000 7.03348 4.00000
4.00000 7.03348 4.00000
4.00000 7.03348 4.00000
4.00000 7.03348 4.00000
4.00000 7.03348 4.00000
4.00000 7.03348 4.00000
4.00000 7.03348 4.00000
4.00000 7.03348 4.00000
4.00000 7.03348 4.00000
4.00000 7.03348 4.00000
4.00000 7.03348 4.00000
4.00000 7.03348 4.00000
4.00000 7.03348 4.00000
4.00000 7.03348 4.00000
4.00000 7.03349 4.00000
4.00000 7.03349 4.00000
4.00000 7.03348 4.00000
4.00000 7.03348 4.00000
4.00000 7.03348 4.00000
4.00000 7.03348 4.00000
4.00000 7.03348 4.00000
4.00000 7.03348 4.00000
4.00000 7.03348 4.00000
4.00000 7.03348 4.00000
4.00000 7.03348 4.00000
4.00000 7.03350 4.00000
4.00000 7.03347 4.00000
4.00000 7.03349 4.00000
4.00000 7.03348 4.00000
4.00000 7.03348 4.00000
4.00000 7.03348 4.00000
4.00000 7.03348 4.00000
4.00000 7.03348 4.00000
4.00000 7.03346 4.00000
4.00000 7.03348 4.00000
4.00000 7.03348 4.00000
4.00000 7.03348 4.00000
4.00000 7.03348 4.00000
4.00000 7.03348 4.00000
4.00000 7.03348 4.00000
4.00000 7.03348 4.00000
4.00000 7.03348 4.00000
4.00000 7.03348 4.00000
4.00000 7.03348 4.00000
4.00000 7.03348 4.00000
4.00000 7.03348 4.00000
4.00000 7.03348 4.00000
4.00000 7.03348 4.00000
4.00000 7.03348 4.00000
4.00000 7.03348 4.00000
4.00000 7.03348 4.00000
4.00000 7.03348 4.00000
4.00000 7.03348 4.00000
4.00000 7.03348 4.00000
4.00000 7.03349 4.00000
4.00000 7.03349 4.00000
4.00000 7.03347 4.00000
4.00000 7.03348 4.00000
4.00000 7.03348 4.00000
4.00000 7.03348 4.00000
4.00000 7.03347 4.00000
4.00000 7.03347 4.00000
4.00000 7.03347 4.00000
4.00000 7.03348 4.00000
4.00000 7.03349 4.00000
4.00000 7.03349 4.00000
4.00000 7.03348 4.00000
4.00000 7.03348 4.00000
4.00000 7.03348 4.00000
4.00000 7.03348 4.00000
4.00000 7.03348 4.00000
4.00000 7.03345 4.00000
4.00000 7.03348 4.00000
4.00000 7.03348 4.00000
4.00000 7.03348 4.00000
4.00000 7.03347 4.00000
4.00001 7.03353 4.00000
4.00001 7.03356 4.00001
4.00022 7.03681 4.00022
4.00454 7.10376 4.00454
4.00881 7.17104 4.00881
4.01305 7.23860 4.01305
4.01725 7.30642 4.01725
4.02145 7.37445 4.02144
4.02563 7.44265 4.02563
4.02983 7.51099 4.02983
4.03405 7.57944 4.03405
4.03831 7.64794 4.03831
4.04262 7.71645 4.04262
4.04699 7.78494 4.04699
4.05145 7.85334 4.05145
4.05602 7.92161 4.05602
4.06071 7.98969 4.06071
4.06555 8.05751 4.06555
4.07057 8.12500 4.07057
4.07580 8.19207 4.07580
4.08128 8.25863 4.08128
4.08704 8.32458 4.08704
4.09314 8.38978 4.09314
4.09963 8.45410 4.09963
4.10658 8.51738 4.10658
4.11406 8.57941 4.11406
4.12217 8.63998 4.12217
4.13096 8.69892 4.13096
4.14040 8.75640 4.14040
4.15048 8.81240 4.15048
4.16125 8.86684 4.16125
4.17274 8.91968 4.17274
4.18496 8.97086 4.18496
4.19796 9.02035 4.19796
4.21174 9.06810 4.21174
4.22634 9.11409 4.22634
4.24175 9.15831 4.24176
4.25801 9.20074 4.25801
4.27512 9.24136 4.27512
4.29310 9.28018 4.29310
4.31195 9.31718 4.31195
4.33168 9.35235 4.33168
4.35232 9.38567 4.35232
4.37389 9.41712 4.37389
4.39640 9.44664 4.39640
4.41990 9.47417 4.41990
4.44443 9.49961 4.44443
4.47005 9.52284 4.47005
4.49682 9.54371 4.49682
4.52486 9.56200 4.52486
4.55426 9.57749 4.55426
4.58515 9.58989 4.58515
4.61769 9.59889 4.61769
4.65206 9.60417 4.65194
7.33065 7.54676 4.03203
7.49880 7.46120 4.02677
7.64326 7.39897 4.02295
7.77375 7.35054 4.01997
7.89494 7.31136 4.01756
8.00945 7.27882 4.01555
8.11894 7.25131 4.01384
8.22451 7.22775 4.01237
8.32696 7.20735 4.01109
8.42685 7.18955 4.00998
8.52463 7.17391 4.00899
8.62065 7.16010 4.00812
8.71517 7.14784 4.00735
8.80841 7.13694 4.00666
8.90056 7.12718 4.00604
8.99176 7.11844 4.00548
9.08216 7.11059 4.00498
9.17183 7.10352 4.00453
9.26087 7.09716 4.00412
9.34937 7.09141 4.00375
9.43740 7.08620 4.00342
9.52501 7.08150 4.00311
9.61225 7.07722 4.00284
9.69916 7.07335 4.00259
9.78580 7.06982 4.00236
9.87218 7.06663 4.00215
9.95833 7.06373 4.00197
10.04432 7.06107 4.00179
10.13012 7.05866 4.00164
10.21579 7.05646 4.00149
10.30132 7.05446 4.00136
10.38675 7.05264 4.00125
10.47209 7.05097 4.00114
10.55734 7.04946 4.00104
10.64254 7.04807 4.00095
10.72768 7.04680 4.00087
10.81276 7.04565 4.00079
10.89783 7.04459 4.00072
10.98285 7.04364 4.00066
11.06786 7.04276 4.00060
11.15285 7.04196 4.00055
11.23784 7.04123 4.00050
11.32278 7.04059 4.00046
11.40781 7.03994 4.00042
11.49279 7.03939 4.00039
11.57779 7.03888 4.00036
11.66282 7.03841 4.00032
11.74786 7.03798 4.00029
11.83290 7.03760 4.00027
11.91798 7.03724 4.00025
12.00308 7.03691 4.00022
12.08821 7.03661 4.00020
12.17337 7.03634 4.00019
12.25856 7.03610 4.00017
12.34377 7.03587 4.00016
12.42902 7.03566 4.00014
12.51430 7.03547 4.00013
12.59962 7.03530 4.00012
12.68497 7.03514 4.00011
12.77036 7.03500 4.00010
12.85578 7.03487 4.00009
12.94124 7.03474 4.00008
13.02674 7.03463 4.00007
13.11226 7.03453 4.00007
13.19782 7.03445 4.00006
13.28345 7.03435 4.00006
13.36909 7.03428 4.00005
13.45478 7.03421 4.00005
13.54051 7.03415 4.00004
13.62628 7.03409 4.00004
13.71209 7.03403 4.00004
13.79793 7.03399 4.00003
13.88381 7.03395 4.00003
13.96964 7.03390 4.00003
14.05559 7.03387 4.00003
14.14157 7.03383 4.00002
14.22759 7.03380 4.00002
14.31365 7.03377 4.00002
14.39975 7.03375 4.00002
14.48588 7.03373 4.00002
14.57205 7.03370 4.00001
14.65825 7.03369 4.00001
14.74450 7.03366 4.00001
14.83077 7.03365 4.00001
14.91709 7.03363 4.00001
15.00343 7.03362 4.00001
15.08981 7.03361 4.00001
15.17622 7.03360 4.00001
15.26266 7.03359 4.00001
15.34914 7.03358 4.00001
15.43565 7.03357 4.00001
15.52220 7.03356 4.00001
15.60877 7.03355 4.00000
15.69537 7.03355 4.00000
15.78202 7.03354 4.00000
15.86869 7.03354 4.00000
15.95539 7.03353 4.00000
16.04212 7.03353 4.00000
16.12888 7.03352 4.00000
16.21567 7.03352 4.00000
16.30249 7.03352 4.00000
16.38934 7.03351 4.00000
16.47622 7.03351 4.00000
16.56312 7.03351 4.00000
16.65005 7.03350 4.00000
16.73701 7.03350 4.00000
16.82399 7.03350 4.00000
16.91101 7.03350 4.00000
16.99804 7.03350 4.00000
17.08509 7.03350 4.00000
17.17218 7.03349 4.00000
17.25928 7.03349 4.00000
17.34642 7.03349 4.00000
17.43357 7.03349 4.00000
17.52076 7.03349 4.00000
17.60796 7.03349 4.00000
17.69519 7.03349 4.00000
17.78245 7.03349 4.00000
17.86972 7.03349 4.00000
17.95703 7.03349 4.00000
18.04435 7.03349 4.00000
18.13170 7.03349 4.00000
18.21906 7.03348 4.00000
18.30646 7.03348 4.00000
18.39387 7.03348 4.00000
18.48131 7.03348 4.00000
18.56877 7.03348 4.00000
18.65625 7.03348 4.00000
18.74376 7.03348 4.00000
18.83127 7.03348 4.00000
18.91881 7.03348 4.00000
19.00638 7.03348 4.00000
19.09396 7.03348 4.00000
19.18157 7.03348 4.00000
19.26920 7.03347 4.00000
19.35683 7.03348 4.00000
19.44449 7.03348 4.00000
19.53217 7.03348 4.00000
19.61987 7.03348 4.00000
19.70759 7.03348 4.00000
19.79532 7.03348 4.00000
19.88308 7.03348 4.00000
19.97085 7.03348 4.00000
20.05864 7.03348 4.00000
20.14645 7.03348 4.00000
20.23428 7.03348 4.00000
20.32212 7.03348 4.00000
20.40998 7.03348 4.00000
20.49786 7.03348 4.00000
20.58575 7.03348 4.00000
20.67367 7.03348 4.00000
20.76160 7.03348 4.00000
20.84955 7.03348 4.00000
20.93751 7.03348 4.00000
21.02549 7.03348 4.00000
21.11348 7.03348 4.00000
21.20149 7.03348 4.00000
21.28952 7.03348 4.00000
21.37756 7.03348 4.00000
21.46562 7.03348 4.00000
21.55370 7.03348 4.00000
21.64179 7.03348 4.00000
21.72990 7.03348 4.00000
21.81802 7.03348 4.00000
21.90616 7.03347 4.00000
21.99430 7.03348 4.00000
22.08247 7.03348 4.00000
22.17066 7.03348 4.00000
22.25885 7.03348 4.00000
22.34707 7.03348 4.00000
22.43529 7.03348 4.00000
22.52353 7.03348 4.00000
22.61179 7.03348 4.00000
22.70006 7.03348 4.00000
22.78834 7.03348 4.00000
22.87663 7.03348 4.00000
22.96494 7.03348 4.00000
23.05327 7.03348 4.00000
23.14160 7.03348 4.00000
23.22995 7.03348 4.00000
23.31831 7.03348 4.00000
23.40668 7.03348 4.00000
23.49507 7.03348 4.00000
23.58347 7.03348 4.00000
23.67188 7.03348 4.00000
23.76030 7.03348 4.00000
23.84874 7.03348 4.00000
23.93719 7.03348 4.00000
24.02565 7.03348 4.00000
24.11412 7.03348 4.00000
24.20260 7.03348 4.00000
24.29110 7.03348 4.00000
24.37961 7.03348 4.00000
24.46813 7.03348 4.00000
24.55666 7.03348 4.00000
24.64520 7.03348 4.00000
24.73375 7.03348 4.00000
24.82232 7.03348 4.00000
24.91090 7.03348 4.00000
24.99948 7.03348 4.00000
25.08808 7.03348 4.00000
25.17669 7.03348 4.00000
25.26532 7.03348 4.00000
25.35395 7.03348 4.00000
25.44259 7.03348 4.00000
25.53125 7.03348 4.00000
25.61991 7.03348 4.00000
25.70859 7.03348 4.00000
25.79728 7.03348 4.00000
25.88598 7.03348 4.00000
25.97468 7.03348 4.00000
26.06340 7.03348 4.00000
26.15214 7.03348 4.00000
26.24088 7.03348 4.00000
26.32963 7.03348 4.00000
26.41839 7.03348 4.00000
26.50716 7.03348 4.00000
26.59594 7.03348 4.00000
26.68473 7.03348 4.00000
26.77353 7.03348 4.00000
26.86232 7.03349 4.00000
26.95113 7.03349 4.00000
27.03997 7.03348 4.00000
27.12879 7.03349 4.00000
27.21763 7.03349 4.00000
27.30650 7.03348 4.00000

Angle 0.082650 5.739798

4.00636 7.13224 4.00636
4.01052 7.19812 4.01052
4.01464 7.26427 4.01464
4.01875 7.33068 4.01875
4.02285 7.39730 4.02285
4.02695 7.46410 4.02695
4.03106 7.53104 4.03106
4.03521 7.59809 4.03521
4.03939 7.66520 4.03939
4.04362 7.73233 4.04362
4.04793 7.79944 4.04793
4.05232 7.86649 4.05232
4.05682 7.93341 4.05682
4.06145 8.00016 4.06145
4.06622 8.06666 4.06622
4.07117 8.13285 4.07117
4.07633 8.19865 4.07633
4.08173 8.26396 4.08173
4.08742 8.32869 4.08742
4.09343 8.39271 4.09343
4.09982 8.45588 4.09982
4.10666 8.51805 4.10666
4.11402 8.57903 4.11401
4.12197 8.63862 4.12197
4.13061 8.69664 4.13061
4.13986 8.75325 4.13986
4.14974 8.80844 4.14974
4.16028 8.86215 4.16028
4.17152 8.91431 4.17152
4.18348 8.96489 4.18348
4.19618 9.01383 4.19618
4.20964 9.06111 4.20964
4.22389 9.10669 4.22389
4.23894 9.15055 4.23894
4.25481 9.19269 4.25481
4.27151 9.23309 4.27151
4.28904 9.27174 4.28904
4.30743 9.30863 4.30743
4.32668 9.34375 4.32668
4.34681 9.37709 4.34681
4.36783 9.40861 4.36783
4.38978 9.43828 4.38978
4.41267 9.46604 4.41267
4.43656 9.49180 4.43656
4.46149 9.51545 4.46149
4.48753 9.53685 4.48753
4.51477 9.55582 4.51477
4.54330 9.57215 4.54330
4.57325 9.58557 4.57325
4.60474 9.59579 4.60474
4.63793 9.60251 4.63793
4.67295 9.60540 4.67295
4.02879 7.49400 7.43076
4.02450 7.42420 7.58195
4.02123 7.37102 7.71630
4.01862 7.32851 7.83990
4.01646 7.29351 7.95595
4.01463 7.26409 8.06643
4.01307 7.23899 8.17261
4.01172 7.21733 8.27540
4.01054 7.19847 8.37544
4.00950 7.18192 8.47322
4.00858 7.16733 8.56911
4.00776 7.15440 8.66341
4.00703 7.14289 8.75636
4.00638 7.13260 8.84815
4.00579 7.12340 8.93894
4.00527 7.11511 9.02889
4.00479 7.10768 9.11806
4.00436 7.10097 9.20660
4.00397 7.09490 9.29456
4.00362 7.08943 9.38201
4.00330 7.08445 9.46904
4.00301 7.07994 9.55568
4.00275 7.07586 9.64198
4.00251 7.07213 9.72799
4.00229 7.06876 9.81373
4.00209 7.06567 9.89926
4.00191 7.06289 9.98456
4.00175 7.06033 10.06972
4.00159 7.05801 10.15472
4.00146 7.05589 10.23959
4.00133 7.05396 10.32435
4.00122 7.05219 10.40901
4.00111 7.05055 10.49363
4.00102 7.04910 10.57812
4.00093 7.04777 10.66257
4.00085 7.04653 10.74700
4.00077 7.04541 10.83139
4.00071 7.04439 10.91572
4.00065 7.04345 11.00006
4.00059 7.04260 11.08439
4.00054 7.04179 11.16872
4.00050 7.04110 11.25301
4.00045 7.04045 11.33733
4.00041 7.03986 11.42165
4.00038 7.03930 11.50600
4.00035 7.03880 11.59036
4.00032 7.03835 11.67473
4.00029 7.03793 11.75913
4.00027 7.03755 11.84356
4.00024 7.03720 11.92802
4.00022 7.03688 12.01250
4.00020 7.03659 12.09702
4.00019 7.03632 12.18156
4.00017 7.03607 12.26615
4.00015 7.03585 12.35077
4.00014 7.03565 12.43542
4.00013 7.03546 12.52012
4.00012 7.03529 12.60485
4.00011 7.03513 12.68963
4.00010 7.03499 12.77443
4.00009 7.03486 12.85928
4.00008 7.03474 12.94418
4.00008 7.03463 13.02911
4.00007 7.03453 13.11409
4.00007 7.03444 13.19910
4.00006 7.03436 13.28415
4.00005 7.03428 13.36925
4.00005 7.03421 13.45439
4.00004 7.03415 13.53958
4.00004 7.03409 13.62480
4.00004 7.03404 13.71007
4.00004 7.03399 13.79538
4.00003 7.03395 13.88073
4.00003 7.03390 13.96613
4.00003 7.03387 14.05156
4.00003 7.03383 14.13703
4.00002 7.03380 14.22245
4.00002 7.03378 14.30799
4.00002 7.03375 14.39358
4.00002 7.03373 14.47921
4.00002 7.03370 14.56488
4.00001 7.03368 14.65059
4.00001 7.03367 14.73634
4.00001 7.03365 14.82213
4.00001 7.03364 14.90796
4.00001 7.03362 14.99383
4.00001 7.03361 15.07972
4.00001 7.03360 15.16566
4.00001 7.03359 15.25164
4.00001 7.03358 15.33766
4.00001 7.03357 15.42371
4.00001 7.03356 15.50980
4.00001 7.03355 15.59593
4.00000 7.03355 15.68209
4.00000 7.03354 15.76829
4.00000 7.03354 15.85452
4.00000 7.03353 15.94079
4.00000 7.03353 16.02710
4.00000 7.03352 16.11344
4.00000 7.03352 16.19981
4.00000 7.03352 16.28622
4.00000 7.03351 16.37266
4.00000 7.03351 16.45913
4.00000 7.03351 16.54564
4.00000 7.03350 16.63213
4.00000 7.03350 16.71865
4.00000 7.03350 16.80520
4.00000 7.03350 16.89178
4.00000 7.03350 16.97840
4.00000 7.03349 17.06505
4.00000 7.03349 17.15171
4.00000 7.03349 17.23843
4.00000 7.03349 17.32516
4.00000 7.03348 17.41192
4.00000 7.03348 17.49871
4.00000 7.03348 17.58553
4.00000 7.03348 17.67237
4.00000 7.03348 17.75924
4.00000 7.03348 17.84613
4.00000 7.03348 17.93305
4.00000 7.03348 18.02000
4.00000 7.03348 18.10697
4.00000 7.03348 18.19397
4.00000 7.03348 18.28099
4.00000 7.03348 18.36804
4.00000 7.03348 18.45511
4.00000 7.03348 18.54220
4.00000 7.03348 18.62932
4.00000 7.03349 18.71646
4.00000 7.03348 18.80363
4.00000 7.03348 18.89081
4.00000 7.03349 18.97802
4.00000 7.03348 19.06526
4.00000 7.03348 19.15252
4.00000 7.03348 19.23980
4.00000 7.03348 19.32710
4.00000 7.03348 19.41443
4.00000 7.03348 19.50177
4.00000 7.03348 19.58913
4.00000 7.03348 19.67651
4.00000 7.03348 19.76391
4.00000 7.03348 19.85133
4.00000 7.03348 19.93876
4.00000 7.03348 20.02622
4.00000 7.03348 20.11370
4.00000 7.03348 20.20119
4.00000 7.03348 20.28871
4.00000 7.03348 20.37624
4.00000 7.03348 20.46381
4.00000 7.03348 20.55138
4.00000 7.03348 20.63899
4.00000 7.03348 20.72660
4.00000 7.03348 20.81424
4.00000 7.03348 20.90190
4.00000 7.03348 20.98958
4.00000 7.03348 21.07728
4.00000 7.03348 21.16499
4.00000 7.03348 21.25273
4.00000 7.03348 21.34048
4.00000 7.03348 21.42825
4.00000 7.03348 21.51603
4.00000 7.03348 21.60384
4.00000 7.03348 21.69166
4.00000 7.03348 21.77949
4.00000 7.03348 21.86735
4.00000 7.03348 21.95521
4.00000 7.03348 22.04310
4.00000 7.03348 22.13100
4.00000 7.03348 22.21892
4.00000 7.03348 22.30685
4.00000 7.03348 22.39480
4.00000 7.03348 22.48274
4.00000 7.03348 22.57072
4.00000 7.03348 22.65870
4.00000 7.03347 22.74672
4.00000 7.03348 22.83474
4.00000 7.03348 22.92278
4.00000 7.03348 23.01083
4.00000 7.03348 23.09890
4.00000 7.03348 23.18698
4.00000 7.03347 23.27507
4.00000 7.03348 23.36317
4.00000 7.03348 23.45130
4.00000 7.03348 23.53943
4.00000 7.03348 23.62757
4.00000 7.03348 23.71574
4.00000 7.03348 23.80391
4.00000 7.03348 23.89210
4.00000 7.03348 23.98031
4.00000 7.03348 24.06853
4.00000 7.03348 24.15676
4.00000 7.03348 24.24501
4.00000 7.03348 24.33327
4.00000 7.03348 24.42154
4.00000 7.03348 24.50983
4.00000 7.03348 24.59811
4.00000 7.03348 24.68643
4.00000 7.03348 24.77474
4.00000 7.03348 24.86308
4.00000 7.03348 24.95141
4.00000 7.03348 25.03977
4.00000 7.03348 25.12813
4.00000 7.03348 25.21652
4.00000 7.03348 25.30490
4.00000 7.03348 25.39328
4.00000 7.03348 25.48169
4.00000 7.03348 25.57011
4.00000 7.03348 25.65852
4.00000 7.03348 25.74695
4.00000 7.03348 25.83538
4.00000 7.03348 25.92383
4.00000 7.03348 26.01228
4.00000 7.03348 26.10075
4.00000 7.03348 26.18923
4.00000 7.03348 26.27771
4.00000 7.03348 26.36621
4.00000 7.03348 26.45472
4.00000 7.03348 26.54323
4.00000 7.03348 26.63176
4.00000 7.03348 26.72029
4.00000 7.03348 26.80884
4.00000 7.03348 26.89739
4.00000 7.03348 26.98596
4.00000 7.03348 27.07453
4.00000 7.03348 27.16311
4.00000 7.03348 27.25171
4.00000 7.03348 27.34031
4.00000 7.03348 27.42892
4.00000 7.03348 27.51754
4.00000 7.03348 27.60617
4.00000 7.03348 27.69481
4.00000 7.03348 27.78345
4.00000 7.03348 27.87211
4.00000 7.03348 27.96077
4.00000 7.03348 28.04944
4.00000 7.03348 28.13813
4.00000 7.03348 28.22681
4.00000 7.03348 28.31551
4.00000 7.03348 28.40422
4.00000 7.03348 28.49293
4.00000 7.03348 28.58165
4.00000 7.03348 28.67038
4.00000 7.03348 28.75912
4.00000 7.03348 28.84786
4.00000 7.03348 28.93662
4.00000 7.03348 29.02538
4.00000 7.03348 29.11414
4.00000 7.03348 29.20292
4.00000 7.03348 29.29170
4.00000 7.03348 29.38050
4.00000 7.03348 29.46929
4.00000 7.03348 29.55810
4.00000 7.03348 29.64691
4.00000 7.03348 29.73574
4.00000 7.03348 29.82457
4.00000 7.03348 29.91340
4.00000 7.03348 30.00225
4.00000 7.03348 30.09110
4.00000 7.03348 30.17996
4.00000 7.03348 30.26882
4.00000 7.03348 30.35770
4.00000 7.03348 30.44658
4.00000 7.03348 30.53548
4.00000 7.03348 30.62437
4.00000 7.03349 30.71327
4.00000 7.03348 30.80221
4.00000 7.03349 30.89112
4.00000 7.03349 30.98005
4.00000 7.03348 31.06901
4.00000 7.03349 31.15794
4.00000 7.03349 31.24690
4.00000 7.03348 31.33587
4.00000 7.03348 31.42483
4.00000 7.03349 31.51380
4.00000 7.03348 31.60279
4.00000 7.03348 31.69178
4.00000 7.03348 31.78078
4.00000 7.03349 31.86978
4.00000 7.03349 31.95879
4.00000 7.03348 32.04781
4.00000 7.03348 32.13684
4.00000 7.03348 32.22587
4.00000 7.03348 32.31492
4.00000 7.03348 32.40396
4.00000 7.03348 32.49302
4.00000 7.03348 32.58208
4.00000 7.03348 32.67115
4.00000 7.03348 32.76023
4.00000 7.03348 32.84931
4.00000 7.03348 32.93840
4.00000 7.03348 33.02750
4.00000 7.03348 33.11661
4.00000 7.03348 33.20572
4.00000 7.03348 33.29484
4.00000 7.03348 33.38398
4.00000 7.03348 33.47312
4.00000 7.03348 33.56226
4.00000 7.03348 33.65142
4.00000 7.03348 33.74058
4.00000 7.03348 33.82975
4.00000 7.03348 33.91893
4.00000 7.03348 34.00812
4.00000 7.03348 34.09732
4.00000 7.03348 34.18653
4.00000 7.03348 34.27574
4.00000 7.03348 34.36497
4.00000 7.03348 34.45420
4.00000 7.03348 34.54345
4.00000 7.03348 34.63269
4.00000 7.03348 34.72195
4.00000 7.03348 34.81122
4.00000 7.03348 34.90050
4.00000 7.03348 34.98979
4.00000 7.03348 35.07908
4.00000 7.03348 35.16838
4.00000 7.03348 35.25769
4.00000 7.03348 35.34701
4.00000 7.03348 35.43634
4.00000 7.03348 35.52567
4.00000 7.03348 35.61501
4.00000 7.03348 35.70437
4.00000 7.03348 35.79373
4.00000 7.03348 35.88309
4.00000 7.03348 35.97247
4.00000 7.03348 36.06185
4.00000 7.03348 36.15124
4.00000 7.03348 36.24064
4.00000 7.03348 36.33004
4.00000 7.03348 36.41945
4.00000 7.03348 36.50887
4.00000 7.03348 36.59829
4.00000 7.03348 36.68773
4.00000 7.03348 36.77717
4.00000 7.03348 36.86661
4.00000 7.03348 36.95606
4.00000 7.03348 37.04545
4.00000 7.03348 37.13486
4.00000 7.03348 37.22427
4.00000 7.03348 37.31368
4.00000 7.03348 37.40310
4.00000 7.03348 37.49252
4.00000 7.03348 37.58196
4.00000 7.03348 37.67140
4.00000 7.03348 37.76085
4.00000 7.03348 37.85030
4.00000 7.03348 37.93979
4.00000 7.03348 38.02928
4.00000 7.03348 38.11878

Angle 0.671621 6.019332

4.00000 7.03348 4.00000
4.00000 7.03349 4.00000
4.00000 7.03348 4.00000
4.00000 7.03348 4.00000
4.00000 7.03348 4.00000
4.00000 7.03348 4.00000
4.00000 7.03348 4.00000
4.00000 7.03348 4.00000
4.00000 7.03348 4.00000
4.00000 7.03348 4.00000
4.00000 7.03348 4.00000
4.00000 7.03348 4.00000
4.00000 7.03348 4.00000
4.00000 7.03348 4.00000
4.00000 7.03350 4.00000
4.00000 7.03348 4.00000
4.00000 7.03348 4.00000
4.00000 7.03348 4.00000
4.00000 7.03348 4.00000
4.00000 7.03348 4.00000
4.00000 7.03348 4.00000
4.00000 7.03348 4.00000
4.00000 7.03348 4.00000
4.00000 7.03348 4.00000
4.00000 7.03348 4.00000
4.00000 7.03348 4.00000
4.00000 7.03349 4.00000
4.00000 7.03348 4.00000
4.00000 7.03349 4.00000
4.00000 7.03349 4.00000
4.00000 7.03349 4.00000
4.00000 7.03350 4.00000
4.00000 7.03349 4.00000
4.00000 7.03348 4.00000
4.00000 7.03348 4.00000
4.00000 7.03348 4.00000
4.00000 7.03348 4.00000
4.00000 7.03349 4.00000
4.00000 7.03348 4.00000
4.00000 7.03348 4.00000
4.00000 7.03348 4.00000
4.00000 7.03348 4.00000
4.00000 7.03348 4.00000
4.00000 7.03348 4.00000
4.00000 7.03348 4.00000
4.00000 7.03348 4.00000
4.00000 7.03348 4.00000
4.00000 7.03348 4.00000
4.00000 7.03348 4.00000
4.00000 7.03348 4.00000
4.00000 7.03348 4.00000
4.00000 7.03348 4.00000
4.00000 7.03348 4.00000
4.00000 7.03349 4.00000
4.00000 7.03349 4.00000
4.00000 7.03348 4.00000
4.00000 7.03348 4.00000
4.00000 7.03349 4.00000
4.00000 7.03348 4.00000
4.00000 7.03348 4.00000
4.00000 7.03348 4.00000
4.00000 7.03348 4.00000
4.00000 7.03348 4.00000
4.00000 7.03348 4.00000
4.00000 7.03348 4.00000
4.00000 7.03348 4.00000
4.00000 7.03348 4.00000
4.00000 7.03347 4.00000
4.00000 7.03347 4.00000
4.00000 7.03347 4.00000
4.00000 7.03348 4.00000
4.00000 7.03348 4.00000
4.00000 7.03348 4.00000
4.00000 7.03348 4.00000
4.00000 7.03348 4.00000
4.00000 7.03348 4.00000
4.00000 7.03348 4.00000
4.00000 7.03348 4.00000
4.00000 7.03348 4.00000
4.00000 7.03348 4.00000
4.00000 7.03348 4.00000
4.00000 7.03348 4.00000
4.00000 7.03348 4.00000
4.00000 7.03348 4.00000
4.00000 7.03348 4.00000
4.00000 7.03348 4.00000
4.00000 7.03347 4.00000
4.00000 7.03348 4.00000
4.00000 7.03348 4.00000
4.00000 7.03348 4.00000
4.00000 7.03348 4.00000
4.00001 7.03358 4.00001
4.00033 7.03848 4.00033
4.00513 7.11302 4.00513
4.00987 7.18784 4.00987
4.01456 7.26289 4.01456
4.01921 7.33811 4.01921
4.02384 7.41346 4.02384
4.02847 7.48888 4.02847
4.03312 7.56434 4.03312
4.03780 7.63976 4.03780
4.04253 7.71511 4.04253
4.04734 7.79032 4.04734
4.05225 7.86534 4.05224
4.05728 7.94008 4.05728
4.06246 8.01448 4.06246
4.06783 8.08844 4.06783
4.07342 8.16188 4.07342
4.07927 8.23467 4.07927
4.08545 8.30670 4.08544
4.09199 8.37781 4.09199
4.09898 8.44783 4.09898
4.10649 8.51656 4.10649
4.11462 8.58376 4.11462
4.12347 8.64916 4.12347
4.13313 8.71259 4.13313
4.14352 8.77428 4.14351
4.15466 8.83414 4.15466
4.16661 8.89211 4.16661
4.17939 8.94814 4.17939
4.19304 9.00217 4.19304
4.20758 9.05415 4.20758
4.22304 9.10407 4.22304
4.23943 9.15190 4.23943
4.25677 9.19762 4.25677
4.27507 9.24124 4.27507
4.29435 9.28275 4.29435
4.31462 9.32214 4.31462
4.33589 9.35941 4.33589
4.35818 9.39453 4.35817
4.38151 9.42747 4.38151
4.40591 9.45817 4.40591
4.43145 9.48654 4.43144
4.45815 9.51246 4.45815
4.48612 9.53577 4.48612
4.51544 9.55625 4.51544
4.54625 9.57363 4.54624
4.57867 9.58761 4.57867
4.61289 9.59782 4.61289
4.64907 9.60388 4.64907
7.32650 7.54895 4.03216
7.50435 7.45862 4.02661
7.65614 7.39388 4.02264
7.79281 7.34403 4.01957
7.91953 7.30402 4.01711
8.03916 7.27103 4.01506
8.15348 7.24330 4.01334
8.26368 7.21968 4.01187
8.37060 7.19933 4.01059
8.47486 7.18166 4.00948
8.57691 7.16621 4.00851
8.67711 7.15263 4.00765
8.77576 7.14063 4.00689
8.87307 7.12999 4.00621
8.96924 7.12052 4.00561
9.06442 7.11207 4.00507
9.15875 7.10452 4.00459
9.25233 7.09775 4.00416
9.34525 7.09166 4.00377
9.43761 7.08619 4.00341
9.52946 7.08127 4.00310
9.62086 7.07682 4.00281
9.71187 7.07281 4.00255
9.80254 7.06918 4.00232
9.89290 7.06590 4.00211
9.98299 7.06292 4.00192
10.07283 7.06024 4.00174
10.16247 7.05781 4.00158
10.25192 7.05560 4.00144
10.34120 7.05359 4.00131
10.43034 7.05177 4.00119
10.51935 7.05012 4.00108
10.60824 7.04862 4.00098
10.69704 7.04725 4.00090
10.78575 7.04601 4.00081
10.87438 7.04488 4.00074
10.96295 7.04386 4.00068
11.05147 7.04292 4.00062
11.13993 7.04208 4.00056
11.22836 7.04130 4.00051
11.31674 7.04061 4.00046
11.40510 7.03997 4.00042
11.49344 7.03938 4.00038
11.58176 7.03886 4.00034
11.67006 7.03837 4.00032
11.75835 7.03793 4.00029
11.84664 7.03753 4.00026
11.93492 7.03717 4.00024
12.02320 7.03684 4.00022
12.11149 7.03654 4.00020
12.19978 7.03626 4.00017
12.28806 7.03602 4.00017
12.37636 7.03579 4.00015
12.46466 7.03558 4.00014
12.55298 7.03539 4.00013
12.64131 7.03522 4.00011
12.72965 7.03507 4.00010
12.81800 7.03492 4.00009
12.90636 7.03479 4.00009
12.99475 7.03468 4.00008
13.08315 7.03456 4.00007
13.17157 7.03446 4.00006
13.26000 7.03437 4.00006
13.34844 7.03429 4.00005
13.43691 7.03422 4.00005
13.52539 7.03415 4.00004
13.61389 7.03409 4.00004
13.70241 7.03403 4.00004
13.79095 7.03398 4.00003
13.87950 7.03395 4.00003
13.96806 7.03390 4.00003
14.05665 7.03387 4.00003
14.14527 7.03382 4.00002
14.23387 7.03379 4.00002
14.32250 7.03377 4.00002
14.41116 7.03374 4.00002
14.49984 7.03372 4.00002
14.58853 7.03370 4.00001
14.67724 7.03368 4.00001
14.76598 7.03366 4.00001
14.85472 7.03365 4.00001
14.94349 7.03363 4.00001
15.03228 7.03361 4.00001
15.12107 7.03360 4.00001
15.20989 7.03359 4.00001
15.29872 7.03358 4.00001
15.38756 7.03357 4.00001
15.47640 7.03358 4.00001
15.56530 7.03356 4.00000
15.65420 7.03355 4.00000
15.74312 7.03354 4.00000
15.83205 7.03354 4.00000
15.92099 7.03353 4.00000
16.00995 7.03353 4.00000
16.09893 7.03352 4.00000
16.18792 7.03352 4.00000
16.27692 7.03352 4.00000
16.36594 7.03351 4.00000
16.45498 7.03351 4.00000
16.54402 7.03351 4.00000
16.63309 7.03350 4.00000
16.72216 7.03350 4.00000
16.81125 7.03350 4.00000
16.90036 7.03349 4.00000
16.98947 7.03350 4.00000
17.07860 7.03349 4.00000
17.16774 7.03349 4.00000
17.25689 7.03349 4.00000
17.34606 7.03349 4.00000
17.43524 7.03349 4.00000
17.52442 7.03349 4.00000
17.61363 7.03349 4.00000
17.70284 7.03349 4.00000
17.79207 7.03348 4.00000
17.88130 7.03349 4.00000
17.97055 7.03348 4.00000
18.05980 7.03348 4.00000
18.14906 7.03348 4.00000
18.23833 7.03348 4.00000
18.32761 7.03348 4.00000
18.41691 7.03348 4.00000
18.50621 7.03348 4.00000
18.59552 7.03348 4.00000
18.68485 7.03348 4.00000
18.77418 7.03348 4.00000
18.86352 7.03348 4.00000
18.95287 7.03348 4.00000
19.04224 7.03348 4.00000
19.13161 7.03348 4.00000
19.22099 7.03348 4.00000
19.31038 7.03348 4.00000
19.39978 7.03348 4.00000
19.48918 7.03348 4.00000
19.57860 7.03348 4.00000
19.66803 7.03348 4.00000
19.75746 7.03348 4.00000
19.84690 7.03348 4.00000
19.93635 7.03348 4.00000
20.02581 7.03348 4.00000
20.11528 7.03348 4.00000
20.20476 7.03348 4.00000
20.29424 7.03348 4.00000
20.38373 7.03348 4.00000
20.47324 7.03348 4.00000
20.56274 7.03348 4.00000
20.65226 7.03348 4.00000
20.74178 7.03348 4.00000
20.83131 7.03348 4.00000
20.92085 7.03348 4.00000
21.01040 7.03348 4.00000
21.09995 7.03348 4.00000
21.18951 7.03348 4.00000
21.27908 7.03348 4.00000
21.36865 7.03348 4.00000
21.45823 7.03348 4.00000
21.54782 7.03348 4.00000
21.63741 7.03348 4.00000
21.72701 7.03348 4.00000
21.81662 7.03348 4.00000
21.90624 7.03348 4.00000
21.99586 7.03348 4.00000
22.08548 7.03348 4.00000
22.17512 7.03348 4.00000
22.26476 7.03348 4.00000
22.35440 7.03348 4.00000
22.44406 7.03348 4.00000
22.53372 7.03348 4.00000
22.62338 7.03348 4.00000
22.71305 7.03348 4.00000
22.80272 7.03349 4.00000
22.89242 7.03348 4.00000
22.98211 7.03348 4.00000
23.07180 7.03348 4.00000
23.16150 7.03348 4.00000
23.25121 7.03348 4.00000
23.34092 7.03349 4.00000
23.43063 7.03349 4.00000
23.52038 7.03347 4.00000
23.61010 7.03349 4.00000
23.69984 7.03348 4.00000
23.78957 7.03348 4.00000
23.87932 7.03348 4.00000
23.96907 7.03349 4.00000
24.05883 7.03349 4.00000
24.14860 7.03348 4.00000
24.23837 7.03348 4.00000
24.32814 7.03348 4.00000
24.41792 7.03348 4.00000
24.50770 7.03348 4.00000
24.59748 7.03348 4.00000
24.68728 7.03348 4.00000
24.77707 7.03348 4.00000
24.86688 7.03348 4.00000
24.95668 7.03348 4.00000
25.04649 7.03348 4.00000
25.13631 7.03348 4.00000
25.22613 7.03348 4.00000
25.31596 7.03348 4.00000
25.40579 7.03348 4.00000
25.49563 7.03348 4.00000
25.58547 7.03348 4.00000
25.67532 7.03348 4.00000
25.76517 7.03348 4.00000
25.85503 7.03348 4.00000
25.94489 7.03348 4.00000
26.03476 7.03348 4.00000
26.12463 7.03348 4.00000
26.21451 7.03348 4.00000
26.30439 7.03348 4.00000
26.39428 7.03348 4.00000
26.48417 7.03348 4.00000
26.57406 7.03348 4.00000
26.66397 7.03348 4.00000
26.75387 7.03348 4.00000
26.84379 7.03348 4.00000
26.93370 7.03348 4.00000
27.02362 7.03348 4.00000
27.11355 7.03348 4.00000
27.20349 7.03348 4.00000
27.29342 7.03348 4.00000
27.38337 7.03348 4.00000
27.47331 7.03348 4.00000
27.56326 7.03348 4.00000
27.65322 7.03348 4.00000
27.74318 7.03348 4.00000
27.83315 7.03348 4.00000
27.92312 7.03348 4.00000
28.01309 7.03348 4.00000
28.10307 7.03348 4.00000
28.19306 7.03348 4.00000
28.28304 7.03348 4.00000
28.37304 7.03348 4.00000
28.46303 7.03348 4.00000
28.55303 7.03348 4.00000
28.64304 7.03348 4.00000
28.73305 7.03348 4.00000
28.82306 7.03348 4.00000
28.91307 7.03348 4.00000
29.00309 7.03348 4.00000
29.09311 7.03348 4.00000
29.18314 7.03348 4.00000
29.27317 7.03348 4.00000
29.36321 7.03348 4.00000
29.45324 7.03348 4.00000
29.54328 7.03348 4.00000
29.63332 7.03348 4.00000
29.72333 7.03348 4.00000
29.81335 7.03348 4.00000
29.90337 7.03348 4.00000
29.99339 7.03348 4.00000
30.08341 7.03348 4.00000
30.17344 7.03348 4.00000
30.26349 7.03348 4.00000
30.35353 7.03348 4.00000
30.44357 7.03348 4.00000
30.53362 7.03348 4.00000
30.62367 7.03348 4.00000
30.71374 7.03348 4.00000
30.80380 7.03348 4.00000
30.89388 7.03348 4.00000

Angle 0.434865 5.812067

4.00000 7.03348 4.00000
4.00000 7.03349 4.00000
4.00000 7.03348 4.00000
4.00000 7.03348 4.00000
4.00000 7.03348 4.00000
4.00000 7.03348 4.00000
4.00000 7.03348 4.00000
4.00000 7.03348 4.00000
4.00000 7.03348 4.00000
4.00000 7.03348 4.00000
4.00000 7.03348 4.00000
4.00000 7.03350 4.00000
4.00000 7.03350 4.00000
4.00000 7.03348 4.00000
4.00000 7.03348 4.00000
4.00000 7.03348 4.00000
4.00000 7.03348 4.00000
4.00000 7.03348 4.00000
4.00000 7.03348 4.00000
4.00000 7.03350 4.00000
4.00000 7.03348 4.00000
4.00000 7.03348 4.00000
4.00000 7.03348 4.00000
4.00000 7.03346 4.00000
4.00000 7.03348 4.00000
4.00000 7.03348 4.00000
4.00000 7.03348 4.00000
4.00000 7.03348 4.00000
4.00000 7.03348 4.00000
4.00000 7.03348 4.00000
4.00000 7.03349 4.00000
4.00000 7.03348 4.00000
4.00000 7.03348 4.00000
4.00000 7.03348 4.00000
4.00000 7.03348 4.00000
4.00000 7.03348 4.00000
4.00000 7.03348 4.00000
4.00000 7.03348 4.00000
4.00001 7.03359 4.00001
4.00362 7.08944 4.00362
4.00784 7.15570 4.00784
4.01203 7.22226 4.01203
4.01618 7.28908 4.01618
4.02032 7.35614 4.02032
4.02445 7.42339 4.02445
4.02859 7.49080 4.02859
4.03275 7.55833 4.03275
4.03694 7.62595 4.03694
4.04117 7.69360 4.04117
4.04547 7.76125 4.04547
4.04984 7.82885 4.04984
4.05431 7.89636 4.05431
4.05890 7.96370 4.05890
4.06363 8.03084 4.06363
4.06851 8.09768 4.06851
4.07360 8.16417 4.07360
4.07891 8.23021 4.07890
4.08447 8.29570 4.08448
4.09036 8.36053 4.09035
4.09659 8.42458 4.09659
4.10324 8.48768 4.10324
4.11038 8.54967 4.11038
4.11809 8.61035 4.11809
4.12646 8.66948 4.12646
4.13548 8.72710 4.13548
4.14513 8.78331 4.14513
4.15543 8.83803 4.15543
4.16642 8.89121 4.16642
4.17812 8.94281 4.17812
4.19056 8.99276 4.19056
4.20377 9.04104 4.20377
4.21777 9.08762 4.21777
4.23256 9.13246 4.23256
4.24818 9.17555 4.24818
4.26462 9.21689 4.26462
4.28191 9.25646 4.28191
4.30006 9.29426 4.30006
4.31907 9.33027 4.31907
4.33896 9.36448 4.33896
4.35975 9.39687 4.35975
4.38146 9.42740 4.38146
4.40411 9.45602 4.40411
4.42775 9.48266 4.42775
4.45241 9.50721 4.45242
4.47818 9.52954 4.47818
4.50512 9.54948 4.50512
4.53332 9.56684 4.53332
4.56291 9.58136 4.56291
4.59401 9.59274 4.59401
4.62678 9.60070 4.62676
4.66144 9.60489 4.66123
7.37678 7.52177 4.03049
7.53632 7.44409 4.02572
7.67573 7.38627 4.02217
7.80278 7.34068 4.01937
7.92140 7.30347 4.01707
8.03388 7.27239 4.01515
8.14169 7.24600 4.01351
8.24583 7.22331 4.01209
8.34702 7.20363 4.01086
8.44582 7.18638 4.00978
8.54260 7.17122 4.00882
8.63770 7.15779 4.00798
8.73136 7.14587 4.00722
8.82381 7.13524 4.00655
8.91520 7.12573 4.00594
9.00570 7.11719 4.00540
9.09542 7.10951 4.00491
9.18445 7.10259 4.00446
9.27287 7.09635 4.00407
9.36077 7.09071 4.00370
9.44821 7.08561 4.00338
9.53526 7.08097 4.00308
9.62195 7.07677 4.00281
9.70833 7.07296 4.00256
9.79443 7.06950 4.00234
9.88030 7.06634 4.00213
9.96596 7.06347 4.00195
10.05144 7.06086 4.00178
10.13675 7.05849 4.00163
10.22194 7.05631 4.00148
10.30700 7.05434 4.00136
10.39197 7.05253 4.00124
10.47684 7.05089 4.00113
10.56164 7.04939 4.00104
10.64639 7.04801 4.00095
10.73108 7.04676 4.00087
10.81574 7.04562 4.00079
10.90036 7.04457 4.00072
10.98494 7.04363 4.00066
11.06956 7.04273 4.00060
11.15412 7.04194 4.00055
11.23867 7.04123 4.00051
11.32325 7.04055 4.00046
11.40783 7.03994 4.00042
11.49242 7.03938 4.00039
11.57702 7.03888 4.00035
11.66163 7.03841 4.00032
11.74627 7.03799 4.00029
11.83094 7.03760 4.00027
11.91562 7.03725 4.00025
12.00034 7.03692 4.00022
12.08508 7.03662 4.00021
12.16985 7.03635 4.00019
12.25466 7.03611 4.00017
12.33950 7.03588 4.00016
12.42437 7.03567 4.00015
12.50929 7.03548 4.00013
12.59423 7.03531 4.00012
12.67923 7.03515 4.00011
12.76424 7.03501 4.00010
12.84930 7.03489 4.00009
12.93442 7.03475 4.00008
13.01956 7.03464 4.00008
13.10475 7.03454 4.00007
13.18997 7.03445 4.00006
13.27523 7.03436 4.00006
13.36053 7.03429 4.00005
13.44588 7.03421 4.00005
13.53126 7.03415 4.00004
13.61668 7.03410 4.00004
13.70215 7.03404 4.00004
13.78765 7.03399 4.00003
13.87319 7.03395 4.00003
13.95877 7.03391 4.00003
14.04440 7.03386 4.00002
14.13006 7.03384 4.00002
14.21576 7.03380 4.00002
14.30149 7.03378 4.00002
14.38727 7.03375 4.00002
14.47308 7.03373 4.00002
14.55893 7.03371 4.00001
14.64483 7.03369 4.00001
14.73075 7.03367 4.00001
14.81672 7.03365 4.00001
14.90272 7.03364 4.00001
14.98875 7.03362 4.00001
15.07482 7.03361 4.00001
15.16093 7.03360 4.00001
15.24707 7.03359 4.00001
15.33325 7.03358 4.00001
15.41946 7.03357 4.00001
15.50570 7.03356 4.00001
15.59198 7.03355 4.00000
15.67829 7.03355 4.00000
15.76463 7.03354 4.00000
15.85101 7.03354 4.00000
15.93742 7.03353 4.00000
16.02386 7.03353 4.00000
16.11033 7.03352 4.00000
16.19683 7.03352 4.00000
16.28337 7.03352 4.00000
16.36993 7.03351 4.00000
16.45653 7.03351 4.00000
16.54316 7.03351 4.00000
16.62982 7.03350 4.00000
16.71650 7.03350 4.00000
16.80322 7.03350 4.00000
16.88996 7.03350 4.00000
16.97674 7.03350 4.00000
17.06354 7.03350 4.00000
17.15037 7.03349 4.00000
17.23723 7.03349 4.00000
17.32411 7.03349 4.00000
17.41102 7.03349 4.00000
17.49796 7.03349 4.00000
17.58493 7.03349 4.00000
17.67192 7.03349 4.00000
17.75894 7.03349 4.00000
17.84598 7.03349 4.00000
17.93305 7.03349 4.00000
18.02014 7.03348 4.00000
18.10727 7.03348 4.00000
18.19440 7.03348 4.00000
18.28157 7.03348 4.00000
18.36876 7.03348 4.00000
18.45598 7.03348 4.00000
18.54322 7.03348 4.00000
18.63047 7.03348 4.00000
18.71776 7.03348 4.00000
18.80506 7.03349 4.00000
18.89240 7.03348 4.00000
18.97975 7.03348 4.00000
19.06713 7.03348 4.00000
19.15453 7.03347 4.00000
19.24194 7.03348 4.00000
19.32938 7.03348 4.00000
19.41684 7.03348 4.00000
19.50433 7.03347 4.00000
19.59183 7.03348 4.00000
19.67935 7.03348 4.00000
19.76690 7.03348 4.00000
19.85447 7.03348 4.00000
19.94205 7.03348 4.00000
20.02966 7.03348 4.00000
20.11728 7.03348 4.00000
20.20493 7.03348 4.00000
20.29260 7.03348 4.00000
20.38027 7.03348 4.00000
20.46798 7.03348 4.00000
20.55569 7.03348 4.00000
20.64343 7.03348 4.00000
20.73119 7.03348 4.00000
20.81896 7.03348 4.00000
20.90675 7.03348 4.00000
20.99456 7.03348 4.00000
21.08238 7.03348 4.00000
21.17023 7.03348 4.00000
21.25809 7.03348 4.00000
21.34595 7.03348 4.00000
21.43385 7.03348 4.00000
21.52175 7.03347 4.00000
21.60966 7.03348 4.00000
21.69759 7.03348 4.00000
21.78553 7.03348 4.00000
21.87349 7.03348 4.00000
21.96147 7.03348 4.00000
22.04946 7.03348 4.00000
22.13746 7.03348 4.00000
22.22548 7.03348 4.00000
22.31352 7.03348 4.00000
22.40157 7.03348 4.00000
22.48963 7.03348 4.00000
22.57771 7.03348 4.00000
22.66580 7.03348 4.00000
22.75390 7.03348 4.00000
22.84202 7.03348 4.00000
22.93016 7.03348 4.00000
23.01830 7.03348 4.00000
23.10646 7.03348 4.00000
23.19464 7.03348 4.00000
23.28282 7.03348 4.00000
23.37102 7.03348 4.00000
23.45924 7.03348 4.00000
23.54746 7.03348 4.00000
23.63570 7.03348 4.00000
23.72396 7.03348 4.00000
23.81222 7.03348 4.00000
23.90050 7.03348 4.00000
23.98879 7.03348 4.00000
24.07709 7.03348 4.00000
24.16540 7.03348 4.00000
24.25372 7.03348 4.00000
24.34206 7.03348 4.00000
24.43041 7.03348 4.00000
24.51876 7.03348 4.00000
24.60713 7.03348 4.00000
24.69552 7.03348 4.00000
24.78391 7.03348 4.00000
24.87231 7.03348 4.00000
24.96073 7.03348 4.00000
25.04915 7.03348 4.00000
25.13759 7.03348 4.00000
25.22604 7.03348 4.00000
25.31449 7.03348 4.00000
25.40296 7.03348 4.00000
25.49144 7.03348 4.00000
25.57993 7.03348 4.00000
25.66843 7.03348 4.00000
25.75694 7.03348 4.00000
25.84546 7.03348 4.00000
25.93399 7.03348 4.00000
26.02253 7.03348 4.00000
26.11108 7.03348 4.00000
26.19964 7.03348 4.00000
26.28821 7.03348 4.00000
26.37678 7.03348 4.00000
26.46537 7.03348 4.00000
26.55397 7.03348 4.00000
26.64258 7.03348 4.00000
26.73119 7.03349 4.00000
26.81983 7.03349 4.00000
26.90849 7.03348 4.00000
26.99714 7.03349 4.00000
27.08580 7.03349 4.00000
27.17448 7.03348 4.00000
27.26316 7.03348 4.00000
27.35184 7.03349 4.00000
27.44055 7.03349 4.00000
27.52927 7.03348 4.00000
27.61798 7.03348 4.00000
27.70670 7.03348 4.00000
27.79544 7.03348 4.00000
27.88418 7.03348 4.00000
27.97293 7.03348 4.00000
28.06168 7.03348 4.00000
28.15045 7.03348 4.00000
28.23923 7.03348 4.00000
28.32801 7.03348 4.00000
28.41681 7.03348 4.00000
28.50561 7.03348 4.00000
28.59442 7.03348 4.00000
28.68324 7.03348 4.00000
28.77207 7.03348 4.00000
28.86091 7.03348 4.00000
28.94975 7.03348 4.00000
29.03861 7.03348 4.00000
29.12747 7.03348 4.00000
29.21634 7.03348 4.00000
29.30522 7.03348 4.00000
29.39411 7.03348 4.00000
29.48301 7.03348 4.00000
29.57191 7.03348 4.00000
29.66083 7.03348 4.00000
29.74975 7.03348 4.00000
29.83867 7.03348 4.00000
29.92762 7.03348 4.00000
30.01657 7.03348 4.00000
30.10553 7.03348 4.00000
30.19450 7.03348 4.00000
30.28348 7.03348 4.00000
30.37246 7.03348 4.00000
30.46146 7.03348 4.00000
30.55046 7.03348 4.00000
30.63947 7.03348 4.00000
30.72849 7.03348 4.00000
30.81752 7.03348 4.00000
30.90655 7.03348 4.00000
30.99560 7.03348 4.00000
31.08465 7.03348 4.00000
31.17371 7.03348 4.00000
31.26277 7.03348 4.00000
31.35185 7.03348 4.00000
31.44093 7.03348 4.00000
31.53003 7.03348 4.00000
31.61912 7.03348 4.00000
31.70823 7.03348 4.00000
31.79735 7.03348 4.00000
31.88647 7.03348 4.00000
31.97560 7.03348 4.00000
32.06474 7.03348 4.00000
32.15389 7.03348 4.00000
32.24304 7.03348 4.00000
32.33220 7.03348 4.00000
32.42137 7.03348 4.00000
32.51054 7.03348 4.00000
32.59973 7.03348 4.00000
32.68892 7.03348 4.00000
32.77811 7.03348 4.00000
32.86730 7.03348 4.00000
32.95650 7.03348 4.00000
33.04570 7.03348 4.00000
33.13491 7.03348 4.00000
33.22412 7.03348 4.00000
33.31335 7.03348 4.00000
33.40258 7.03348 4.00000
33.49182 7.03348 4.00000
33.58106 7.03348 4.00000
33.67031 7.03348 4.00000
33.75957 7.03348 4.00000
33.84884 7.03348 4.00000
33.93811 7.03348 4.00000
34.02739 7.03348 4.00000
34.11667 7.03348 4.00000
34.20596 7.03348 4.00000
34.29525 7.03348 4.00000
34.38455 7.03348 4.00000
34.47385 7.03348 4.00000
34.56316 7.03348 4.00000
34.65248 7.03348 4.00000

