Angle 0.105492 2.943371

4.00000 7.03348 4.00000
4.00000 7.03348 4.00000
4.00000 7.03348 4.00000
4.00000 7.03351 4.00000
4.00000 7.03349 4.00000
4.00000 7.03348 4.00000
4.00000 7.03348 4.00000
4.00000 7.03350 4.00000
4.00000 7.03351 4.00000
4.00000 7.03348 4.00000
4.00000 7.03349 4.00000
4.00000 7.03348 4.00000
4.00000 7.03348 4.00000
4.00000 7.03348 4.00000
4.00000 7.03348 4.00000
4.00000 7.03348 4.00000
4.00000 7.03355 4.00000
4.00000 7.03348 4.00000
4.00000 7.03348 4.00000
4.00000 7.03348 4.00000
4.00000 7.03348 4.00000
4.00000 7.03348 4.00000
4.00000 7.03348 4.00000
4.00000 7.03349 4.00000
4.00000 7.03348 4.00000
4.00000 7.03348 4.00000
4.00000 7.03348 4.00000
4.00000 7.03348 4.00000
4.00000 7.03348 4.00000
4.00000 7.03348 4.00000
4.00000 7.03348 4.00000
4.00000 7.03349 4.00000
4.00000 7.03349 4.00000
4.00000 7.03348 4.00000
4.00000 7.03348 4.00000
4.00000 7.03346 4.00000
4.00000 7.03348 4.00000
4.00000 7.03349 4.00000
4.00000 7.03348 4.00000
4.00000 7.03349 4.00000
4.00000 7.03348 4.00000
4.00000 7.03348 4.00000
4.00000 7.03348 4.00000
4.00000 7.03348 4.00000
4.00000 7.03348 4.00000
4.00000 7.03348 4.00000
4.00000 7.03348 4.00000
4.00000 7.03348 4.00000
4.00000 7.03348 4.00000
4.00000 7.03350 4.00000
4.00000 7.03349 4.00000
4.00000 7.03347 4.00000
4.00000 7.03348 4.00000
4.00000 7.03347 4.00000
4.00000 7.03348 4.00000
4.00000 7.03348 4.00000
4.00000 7.03348 4.00000
4.00000 7.03347 4.00000
4.00000 7.03348 4.00000
4.00000 7.03348 4.00000
4.00000 7.03348 4.00000
4.00000 7.03348 4.00000
4.00000 7.03349 4.00000
4.00000 7.03347 4.00000
4.00000 7.03348 4.00000
4.00000 7.03348 4.00000
4.00000 7.03348 4.00000
4.00000 7.03348 4.00000
4.00000 7.03348 4.00000
4.00000 7.03346 4.00000
4.00000 7.03347 4.00000
4.00000 7.03348 4.00000
4.00000 7.03348 4.00000
4.00000 7.03348 4.00000
4.00000 7.03348 4.00000
4.00000 7.03347 4.00000
4.00000 7.03347 4.00000
4.00000 7.03346 4.00000
4.00000 7.03348 4.00000
4.00000 7.03348 4.00000
4.00000 7.03348 4.00000
4.00000 7.03348 4.00000
4.00000 7.03348 4.00000
4.00000 7.03347 4.00000
4.00000 7.03348 4.00000
4.00000 7.03348 4.00000
4.00000 7.03348 4.00000
4.00000 7.03348 4.00000
4.00000 7.03348 4.00000
4.00000 7.03347 4.00000
4.00000 7.03348 4.00000
4.00000 7.03348 4.00000
4.00000 7.03348 4.00000
4.00000 7.03348 4.00000
4.00000 7.03348 4.00000
4.00000 7.03348 4.00000
4.00000 7.03347 4.00000
4.00000 7.03348 4.00000
4.00000 7.03348 4.00000
4.00000 7.03345 4.00000
4.00000 7.03346 4.00000
4.00000 7.03348 4.00000
4.00000 7.03348 4.00000
4.00000 7.03348 4.00000
4.00000 7.03348 4.00000
4.00000 7.03348 4.00000
4.00000 7.03348 4.00000
4.00000 7.03348 4.00000
4.00000 7.03348 4.00000
4.00000 7.03348 4.00000
4.00000 7.03348 4.00000
4.00000 7.03348 4.00000
4.00000 7.03348 4.00000
4.00000 7.03348 4.00000
4.00000 7.03348 4.00000
4.00000 7.03348 4.00000
4.00000 7.03348 4.00000
4.00000 7.03348 4.00000
4.00000 7.03348 4.00000
4.00000 7.03348 4.00000
4.00000 7.03348 4.00000
4.00000 7.03348 4.00000
4.00000 7.03348 4.00000
4.00000 7.03348 4.00000
4.00000 7.03348 4.00000
4.00000 7.03348 4.00000
4.00000 7.03348 4.00000
4.00000 7.03348 4.00000
4.00000 7.03348 4.00000
4.00000 7.03348 4.00000
4.00000 7.03348 4.00000
4.00000 7.03348 4.00000
4.00000 7.03348 4.00000
4.00000 7.03348 4.00000
4.00000 7.03348 4.00000
4.00000 7.03348 4.00000
4.00000 7.03348 4.00000
4.00000 7.03348 4.00000
4.00000 7.03348 4.00000
4.00000 7.03348 4.00000
4.00000 7.03348 4.00000
4.00000 7.03348 4.00000
4.00000 7.03348 4.00000
4.00000 7.03348 4.00000
4.00000 7.03348 4.00000
4.00000 7.03348 4.00000
4.00000 7.03348 4.00000
4.00000 7.03348 4.00000
4.00000 7.03348 4.00000
4.00000 7.03348 4.00000
4.00000 7.03349 4.00000
4.00000 7.03353 4.00000
4.00000 7.03348 4.00000
4.00000 7.03349 4.00000
4.00000 7.03348 4.00000
4.00000 7.03348 4.00000
4.00000 7.03348 4.00000
4.00344 7.08653 4.00343
4.00830 7.16285 4.00830
4.01310 7.23941 4.01310
4.01785 7.31614 4.01785
4.02259 7.39300 4.02259
4.02731 7.46994 4.02731
4.03204 7.54689 4.03204
4.03680 7.62382 4.03680
4.04162 7.70065 4.04162
4.04650 7.77733 4.04650
4.05148 7.85380 4.05148
4.05659 7.92998 4.05659
4.06184 8.00580 4.06184
4.06729 8.08116 4.06729
4.07296 8.15597 4.07296
4.07890 8.23011 4.07890
4.08516 8.30345 4.08516
4.09180 8.37582 4.09180
4.09890 8.44706 4.09890
4.10653 8.51696 4.10653
4.11481 8.58526 4.11481
4.12383 8.65167 4.12384
4.13368 8.71606 4.13368
4.14429 8.77861 4.14429
4.15568 8.83928 4.15567
4.16789 8.89798 4.16789
4.18097 8.95466 4.18097
4.19494 9.00925 4.19494
4.20983 9.06173 4.20983
4.22566 9.11206 4.22566
4.24246 9.16024 4.24246
4.26023 9.20623 4.26023
4.27900 9.25005 4.27900
4.29877 9.29169 4.29877
4.31956 9.33115 4.31956
4.34138 9.36841 4.34138
4.36424 9.40346 4.36424
4.38819 9.43624 4.38819
4.41324 9.46669 4.41325
4.43946 9.49472 4.43946
4.46691 9.52018 4.46692
4.49568 9.54288 4.49568
4.52588 9.56260 4.52588
4.55764 9.57904 4.55763
4.59112 9.59184 4.59111
4.62649 9.60064 4.62649
4.66404 9.60505 4.66386
4.70374 9.60470 4.70355
4.74566 9.59935 4.74578
4.02123 7.37093 7.71659
4.01842 7.32527 7.85005
4.01613 7.28823 7.97478
4.01422 7.25749 8.09315
4.01261 7.23153 8.20670
4.01122 7.20933 8.31647
4.01002 7.19016 8.42320
4.00897 7.17349 8.52744
4.00805 7.15888 8.62962
4.00723 7.14603 8.73006
4.00651 7.13467 8.82902
4.00587 7.12459 8.92673
4.00530 7.11561 9.02335
4.00479 7.10761 9.11903
4.00433 7.10044 9.21390
4.00392 7.09402 9.30805
4.00355 7.08826 9.40158
4.00321 7.08308 9.49455
4.00291 7.07841 9.58704
4.00264 7.07421 9.67910
4.00240 7.07041 9.77079
4.00218 7.06698 9.86214
4.00197 7.06388 9.95319
4.00179 7.06108 10.04398
4.00163 7.05854 10.13454
4.00148 7.05624 10.22489
4.00134 7.05415 10.31506
4.00122 7.05227 10.40506
4.00111 7.05055 10.49493
4.00101 7.04900 10.58466
4.00092 7.04759 10.67429
4.00083 7.04630 10.76381
4.00076 7.04514 10.85325
4.00069 7.04408 10.94262
4.00063 7.04312 11.03192
4.00057 7.04225 11.12116
4.00052 7.04145 11.21035
4.00047 7.04073 11.29949
4.00043 7.04008 11.38860
4.00039 7.03948 11.47768
4.00036 7.03894 11.56674
4.00032 7.03844 11.65577
4.00030 7.03800 11.74478
4.00027 7.03759 11.83378
4.00024 7.03722 11.92278
4.00022 7.03688 12.01176
4.00020 7.03657 12.10074
4.00018 7.03629 12.18971
4.00017 7.03604 12.27869
4.00015 7.03581 12.36766
4.00014 7.03560 12.45664
4.00013 7.03541 12.54562
4.00012 7.03523 12.63461
4.00011 7.03507 12.72361
4.00010 7.03493 12.81261
4.00009 7.03480 12.90163
4.00008 7.03468 12.99065
4.00007 7.03457 13.07968
4.00007 7.03447 13.16873
4.00006 7.03438 13.25778
4.00005 7.03430 13.34685
4.00005 7.03423 13.43593
4.00005 7.03416 13.52502
4.00004 7.03410 13.61413
4.00004 7.03404 13.70325
4.00003 7.03399 13.79238
4.00003 7.03394 13.88153
4.00003 7.03390 13.97069
4.00003 7.03386 14.05986
4.00002 7.03383 14.14905
4.00002 7.03380 14.23825
4.00002 7.03377 14.32746
4.00002 7.03374 14.41669
4.00002 7.03372 14.50593
4.00001 7.03370 14.59518
4.00001 7.03368 14.68445
4.00001 7.03366 14.77373
4.00001 7.03364 14.86303
4.00001 7.03363 14.95233
4.00001 7.03361 15.04166
4.00001 7.03360 15.13099
4.00001 7.03359 15.22034
4.00001 7.03358 15.30970
4.00001 7.03357 15.39907
4.00001 7.03356 15.48845
4.00001 7.03356 15.57785
4.00000 7.03355 15.66726
4.00000 7.03354 15.75668
4.00000 7.03354 15.84611
4.00000 7.03353 15.93556
4.00000 7.03353 16.02501
4.00000 7.03352 16.11448
4.00000 7.03352 16.20396
4.00000 7.03352 16.29345
4.00000 7.03351 16.38295
4.00000 7.03351 16.47246
4.00000 7.03351 16.56199
4.00000 7.03350 16.65152
4.00000 7.03350 16.74106
4.00000 7.03350 16.83062
4.00000 7.03350 16.92018
4.00000 7.03350 17.00976
4.00000 7.03349 17.09934
4.00000 7.03349 17.18893
4.00000 7.03349 17.27854
4.00000 7.03349 17.36815
4.00000 7.03349 17.45777
4.00000 7.03349 17.54740
4.00000 7.03349 17.63704
4.00000 7.03349 17.72669
4.00000 7.03348 17.81635
4.00000 7.03349 17.90601
4.00000 7.03348 17.99569
4.00000 7.03348 18.08537
4.00000 7.03348 18.17507
4.00000 7.03348 18.26476
4.00000 7.03348 18.35447
4.00000 7.03348 18.44419
4.00000 7.03348 18.53391
4.00000 7.03348 18.62364
4.00000 7.03348 18.71337
4.00000 7.03348 18.80312
4.00000 7.03348 18.89287
4.00000 7.03348 18.98263
4.00000 7.03347 19.07240
4.00000 7.03347 19.16217
4.00000 7.03347 19.25196
4.00000 7.03347 19.34174
4.00000 7.03347 19.43154
4.00000 7.03348 19.52134
4.00000 7.03348 19.61114
4.00000 7.03348 19.70096
4.00000 7.03348 19.79078
4.00000 7.03348 19.88061
4.00000 7.03348 19.97045
4.00000 7.03348 20.06029
4.00000 7.03348 20.15014
4.00000 7.03348 20.24000
4.00000 7.03348 20.32986
4.00000 7.03348 20.41973
4.00000 7.03348 20.50960
4.00000 7.03348 20.59948
4.00000 7.03348 20.68936
4.00000 7.03348 20.77925
4.00000 7.03348 20.86914
4.00000 7.03348 20.95904
4.00000 7.03348 21.04895
4.00000 7.03348 21.13886
4.00000 7.03348 21.22878
4.00000 7.03348 21.31870
4.00000 7.03348 21.40863
4.00000 7.03348 21.49857
4.00000 7.03348 21.58851
4.00000 7.03348 21.67845
4.00000 7.03348 21.76840
4.00000 7.03348 21.85836
4.00000 7.03348 21.94832
4.00000 7.03348 22.03828
4.00000 7.03348 22.12825
4.00000 7.03348 22.21823
4.00000 7.03348 22.30820
4.00000 7.03348 22.39819
4.00000 7.03348 22.48817
4.00000 7.03348 22.57816
4.00000 7.03348 22.66816
4.00000 7.03348 22.75816
4.00000 7.03347 22.84817
4.00000 7.03348 22.93817
4.00000 7.03348 23.02818
4.00000 7.03347 23.11820
4.00000 7.03348 23.20821
4.00000 7.03348 23.29824
4.00000 7.03347 23.38827
4.00000 7.03348 23.47829
4.00000 7.03348 23.56834
4.00000 7.03348 23.65838
4.00000 7.03348 23.74842
4.00000 7.03347 23.83849
4.00000 7.03348 23.92853
4.00000 7.03348 24.01859
4.00000 7.03348 24.10865
4.00000 7.03348 24.19871
4.00000 7.03348 24.28878
4.00000 7.03348 24.37886
4.00000 7.03348 24.46893
4.00000 7.03348 24.55901
4.00000 7.03348 24.64910
4.00000 7.03348 24.73918
4.00000 7.03348 24.82928
4.00000 7.03348 24.91937
4.00000 7.03348 25.00947
4.00000 7.03348 25.09956
4.00000 7.03348 25.18966
4.00000 7.03348 25.27976

Angle 0.424232 4.678532

4.00000 7.03348 4.00000
4.00000 7.03348 4.00000
4.00000 7.03348 4.00000
4.00000 7.03348 4.00000
4.00000 7.03347 4.00000
4.00000 7.03348 4.00000
4.00000 7.03348 4.00000
4.00000 7.03348 4.00000
4.00000 7.03348 4.00000
4.00000 7.03348 4.00000
4.00000 7.03348 4.00000
4.00000 7.03348 4.00000
4.00000 7.03348 4.00000
4.00000 7.03348 4.00000
4.00000 7.03348 4.00000
4.00000 7.03348 4.00000
4.00000 7.03348 4.00000
4.00000 7.03348 4.00000
4.00000 7.03348 4.00000
4.00000 7.03348 4.00000
4.00000 7.03348 4.00000
4.00000 7.03348 4.00000
4.00000 7.03348 4.00000
4.00000 7.03348 4.00000
4.00000 7.03348 4.00000
4.00000 7.03348 4.00000
4.00000 7.03348 4.00000
4.00000 7.03348 4.00000
4.00000 7.03348 4.00000
4.00000 7.03348 4.00000
4.00000 7.03348 4.00000
4.00000 7.03349 4.00000
4.00000 7.03348 4.00000
4.00000 7.03348 4.00000
4.00000 7.03348 4.00000
4.00000 7.03348 4.00000
4.00000 7.03348 4.00000
4.00000 7.03348 4.00000
4.00000 7.03348 4.00000
4.00000 7.03348 4.00000
4.00000 7.03348 4.00000
4.00000 7.03348 4.00000
4.00000 7.03348 4.00000
4.00000 7.03348 4.00000
4.00000 7.03348 4.00000
4.00000 7.03348 4.00000
4.00000 7.03348 4.00000
4.00000 7.03348 4.00000
4.00000 7.03348 4.00000
4.00000 7.03350 4.00000
4.00000 7.03348 4.00000
4.00000 7.03348 4.00000
4.00000 7.03348 4.00000
4.00000 7.03347 4.00000
4.00000 7.03347 4.00000
4.00000 7.03347 4.00000
4.00000 7.03347 4.00000
4.00000 7.03347 4.00000
4.00000 7.03347 4.00000
4.00000 7.03347 4.00000
4.00000 7.03348 4.00000
4.00000 7.03348 4.00000
4.00000 7.03348 4.00000
4.00000 7.03348 4.00000
4.00000 7.03348 4.00000
4.00000 7.03348 4.00000
4.00000 7.03347 4.00000
4.00000 7.03348 4.00000
4.00000 7.03348 4.00000
4.00000 7.03348 4.00000
4.00000 7.03348 4.00000
4.00000 7.03351 4.00000
4.00000 7.03348 4.00000
4.00000 7.03348 4.00000
4.00000 7.03348 4.00000
4.00000 7.03348 4.00000
4.00000 7.03348 4.00000
4.00000 7.03348 4.00000
4.00000 7.03348 4.00000
4.00000 7.03348 4.00000
4.00000 7.03348 4.00000
4.00000 7.03348 4.00000
4.00000 7.03348 4.00000
4.00000 7.03348 4.00000
4.00000 7.03348 4.00000
4.00000 7.03348 4.00000
4.00000 7.03348 4.00000
4.00000 7.03348 4.00000
4.00000 7.03348 4.00000
4.00000 7.03348 4.00000
4.00000 7.03348 4.00000
4.00000 7.03348 4.00000
4.00000 7.03348 4.00000
4.00000 7.03348 4.00000
4.00000 7.03348 4.00000
4.00000 7.03348 4.00000
4.00000 7.03348 4.00000
4.00000 7.03348 4.00000
4.00000 7.03348 4.00000
4.00000 7.03348 4.00000
4.00000 7.03348 4.00000
4.00000 7.03348 4.00000
4.00000 7.03348 4.00000
4.00000 7.03348 4.00000
4.00000 7.03348 4.00000
4.00000 7.03348 4.00000
4.00000 7.03348 4.00000
4.00000 7.03348 4.00000
4.00000 7.03348 4.00000
4.00000 7.03348 4.00000
4.00000 7.03348 4.00000
4.00000 7.03348 4.00000
4.00000 7.03350 4.00000
4.00000 7.03348 4.00000
4.00000 7.03348 4.00000
4.00000 7.03348 4.00000
4.00000 7.03348 4.00000
4.00000 7.03348 4.00000
4.00000 7.03348 4.00000
4.00000 7.03348 4.00000
4.00000 7.03348 4.00000
4.00000 7.03348 4.00000
4.00000 7.03348 4.00000
4.00000 7.03348 4.00000
4.00000 7.03348 4.00000
4.00000 7.03348 4.00000
4.00000 7.03348 4.00000
4.00000 7.03348 4.00000
4.00000 7.03349 4.00000
4.00000 7.03349 4.00000
4.00000 7.03349 4.00000
4.00000 7.03349 4.00000
4.00000 7.03348 4.00000
4.00000 7.03349 4.00000
4.00000 7.03349 4.00000
4.00000 7.03349 4.00000
4.00000 7.03348 4.00000
4.00000 7.03348 4.00000
4.00000 7.03349 4.00000
4.00000 7.03349 4.00000
4.00000 7.03349 4.00000
4.00000 7.03349 4.00000
4.00000 7.03348 4.00000
4.00000 7.03350 4.00000
4.00000 7.03348 4.00000
4.00000 7.03348 4.00000
4.00000 7.03348 4.00000
4.00000 7.03348 4.00000
4.00000 7.03348 4.00000
4.00000 7.03348 4.00000
4.00000 7.03349 4.00000
4.00000 7.03348 4.00000
4.00000 7.03348 4.00000
4.00000 7.03348 4.00000
4.00000 7.03348 4.00000
4.00000 7.03348 4.00000
4.00000 7.03348 4.00000
4.00000 7.03348 4.00000
4.00000 7.03348 4.00000
4.00000 7.03349 4.00000
4.00000 7.03347 4.00000
4.00000 7.03348 4.00000
4.00000 7.03347 4.00000
4.00000 7.03348 4.00000
4.00000 7.03348 4.00000
4.00000 7.03348 4.00000
4.00000 7.03349 4.00000
4.00000 7.03348 4.00000
4.00000 7.03348 4.00000
4.00000 7.03348 4.00000
4.00000 7.03348 4.00000
4.00000 7.03348 4.00000
4.00000 7.03348 4.00000
4.00000 7.03348 4.00000
4.00000 7.03348 4.00000
4.00000 7.03348 4.00000
4.00000 7.03348 4.00000
4.00000 7.03348 4.00000
4.00000 7.03348 4.00000
4.00000 7.03348 4.00000
4.00000 7.03348 4.00000
4.00000 7.03348 4.00000
4.00000 7.03348 4.00000
4.00000 7.03348 4.00000
4.00000 7.03348 4.00000
4.00000 7.03348 4.00000
4.00000 7.03348 4.00000
4.00000 7.03348 4.00000
4.00000 7.03347 4.00000
4.00000 7.03348 4.00000
4.00000 7.03348 4.00000
4.00000 7.03348 4.00000
4.00000 7.03348 4.00000
4.00000 7.03348 4.00000
4.00000 7.03348 4.00000
4.00000 7.03346 4.00000
4.00000 7.03348 4.00000
4.00000 7.03348 4.00000
4.00000 7.03348 4.00000
4.00000 7.03348 4.00000
4.00000 7.03348 4.00000
4.00000 7.03348 4.00000
4.00000 7.03348 4.00000
4.00000 7.03348 4.00000
4.00000 7.03348 4.00000
4.00000 7.03348 4.00000
4.00000 7.03347 4.00000
4.00000 7.03347 4.00000
4.00000 7.03348 4.00000
4.00000 7.03348 4.00000
4.00000 7.03348 4.00000
4.00000 7.03348 4.00000
4.00000 7.03348 4.00000
4.00000 7.03348 4.00000
4.00000 7.03348 4.00000
4.00000 7.03348 4.00000
4.00000 7.03348 4.00000
4.00000 7.03348 4.00000
4.00000 7.03348 4.00000
4.00000 7.03348 4.00000
4.00000 7.03348 4.00000
4.00000 7.03348 4.00000
4.00244 7.07101 4.00244
4.00711 7.14417 4.00711
4.01174 7.21758 4.01174
4.01631 7.29122 4.01632
4.02087 7.36504 4.02087
4.02541 7.43897 4.02541
4.02995 7.51298 4.02995
4.03452 7.58702 4.03452
4.03913 7.66104 4.03913
4.04379 7.73499 4.04379
4.04854 7.80881 4.04854
4.05338 7.88243 4.05338
4.05835 7.95579 4.05836
4.06348 8.02882 4.06348
4.06880 8.10143 4.06880
4.07433 8.17353 4.07433
4.08013 8.24501 4.08013
4.08625 8.31573 4.08625
4.09274 8.38557 4.09274
4.09966 8.45435 4.09966
4.10710 8.52187 4.10710
4.11515 8.58790 4.11515
4.12391 8.65218 4.12391
4.13345 8.71457 4.13345
4.14369 8.77528 4.14369
4.15468 8.83423 4.15468
4.16645 8.89136 4.16645
4.17903 8.94660 4.17903
4.19245 8.99992 4.19245
4.20673 9.05126 4.20673
4.22191 9.10061 4.22191
4.23800 9.14792 4.23800
4.25501 9.19321 4.25501
4.27297 9.23645 4.27297
4.29187 9.27764 4.29187
4.31174 9.31679 4.31174
4.33258 9.35387 4.33258
4.35442 9.38887 4.35442
4.37727 9.42176 4.37727
4.40116 9.45248 4.40116
4.42615 9.48095 4.42615
4.45227 9.50707 4.45227
4.47961 9.53068 4.47960
4.50824 9.55159 4.50824
4.53830 9.56954 4.53830
4.56991 9.58426 4.56991
4.60322 9.59539 4.60322
4.63841 9.60257 4.63841
4.67565 9.60546 4.67565
4.02813 7.48327 7.45249
4.02380 7.41283 7.60909
4.02052 7.35942 7.74840
4.01790 7.31694 7.87665
4.01575 7.28211 7.99717
4.01394 7.25296 8.11199
4.01240 7.22819 8.22240
4.01107 7.20690 8.32934
4.00991 7.18844 8.43346
4.00889 7.17231 8.53528
4.00800 7.15814 8.63516
4.00721 7.14562 8.73342
4.00650 7.13452 8.83029
4.00587 7.12466 8.92597
4.00531 7.11585 9.02063
4.00481 7.10797 9.11440
4.00436 7.10091 9.20740
4.00395 7.09457 9.29973
4.00359 7.08886 9.39146
4.00325 7.08371 9.48268
4.00296 7.07907 9.57343
4.00269 7.07489 9.66378
4.00244 7.07108 9.75380
4.00222 7.06765 9.84348
4.00202 7.06455 9.93289
4.00184 7.06172 10.02207
4.00167 7.05917 10.11101
4.00152 7.05686 10.19977
4.00138 7.05475 10.28836
4.00126 7.05284 10.37681
4.00115 7.05110 10.46512
4.00104 7.04952 10.55333
4.00095 7.04809 10.64143
4.00087 7.04678 10.72944
4.00079 7.04559 10.81738
4.00072 7.04451 10.90527
4.00065 7.04352 10.99309
4.00060 7.04264 11.08086
4.00054 7.04182 11.16860
4.00049 7.04107 11.25631
4.00045 7.04040 11.34398
4.00041 7.03978 11.43164
4.00037 7.03922 11.51929
4.00034 7.03869 11.60694
4.00031 7.03824 11.69455
4.00028 7.03778 11.78221
4.00026 7.03741 11.86981
4.00024 7.03708 11.95741
4.00021 7.03676 12.04504
4.00019 7.03647 12.13267
4.00018 7.03620 12.22032
4.00016 7.03596 12.30797
4.00015 7.03574 12.39564
4.00013 7.03554 12.48332
4.00012 7.03536 12.57102
4.00011 7.03519 12.65873
4.00010 7.03504 12.74646
4.00009 7.03490 12.83421
4.00008 7.03477 12.92198
4.00007 7.03466 13.00977
4.00007 7.03455 13.09757
4.00006 7.03446 13.18540
4.00006 7.03437 13.27324
4.00005 7.03429 13.36111
4.00005 7.03422 13.44900
4.00004 7.03415 13.53691
4.00004 7.03409 13.62485
4.00004 7.03404 13.71280
4.00003 7.03399 13.80078
4.00003 7.03394 13.88877
4.00003 7.03390 13.97680
4.00002 7.03386 14.06484
4.00002 7.03383 14.15290
4.00002 7.03380 14.24099
4.00002 7.03377 14.32909
4.00002 7.03374 14.41722
4.00002 7.03372 14.50537
4.00001 7.03370 14.59354
4.00001 7.03368 14.68174
4.00001 7.03366 14.76995
4.00001 7.03364 14.85819
4.00001 7.03363 14.94644
4.00001 7.03362 15.03472
4.00001 7.03360 15.12301
4.00001 7.03359 15.21133
4.00001 7.03358 15.29966
4.00001 7.03357 15.38801
4.00001 7.03356 15.47639
4.00000 7.03356 15.56478
4.00000 7.03355 15.65319
4.00000 7.03354 15.74163
4.00000 7.03354 15.83008
4.00000 7.03353 15.91855
4.00000 7.03353 16.00703
4.00000 7.03352 16.09554
4.00000 7.03352 16.18406
4.00000 7.03352 16.27260
4.00000 7.03351 16.36116
4.00000 7.03351 16.44974
4.00000 7.03350 16.53833
4.00000 7.03350 16.62694
4.00000 7.03350 16.71557
4.00000 7.03349 16.80421
4.00000 7.03350 16.89286
4.00000 7.03349 16.98154
4.00000 7.03349 17.07023
4.00000 7.03349 17.15893
4.00000 7.03349 17.24765
4.00000 7.03349 17.33638
4.00000 7.03348 17.42513
4.00000 7.03348 17.51390
4.00000 7.03348 17.60268
4.00000 7.03348 17.69147
4.00000 7.03348 17.78028
4.00000 7.03348 17.86910
4.00000 7.03348 17.95793
4.00000 7.03348 18.04678
4.00000 7.03348 18.13564
4.00000 7.03348 18.22451
4.00000 7.03349 18.31340
4.00000 7.03348 18.40230
4.00000 7.03348 18.49122
4.00000 7.03348 18.58015
4.00000 7.03348 18.66909
4.00000 7.03348 18.75804
4.00000 7.03348 18.84700
4.00000 7.03348 18.93598
4.00000 7.03348 19.02497
4.00000 7.03348 19.11397

Angle 0.614179 5.515888

4.00000 7.03348 4.00000
4.00000 7.03348 4.00000
4.00000 7.03348 4.00000
4.00000 7.03348 4.00000
4.00000 7.03348 4.00000
4.00000 7.03348 4.00000
4.00000 7.03348 4.00000
4.00000 7.03348 4.00000
4.00000 7.03348 4.00000
4.00000 7.03348 4.00000
4.00000 7.03348 4.00000
4.00000 7.03348 4.00000
4.00000 7.03348 4.00000
4.00000 7.03349 4.00000
4.00000 7.03348 4.00000
4.00000 7.03348 4.00000
4.00000 7.03348 4.00000
4.00000 7.03348 4.00000
4.00000 7.03348 4.00000
4.00000 7.03348 4.00000
4.00000 7.03348 4.00000
4.00000 7.03347 4.00000
4.00000 7.03348 4.00000
4.00000 7.03350 4.00000
4.00000 7.03348 4.00000
4.00000 7.03349 4.00000
4.00000 7.03348 4.00000
4.00000 7.03348 4.00000
4.00000 7.03348 4.00000
4.00000 7.03348 4.00000
4.00000 7.03348 4.00000
4.00000 7.03349 4.00000
4.00000 7.03348 4.00000
4.00000 7.03348 4.00000
4.00000 7.03347 4.00000
4.00000 7.03347 4.00000
4.00000 7.03348 4.00000
4.00000 7.03348 4.00000
4.00000 7.03348 4.00000
4.00000 7.03349 4.00000
4.00000 7.03349 4.00000
4.00000 7.03349 4.00000
4.00000 7.03348 4.00000
4.00000 7.03347 4.00000
4.00000 7.03348 4.00000
4.00000 7.03348 4.00000
4.00000 7.03348 4.00000
4.00000 7.03348 4.00000
4.00000 7.03348 4.00000
4.00000 7.03349 4.00000
4.00000 7.03349 4.00000
4.00000 7.03349 4.00000
4.00000 7.03348 4.00000
4.00000 7.03347 4.00000
4.00000 7.03348 4.00000
4.00000 7.03348 4.00000
4.00000 7.03348 4.00000
4.00000 7.03348 4.00000
4.00000 7.03348 4.00000
4.00000 7.03348 4.00000
4.00000 7.03348 4.00000
4.00000 7.03348 4.00000
4.00000 7.03348 4.00000
4.00000 7.03348 4.00000
4.00000 7.03348 4.00000
4.00000 7.03348 4.00000
4.00000 7.03348 4.00000
4.00000 7.03348 4.00000
4.00000 7.03348 4.00000
4.00000 7.03346 4.00000
4.00000 7.03346 4.00000
4.00000 7.03348 4.00000
4.00000 7.03347 4.00000
4.00000 7.03347 4.00000
4.00000 7.03347 4.00000
4.00000 7.03347 4.00000
4.00000 7.03347 4.00000
4.00000 7.03347 4.00000
4.00000 7.03348 4.00000
4.00000 7.03349 4.00000
4.00000 7.03348 4.00000
4.00000 7.03348 4.00000
4.00000 7.03348 4.00000
4.00000 7.03348 4.00000
4.00000 7.03348 4.00000
4.00000 7.03348 4.00000
4.00000 7.03348 4.00000
4.00000 7.03348 4.00000
4.00000 7.03348 4.00000
4.00000 7.03348 4.00000
4.00000 7.03349 4.00000
4.00000 7.03349 4.00000
4.00000 7.03348 4.00000
4.00000 7.03348 4.00000
4.00000 7.03348 4.00000
4.00379 7.09209 4.00379
4.00852 7.16643 4.00852
4.01320 7.24102 4.01320
4.01783 7.31580 4.01783
4.02245 7.39073 4.02245
4.02705 7.46575 4.02705
4.03167 7.54082 4.03167
4.03631 7.61589 4.03631
4.04100 7.69090 4.04100
4.04576 7.76580 4.04576
4.05061 7.84052 4.05061
4.05557 7.91501 4.05557
4.06067 7.98919 4.06067
4.06595 8.06297 4.06595
4.07143 8.13627 4.07143
4.07717 8.20897 4.07717
4.08319 8.28097 4.08319
4.08957 8.35212 4.08957
4.09636 8.42225 4.09636
4.10363 8.49119 4.10363
4.11148 8.55871 4.11148
4.12001 8.62455 4.12001
4.12934 8.68844 4.12934
4.13940 8.75055 4.13940
4.15020 8.81089 4.15020
4.16178 8.86939 4.16178
4.17418 8.92597 4.17418
4.18743 8.98059 4.18742
4.20155 9.03321 4.20154
4.21657 9.08378 4.21656
4.23251 9.13229 4.23251
4.24938 9.17872 4.24939
4.26722 9.22306 4.26722
4.28601 9.26531 4.28601
4.30578 9.30547 4.30578
4.32655 9.34352 4.32654
4.34831 9.37945 4.34831
4.37110 9.41324 4.37110
4.39495 9.44483 4.39495
4.41989 9.47415 4.41989
4.44597 9.50110 4.44597
4.47326 9.52553 4.47326
4.50186 9.54725 4.50186
4.53186 9.56603 4.53188
4.56343 9.58158 4.56342
4.59668 9.59354 4.59668
4.63181 9.60157 4.63182
4.66899 9.60528 4.66899
4.70839 9.60434 4.70834
7.58576 7.42258 4.02440
7.72839 7.36660 4.02096
7.85907 7.32242 4.01824
7.98151 7.28638 4.01601
8.09792 7.25634 4.01415
8.20971 7.23088 4.01257
8.31785 7.20908 4.01120
8.42306 7.19019 4.01002
8.52587 7.17373 4.00898
8.62669 7.15928 4.00807
8.72582 7.14655 4.00727
8.82351 7.13527 4.00655
8.91999 7.12525 4.00591
9.01541 7.11632 4.00534
9.10991 7.10833 4.00483
9.20362 7.10119 4.00438
9.29663 7.09477 4.00396
9.38904 7.08900 4.00359
9.48091 7.08381 4.00326
9.57231 7.07913 4.00296
9.66329 7.07491 4.00269
9.75392 7.07108 4.00244
9.84421 7.06763 4.00222
9.93422 7.06451 4.00202
10.02398 7.06167 4.00183
10.11352 7.05910 4.00167
10.20285 7.05678 4.00152
10.29201 7.05467 4.00138
10.38101 7.05276 4.00125
10.46989 7.05101 4.00114
10.55864 7.04943 4.00104
10.64729 7.04799 4.00094
10.73585 7.04669 4.00086
10.82432 7.04551 4.00078
10.91273 7.04442 4.00071
11.00108 7.04345 4.00065
11.08938 7.04255 4.00059
11.17763 7.04174 4.00054
11.26585 7.04100 4.00049
11.35404 7.04033 4.00045
11.44220 7.03971 4.00041
11.53035 7.03916 4.00037
11.61848 7.03865 4.00034
11.70660 7.03819 4.00031
11.79471 7.03776 4.00028
11.88282 7.03738 4.00025
11.97092 7.03703 4.00023
12.05903 7.03671 4.00021
12.14715 7.03642 4.00019
12.23525 7.03616 4.00018
12.32338 7.03592 4.00016
12.41151 7.03571 4.00014
12.49965 7.03550 4.00013
12.58780 7.03533 4.00012
12.67597 7.03516 4.00011
12.76415 7.03500 4.00010
12.85235 7.03487 4.00009
12.94056 7.03474 4.00008
13.02880 7.03462 4.00007
13.11705 7.03452 4.00007
13.20530 7.03444 4.00006
13.29358 7.03435 4.00006
13.38188 7.03427 4.00005
13.47020 7.03420 4.00005
13.55853 7.03414 4.00004
13.64689 7.03408 4.00004
13.73526 7.03402 4.00004
13.82365 7.03397 4.00003
13.91207 7.03393 4.00003
14.00050 7.03389 4.00003
14.08895 7.03385 4.00003
14.17742 7.03382 4.00002
14.26590 7.03379 4.00002
14.35441 7.03376 4.00002
14.44294 7.03374 4.00002
14.53149 7.03371 4.00002
14.62005 7.03369 4.00001
14.70863 7.03367 4.00001
14.79724 7.03366 4.00001
14.88586 7.03364 4.00001
14.97450 7.03362 4.00001
15.06316 7.03361 4.00001
15.15183 7.03360 4.00001
15.24053 7.03359 4.00001
15.32924 7.03358 4.00001
15.41797 7.03357 4.00001
15.50672 7.03356 4.00001
15.59549 7.03355 4.00001
15.68428 7.03355 4.00001
15.77308 7.03354 4.00000
15.86190 7.03354 4.00000
15.95074 7.03353 4.00000
16.03960 7.03353 4.00000
16.12847 7.03352 4.00000
16.21736 7.03352 4.00000
16.30627 7.03351 4.00000
16.39519 7.03351 4.00000
16.48414 7.03351 4.00000
16.57309 7.03351 4.00000
16.66207 7.03350 4.00000
16.75106 7.03350 4.00000
16.84007 7.03350 4.00000
16.92909 7.03350 4.00000
17.01813 7.03350 4.00000
17.10719 7.03349 4.00000
17.19626 7.03349 4.00000
17.28535 7.03349 4.00000
17.37445 7.03349 4.00000
17.46356 7.03349 4.00000
17.55269 7.03349 4.00000
17.64182 7.03349 4.00000
17.73097 7.03349 4.00000
17.82013 7.03349 4.00000
17.90930 7.03349 4.00000
17.99848 7.03349 4.00000
18.08767 7.03348 4.00000
18.17687 7.03348 4.00000
18.26608 7.03348 4.00000
18.35530 7.03348 4.00000
18.44453 7.03348 4.00000
18.53378 7.03348 4.00000
18.62303 7.03348 4.00000
18.71229 7.03348 4.00000
18.80156 7.03348 4.00000
18.89083 7.03348 4.00000
18.98012 7.03348 4.00000
19.06942 7.03348 4.00000
19.15872 7.03348 4.00000
19.24804 7.03348 4.00000
19.33736 7.03348 4.00000
19.42669 7.03348 4.00000
19.51603 7.03348 4.00000
19.60538 7.03348 4.00000
19.69473 7.03348 4.00000
19.78410 7.03348 4.00000
19.87347 7.03348 4.00000
19.96285 7.03348 4.00000
20.05224 7.03348 4.00000
20.14163 7.03348 4.00000
20.23103 7.03348 4.00000
20.32045 7.03348 4.00000
20.40986 7.03348 4.00000
20.49929 7.03348 4.00000
20.58872 7.03348 4.00000
20.67816 7.03348 4.00000
20.76761 7.03348 4.00000
20.85707 7.03348 4.00000
20.94653 7.03348 4.00000
21.03600 7.03348 4.00000
21.12548 7.03348 4.00000
21.21496 7.03348 4.00000
21.30445 7.03348 4.00000
21.39395 7.03348 4.00000
21.48345 7.03348 4.00000
21.57296 7.03348 4.00000
21.66248 7.03348 4.00000
21.75201 7.03348 4.00000
21.84154 7.03348 4.00000
21.93107 7.03348 4.00000
22.02065 7.03348 4.00000
22.11024 7.03348 4.00000
22.19984 7.03348 4.00000
22.28944 7.03348 4.00000
22.37904 7.03348 4.00000
22.46865 7.03348 4.00000
22.55827 7.03348 4.00000
22.64789 7.03348 4.00000
22.73752 7.03348 4.00000
22.82716 7.03348 4.00000
22.91680 7.03348 4.00000
23.00644 7.03348 4.00000
23.09609 7.03348 4.00000
23.18575 7.03348 4.00000
23.27541 7.03348 4.00000
23.36507 7.03348 4.00000
23.45475 7.03348 4.00000
23.54442 7.03348 4.00000
23.63410 7.03348 4.00000
23.72379 7.03348 4.00000
23.81348 7.03348 4.00000
23.90315 7.03347 4.00000
23.99285 7.03348 4.00000
24.08253 7.03347 4.00000
24.17223 7.03348 4.00000
24.26192 7.03347 4.00000
24.35161 7.03347 4.00000
24.44131 7.03347 4.00000
24.53101 7.03347 4.00000
24.62071 7.03347 4.00000
24.71042 7.03347 4.00000
24.80013 7.03347 4.00000
24.88984 7.03347 4.00000
24.97956 7.03347 4.00000
25.06928 7.03347 4.00000
25.15901 7.03347 4.00000
25.24874 7.03347 4.00000
25.33847 7.03347 4.00000
25.42821 7.03347 4.00000
25.51795 7.03347 4.00000
25.60768 7.03348 4.00000
25.69744 7.03348 4.00000
25.78721 7.03348 4.00000
25.87697 7.03348 4.00000
25.96673 7.03348 4.00000
26.05649 7.03348 4.00000
26.14625 7.03348 4.00000
26.23602 7.03348 4.00000
26.32579 7.03348 4.00000
26.41561 7.03348 4.00000
26.50538 7.03348 4.00000
26.59522 7.03348 4.00000
26.68505 7.03348 4.00000
26.77489 7.03348 4.00000
26.86473 7.03348 4.00000
26.95458 7.03348 4.00000
27.04443 7.03348 4.00000
27.13428 7.03348 4.00000
27.22414 7.03348 4.00000
27.31400 7.03348 4.00000
27.40382 7.03348 4.00000
27.49365 7.03348 4.00000
27.58348 7.03348 4.00000
27.67332 7.03348 4.00000
27.76316 7.03348 4.00000
27.85301 7.03348 4.00000
27.94287 7.03348 4.00000
28.03273 7.03348 4.00000
28.12259 7.03348 4.00000
28.21246 7.03348 4.00000
28.30234 7.03348 4.00000
28.39222 7.03348 4.00000
28.48210 7.03348 4.00000
28.57199 7.03348 4.00000
28.66189 7.03348 4.00000
28.75179 7.03348 4.00000
28.84170 7.03348 4.00000
28.93163 7.03347 4.00000
29.02154 7.03348 4.00000
29.11146 7.03348 4.00000
29.20139 7.03348 4.00000
29.29128 7.03349 4.00000
29.38124 7.03348 4.00000
29.47119 7.03348 4.00000
29.56112 7.03348 4.00000
29.65105 7.03348 4.00000
29.74098 7.03347 4.00000
29.83090 7.03348 4.00000
29.92085 7.03348 4.00000
30.01077 7.03350 4.00000
30.10075 7.03348 4.00000
30.19069 7.03348 4.00000
30.28064 7.03348 4.00000
30.37059 7.03348 4.00000
30.46054 7.03348 4.00000
30.55050 7.03348 4.00000
30.64046 7.03348 4.00000

Angle 0.644478 5.384518

4.00000 7.03348 4.00000
4.00000 7.03348 4.00000
4.00000 7.03348 4.00000
4.00000 7.03348 4.00000
4.00000 7.03348 4.00000
4.00000 7.03348 4.00000
4.00000 7.03348 4.00000
4.00000 7.03348 4.00000
4.00000 7.03348 4.00000
4.00000 7.03348 4.00000
4.00000 7.03348 4.00000
4.00000 7.03348 4.00000
4.00000 7.03348 4.00000
4.00000 7.03348 4.00000
4.00000 7.03348 4.00000
4.00000 7.03348 4.00000
4.00000 7.03348 4.00000
4.00000 7.03348 4.00000
4.00000 7.03349 4.00000
4.00000 7.03348 4.00000
4.00000 7.03349 4.00000
4.00000 7.03350 4.00000
4.00000 7.03352 4.00000
4.00000 7.03348 4.00000
4.00000 7.03348 4.00000
4.00326 7.08374 4.00326
4.00806 7.15908 4.00806
4.01280 7.23466 4.01280
4.01750 7.31043 4.01750
4.02217 7.38634 4.02218
4.02684 7.46234 4.02684
4.03152 7.53837 4.03152
4.03622 7.61440 4.03622
4.04097 7.69035 4.04097
4.04578 7.76618 4.04578
4.05069 7.84181 4.05069
4.05572 7.91719 4.05572
4.06089 7.99224 4.06089
4.06623 8.06687 4.06624
4.07180 8.14098 4.07180
4.07761 8.21448 4.07761
4.08373 8.28722 4.08373
4.09022 8.35908 4.09022
4.09713 8.42987 4.09713
4.10455 8.49941 4.10455
4.11256 8.56745 4.11256
4.12129 8.63374 4.12129
4.13082 8.69802 4.13082
4.14110 8.76050 4.14110
4.15215 8.82115 4.15215
4.16399 8.87990 4.16399
4.17667 8.93668 4.17667
4.19022 8.99145 4.19022
4.20467 9.04415 4.20467
4.22003 9.09476 4.22003
4.23634 9.14326 4.23634
4.25361 9.18963 4.25361
4.27184 9.23387 4.27184
4.29106 9.27597 4.29106
4.31128 9.31593 4.31128
4.33250 9.35374 4.33251
4.35475 9.38938 4.35476
4.37806 9.42283 4.37806
4.40244 9.45402 4.40244
4.42794 9.48286 4.42794
4.45463 9.50925 4.45462
4.48257 9.53302 4.48257
4.51187 9.55397 4.51187
4.54265 9.57181 4.54265
4.57504 9.58626 4.57504
4.60923 9.59694 4.60923
4.64538 9.60347 4.64538
7.30699 7.56009 4.03291
7.48968 7.46546 4.02703
7.64391 7.39871 4.02294
7.78224 7.34762 4.01980
7.91020 7.30678 4.01728
8.03083 7.27318 4.01520
8.14599 7.24501 4.01345
8.25693 7.22104 4.01195
8.36450 7.20043 4.01066
8.46936 7.18255 4.00953
8.57196 7.16692 4.00855
8.67266 7.15321 4.00769
8.77179 7.14109 4.00692
8.86956 7.13035 4.00624
8.96617 7.12081 4.00563
9.06179 7.11229 4.00509
9.15651 7.10469 4.00460
9.25048 7.09788 4.00416
9.34380 7.09176 4.00377
9.43652 7.08626 4.00342
9.52874 7.08130 4.00310
9.62051 7.07684 4.00281
9.71187 7.07281 4.00255
9.80289 7.06917 4.00232
9.89359 7.06588 4.00210
9.98401 7.06290 4.00191
10.07419 7.06021 4.00174
10.16416 7.05776 4.00158
10.25393 7.05555 4.00144
10.34354 7.05354 4.00130
10.43300 7.05170 4.00119
10.52231 7.05006 4.00108
10.61152 7.04856 4.00098
10.70062 7.04720 4.00089
10.78963 7.04596 4.00081
10.87857 7.04483 4.00074
10.96744 7.04380 4.00067
11.05626 7.04287 4.00061
11.14501 7.04203 4.00056
11.23373 7.04126 4.00051
11.32240 7.04056 4.00046
11.41105 7.03992 4.00042
11.49967 7.03934 4.00038
11.58827 7.03882 4.00035
11.67686 7.03833 4.00032
11.76543 7.03790 4.00029
11.85399 7.03750 4.00026
11.94255 7.03714 4.00024
12.03110 7.03681 4.00022
12.11965 7.03651 4.00020
12.20821 7.03624 4.00018
12.29679 7.03597 4.00016
12.38532 7.03577 4.00015
12.47389 7.03556 4.00014
12.56247 7.03537 4.00012
12.65105 7.03520 4.00011
12.73965 7.03505 4.00010
12.82826 7.03491 4.00009
12.91688 7.03478 4.00008
13.00551 7.03466 4.00008
13.09416 7.03456 4.00007
13.18282 7.03446 4.00006
13.27149 7.03437 4.00006
13.36018 7.03429 4.00005
13.44888 7.03422 4.00005
13.53760 7.03415 4.00004
13.62634 7.03409 4.00004
13.71509 7.03404 4.00004
13.80386 7.03398 4.00003
13.89264 7.03394 4.00003
13.98144 7.03390 4.00003
14.07026 7.03386 4.00002
14.15909 7.03383 4.00002
14.24794 7.03379 4.00002
14.33680 7.03377 4.00002
14.42568 7.03374 4.00002
14.51458 7.03372 4.00002
14.60349 7.03370 4.00001
14.69242 7.03368 4.00001
14.78137 7.03366 4.00001
14.87033 7.03364 4.00001
14.95930 7.03363 4.00001
15.04830 7.03361 4.00001
15.13730 7.03360 4.00001
15.22632 7.03359 4.00001
15.31536 7.03358 4.00001
15.40441 7.03357 4.00001
15.49348 7.03356 4.00001
15.58256 7.03356 4.00000
15.67165 7.03355 4.00000
15.76076 7.03354 4.00000
15.84989 7.03354 4.00000
15.93902 7.03353 4.00000
16.02817 7.03353 4.00000
16.11734 7.03352 4.00000
16.20651 7.03352 4.00000
16.29571 7.03352 4.00000
16.38491 7.03351 4.00000
16.47413 7.03351 4.00000
16.56336 7.03351 4.00000
16.65260 7.03350 4.00000
16.74185 7.03350 4.00000
16.83112 7.03350 4.00000
16.92040 7.03350 4.00000
17.00969 7.03350 4.00000
17.09899 7.03349 4.00000
17.18830 7.03349 4.00000
17.27763 7.03349 4.00000
17.36696 7.03349 4.00000
17.45631 7.03349 4.00000
17.54567 7.03349 4.00000
17.63504 7.03348 4.00000
17.72442 7.03349 4.00000
17.81381 7.03348 4.00000
17.90321 7.03349 4.00000
17.99262 7.03348 4.00000
18.08204 7.03348 4.00000
18.17147 7.03348 4.00000
18.26091 7.03348 4.00000
18.35036 7.03348 4.00000
18.43982 7.03348 4.00000
18.52928 7.03348 4.00000
18.61876 7.03348 4.00000
18.70825 7.03348 4.00000
18.79775 7.03348 4.00000
18.88725 7.03348 4.00000
18.97677 7.03347 4.00000
19.06629 7.03347 4.00000
19.15582 7.03347 4.00000
19.24536 7.03347 4.00000
19.33490 7.03348 4.00000
19.42446 7.03348 4.00000
19.51403 7.03348 4.00000
19.60360 7.03348 4.00000
19.69318 7.03348 4.00000
19.78277 7.03348 4.00000
19.87237 7.03348 4.00000
19.96198 7.03348 4.00000
20.05159 7.03348 4.00000
20.14122 7.03348 4.00000
20.23085 7.03348 4.00000
20.32048 7.03348 4.00000
20.41012 7.03348 4.00000
20.49977 7.03348 4.00000
20.58943 7.03348 4.00000
20.67909 7.03348 4.00000
20.76876 7.03348 4.00000
20.85844 7.03348 4.00000
20.94813 7.03348 4.00000
21.03782 7.03348 4.00000
21.12752 7.03347 4.00000
21.21723 7.03348 4.00000
21.30694 7.03348 4.00000
21.39666 7.03348 4.00000
21.48639 7.03348 4.00000
21.57612 7.03348 4.00000
21.66586 7.03348 4.00000
21.75561 7.03348 4.00000
21.84536 7.03348 4.00000
21.93512 7.03348 4.00000
22.02489 7.03348 4.00000
22.11466 7.03348 4.00000
22.20443 7.03348 4.00000
22.29421 7.03348 4.00000
22.38400 7.03348 4.00000
22.47379 7.03348 4.00000
22.56359 7.03348 4.00000
22.65340 7.03348 4.00000
22.74321 7.03347 4.00000
22.83301 7.03348 4.00000
22.92284 7.03348 4.00000
23.01266 7.03348 4.00000
23.10249 7.03347 4.00000
23.19233 7.03348 4.00000
23.28217 7.03348 4.00000
23.37202 7.03348 4.00000
23.46187 7.03348 4.00000
23.55172 7.03348 4.00000
23.64158 7.03348 4.00000
23.73146 7.03347 4.00000
23.82133 7.03348 4.00000
23.91120 7.03348 4.00000
24.00109 7.03348 4.00000
24.09098 7.03348 4.00000
24.18087 7.03348 4.00000
24.27077 7.03348 4.00000
24.36067 7.03348 4.00000
24.45058 7.03348 4.00000
24.54049 7.03348 4.00000
24.63040 7.03348 4.00000
24.72033 7.03348 4.00000
24.81024 7.03348 4.00000
24.90018 7.03348 4.00000
24.99010 7.03348 4.00000
25.08004 7.03348 4.00000
25.16997 7.03348 4.00000
25.25992 7.03348 4.00000
25.34986 7.03348 4.00000
25.43981 7.03348 4.00000
25.52976 7.03348 4.00000
25.61971 7.03348 4.00000
25.70967 7.03348 4.00000
25.79964 7.03347 4.00000
25.88959 7.03348 4.00000
25.97957 7.03348 4.00000
26.06953 7.03348 4.00000
26.15950 7.03348 4.00000
26.24948 7.03348 4.00000
26.33945 7.03348 4.00000
26.42943 7.03348 4.00000
26.51942 7.03348 4.00000
26.60941 7.03348 4.00000
26.69940 7.03348 4.00000
26.78939 7.03348 4.00000
26.87939 7.03348 4.00000
26.96939 7.03348 4.00000
27.05940 7.03348 4.00000
27.14940 7.03348 4.00000
27.23941 7.03348 4.00000
27.32943 7.03348 4.00000
27.41944 7.03348 4.00000
27.50946 7.03348 4.00000
27.59949 7.03348 4.00000
27.68951 7.03348 4.00000
27.77954 7.03348 4.00000
27.86958 7.03348 4.00000
27.95961 7.03348 4.00000
28.04965 7.03348 4.00000
28.13969 7.03348 4.00000
28.22974 7.03348 4.00000
28.31979 7.03348 4.00000
28.40984 7.03348 4.00000
28.49990 7.03348 4.00000
28.58995 7.03348 4.00000
28.68001 7.03348 4.00000
28.77007 7.03348 4.00000
28.86014 7.03348 4.00000
28.95021 7.03348 4.00000
29.04028 7.03348 4.00000
29.13035 7.03348 4.00000
29.22043 7.03348 4.00000
29.31050 7.03348 4.00000
29.40058 7.03348 4.00000
29.49067 7.03348 4.00000
29.58075 7.03348 4.00000
29.67084 7.03348 4.00000
29.76093 7.03348 4.00000
29.85102 7.03348 4.00000
29.94112 7.03348 4.00000
30.03122 7.03348 4.00000
30.12132 7.03348 4.00000
30.21142 7.03348 4.00000
30.30152 7.03348 4.00000
30.39163 7.03348 4.00000
30.48174 7.03348 4.00000
30.57185 7.03348 4.00000
30.66196 7.03348 4.00000
30.75208 7.03348 4.00000
30.84220 7.03348 4.00000
30.93232 7.03348 4.00000
31.02244 7.03348 4.00000
31.11257 7.03348 4.00000
31.20270 7.03348 4.00000
31.29283 7.03348 4.00000
31.38297 7.03348 4.00000
31.47311 7.03348 4.00000
31.56324 7.03348 4.00000
31.65339 7.03348 4.00000
31.74353 7.03348 4.00000
31.83367 7.03348 4.00000
31.92381 7.03348 4.00000
32.01396 7.03349 4.00000
32.10412 7.03348 4.00000
32.19427 7.03348 4.00000
32.28442 7.03348 4.00000
32.37457 7.03348 4.00000
32.46473 7.03348 4.00000
32.55489 7.03348 4.00000
32.64505 7.03348 4.00000
32.73521 7.03348 4.00000
32.82538 7.03348 4.00000
32.91554 7.03348 4.00000
33.00571 7.03348 4.00000
33.09588 7.03348 4.00000
33.18606 7.03348 4.00000
33.27623 7.03348 4.00000
33.36640 7.03348 4.00000
33.45658 7.03348 4.00000
33.54676 7.03348 4.00000
33.63694 7.03348 4.00000
33.72712 7.03348 4.00000
33.81731 7.03348 4.00000
33.90750 7.03348 4.00000
33.99769 7.03348 4.00000
34.08788 7.03348 4.00000
34.17807 7.03348 4.00000
34.26827 7.03348 4.00000
34.35847 7.03348 4.00000
34.44867 7.03348 4.00000
34.53887 7.03348 4.00000
34.62907 7.03348 4.00000
34.71927 7.03348 4.00000
34.80948 7.03348 4.00000
34.89969 7.03348 4.00000
34.98990 7.03348 4.00000
35.08011 7.03348 4.00000
35.17032 7.03348 4.00000
35.26054 7.03348 4.00000
35.35075 7.03348 4.00000
35.44097 7.03348 4.00000
35.53119 7.03348 4.00000
35.62141 7.03348 4.00000
35.71164 7.03348 4.00000
35.80186 7.03348 4.00000
35.89209 7.03348 4.00000
35.98232 7.03348 4.00000
36.07255 7.03348 4.00000
36.16278 7.03348 4.00000
36.25302 7.03348 4.00000
36.34325 7.03348 4.00000
36.43349 7.03348 4.00000
36.52373 7.03348 4.00000
36.61397 7.03348 4.00000
36.70422 7.03348 4.00000
36.79446 7.03348 4.00000
36.88471 7.03348 4.00000
36.97496 7.03348 4.00000
37.06521 7.03348 4.00000

Angle 0.596171 5.054651

4.00113 7.02741 4.00199
4.00000 7.03348 4.00000
4.00000 7.03348 4.00000
4.00000 7.03348 4.00000
4.00000 7.03348 4.00000
4.00000 7.03348 4.00000
4.00000 7.03347 4.00000
4.00000 7.03348 4.00000
4.00000 7.03348 4.00000
4.00000 7.03348 4.00000
4.00000 7.03348 4.00000
4.00000 7.03348 4.00000
4.00000 7.03348 4.00000
4.00000 7.03348 4.00000
4.00000 7.03348 4.00000
4.00000 7.03347 4.00000
4.00000 7.03347 4.00000
4.00000 7.03348 4.00000
4.00000 7.03348 4.00000
4.00000 7.03348 4.00000
4.00000 7.03348 4.00000
4.00000 7.03348 4.00000
4.00000 7.03348 4.00000
4.00000 7.03348 4.00000
4.00000 7.03348 4.00000
4.00000 7.03348 4.00000
4.00000 7.03348 4.00000
4.00000 7.03348 4.00000
4.00000 7.03348 4.00000
4.00000 7.03348 4.00000
4.00000 7.03348 4.00000
4.00000 7.03348 4.00000
4.00000 7.03348 4.00000
4.00000 7.03348 4.00000
4.00000 7.03348 4.00000
4.00000 7.03348 4.00000
4.00000 7.03348 4.00000
4.00000 7.03348 4.00000
4.00000 7.03348 4.00000
4.00000 7.03348 4.00000
4.00000 7.03348 4.00000
4.00000 7.03348 4.00000
4.00000 7.03348 4.00000
4.00000 7.03348 4.00000
4.00000 7.03348 4.00000
4.00000 7.03348 4.00000
4.00000 7.03348 4.00000
4.00000 7.03348 4.00000
4.00000 7.03348 4.00000
4.00000 7.03348 4.00000
4.00000 7.03348 4.00000
4.00000 7.03348 4.00000
4.00000 7.03348 4.00000
4.00000 7.03348 4.00000
4.00000 7.03348 4.00000
4.00000 7.03348 4.00000
4.00000 7.03348 4.00000
4.00000 7.03348 4.00000
4.00000 7.03348 4.00000
4.00000 7.03348 4.00000
4.00000 7.03347 4.00000
4.00000 7.03347 4.00000
4.00000 7.03348 4.00000
4.00000 7.03346 4.00000
4.00000 7.03348 4.00000
4.00000 7.03348 4.00000
4.00000 7.03348 4.00000
4.00000 7.03348 4.00000
4.00000 7.03348 4.00000
4.00000 7.03348 4.00000
4.00000 7.03348 4.00000
4.00000 7.03348 4.00000
4.00000 7.03348 4.00000
4.00000 7.03348 4.00000
4.00000 7.03347 4.00000
4.00000 7.03348 4.00000
4.00000 7.03348 4.00000
4.00000 7.03348 4.00000
4.00000 7.03349 4.00000
4.00000 7.03349 4.00000
4.00000 7.03348 4.00000
4.00000 7.03348 4.00000
4.00000 7.03348 4.00000
4.00000 7.03348 4.00000
4.00000 7.03348 4.00000
4.00000 7.03348 4.00000
4.00000 7.03348 4.00000
4.00000 7.03348 4.00000
4.00000 7.03348 4.00000
4.00000 7.03348 4.00000
4.00000 7.03348 4.00000
4.00000 7.03347 4.00000
4.00000 7.03348 4.00000
4.00000 7.03348 4.00000
4.00000 7.03348 4.00000
4.00000 7.03348 4.00000
4.00000 7.03348 4.00000
4.00000 7.03348 4.00000
4.00000 7.03348 4.00000
4.00000 7.03348 4.00000
4.00000 7.03349 4.00000
4.00000 7.03349 4.00000
4.00000 7.03348 4.00000
4.00000 7.03348 4.00000
4.00000 7.03348 4.00000
4.00000 7.03348 4.00000
4.00000 7.03348 4.00000
4.00000 7.03348 4.00000
4.00000 7.03348 4.00000
4.00000 7.03348 4.00000
4.00000 7.03349 4.00000
4.00000 7.03349 4.00000
4.00000 7.03348 4.00000
4.00000 7.03347 4.00000
4.00000 7.03348 4.00000
4.00000 7.03348 4.00000
4.00000 7.03348 4.00000
4.00000 7.03348 4.00000
4.00000 7.03348 4.00000
4.00000 7.03348 4.00000
4.00000 7.03348 4.00000
4.00000 7.03348 4.00000
4.00000 7.03348 4.00000
4.00000 7.03348 4.00000
4.00000 7.03349 4.00000
4.00000 7.03348 4.00000
4.00000 7.03348 4.00000
4.00000 7.03348 4.00000
4.00000 7.03348 4.00000
4.00000 7.03348 4.00000
4.00000 7.03348 4.00000
4.00000 7.03348 4.00000
4.00000 7.03348 4.00000
4.00000 7.03348 4.00000
4.00000 7.03348 4.00000
4.00000 7.03348 4.00000
4.00000 7.03348 4.00000
4.00000 7.03348 4.00000
4.00000 7.03348 4.00000
4.00000 7.03348 4.00000
4.00000 7.03348 4.00000
4.00000 7.03348 4.00000
4.00000 7.03348 4.00000
4.00000 7.03349 4.00000
4.00000 7.03350 4.00000
4.00000 7.03349 4.00000
4.00000 7.03348 4.00000
4.00421 7.09855 4.00421
4.00907 7.17516 4.00907
4.01388 7.25198 4.01388
4.01865 7.32897 4.01865
4.02339 7.40608 4.02339
4.02813 7.48324 4.02813
4.03288 7.56043 4.03288
4.03766 7.63756 4.03766
4.04250 7.71459 4.04250
4.04741 7.79145 4.04741
4.05243 7.86808 4.05243
4.05757 7.94441 4.05757
4.06288 8.02035 4.06287
4.06837 8.09582 4.06838
4.07411 8.17070 4.07411
4.08012 8.24488 4.08012
4.08647 8.31823 4.08647
4.09322 8.39057 4.09322
4.10044 8.46173 4.10044
4.10822 8.53148 4.10822
4.11666 8.59958 4.11666
4.12589 8.66570 4.12589
4.13593 8.72984 4.13593
4.14672 8.79215 4.14672
4.15832 8.85252 4.15832
4.17075 8.91090 4.17075
4.18406 8.96724 4.18406
4.19827 9.02148 4.19827
4.21341 9.07358 4.21341
4.22950 9.12352 4.22950
4.24657 9.17129 4.24656
4.26461 9.21687 4.26461
4.28366 9.26026 4.28366
4.30370 9.30146 4.30373
4.32480 9.34047 4.32480
4.34692 9.37726 4.34692
4.37009 9.41182 4.37009
4.39436 9.44409 4.39436
4.41976 9.47401 4.41976
4.44633 9.50145 4.44633
4.47417 9.52627 4.47417
4.50335 9.54828 4.50335
4.53400 9.56721 4.53399
4.56624 9.58276 4.56625
4.60027 9.59457 4.60027
4.63625 9.60226 4.63625
4.67436 9.60543 4.67436
7.45118 7.48390 4.02817
7.61170 7.41175 4.02374
7.75416 7.35737 4.02040
7.88510 7.31435 4.01774
8.00809 7.27918 4.01557
8.12520 7.24984 4.01375
8.23780 7.22497 4.01220
8.34684 7.20365 4.01086
8.45299 7.18520 4.00971
8.55680 7.16911 4.00869
8.65860 7.15503 4.00780
8.75876 7.14261 4.00702
8.85750 7.13162 4.00632
8.95503 7.12186 4.00570
9.05152 7.11317 4.00514
9.14709 7.10542 4.00465
9.24188 7.09848 4.00420
9.33599 7.09224 4.00380
9.42948 7.08665 4.00344
9.52244 7.08163 4.00312
9.61494 7.07710 4.00283
9.70701 7.07301 4.00256
9.79873 7.06933 4.00233
9.89011 7.06600 4.00211
9.98121 7.06299 4.00192
10.07206 7.06027 4.00174
10.16268 7.05780 4.00158
10.25310 7.05557 4.00144
10.34334 7.05354 4.00131
10.43343 7.05171 4.00118
10.52337 7.05004 4.00108
10.61319 7.04853 4.00098
10.70290 7.04716 4.00089
10.79252 7.04592 4.00081
10.88205 7.04479 4.00074
10.97151 7.04376 4.00067
11.06090 7.04283 4.00061
11.15024 7.04198 4.00055
11.23953 7.04121 4.00050
11.32878 7.04051 4.00046
11.41799 7.03987 4.00042
11.50717 7.03930 4.00038
11.59633 7.03877 4.00034
11.68546 7.03829 4.00031
11.77458 7.03786 4.00029
11.86368 7.03746 4.00026
11.95278 7.03710 4.00024
12.04186 7.03677 4.00021
12.13094 7.03647 4.00020
12.22002 7.03620 4.00018
12.30910 7.03596 4.00016
12.39818 7.03573 4.00015
12.48726 7.03553 4.00013
12.57635 7.03534 4.00012
12.66544 7.03518 4.00011
12.75453 7.03502 4.00010
12.84364 7.03488 4.00009
12.93275 7.03476 4.00008
13.02188 7.03464 4.00008
13.11101 7.03454 4.00007
13.20015 7.03444 4.00006
13.28931 7.03435 4.00006
13.37847 7.03427 4.00005
13.46765 7.03420 4.00005
13.55684 7.03414 4.00004
13.64604 7.03408 4.00004
13.73525 7.03402 4.00004
13.82448 7.03397 4.00003
13.91372 7.03393 4.00003
14.00297 7.03389 4.00003
14.09224 7.03385 4.00002
14.18152 7.03382 4.00002
14.27081 7.03379 4.00002
14.36011 7.03376 4.00002
14.44943 7.03373 4.00002
14.53876 7.03371 4.00002
14.62811 7.03369 4.00001
14.71746 7.03367 4.00001
14.80683 7.03365 4.00001
14.89622 7.03364 4.00001
14.98561 7.03362 4.00001
15.07502 7.03361 4.00001
15.16444 7.03360 4.00001
15.25387 7.03359 4.00001
15.34331 7.03358 4.00001
15.43277 7.03357 4.00001
15.52224 7.03356 4.00001
15.61172 7.03355 4.00001
15.70121 7.03355 4.00000
15.79071 7.03354 4.00000
15.88023 7.03353 4.00000
15.96975 7.03353 4.00000
16.05929 7.03353 4.00000
16.14883 7.03352 4.00000
16.23839 7.03352 4.00000
16.32796 7.03351 4.00000
16.41754 7.03351 4.00000
16.50713 7.03351 4.00000
16.59672 7.03351 4.00000
16.68633 7.03350 4.00000
16.77595 7.03350 4.00000
16.86558 7.03350 4.00000
16.95522 7.03350 4.00000
17.04486 7.03350 4.00000
17.13452 7.03349 4.00000
17.22419 7.03349 4.00000
17.31386 7.03349 4.00000
17.40354 7.03349 4.00000
17.49324 7.03349 4.00000
17.58294 7.03349 4.00000
17.67265 7.03349 4.00000
17.76237 7.03349 4.00000
17.85209 7.03349 4.00000
17.94183 7.03349 4.00000
18.03157 7.03349 4.00000
18.12132 7.03348 4.00000
18.21108 7.03348 4.00000
18.30084 7.03348 4.00000
18.39062 7.03348 4.00000
18.48040 7.03348 4.00000
18.57019 7.03348 4.00000
18.65998 7.03348 4.00000
18.74979 7.03348 4.00000
18.83960 7.03348 4.00000
18.92941 7.03348 4.00000
19.01924 7.03348 4.00000
19.10907 7.03348 4.00000
19.19891 7.03348 4.00000
19.28875 7.03348 4.00000
19.37860 7.03348 4.00000
19.46846 7.03348 4.00000
19.55832 7.03348 4.00000
19.64819 7.03348 4.00000
19.73807 7.03348 4.00000
19.82795 7.03348 4.00000
19.91784 7.03348 4.00000
20.00774 7.03348 4.00000
20.09764 7.03348 4.00000
20.18754 7.03348 4.00000
20.27746 7.03348 4.00000
20.36737 7.03348 4.00000
20.45730 7.03348 4.00000
20.54723 7.03348 4.00000
20.63716 7.03348 4.00000
20.72710 7.03348 4.00000
20.81705 7.03348 4.00000
20.90700 7.03348 4.00000
20.99695 7.03348 4.00000
21.08691 7.03348 4.00000
21.17688 7.03348 4.00000
21.26685 7.03348 4.00000
21.35682 7.03348 4.00000
21.44680 7.03348 4.00000
21.53680 7.03347 4.00000
21.62678 7.03348 4.00000
21.71678 7.03347 4.00000
21.80677 7.03348 4.00000
21.89678 7.03347 4.00000
21.98679 7.03347 4.00000
22.07680 7.03347 4.00000
22.16682 7.03347 4.00000
22.25684 7.03347 4.00000
22.34686 7.03347 4.00000
22.43689 7.03347 4.00000
22.52693 7.03347 4.00000
22.61697 7.03347 4.00000
22.70701 7.03347 4.00000
22.79705 7.03347 4.00000
22.88710 7.03347 4.00000
22.97716 7.03347 4.00000
23.06722 7.03347 4.00000
23.15728 7.03347 4.00000
23.24734 7.03348 4.00000
23.33741 7.03348 4.00000
23.42748 7.03348 4.00000
23.51756 7.03348 4.00000
23.60764 7.03348 4.00000
23.69772 7.03348 4.00000
23.78781 7.03348 4.00000
23.87790 7.03348 4.00000
23.96800 7.03348 4.00000
24.05810 7.03348 4.00000
24.14820 7.03348 4.00000
24.23831 7.03348 4.00000
24.32841 7.03348 4.00000
24.41852 7.03348 4.00000
24.50864 7.03348 4.00000
24.59876 7.03348 4.00000
24.68888 7.03348 4.00000
24.77900 7.03348 4.00000
24.86913 7.03348 4.00000
24.95926 7.03348 4.00000
25.04940 7.03348 4.00000
25.13954 7.03348 4.00000
25.22968 7.03348 4.00000
25.31983 7.03348 4.00000
25.40998 7.03348 4.00000
25.50013 7.03348 4.00000
25.59028 7.03348 4.00000
25.68044 7.03348 4.00000
25.77060 7.03348 4.00000
25.86076 7.03348 4.00000
25.95092 7.03348 4.00000
26.04109 7.03348 4.00000
26.13126 7.03348 4.00000
26.22144 7.03348 4.00000

Angle 0.442821 5.193307

4.00392 7.09394 4.00391
4.00719 7.14529 4.00719
4.01045 7.19703 4.01045
4.01370 7.24914 4.01370
4.01696 7.30160 4.01696
4.02021 7.35439 4.02021
4.02348 7.40749 4.02347
4.02675 7.46089 4.02675
4.03005 7.51455 4.03005
4.03337 7.56847 4.03337
4.03673 7.62262 4.03673
4.04013 7.67696 4.04013
4.04357 7.73149 4.04357
4.04707 7.78617 4.04707
4.05064 7.84097 4.05064
4.05428 7.89586 4.05428
4.05801 7.95081 4.05801
4.06184 8.00578 4.06184
4.06579 8.06073 4.06579
4.06986 8.11562 4.06986
4.07409 8.17040 4.07409
4.07848 8.22501 4.07848
4.08306 8.27940 4.08306
4.08785 8.33349 4.08785
4.09289 8.38721 4.09289
4.09821 8.44046 4.09821
4.10385 8.49316 4.10385
4.10985 8.54519 4.10985
4.11625 8.59642 4.11625
4.12312 8.64671 4.12312
4.13050 8.69597 4.13050
4.13834 8.74432 4.13834
4.14665 8.79174 4.14665
4.15546 8.83819 4.15546
4.16478 8.88362 4.16478
4.17464 8.92798 4.17464
4.18506 8.97124 4.18506
4.19605 9.01337 4.19605
4.20763 9.05433 4.20764
4.21982 9.09411 4.21982
4.23263 9.13266 4.23263
4.24608 9.16999 4.24608
4.26017 9.20607 4.26017
4.27491 9.24089 4.27491
4.29032 9.27443 4.29032
4.30641 9.30668 4.30641
4.32319 9.33763 4.32319
4.34066 9.36726 4.34066
4.35885 9.39554 4.35885
4.37777 9.42244 4.37777
4.39745 9.44793 4.39745
4.41790 9.47195 4.41790
4.43916 9.49442 4.43916
4.46128 9.51526 4.46128
4.48431 9.53437 4.48430
4.50829 9.55162 4.50829
4.53331 9.56684 4.53331
4.55945 9.57985 4.55945
4.58680 9.59045 4.58680
4.61547 9.59840 4.61547
4.64557 9.60349 4.64557
4.67719 9.60548 4.67719
7.43295 7.49291 4.02872
7.56921 7.42966 4.02484
7.69153 7.38025 4.02180
7.80463 7.34006 4.01933
7.91117 7.30649 4.01726
8.01276 7.27794 4.01549
8.11052 7.25331 4.01396
8.20522 7.23185 4.01263
8.29744 7.21300 4.01145
8.38759 7.19632 4.01040
8.47605 7.18147 4.00947
8.56304 7.16821 4.00864
8.64880 7.15632 4.00788
8.73351 7.14561 4.00721
8.81730 7.13595 4.00659
8.90031 7.12721 4.00604
8.98264 7.11928 4.00553
9.06437 7.11208 4.00507
9.14560 7.10553 4.00465
9.22636 7.09956 4.00427
9.30675 7.09412 4.00392
9.38680 7.08913 4.00360
9.46654 7.08459 4.00331
9.54604 7.08043 4.00304
9.62532 7.07661 4.00280
9.70440 7.07312 4.00257
9.78332 7.06992 4.00237
9.86211 7.06699 4.00218
9.94078 7.06429 4.00200
10.01936 7.06181 4.00184
10.09786 7.05954 4.00169
10.17630 7.05745 4.00156
10.25469 7.05553 4.00143
10.33305 7.05376 4.00132
10.41139 7.05214 4.00121
10.48971 7.05065 4.00112
10.56804 7.04927 4.00103
10.64640 7.04798 4.00094
10.72471 7.04685 4.00087
10.80308 7.04577 4.00080
10.88147 7.04480 4.00074
10.95990 7.04389 4.00068
11.03837 7.04305 4.00062
11.11687 7.04229 4.00057
11.19543 7.04158 4.00053
11.27407 7.04090 4.00048
11.35270 7.04033 4.00045
11.43142 7.03979 4.00041
11.51020 7.03928 4.00038
11.58905 7.03881 4.00035
11.66795 7.03838 4.00032
11.74693 7.03798 4.00029
11.82596 7.03762 4.00027
11.90509 7.03727 4.00024
11.98428 7.03697 4.00022
12.06353 7.03668 4.00021
12.14284 7.03643 4.00019
12.22223 7.03620 4.00018
12.30171 7.03598 4.00016
12.38126 7.03577 4.00015
12.46090 7.03559 4.00014
12.54062 7.03542 4.00013
12.62039 7.03526 4.00012
12.70025 7.03511 4.00011
12.78020 7.03498 4.00010
12.86012 7.03486 4.00009
12.94019 7.03475 4.00008
13.02034 7.03464 4.00008
13.10058 7.03455 4.00007
13.18091 7.03446 4.00007
13.26131 7.03438 4.00006
13.34179 7.03431 4.00006
13.42216 7.03424 4.00005
13.50276 7.03418 4.00005
13.58345 7.03412 4.00004
13.66422 7.03407 4.00004
13.74507 7.03402 4.00004
13.82600 7.03397 4.00003
13.90701 7.03393 4.00003
13.98788 7.03389 4.00003
14.06899 7.03386 4.00003
14.15018 7.03383 4.00002
14.23145 7.03380 4.00002
14.31279 7.03377 4.00002
14.39421 7.03375 4.00002
14.47570 7.03373 4.00002
14.55726 7.03371 4.00002
14.63889 7.03369 4.00002
14.72058 7.03367 4.00001
14.80235 7.03365 4.00001
14.88377 7.03364 4.00001
14.96565 7.03363 4.00001
15.04761 7.03361 4.00001
15.12963 7.03360 4.00001
15.21171 7.03359 4.00001
15.29386 7.03358 4.00001
15.37608 7.03357 4.00001
15.45836 7.03357 4.00001
15.54070 7.03356 4.00001
15.62309 7.03355 4.00001
15.70555 7.03355 4.00000
15.78806 7.03354 4.00000
15.87064 7.03353 4.00001
15.95277 7.03353 4.00000
16.03546 7.03353 4.00000
16.11821 7.03352 4.00000
16.20101 7.03352 4.00000
16.28387 7.03352 4.00000
16.36679 7.03351 4.00000
16.44976 7.03351 4.00000
16.53279 7.03351 4.00000
16.61587 7.03351 4.00000
16.69900 7.03350 4.00000
16.78218 7.03350 4.00000
16.86542 7.03350 4.00000
16.94871 7.03350 4.00000
17.03205 7.03350 4.00000
17.11544 7.03349 4.00000
17.19887 7.03349 4.00000
17.28236 7.03349 4.00000
17.36590 7.03349 4.00000
17.44948 7.03349 4.00000
17.53311 7.03349 4.00000
17.61679 7.03349 4.00000
17.70052 7.03349 4.00000
17.78429 7.03349 4.00000
17.86811 7.03349 4.00000
17.95197 7.03349 4.00000
18.03588 7.03349 4.00000
18.11983 7.03348 4.00000
18.20382 7.03348 4.00000
18.28786 7.03348 4.00000
18.37194 7.03348 4.00000
18.45607 7.03348 4.00000
18.54018 7.03348 4.00000
18.62431 7.03348 4.00000
18.70849 7.03348 4.00000
18.79271 7.03348 4.00000
18.87698 7.03348 4.00000
18.96128 7.03348 4.00000
19.04561 7.03348 4.00000
19.12999 7.03348 4.00000
19.21440 7.03348 4.00000
19.29884 7.03349 4.00000
19.38334 7.03348 4.00000
19.46787 7.03348 4.00000
19.55243 7.03348 4.00000
19.63703 7.03348 4.00000
19.72167 7.03348 4.00000
19.80634 7.03348 4.00000
19.89105 7.03348 4.00000
19.97579 7.03348 4.00000
20.06057 7.03348 4.00000
20.14538 7.03348 4.00000
20.23023 7.03348 4.00000
20.31511 7.03348 4.00000
20.40002 7.03348 4.00000
20.48496 7.03348 4.00000
20.56993 7.03348 4.00000
20.65492 7.03348 4.00000
20.73995 7.03348 4.00000
20.82501 7.03348 4.00000
20.91010 7.03348 4.00000
20.99522 7.03348 4.00000
21.08038 7.03348 4.00000
21.16558 7.03347 4.00000
21.25080 7.03348 4.00000
21.33606 7.03348 4.00000
21.42133 7.03348 4.00000
21.50666 7.03347 4.00000
21.59200 7.03348 4.00000
21.67737 7.03348 4.00000
21.76278 7.03348 4.00000
21.84821 7.03348 4.00000
21.93368 7.03348 4.00000
22.01917 7.03348 4.00000
22.10468 7.03348 4.00000
22.19023 7.03348 4.00000
22.27580 7.03348 4.00000
22.36140 7.03348 4.00000
22.44703 7.03348 4.00000
22.53268 7.03348 4.00000
22.61836 7.03348 4.00000
22.70407 7.03348 4.00000
22.78980 7.03348 4.00000
22.87556 7.03348 4.00000
22.96134 7.03348 4.00000
23.04715 7.03348 4.00000
23.13298 7.03348 4.00000
23.21884 7.03348 4.00000
23.30473 7.03348 4.00000
23.39063 7.03348 4.00000
23.47656 7.03348 4.00000
23.56252 7.03348 4.00000
23.64850 7.03347 4.00000
23.73449 7.03348 4.00000
23.82051 7.03347 4.00000
23.90656 7.03348 4.00000
23.99263 7.03348 4.00000
24.07873 7.03348 4.00000
24.16485 7.03348 4.00000
24.25098 7.03349 4.00000
24.33715 7.03348 4.00000
24.42334 7.03348 4.00000
24.50954 7.03348 4.00000
24.59578 7.03347 4.00000
24.68202 7.03348 4.00000
24.76829 7.03348 4.00000
24.85459 7.03348 4.00000
24.94090 7.03348 4.00000
25.02723 7.03348 4.00000
25.11359 7.03347 4.00000
25.19996 7.03348 4.00000
25.28636 7.03348 4.00000
25.37277 7.03348 4.00000
25.45921 7.03348 4.00000
25.54567 7.03348 4.00000
25.63214 7.03348 4.00000
25.71864 7.03347 4.00000
25.80515 7.03348 4.00000
25.89169 7.03348 4.00000
25.97824 7.03348 4.00000
26.06481 7.03348 4.00000
26.15140 7.03348 4.00000
26.23801 7.03348 4.00000
26.32463 7.03348 4.00000
26.41126 7.03348 4.00000
26.49793 7.03348 4.00000
26.58460 7.03348 4.00000
26.67129 7.03348 4.00000
26.75799 7.03348 4.00000
26.84470 7.03348 4.00000
26.93144 7.03348 4.00000
27.01819 7.03348 4.00000
27.10496 7.03348 4.00000
27.19174 7.03348 4.00000
27.27855 7.03348 4.00000
27.36537 7.03348 4.00000
27.45220 7.03348 4.00000
27.53906 7.03348 4.00000
27.62593 7.03348 4.00000
27.71281 7.03348 4.00000
27.79971 7.03348 4.00000
27.88663 7.03348 4.00000
27.97357 7.03348 4.00000
28.06052 7.03348 4.00000
28.14748 7.03348 4.00000
28.23446 7.03348 4.00000
28.32146 7.03348 4.00000
28.40848 7.03348 4.00000
28.49551 7.03348 4.00000
28.58255 7.03348 4.00000
28.66961 7.03348 4.00000
28.75669 7.03348 4.00000
28.84378 7.03348 4.00000
28.93088 7.03348 4.00000
29.01800 7.03348 4.00000
29.10514 7.03348 4.00000
29.19229 7.03348 4.00000
29.27945 7.03348 4.00000
29.36663 7.03348 4.00000
29.45383 7.03348 4.00000
29.54104 7.03348 4.00000
29.62826 7.03348 4.00000
29.71550 7.03348 4.00000
29.80275 7.03348 4.00000
29.89002 7.03348 4.00000
29.97731 7.03348 4.00000
30.06460 7.03348 4.00000
30.15192 7.03348 4.00000
30.23924 7.03348 4.00000
30.32658 7.03348 4.00000
30.41394 7.03348 4.00000
30.50131 7.03348 4.00000
30.58869 7.03348 4.00000
30.67609 7.03348 4.00000
30.76351 7.03348 4.00000
30.85094 7.03348 4.00000
30.93838 7.03348 4.00000
31.02584 7.03348 4.00000
31.11332 7.03348 4.00000
31.20081 7.03348 4.00000
31.28831 7.03348 4.00000
31.37583 7.03348 4.00000
31.46337 7.03348 4.00000
31.55092 7.03348 4.00000
31.63849 7.03348 4.00000
31.72607 7.03348 4.00000
31.81366 7.03349 4.00000
31.90129 7.03348 4.00000
31.98892 7.03348 4.00000
32.07655 7.03349 4.00000
32.16421 7.03349 4.00000
32.25189 7.03348 4.00000
32.33958 7.03348 4.00000
32.42729 7.03348 4.00000
32.51501 7.03348 4.00000
32.60274 7.03349 4.00000
32.69050 7.03348 4.00000
32.77828 7.03348 4.00000
32.86607 7.03348 4.00000
32.95388 7.03348 4.00000
33.04170 7.03348 4.00000
33.12954 7.03348 4.00000
33.21740 7.03348 4.00000
33.30527 7.03348 4.00000
33.39317 7.03348 4.00000
33.48108 7.03348 4.00000
33.56900 7.03348 4.00000
33.65695 7.03348 4.00000
33.74491 7.03348 4.00000
33.83289 7.03348 4.00000
33.92088 7.03348 4.00000
34.00890 7.03348 4.00000
34.09693 7.03348 4.00000
34.18498 7.03348 4.00000
34.27305 7.03348 4.00000
34.36113 7.03348 4.00000
34.44923 7.03348 4.00000
34.53735 7.03348 4.00000
34.62549 7.03348 4.00000
34.71365 7.03348 4.00000
34.80182 7.03348 4.00000
34.89001 7.03348 4.00000
34.97822 7.03348 4.00000
35.06647 7.03348 4.00000
35.15471 7.03348 4.00000
35.24299 7.03348 4.00000
35.33127 7.03348 4.00000
35.41956 7.03348 4.00000
35.50787 7.03348 4.00000
35.59623 7.03348 4.00000
35.68458 7.03348 4.00000
35.77296 7.03348 4.00000
35.86135 7.03348 4.00000
35.94973 7.03348 4.00000
36.03815 7.03348 4.00000
36.12658 7.03348 4.00000

Angle 0.157313 0.400779

4.00000 7.03348 4.00000
4.00000 7.03348 4.00000
4.00000 7.03348 4.00000
4.00000 7.03350 4.00000
4.00000 7.03348 4.00000
4.00000 7.03348 4.00000
4.00000 7.03349 4.00000
4.00000 7.03348 4.00000
4.00000 7.03347 4.00000
4.00000 7.03348 4.00000
4.00000 7.03348 4.00000
4.00000 7.03347 4.00000
4.00000 7.03348 4.00000
4.00000 7.03348 4.00000
4.00000 7.03348 4.00000
4.00000 7.03348 4.00000
4.00000 7.03348 4.00000
4.00000 7.03348 4.00000
4.00000 7.03348 4.00000
4.00000 7.03348 4.00000
4.00000 7.03348 4.00000
4.00000 7.03348 4.00000
4.00000 7.03348 4.00000
4.00000 7.03348 4.00000
4.00000 7.03349 4.00000
4.00000 7.03348 4.00000
4.00000 7.03348 4.00000
4.00000 7.03348 4.00000
4.00000 7.03348 4.00000
4.00000 7.03348 4.00000
4.00000 7.03348 4.00000
4.00000 7.03350 4.00000
4.00000 7.03350 4.00000
4.00000 7.03348 4.00000
4.00000 7.03348 4.00000
4.00000 7.03348 4.00000
4.00000 7.03348 4.00000
4.00000 7.03348 4.00000
4.00000 7.03348 4.00000
4.00000 7.03348 4.00000
4.00000 7.03348 4.00000
4.00000 7.03348 4.00000
4.00000 7.03348 4.00000
4.00000 7.03348 4.00000
4.00000 7.03348 4.00000
4.00000 7.03348 4.00000
4.00000 7.03348 4.00000
4.00000 7.03348 4.00000
4.00000 7.03348 4.00000
4.00000 7.03348 4.00000
4.00000 7.03349 4.00000
4.00000 7.03348 4.00000
4.00000 7.03348 4.00000
4.00000 7.03348 4.00000
4.00000 7.03347 4.00000
4.00000 7.03348 4.00000
4.00000 7.03348 4.00000
4.00000 7.03348 4.00000
4.00000 7.03347 4.00000
4.00000 7.03348 4.00000
4.00000 7.03347 4.00000
4.00000 7.03348 4.00000
4.00000 7.03348 4.00000
4.00000 7.03349 4.00000
4.00000 7.03348 4.00000
4.00000 7.03348 4.00000
4.00000 7.03347 4.00000
4.00000 7.03346 4.00000
4.00000 7.03348 4.00000
4.00000 7.03348 4.00000
4.00000 7.03348 4.00000
4.00000 7.03348 4.00000
4.00000 7.03348 4.00000
4.00000 7.03348 4.00000
4.00000 7.03348 4.00000
4.00000 7.03348 4.00000
4.00000 7.03347 4.00000
4.00000 7.03348 4.00000
4.00000 7.03347 4.00000
4.00000 7.03348 4.00000
4.00000 7.03348 4.00000
4.00000 7.03348 4.00000
4.00000 7.03348 4.00000
4.00000 7.03348 4.00000
4.00000 7.03348 4.00000
4.00000 7.03348 4.00000
4.00000 7.03348 4.00000
4.00000 7.03348 4.00000
4.00000 7.03348 4.00000
4.00000 7.03347 4.00000
4.00000 7.03348 4.00000
4.00000 7.03348 4.00000
4.00000 7.03348 4.00000
4.00000 7.03348 4.00000
4.00000 7.03348 4.00000
4.00000 7.03348 4.00000
4.00000 7.03348 4.00000
4.00000 7.03348 4.00000
4.00000 7.03348 4.00000
4.00000 7.03348 4.00000
4.00000 7.03348 4.00000
4.00001 7.03350 4.00001
4.00000 7.03348 4.00000
4.00000 7.03348 4.00000
4.00000 7.03348 4.00000
4.00000 7.03346 4.00000
4.00000 7.03346 4.00000
4.00000 7.03348 4.00000
4.00000 7.03348 4.00000
4.00000 7.03348 4.00000
4.00000 7.03349 4.00000
4.00000 7.03348 4.00000
4.00000 7.03348 4.00000
4.00000 7.03345 4.00000
4.00000 7.03348 4.00000
4.00000 7.03348 4.00000
4.00000 7.03348 4.00000
4.00000 7.03348 4.00000
4.00000 7.03348 4.00000
4.00000 7.03348 4.00000
4.00000 7.03348 4.00000
4.00000 7.03348 4.00000
4.00222 7.06768 4.00222
4.00704 7.14299 4.00704
4.01179 7.21854 4.01179
4.01650 7.29429 4.01650
4.02118 7.37018 4.02119
4.02585 7.44619 4.02585
4.03052 7.52224 4.03052
4.03522 7.59828 4.03522
4.03996 7.67427 4.03996
4.04476 7.75014 4.04476
4.04965 7.82584 4.04964
4.05465 7.90129 4.05464
4.05978 7.97643 4.05978
4.06509 8.05117 4.06509
4.07061 8.12541 4.07061
4.07637 8.19906 4.07637
4.08242 8.27199 4.08242
4.08882 8.34406 4.08882
4.09564 8.41511 4.09564
4.10294 8.48493 4.10294
4.11083 8.55333 4.11083
4.11940 8.62002 4.11940
4.12876 8.68473 4.12876
4.13889 8.74758 4.13889
4.14978 8.80863 4.14978
4.16145 8.86779 4.16145
4.17396 8.92500 4.17396
4.18732 8.98020 4.18732
4.20158 9.03335 4.20158
4.21676 9.08440 4.21676
4.23287 9.13335 4.23287
4.24994 9.18017 4.24994
4.26798 9.22486 4.26798
4.28699 9.26741 4.28699
4.30700 9.30782 4.30700
4.32802 9.34608 4.32802
4.35006 9.38218 4.35006
4.37315 9.41609 4.37315
4.39730 9.44776 4.39730
4.42258 9.47710 4.42258
4.44901 9.50401 4.44902
4.47670 9.52834 4.47669
4.50571 9.54989 4.50571
4.53618 9.56840 4.53618
4.56823 9.58358 4.56823
4.60204 9.59507 4.60204
4.63778 9.60248 4.63777
4.67563 9.60545 4.67560
4.02805 7.48200 7.45511
4.02368 7.41089 7.61379
4.02038 7.35715 7.75483
4.01775 7.31449 7.88463
4.01559 7.27958 8.00660
4.01378 7.25041 8.12278
4.01224 7.22565 8.23451
4.01091 7.20441 8.34273
4.00975 7.18600 8.44811
4.00874 7.16995 8.55114
4.00786 7.15587 8.65223
4.00707 7.14344 8.75167
4.00637 7.13244 8.84971
4.00575 7.12267 8.94656
4.00519 7.11396 9.04237
4.00469 7.10617 9.13728
4.00425 7.09921 9.23141
4.00385 7.09295 9.32486
4.00349 7.08733 9.41771
4.00316 7.08227 9.51004
4.00287 7.07770 9.60190
4.00260 7.07360 9.69335
4.00236 7.06988 9.78444
4.00215 7.06652 9.87522
4.00195 7.06348 9.96571
4.00177 7.06072 10.05594
4.00161 7.05824 10.14595
4.00146 7.05598 10.23577
4.00133 7.05393 10.32542
4.00121 7.05207 10.41491
4.00110 7.05038 10.50427
4.00100 7.04886 10.59350
4.00091 7.04746 10.68263
4.00083 7.04619 10.77168
4.00075 7.04505 10.86063
4.00069 7.04400 10.94952
4.00062 7.04306 11.03835
4.00057 7.04219 11.12713
4.00052 7.04141 11.21586
4.00047 7.04069 11.30455
4.00043 7.04005 11.39321
4.00039 7.03945 11.48185
4.00035 7.03892 11.57046
4.00032 7.03843 11.65905
4.00029 7.03798 11.74764
4.00027 7.03758 11.83621
4.00024 7.03721 11.92477
4.00022 7.03687 12.01333
4.00020 7.03657 12.10189
4.00018 7.03629 12.19045
4.00017 7.03604 12.27902
4.00015 7.03581 12.36758
4.00014 7.03559 12.45616
4.00013 7.03541 12.54474
4.00011 7.03523 12.63333
4.00010 7.03508 12.72193
4.00009 7.03493 12.81054
4.00009 7.03480 12.89916
4.00008 7.03468 12.98780
4.00007 7.03458 13.07645
4.00006 7.03448 13.16511
4.00006 7.03439 13.25379
4.00005 7.03431 13.34248
4.00005 7.03423 13.43119
4.00005 7.03416 13.51991
4.00004 7.03410 13.60865
4.00004 7.03405 13.69741
4.00003 7.03399 13.78618
4.00003 7.03395 13.87497
4.00003 7.03391 13.96377
4.00003 7.03387 14.05259
4.00002 7.03383 14.14142
4.00002 7.03380 14.23027
4.00002 7.03377 14.31914
4.00002 7.03375 14.40803
4.00002 7.03372 14.49693
4.00002 7.03370 14.58584
4.00001 7.03368 14.67477
4.00001 7.03366 14.76372
4.00001 7.03365 14.85268
4.00001 7.03363 14.94166
4.00001 7.03362 15.03066
4.00001 7.03360 15.11966
4.00001 7.03359 15.20869
4.00001 7.03358 15.29773
4.00001 7.03357 15.38678
4.00001 7.03356 15.47585
4.00001 7.03356 15.56493
4.00000 7.03355 15.65403
4.00000 7.03354 15.74314
4.00000 7.03354 15.83226
4.00000 7.03353 15.92140
4.00000 7.03353 16.01055
4.00000 7.03352 16.09972
4.00000 7.03352 16.18890
4.00000 7.03352 16.27809
4.00000 7.03351 16.36729
4.00000 7.03351 16.45651
4.00000 7.03351 16.54574
4.00000 7.03350 16.63498
4.00000 7.03350 16.72424
4.00000 7.03350 16.81350
4.00000 7.03350 16.90278
4.00000 7.03350 16.99207
4.00000 7.03350 17.08138
4.00000 7.03349 17.17069
4.00000 7.03349 17.26002
4.00000 7.03349 17.34935
4.00000 7.03349 17.43870
4.00000 7.03349 17.52806
4.00000 7.03349 17.61743
4.00000 7.03349 17.70681
4.00000 7.03349 17.79621
4.00000 7.03349 17.88561
4.00000 7.03349 17.97502
4.00000 7.03349 18.06444
4.00000 7.03348 18.15388
4.00000 7.03348 18.24332
4.00000 7.03348 18.33277
4.00000 7.03348 18.42223
4.00000 7.03348 18.51170
4.00000 7.03348 18.60119
4.00000 7.03348 18.69068
4.00000 7.03348 18.78017
4.00000 7.03348 18.86968
4.00000 7.03348 18.95920
4.00000 7.03348 19.04872
4.00000 7.03348 19.13826
4.00000 7.03348 19.22780
4.00000 7.03348 19.31735
4.00000 7.03348 19.40690
4.00000 7.03347 19.49648
4.00000 7.03348 19.58604
4.00000 7.03347 19.67563
4.00000 7.03347 19.76522
4.00000 7.03347 19.85482
4.00000 7.03347 19.94442
4.00000 7.03347 20.03403
4.00000 7.03347 20.12365
4.00000 7.03347 20.21328
4.00000 7.03347 20.30292
4.00000 7.03347 20.39256
4.00000 7.03347 20.48221
4.00000 7.03347 20.57186
4.00000 7.03347 20.66153
4.00000 7.03347 20.75120
4.00000 7.03348 20.84087
4.00000 7.03348 20.93055
4.00000 7.03348 21.02025
4.00000 7.03348 21.10994
4.00000 7.03348 21.19965
4.00000 7.03348 21.28936
4.00000 7.03348 21.37908
4.00000 7.03348 21.46880
4.00000 7.03348 21.55853
4.00000 7.03348 21.64827
4.00000 7.03348 21.73802
4.00000 7.03348 21.82776
4.00000 7.03348 21.91752
4.00000 7.03348 22.00728
4.00000 7.03348 22.09705
4.00000 7.03348 22.18682
4.00000 7.03348 22.27660
4.00000 7.03348 22.36638
4.00000 7.03348 22.45617
4.00000 7.03348 22.54597
4.00000 7.03348 22.63577
4.00000 7.03347 22.72558
4.00000 7.03348 22.81539
4.00000 7.03348 22.90520
4.00000 7.03348 22.99503
4.00000 7.03348 23.08486
4.00000 7.03348 23.17469
4.00000 7.03348 23.26453
4.00000 7.03348 23.35438
4.00000 7.03348 23.44423
4.00000 7.03348 23.53408
4.00000 7.03348 23.62394
4.00000 7.03348 23.71381
4.00000 7.03348 23.80368
4.00000 7.03348 23.89355
4.00000 7.03348 23.98343
4.00000 7.03348 24.07331
4.00000 7.03348 24.16320
4.00000 7.03347 24.25310
4.00000 7.03348 24.34299
4.00000 7.03348 24.43289
4.00000 7.03348 24.52280
4.00000 7.03347 24.61271
4.00000 7.03348 24.70262
4.00000 7.03348 24.79254
4.00000 7.03348 24.88247
4.00000 7.03348 24.97239
4.00000 7.03348 25.06232
4.00000 7.03347 25.15227
4.00000 7.03348 25.24221
4.00000 7.03347 25.33215
4.00000 7.03348 25.42209
4.00000 7.03348 25.51205
4.00000 7.03348 25.60200
4.00000 7.03348 25.69197
4.00000 7.03348 25.78193
4.00000 7.03348 25.87191
4.00000 7.03348 25.96188
4.00000 7.03348 26.05186
4.00000 7.03348 26.14184
4.00000 7.03348 26.23183
4.00000 7.03348 26.32181
4.00000 7.03348 26.41181
4.00000 7.03348 26.50180
4.00000 7.03348 26.59180
4.00000 7.03348 26.68180
4.00000 7.03348 26.77181
4.00000 7.03348 26.86181
4.00000 7.03348 26.95182
4.00000 7.03348 27.04184
4.00000 7.03348 27.13186
4.00000 7.03348 27.22188
4.00000 7.03348 27.31189
4.00000 7.03348 27.40192
4.00000 7.03347 27.49195
4.00000 7.03348 27.58197
4.00000 7.03348 27.67200
4.00000 7.03348 27.76204
4.00000 7.03348 27.85207
4.00000 7.03348 27.94211
4.00000 7.03348 28.03215
4.00000 7.03348 28.12220
4.00000 7.03348 28.21225
4.00000 7.03348 28.30230

Angle 0.403339 5.805100

4.00000 7.03348 4.00000
4.00000 7.03348 4.00000
4.00000 7.03348 4.00000
4.00000 7.03348 4.00000
4.00000 7.03348 4.00000
4.00000 7.03348 4.00000
4.00000 7.03348 4.00000
4.00000 7.03348 4.00000
4.00000 7.03348 4.00000
4.00000 7.03348 4.00000
4.00000 7.03347 4.00000
4.00000 7.03348 4.00000
4.00000 7.03348 4.00000
4.00000 7.03348 4.00000
4.00000 7.03348 4.00000
4.00000 7.03348 4.00000
4.00000 7.03348 4.00000
4.00000 7.03348 4.00000
4.00000 7.03348 4.00000
4.00000 7.03348 4.00000
4.00000 7.03348 4.00000
4.00000 7.03348 4.00000
4.00000 7.03348 4.00000
4.00000 7.03348 4.00000
4.00000 7.03348 4.00000
4.00000 7.03348 4.00000
4.00000 7.03348 4.00000
4.00000 7.03348 4.00000
4.00000 7.03348 4.00000
4.00000 7.03348 4.00000
4.00000 7.03348 4.00000
4.00000 7.03346 4.00000
4.00000 7.03347 4.00000
4.00000 7.03348 4.00000
4.00000 7.03348 4.00000
4.00000 7.03348 4.00000
4.00000 7.03348 4.00000
4.00000 7.03348 4.00000
4.00000 7.03348 4.00000
4.00000 7.03348 4.00000
4.00000 7.03348 4.00000
4.00000 7.03348 4.00000
4.00000 7.03348 4.00000
4.00000 7.03348 4.00000
4.00000 7.03348 4.00000
4.00000 7.03348 4.00000
4.00000 7.03348 4.00000
4.00000 7.03348 4.00000
4.00000 7.03348 4.00000
4.00000 7.03348 4.00000
4.00000 7.03348 4.00000
4.00000 7.03348 4.00000
4.00000 7.03348 4.00000
4.00000 7.03348 4.00000
4.00000 7.03348 4.00000
4.00000 7.03348 4.00000
4.00000 7.03348 4.00000
4.00000 7.03348 4.00000
4.00000 7.03348 4.00000
4.00000 7.03349 4.00000
4.00000 7.03348 4.00000
4.00000 7.03348 4.00000
4.00000 7.03348 4.00000
4.00000 7.03348 4.00000
4.00000 7.03348 4.00000
4.00000 7.03348 4.00000
4.00000 7.03348 4.00000
4.00000 7.03348 4.00000
4.00000 7.03348 4.00000
4.00000 7.03348 4.00000
4.00000 7.03348 4.00000
4.00000 7.03348 4.00000
4.00000 7.03348 4.00000
4.00000 7.03348 4.00000
4.00000 7.03348 4.00000
4.00000 7.03348 4.00000
4.00000 7.03348 4.00000
4.00000 7.03348 4.00000
4.00000 7.03348 4.00000
4.00000 7.03348 4.00000
4.00000 7.03348 4.00000
4.00000 7.03348 4.00000
4.00000 7.03348 4.00000
4.00000 7.03350 4.00000
4.00000 7.03348 4.00000
4.00000 7.03348 4.00000
4.00000 7.03348 4.00000
4.00000 7.03348 4.00000
4.00000 7.03348 4.00000
4.00000 7.03348 4.00000
4.00000 7.03348 4.00000
4.00000 7.03348 4.00000
4.00000 7.03349 4.00000
4.00000 7.03348 4.00000
4.00000 7.03348 4.00000
4.00000 7.03348 4.00000
4.00000 7.03348 4.00000
4.00000 7.03348 4.00000
4.00000 7.03348 4.00000
4.00000 7.03348 4.00000
4.00000 7.03348 4.00000
4.00000 7.03348 4.00000
4.00000 7.03348 4.00000
4.00000 7.03348 4.00000
4.00000 7.03348 4.00000
4.00000 7.03348 4.00000
4.00000 7.03348 4.00000
4.00000 7.03348 4.00000
4.00000 7.03348 4.00000
4.00000 7.03348 4.00000
4.00000 7.03348 4.00000
4.00000 7.03348 4.00000
4.00000 7.03348 4.00000
4.00000 7.03348 4.00000
4.00000 7.03348 4.00000
4.00000 7.03348 4.00000
4.00000 7.03348 4.00000
4.00000 7.03348 4.00000
4.00000 7.03348 4.00000
4.00000 7.03348 4.00000
4.00000 7.03348 4.00000
4.00000 7.03348 4.00000
4.00000 7.03348 4.00000
4.00000 7.03348 4.00000
4.00000 7.03348 4.00000
4.00000 7.03348 4.00000
4.00000 7.03348 4.00000
4.00000 7.03348 4.00000
4.00000 7.03348 4.00000
4.00000 7.03348 4.00000
4.00000 7.03348 4.00000
4.00000 7.03348 4.00000
4.00000 7.03348 4.00000
4.00000 7.03348 4.00000
4.00000 7.03348 4.00000
4.00000 7.03348 4.00000
4.00000 7.03348 4.00000
4.00000 7.03348 4.00000
4.00000 7.03348 4.00000
4.00000 7.03348 4.00000
4.00000 7.03348 4.00000
4.00000 7.03348 4.00000
4.00000 7.03348 4.00000
4.00000 7.03348 4.00000
4.00000 7.03348 4.00000
4.00000 7.03348 4.00000
4.00000 7.03348 4.00000
4.00000 7.03348 4.00000
4.00000 7.03348 4.00000
4.00000 7.03348 4.00000
4.00000 7.03348 4.00000
4.00000 7.03349 4.00000
4.00000 7.03349 4.00000
4.00000 7.03348 4.00000
4.00000 7.03348 4.00000
4.00000 7.03349 4.00000
4.00000 7.03348 4.00000
4.00000 7.03348 4.00000
4.00000 7.03351 4.00000
4.00446 7.10249 4.00446
4.00900 7.17406 4.00900
4.01350 7.24590 4.01350
4.01797 7.31795 4.01797
4.02241 7.39017 4.02241
4.02685 7.46251 4.02685
4.03130 7.53493 4.03130
4.03578 7.60740 4.03578
4.04031 7.67984 4.04031
4.04489 7.75223 4.04489
4.04956 7.82449 4.04956
4.05433 7.89658 4.05433
4.05923 7.96842 4.05923
4.06428 8.03995 4.06428
4.06952 8.11108 4.06952
4.07498 8.18172 4.07498
4.08070 8.25177 4.08070
4.08673 8.32110 4.08673
4.09312 8.38958 4.09312
4.09994 8.45704 4.09994
4.10726 8.52329 4.10726
4.11518 8.58813 4.11518
4.12378 8.65128 4.12378
4.13313 8.71263 4.13313
4.14318 8.77235 4.14317
4.15393 8.83040 4.15393
4.16544 8.88670 4.16544
4.17774 8.94120 4.17774
4.19085 8.99385 4.19085
4.20480 9.04460 4.20480
4.21961 9.09343 4.21961
4.23530 9.14030 4.23530
4.25189 9.18522 4.25189
4.26939 9.22817 4.26939
4.28781 9.26914 4.28781
4.30717 9.30813 4.30717
4.32747 9.34513 4.32747
4.34874 9.38013 4.34874
4.37099 9.41308 4.37099
4.39425 9.44396 4.39425
4.41856 9.47268 4.41856
4.44396 9.49915 4.44396
4.47052 9.52324 4.47052
4.49832 9.54477 4.49832
4.52746 9.56352 4.52746
4.55807 9.57923 4.55807
4.59028 9.59158 4.59028
4.62426 9.60023 4.62427
4.66018 9.60482 4.66018
7.37837 7.52093 4.03044
7.54372 7.44080 4.02552
7.68773 7.38169 4.02189
7.81878 7.33537 4.01904
7.94104 7.29777 4.01672
8.05693 7.26648 4.01478
8.16800 7.24002 4.01314
8.27527 7.21736 4.01172
8.37951 7.19774 4.01049
8.48126 7.18065 4.00942
8.58095 7.16564 4.00847
8.67890 7.15241 4.00764
8.77540 7.14067 4.00689
8.87064 7.13024 4.00623
8.96480 7.12094 4.00564
9.05802 7.11262 4.00511
9.15045 7.10515 4.00463
9.24216 7.09845 4.00420
9.33325 7.09242 4.00381
9.42378 7.08699 4.00347
9.51388 7.08207 4.00315
9.60354 7.07763 4.00286
9.69283 7.07361 4.00260
9.78179 7.06998 4.00237
9.87047 7.06668 4.00215
9.95889 7.06370 4.00196
10.04709 7.06099 4.00179
10.13510 7.05852 4.00163
10.22292 7.05629 4.00148
10.31060 7.05426 4.00135
10.39815 7.05241 4.00123
10.48559 7.05072 4.00112
10.57292 7.04919 4.00102
10.66017 7.04780 4.00093
10.74734 7.04653 4.00085
10.83444 7.04538 4.00078
10.92150 7.04432 4.00071
11.00851 7.04336 4.00064
11.09548 7.04249 4.00059
11.18242 7.04170 4.00054
11.26934 7.04097 4.00049
11.35624 7.04031 4.00045
11.44313 7.03971 4.00041
11.53001 7.03916 4.00037
11.61687 7.03867 4.00034
11.70376 7.03820 4.00031
11.79063 7.03778 4.00028
11.87751 7.03741 4.00026
11.96441 7.03706 4.00023
12.05132 7.03673 4.00022
12.13823 7.03646 4.00019
12.22516 7.03619 4.00018
12.31211 7.03595 4.00016
12.39907 7.03574 4.00014
12.48606 7.03553 4.00013
12.57307 7.03535 4.00012
12.66010 7.03519 4.00011
12.74715 7.03503 4.00010
12.83422 7.03490 4.00009
12.92132 7.03477 4.00009
13.00844 7.03466 4.00008
13.09559 7.03455 4.00007
13.18276 7.03446 4.00006
13.26995 7.03437 4.00006
13.35718 7.03429 4.00005
13.44443 7.03422 4.00005
13.53171 7.03415 4.00005
13.61901 7.03409 4.00004
13.70634 7.03404 4.00004
13.79370 7.03399 4.00004
13.88108 7.03395 4.00003
13.96849 7.03390 4.00003
14.05590 7.03387 4.00003
14.14336 7.03383 4.00002
14.23084 7.03380 4.00002
14.31836 7.03377 4.00002
14.40589 7.03375 4.00002
14.49346 7.03372 4.00002
14.58105 7.03370 4.00002
14.66866 7.03368 4.00001
14.75630 7.03366 4.00001
14.84397 7.03365 4.00001
14.93166 7.03363 4.00001
15.01938 7.03362 4.00001
15.10712 7.03361 4.00001
15.19488 7.03359 4.00001
15.28267 7.03358 4.00001
15.37048 7.03357 4.00001
15.45832 7.03357 4.00001
15.54618 7.03356 4.00001
15.63406 7.03355 4.00001
15.72197 7.03355 4.00000
15.80990 7.03354 4.00000
15.89785 7.03353 4.00000
15.98582 7.03353 4.00000
16.07381 7.03352 4.00000
16.16183 7.03352 4.00000
16.24987 7.03352 4.00000
16.33793 7.03351 4.00000
16.42599 7.03351 4.00000
16.51407 7.03351 4.00000
16.60217 7.03351 4.00000
16.69029 7.03350 4.00000
16.77842 7.03350 4.00000
16.86658 7.03350 4.00000
16.95476 7.03350 4.00000
17.04296 7.03350 4.00000
17.13117 7.03349 4.00000
17.21941 7.03349 4.00000
17.30766 7.03349 4.00000
17.39593 7.03349 4.00000
17.48422 7.03349 4.00000
17.57252 7.03349 4.00000
17.66086 7.03348 4.00000
17.74919 7.03349 4.00000
17.83756 7.03348 4.00000
17.92593 7.03349 4.00000
18.01433 7.03348 4.00000
18.10274 7.03348 4.00000
18.19117 7.03348 4.00000
18.27961 7.03348 4.00000
18.36807 7.03348 4.00000
18.45655 7.03348 4.00000
18.54504 7.03348 4.00000
18.63355 7.03348 4.00000
18.72207 7.03348 4.00000
18.81061 7.03348 4.00000
18.89916 7.03348 4.00000
18.98773 7.03347 4.00000
19.07631 7.03347 4.00000
19.16491 7.03347 4.00000
19.25351 7.03348 4.00000
19.34213 7.03348 4.00000
19.43078 7.03348 4.00000
19.51942 7.03348 4.00000
19.60809 7.03348 4.00000
19.69677 7.03348 4.00000
19.78546 7.03348 4.00000
19.87417 7.03348 4.00000
19.96289 7.03348 4.00000
20.05162 7.03348 4.00000
20.14037 7.03348 4.00000
20.22913 7.03348 4.00000
20.31790 7.03348 4.00000
20.40667 7.03348 4.00000
20.49546 7.03348 4.00000
20.58426 7.03348 4.00000
20.67307 7.03348 4.00000
20.76189 7.03348 4.00000
20.85073 7.03348 4.00000
20.93958 7.03348 4.00000
21.02844 7.03348 4.00000
21.11733 7.03347 4.00000
21.20621 7.03348 4.00000
21.29511 7.03348 4.00000
21.38402 7.03348 4.00000
21.47294 7.03348 4.00000
21.56188 7.03348 4.00000
21.65082 7.03348 4.00000
21.73978 7.03348 4.00000
21.82874 7.03348 4.00000
21.91772 7.03348 4.00000
22.00670 7.03348 4.00000
22.09570 7.03348 4.00000
22.18470 7.03348 4.00000
22.27372 7.03348 4.00000
22.36275 7.03348 4.00000
22.45178 7.03348 4.00000
22.54083 7.03348 4.00000
22.62988 7.03348 4.00000
22.71894 7.03348 4.00000
22.80802 7.03348 4.00000
22.89710 7.03348 4.00000
22.98619 7.03348 4.00000
23.07529 7.03347 4.00000
23.16440 7.03348 4.00000
23.25352 7.03348 4.00000
23.34265 7.03348 4.00000
23.43178 7.03348 4.00000
23.52092 7.03348 4.00000
23.61007 7.03347 4.00000
23.69922 7.03348 4.00000
23.78839 7.03348 4.00000
23.87755 7.03350 4.00000
23.96675 7.03348 4.00000
24.05595 7.03348 4.00000
24.14515 7.03348 4.00000
24.23437 7.03348 4.00000
24.32359 7.03348 4.00000
24.41282 7.03348 4.00000
24.50206 7.03348 4.00000
24.59131 7.03348 4.00000

