Angle 0.704750 4.098948

4.00000 7.03348 4.00000
4.00000 7.03348 4.00000
4.00000 7.03348 4.00000
4.00000 7.03348 4.00000
4.00000 7.03348 4.00000
4.00000 7.03348 4.00000
4.00000 7.03348 4.00000
4.00000 7.03348 4.00000
4.00000 7.03348 4.00000
4.00000 7.03348 4.00000
4.00000 7.03348 4.00000
4.00000 7.03348 4.00000
4.00000 7.03348 4.00000
4.00000 7.03348 4.00000
4.00000 7.03348 4.00000
4.00000 7.03348 4.00000
4.00000 7.03348 4.00000
4.00000 7.03348 4.00000
4.00000 7.03348 4.00000
4.00000 7.03348 4.00000
4.00000 7.03348 4.00000
4.00000 7.03348 4.00000
4.00000 7.03348 4.00000
4.00000 7.03348 4.00000
4.00000 7.03348 4.00000
4.00000 7.03348 4.00000
4.00000 7.03348 4.00000
4.00000 7.03348 4.00000
4.00000 7.03348 4.00000
4.00000 7.03348 4.00000
4.00000 7.03348 4.00000
4.00000 7.03348 4.00000
4.00000 7.03348 4.00000
4.00000 7.03348 4.00000
4.00000 7.03348 4.00000
4.00000 7.03348 4.00000
4.00000 7.03348 4.00000
4.00000 7.03347 4.00000
4.00000 7.03347 4.00000
4.00000 7.03348 4.00000
4.00000 7.03348 4.00000
4.00000 7.03347 4.00000
4.00000 7.03348 4.00000
4.00000 7.03348 4.00000
4.00000 7.03348 4.00000
4.00000 7.03348 4.00000
4.00000 7.03348 4.00000
4.00000 7.03348 4.00000
4.00000 7.03348 4.00000
4.00000 7.03348 4.00000
4.00000 7.03348 4.00000
4.00000 7.03348 4.00000
4.00000 7.03348 4.00000
4.00000 7.03347 4.00000
4.00000 7.03348 4.00000
4.00000 7.03348 4.00000
4.00000 7.03348 4.00000
4.00000 7.03348 4.00000
4.00000 7.03348 4.00000
4.00000 7.03348 4.00000
4.00000 7.03349 4.00000
4.00000 7.03349 4.00000
4.00000 7.03349 4.00000
4.00000 7.03349 4.00000
4.00000 7.03349 4.00000
4.00000 7.03350 4.00000
4.00000 7.03349 4.00000
4.00000 7.03349 4.00000
4.00000 7.03349 4.00000
4.00000 7.03348 4.00000
4.00000 7.03348 4.00000
4.00000 7.03348 4.00000
4.00000 7.03348 4.00000
4.00000 7.03348 4.00000
4.00000 7.03348 4.00000
4.00000 7.03348 4.00000
4.00000 7.03348 4.00000
4.00000 7.03348 4.00000
4.00000 7.03348 4.00000
4.00000 7.03348 4.00000
4.00000 7.03348 4.00000
4.00000 7.03348 4.00000
4.00000 7.03348 4.00000
4.00000 7.03348 4.00000
4.00000 7.03348 4.00000
4.00000 7.03348 4.00000
4.00000 7.03348 4.00000
4.00000 7.03348 4.00000
4.00000 7.03348 4.00000
4.00000 7.03348 4.00000
4.00000 7.03348 4.00000
4.00000 7.03348 4.00000
4.00000 7.03348 4.00000
4.00000 7.03348 4.00000
4.00000 7.03348 4.00000
4.00000 7.03348 4.00000
4.00000 7.03348 4.00000
4.00000 7.03348 4.00000
4.00000 7.03348 4.00000
4.00000 7.03348 4.00000
4.00000 7.03348 4.00000
4.00000 7.03348 4.00000
4.00000 7.03348 4.00000
4.00000 7.03348 4.00000
4.00000 7.03348 4.00000
4.00000 7.03348 4.00000
4.00000 7.03348 4.00000
4.00000 7.03348 4.00000
4.00000 7.03348 4.00000
4.00000 7.03348 4.00000
4.00000 7.03348 4.00000
4.00000 7.03348 4.00000
4.00000 7.03348 4.00000
4.00000 7.03348 4.00000
4.00000 7.03348 4.00000
4.00000 7.03348 4.00000
4.00000 7.03348 4.00000
4.00000 7.03348 4.00000
4.00000 7.03348 4.00000
4.00000 7.03348 4.00000
4.00000 7.03347 4.00000
4.00000 7.03347 4.00000
4.00000 7.03348 4.00000
4.00000 7.03348 4.00000
4.00000 7.03348 4.00000
4.00000 7.03348 4.00000
4.00000 7.03348 4.00000
4.00000 7.03348 4.00000
4.00000 7.03348 4.00000
4.00000 7.03350 4.00000
4.00000 7.03348 4.00000
4.00000 7.03348 4.00000
4.00000 7.03348 4.00000
4.00000 7.03348 4.00000
4.00000 7.03348 4.00000
4.00000 7.03348 4.00000
4.00000 7.03348 4.00000
4.00000 7.03348 4.00000
4.00000 7.03348 4.00000
4.00000 7.03346 4.00000
4.00000 7.03348 4.00000
4.00000 7.03348 4.00000
4.00000 7.03348 4.00000
4.00000 7.03348 4.00000
4.00000 7.03348 4.00000
4.00000 7.03348 4.00000
4.00000 7.03348 4.00000
4.00000 7.03348 4.00000
4.00000 7.03348 4.00000
4.00000 7.03348 4.00000
4.00000 7.03348 4.00000
4.00000 7.03348 4.00000
4.00000 7.03348 4.00000
4.00000 7.03348 4.00000
4.00000 7.03348 4.00000
4.00000 7.03348 4.00000
4.00000 7.03348 4.00000
4.00000 7.03348 4.00000
4.00000 7.03347 4.00000
4.00000 7.03348 4.00000
4.00000 7.03348 4.00000
4.00000 7.03348 4.00000
4.00000 7.03348 4.00000
4.00000 7.03348 4.00000
4.00000 7.03348 4.00000
4.00000 7.03347 4.00000
4.00000 7.03349 4.00000
4.00000 7.03348 4.00000
4.00000 7.03348 4.00000
4.00000 7.03348 4.00000
4.00000 7.03348 4.00000
4.00000 7.03348 4.00000
4.00000 7.03348 4.00000
4.00000 7.03348 4.00000
4.00000 7.03348 4.00000
4.00000 7.03353 4.00000
4.00463 7.10514 4.00463
4.00924 7.17786 4.00924
4.01381 7.25083 4.01381
4.01834 7.32400 4.01834
4.02285 7.39733 4.02285
4.02736 7.47076 4.02736
4.03188 7.54426 4.03188
4.03643 7.61777 4.03643
4.04102 7.69125 4.04102
4.04569 7.76464 4.04569
4.05044 7.83789 4.05044
4.05529 7.91092 4.05529
4.06029 7.98368 4.06029
4.06545 8.05609 4.06545
4.07081 8.12805 4.07081
4.07640 8.19948 4.07640
4.08227 8.27025 4.08227
4.08847 8.34025 4.08847
4.09506 8.40931 4.09506
4.10211 8.47726 4.10211
4.10969 8.54391 4.10969
4.11791 8.60901 4.11791
4.12688 8.67229 4.12688
4.13658 8.73379 4.13658
4.14699 8.79362 4.14700
4.15815 8.85169 4.15815
4.17009 8.90794 4.17009
4.18284 8.96233 4.18284
4.19644 9.01479 4.19644
4.21090 9.06530 4.21090
4.22624 9.11382 4.22624
4.24250 9.16034 4.24250
4.25967 9.20485 4.25967
4.27778 9.24733 4.27778
4.29683 9.28779 4.29683
4.31684 9.32622 4.31684
4.33782 9.36261 4.33782
4.35979 9.39693 4.35979
4.38278 9.42916 4.38278
4.40680 9.45922 4.40680
4.43192 9.48704 4.43192
4.45818 9.51249 4.45818
4.48567 9.53542 4.48566
4.51446 9.55563 4.51446
4.54469 9.57286 4.54469
4.57651 9.58680 4.57647
4.61001 9.59713 4.61002
4.64544 9.60348 4.64544
4.03300 7.56231 7.30315
4.02722 7.46855 7.48312
4.02315 7.40219 7.63521
4.02002 7.35128 7.77163
4.01751 7.31049 7.89781
4.01543 7.27688 8.01675
4.01367 7.24865 8.13029
4.01218 7.22459 8.23965
4.01088 7.20386 8.34568
4.00975 7.18586 8.44901
4.00875 7.17011 8.55011
4.00788 7.15624 8.64935
4.00710 7.14399 8.74701
4.00642 7.13312 8.84334
4.00580 7.12344 8.93851
4.00525 7.11480 9.03269
4.00475 7.10705 9.12601
4.00430 7.10011 9.21859
4.00391 7.09387 9.31050
4.00355 7.08825 9.40184
4.00322 7.08318 9.49268
4.00293 7.07861 9.58307
4.00266 7.07447 9.67307
4.00242 7.07073 9.76273
4.00220 7.06733 9.85209
4.00200 7.06427 9.94116
4.00182 7.06149 10.03000
4.00166 7.05897 10.11863
4.00151 7.05667 10.20709
4.00137 7.05459 10.29537
4.00125 7.05271 10.38351
4.00114 7.05098 10.47154
4.00104 7.04942 10.55945
4.00094 7.04800 10.64726
4.00086 7.04671 10.73499
4.00079 7.04552 10.82266
4.00071 7.04446 10.91027
4.00065 7.04348 10.99782
4.00059 7.04259 11.08533
4.00054 7.04178 11.17280
4.00049 7.04104 11.26024
4.00045 7.04037 11.34766
4.00041 7.03976 11.43506
4.00037 7.03920 11.52245
4.00034 7.03869 11.60983
4.00031 7.03823 11.69720
4.00028 7.03781 11.78458
4.00026 7.03743 11.87195
4.00023 7.03707 11.95933
4.00021 7.03676 12.04671
4.00019 7.03647 12.13411
4.00018 7.03620 12.22151
4.00016 7.03596 12.30893
4.00015 7.03574 12.39636
4.00013 7.03554 12.48381
4.00012 7.03535 12.57128
4.00011 7.03519 12.65876
4.00010 7.03504 12.74627
4.00009 7.03489 12.83379
4.00008 7.03477 12.92133
4.00008 7.03465 13.00890
4.00007 7.03455 13.09648
4.00006 7.03445 13.18409
4.00006 7.03436 13.27172
4.00005 7.03428 13.35937
4.00005 7.03421 13.44705
4.00004 7.03415 13.53475
4.00004 7.03409 13.62247
4.00004 7.03404 13.71021
4.00003 7.03399 13.79797
4.00003 7.03394 13.88577
4.00003 7.03390 13.97358
4.00003 7.03386 14.06141
4.00002 7.03382 14.14928
4.00002 7.03380 14.23716
4.00002 7.03376 14.32507
4.00002 7.03374 14.41299
4.00002 7.03372 14.50095
4.00001 7.03370 14.58892
4.00001 7.03368 14.67692
4.00001 7.03366 14.76494
4.00001 7.03364 14.85298
4.00001 7.03363 14.94104
4.00001 7.03362 15.02913
4.00001 7.03360 15.11724
4.00001 7.03359 15.20537
4.00001 7.03358 15.29351
4.00001 7.03357 15.38169
4.00001 7.03356 15.46988
4.00000 7.03355 15.55809
4.00000 7.03355 15.64631
4.00000 7.03354 15.73457
4.00000 7.03354 15.82283
4.00000 7.03353 15.91112
4.00000 7.03353 15.99943
4.00000 7.03352 16.08776
4.00000 7.03352 16.17611
4.00000 7.03352 16.26447
4.00000 7.03352 16.35285
4.00000 7.03351 16.44126
4.00000 7.03351 16.52968
4.00000 7.03350 16.61812
4.00000 7.03350 16.70657
4.00000 7.03349 16.79505
4.00000 7.03350 16.88353
4.00000 7.03350 16.97204
4.00000 7.03350 17.06056
4.00000 7.03349 17.14910
4.00000 7.03349 17.23766
4.00000 7.03349 17.32623
4.00000 7.03349 17.41482
4.00000 7.03349 17.50342
4.00000 7.03349 17.59204
4.00000 7.03349 17.68068
4.00000 7.03349 17.76933
4.00000 7.03348 17.85800
4.00000 7.03349 17.94667
4.00000 7.03348 18.03537
4.00000 7.03348 18.12407
4.00000 7.03348 18.21280
4.00000 7.03348 18.30153
4.00000 7.03348 18.39029
4.00000 7.03348 18.47905
4.00000 7.03348 18.56783
4.00000 7.03348 18.65662
4.00000 7.03348 18.74543
4.00000 7.03348 18.83425
4.00000 7.03348 18.92307
4.00000 7.03348 19.01192
4.00000 7.03347 19.10078
4.00000 7.03348 19.18964
4.00000 7.03348 19.27852
4.00000 7.03348 19.36741
4.00000 7.03348 19.45632
4.00000 7.03348 19.54524
4.00000 7.03348 19.63417
4.00000 7.03348 19.72311
4.00000 7.03348 19.81206
4.00000 7.03348 19.90103
4.00000 7.03348 19.99000
4.00000 7.03348 20.07899
4.00000 7.03348 20.16799
4.00000 7.03348 20.25700
4.00000 7.03348 20.34602
4.00000 7.03348 20.43506
4.00000 7.03348 20.52410
4.00000 7.03348 20.61316
4.00000 7.03348 20.70222
4.00000 7.03348 20.79130
4.00000 7.03348 20.88039
4.00000 7.03348 20.96948
4.00000 7.03348 21.05859
4.00000 7.03348 21.14771
4.00000 7.03348 21.23683
4.00000 7.03348 21.32597
4.00000 7.03348 21.41512
4.00000 7.03348 21.50428
4.00000 7.03348 21.59345
4.00000 7.03348 21.68262
4.00000 7.03348 21.77181
4.00000 7.03348 21.86101
4.00000 7.03348 21.95022
4.00000 7.03348 22.03943
4.00000 7.03348 22.12866
4.00000 7.03348 22.21789
4.00000 7.03348 22.30714
4.00000 7.03348 22.39639
4.00000 7.03348 22.48565
4.00000 7.03348 22.57493
4.00000 7.03348 22.66421
4.00000 7.03348 22.75350
4.00000 7.03348 22.84280
4.00000 7.03348 22.93211
4.00000 7.03348 23.02143
4.00000 7.03348 23.11076
4.00000 7.03348 23.20009

Angle 0.047879 3.299580

4.00000 7.03348 4.00000
4.00000 7.03348 4.00000
4.00000 7.03348 4.00000
4.00000 7.03348 4.00000
4.00000 7.03348 4.00000
4.00000 7.03348 4.00000
4.00000 7.03348 4.00000
4.00000 7.03348 4.00000
4.00000 7.03348 4.00000
4.00000 7.03348 4.00000
4.00000 7.03348 4.00000
4.00000 7.03348 4.00000
4.00000 7.03348 4.00000
4.00000 7.03348 4.00000
4.00000 7.03348 4.00000
4.00000 7.03348 4.00000
4.00000 7.03348 4.00000
4.00000 7.03348 4.00000
4.00000 7.03348 4.00000
4.00000 7.03348 4.00000
4.00000 7.03348 4.00000
4.00000 7.03348 4.00000
4.00000 7.03348 4.00000
4.00000 7.03348 4.00000
4.00000 7.03348 4.00000
4.00000 7.03348 4.00000
4.00000 7.03348 4.00000
4.00000 7.03348 4.00000
4.00000 7.03348 4.00000
4.00000 7.03348 4.00000
4.00000 7.03348 4.00000
4.00000 7.03348 4.00000
4.00001 7.03344 4.00000
4.00000 7.03348 4.00000
4.00000 7.03348 4.00000
4.00000 7.03348 4.00000
4.00000 7.03348 4.00000
4.00000 7.03348 4.00000
4.00000 7.03348 4.00000
4.00000 7.03348 4.00000
4.00000 7.03348 4.00000
4.00000 7.03348 4.00000
4.00000 7.03348 4.00000
4.00000 7.03348 4.00000
4.00000 7.03348 4.00000
4.00000 7.03348 4.00000
4.00000 7.03348 4.00000
4.00000 7.03348 4.00000
4.00000 7.03348 4.00000
4.00000 7.03348 4.00000
4.00000 7.03347 4.00000
4.00000 7.03347 4.00000
4.00000 7.03348 4.00000
4.00000 7.03348 4.00000
4.00000 7.03348 4.00000
4.00000 7.03348 4.00000
4.00000 7.03348 4.00000
4.00000 7.03347 4.00000
4.00000 7.03348 4.00000
4.00000 7.03347 4.00000
4.00000 7.03348 4.00000
4.00000 7.03348 4.00000
4.00000 7.03348 4.00000
4.00000 7.03348 4.00000
4.00000 7.03348 4.00000
4.00000 7.03348 4.00000
4.00000 7.03348 4.00000
4.00000 7.03348 4.00000
4.00000 7.03348 4.00000
4.00000 7.03348 4.00000
4.00000 7.03348 4.00000
4.00000 7.03348 4.00000
4.00000 7.03348 4.00000
4.00000 7.03348 4.00000
4.00000 7.03348 4.00000
4.00000 7.03348 4.00000
4.00000 7.03348 4.00000
4.00000 7.03348 4.00000
4.00000 7.03348 4.00000
4.00000 7.03348 4.00000
4.00000 7.03348 4.00000
4.00000 7.03348 4.00000
4.00000 7.03348 4.00000
4.00000 7.03348 4.00000
4.00000 7.03348 4.00000
4.00000 7.03348 4.00000
4.00000 7.03348 4.00000
4.00000 7.03348 4.00000
4.00000 7.03348 4.00000
4.00000 7.03348 4.00000
4.00000 7.03348 4.00000
4.00000 7.03348 4.00000
4.00000 7.03348 4.00000
4.00000 7.03348 4.00000
4.00000 7.03348 4.00000
4.00000 7.03348 4.00000
4.00000 7.03348 4.00000
4.00000 7.03348 4.00000
4.00000 7.03348 4.00000
4.00000 7.03348 4.00000
4.00000 7.03348 4.00000
4.00000 7.03348 4.00000
4.00000 7.03348 4.00000
4.00000 7.03348 4.00000
4.00000 7.03348 4.00000
4.00000 7.03348 4.00000
4.00000 7.03348 4.00000
4.00000 7.03348 4.00000
4.00000 7.03348 4.00000
4.00000 7.03348 4.00000
4.00000 7.03348 4.00000
4.00000 7.03348 4.00000
4.00000 7.03348 4.00000
4.00000 7.03348 4.00000
4.00000 7.03348 4.00000
4.00000 7.03348 4.00000
4.00000 7.03348 4.00000
4.00000 7.03348 4.00000
4.00000 7.03348 4.00000
4.00000 7.03348 4.00000
4.00000 7.03348 4.00000
4.00000 7.03348 4.00000
4.00000 7.03348 4.00000
4.00000 7.03348 4.00000
4.00000 7.03348 4.00000
4.00000 7.03348 4.00000
4.00000 7.03348 4.00000
4.00000 7.03348 4.00000
4.00000 7.03348 4.00000
4.00000 7.03348 4.00000
4.00000 7.03348 4.00000
4.00000 7.03348 4.00000
4.00000 7.03348 4.00000
4.00000 7.03348 4.00000
4.00000 7.03348 4.00000
4.00000 7.03348 4.00000
4.00000 7.03348 4.00000
4.00000 7.03348 4.00000
4.00000 7.03348 4.00000
4.00000 7.03348 4.00000
4.00000 7.03348 4.00000
4.00000 7.03348 4.00000
4.00000 7.03348 4.00000
4.00000 7.03348 4.00000
4.00000 7.03348 4.00000
4.00000 7.03348 4.00000
4.00000 7.03348 4.00000
4.00000 7.03348 4.00000
4.00000 7.03348 4.00000
4.00000 7.03348 4.00000
4.00000 7.03348 4.00000
4.00000 7.03348 4.00000
4.00000 7.03348 4.00000
4.00000 7.03348 4.00000
4.00000 7.03348 4.00000
4.00000 7.03348 4.00000
4.00000 7.03348 4.00000
4.00000 7.03348 4.00000
4.00000 7.03348 4.00000
4.00000 7.03348 4.00000
4.00000 7.03348 4.00000
4.00000 7.03348 4.00000
4.00000 7.03348 4.00000
4.00000 7.03348 4.00000
4.00000 7.03348 4.00000
4.00000 7.03348 4.00000
4.00000 7.03348 4.00000
4.00000 7.03348 4.00000
4.00000 7.03348 4.00000
4.00000 7.03348 4.00000
4.00000 7.03347 4.00000
4.00000 7.03348 4.00000
4.00000 7.03348 4.00000
4.00000 7.03348 4.00000
4.00000 7.03348 4.00000
4.00000 7.03348 4.00000
4.00000 7.03348 4.00000
4.00000 7.03349 4.00000
4.00000 7.03348 4.00000
4.00000 7.03348 4.00000
4.00000 7.03348 4.00000
4.00000 7.03348 4.00000
4.00000 7.03347 4.00000
4.00000 7.03348 4.00000
4.00000 7.03349 4.00000
4.00000 7.03348 4.00000
4.00166 7.05899 4.00166
4.00575 7.12275 4.00575
4.00981 7.18685 4.00981
4.01384 7.25126 4.01383
4.01784 7.31592 4.01784
4.02184 7.38083 4.02184
4.02583 7.44594 4.02583
4.02984 7.51121 4.02984
4.03388 7.57662 4.03388
4.03794 7.64213 4.03794
4.04206 7.70769 4.04206
4.04624 7.77328 4.04624
4.05050 7.83884 4.05050
4.05485 7.90432 4.05485
4.05931 7.96968 4.05931
4.06391 8.03486 4.06391
4.06867 8.09979 4.06867
4.07362 8.16441 4.07362
4.07877 8.22863 4.07877
4.08418 8.29235 4.08418
4.08988 8.35549 4.08988
4.09592 8.41791 4.09592
4.10235 8.47947 4.10235
4.10923 8.54002 4.10923
4.11664 8.59938 4.11664
4.12466 8.65734 4.12466
4.13333 8.71382 4.13333
4.14258 8.76899 4.14258
4.15246 8.82278 4.15246
4.16299 8.87514 4.16299
4.17419 8.92601 4.17419
4.18609 8.97535 4.18609
4.19872 9.02311 4.19872
4.21210 9.06927 4.21210
4.22624 9.11380 4.22624
4.24116 9.15668 4.24116
4.25687 9.19789 4.25687
4.27339 9.23743 4.27339
4.29073 9.27528 4.29073
4.30890 9.31143 4.30890
4.32791 9.34588 4.32791
4.34777 9.37860 4.34777
4.36851 9.40957 4.36851
4.39014 9.43875 4.39014
4.41270 9.46607 4.41270
4.43623 9.49146 4.43622
4.46077 9.51481 4.46077
4.48640 9.53598 4.48640
4.51318 9.55481 4.51318
4.54122 9.57108 4.54122
4.57064 9.58455 4.57064
4.60155 9.59493 4.60155
4.63409 9.60193 4.63410
4.66842 9.60525 4.66842
4.02951 7.50570 7.40766
4.02508 7.43360 7.56012
4.02173 7.37900 7.69485
4.01905 7.33550 7.81839
4.01684 7.29975 7.93416
4.01498 7.26972 8.04421
4.01339 7.24412 8.14987
4.01201 7.22203 8.25207
4.01081 7.20280 8.35147
4.00975 7.18593 8.44857
4.00881 7.17104 8.54376
4.00798 7.15784 8.63734
4.00724 7.14609 8.72955
4.00657 7.13559 8.82059
4.00597 7.12618 8.91063
4.00543 7.11772 8.99979
4.00495 7.11009 9.08820
4.00451 7.10322 9.17595
4.00411 7.09700 9.26313
4.00375 7.09138 9.34980
4.00342 7.08628 9.43603
4.00312 7.08166 9.52187
4.00285 7.07745 9.60738
4.00260 7.07363 9.69260
4.00238 7.07015 9.77755
4.00218 7.06698 9.86228
4.00199 7.06409 9.94681
4.00182 7.06146 10.03117
4.00166 7.05907 10.11538
4.00152 7.05687 10.19947
4.00139 7.05486 10.28344
4.00127 7.05301 10.36736
4.00116 7.05137 10.45113
4.00106 7.04981 10.53491
4.00097 7.04845 10.61855
4.00089 7.04717 10.70220
4.00081 7.04601 10.78580
4.00075 7.04494 10.86939
4.00068 7.04397 10.95296
4.00063 7.04308 11.03653
4.00057 7.04226 11.12009
4.00052 7.04151 11.20365
4.00048 7.04083 11.28723
4.00044 7.04020 11.37081
4.00040 7.03963 11.45441
4.00037 7.03911 11.53803
4.00034 7.03863 11.62168
4.00031 7.03819 11.70536
4.00028 7.03778 11.78907
4.00026 7.03742 11.87280
4.00024 7.03709 11.95657
4.00021 7.03678 12.04037
4.00020 7.03650 12.12421
4.00018 7.03625 12.20808
4.00017 7.03600 12.29201
4.00015 7.03579 12.37598
4.00014 7.03559 12.45999
4.00013 7.03541 12.54404
4.00012 7.03525 12.62814
4.00011 7.03509 12.71227
4.00010 7.03496 12.79646
4.00009 7.03483 12.88069
4.00008 7.03471 12.96497
4.00008 7.03461 13.04930
4.00007 7.03450 13.13366
4.00006 7.03442 13.21806
4.00006 7.03434 13.30252
4.00005 7.03427 13.38703
4.00005 7.03420 13.47159
4.00005 7.03414 13.55620
4.00004 7.03408 13.64085
4.00004 7.03403 13.72555
4.00003 7.03398 13.81030
4.00003 7.03394 13.89499
4.00003 7.03390 13.97983
4.00003 7.03386 14.06460
4.00002 7.03383 14.14952
4.00002 7.03380 14.23448
4.00003 7.03378 14.31948
4.00002 7.03375 14.40454
4.00002 7.03373 14.48963
4.00002 7.03370 14.57475
4.00001 7.03368 14.65993
4.00001 7.03367 14.74514
4.00001 7.03366 14.83040
4.00001 7.03363 14.91572
4.00001 7.03362 15.00108
4.00001 7.03361 15.08647
4.00001 7.03359 15.17190
4.00000 7.03360 15.25736
4.00001 7.03358 15.34289
4.00001 7.03357 15.42844
4.00001 7.03356 15.51403
4.00001 7.03356 15.59966
4.00001 7.03354 15.68533
4.00000 7.03354 15.77105
4.00000 7.03353 15.85679
4.00000 7.03353 15.94258
4.00000 7.03353 16.02840
4.00000 7.03352 16.11425
4.00000 7.03352 16.20015
4.00000 7.03352 16.28608
4.00000 7.03351 16.37205
4.00000 7.03351 16.45801
4.00000 7.03350 16.54401
4.00000 7.03350 16.63002
4.00000 7.03350 16.71609
4.00000 7.03350 16.80217
4.00000 7.03349 16.88830
4.00000 7.03349 16.97445
4.00000 7.03349 17.06064
4.00000 7.03349 17.14686
4.00000 7.03349 17.23311
4.00000 7.03349 17.31939
4.00000 7.03348 17.40570
4.00000 7.03348 17.49204
4.00000 7.03348 17.57841
4.00000 7.03348 17.66481
4.00000 7.03348 17.75124
4.00000 7.03348 17.83769
4.00000 7.03348 17.92418
4.00000 7.03348 18.01069
4.00000 7.03348 18.09723
4.00000 7.03348 18.18379
4.00000 7.03348 18.27038
4.00000 7.03348 18.35700
4.00000 7.03348 18.44365
4.00000 7.03348 18.53033
4.00000 7.03348 18.61703
4.00000 7.03348 18.70375
4.00000 7.03348 18.79050
4.00000 7.03348 18.87728
4.00000 7.03348 18.96408
4.00000 7.03348 19.05091
4.00000 7.03348 19.13776
4.00000 7.03348 19.22464
4.00000 7.03348 19.31154
4.00000 7.03348 19.39845
4.00000 7.03348 19.48539
4.00000 7.03348 19.57235
4.00000 7.03348 19.65934
4.00000 7.03348 19.74635
4.00000 7.03348 19.83338
4.00000 7.03348 19.92043
4.00000 7.03348 20.00750
4.00000 7.03348 20.09460
4.00000 7.03348 20.18173
4.00000 7.03348 20.26888
4.00000 7.03348 20.35605
4.00000 7.03348 20.44324
4.00000 7.03348 20.53045
4.00000 7.03348 20.61769
4.00000 7.03348 20.70494
4.00000 7.03348 20.79222
4.00000 7.03348 20.87951
4.00000 7.03348 20.96682
4.00000 7.03348 21.05416
4.00000 7.03348 21.14151
4.00000 7.03348 21.22889
4.00000 7.03348 21.31628

Angle 0.090464 2.097782

4.00010 7.03194 4.00010
4.00000 7.03348 4.00000
4.00000 7.03346 4.00000
4.00000 7.03345 4.00000
4.00000 7.03345 4.00000
4.00000 7.03346 4.00000
4.00000 7.03346 4.00000
4.00000 7.03347 4.00000
4.00000 7.03348 4.00000
4.00000 7.03348 4.00000
4.00000 7.03350 4.00000
4.00000 7.03349 4.00000
4.00000 7.03349 4.00000
4.00000 7.03348 4.00000
4.00000 7.03348 4.00000
4.00000 7.03347 4.00000
4.00000 7.03347 4.00000
4.00000 7.03347 4.00000
4.00000 7.03347 4.00000
4.00000 7.03347 4.00000
4.00000 7.03347 4.00000
4.00000 7.03347 4.00000
4.00000 7.03347 4.00000
4.00000 7.03347 4.00000
4.00000 7.03347 4.00000
4.00000 7.03348 4.00000
4.00000 7.03348 4.00000
4.00000 7.03348 4.00000
4.00000 7.03348 4.00000
4.00000 7.03348 4.00000
4.00000 7.03348 4.00000
4.00000 7.03348 4.00000
4.00000 7.03348 4.00000
4.00000 7.03348 4.00000
4.00000 7.03348 4.00000
4.00000 7.03348 4.00000
4.00000 7.03348 4.00000
4.00000 7.03348 4.00000
4.00000 7.03348 4.00000
4.00000 7.03348 4.00000
4.00000 7.03348 4.00000
4.00000 7.03348 4.00000
4.00000 7.03348 4.00000
4.00000 7.03347 4.00000
4.00000 7.03347 4.00000
4.00000 7.03347 4.00000
4.00000 7.03347 4.00000
4.00000 7.03347 4.00000
4.00000 7.03347 4.00000
4.00000 7.03347 4.00000
4.00000 7.03347 4.00000
4.00000 7.03347 4.00000
4.00000 7.03347 4.00000
4.00000 7.03347 4.00000
4.00000 7.03347 4.00000
4.00000 7.03347 4.00000
4.00000 7.03348 4.00000
4.00000 7.03348 4.00000
4.00000 7.03347 4.00000
4.00000 7.03347 4.00000
4.00000 7.03348 4.00000
4.00000 7.03348 4.00000
4.00000 7.03348 4.00000
4.00000 7.03348 4.00000
4.00000 7.03348 4.00000
4.00000 7.03348 4.00000
4.00000 7.03348 4.00000
4.00000 7.03348 4.00000
4.00000 7.03348 4.00000
4.00000 7.03348 4.00000
4.00000 7.03348 4.00000
4.00000 7.03348 4.00000
4.00000 7.03348 4.00000
4.00000 7.03348 4.00000
4.00000 7.03348 4.00000
4.00000 7.03348 4.00000
4.00000 7.03348 4.00000
4.00000 7.03348 4.00000
4.00000 7.03348 4.00000
4.00000 7.03348 4.00000
4.00000 7.03348 4.00000
4.00000 7.03348 4.00000
4.00000 7.03348 4.00000
4.00000 7.03348 4.00000
4.00000 7.03348 4.00000
4.00000 7.03348 4.00000
4.00000 7.03348 4.00000
4.00000 7.03348 4.00000
4.00000 7.03348 4.00000
4.00000 7.03348 4.00000
4.00000 7.03348 4.00000
4.00000 7.03348 4.00000
4.00000 7.03348 4.00000
4.00000 7.03348 4.00000
4.00000 7.03348 4.00000
4.00000 7.03348 4.00000
4.00000 7.03348 4.00000
4.00000 7.03348 4.00000
4.00000 7.03348 4.00000
4.00000 7.03348 4.00000
4.00000 7.03348 4.00000
4.00000 7.03348 4.00000
4.00000 7.03348 4.00000
4.00000 7.03348 4.00000
4.00000 7.03348 4.00000
4.00000 7.03348 4.00000
4.00000 7.03348 4.00000
4.00000 7.03348 4.00000
4.00000 7.03348 4.00000
4.00000 7.03348 4.00000
4.00000 7.03348 4.00000
4.00000 7.03348 4.00000
4.00000 7.03348 4.00000
4.00000 7.03348 4.00000
4.00000 7.03348 4.00000
4.00000 7.03348 4.00000
4.00000 7.03348 4.00000
4.00000 7.03348 4.00000
4.00000 7.03348 4.00000
4.00000 7.03348 4.00000
4.00000 7.03348 4.00000
4.00000 7.03348 4.00000
4.00000 7.03348 4.00000
4.00000 7.03348 4.00000
4.00000 7.03348 4.00000
4.00000 7.03349 4.00000
4.00000 7.03348 4.00000
4.00000 7.03348 4.00000
4.00000 7.03348 4.00000
4.00000 7.03348 4.00000
4.00000 7.03348 4.00000
4.00000 7.03348 4.00000
4.00000 7.03348 4.00000
4.00000 7.03348 4.00000
4.00000 7.03348 4.00000
4.00000 7.03348 4.00000
4.00000 7.03349 4.00000
4.00000 7.03348 4.00000
4.00000 7.03348 4.00000
4.00000 7.03348 4.00000
4.00000 7.03349 4.00000
4.00000 7.03348 4.00000
4.00000 7.03350 4.00000
4.00000 7.03351 4.00000
4.00000 7.03348 4.00000
4.00001 7.03362 4.00001
4.00274 7.07571 4.00274
4.00763 7.15231 4.00763
4.01246 7.22914 4.01246
4.01724 7.30616 4.01724
4.02199 7.38331 4.02199
4.02673 7.46054 4.02673
4.03148 7.53779 4.03148
4.03626 7.61501 4.03626
4.04108 7.69214 4.04108
4.04597 7.76913 4.04597
4.05096 7.84590 4.05096
4.05607 7.92239 4.05607
4.06133 7.99852 4.06133
4.06677 8.07420 4.06677
4.07244 8.14932 4.07244
4.07837 8.22377 4.07837
4.08463 8.29743 4.08463
4.09126 8.37013 4.09126
4.09834 8.44170 4.09834
4.10596 8.51193 4.10596
4.11421 8.58057 4.11421
4.12321 8.64734 4.12321
4.13304 8.71204 4.13304
4.14363 8.77492 4.14363
4.15500 8.83588 4.15501
4.16721 8.89487 4.16721
4.18028 8.95182 4.18028
4.19425 9.00668 4.19425
4.20914 9.05942 4.20914
4.22498 9.10999 4.22498
4.24178 9.15839 4.24178
4.25957 9.20460 4.25957
4.27836 9.24862 4.27835
4.29815 9.29045 4.29815
4.31896 9.33008 4.31896
4.34081 9.36750 4.34081
4.36371 9.40269 4.36371
4.38770 9.43561 4.38770
4.41280 9.46618 4.41280
4.43907 9.49432 4.43907
4.46657 9.51988 4.46657
4.49540 9.54268 4.49540
4.52566 9.56247 4.52566
4.55749 9.57897 4.55749
4.59104 9.59182 4.59104
4.62650 9.60064 4.62650
4.66405 9.60505 4.66405
4.70392 9.60468 4.70380
7.57154 7.42866 4.02477
7.71798 7.37040 4.02120
7.85161 7.32477 4.01839
7.97651 7.28776 4.01610
8.09510 7.25700 4.01419
8.20880 7.23108 4.01258
8.31876 7.20889 4.01119
8.42566 7.18975 4.00999
8.53007 7.17309 4.00894
8.63242 7.15851 4.00802
8.73303 7.14567 4.00721
8.83217 7.13433 4.00649
8.93004 7.12426 4.00585
9.02683 7.11531 4.00528
9.12268 7.10732 4.00477
9.21771 7.10017 4.00431
9.31202 7.09377 4.00390
9.40571 7.08802 4.00353
9.49884 7.08286 4.00320
9.59149 7.07820 4.00290
9.68371 7.07401 4.00263
9.77556 7.07023 4.00238
9.86707 7.06681 4.00216
9.95827 7.06372 4.00196
10.04922 7.06093 4.00178
10.13994 7.05840 4.00162
10.23044 7.05611 4.00147
10.32077 7.05403 4.00134
10.41093 7.05215 4.00121
10.50094 7.05044 4.00110
10.59083 7.04889 4.00100
10.68061 7.04749 4.00091
10.77028 7.04622 4.00083
10.85987 7.04506 4.00075
10.94938 7.04401 4.00069
11.03883 7.04305 4.00062
11.12822 7.04218 4.00057
11.21755 7.04140 4.00052
11.30684 7.04068 4.00047
11.39610 7.04003 4.00043
11.48532 7.03943 4.00039
11.57452 7.03889 4.00035
11.66369 7.03840 4.00032
11.75285 7.03796 4.00029
11.84199 7.03755 4.00027
11.93112 7.03718 4.00024
12.02024 7.03685 4.00022
12.10935 7.03654 4.00020
12.19846 7.03627 4.00018
12.28757 7.03602 4.00017
12.37668 7.03579 4.00015
12.46579 7.03558 4.00014
12.55491 7.03539 4.00012
12.64403 7.03522 4.00011
12.73316 7.03506 4.00010
12.82229 7.03492 4.00009
12.91143 7.03479 4.00009
13.00058 7.03467 4.00008
13.08974 7.03456 4.00007
13.17891 7.03446 4.00006
13.26809 7.03437 4.00006
13.35729 7.03429 4.00005
13.44649 7.03422 4.00005
13.53570 7.03415 4.00004
13.62493 7.03409 4.00004
13.71417 7.03404 4.00004
13.80342 7.03399 4.00003
13.89269 7.03394 4.00003
13.98197 7.03390 4.00003
14.07126 7.03386 4.00002
14.16056 7.03383 4.00002
14.24987 7.03379 4.00002
14.33920 7.03377 4.00002
14.42854 7.03374 4.00002
14.51790 7.03372 4.00002
14.60727 7.03369 4.00001
14.69664 7.03367 4.00001
14.78604 7.03366 4.00001
14.87544 7.03364 4.00001
14.96486 7.03363 4.00001
15.05429 7.03361 4.00001
15.14373 7.03360 4.00001
15.23318 7.03359 4.00001
15.32265 7.03358 4.00001
15.41213 7.03357 4.00001
15.50162 7.03356 4.00001
15.59112 7.03355 4.00000
15.68063 7.03355 4.00000
15.77015 7.03354 4.00000
15.85969 7.03354 4.00000
15.94923 7.03353 4.00000
16.03879 7.03353 4.00000
16.12836 7.03352 4.00000
16.21794 7.03352 4.00000
16.30753 7.03351 4.00000
16.39712 7.03351 4.00000
16.48673 7.03351 4.00000
16.57635 7.03351 4.00000
16.66598 7.03350 4.00000
16.75562 7.03350 4.00000
16.84527 7.03350 4.00000
16.93492 7.03350 4.00000
17.02459 7.03350 4.00000
17.11427 7.03349 4.00000
17.20395 7.03349 4.00000
17.29365 7.03349 4.00000
17.38335 7.03349 4.00000
17.47306 7.03349 4.00000
17.56278 7.03349 4.00000
17.65251 7.03349 4.00000
17.74225 7.03349 4.00000
17.83199 7.03349 4.00000
17.92175 7.03349 4.00000
18.01151 7.03349 4.00000
18.10128 7.03348 4.00000
18.19105 7.03348 4.00000
18.28084 7.03348 4.00000
18.37063 7.03348 4.00000
18.46044 7.03348 4.00000
18.55024 7.03348 4.00000
18.64006 7.03348 4.00000
18.72987 7.03348 4.00000
18.81971 7.03348 4.00000
18.90953 7.03348 4.00000
18.99938 7.03347 4.00000
19.08923 7.03348 4.00000
19.17909 7.03348 4.00000
19.26895 7.03347 4.00000
19.35882 7.03347 4.00000
19.44870 7.03347 4.00000
19.53858 7.03347 4.00000
19.62847 7.03347 4.00000
19.71836 7.03347 4.00000
19.80826 7.03347 4.00000
19.89817 7.03347 4.00000
19.98808 7.03347 4.00000
20.07800 7.03347 4.00000
20.16793 7.03347 4.00000
20.25785 7.03348 4.00000
20.34778 7.03348 4.00000
20.43773 7.03348 4.00000
20.52767 7.03348 4.00000
20.61762 7.03348 4.00000
20.70758 7.03348 4.00000
20.79754 7.03348 4.00000
20.88751 7.03348 4.00000
20.97748 7.03348 4.00000
21.06746 7.03348 4.00000
21.15744 7.03348 4.00000
21.24743 7.03348 4.00000
21.33742 7.03348 4.00000
21.42741 7.03348 4.00000
21.51741 7.03348 4.00000
21.60742 7.03348 4.00000
21.69743 7.03348 4.00000
21.78744 7.03348 4.00000
21.87746 7.03348 4.00000
21.96748 7.03348 4.00000
22.05751 7.03348 4.00000
22.14755 7.03348 4.00000
22.23759 7.03348 4.00000
22.32763 7.03348 4.00000
22.41768 7.03348 4.00000
22.50773 7.03348 4.00000
22.59779 7.03348 4.00000
22.68784 7.03348 4.00000
22.77791 7.03348 4.00000
22.86798 7.03348 4.00000
22.95805 7.03348 4.00000
23.04812 7.03348 4.00000
23.13820 7.03348 4.00000
23.22828 7.03348 4.00000
23.31837 7.03348 4.00000
23.40846 7.03347 4.00000
23.49855 7.03348 4.00000
23.58865 7.03347 4.00000
23.67874 7.03348 4.00000
23.76885 7.03348 4.00000
23.85896 7.03348 4.00000
23.94908 7.03348 4.00000
24.03919 7.03348 4.00000
24.12929 7.03349 4.00000
24.21942 7.03348 4.00000
24.30954 7.03348 4.00000
24.39966 7.03348 4.00000
24.48979 7.03348 4.00000
24.57992 7.03348 4.00000
24.67005 7.03349 4.00000
24.76020 7.03348 4.00000
24.85034 7.03348 4.00000
24.94050 7.03347 4.00000
25.03064 7.03348 4.00000
25.12080 7.03348 4.00000
25.21096 7.03348 4.00000
25.30112 7.03348 4.00000
25.39128 7.03348 4.00000
25.48145 7.03348 4.00000
25.57161 7.03348 4.00000
25.66179 7.03348 4.00000
25.75196 7.03348 4.00000
25.84214 7.03348 4.00000
25.93232 7.03348 4.00000
26.02250 7.03348 4.00000
26.11269 7.03348 4.00000
26.20287 7.03348 4.00000
26.29306 7.03348 4.00000

Angle 0.485893 1.613785

4.00000 7.03349 4.00000
4.00000 7.03348 4.00000
4.00000 7.03348 4.00000
4.00000 7.03348 4.00000
4.00000 7.03348 4.00000
4.00000 7.03348 4.00000
4.00000 7.03348 4.00000
4.00000 7.03348 4.00000
4.00000 7.03348 4.00000
4.00000 7.03348 4.00000
4.00000 7.03348 4.00000
4.00000 7.03348 4.00000
4.00000 7.03348 4.00000
4.00000 7.03348 4.00000
4.00000 7.03348 4.00000
4.00000 7.03348 4.00000
4.00000 7.03348 4.00000
4.00000 7.03348 4.00000
4.00000 7.03348 4.00000
4.00000 7.03348 4.00000
4.00000 7.03348 4.00000
4.00000 7.03348 4.00000
4.00000 7.03348 4.00000
4.00000 7.03348 4.00000
4.00000 7.03348 4.00000
4.00000 7.03348 4.00000
4.00000 7.03348 4.00000
4.00000 7.03348 4.00000
4.00000 7.03348 4.00000
4.00000 7.03348 4.00000
4.00000 7.03348 4.00000
4.00000 7.03348 4.00000
4.00000 7.03348 4.00000
4.00000 7.03348 4.00000
4.00000 7.03348 4.00000
4.00000 7.03348 4.00000
4.00000 7.03348 4.00000
4.00000 7.03348 4.00000
4.00000 7.03347 4.00000
4.00000 7.03348 4.00000
4.00000 7.03348 4.00000
4.00000 7.03348 4.00000
4.00000 7.03348 4.00000
4.00000 7.03348 4.00000
4.00000 7.03348 4.00000
4.00000 7.03348 4.00000
4.00000 7.03348 4.00000
4.00000 7.03349 4.00000
4.00000 7.03348 4.00000
4.00000 7.03348 4.00000
4.00000 7.03348 4.00000
4.00000 7.03348 4.00000
4.00000 7.03348 4.00000
4.00000 7.03348 4.00000
4.00000 7.03348 4.00000
4.00000 7.03348 4.00000
4.00000 7.03348 4.00000
4.00000 7.03348 4.00000
4.00342 7.08629 4.00342
4.00798 7.15778 4.00798
4.01248 7.22954 4.01248
4.01695 7.30151 4.01695
4.02140 7.37367 4.02140
4.02584 7.44597 4.02584
4.03028 7.51835 4.03028
4.03475 7.59079 4.03475
4.03926 7.66321 4.03926
4.04383 7.73559 4.04383
4.04848 7.80787 4.04848
4.05322 7.87998 4.05322
4.05808 7.95186 4.05808
4.06310 8.02345 4.06310
4.06829 8.09465 4.06829
4.07369 8.16540 4.07369
4.07935 8.23557 4.07935
4.08530 8.30506 4.08530
4.09160 8.37373 4.09160
4.09831 8.44142 4.09831
4.10551 8.50796 4.10551
4.11327 8.57313 4.11327
4.12170 8.63668 4.12170
4.13088 8.69841 4.13088
4.14076 8.75850 4.14076
4.15134 8.81694 4.15134
4.16267 8.87364 4.16267
4.17478 8.92855 4.17478
4.18769 8.98163 4.18769
4.20143 9.03281 4.20143
4.21604 9.08208 4.21604
4.23151 9.12941 4.23151
4.24789 9.17478 4.24789
4.26516 9.21819 4.26516
4.28336 9.25962 4.28336
4.30249 9.29907 4.30249
4.32257 9.33653 4.32257
4.34360 9.37200 4.34360
4.36561 9.40543 4.36561
4.38862 9.43680 4.38862
4.41267 9.46604 4.41267
4.43780 9.49305 4.43780
4.46407 9.51772 4.46407
4.49156 9.53987 4.49156
4.52036 9.55931 4.52036
4.55060 9.57576 4.55060
4.58241 9.58895 4.58241
4.61595 9.59851 4.61595
4.65138 9.60411 4.65138
7.33370 7.54500 4.03196
7.50640 7.45767 4.02656
7.65449 7.39453 4.02268
7.78815 7.34561 4.01967
7.91224 7.30617 4.01724
8.02949 7.27352 4.01522
8.14159 7.24602 4.01351
8.24967 7.22253 4.01204
8.35454 7.20225 4.01078
8.45685 7.18457 4.00967
8.55699 7.16910 4.00869
8.65531 7.15547 4.00783
8.75213 7.14339 4.00707
8.84765 7.13265 4.00638
8.94205 7.12309 4.00577
9.03546 7.11455 4.00523
9.12805 7.10689 4.00474
9.21991 7.10002 4.00430
9.31113 7.09383 4.00390
9.40180 7.08825 4.00354
9.49197 7.08322 4.00322
9.58170 7.07867 4.00293
9.67106 7.07456 4.00266
9.76008 7.07084 4.00242
9.84881 7.06746 4.00221
9.93727 7.06441 4.00201
10.02552 7.06163 4.00183
10.11356 7.05911 4.00167
10.20142 7.05681 4.00152
10.28912 7.05473 4.00138
10.37668 7.05285 4.00126
10.46413 7.05112 4.00115
10.55148 7.04955 4.00105
10.63873 7.04813 4.00096
10.72590 7.04683 4.00087
10.81301 7.04565 4.00079
10.90008 7.04456 4.00072
10.98708 7.04359 4.00066
11.07405 7.04270 4.00060
11.16099 7.04188 4.00055
11.24790 7.04114 4.00050
11.33479 7.04047 4.00046
11.42166 7.03985 4.00042
11.50854 7.03928 4.00038
11.59540 7.03877 4.00035
11.68226 7.03831 4.00032
11.76913 7.03788 4.00029
11.85600 7.03748 4.00027
11.94288 7.03714 4.00024
12.02977 7.03682 4.00022
12.11667 7.03652 4.00020
12.20359 7.03625 4.00018
12.29052 7.03601 4.00016
12.37746 7.03579 4.00015
12.46444 7.03558 4.00014
12.55143 7.03539 4.00013
12.63844 7.03523 4.00011
12.72547 7.03507 4.00010
12.81253 7.03493 4.00010
12.89961 7.03480 4.00009
12.98672 7.03468 4.00008
13.07385 7.03458 4.00007
13.16100 7.03448 4.00007
13.24818 7.03439 4.00006
13.33539 7.03431 4.00006
13.42262 7.03424 4.00005
13.50988 7.03417 4.00005
13.59717 7.03411 4.00004
13.68448 7.03405 4.00004
13.77182 7.03400 4.00004
13.85918 7.03396 4.00003
13.94658 7.03391 4.00003
14.03400 7.03388 4.00003
14.12144 7.03384 4.00003
14.20891 7.03381 4.00002
14.29641 7.03378 4.00002
14.38393 7.03375 4.00002
14.47148 7.03373 4.00002
14.55906 7.03371 4.00002
14.64666 7.03369 4.00001
14.73428 7.03367 4.00001
14.82194 7.03365 4.00001
14.90961 7.03364 4.00001
14.99731 7.03362 4.00001
15.08504 7.03361 4.00001
15.17279 7.03360 4.00001
15.26056 7.03359 4.00001
15.34836 7.03358 4.00001
15.43619 7.03357 4.00001
15.52403 7.03356 4.00001
15.61190 7.03355 4.00001
15.69979 7.03355 4.00001
15.78771 7.03354 4.00001
15.87564 7.03354 4.00000
15.96360 7.03353 4.00000
16.05158 7.03353 4.00000
16.13959 7.03352 4.00000
16.22761 7.03352 4.00000
16.31566 7.03351 4.00000
16.40373 7.03351 4.00000
16.49179 7.03351 4.00000
16.57988 7.03351 4.00000
16.66799 7.03350 4.00000
16.75611 7.03350 4.00000
16.84426 7.03350 4.00000
16.93242 7.03350 4.00000
17.02061 7.03350 4.00000
17.10881 7.03349 4.00000
17.19704 7.03349 4.00000
17.28528 7.03349 4.00000
17.37354 7.03349 4.00000
17.46182 7.03349 4.00000
17.55011 7.03349 4.00000
17.63843 7.03349 4.00000
17.72677 7.03348 4.00000
17.81511 7.03349 4.00000
17.90349 7.03348 4.00000
17.99186 7.03349 4.00000
18.08028 7.03348 4.00000
18.16870 7.03348 4.00000
18.25713 7.03348 4.00000
18.34559 7.03348 4.00000
18.43406 7.03348 4.00000
18.52254 7.03348 4.00000
18.61104 7.03348 4.00000
18.69956 7.03348 4.00000
18.78809 7.03348 4.00000
18.87664 7.03348 4.00000
18.96520 7.03347 4.00000
19.05378 7.03347 4.00000
19.14238 7.03347 4.00000
19.23098 7.03347 4.00000
19.31960 7.03347 4.00000
19.40823 7.03348 4.00000
19.49688 7.03348 4.00000
19.58554 7.03348 4.00000
19.67422 7.03348 4.00000
19.76290 7.03348 4.00000
19.85161 7.03348 4.00000
19.94032 7.03348 4.00000
20.02905 7.03348 4.00000
20.11779 7.03348 4.00000
20.20655 7.03348 4.00000
20.29532 7.03348 4.00000
20.38410 7.03348 4.00000
20.47289 7.03348 4.00000
20.56168 7.03348 4.00000
20.65049 7.03348 4.00000
20.73931 7.03348 4.00000
20.82814 7.03348 4.00000
20.91698 7.03348 4.00000
21.00584 7.03348 4.00000
21.09470 7.03348 4.00000
21.18359 7.03348 4.00000
21.27249 7.03348 4.00000
21.36140 7.03348 4.00000
21.45032 7.03348 4.00000
21.53926 7.03348 4.00000
21.62820 7.03348 4.00000
21.71715 7.03348 4.00000
21.80612 7.03348 4.00000
21.89510 7.03348 4.00000
21.98408 7.03348 4.00000
22.07308 7.03348 4.00000
22.16208 7.03348 4.00000
22.25110 7.03348 4.00000
22.34013 7.03348 4.00000
22.42916 7.03348 4.00000
22.51821 7.03348 4.00000
22.60726 7.03348 4.00000
22.69633 7.03348 4.00000
22.78540 7.03348 4.00000
22.87448 7.03347 4.00000
22.96357 7.03348 4.00000
23.05266 7.03347 4.00000
23.14177 7.03348 4.00000
23.23089 7.03348 4.00000
23.32002 7.03348 4.00000
23.40915 7.03348 4.00000
23.49830 7.03348 4.00000
23.58745 7.03349 4.00000
23.67662 7.03348 4.00000
23.76579 7.03348 4.00000
23.85497 7.03348 4.00000
23.94416 7.03348 4.00000
24.03337 7.03347 4.00000
24.12257 7.03348 4.00000
24.21179 7.03348 4.00000
24.30101 7.03348 4.00000
24.39024 7.03348 4.00000
24.47949 7.03348 4.00000
24.56874 7.03348 4.00000
24.65799 7.03348 4.00000
24.74726 7.03348 4.00000
24.83653 7.03348 4.00000
24.92581 7.03348 4.00000
25.01510 7.03348 4.00000
25.10439 7.03348 4.00000
25.19369 7.03348 4.00000
25.28299 7.03348 4.00000
25.37231 7.03348 4.00000
25.46163 7.03348 4.00000
25.55096 7.03348 4.00000
25.64029 7.03348 4.00000
25.72963 7.03348 4.00000
25.81898 7.03348 4.00000
25.90833 7.03348 4.00000
25.99769 7.03347 4.00000
26.08704 7.03348 4.00000
26.17642 7.03348 4.00000
26.26579 7.03347 4.00000
26.35517 7.03348 4.00000
26.44454 7.03348 4.00000
26.53393 7.03348 4.00000
26.62332 7.03348 4.00000
26.71271 7.03348 4.00000
26.80211 7.03348 4.00000
26.89152 7.03348 4.00000
26.98093 7.03348 4.00000
27.07035 7.03348 4.00000
27.15978 7.03348 4.00000
27.24921 7.03348 4.00000
27.33864 7.03348 4.00000
27.42809 7.03348 4.00000
27.51753 7.03348 4.00000
27.60699 7.03348 4.00000
27.69644 7.03348 4.00000
27.78591 7.03348 4.00000
27.87538 7.03348 4.00000
27.96485 7.03348 4.00000
28.05433 7.03348 4.00000
28.14382 7.03348 4.00000
28.23331 7.03348 4.00000
28.32280 7.03348 4.00000
28.41231 7.03348 4.00000
28.50181 7.03348 4.00000
28.59132 7.03348 4.00000
28.68084 7.03348 4.00000
28.77036 7.03348 4.00000
28.85989 7.03348 4.00000
28.94942 7.03348 4.00000
29.03895 7.03348 4.00000
29.12849 7.03348 4.00000
29.21804 7.03348 4.00000
29.30759 7.03348 4.00000
29.39714 7.03348 4.00000
29.48670 7.03348 4.00000
29.57626 7.03348 4.00000
29.66583 7.03348 4.00000
29.75540 7.03348 4.00000
29.84498 7.03348 4.00000
29.93456 7.03348 4.00000
30.02414 7.03348 4.00000
30.11373 7.03348 4.00000
30.20332 7.03348 4.00000
30.29292 7.03348 4.00000
30.38252 7.03348 4.00000
30.47213 7.03348 4.00000
30.56174 7.03348 4.00000
30.65135 7.03348 4.00000
30.74097 7.03348 4.00000
30.83059 7.03348 4.00000
30.92022 7.03348 4.00000
31.00985 7.03348 4.00000
31.09949 7.03348 4.00000
31.18912 7.03349 4.00000
31.27879 7.03348 4.00000
31.36844 7.03349 4.00000
31.45809 7.03349 4.00000
31.54777 7.03348 4.00000
31.63743 7.03349 4.00000
31.72710 7.03349 4.00000
31.81679 7.03348 4.00000
31.90646 7.03348 4.00000
31.99614 7.03348 4.00000
32.08583 7.03349 4.00000
32.17553 7.03348 4.00000
32.26522 7.03348 4.00000
32.35491 7.03348 4.00000
32.44461 7.03348 4.00000
32.53432 7.03348 4.00000
32.62402 7.03348 4.00000
32.71373 7.03348 4.00000
32.80345 7.03348 4.00000
32.89316 7.03348 4.00000
32.98289 7.03348 4.00000
33.07261 7.03348 4.00000
33.16234 7.03348 4.00000
33.25207 7.03348 4.00000
33.34180 7.03348 4.00000
33.43154 7.03348 4.00000
33.52128 7.03348 4.00000
33.61102 7.03348 4.00000

Angle 0.150837 4.271082

4.00000 7.03348 4.00000
4.00000 7.03348 4.00000
4.00000 7.03348 4.00000
4.00000 7.03346 4.00000
4.00000 7.03346 4.00000
4.00000 7.03346 4.00000
4.00000 7.03346 4.00000
4.00000 7.03346 4.00000
4.00000 7.03346 4.00000
4.00000 7.03347 4.00000
4.00000 7.03347 4.00000
4.00000 7.03347 4.00000
4.00000 7.03348 4.00000
4.00000 7.03348 4.00000
4.00000 7.03348 4.00000
4.00000 7.03348 4.00000
4.00000 7.03348 4.00000
4.00000 7.03347 4.00000
4.00000 7.03348 4.00000
4.00000 7.03348 4.00000
4.00000 7.03348 4.00000
4.00000 7.03348 4.00000
4.00000 7.03348 4.00000
4.00000 7.03348 4.00000
4.00000 7.03348 4.00000
4.00000 7.03348 4.00000
4.00000 7.03348 4.00000
4.00000 7.03348 4.00000
4.00000 7.03347 4.00000
4.00000 7.03347 4.00000
4.00000 7.03348 4.00000
4.00000 7.03348 4.00000
4.00000 7.03348 4.00000
4.00000 7.03348 4.00000
4.00000 7.03348 4.00000
4.00000 7.03347 4.00000
4.00000 7.03347 4.00000
4.00000 7.03348 4.00000
4.00000 7.03348 4.00000
4.00000 7.03348 4.00000
4.00000 7.03348 4.00000
4.00000 7.03348 4.00000
4.00000 7.03348 4.00000
4.00000 7.03348 4.00000
4.00000 7.03348 4.00000
4.00000 7.03348 4.00000
4.00000 7.03347 4.00000
4.00000 7.03348 4.00000
4.00000 7.03348 4.00000
4.00000 7.03348 4.00000
4.00000 7.03348 4.00000
4.00000 7.03348 4.00000
4.00000 7.03348 4.00000
4.00000 7.03348 4.00000
4.00000 7.03348 4.00000
4.00000 7.03348 4.00000
4.00000 7.03348 4.00000
4.00000 7.03348 4.00000
4.00000 7.03348 4.00000
4.00000 7.03348 4.00000
4.00000 7.03349 4.00000
4.00000 7.03348 4.00000
4.00000 7.03348 4.00000
4.00000 7.03348 4.00000
4.00000 7.03348 4.00000
4.00000 7.03349 4.00000
4.00000 7.03348 4.00000
4.00000 7.03348 4.00000
4.00000 7.03348 4.00000
4.00000 7.03349 4.00000
4.00000 7.03349 4.00000
4.00000 7.03348 4.00000
4.00000 7.03348 4.00000
4.00000 7.03347 4.00000
4.00000 7.03348 4.00000
4.00000 7.03348 4.00000
4.00000 7.03348 4.00000
4.00000 7.03348 4.00000
4.00000 7.03348 4.00000
4.00000 7.03348 4.00000
4.00000 7.03348 4.00000
4.00000 7.03348 4.00000
4.00000 7.03348 4.00000
4.00000 7.03348 4.00000
4.00000 7.03348 4.00000
4.00000 7.03348 4.00000
4.00000 7.03348 4.00000
4.00000 7.03348 4.00000
4.00000 7.03348 4.00000
4.00000 7.03348 4.00000
4.00000 7.03348 4.00000
4.00000 7.03348 4.00000
4.00000 7.03348 4.00000
4.00000 7.03348 4.00000
4.00000 7.03348 4.00000
4.00000 7.03348 4.00000
4.00000 7.03348 4.00000
4.00000 7.03347 4.00000
4.00000 7.03348 4.00000
4.00000 7.03347 4.00000
4.00000 7.03348 4.00000
4.00000 7.03348 4.00000
4.00000 7.03348 4.00000
4.00000 7.03348 4.00000
4.00000 7.03348 4.00000
4.00000 7.03348 4.00000
4.00000 7.03348 4.00000
4.00000 7.03348 4.00000
4.00000 7.03348 4.00000
4.00000 7.03348 4.00000
4.00000 7.03348 4.00000
4.00000 7.03348 4.00000
4.00000 7.03348 4.00000
4.00000 7.03348 4.00000
4.00000 7.03348 4.00000
4.00000 7.03348 4.00000
4.00000 7.03348 4.00000
4.00000 7.03348 4.00000
4.00000 7.03349 4.00000
4.00000 7.03348 4.00000
4.00000 7.03348 4.00000
4.00000 7.03348 4.00000
4.00000 7.03348 4.00000
4.00000 7.03348 4.00000
4.00000 7.03348 4.00000
4.00000 7.03348 4.00000
4.00000 7.03348 4.00000
4.00000 7.03348 4.00000
4.00000 7.03349 4.00000
4.00000 7.03348 4.00000
4.00000 7.03348 4.00000
4.00000 7.03348 4.00000
4.00000 7.03348 4.00000
4.00000 7.03348 4.00000
4.00000 7.03347 4.00000
4.00000 7.03348 4.00000
4.00000 7.03348 4.00000
4.00000 7.03348 4.00000
4.00000 7.03348 4.00000
4.00000 7.03348 4.00000
4.00000 7.03348 4.00000
4.00000 7.03348 4.00000
4.00000 7.03347 4.00000
4.00000 7.03348 4.00000
4.00000 7.03348 4.00000
4.00000 7.03348 4.00000
4.00000 7.03348 4.00000
4.00000 7.03348 4.00000
4.00000 7.03348 4.00000
4.00000 7.03348 4.00000
4.00000 7.03348 4.00000
4.00000 7.03348 4.00000
4.00000 7.03348 4.00000
4.00000 7.03348 4.00000
4.00000 7.03348 4.00000
4.00000 7.03348 4.00000
4.00000 7.03348 4.00000
4.00000 7.03348 4.00000
4.00000 7.03348 4.00000
4.00000 7.03348 4.00000
4.00000 7.03348 4.00000
4.00000 7.03348 4.00000
4.00000 7.03348 4.00000
4.00000 7.03348 4.00000
4.00000 7.03348 4.00000
4.00000 7.03346 4.00000
4.00000 7.03348 4.00000
4.00000 7.03347 4.00000
4.00000 7.03348 4.00000
4.00000 7.03350 4.00000
4.00000 7.03348 4.00000
4.00000 7.03348 4.00000
4.00000 7.03347 4.00000
4.00000 7.03347 4.00000
4.00000 7.03348 4.00000
4.00000 7.03348 4.00000
4.00000 7.03348 4.00000
4.00000 7.03347 4.00000
4.00000 7.03349 4.00000
4.00000 7.03347 4.00000
4.00325 7.08359 4.00325
4.00651 7.13468 4.00651
4.00977 7.18617 4.00977
4.01301 7.23803 4.01301
4.01625 7.29024 4.01625
4.01950 7.34279 4.01950
4.02275 7.39566 4.02275
4.02601 7.44883 4.02601
4.02929 7.50227 4.02929
4.03260 7.55597 4.03260
4.03594 7.60991 4.03594
4.03932 7.66406 4.03932
4.04274 7.71839 4.04274
4.04621 7.77288 4.04621
4.04975 7.82751 4.04975
4.05337 7.88223 4.05337
4.05707 7.93703 4.05707
4.06086 7.99185 4.06086
4.06477 8.04668 4.06477
4.06880 8.10145 4.06880
4.07297 8.15613 4.07297
4.07730 8.21066 4.07731
4.08182 8.26498 4.08182
4.08655 8.31903 4.08655
4.09151 8.37273 4.09151
4.09673 8.42600 4.09673
4.10227 8.47875 4.10227
4.10815 8.53086 4.10815
4.11442 8.58222 4.11442
4.12114 8.63268 4.12114
4.12836 8.68211 4.12836
4.13606 8.73062 4.13606
4.14422 8.77822 4.14422
4.15286 8.82486 4.15286
4.16201 8.87050 4.16201
4.17170 8.91509 4.17170
4.18193 8.95860 4.18193
4.19273 9.00098 4.19273
4.20411 9.04222 4.20411
4.21610 9.08228 4.21610
4.22869 9.12113 4.22869
4.24192 9.15877 4.24192
4.25579 9.19517 4.25579
4.27031 9.23031 4.27031
4.28549 9.26419 4.28549
4.30134 9.29679 4.30134
4.31787 9.32809 4.31787
4.33509 9.35809 4.33509
4.35303 9.38675 4.35303
4.37169 9.41406 4.37169
4.39109 9.43996 4.39108
4.41126 9.46441 4.41126
4.43222 9.48735 4.43223
4.45403 9.50870 4.45403
4.47672 9.52836 4.47672
4.50035 9.54620 4.50035
4.52499 9.56208 4.52499
4.55071 9.57582 4.55071
4.57761 9.58722 4.57762
4.60580 9.59607 4.60580
4.63536 9.60213 4.63536
4.66643 9.60517 4.66642
4.03031 7.51872 7.38254
4.02603 7.44913 7.52510
4.02276 7.39579 7.65129
4.02012 7.35288 7.76701
4.01793 7.31733 7.87541
4.01607 7.28723 7.97842
4.01446 7.26139 8.07727
4.01307 7.23894 8.17284
4.01184 7.21926 8.26575
4.01075 7.20189 8.35647
4.00978 7.18646 8.44537
4.00892 7.17269 8.53274
4.00814 7.16035 8.61882
4.00744 7.14926 8.70378
4.00680 7.13925 8.78778
4.00623 7.13021 8.87096
4.00571 7.12201 8.95343
4.00523 7.11457 9.03528
4.00480 7.10780 9.11659
4.00440 7.10164 9.19743
4.00404 7.09601 9.27786
4.00371 7.09088 9.35794
4.00341 7.08619 9.43770
4.00314 7.08190 9.51720
4.00288 7.07797 9.59648
4.00265 7.07436 9.67555
4.00244 7.07107 9.75445
4.00224 7.06804 9.83320
4.00206 7.06526 9.91184
4.00190 7.06270 9.99038
4.00175 7.06036 10.06883
4.00161 7.05820 10.14721
4.00148 7.05622 10.22555
4.00136 7.05440 10.30385
4.00125 7.05273 10.38212
4.00115 7.05119 10.46038
4.00106 7.04978 10.53863
4.00098 7.04847 10.61689
4.00090 7.04727 10.69516
4.00083 7.04617 10.77344
4.00076 7.04516 10.85176
4.00070 7.04422 10.93011
4.00064 7.04337 11.00849
4.00059 7.04257 11.08692
4.00054 7.04184 11.16541
4.00050 7.04117 11.24392
4.00046 7.04057 11.32249
4.00042 7.03998 11.40114
4.00039 7.03946 11.47984
4.00036 7.03899 11.55857
4.00033 7.03854 11.63740
4.00030 7.03814 11.71628
4.00028 7.03776 11.79524
4.00026 7.03741 11.87426
4.00025 7.03710 11.95335
4.00022 7.03681 12.03252
4.00020 7.03654 12.11176
4.00018 7.03629 12.19107
4.00017 7.03604 12.27047
4.00015 7.03585 12.34991
4.00014 7.03566 12.42944
4.00013 7.03548 12.50905
4.00012 7.03532 12.58874
4.00011 7.03517 12.66849
4.00010 7.03503 12.74833
4.00009 7.03490 12.82826
4.00009 7.03479 12.90826
4.00008 7.03468 12.98832
4.00007 7.03458 13.06846
4.00007 7.03449 13.14868
4.00006 7.03441 13.22898
4.00006 7.03434 13.30929
4.00006 7.03426 13.38973
4.00005 7.03420 13.47024
4.00005 7.03414 13.55084
4.00004 7.03409 13.63152
4.00004 7.03404 13.71228
4.00003 7.03399 13.79312
4.00003 7.03395 13.87398
4.00003 7.03392 13.95492
4.00003 7.03387 14.03599
4.00002 7.03384 14.11711
4.00002 7.03381 14.19830
4.00002 7.03378 14.27957
4.00002 7.03376 14.36090
4.00002 7.03374 14.44231
4.00002 7.03371 14.52378
4.00001 7.03369 14.60532
4.00001 7.03368 14.68693
4.00001 7.03366 14.76860
4.00001 7.03365 14.85034
4.00001 7.03363 14.93214
4.00001 7.03362 15.01401
4.00001 7.03361 15.09594
4.00001 7.03360 15.17792
4.00001 7.03359 15.25997
4.00001 7.03358 15.34208
4.00001 7.03357 15.42425
4.00001 7.03356 15.50648
4.00001 7.03356 15.58876
4.00000 7.03355 15.67110
4.00000 7.03354 15.75350
4.00000 7.03354 15.83596
4.00000 7.03353 15.91847
4.00000 7.03353 16.00103
4.00000 7.03352 16.08365
4.00000 7.03352 16.16632
4.00000 7.03352 16.24904
4.00000 7.03351 16.33182
4.00000 7.03351 16.41465
4.00000 7.03351 16.49753
4.00000 7.03351 16.58046
4.00000 7.03350 16.66344
4.00000 7.03350 16.74647
4.00000 7.03350 16.82956
4.00000 7.03350 16.91269
4.00000 7.03350 16.99587
4.00000 7.03350 17.07909
4.00000 7.03349 17.16237
4.00000 7.03349 17.24569
4.00000 7.03349 17.32906
4.00000 7.03349 17.41248
4.00000 7.03349 17.49594
4.00000 7.03349 17.57945
4.00000 7.03349 17.66300
4.00000 7.03349 17.74660
4.00000 7.03349 17.83025
4.00000 7.03349 17.91394
4.00000 7.03349 17.99767
4.00000 7.03348 18.08145
4.00000 7.03348 18.16527
4.00000 7.03348 18.24913
4.00000 7.03348 18.33303
4.00000 7.03348 18.41698
4.00000 7.03348 18.50097
4.00000 7.03348 18.58500
4.00000 7.03348 18.66908
4.00000 7.03348 18.75319
4.00000 7.03348 18.83734
4.00000 7.03348 18.92154
4.00000 7.03348 19.00578
4.00000 7.03348 19.09005
4.00000 7.03348 19.17436
4.00000 7.03348 19.25872
4.00000 7.03348 19.34311
4.00000 7.03348 19.42754
4.00000 7.03348 19.51201
4.00000 7.03348 19.59652
4.00000 7.03348 19.68106
4.00000 7.03348 19.76564
4.00000 7.03348 19.85026
4.00000 7.03348 19.93491
4.00000 7.03348 20.01960
4.00000 7.03348 20.10433
4.00000 7.03348 20.18909
4.00000 7.03348 20.27389
4.00000 7.03348 20.35872
4.00000 7.03348 20.44359

Angle 0.267487 1.790208

4.00000 7.03348 4.00000
4.00000 7.03348 4.00000
4.00000 7.03348 4.00000
4.00000 7.03348 4.00000
4.00000 7.03348 4.00000
4.00000 7.03348 4.00000
4.00000 7.03348 4.00000
4.00000 7.03348 4.00000
4.00000 7.03348 4.00000
4.00000 7.03348 4.00000
4.00000 7.03348 4.00000
4.00000 7.03348 4.00000
4.00000 7.03348 4.00000
4.00000 7.03348 4.00000
4.00000 7.03348 4.00000
4.00000 7.03348 4.00000
4.00000 7.03348 4.00000
4.00000 7.03348 4.00000
4.00000 7.03348 4.00000
4.00000 7.03348 4.00000
4.00000 7.03348 4.00000
4.00000 7.03348 4.00000
4.00000 7.03344 4.00000
4.00000 7.03349 4.00000
4.00000 7.03348 4.00000
4.00000 7.03348 4.00000
4.00000 7.03348 4.00000
4.00000 7.03348 4.00000
4.00000 7.03348 4.00000
4.00000 7.03348 4.00000
4.00000 7.03348 4.00000
4.00000 7.03348 4.00000
4.00000 7.03348 4.00000
4.00000 7.03348 4.00000
4.00000 7.03348 4.00000
4.00000 7.03347 4.00000
4.00000 7.03347 4.00000
4.00000 7.03348 4.00000
4.00000 7.03348 4.00000
4.00000 7.03348 4.00000
4.00000 7.03348 4.00000
4.00000 7.03348 4.00000
4.00000 7.03348 4.00000
4.00000 7.03348 4.00000
4.00000 7.03348 4.00000
4.00000 7.03348 4.00000
4.00000 7.03349 4.00000
4.00000 7.03347 4.00000
4.00000 7.03348 4.00000
4.00000 7.03348 4.00000
4.00000 7.03348 4.00000
4.00000 7.03347 4.00000
4.00000 7.03347 4.00000
4.00000 7.03345 4.00000
4.00000 7.03347 4.00000
4.00000 7.03348 4.00000
4.00000 7.03348 4.00000
4.00000 7.03348 4.00000
4.00000 7.03348 4.00000
4.00000 7.03347 4.00000
4.00000 7.03348 4.00000
4.00000 7.03348 4.00000
4.00000 7.03348 4.00000
4.00000 7.03348 4.00000
4.00000 7.03347 4.00000
4.00000 7.03348 4.00000
4.00000 7.03348 4.00000
4.00000 7.03348 4.00000
4.00000 7.03348 4.00000
4.00000 7.03347 4.00000
4.00000 7.03348 4.00000
4.00000 7.03348 4.00000
4.00000 7.03348 4.00000
4.00000 7.03348 4.00000
4.00000 7.03348 4.00000
4.00000 7.03348 4.00000
4.00000 7.03348 4.00000
4.00000 7.03348 4.00000
4.00000 7.03348 4.00000
4.00000 7.03348 4.00000
4.00000 7.03348 4.00000
4.00000 7.03348 4.00000
4.00000 7.03347 4.00000
4.00000 7.03348 4.00000
4.00000 7.03348 4.00000
4.00000 7.03348 4.00000
4.00000 7.03347 4.00000
4.00000 7.03348 4.00000
4.00000 7.03348 4.00000
4.00000 7.03348 4.00000
4.00000 7.03348 4.00000
4.00000 7.03348 4.00000
4.00000 7.03348 4.00000
4.00000 7.03348 4.00000
4.00000 7.03350 4.00000
4.00000 7.03347 4.00000
4.00000 7.03348 4.00000
4.00000 7.03345 4.00000
4.00000 7.03348 4.00000
4.00000 7.03348 4.00000
4.00000 7.03348 4.00000
4.00000 7.03348 4.00000
4.00000 7.03348 4.00000
4.00000 7.03348 4.00000
4.00000 7.03348 4.00000
4.00000 7.03348 4.00000
4.00000 7.03348 4.00000
4.00000 7.03348 4.00000
4.00000 7.03348 4.00000
4.00000 7.03348 4.00000
4.00000 7.03348 4.00000
4.00000 7.03348 4.00000
4.00000 7.03348 4.00000
4.00000 7.03348 4.00000
4.00000 7.03347 4.00000
4.00000 7.03348 4.00000
4.00000 7.03347 4.00000
4.00000 7.03348 4.00000
4.00000 7.03348 4.00000
4.00000 7.03348 4.00000
4.00000 7.03348 4.00000
4.00000 7.03348 4.00000
4.00000 7.03348 4.00000
4.00000 7.03348 4.00000
4.00000 7.03348 4.00000
4.00000 7.03348 4.00000
4.00000 7.03348 4.00000
4.00000 7.03348 4.00000
4.00000 7.03348 4.00000
4.00000 7.03348 4.00000
4.00000 7.03348 4.00000
4.00000 7.03348 4.00000
4.00000 7.03349 4.00000
4.00000 7.03349 4.00000
4.00000 7.03348 4.00000
4.00000 7.03348 4.00000
4.00000 7.03348 4.00000
4.00000 7.03348 4.00000
4.00000 7.03348 4.00000
4.00000 7.03348 4.00000
4.00000 7.03348 4.00000
4.00000 7.03348 4.00000
4.00000 7.03348 4.00000
4.00000 7.03348 4.00000
4.00000 7.03348 4.00000
4.00000 7.03348 4.00000
4.00000 7.03348 4.00000
4.00000 7.03348 4.00000
4.00000 7.03348 4.00000
4.00000 7.03348 4.00000
4.00000 7.03348 4.00000
4.00000 7.03348 4.00000
4.00000 7.03348 4.00000
4.00000 7.03347 4.00000
4.00000 7.03348 4.00000
4.00000 7.03348 4.00000
4.00000 7.03348 4.00000
4.00000 7.03348 4.00000
4.00000 7.03348 4.00000
4.00000 7.03348 4.00000
4.00000 7.03347 4.00000
4.00000 7.03348 4.00000
4.00000 7.03348 4.00000
4.00000 7.03348 4.00000
4.00000 7.03348 4.00000
4.00000 7.03348 4.00000
4.00000 7.03348 4.00000
4.00000 7.03348 4.00000
4.00000 7.03348 4.00000
4.00000 7.03348 4.00000
4.00000 7.03348 4.00000
4.00000 7.03348 4.00000
4.00000 7.03348 4.00000
4.00000 7.03348 4.00000
4.00000 7.03348 4.00000
4.00000 7.03348 4.00000
4.00000 7.03348 4.00000
4.00000 7.03348 4.00000
4.00000 7.03348 4.00000
4.00000 7.03348 4.00000
4.00000 7.03348 4.00000
4.00000 7.03348 4.00000
4.00000 7.03348 4.00000
4.00000 7.03348 4.00000
4.00000 7.03347 4.00000
4.00000 7.03348 4.00000
4.00000 7.03346 4.00000
4.00000 7.03348 4.00000
4.00000 7.03348 4.00000
4.00167 7.05915 4.00167
4.00584 7.12406 4.00584
4.00996 7.18929 4.00996
4.01406 7.25481 4.01406
4.01813 7.32059 4.01813
4.02219 7.38659 4.02219
4.02626 7.45279 4.02626
4.03033 7.51914 4.03033
4.03443 7.58560 4.03443
4.03857 7.65214 4.03857
4.04276 7.71873 4.04276
4.04702 7.78531 4.04702
4.05135 7.85184 4.05135
4.05579 7.91827 4.05579
4.06035 7.98455 4.06035
4.06505 8.05061 4.06505
4.06992 8.11639 4.06992
4.07499 8.18180 4.07499
4.08028 8.24678 4.08028
4.08585 8.31120 4.08585
4.09172 8.37497 4.09172
4.09796 8.43796 4.09796
4.10461 8.50000 4.10461
4.11176 8.56094 4.11176
4.11947 8.62057 4.11947
4.12784 8.67867 4.12784
4.13684 8.73535 4.13684
4.14645 8.79064 4.14645
4.15671 8.84450 4.15671
4.16764 8.89685 4.16764
4.17928 8.94766 4.17928
4.19164 8.99687 4.19164
4.20475 9.04445 4.20475
4.21863 9.09036 4.21863
4.23330 9.13459 4.23330
4.24877 9.17712 4.24878
4.26506 9.21794 4.26506
4.28218 9.25704 4.28218
4.30013 9.29440 4.30013
4.31893 9.33002 4.31893
4.33860 9.36389 4.33860
4.35915 9.39598 4.35915
4.38060 9.42625 4.38059
4.40297 9.45466 4.40297
4.42631 9.48113 4.42631
4.45066 9.50557 4.45066
4.47609 9.52785 4.47609
4.50266 9.54780 4.50266
4.53046 9.56524 4.53046
4.55962 9.57992 4.55962
4.59024 9.59157 4.59024
4.62248 9.59988 4.62248
4.65647 9.60455 4.65647
7.35085 7.53564 4.03135
7.51307 7.45461 4.02637
7.65374 7.39482 4.02270
7.78138 7.34792 4.01981
7.90025 7.30975 4.01746
8.01275 7.27794 4.01549
8.12044 7.25096 4.01382
8.22437 7.22778 4.01237
8.32528 7.20767 4.01111
8.42372 7.19008 4.01001
8.52012 7.17460 4.00904
8.61480 7.16090 4.00817
8.70804 7.14873 4.00740
8.80004 7.13787 4.00671
8.89097 7.12815 4.00610
8.98097 7.11944 4.00554
9.07019 7.11160 4.00504
9.15872 7.10452 4.00459
9.24663 7.09814 4.00418
9.33401 7.09237 4.00381
9.42093 7.08715 4.00347
9.50745 7.08240 4.00317
9.59361 7.07810 4.00289
9.67946 7.07419 4.00264
9.76503 7.07064 4.00241
9.85039 7.06739 4.00220
9.93549 7.06446 4.00201
10.02043 7.06178 4.00184
10.10521 7.05934 4.00168
10.18986 7.05711 4.00154
10.27438 7.05507 4.00140
10.35881 7.05322 4.00128
10.44317 7.05150 4.00117
10.52744 7.04995 4.00107
10.61165 7.04854 4.00098
10.69579 7.04727 4.00090
10.77991 7.04609 4.00082
10.86401 7.04500 4.00075
10.94809 7.04401 4.00069
11.03216 7.04310 4.00062
11.11621 7.04228 4.00057
11.20026 7.04152 4.00052
11.28431 7.04083 4.00048
11.36835 7.04022 4.00044
11.45243 7.03964 4.00040
11.53652 7.03911 4.00037
11.62063 7.03863 4.00034
11.70476 7.03819 4.00031
11.78893 7.03779 4.00028
11.87311 7.03742 4.00026
11.95733 7.03708 4.00024
12.04158 7.03677 4.00021
12.12587 7.03649 4.00020
12.21019 7.03623 4.00018
12.29457 7.03597 4.00016
12.37894 7.03578 4.00015
12.46338 7.03558 4.00014
12.54785 7.03540 4.00013
12.63236 7.03524 4.00011
12.71692 7.03509 4.00011
12.80151 7.03495 4.00010
12.88616 7.03482 4.00009
12.97083 7.03470 4.00008
13.05556 7.03460 4.00007
13.14032 7.03450 4.00007
13.22514 7.03442 4.00006
13.31000 7.03433 4.00006
13.39488 7.03426 4.00005
13.47982 7.03419 4.00005
13.56481 7.03413 4.00004
13.64985 7.03408 4.00004
13.73488 7.03402 4.00004
13.81999 7.03398 4.00003
13.90515 7.03393 4.00003
13.99036 7.03389 4.00003
14.07562 7.03386 4.00003
14.16093 7.03383 4.00002
14.24615 7.03380 4.00002
14.33151 7.03377 4.00002
14.41692 7.03374 4.00002
14.50237 7.03372 4.00002
14.58786 7.03370 4.00002
14.67340 7.03368 4.00001
14.75898 7.03366 4.00001
14.84460 7.03365 4.00001
14.93026 7.03363 4.00001
15.01596 7.03362 4.00001
15.10150 7.03361 4.00001
15.18725 7.03360 4.00001
15.27304 7.03359 4.00001
15.35886 7.03358 4.00001
15.44473 7.03357 4.00001
15.53064 7.03356 4.00001
15.61658 7.03355 4.00001
15.70256 7.03355 4.00000
15.78857 7.03354 4.00000
15.87462 7.03354 4.00000
15.96071 7.03353 4.00000
16.04682 7.03353 4.00000
16.13298 7.03352 4.00000
16.21916 7.03352 4.00000
16.30538 7.03351 4.00000
16.39163 7.03351 4.00000
16.47791 7.03351 4.00000
16.56422 7.03351 4.00000
16.65057 7.03350 4.00000
16.73694 7.03350 4.00000
16.82334 7.03350 4.00000
16.90978 7.03350 4.00000
16.99624 7.03350 4.00000
17.08273 7.03350 4.00000
17.16925 7.03349 4.00000
17.25580 7.03349 4.00000
17.34238 7.03349 4.00000
17.42898 7.03349 4.00000
17.51561 7.03349 4.00000
17.60227 7.03349 4.00000
17.68895 7.03349 4.00000
17.77566 7.03349 4.00000
17.86240 7.03349 4.00000
17.94916 7.03349 4.00000
18.03595 7.03349 4.00000
18.12277 7.03348 4.00000
18.20961 7.03348 4.00000
18.29653 7.03348 4.00000
18.38347 7.03348 4.00000
18.47045 7.03348 4.00000
18.55745 7.03348 4.00000
18.64447 7.03348 4.00000
18.73152 7.03348 4.00000
18.81859 7.03348 4.00000
18.90568 7.03348 4.00000
18.99280 7.03348 4.00000
19.07994 7.03348 4.00000
19.16710 7.03348 4.00000
19.25427 7.03348 4.00000
19.34148 7.03348 4.00000
19.42870 7.03348 4.00000
19.51594 7.03348 4.00000
19.60321 7.03347 4.00000
19.69049 7.03347 4.00000
19.77780 7.03347 4.00000
19.86513 7.03347 4.00000
19.95247 7.03347 4.00000
20.03984 7.03347 4.00000
20.12723 7.03347 4.00000
20.21463 7.03347 4.00000
20.30206 7.03347 4.00000
20.38950 7.03347 4.00000
20.47695 7.03348 4.00000
20.56443 7.03348 4.00000
20.65194 7.03348 4.00000
20.73945 7.03348 4.00000
20.82698 7.03348 4.00000
20.91454 7.03348 4.00000
21.00211 7.03348 4.00000
21.08970 7.03348 4.00000
21.17730 7.03348 4.00000

Angle 0.307564 0.538201

4.00000 7.03348 4.00000
4.00000 7.03348 4.00000
4.00000 7.03348 4.00000
4.00000 7.03349 4.00000
4.00000 7.03348 4.00000
4.00000 7.03348 4.00000
4.00000 7.03348 4.00000
4.00000 7.03348 4.00000
4.00000 7.03348 4.00000
4.00000 7.03348 4.00000
4.00000 7.03348 4.00000
4.00000 7.03348 4.00000
4.00000 7.03349 4.00000
4.00000 7.03348 4.00000
4.00000 7.03348 4.00000
4.00000 7.03348 4.00000
4.00000 7.03348 4.00000
4.00000 7.03348 4.00000
4.00000 7.03348 4.00000
4.00000 7.03348 4.00000
4.00000 7.03348 4.00000
4.00000 7.03348 4.00000
4.00000 7.03348 4.00000
4.00000 7.03348 4.00000
4.00000 7.03348 4.00000
4.00000 7.03348 4.00000
4.00000 7.03348 4.00000
4.00000 7.03348 4.00000
4.00000 7.03348 4.00000
4.00000 7.03349 4.00000
4.00000 7.03349 4.00000
4.00000 7.03350 4.00000
4.00000 7.03348 4.00000
4.00000 7.03348 4.00000
4.00000 7.03348 4.00000
4.00000 7.03348 4.00000
4.00000 7.03348 4.00000
4.00000 7.03348 4.00000
4.00000 7.03350 4.00000
4.00000 7.03351 4.00000
4.00000 7.03348 4.00000
4.00000 7.03348 4.00000
4.00000 7.03348 4.00000
4.00000 7.03348 4.00000
4.00000 7.03348 4.00000
4.00000 7.03348 4.00000
4.00000 7.03348 4.00000
4.00000 7.03348 4.00000
4.00000 7.03348 4.00000
4.00000 7.03348 4.00000
4.00000 7.03348 4.00000
4.00000 7.03348 4.00000
4.00000 7.03348 4.00000
4.00000 7.03348 4.00000
4.00000 7.03348 4.00000
4.00344 7.08665 4.00344
4.00815 7.16049 4.00815
4.01280 7.23457 4.01280
4.01740 7.30886 4.01740
4.02199 7.38330 4.02199
4.02657 7.45784 4.02657
4.03115 7.53244 4.03115
4.03576 7.60706 4.03576
4.04042 7.68163 4.04042
4.04514 7.75610 4.04514
4.04995 7.83041 4.04995
4.05486 7.90451 4.05486
4.05991 7.97831 4.05991
4.06513 8.05174 4.06513
4.07055 8.12471 4.07055
4.07621 8.19712 4.07621
4.08215 8.26885 4.08215
4.08843 8.33977 4.08843
4.09510 8.40973 4.09510
4.10224 8.47854 4.10224
4.10994 8.54599 4.10994
4.11829 8.61183 4.11829
4.12741 8.67580 4.12741
4.13727 8.73794 4.13727
4.14786 8.79835 4.14786
4.15922 8.85696 4.15922
4.17138 8.91369 4.17138
4.18437 8.96849 4.18437
4.19823 9.02132 4.19823
4.21297 9.07213 4.21297
4.22862 9.12090 4.22862
4.24519 9.16762 4.24519
4.26271 9.21228 4.26271
4.28118 9.25486 4.28118
4.30062 9.29537 4.30062
4.32103 9.33380 4.32103
4.34244 9.37013 4.34244
4.36486 9.40435 4.36486
4.38832 9.43641 4.38831
4.41284 9.46624 4.41285
4.43849 9.49375 4.43850
4.46533 9.51881 4.46533
4.49343 9.54124 4.49343
4.52289 9.56083 4.52289
4.55385 9.57730 4.55385
4.58645 9.59033 4.58645
4.62087 9.59956 4.62086
4.65725 9.60461 4.65725
7.36717 7.52687 4.03081
7.53706 7.44376 4.02570
7.68420 7.38303 4.02197
7.81773 7.33572 4.01906
7.94211 7.29746 4.01670
8.05989 7.26573 4.01473
8.17269 7.23897 4.01307
8.28158 7.21610 4.01164
8.38735 7.19636 4.01041
8.49059 7.17917 4.00933
8.59171 7.16412 4.00838
8.69107 7.15085 4.00754
8.78892 7.13912 4.00679
8.88548 7.12871 4.00613
8.98095 7.11943 4.00554
9.07544 7.11117 4.00501
9.16913 7.10374 4.00454
9.26211 7.09708 4.00411
9.35444 7.09109 4.00373
9.44621 7.08571 4.00338
9.53750 7.08086 4.00307
9.62837 7.07647 4.00279
9.71884 7.07252 4.00253
9.80899 7.06894 4.00230
9.89883 7.06570 4.00209
9.98841 7.06277 4.00190
10.07777 7.06010 4.00173
10.16693 7.05769 4.00157
10.25590 7.05550 4.00143
10.34470 7.05353 4.00130
10.43339 7.05171 4.00119
10.52194 7.05007 4.00108
10.61038 7.04858 4.00098
10.69873 7.04722 4.00089
10.78700 7.04599 4.00081
10.87520 7.04487 4.00074
10.96334 7.04385 4.00068
11.05142 7.04292 4.00062
11.13946 7.04208 4.00056
11.22746 7.04131 4.00051
11.31543 7.04061 4.00046
11.40338 7.03997 4.00042
11.49131 7.03939 4.00039
11.57923 7.03886 4.00035
11.66712 7.03839 4.00032
11.75502 7.03795 4.00029
11.84291 7.03754 4.00027
11.93080 7.03719 4.00024
12.01869 7.03685 4.00022
12.10659 7.03655 4.00020
12.19449 7.03628 4.00018
12.28240 7.03603 4.00017
12.37032 7.03580 4.00015
12.45825 7.03559 4.00014
12.54620 7.03541 4.00013
12.63415 7.03523 4.00012
12.72213 7.03508 4.00010
12.81012 7.03493 4.00010
12.89813 7.03480 4.00009
12.98615 7.03469 4.00008
13.07419 7.03458 4.00007
13.16225 7.03448 4.00007
13.25033 7.03439 4.00006
13.33843 7.03431 4.00005
13.42654 7.03423 4.00005
13.51468 7.03417 4.00005
13.60285 7.03411 4.00004
13.69102 7.03405 4.00004
13.77922 7.03400 4.00003
13.86743 7.03395 4.00003
13.95567 7.03391 4.00003
14.04393 7.03387 4.00002
14.13221 7.03384 4.00003
14.22051 7.03380 4.00002
14.30883 7.03378 4.00002
14.39717 7.03375 4.00002
14.48552 7.03373 4.00002
14.57391 7.03370 4.00001
14.66230 7.03368 4.00001
14.75072 7.03366 4.00001
14.83916 7.03365 4.00001
14.92762 7.03363 4.00001
15.01609 7.03362 4.00001
15.10458 7.03361 4.00001
15.19309 7.03359 4.00001
15.28162 7.03358 4.00001
15.37017 7.03357 4.00001
15.45874 7.03357 4.00001
15.54732 7.03356 4.00001
15.63593 7.03355 4.00000
15.72455 7.03354 4.00000
15.81318 7.03354 4.00000
15.90184 7.03353 4.00000
15.99051 7.03353 4.00000
16.07920 7.03352 4.00000
16.16790 7.03352 4.00000
16.25663 7.03351 4.00000
16.34536 7.03351 4.00000
16.43412 7.03350 4.00000
16.52288 7.03351 4.00000
16.61167 7.03350 4.00000
16.70047 7.03350 4.00000
16.78929 7.03349 4.00000
16.87812 7.03349 4.00000
16.96697 7.03349 4.00000
17.05583 7.03349 4.00000
17.14471 7.03349 4.00000
17.23360 7.03349 4.00000
17.32250 7.03349 4.00000
17.41142 7.03348 4.00000
17.50035 7.03348 4.00000
17.58930 7.03348 4.00000
17.67826 7.03348 4.00000
17.76723 7.03348 4.00000
17.85622 7.03348 4.00000
17.94521 7.03349 4.00000
18.03422 7.03349 4.00000
18.12325 7.03348 4.00000
18.21229 7.03348 4.00000
18.30134 7.03348 4.00000
18.39040 7.03348 4.00000
18.47947 7.03348 4.00000
18.56856 7.03348 4.00000
18.65766 7.03348 4.00000
18.74677 7.03348 4.00000
18.83589 7.03348 4.00000
18.92502 7.03348 4.00000
19.01416 7.03348 4.00000
19.10331 7.03348 4.00000
19.19247 7.03348 4.00000
19.28165 7.03348 4.00000
19.37083 7.03348 4.00000
19.46002 7.03348 4.00000
19.54923 7.03348 4.00000
19.63845 7.03348 4.00000
19.72768 7.03348 4.00000
19.81692 7.03347 4.00000
19.90617 7.03348 4.00000
19.99543 7.03348 4.00000
20.08470 7.03348 4.00000
20.17398 7.03348 4.00000
20.26328 7.03348 4.00000
20.35258 7.03348 4.00000
20.44189 7.03348 4.00000
20.53120 7.03348 4.00000
20.62053 7.03348 4.00000
20.70987 7.03348 4.00000
20.79922 7.03348 4.00000
20.88857 7.03348 4.00000
20.97793 7.03348 4.00000
21.06730 7.03348 4.00000
21.15668 7.03348 4.00000
21.24607 7.03348 4.00000
21.33547 7.03348 4.00000
21.42487 7.03347 4.00000
21.51428 7.03348 4.00000
21.60370 7.03348 4.00000
21.69313 7.03348 4.00000
21.78257 7.03348 4.00000
21.87200 7.03348 4.00000
21.96145 7.03348 4.00000
22.05091 7.03347 4.00000
22.14037 7.03348 4.00000
22.22984 7.03348 4.00000
22.31933 7.03348 4.00000
22.40883 7.03347 4.00000
22.49832 7.03348 4.00000
22.58782 7.03347 4.00000
22.67733 7.03348 4.00000
22.76685 7.03348 4.00000
22.85637 7.03348 4.00000
22.94591 7.03348 4.00000
23.03545 7.03348 4.00000
23.12500 7.03348 4.00000
23.21456 7.03348 4.00000
23.30412 7.03348 4.00000
23.39369 7.03348 4.00000
23.48327 7.03348 4.00000
23.57285 7.03348 4.00000
23.66244 7.03348 4.00000
23.75203 7.03348 4.00000
23.84163 7.03348 4.00000
23.93123 7.03348 4.00000
24.02085 7.03348 4.00000
24.11046 7.03348 4.00000
24.20008 7.03348 4.00000
24.28971 7.03348 4.00000
24.37933 7.03348 4.00000
24.46897 7.03348 4.00000
24.55861 7.03348 4.00000
24.64824 7.03348 4.00000
24.73790 7.03348 4.00000
24.82755 7.03348 4.00000
24.91721 7.03348 4.00000
25.00687 7.03348 4.00000
25.09653 7.03348 4.00000
25.18620 7.03348 4.00000
25.27588 7.03348 4.00000
25.36556 7.03348 4.00000
25.45524 7.03348 4.00000
25.54493 7.03348 4.00000
25.63463 7.03348 4.00000
25.72432 7.03348 4.00000
25.81403 7.03348 4.00000
25.90374 7.03348 4.00000
25.99345 7.03348 4.00000
26.08317 7.03348 4.00000
26.17289 7.03348 4.00000
26.26262 7.03348 4.00000
26.35235 7.03348 4.00000
26.44209 7.03348 4.00000
26.53183 7.03348 4.00000
26.62158 7.03348 4.00000
26.71133 7.03348 4.00000
26.80109 7.03348 4.00000
26.89085 7.03348 4.00000
26.98062 7.03348 4.00000
27.07039 7.03348 4.00000
27.16016 7.03348 4.00000
27.24994 7.03348 4.00000
27.33972 7.03348 4.00000
27.42950 7.03348 4.00000
27.51929 7.03348 4.00000
27.60909 7.03348 4.00000
27.69888 7.03348 4.00000
27.78868 7.03348 4.00000
27.87849 7.03348 4.00000
27.96830 7.03348 4.00000
28.05811 7.03348 4.00000
28.14793 7.03348 4.00000
28.23775 7.03348 4.00000
28.32757 7.03348 4.00000
28.41740 7.03348 4.00000
28.50723 7.03348 4.00000
28.59706 7.03348 4.00000
28.68690 7.03348 4.00000
28.77674 7.03348 4.00000
28.86659 7.03348 4.00000
28.95644 7.03348 4.00000
29.04629 7.03348 4.00000
29.13614 7.03348 4.00000
29.22600 7.03348 4.00000
29.31587 7.03348 4.00000
29.40573 7.03348 4.00000
29.49560 7.03348 4.00000
29.58547 7.03348 4.00000
29.67535 7.03349 4.00000
29.76523 7.03349 4.00000
29.85514 7.03348 4.00000
29.94503 7.03348 4.00000
30.03492 7.03349 4.00000
30.12483 7.03348 4.00000
30.21473 7.03348 4.00000
30.30464 7.03348 4.00000
30.39454 7.03348 4.00000
30.48446 7.03348 4.00000
30.57437 7.03348 4.00000
30.66429 7.03348 4.00000
30.75421 7.03348 4.00000
30.84413 7.03348 4.00000
30.93406 7.03348 4.00000
31.02398 7.03348 4.00000
31.11392 7.03348 4.00000
31.20385 7.03348 4.00000
31.29379 7.03348 4.00000
31.38372 7.03348 4.00000
31.47367 7.03348 4.00000
31.56361 7.03348 4.00000
31.65356 7.03348 4.00000
31.74351 7.03348 4.00000
31.83346 7.03348 4.00000
31.92341 7.03348 4.00000
32.01337 7.03348 4.00000
32.10333 7.03348 4.00000
32.19329 7.03348 4.00000
32.28326 7.03348 4.00000
32.37323 7.03348 4.00000
32.46320 7.03348 4.00000
32.55318 7.03348 4.00000
32.64316 7.03348 4.00000
32.73314 7.03348 4.00000
32.82313 7.03348 4.00000
32.91312 7.03348 4.00000
33.00311 7.03348 4.00000
33.09311 7.03348 4.00000
33.18311 7.03348 4.00000
33.27311 7.03348 4.00000
33.36312 7.03348 4.00000
33.45313 7.03348 4.00000
33.54314 7.03348 4.00000
33.63316 7.03348 4.00000
33.72318 7.03348 4.00000
33.81320 7.03348 4.00000
33.90323 7.03348 4.00000
33.99326 7.03348 4.00000
34.08329 7.03348 4.00000
34.17333 7.03348 4.00000

Angle 0.255959 5.236988

4.00000 7.03348 4.00000
4.00000 7.03348 4.00000
4.00000 7.03348 4.00000
4.00000 7.03348 4.00000
4.00000 7.03348 4.00000
4.00001 7.03343 4.00000
4.00000 7.03344 4.00000
4.00220 7.00008 4.00219
4.00721 6.92706 4.00721
4.01260 6.85265 4.01260
4.01825 6.77951 4.01825
4.02410 6.70846 4.02410
4.02986 6.64317 4.02986
4.03249 6.61487 4.03248
4.02793 6.66452 4.02793
4.02206 6.73277 4.02205
4.01626 6.80470 4.01626
4.01070 6.87834 4.01070
4.00539 6.95310 4.00539
4.00031 7.02869 4.00031
4.00000 7.03348 4.00000
4.00000 7.03348 4.00000
4.00000 7.03348 4.00000
4.00000 7.03348 4.00000
4.00000 7.03348 4.00000
4.00000 7.03348 4.00000
4.00000 7.03348 4.00000
4.00000 7.03347 4.00000
4.00000 7.03348 4.00000
4.00000 7.03348 4.00000
4.00000 7.03347 4.00000
4.00000 7.03348 4.00000
4.00000 7.03348 4.00000
4.00000 7.03348 4.00000
4.00000 7.03348 4.00000
4.00000 7.03348 4.00000
4.00000 7.03348 4.00000
4.00000 7.03348 4.00000
4.00000 7.03348 4.00000
4.00000 7.03348 4.00000
4.00000 7.03348 4.00000
4.00000 7.03348 4.00000
4.00000 7.03348 4.00000
4.00000 7.03348 4.00000
4.00000 7.03348 4.00000
4.00000 7.03348 4.00000
4.00000 7.03348 4.00000
4.00000 7.03348 4.00000
4.00000 7.03348 4.00000
4.00000 7.03348 4.00000
4.00000 7.03348 4.00000
4.00000 7.03348 4.00000
4.00000 7.03348 4.00000
4.00000 7.03348 4.00000
4.00000 7.03348 4.00000
4.00000 7.03348 4.00000
4.00000 7.03348 4.00000
4.00000 7.03348 4.00000
4.00000 7.03348 4.00000
4.00000 7.03348 4.00000
4.00000 7.03348 4.00000
4.00000 7.03348 4.00000
4.00000 7.03348 4.00000
4.00000 7.03348 4.00000
4.00000 7.03348 4.00000
4.00000 7.03348 4.00000
4.00000 7.03348 4.00000
4.00000 7.03348 4.00000
4.00000 7.03348 4.00000
4.00000 7.03348 4.00000
4.00000 7.03348 4.00000
4.00000 7.03348 4.00000
4.00000 7.03348 4.00000
4.00000 7.03348 4.00000
4.00000 7.03348 4.00000
4.00000 7.03348 4.00000
4.00000 7.03348 4.00000
4.00000 7.03348 4.00000
4.00000 7.03348 4.00000
4.00000 7.03348 4.00000
4.00000 7.03348 4.00000
4.00000 7.03348 4.00000
4.00000 7.03348 4.00000
4.00000 7.03348 4.00000
4.00000 7.03348 4.00000
4.00000 7.03348 4.00000
4.00000 7.03348 4.00000
4.00000 7.03348 4.00000
4.00000 7.03348 4.00000
4.00000 7.03348 4.00000
4.00000 7.03348 4.00000
4.00000 7.03348 4.00000
4.00000 7.03348 4.00000
4.00000 7.03348 4.00000
4.00000 7.03348 4.00000
4.00000 7.03348 4.00000
4.00000 7.03348 4.00000
4.00000 7.03348 4.00000
4.00000 7.03348 4.00000
4.00000 7.03348 4.00000
4.00000 7.03348 4.00000
4.00000 7.03348 4.00000
4.00000 7.03348 4.00000
4.00000 7.03348 4.00000
4.00000 7.03348 4.00000
4.00000 7.03348 4.00000
4.00000 7.03348 4.00000
4.00000 7.03348 4.00000
4.00000 7.03347 4.00000
4.00000 7.03347 4.00000
4.00000 7.03347 4.00000
4.00000 7.03347 4.00000
4.00000 7.03347 4.00000
4.00000 7.03347 4.00000
4.00000 7.03348 4.00000
4.00000 7.03348 4.00000
4.00000 7.03348 4.00000
4.00000 7.03348 4.00000
4.00000 7.03348 4.00000
4.00000 7.03348 4.00000
4.00000 7.03348 4.00000
4.00000 7.03348 4.00000
4.00000 7.03348 4.00000
4.00000 7.03348 4.00000
4.00000 7.03348 4.00000
4.00000 7.03348 4.00000
4.00000 7.03348 4.00000
4.00000 7.03348 4.00000
4.00000 7.03348 4.00000
4.00000 7.03348 4.00000
4.00000 7.03348 4.00000
4.00000 7.03348 4.00000
4.00000 7.03348 4.00000
4.00000 7.03348 4.00000
4.00000 7.03348 4.00000
4.00000 7.03348 4.00000
4.00000 7.03348 4.00000
4.00000 7.03348 4.00000
4.00000 7.03348 4.00000
4.00000 7.03348 4.00000
4.00000 7.03348 4.00000
4.00000 7.03346 4.00000
4.00000 7.03348 4.00000
4.00000 7.03349 4.00000
4.00000 7.03348 4.00000
4.00000 7.03348 4.00000
4.00000 7.03348 4.00000
4.00000 7.03348 4.00000
4.00000 7.03348 4.00000
4.00000 7.03348 4.00000
4.00000 7.03348 4.00000
4.00000 7.03348 4.00000
4.00000 7.03349 4.00000
4.00000 7.03349 4.00000
4.00000 7.03349 4.00000
4.00000 7.03349 4.00000
4.00000 7.03349 4.00000
4.00000 7.03348 4.00000
4.00000 7.03348 4.00000
4.00000 7.03348 4.00000
4.00000 7.03348 4.00000
4.00000 7.03350 4.00000
4.00055 7.04193 4.00055
4.00548 7.11848 4.00548
4.01034 7.19529 4.01034
4.01514 7.27231 4.01514
4.01991 7.34948 4.01991
4.02466 7.42674 4.02466
4.02941 7.50406 4.02940
4.03417 7.58137 4.03417
4.03897 7.65861 4.03897
4.04384 7.73573 4.04384
4.04879 7.81267 4.04879
4.05384 7.88935 4.05384
4.05904 7.96571 4.05904
4.06440 8.04165 4.06440
4.06997 8.11708 4.06997
4.07579 8.19190 4.07579
4.08190 8.26597 4.08190
4.08837 8.33916 4.08837
4.09526 8.41130 4.09526
4.10264 8.48218 4.10264
4.11061 8.55158 4.11061
4.11928 8.61923 4.11929
4.12877 8.68484 4.12878
4.13905 8.74853 4.13905
4.15010 8.81035 4.15010
4.16196 8.87022 4.16196
4.17467 8.92808 4.17467
4.18826 8.98387 4.18826
4.20277 9.03754 4.20277
4.21822 9.08905 4.21822
4.23463 9.13839 4.23463
4.25202 9.18555 4.25202
4.27039 9.23051 4.27039
4.28978 9.27328 4.28978
4.31018 9.31385 4.31018
4.33161 9.35222 4.33161
4.35408 9.38836 4.35408
4.37763 9.42225 4.37763
4.40228 9.45383 4.40228
4.42807 9.48301 4.42807
4.45508 9.50967 4.45508
4.48336 9.53364 4.48336
4.51303 9.55471 4.51303
4.54421 9.57262 4.54421
4.57706 9.58701 4.57706
4.61174 9.59754 4.61174
4.64843 9.60381 4.64843
4.68728 9.60543 4.68735
7.50650 7.45763 4.02655
7.66019 7.39229 4.02254
7.79847 7.34212 4.01946
7.92663 7.30193 4.01698
8.04761 7.26885 4.01493
8.16322 7.24109 4.01320
8.27465 7.21748 4.01173
8.38277 7.19716 4.01046
8.48818 7.17955 4.00935
8.59137 7.16416 4.00838
8.69270 7.15065 4.00753
8.79244 7.13873 4.00677
8.89085 7.12816 4.00610
8.98810 7.11878 4.00550
9.08436 7.11041 4.00497
9.17974 7.10294 4.00449
9.27438 7.09625 4.00406
9.36835 7.09024 4.00367
9.46173 7.08485 4.00333
9.55461 7.08000 4.00302
9.64704 7.07563 4.00273
9.73907 7.07168 4.00248
9.83075 7.06812 4.00225
9.92211 7.06491 4.00204
10.01320 7.06200 4.00185
10.10404 7.05937 4.00168
10.19466 7.05699 4.00153
10.28509 7.05483 4.00139
10.37535 7.05287 4.00126
10.46546 7.05110 4.00115
10.55543 7.04949 4.00104
10.64529 7.04803 4.00095
10.73504 7.04670 4.00086
10.82469 7.04550 4.00078
10.91427 7.04441 4.00071
11.00378 7.04341 4.00065
11.09322 7.04251 4.00059
11.18261 7.04169 4.00054
11.27195 7.04095 4.00049
11.36125 7.04027 4.00044
11.45052 7.03966 4.00040
11.53976 7.03910 4.00037
11.62897 7.03859 4.00033
11.71817 7.03812 4.00030
11.80735 7.03771 4.00028
11.89651 7.03732 4.00025
11.98567 7.03698 4.00023
12.07482 7.03666 4.00021
12.16396 7.03637 4.00019
12.25310 7.03611 4.00017
12.34224 7.03587 4.00016
12.43138 7.03565 4.00014
12.52053 7.03546 4.00013
12.60967 7.03528 4.00012
12.69883 7.03512 4.00011
12.78799 7.03497 4.00010
12.87716 7.03483 4.00009
12.96633 7.03471 4.00008
13.05552 7.03460 4.00007
13.14471 7.03450 4.00007
13.23392 7.03441 4.00006
13.32313 7.03432 4.00005
13.41236 7.03425 4.00005
13.50160 7.03418 4.00005
13.59085 7.03411 4.00004
13.68011 7.03406 4.00004
13.76938 7.03400 4.00003
13.85867 7.03396 4.00003
13.94797 7.03391 4.00003
14.03728 7.03387 4.00003
14.12660 7.03384 4.00002
14.21594 7.03381 4.00002
14.30529 7.03378 4.00002
14.39465 7.03375 4.00002
14.48403 7.03372 4.00002
14.57342 7.03370 4.00001
14.66282 7.03368 4.00001
14.75223 7.03366 4.00001
14.84165 7.03365 4.00001
14.93109 7.03363 4.00001
15.02054 7.03362 4.00001
15.11000 7.03361 4.00001
15.19947 7.03359 4.00001
15.28896 7.03358 4.00001
15.37846 7.03357 4.00001
15.46796 7.03357 4.00001
15.55749 7.03356 4.00000
15.64702 7.03355 4.00000
15.73656 7.03354 4.00000
15.82611 7.03354 4.00000
15.91568 7.03353 4.00000
16.00525 7.03353 4.00000
16.09484 7.03352 4.00000
16.18443 7.03352 4.00000
16.27404 7.03352 4.00000
16.36366 7.03351 4.00000
16.45328 7.03351 4.00000
16.54292 7.03351 4.00000
16.63257 7.03350 4.00000
16.72222 7.03350 4.00000
16.81189 7.03350 4.00000
16.90157 7.03350 4.00000
16.99125 7.03350 4.00000
17.08094 7.03350 4.00000
17.17065 7.03349 4.00000
17.26036 7.03349 4.00000
17.35008 7.03349 4.00000
17.43981 7.03349 4.00000
17.52954 7.03349 4.00000
17.61930 7.03348 4.00000
17.70904 7.03349 4.00000
17.79882 7.03348 4.00000
17.88857 7.03349 4.00000
17.97835 7.03349 4.00000
18.06814 7.03348 4.00000
18.15793 7.03348 4.00000
18.24773 7.03349 4.00000
18.33754 7.03348 4.00000
18.42736 7.03348 4.00000
18.51719 7.03348 4.00000
18.60702 7.03348 4.00000
18.69686 7.03348 4.00000
18.78671 7.03348 4.00000
18.87657 7.03348 4.00000
18.96645 7.03347 4.00000
19.05631 7.03348 4.00000
19.14620 7.03348 4.00000
19.23608 7.03348 4.00000
19.32597 7.03348 4.00000
19.41586 7.03348 4.00000
19.50576 7.03348 4.00000
19.59567 7.03348 4.00000
19.68558 7.03348 4.00000
19.77549 7.03348 4.00000
19.86542 7.03348 4.00000
19.95535 7.03348 4.00000
20.04529 7.03348 4.00000
20.13524 7.03348 4.00000
20.22518 7.03348 4.00000
20.31513 7.03348 4.00000
20.40508 7.03348 4.00000
20.49504 7.03348 4.00000
20.58500 7.03348 4.00000
20.67497 7.03348 4.00000
20.76494 7.03348 4.00000
20.85492 7.03348 4.00000
20.94491 7.03348 4.00000
21.03491 7.03348 4.00000
21.12491 7.03348 4.00000
21.21492 7.03348 4.00000
21.30494 7.03348 4.00000
21.39496 7.03348 4.00000
21.48498 7.03348 4.00000
21.57501 7.03348 4.00000
21.66504 7.03348 4.00000
21.75508 7.03348 4.00000
21.84512 7.03348 4.00000
21.93517 7.03348 4.00000
22.02522 7.03348 4.00000
22.11527 7.03348 4.00000
22.20533 7.03348 4.00000
22.29539 7.03348 4.00000
22.38546 7.03348 4.00000
22.47552 7.03348 4.00000
22.56559 7.03348 4.00000
22.65566 7.03348 4.00000
22.74574 7.03347 4.00000
22.83582 7.03348 4.00000
22.92591 7.03348 4.00000
23.01598 7.03348 4.00000
23.10609 7.03348 4.00000
23.19619 7.03348 4.00000
23.28629 7.03348 4.00000
23.37641 7.03347 4.00000
23.46652 7.03348 4.00000
23.55663 7.03348 4.00000
23.64676 7.03348 4.00000
23.73688 7.03348 4.00000
23.82700 7.03347 4.00000
23.91712 7.03348 4.00000
24.00725 7.03348 4.00000
24.09739 7.03348 4.00000
24.18752 7.03348 4.00000
24.27768 7.03348 4.00000
24.36782 7.03348 4.00000
24.45798 7.03349 4.00000
24.54814 7.03348 4.00000
24.63830 7.03348 4.00000
24.72846 7.03348 4.00000
24.81862 7.03348 4.00000

