Angle 0.228158 3.753294

4.00000 7.03348 4.00000
4.00000 7.03348 4.00000
4.00000 7.03348 4.00000
4.00000 7.03348 4.00000
4.00000 7.03348 4.00000
4.00000 7.03348 4.00000
4.00000 7.03348 4.00000
4.00000 7.03348 4.00000
4.00000 7.03348 4.00000
4.00000 7.03348 4.00000
4.00000 7.03348 4.00000
4.00000 7.03348 4.00000
4.00000 7.03348 4.00000
4.00000 7.03348 4.00000
4.00000 7.03348 4.00000
4.00000 7.03349 4.00000
4.00000 7.03349 4.00000
4.00000 7.03348 4.00000
4.00000 7.03348 4.00000
4.00000 7.03348 4.00000
4.00000 7.03348 4.00000
4.00000 7.03348 4.00000
4.00000 7.03348 4.00000
4.00000 7.03348 4.00000
4.00000 7.03348 4.00000
4.00000 7.03348 4.00000
4.00000 7.03348 4.00000
4.00000 7.03348 4.00000
4.00000 7.03348 4.00000
4.00000 7.03348 4.00000
4.00000 7.03348 4.00000
4.00000 7.03348 4.00000
4.00000 7.03347 4.00000
4.00000 7.03347 4.00000
4.00000 7.03348 4.00000
4.00000 7.03348 4.00000
4.00000 7.03348 4.00000
4.00000 7.03348 4.00000
4.00000 7.03348 4.00000
4.00000 7.03348 4.00000
4.00000 7.03348 4.00000
4.00000 7.03348 4.00000
4.00000 7.03348 4.00000
4.00000 7.03348 4.00000
4.00000 7.03348 4.00000
4.00000 7.03348 4.00000
4.00000 7.03348 4.00000
4.00000 7.03348 4.00000
4.00000 7.03348 4.00000
4.00000 7.03348 4.00000
4.00000 7.03348 4.00000
4.00000 7.03348 4.00000
4.00000 7.03348 4.00000
4.00000 7.03348 4.00000
4.00000 7.03348 4.00000
4.00000 7.03348 4.00000
4.00000 7.03348 4.00000
4.00000 7.03348 4.00000
4.00000 7.03348 4.00000
4.00000 7.03348 4.00000
4.00000 7.03348 4.00000
4.00000 7.03348 4.00000
4.00000 7.03348 4.00000
4.00000 7.03348 4.00000
4.00000 7.03348 4.00000
4.00000 7.03348 4.00000
4.00000 7.03348 4.00000
4.00000 7.03348 4.00000
4.00000 7.03348 4.00000
4.00000 7.03348 4.00000
4.00000 7.03348 4.00000
4.00000 7.03348 4.00000
4.00000 7.03348 4.00000
4.00000 7.03348 4.00000
4.00000 7.03348 4.00000
4.00000 7.03348 4.00000
4.00000 7.03348 4.00000
4.00000 7.03348 4.00000
4.00000 7.03349 4.00000
4.00000 7.03348 4.00000
4.00000 7.03348 4.00000
4.00000 7.03348 4.00000
4.00000 7.03348 4.00000
4.00000 7.03348 4.00000
4.00000 7.03348 4.00000
4.00000 7.03348 4.00000
4.00000 7.03348 4.00000
4.00000 7.03348 4.00000
4.00000 7.03348 4.00000
4.00000 7.03348 4.00000
4.00000 7.03348 4.00000
4.00000 7.03348 4.00000
4.00000 7.03348 4.00000
4.00000 7.03348 4.00000
4.00000 7.03348 4.00000
4.00000 7.03348 4.00000
4.00000 7.03348 4.00000
4.00000 7.03348 4.00000
4.00000 7.03348 4.00000
4.00000 7.03348 4.00000
4.00000 7.03348 4.00000
4.00000 7.03348 4.00000
4.00000 7.03350 4.00000
4.00000 7.03348 4.00000
4.00000 7.03348 4.00000
4.00000 7.03348 4.00000
4.00000 7.03348 4.00000
4.00000 7.03348 4.00000
4.00000 7.03348 4.00000
4.00000 7.03348 4.00000
4.00000 7.03348 4.00000
4.00000 7.03348 4.00000
4.00000 7.03348 4.00000
4.00000 7.03348 4.00000
4.00000 7.03348 4.00000
4.00000 7.03348 4.00000
4.00000 7.03348 4.00000
4.00000 7.03348 4.00000
4.00000 7.03347 4.00000
4.00000 7.03347 4.00000
4.00000 7.03347 4.00000
4.00000 7.03349 4.00000
4.00000 7.03348 4.00000
4.00000 7.03348 4.00000
4.00221 7.06749 4.00221
4.00536 7.11656 4.00536
4.00850 7.16605 4.00850
4.01163 7.21592 4.01163
4.01476 7.26617 4.01476
4.01789 7.31677 4.01789
4.02103 7.36771 4.02103
4.02418 7.41898 4.02418
4.02735 7.47054 4.02735
4.03053 7.52239 4.03053
4.03375 7.57451 4.03375
4.03699 7.62686 4.03699
4.04028 7.67944 4.04028
4.04362 7.73222 4.04362
4.04701 7.78516 4.04701
4.05046 7.83826 4.05046
4.05399 7.89146 4.05399
4.05760 7.94476 4.05760
4.06130 7.99811 4.06130
4.06511 8.05147 4.06511
4.06905 8.10481 4.06905
4.07312 8.15807 4.07312
4.07735 8.21122 4.07735
4.08175 8.26419 4.08175
4.08636 8.31693 4.08636
4.09119 8.36935 4.09119
4.09627 8.42140 4.09627
4.10164 8.47297 4.10164
4.10734 8.52396 4.10734
4.11342 8.57427 4.11341
4.11991 8.62377 4.11991
4.12688 8.67231 4.12688
4.13431 8.71995 4.13431
4.14219 8.76675 4.14219
4.15053 8.81265 4.15053
4.15936 8.85762 4.15936
4.16869 8.90161 4.16869
4.17854 8.94459 4.17854
4.18894 8.98651 4.18894
4.19990 9.02735 4.19990
4.21143 9.06707 4.21143
4.22356 9.10566 4.22355
4.23628 9.14309 4.23628
4.24962 9.17934 4.24962
4.26359 9.21440 4.26359
4.27819 9.24826 4.27819
4.29344 9.28089 4.29344
4.30935 9.31229 4.30935
4.32593 9.34244 4.32593
4.34318 9.37133 4.34318
4.36113 9.39892 4.36113
4.37980 9.42518 4.37980
4.39919 9.45008 4.39919
4.41935 9.47356 4.41935
4.44030 9.49555 4.44029
4.46207 9.51596 4.46207
4.48473 9.53470 4.48473
4.50833 9.55164 4.50833
4.53293 9.56662 4.53293
4.55862 9.57948 4.55862
4.58548 9.59000 4.58548
4.61362 9.59798 4.61363
4.64314 9.60320 4.64314
4.67415 9.60543 4.67415
4.02922 7.50101 7.41685
4.02526 7.43664 7.55314
4.02219 7.38652 7.67510
4.01968 7.34577 7.78768
4.01758 7.31176 7.89359
4.01579 7.28284 7.99448
4.01425 7.25790 8.09151
4.01289 7.23616 8.18544
4.01170 7.21703 8.27688
4.01064 7.20012 8.36625
4.00970 7.18505 8.45389
4.00885 7.17160 8.54006
4.00809 7.15951 8.62500
4.00740 7.14862 8.70888
4.00677 7.13879 8.79185
4.00621 7.12989 8.87402
4.00569 7.12181 8.95553
4.00523 7.11447 9.03642
4.00480 7.10778 9.11681
4.00441 7.10169 9.19674
4.00405 7.09612 9.27629
4.00372 7.09103 9.35550
4.00343 7.08637 9.43442
4.00315 7.08211 9.51308
4.00290 7.07820 9.59152
4.00267 7.07461 9.66978
4.00246 7.07132 9.74788
4.00226 7.06831 9.82584
4.00208 7.06553 9.90369
4.00192 7.06297 9.98146
4.00176 7.06064 10.05913
4.00163 7.05848 10.13675
4.00150 7.05650 10.21433
4.00138 7.05467 10.29188
4.00127 7.05299 10.36941
4.00117 7.05145 10.44694
4.00108 7.05002 10.52446
4.00099 7.04871 10.60199
4.00091 7.04751 10.67954
4.00084 7.04640 10.75712
4.00077 7.04537 10.83473
4.00071 7.04443 10.91237
4.00066 7.04356 10.99006
4.00060 7.04276 11.06779
4.00056 7.04202 11.14558
4.00051 7.04135 11.22342
4.00047 7.04072 11.30132
4.00043 7.04014 11.37929
4.00040 7.03961 11.45730
4.00037 7.03912 11.53539
4.00034 7.03868 11.61353
4.00031 7.03826 11.69178
4.00029 7.03788 11.77009
4.00026 7.03752 11.84846
4.00024 7.03720 11.92691
4.00023 7.03690 12.00544
4.00020 7.03663 12.08406
4.00019 7.03642 12.16268
4.00017 7.03614 12.24149
4.00016 7.03593 12.32035
4.00015 7.03573 12.39928
4.00014 7.03555 12.47829
4.00012 7.03538 12.55729
4.00012 7.03523 12.63645
4.00011 7.03509 12.71569
4.00010 7.03496 12.79502
4.00009 7.03484 12.87444
4.00008 7.03473 12.95386
4.00008 7.03463 13.03342
4.00007 7.03453 13.11308
4.00006 7.03445 13.19275
4.00006 7.03437 13.27255
4.00005 7.03430 13.35240
4.00005 7.03423 13.43236
4.00005 7.03417 13.51241
4.00004 7.03411 13.59255
4.00004 7.03406 13.67277
4.00004 7.03401 13.75308
4.00003 7.03397 13.83325
4.00003 7.03393 13.91367
4.00003 7.03389 13.99418
4.00003 7.03386 14.07477
4.00002 7.03383 14.15545
4.00002 7.03380 14.23619
4.00002 7.03377 14.31702
4.00002 7.03375 14.39751
4.00002 7.03373 14.47843
4.00002 7.03371 14.55944
4.00001 7.03369 14.64052
4.00001 7.03367 14.72168
4.00001 7.03365 14.80292
4.00001 7.03364 14.88423
4.00001 7.03363 14.96561
4.00001 7.03361 15.04707
4.00001 7.03360 15.12859
4.00001 7.03359 15.21006
4.00001 7.03358 15.29171
4.00001 7.03357 15.37343
4.00001 7.03357 15.45523
4.00001 7.03356 15.53708
4.00001 7.03355 15.61900
4.00000 7.03355 15.70098
4.00000 7.03354 15.78303
4.00000 7.03354 15.86513
4.00000 7.03353 15.94730
4.00000 7.03353 16.02953
4.00000 7.03352 16.11182
4.00000 7.03352 16.19416
4.00000 7.03352 16.27657
4.00000 7.03351 16.35903
4.00000 7.03351 16.44155
4.00000 7.03351 16.52412
4.00000 7.03351 16.60675
4.00000 7.03350 16.68943
4.00000 7.03350 16.77217
4.00000 7.03350 16.85496
4.00000 7.03350 16.93781
4.00000 7.03350 17.02070
4.00000 7.03349 17.10365
4.00000 7.03349 17.18665
4.00000 7.03349 17.26970
4.00000 7.03349 17.35280
4.00000 7.03349 17.43595
4.00000 7.03349 17.51915
4.00000 7.03349 17.60240
4.00000 7.03349 17.68569
4.00000 7.03349 17.76904
4.00000 7.03349 17.85243
4.00000 7.03349 17.93586
4.00000 7.03349 18.01935
4.00000 7.03348 18.10288
4.00000 7.03348 18.18645
4.00000 7.03348 18.27003
4.00000 7.03348 18.35365
4.00000 7.03348 18.43732
4.00000 7.03348 18.52102
4.00000 7.03348 18.60477
4.00000 7.03348 18.68856
4.00000 7.03348 18.77239
4.00000 7.03348 18.85627
4.00000 7.03348 18.94019
4.00000 7.03348 19.02415
4.00000 7.03348 19.10814
4.00000 7.03348 19.19218
4.00000 7.03348 19.27626
4.00000 7.03348 19.36038
4.00000 7.03348 19.44453
4.00000 7.03348 19.52873
4.00000 7.03348 19.61296
4.00000 7.03348 19.69723
4.00000 7.03348 19.78154
4.00000 7.03348 19.86589
4.00000 7.03348 19.95027
4.00000 7.03348 20.03469
4.00000 7.03348 20.11914
4.00000 7.03348 20.20362
4.00000 7.03348 20.28813
4.00000 7.03348 20.37268
4.00000 7.03348 20.45726
4.00000 7.03348 20.54188
4.00000 7.03348 20.62653
4.00000 7.03348 20.71122
4.00000 7.03348 20.79595
4.00000 7.03348 20.88070
4.00000 7.03348 20.96550
4.00000 7.03348 21.05032
4.00000 7.03348 21.13518
4.00000 7.03348 21.22008
4.00000 7.03348 21.30500
4.00000 7.03348 21.38996
4.00000 7.03348 21.47494
4.00000 7.03348 21.55996
4.00000 7.03348 21.64501
4.00000 7.03348 21.73009
4.00000 7.03348 21.81520
4.00000 7.03348 21.90033
4.00000 7.03348 21.98550
4.00000 7.03348 22.07070
4.00000 7.03348 22.15593
4.00000 7.03348 22.24118
4.00000 7.03348 22.32646
4.00000 7.03348 22.41178
4.00000 7.03348 22.49712
4.00000 7.03348 22.58248
4.00000 7.03348 22.66788
4.00000 7.03348 22.75330
4.00000 7.03348 22.83875
4.00000 7.03348 22.92423
4.00000 7.03348 23.00973
4.00000 7.03348 23.09527
4.00000 7.03348 23.18082
4.00000 7.03348 23.26641
4.00000 7.03348 23.35202
4.00000 7.03348 23.43764
4.00000 7.03348 23.52330
4.00000 7.03348 23.60898
4.00000 7.03347 23.69470
4.00000 7.03348 23.78043
4.00000 7.03348 23.86619
4.00000 7.03347 23.95197
4.00000 7.03348 24.03777
4.00000 7.03348 24.12360
4.00000 7.03348 24.20946
4.00000 7.03347 24.29534
4.00000 7.03348 24.38124
4.00000 7.03348 24.46717
4.00000 7.03348 24.55312
4.00000 7.03349 24.63908
4.00000 7.03348 24.72509
4.00000 7.03348 24.81110
4.00000 7.03347 24.89715
4.00000 7.03348 24.98321

Angle 0.411991 1.707678

4.00000 7.03348 4.00000
4.00000 7.03348 4.00000
4.00000 7.03348 4.00000
4.00000 7.03348 4.00000
4.00000 7.03348 4.00000
4.00000 7.03348 4.00000
4.00000 7.03348 4.00000
4.00000 7.03348 4.00000
4.00000 7.03348 4.00000
4.00000 7.03348 4.00000
4.00000 7.03348 4.00000
4.00000 7.03348 4.00000
4.00000 7.03351 4.00000
4.00000 7.03353 4.00000
4.00000 7.03355 3.99999
4.00000 7.03348 4.00000
4.00000 7.03348 4.00000
4.00000 7.03348 4.00000
4.00000 7.03348 4.00000
4.00000 7.03348 4.00000
4.00000 7.03348 4.00000
4.00000 7.03350 4.00000
4.00000 7.03349 4.00000
4.00000 7.03348 4.00000
4.00000 7.03348 4.00000
4.00000 7.03349 4.00000
4.00000 7.03348 4.00000
4.00000 7.03350 4.00000
4.00000 7.03348 4.00000
4.00000 7.03348 4.00000
4.00000 7.03348 4.00000
4.00000 7.03348 4.00000
4.00000 7.03348 4.00000
4.00000 7.03348 4.00000
4.00000 7.03348 4.00000
4.00000 7.03348 4.00000
4.00000 7.03348 4.00000
4.00000 7.03348 4.00000
4.00000 7.03349 4.00000
4.00000 7.03348 4.00000
4.00000 7.03348 4.00000
4.00000 7.03347 4.00000
4.00000 7.03348 4.00000
4.00000 7.03348 4.00000
4.00000 7.03348 4.00000
4.00000 7.03348 4.00000
4.00000 7.03348 4.00000
4.00000 7.03348 4.00000
4.00000 7.03353 4.00000
4.00000 7.03348 4.00000
4.00000 7.03348 4.00000
4.00000 7.03348 4.00000
4.00000 7.03349 4.00000
4.00000 7.03348 4.00000
4.00000 7.03348 4.00000
4.00000 7.03347 4.00000
4.00000 7.03348 4.00000
4.00000 7.03348 4.00000
4.00000 7.03348 4.00000
4.00000 7.03348 4.00000
4.00000 7.03348 4.00000
4.00000 7.03348 4.00000
4.00000 7.03348 4.00000
4.00000 7.03348 4.00000
4.00000 7.03347 4.00000
4.00000 7.03349 4.00000
4.00000 7.03349 4.00000
4.00000 7.03348 4.00000
4.00000 7.03348 4.00000
4.00000 7.03350 4.00000
4.00000 7.03348 4.00000
4.00000 7.03348 4.00000
4.00000 7.03348 4.00000
4.00000 7.03348 4.00000
4.00000 7.03349 4.00000
4.00000 7.03348 4.00000
4.00000 7.03348 4.00000
4.00000 7.03348 4.00000
4.00000 7.03348 4.00000
4.00000 7.03348 4.00000
4.00000 7.03348 4.00000
4.00000 7.03348 4.00000
4.00000 7.03348 4.00000
4.00000 7.03348 4.00000
4.00000 7.03348 4.00000
4.00000 7.03348 4.00000
4.00000 7.03348 4.00000
4.00000 7.03348 4.00000
4.00000 7.03348 4.00000
4.00000 7.03348 4.00000
4.00000 7.03349 4.00000
4.00000 7.03350 4.00000
4.00000 7.03350 4.00000
4.00000 7.03350 4.00000
4.00000 7.03348 4.00000
4.00000 7.03348 4.00000
4.00000 7.03348 4.00000
4.00000 7.03348 4.00000
4.00000 7.03348 4.00000
4.00000 7.03348 4.00000
4.00000 7.03348 4.00000
4.00000 7.03348 4.00000
4.00000 7.03348 4.00000
4.00000 7.03348 4.00000
4.00000 7.03348 4.00000
4.00000 7.03348 4.00000
4.00000 7.03348 4.00000
4.00000 7.03348 4.00000
4.00000 7.03349 4.00000
4.00000 7.03348 4.00000
4.00000 7.03348 4.00000
4.00000 7.03348 4.00000
4.00000 7.03348 4.00000
4.00000 7.03348 4.00000
4.00000 7.03348 4.00000
4.00000 7.03348 4.00000
4.00000 7.03347 4.00000
4.00000 7.03347 4.00000
4.00000 7.03348 4.00000
4.00000 7.03348 4.00000
4.00000 7.03348 4.00000
4.00000 7.03348 4.00000
4.00000 7.03348 4.00000
4.00000 7.03348 4.00000
4.00000 7.03348 4.00000
4.00000 7.03348 4.00000
4.00000 7.03348 4.00000
4.00000 7.03348 4.00000
4.00000 7.03348 4.00000
4.00000 7.03348 4.00000
4.00000 7.03348 4.00000
4.00000 7.03348 4.00000
4.00000 7.03348 4.00000
4.00000 7.03348 4.00000
4.00000 7.03348 4.00000
4.00000 7.03348 4.00000
4.00000 7.03348 4.00000
4.00000 7.03348 4.00000
4.00000 7.03348 4.00000
4.00000 7.03348 4.00000
4.00000 7.03348 4.00000
4.00000 7.03348 4.00000
4.00000 7.03348 4.00000
4.00000 7.03348 4.00000
4.00000 7.03348 4.00000
4.00000 7.03348 4.00000
4.00000 7.03348 4.00000
4.00000 7.03348 4.00000
4.00000 7.03348 4.00000
4.00000 7.03348 4.00000
4.00000 7.03345 4.00000
4.00000 7.03348 4.00000
4.00000 7.03348 4.00000
4.00000 7.03348 4.00000
4.00000 7.03348 4.00000
4.00000 7.03348 4.00000
4.00000 7.03348 4.00000
4.00000 7.03348 4.00000
4.00000 7.03348 4.00000
4.00000 7.03348 4.00000
4.00000 7.03348 4.00000
4.00000 7.03348 4.00000
4.00000 7.03348 4.00000
4.00000 7.03348 4.00000
4.00000 7.03348 4.00000
4.00000 7.03348 4.00000
4.00000 7.03348 4.00000
4.00000 7.03348 4.00000
4.00000 7.03348 4.00000
4.00000 7.03348 4.00000
4.00000 7.03348 4.00000
4.00000 7.03347 4.00000
4.00000 7.03348 4.00000
4.00000 7.03348 4.00000
4.00000 7.03348 4.00000
4.00000 7.03348 4.00000
4.00000 7.03348 4.00000
4.00000 7.03348 4.00000
4.00000 7.03348 4.00000
4.00000 7.03348 4.00000
4.00000 7.03348 4.00000
4.00000 7.03348 4.00000
4.00000 7.03348 4.00000
4.00000 7.03348 4.00000
4.00000 7.03348 4.00000
4.00000 7.03348 4.00000
4.00000 7.03349 4.00000
4.00000 7.03348 4.00000
4.00000 7.03348 4.00000
4.00000 7.03348 4.00000
4.00000 7.03349 4.00000
4.00000 7.03348 4.00000
4.00000 7.03348 4.00000
4.00000 7.03348 4.00000
4.00000 7.03348 4.00000
4.00000 7.03348 4.00000
4.00000 7.03348 4.00000
4.00000 7.03348 4.00000
4.00000 7.03348 4.00000
4.00000 7.03348 4.00000
4.00246 7.07132 4.00246
4.00628 7.13109 4.00628
4.01008 7.19121 4.01008
4.01386 7.25165 4.01386
4.01762 7.31239 4.01762
4.02138 7.37340 4.02138
4.02514 7.43464 4.02514
4.02892 7.49610 4.02892
4.03271 7.55774 4.03271
4.03654 7.61954 4.03654
4.04041 7.68145 4.04041
4.04433 7.74344 4.04433
4.04832 7.80548 4.04832
4.05239 7.86753 4.05239
4.05656 7.92954 4.05656
4.06083 7.99147 4.06083
4.06524 8.05327 4.06524
4.06981 8.11486 4.06981
4.07454 8.17620 4.07454
4.07948 8.23722 4.07949
4.08466 8.29781 4.08466
4.09011 8.35791 4.09011
4.09587 8.41739 4.09587
4.10198 8.47613 4.10198
4.10852 8.53400 4.10852
4.11552 8.59084 4.11553
4.12309 8.64645 4.12309
4.13125 8.70074 4.13125
4.13996 8.75384 4.13996
4.14923 8.80573 4.14923
4.15910 8.85635 4.15910
4.16958 8.90566 4.16958
4.18071 8.95359 4.18071
4.19250 9.00012 4.19250
4.20497 9.04521 4.20497
4.21815 9.08883 4.21815
4.23205 9.13096 4.23205
4.24667 9.17158 4.24667
4.26205 9.21067 4.26205
4.27818 9.24823 4.27818
4.29508 9.28424 4.29508
4.31276 9.31870 4.31276
4.33123 9.35158 4.33123
4.35051 9.38287 4.35051
4.37061 9.41254 4.37061
4.39155 9.44055 4.39155
4.41337 9.46684 4.41337
4.43610 9.49133 4.43611
4.45979 9.51394 4.45980
4.48450 9.53453 4.48450
4.51029 9.55294 4.51029
4.53726 9.56899 4.53727
4.56551 9.58246 4.56551
4.59515 9.59309 4.59515
4.62631 9.60061 4.62631
4.65912 9.60475 4.65912
7.35721 7.53222 4.03114
7.51264 7.45481 4.02638
7.64819 7.39701 4.02283
7.77158 7.35130 4.02002
7.88665 7.31387 4.01771
7.99568 7.28252 4.01578
8.10011 7.25581 4.01412
8.20093 7.23277 4.01268
8.29885 7.21272 4.01143
8.39439 7.19512 4.01033
8.48796 7.17958 4.00935
8.57988 7.16579 4.00848
8.67039 7.15349 4.00770
8.75971 7.14250 4.00701
8.84800 7.13263 4.00638
8.93540 7.12374 4.00582
9.02203 7.11573 4.00531
9.10799 7.10849 4.00484
9.19337 7.10193 4.00442
9.27827 7.09597 4.00404
9.36267 7.09059 4.00370
9.44671 7.08569 4.00338
9.53041 7.08122 4.00309
9.61381 7.07715 4.00283
9.69695 7.07344 4.00259
9.77987 7.07006 4.00237
9.86259 7.06697 4.00217
9.94514 7.06415 4.00199
10.02756 7.06156 4.00182
10.10984 7.05921 4.00167
10.19202 7.05706 4.00153
10.27412 7.05508 4.00140
10.35614 7.05327 4.00129
10.43809 7.05162 4.00118
10.52003 7.05009 4.00109
10.60189 7.04872 4.00099
10.68375 7.04744 4.00091
10.76562 7.04626 4.00083
10.84742 7.04521 4.00076
10.92922 7.04425 4.00070
11.01108 7.04334 4.00064
11.09293 7.04252 4.00059
11.17479 7.04177 4.00054
11.25668 7.04107 4.00049
11.33859 7.04044 4.00045
11.42053 7.03986 4.00042
11.50252 7.03932 4.00038
11.58451 7.03884 4.00035
11.66657 7.03838 4.00032
11.74865 7.03798 4.00029
11.83080 7.03758 4.00027
11.91296 7.03726 4.00025
11.99519 7.03694 4.00023
12.07747 7.03665 4.00021
12.15981 7.03638 4.00019
12.24218 7.03614 4.00017
12.32461 7.03592 4.00016
12.40710 7.03570 4.00014
12.48962 7.03553 4.00013
12.57221 7.03535 4.00012
12.65484 7.03521 4.00011
12.73754 7.03507 4.00010
12.82031 7.03492 4.00009
12.90313 7.03480 4.00009
12.98601 7.03469 4.00008
13.06894 7.03458 4.00007
13.15193 7.03449 4.00007
13.23498 7.03441 4.00006
13.31808 7.03433 4.00006
13.40124 7.03426 4.00005
13.48446 7.03419 4.00005
13.56773 7.03413 4.00004
13.65105 7.03407 4.00004
13.73443 7.03402 4.00004
13.81786 7.03398 4.00003
13.90135 7.03394 4.00003
13.98489 7.03390 4.00003
14.06848 7.03386 4.00003
14.15212 7.03383 4.00002
14.23582 7.03380 4.00002
14.31956 7.03377 4.00002
14.40336 7.03375 4.00002
14.48721 7.03372 4.00002
14.57110 7.03370 4.00002
14.65505 7.03368 4.00001
14.73904 7.03367 4.00001
14.82309 7.03365 4.00001
14.90718 7.03364 4.00001
14.99132 7.03362 4.00001
15.07550 7.03361 4.00001
15.15974 7.03360 4.00001
15.24402 7.03359 4.00001
15.32834 7.03358 4.00001
15.41271 7.03357 4.00001
15.49713 7.03356 4.00001
15.58158 7.03356 4.00001
15.66609 7.03355 4.00000
15.75064 7.03354 4.00000
15.83523 7.03354 4.00000
15.91986 7.03353 4.00000
16.00454 7.03353 4.00000
16.08926 7.03352 4.00000
16.17402 7.03352 4.00000
16.25882 7.03352 4.00000
16.34366 7.03351 4.00000
16.42854 7.03351 4.00000
16.51347 7.03351 4.00000
16.59843 7.03351 4.00000
16.68343 7.03350 4.00000
16.76848 7.03350 4.00000
16.85356 7.03350 4.00000
16.93868 7.03350 4.00000
17.02384 7.03350 4.00000
17.10903 7.03349 4.00000
17.19427 7.03349 4.00000
17.27954 7.03349 4.00000
17.36484 7.03349 4.00000
17.45019 7.03349 4.00000
17.53557 7.03349 4.00000
17.62098 7.03349 4.00000
17.70644 7.03349 4.00000
17.79192 7.03349 4.00000
17.87744 7.03349 4.00000
17.96300 7.03349 4.00000
18.04859 7.03349 4.00000
18.13422 7.03348 4.00000
18.21987 7.03348 4.00000
18.30557 7.03348 4.00000
18.39129 7.03348 4.00000
18.47705 7.03348 4.00000
18.56284 7.03348 4.00000
18.64866 7.03348 4.00000
18.73451 7.03348 4.00000
18.82040 7.03348 4.00000
18.90632 7.03348 4.00000
18.99227 7.03348 4.00000
19.07823 7.03348 4.00000
19.16422 7.03348 4.00000
19.25025 7.03348 4.00000
19.33629 7.03348 4.00000
19.42238 7.03348 4.00000
19.50849 7.03348 4.00000
19.59462 7.03348 4.00000
19.68080 7.03347 4.00000

Angle 0.282353 6.224570

4.00000 7.03348 4.00000
4.00000 7.03348 4.00000
4.00000 7.03348 4.00000
4.00000 7.03348 4.00000
4.00000 7.03348 4.00000
4.00000 7.03348 4.00000
4.00000 7.03348 4.00000
4.00000 7.03348 4.00000
4.00000 7.03348 4.00000
4.00000 7.03348 4.00000
4.00000 7.03348 4.00000
4.00000 7.03349 4.00000
4.00000 7.03349 4.00000
4.00000 7.03349 4.00000
4.00000 7.03349 4.00000
4.00000 7.03349 4.00000
4.00000 7.03348 4.00000
4.00000 7.03349 4.00000
4.00000 7.03349 4.00000
4.00000 7.03349 4.00000
4.00000 7.03348 4.00000
4.00000 7.03348 4.00000
4.00000 7.03356 4.00000
4.00434 7.10060 4.00434
4.00920 7.17721 4.00920
4.01401 7.25404 4.01401
4.01877 7.33104 4.01877
4.02352 7.40815 4.02352
4.02825 7.48533 4.02825
4.03300 7.56251 4.03300
4.03779 7.63964 4.03779
4.04263 7.71667 4.04263
4.04755 7.79353 4.04755
4.05257 7.87016 4.05257
4.05771 7.94648 4.05771
4.06302 8.02241 4.06302
4.06853 8.09787 4.06853
4.07427 8.17274 4.07427
4.08029 8.24690 4.08029
4.08665 8.32022 4.08665
4.09341 8.39254 4.09341
4.10065 8.46366 4.10065
4.10844 8.53338 4.10844
4.11691 8.60142 4.11691
4.12616 8.66750 4.12616
4.13622 8.73159 4.13622
4.14704 8.79383 4.14703
4.15866 8.85416 4.15865
4.17111 8.91249 4.17111
4.18444 8.96878 4.18444
4.19868 9.02296 4.19868
4.21385 9.07500 4.21385
4.22997 9.12488 4.22996
4.24706 9.17259 4.24705
4.26513 9.21811 4.26513
4.28421 9.26144 4.28421
4.30430 9.30258 4.30429
4.32540 9.34153 4.32540
4.34755 9.37826 4.34755
4.37076 9.41276 4.37076
4.39506 9.44497 4.39506
4.42049 9.47481 4.42049
4.44710 9.50219 4.44710
4.47497 9.52693 4.47497
4.50419 9.54886 4.50419
4.53488 9.56770 4.53488
4.56718 9.58315 4.56718
4.60126 9.59485 4.60126
4.63730 9.60241 4.63730
4.67550 9.60546 4.67543
4.71595 9.60364 4.71593
4.02363 7.40998 7.61597
4.02031 7.35603 7.75800
4.01768 7.31325 7.88870
4.01551 7.27824 8.01153
4.01370 7.24907 8.12847
4.01216 7.22432 8.24096
4.01083 7.20310 8.34989
4.00967 7.18471 8.45600
4.00867 7.16870 8.55972
4.00778 7.15465 8.66149
4.00699 7.14227 8.76161
4.00630 7.13132 8.86031
4.00568 7.12160 8.95781
4.00513 7.11294 9.05427
4.00463 7.10520 9.14983
4.00419 7.09828 9.24460
4.00379 7.09207 9.33869
4.00343 7.08650 9.43217
4.00311 7.08149 9.52512
4.00282 7.07697 9.61760
4.00256 7.07290 9.70967
4.00232 7.06923 9.80137
4.00211 7.06591 9.89276
4.00191 7.06290 9.98385
4.00174 7.06019 10.07469
4.00158 7.05773 10.16531
4.00143 7.05550 10.25572
4.00130 7.05349 10.34596
4.00118 7.05166 10.43604
4.00107 7.05000 10.52599
4.00098 7.04849 10.61580
4.00089 7.04712 10.70551
4.00081 7.04588 10.79513
4.00074 7.04476 10.88466
4.00067 7.04373 10.97412
4.00061 7.04280 11.06351
4.00055 7.04196 11.15285
4.00050 7.04119 11.24214
4.00046 7.04049 11.33139
4.00041 7.03986 11.42060
4.00038 7.03928 11.50978
4.00034 7.03876 11.59894
4.00031 7.03828 11.68807
4.00028 7.03784 11.77720
4.00026 7.03744 11.86630
4.00023 7.03709 11.95539
4.00021 7.03676 12.04449
4.00019 7.03647 12.13356
4.00018 7.03620 12.22265
4.00016 7.03595 12.31172
4.00015 7.03573 12.40081
4.00013 7.03553 12.48989
4.00012 7.03534 12.57897
4.00011 7.03517 12.66807
4.00010 7.03502 12.75717
4.00009 7.03488 12.84627
4.00008 7.03475 12.93539
4.00008 7.03464 13.02451
4.00007 7.03453 13.11365
4.00006 7.03444 13.20279
4.00006 7.03435 13.29195
4.00005 7.03427 13.38112
4.00005 7.03420 13.47030
4.00005 7.03413 13.55949
4.00004 7.03408 13.64869
4.00004 7.03402 13.73791
4.00003 7.03397 13.82714
4.00003 7.03393 13.91638
4.00003 7.03389 14.00563
4.00002 7.03385 14.09490
4.00002 7.03382 14.18418
4.00002 7.03379 14.27347
4.00002 7.03376 14.36278
4.00002 7.03373 14.45210
4.00002 7.03371 14.54143
4.00002 7.03369 14.63078
4.00001 7.03367 14.72014
4.00001 7.03365 14.80951
4.00001 7.03364 14.89889
4.00001 7.03362 14.98829
4.00001 7.03361 15.07770
4.00001 7.03360 15.16712
4.00001 7.03359 15.25655
4.00001 7.03358 15.34600
4.00001 7.03357 15.43546
4.00000 7.03356 15.52493
4.00000 7.03355 15.61441
4.00000 7.03355 15.70390
4.00000 7.03354 15.79341
4.00000 7.03354 15.88293
4.00000 7.03353 15.97246
4.00000 7.03353 16.06199
4.00000 7.03352 16.15154
4.00000 7.03352 16.24111
4.00000 7.03351 16.33068
4.00000 7.03351 16.42026
4.00000 7.03351 16.50985
4.00000 7.03351 16.59945
4.00000 7.03350 16.68907
4.00000 7.03350 16.77869
4.00000 7.03350 16.86832
4.00000 7.03350 16.95796
4.00000 7.03350 17.04761
4.00000 7.03349 17.13727
4.00000 7.03349 17.22694
4.00000 7.03349 17.31662
4.00000 7.03349 17.40631
4.00000 7.03349 17.49601
4.00000 7.03349 17.58571
4.00000 7.03348 17.67543
4.00000 7.03349 17.76515
4.00000 7.03348 17.85488
4.00000 7.03349 17.94461
4.00000 7.03348 18.03436
4.00000 7.03348 18.12411
4.00000 7.03348 18.21387
4.00000 7.03348 18.30363
4.00000 7.03348 18.39341
4.00000 7.03348 18.48319
4.00000 7.03348 18.57298
4.00000 7.03348 18.66277
4.00000 7.03348 18.75257
4.00000 7.03348 18.84238
4.00000 7.03348 18.93220
4.00000 7.03347 19.02202
4.00000 7.03347 19.11185
4.00000 7.03347 19.20169
4.00000 7.03347 19.29153
4.00000 7.03348 19.38137
4.00000 7.03348 19.47123
4.00000 7.03348 19.56109
4.00000 7.03348 19.65095
4.00000 7.03348 19.74083
4.00000 7.03348 19.83071
4.00000 7.03348 19.92059
4.00000 7.03348 20.01049
4.00000 7.03348 20.10039
4.00000 7.03348 20.19029
4.00000 7.03348 20.28020
4.00000 7.03348 20.37012
4.00000 7.03348 20.46004
4.00000 7.03348 20.54997
4.00000 7.03348 20.63991
4.00000 7.03348 20.72985
4.00000 7.03348 20.81980
4.00000 7.03348 20.90975
4.00000 7.03348 20.99971
4.00000 7.03348 21.08966
4.00000 7.03348 21.17963
4.00000 7.03348 21.26960
4.00000 7.03348 21.35958
4.00000 7.03348 21.44956
4.00000 7.03348 21.53954
4.00000 7.03348 21.62953
4.00000 7.03348 21.71953
4.00000 7.03348 21.80953
4.00000 7.03348 21.89954
4.00000 7.03348 21.98954
4.00000 7.03348 22.07956
4.00000 7.03348 22.16958
4.00000 7.03348 22.25960
4.00000 7.03348 22.34963
4.00000 7.03348 22.43966
4.00000 7.03348 22.52969
4.00000 7.03347 22.61974
4.00000 7.03348 22.70978
4.00000 7.03348 22.79982
4.00000 7.03347 22.88988
4.00000 7.03348 22.97993
4.00000 7.03348 23.06999
4.00000 7.03348 23.16006
4.00000 7.03348 23.25012
4.00000 7.03349 23.34018
4.00000 7.03348 23.43026
4.00000 7.03349 23.52033
4.00000 7.03348 23.61043
4.00000 7.03348 23.70051
4.00000 7.03347 23.79060
4.00000 7.03348 23.88069
4.00000 7.03348 23.97078
4.00000 7.03348 24.06089
4.00000 7.03348 24.15099
4.00000 7.03349 24.24109
4.00000 7.03348 24.33121
4.00000 7.03348 24.42132
4.00000 7.03348 24.51144
4.00000 7.03348 24.60156
4.00000 7.03348 24.69168
4.00000 7.03348 24.78181
4.00000 7.03348 24.87194
4.00000 7.03348 24.96207
4.00000 7.03348 25.05221
4.00000 7.03348 25.14235
4.00000 7.03348 25.23249
4.00000 7.03348 25.32264
4.00000 7.03348 25.41278
4.00000 7.03348 25.50294
4.00000 7.03348 25.59309
4.00000 7.03348 25.68324
4.00000 7.03348 25.77340
4.00000 7.03347 25.86356
4.00000 7.03348 25.95372
4.00000 7.03348 26.04389
4.00000 7.03348 26.13405
4.00000 7.03348 26.22422
4.00000 7.03348 26.31440
4.00000 7.03348 26.40457
4.00000 7.03348 26.49475
4.00000 7.03348 26.58493
4.00000 7.03348 26.67511
4.00000 7.03348 26.76530
4.00000 7.03348 26.85548
4.00000 7.03348 26.94567
4.00000 7.03348 27.03587
4.00000 7.03348 27.12606
4.00000 7.03348 27.21626
4.00000 7.03348 27.30646
4.00000 7.03348 27.39666
4.00000 7.03348 27.48686
4.00000 7.03348 27.57707
4.00000 7.03348 27.66728
4.00000 7.03348 27.75749
4.00000 7.03348 27.84770
4.00000 7.03348 27.93792
4.00000 7.03348 28.02814
4.00000 7.03348 28.11836
4.00000 7.03348 28.20858
4.00000 7.03348 28.29881
4.00000 7.03348 28.38904
4.00000 7.03348 28.47927
4.00000 7.03348 28.56950
4.00000 7.03348 28.65973
4.00000 7.03348 28.74997
4.00000 7.03348 28.84020
4.00000 7.03348 28.93044
4.00000 7.03348 29.02069
4.00000 7.03348 29.11093
4.00000 7.03348 29.20118
4.00000 7.03348 29.29142
4.00000 7.03348 29.38167
4.00000 7.03348 29.47192
4.00000 7.03348 29.56218
4.00000 7.03348 29.65243
4.00000 7.03348 29.74269
4.00000 7.03348 29.83295
4.00000 7.03348 29.92321
4.00000 7.03348 30.01347
4.00000 7.03348 30.10374
4.00000 7.03348 30.19400
4.00000 7.03348 30.28427
4.00000 7.03348 30.37454
4.00000 7.03348 30.46481
4.00000 7.03348 30.55508
4.00000 7.03348 30.64535
4.00000 7.03348 30.73563
4.00000 7.03348 30.82591
4.00000 7.03348 30.91619
4.00000 7.03348 31.00647
4.00000 7.03348 31.09675
4.00000 7.03348 31.18703
4.00000 7.03348 31.27732
4.00000 7.03348 31.36760
4.00000 7.03348 31.45789
4.00000 7.03348 31.54818
4.00000 7.03348 31.63847
4.00000 7.03348 31.72876
4.00000 7.03348 31.81906
4.00000 7.03350 31.90933
4.00000 7.03348 31.99965
4.00000 7.03347 32.08995
4.00000 7.03348 32.18025
4.00000 7.03348 32.27055
4.00000 7.03348 32.36086
4.00000 7.03348 32.45116
4.00000 7.03348 32.54147
4.00000 7.03347 32.63178
4.00000 7.03348 32.72208
4.00000 7.03348 32.81239
4.00000 7.03348 32.90270
4.00000 7.03348 32.99302
4.00000 7.03348 33.08333
4.00000 7.03348 33.17365
4.00000 7.03349 33.26395
4.00000 7.03348 33.35428
4.00000 7.03348 33.44460
4.00000 7.03348 33.53492
4.00000 7.03348 33.62524
4.00000 7.03348 33.71557
4.00000 7.03348 33.80589
4.00000 7.03348 33.89622
4.00000 7.03348 33.98655
4.00000 7.03348 34.07688
4.00000 7.03348 34.16721
4.00000 7.03348 34.25754
4.00000 7.03348 34.34787
4.00000 7.03348 34.43821
4.00000 7.03348 34.52854
4.00000 7.03348 34.61888
4.00000 7.03348 34.70922
4.00000 7.03348 34.79956
4.00000 7.03348 34.88990
4.00000 7.03348 34.98024
4.00000 7.03348 35.07058
4.00000 7.03348 35.16092
4.00000 7.03348 35.25127
4.00000 7.03348 35.34161
4.00000 7.03348 35.43196
4.00000 7.03348 35.52231
4.00000 7.03348 35.61266
4.00000 7.03348 35.70301
4.00000 7.03348 35.79336
4.00000 7.03348 35.88371
4.00000 7.03348 35.97407
4.00000 7.03348 36.06442
4.00000 7.03348 36.15478
4.00000 7.03348 36.24514
4.00000 7.03348 36.33550
4.00000 7.03348 36.42586
4.00000 7.03348 36.51622
4.00000 7.03348 36.60658
4.00000 7.03348 36.69694
4.00000 7.03348 36.78731
4.00000 7.03348 36.87767
4.00000 7.03348 36.96804
4.00000 7.03348 37.05841
4.00000 7.03348 37.14878
4.00000 7.03348 37.23914
4.00000 7.03348 37.32951
4.00000 7.03348 37.41989

Angle 0.329399 5.564474

4.00000 7.03348 4.00000
4.00000 7.03348 4.00000
4.00000 7.03348 4.00000
4.00000 7.03348 4.00000
4.00000 7.03348 4.00000
4.00000 7.03348 4.00000
4.00000 7.03348 4.00000
4.00000 7.03348 4.00000
4.00000 7.03348 4.00000
4.00000 7.03348 4.00000
4.00000 7.03348 4.00000
4.00000 7.03348 4.00000
4.00000 7.03348 4.00000
4.00000 7.03348 4.00000
4.00000 7.03348 4.00000
4.00000 7.03348 4.00000
4.00000 7.03347 4.00000
4.00000 7.03347 4.00000
4.00000 7.03348 4.00000
4.00000 7.03348 4.00000
4.00000 7.03348 4.00000
4.00000 7.03348 4.00000
4.00000 7.03348 4.00000
4.00000 7.03348 4.00000
4.00000 7.03348 4.00000
4.00000 7.03348 4.00000
4.00000 7.03348 4.00000
4.00000 7.03348 4.00000
4.00000 7.03348 4.00000
4.00000 7.03348 4.00000
4.00000 7.03348 4.00000
4.00000 7.03348 4.00000
4.00000 7.03348 4.00000
4.00000 7.03348 4.00000
4.00000 7.03348 4.00000
4.00000 7.03348 4.00000
4.00000 7.03348 4.00000
4.00000 7.03348 4.00000
4.00000 7.03348 4.00000
4.00000 7.03348 4.00000
4.00000 7.03349 4.00000
4.00000 7.03348 4.00000
4.00000 7.03348 4.00000
4.00000 7.03348 4.00000
4.00000 7.03348 4.00000
4.00000 7.03348 4.00000
4.00000 7.03348 4.00000
4.00000 7.03348 4.00000
4.00000 7.03348 4.00000
4.00000 7.03348 4.00000
4.00000 7.03348 4.00000
4.00000 7.03348 4.00000
4.00000 7.03348 4.00000
4.00000 7.03348 4.00000
4.00000 7.03348 4.00000
4.00000 7.03348 4.00000
4.00000 7.03348 4.00000
4.00000 7.03347 4.00000
4.00000 7.03347 4.00000
4.00000 7.03348 4.00000
4.00000 7.03348 4.00000
4.00000 7.03348 4.00000
4.00000 7.03349 4.00000
4.00000 7.03348 4.00000
4.00000 7.03348 4.00000
4.00000 7.03348 4.00000
4.00000 7.03348 4.00000
4.00000 7.03348 4.00000
4.00000 7.03348 4.00000
4.00000 7.03348 4.00000
4.00000 7.03348 4.00000
4.00000 7.03348 4.00000
4.00000 7.03348 4.00000
4.00000 7.03348 4.00000
4.00000 7.03348 4.00000
4.00000 7.03348 4.00000
4.00000 7.03347 4.00000
4.00000 7.03347 4.00000
4.00000 7.03347 4.00000
4.00000 7.03347 4.00000
4.00000 7.03347 4.00000
4.00000 7.03348 4.00000
4.00000 7.03348 4.00000
4.00000 7.03348 4.00000
4.00000 7.03348 4.00000
4.00000 7.03348 4.00000
4.00000 7.03348 4.00000
4.00000 7.03348 4.00000
4.00000 7.03348 4.00000
4.00000 7.03348 4.00000
4.00000 7.03348 4.00000
4.00000 7.03348 4.00000
4.00000 7.03348 4.00000
4.00000 7.03348 4.00000
4.00000 7.03348 4.00000
4.00000 7.03347 4.00000
4.00000 7.03348 4.00000
4.00000 7.03348 4.00000
4.00000 7.03349 4.00000
4.00000 7.03348 4.00000
4.00000 7.03349 4.00000
4.00000 7.03348 4.00000
4.00000 7.03348 4.00000
4.00000 7.03349 4.00000
4.00000 7.03349 4.00000
4.00000 7.03348 4.00000
4.00000 7.03348 4.00000
4.00000 7.03348 4.00000
4.00000 7.03348 4.00000
4.00000 7.03348 4.00000
4.00099 7.04874 4.00099
4.00589 7.12484 4.00589
4.01071 7.20119 4.01071
4.01548 7.27775 4.01548
4.02022 7.35446 4.02022
4.02494 7.43126 4.02493
4.02965 7.50813 4.02965
4.03439 7.58498 4.03439
4.03917 7.66178 4.03917
4.04401 7.73846 4.04401
4.04894 7.81496 4.04894
4.05397 7.89121 4.05397
4.05914 7.96714 4.05914
4.06448 8.04266 4.06448
4.07002 8.11769 4.07002
4.07581 8.19211 4.07581
4.08189 8.26580 4.08189
4.08832 8.33861 4.08832
4.09517 8.41039 4.09517
4.10251 8.48094 4.10251
4.11043 8.55003 4.11043
4.11904 8.61740 4.11904
4.12846 8.68275 4.12846
4.13866 8.74620 4.13866
4.14962 8.80780 4.14962
4.16139 8.86749 4.16139
4.17400 8.92518 4.17400
4.18748 8.98082 4.18748
4.20187 9.03437 4.20187
4.21719 9.08579 4.21719
4.23346 9.13506 4.23346
4.25071 9.18216 4.25070
4.26893 9.22710 4.26893
4.28815 9.26986 4.28815
4.30838 9.31044 4.30838
4.32963 9.34884 4.32963
4.35191 9.38504 4.35191
4.37526 9.41901 4.37525
4.39970 9.45069 4.39970
4.42527 9.48001 4.42527
4.45203 9.50684 4.45202
4.48006 9.53104 4.48004
4.50944 9.55238 4.50944
4.54031 9.57061 4.54032
4.57281 9.58540 4.57282
4.60713 9.59641 4.60712
4.64340 9.60323 4.64340
4.03318 7.56536 7.29769
4.02722 7.46856 7.48309
4.02305 7.40063 7.63910
4.01987 7.34883 7.77872
4.01732 7.30752 7.90772
4.01522 7.27360 8.02923
4.01346 7.24520 8.14518
4.01195 7.22106 8.25683
4.01065 7.20033 8.36508
4.00953 7.18235 8.47055
4.00854 7.16667 8.57375
4.00767 7.15290 8.67504
4.00690 7.14075 8.77472
4.00621 7.12999 8.87304
4.00561 7.12044 8.97017
4.00506 7.11192 9.06630
4.00458 7.10431 9.16154
4.00414 7.09749 9.25601
4.00375 7.09138 9.34982
4.00339 7.08589 9.44303
4.00308 7.08095 9.53572
4.00279 7.07649 9.62796
4.00253 7.07248 9.71979
4.00230 7.06885 9.81127
4.00208 7.06558 9.90243
4.00189 7.06261 9.99331
4.00172 7.05993 10.08394
4.00156 7.05750 10.17435
4.00142 7.05530 10.26457
4.00129 7.05330 10.35462
4.00117 7.05149 10.44451
4.00107 7.04985 10.53426
4.00097 7.04836 10.62390
4.00088 7.04701 10.71343
4.00080 7.04578 10.80287
4.00073 7.04467 10.89223
4.00066 7.04365 10.98152
4.00060 7.04273 11.07074
4.00055 7.04189 11.15991
4.00050 7.04113 11.24904
4.00045 7.04044 11.33812
4.00041 7.03982 11.42717
4.00037 7.03924 11.51620
4.00034 7.03872 11.60520
4.00031 7.03825 11.69418
4.00028 7.03782 11.78314
4.00026 7.03742 11.87209
4.00023 7.03707 11.96104
4.00021 7.03674 12.04998
4.00019 7.03645 12.13891
4.00018 7.03618 12.22784
4.00016 7.03593 12.31678
4.00015 7.03572 12.40571
4.00013 7.03551 12.49466
4.00012 7.03533 12.58360
4.00011 7.03516 12.67255
4.00010 7.03501 12.76152
4.00009 7.03487 12.85049
4.00008 7.03474 12.93947
4.00007 7.03462 13.02846
4.00007 7.03452 13.11746
4.00006 7.03442 13.20647
4.00006 7.03434 13.29550
4.00005 7.03426 13.38453
4.00005 7.03419 13.47359
4.00004 7.03413 13.56264
4.00004 7.03407 13.65170
4.00004 7.03402 13.74078
4.00003 7.03397 13.82989
4.00003 7.03393 13.91900
4.00003 7.03388 14.00813
4.00002 7.03385 14.09728
4.00002 7.03382 14.18643
4.00002 7.03378 14.27561
4.00002 7.03376 14.36479
4.00002 7.03373 14.45399
4.00001 7.03371 14.54320
4.00001 7.03369 14.63243
4.00001 7.03367 14.72167
4.00001 7.03365 14.81093
4.00001 7.03364 14.90020
4.00001 7.03362 14.98948
4.00001 7.03361 15.07877
4.00001 7.03360 15.16808
4.00001 7.03359 15.25740
4.00001 7.03358 15.34674
4.00001 7.03357 15.43609
4.00001 7.03356 15.52545
4.00000 7.03355 15.61482
4.00000 7.03354 15.70421
4.00000 7.03354 15.79360
4.00000 7.03353 15.88301
4.00000 7.03353 15.97243
4.00000 7.03352 16.06187
4.00000 7.03352 16.15131
4.00000 7.03352 16.24076
4.00000 7.03351 16.33024
4.00000 7.03351 16.41971
4.00000 7.03351 16.50919
4.00000 7.03350 16.59871
4.00000 7.03350 16.68822
4.00000 7.03350 16.77774
4.00000 7.03350 16.86728
4.00000 7.03349 16.95683
4.00000 7.03350 17.04638
4.00000 7.03349 17.13595
4.00000 7.03349 17.22552
4.00000 7.03349 17.31510
4.00000 7.03349 17.40470
4.00000 7.03349 17.49431
4.00000 7.03349 17.58392
4.00000 7.03349 17.67355
4.00000 7.03349 17.76318
4.00000 7.03349 17.85282
4.00000 7.03349 17.94248
4.00000 7.03349 18.03214
4.00000 7.03348 18.12181
4.00000 7.03348 18.21148
4.00000 7.03348 18.30117
4.00000 7.03348 18.39085
4.00000 7.03348 18.48056
4.00000 7.03348 18.57026
4.00000 7.03348 18.65998
4.00000 7.03348 18.74970
4.00000 7.03348 18.83944
4.00000 7.03348 18.92917
4.00000 7.03348 19.01892
4.00000 7.03348 19.10867
4.00000 7.03348 19.19842
4.00000 7.03348 19.28819
4.00000 7.03347 19.37797
4.00000 7.03348 19.46774
4.00000 7.03348 19.55752
4.00000 7.03348 19.64731
4.00000 7.03348 19.73710
4.00000 7.03348 19.82690
4.00000 7.03348 19.91671
4.00000 7.03348 20.00652
4.00000 7.03348 20.09634
4.00000 7.03348 20.18617
4.00000 7.03348 20.27600
4.00000 7.03348 20.36584
4.00000 7.03348 20.45569
4.00000 7.03348 20.54554
4.00000 7.03348 20.63539
4.00000 7.03348 20.72525
4.00000 7.03348 20.81512
4.00000 7.03348 20.90499
4.00000 7.03348 20.99487
4.00000 7.03348 21.08476
4.00000 7.03348 21.17465
4.00000 7.03348 21.26454
4.00000 7.03348 21.35444
4.00000 7.03348 21.44435
4.00000 7.03348 21.53426
4.00000 7.03348 21.62418
4.00000 7.03348 21.71410
4.00000 7.03348 21.80403
4.00000 7.03348 21.89396
4.00000 7.03348 21.98390
4.00000 7.03348 22.07384
4.00000 7.03348 22.16379
4.00000 7.03348 22.25374
4.00000 7.03348 22.34370
4.00000 7.03348 22.43366
4.00000 7.03348 22.52362
4.00000 7.03348 22.61359
4.00000 7.03348 22.70357
4.00000 7.03348 22.79354
4.00000 7.03348 22.88353
4.00000 7.03348 22.97351
4.00000 7.03348 23.06350
4.00000 7.03348 23.15350
4.00000 7.03348 23.24350
4.00000 7.03348 23.33350
4.00000 7.03348 23.42351
4.00000 7.03348 23.51352
4.00000 7.03348 23.60353
4.00000 7.03348 23.69355
4.00000 7.03348 23.78357
4.00000 7.03348 23.87360
4.00000 7.03348 23.96363
4.00000 7.03348 24.05366
4.00000 7.03348 24.14370
4.00000 7.03348 24.23374
4.00000 7.03348 24.32379
4.00000 7.03348 24.41384
4.00000 7.03348 24.50389
4.00000 7.03348 24.59395
4.00000 7.03348 24.68401
4.00000 7.03348 24.77407
4.00000 7.03348 24.86414
4.00000 7.03348 24.95421
4.00000 7.03348 25.04428
4.00000 7.03348 25.13435
4.00000 7.03348 25.22444
4.00000 7.03348 25.31452
4.00000 7.03348 25.40460
4.00000 7.03348 25.49469
4.00000 7.03347 25.58478
4.00000 7.03348 25.67487
4.00000 7.03348 25.76497
4.00000 7.03348 25.85507
4.00000 7.03348 25.94517
4.00000 7.03348 26.03528
4.00000 7.03348 26.12539
4.00000 7.03348 26.21550
4.00000 7.03348 26.30562
4.00000 7.03348 26.39574
4.00000 7.03348 26.48586
4.00000 7.03348 26.57598
4.00000 7.03350 26.66609
4.00000 7.03348 26.75624
4.00000 7.03348 26.84637
4.00000 7.03348 26.93651
4.00000 7.03348 27.02664
4.00000 7.03348 27.11679
4.00000 7.03348 27.20693
4.00000 7.03348 27.29708
4.00000 7.03348 27.38723
4.00000 7.03348 27.47738
4.00000 7.03348 27.56754
4.00000 7.03348 27.65769
4.00000 7.03348 27.74786
4.00000 7.03348 27.83802
4.00000 7.03348 27.92818
4.00000 7.03348 28.01835
4.00000 7.03348 28.10852
4.00000 7.03348 28.19870
4.00000 7.03348 28.28887
4.00000 7.03348 28.37905
4.00000 7.03348 28.46923
4.00000 7.03348 28.55941
4.00000 7.03348 28.64960
4.00000 7.03348 28.73978
4.00000 7.03348 28.82997
4.00000 7.03348 28.92016
4.00000 7.03348 29.01036
4.00000 7.03348 29.10056
4.00000 7.03348 29.19075
4.00000 7.03348 29.28096
4.00000 7.03348 29.37116
4.00000 7.03348 29.46137

Angle 0.498782 0.707821

4.00000 7.03348 4.00000
4.00000 7.03348 4.00000
4.00000 7.03348 4.00000
4.00000 7.03348 4.00000
4.00000 7.03348 4.00000
4.00000 7.03348 4.00000
4.00000 7.03348 4.00000
4.00000 7.03348 4.00000
4.00000 7.03348 4.00000
4.00000 7.03348 4.00000
4.00000 7.03348 4.00000
4.00000 7.03348 4.00000
4.00000 7.03348 4.00000
4.00000 7.03348 4.00000
4.00000 7.03348 4.00000
4.00000 7.03348 4.00000
4.00000 7.03348 4.00000
4.00000 7.03348 4.00000
4.00000 7.03348 4.00000
4.00000 7.03348 4.00000
4.00000 7.03348 4.00000
4.00000 7.03348 4.00000
4.00000 7.03348 4.00000
4.00000 7.03348 4.00000
4.00000 7.03348 4.00000
4.00000 7.03347 4.00000
4.00000 7.03348 4.00000
4.00000 7.03348 4.00000
4.00000 7.03348 4.00000
4.00000 7.03348 4.00000
4.00000 7.03348 4.00000
4.00000 7.03348 4.00000
4.00000 7.03348 4.00000
4.00000 7.03348 4.00000
4.00000 7.03348 4.00000
4.00000 7.03348 4.00000
4.00000 7.03349 4.00000
4.00000 7.03348 4.00000
4.00000 7.03348 4.00000
4.00000 7.03348 4.00000
4.00000 7.03347 4.00000
4.00000 7.03348 4.00000
4.00000 7.03348 4.00000
4.00000 7.03350 4.00000
4.00000 7.03348 4.00000
4.00000 7.03348 4.00000
4.00000 7.03348 4.00000
4.00000 7.03348 4.00000
4.00000 7.03347 4.00000
4.00000 7.03348 4.00000
4.00000 7.03349 4.00000
4.00000 7.03348 4.00000
4.00000 7.03349 4.00000
4.00000 7.03348 4.00000
4.00000 7.03348 4.00000
4.00000 7.03349 4.00000
4.00000 7.03348 4.00000
4.00000 7.03348 4.00000
4.00000 7.03348 4.00000
4.00000 7.03348 4.00000
4.00001 7.03355 4.00000
4.00000 7.03352 4.00000
4.00000 7.03348 4.00000
4.00336 7.08538 4.00336
4.00738 7.14834 4.00738
4.01136 7.21165 4.01136
4.01532 7.27523 4.01532
4.01927 7.33908 4.01927
4.02321 7.40317 4.02321
4.02716 7.46745 4.02716
4.03112 7.53190 4.03112
4.03511 7.59648 4.03511
4.03913 7.66116 4.03913
4.04321 7.72590 4.04321
4.04736 7.79066 4.04736
4.05159 7.85539 4.05159
4.05591 7.92005 4.05591
4.06035 7.98459 4.06035
4.06493 8.04894 4.06493
4.06967 8.11305 4.06967
4.07459 8.17686 4.07459
4.07974 8.24026 4.07974
4.08513 8.30318 4.08513
4.09082 8.36550 4.09082
4.09685 8.42712 4.09685
4.10327 8.48789 4.10327
4.11014 8.54764 4.11015
4.11754 8.60623 4.11754
4.12555 8.66342 4.12556
4.13419 8.71920 4.13419
4.14341 8.77369 4.14341
4.15324 8.82683 4.15324
4.16371 8.87857 4.16371
4.17485 8.92886 4.17485
4.18667 8.97764 4.18667
4.19921 9.02489 4.19922
4.21249 9.07057 4.21249
4.22652 9.11465 4.22652
4.24132 9.15711 4.24132
4.25689 9.19794 4.25689
4.27327 9.23714 4.27326
4.29044 9.27467 4.29044
4.30843 9.31055 4.30844
4.32726 9.34475 4.32726
4.34692 9.37727 4.34692
4.36744 9.40806 4.36744
4.38885 9.43709 4.38885
4.41117 9.46431 4.41117
4.43444 9.48963 4.43444
4.45870 9.51296 4.45870
4.48403 9.53416 4.48403
4.51049 9.55307 4.51050
4.53819 9.56948 4.53819
4.56723 9.58317 4.56722
4.59773 9.59385 4.59772
4.62982 9.60123 4.62982
4.66365 9.60503 4.66365
4.03027 7.51810 7.38374
4.02566 7.44308 7.53858
4.02220 7.38673 7.67452
4.01945 7.34205 7.79870
4.01719 7.30542 7.91479
4.01529 7.27472 8.02497
4.01367 7.24856 8.13063
4.01226 7.22603 8.23273
4.01104 7.20641 8.33197
4.00996 7.18921 8.42886
4.00900 7.17404 8.52379
4.00815 7.16058 8.61710
4.00740 7.14862 8.70899
4.00672 7.13791 8.79971
4.00611 7.12832 8.88940
4.00556 7.11969 8.97822
4.00506 7.11192 9.06627
4.00461 7.10491 9.15364
4.00421 7.09855 9.24046
4.00384 7.09284 9.32670
4.00351 7.08762 9.41256
4.00320 7.08290 9.49801
4.00293 7.07861 9.58311
4.00267 7.07470 9.66793
4.00245 7.07115 9.75246
4.00224 7.06793 9.83676
4.00204 7.06495 9.92092
4.00187 7.06226 10.00486
4.00171 7.05980 10.08865
4.00157 7.05757 10.17232
4.00143 7.05552 10.25588
4.00131 7.05364 10.33935
4.00120 7.05193 10.42274
4.00110 7.05038 10.50605
4.00101 7.04893 10.58935
4.00092 7.04761 10.67259
4.00084 7.04643 10.75578
4.00077 7.04532 10.83898
4.00071 7.04432 10.92214
4.00065 7.04340 11.00530
4.00059 7.04256 11.08845
4.00054 7.04179 11.17162
4.00050 7.04109 11.25478
4.00045 7.04044 11.33797
4.00041 7.03985 11.42118
4.00038 7.03931 11.50441
4.00035 7.03882 11.58766
4.00032 7.03837 11.67094
4.00029 7.03795 11.75426
4.00027 7.03757 11.83760
4.00024 7.03722 11.92099
4.00022 7.03691 12.00441
4.00020 7.03662 12.08787
4.00019 7.03635 12.17138
4.00017 7.03610 12.25492
4.00016 7.03588 12.33851
4.00014 7.03568 12.42214
4.00013 7.03549 12.50582
4.00012 7.03532 12.58955
4.00011 7.03516 12.67332
4.00010 7.03501 12.75715
4.00009 7.03488 12.84102
4.00008 7.03476 12.92495
4.00008 7.03465 13.00893
4.00007 7.03455 13.09295
4.00006 7.03445 13.17703
4.00006 7.03437 13.26116
4.00005 7.03430 13.34534
4.00005 7.03423 13.42940
4.00004 7.03417 13.51365
4.00004 7.03411 13.59795
4.00004 7.03405 13.68230
4.00003 7.03400 13.76671
4.00003 7.03396 13.85111
4.00003 7.03392 13.93560
4.00003 7.03388 14.02014
4.00002 7.03385 14.10472
4.00002 7.03383 14.18934
4.00002 7.03378 14.27404
4.00002 7.03376 14.35877
4.00002 7.03374 14.44355
4.00002 7.03372 14.52827
4.00001 7.03369 14.61312
4.00001 7.03367 14.69802
4.00001 7.03366 14.78297
4.00001 7.03364 14.86796
4.00001 7.03363 14.95299
4.00001 7.03361 15.03808
4.00001 7.03360 15.12321
4.00001 7.03359 15.20838
4.00001 7.03358 15.29359
4.00001 7.03357 15.37885
4.00001 7.03356 15.46416
4.00001 7.03356 15.54950
4.00000 7.03355 15.63488
4.00000 7.03354 15.72031
4.00000 7.03354 15.80578
4.00000 7.03353 15.89129
4.00000 7.03353 15.97684
4.00000 7.03352 16.06243
4.00000 7.03352 16.14806
4.00000 7.03352 16.23372
4.00000 7.03351 16.31943
4.00000 7.03351 16.40517
4.00000 7.03351 16.49095
4.00000 7.03351 16.57677
4.00000 7.03350 16.66262
4.00000 7.03350 16.74851
4.00000 7.03350 16.83443
4.00000 7.03350 16.92039
4.00000 7.03350 17.00638
4.00000 7.03349 17.09241
4.00000 7.03349 17.17847
4.00000 7.03349 17.26455
4.00000 7.03349 17.35068
4.00000 7.03349 17.43684
4.00000 7.03350 17.52302
4.00000 7.03349 17.60926
4.00000 7.03349 17.69551
4.00000 7.03349 17.78180
4.00000 7.03348 17.86812
4.00000 7.03348 17.95447
4.00000 7.03348 18.04084
4.00000 7.03348 18.12724
4.00000 7.03348 18.21368
4.00000 7.03348 18.30015
4.00000 7.03348 18.38664
4.00000 7.03348 18.47316
4.00000 7.03348 18.55970
4.00000 7.03348 18.64627
4.00000 7.03348 18.73288
4.00000 7.03348 18.81950
4.00000 7.03348 18.90616
4.00000 7.03348 18.99284
4.00000 7.03348 19.07955
4.00000 7.03348 19.16629
4.00000 7.03348 19.25306
4.00000 7.03348 19.33983
4.00000 7.03348 19.42665
4.00000 7.03348 19.51348
4.00000 7.03348 19.60034
4.00000 7.03348 19.68721
4.00000 7.03348 19.77412
4.00000 7.03348 19.86105
4.00000 7.03348 19.94800
4.00000 7.03348 20.03497
4.00000 7.03348 20.12197
4.00000 7.03348 20.20898
4.00000 7.03348 20.29602
4.00000 7.03348 20.38308
4.00000 7.03348 20.47014
4.00000 7.03348 20.55722
4.00000 7.03348 20.64432
4.00000 7.03348 20.73144
4.00000 7.03348 20.81858
4.00000 7.03348 20.90574
4.00000 7.03348 20.99292
4.00000 7.03348 21.08012
4.00000 7.03348 21.16734
4.00000 7.03348 21.25457
4.00000 7.03348 21.34183
4.00000 7.03348 21.42910
4.00000 7.03348 21.51639
4.00000 7.03348 21.60370
4.00000 7.03348 21.69102
4.00000 7.03348 21.77837
4.00000 7.03348 21.86573
4.00000 7.03348 21.95310
4.00000 7.03348 22.04050
4.00000 7.03348 22.12791
4.00000 7.03348 22.21533
4.00000 7.03348 22.30278
4.00000 7.03348 22.39024
4.00000 7.03348 22.47771
4.00000 7.03348 22.56521
4.00000 7.03348 22.65271
4.00000 7.03348 22.74024
4.00000 7.03348 22.82777
4.00000 7.03348 22.91532
4.00000 7.03348 23.00289
4.00000 7.03348 23.09047
4.00000 7.03348 23.17807
4.00000 7.03348 23.26568
4.00000 7.03348 23.35330
4.00000 7.03348 23.44094
4.00000 7.03348 23.52859
4.00000 7.03348 23.61625
4.00000 7.03348 23.70393
4.00000 7.03348 23.79162
4.00000 7.03348 23.87933
4.00000 7.03348 23.96704
4.00000 7.03348 24.05477
4.00000 7.03348 24.14252
4.00000 7.03348 24.23027
4.00000 7.03348 24.31804
4.00000 7.03348 24.40582
4.00000 7.03348 24.49362
4.00000 7.03348 24.58142
4.00000 7.03348 24.66924
4.00000 7.03348 24.75707
4.00000 7.03348 24.84492
4.00000 7.03348 24.93277
4.00000 7.03348 25.02064
4.00000 7.03348 25.10852
4.00000 7.03348 25.19641
4.00000 7.03348 25.28431
4.00000 7.03348 25.37223
4.00000 7.03348 25.46015
4.00000 7.03348 25.54809
4.00000 7.03348 25.63604
4.00000 7.03348 25.72402
4.00000 7.03348 25.81201
4.00000 7.03348 25.90001
4.00000 7.03349 25.98801
4.00000 7.03348 26.07603
4.00000 7.03349 26.16406
4.00000 7.03349 26.25210
4.00000 7.03348 26.34016
4.00000 7.03348 26.42822
4.00000 7.03349 26.51630
4.00000 7.03349 26.60438
4.00000 7.03348 26.69249
4.00000 7.03348 26.78060
4.00000 7.03348 26.86872
4.00000 7.03348 26.95686
4.00000 7.03348 27.04500
4.00000 7.03348 27.13316
4.00000 7.03348 27.22132
4.00000 7.03348 27.30951
4.00000 7.03348 27.39769
4.00000 7.03348 27.48590
4.00000 7.03348 27.57411
4.00000 7.03348 27.66234
4.00000 7.03348 27.75057
4.00000 7.03348 27.83882
4.00000 7.03348 27.92708
4.00000 7.03348 28.01535
4.00000 7.03348 28.10364
4.00000 7.03348 28.19194
4.00000 7.03348 28.28025
4.00000 7.03348 28.36857
4.00000 7.03348 28.45691
4.00000 7.03348 28.54526
4.00000 7.03348 28.63362
4.00000 7.03348 28.72200
4.00000 7.03348 28.81039
4.00000 7.03348 28.89878
4.00000 7.03348 28.98720
4.00000 7.03348 29.07562
4.00000 7.03348 29.16406
4.00000 7.03348 29.25252
4.00000 7.03348 29.34098
4.00000 7.03348 29.42946
4.00000 7.03348 29.51796
4.00000 7.03348 29.60647
4.00000 7.03348 29.69499
4.00000 7.03348 29.78352
4.00000 7.03348 29.87207
4.00000 7.03348 29.96063
4.00000 7.03348 30.04920
4.00000 7.03348 30.13779
4.00000 7.03348 30.22639
4.00000 7.03348 30.31500
4.00000 7.03348 30.40363
4.00000 7.03348 30.49226
4.00000 7.03348 30.58092
4.00000 7.03348 30.66958
4.00000 7.03348 30.75826
4.00000 7.03348 30.84695
4.00000 7.03348 30.93565
4.00000 7.03348 31.02436
4.00000 7.03348 31.11309
4.00000 7.03348 31.20183
4.00000 7.03348 31.29057
4.00000 7.03348 31.37934
4.00000 7.03348 31.46811
4.00000 7.03348 31.55689
4.00000 7.03348 31.64569
4.00000 7.03348 31.73446
4.00000 7.03348 31.82327
4.00000 7.03348 31.91206
4.00000 7.03348 32.00086
4.00000 7.03348 32.08969

Angle 0.243394 5.745865

4.00000 7.03348 4.00000
4.00000 7.03348 4.00000
4.00000 7.03348 4.00000
4.00000 7.03348 4.00000
4.00000 7.03348 4.00000
4.00000 7.03348 4.00000
4.00000 7.03348 4.00000
4.00000 7.03348 4.00000
4.00000 7.03348 4.00000
4.00000 7.03348 4.00000
4.00000 7.03348 4.00000
4.00000 7.03348 4.00000
4.00000 7.03347 4.00000
4.00000 7.03348 4.00000
4.00000 7.03348 4.00000
4.00000 7.03348 4.00000
4.00000 7.03348 4.00000
4.00000 7.03348 4.00000
4.00000 7.03348 4.00000
4.00000 7.03348 4.00000
4.00000 7.03348 4.00000
4.00000 7.03348 4.00000
4.00000 7.03348 4.00000
4.00000 7.03348 4.00000
4.00000 7.03348 4.00000
4.00000 7.03348 4.00000
4.00000 7.03348 4.00000
4.00000 7.03348 4.00000
4.00000 7.03348 4.00000
4.00000 7.03348 4.00000
4.00000 7.03348 4.00000
4.00000 7.03348 4.00000
4.00000 7.03348 4.00000
4.00000 7.03348 4.00000
4.00000 7.03348 4.00000
4.00000 7.03348 4.00000
4.00000 7.03348 4.00000
4.00000 7.03348 4.00000
4.00000 7.03348 4.00000
4.00000 7.03348 4.00000
4.00000 7.03348 4.00000
4.00000 7.03348 4.00000
4.00000 7.03348 4.00000
4.00000 7.03348 4.00000
4.00000 7.03348 4.00000
4.00000 7.03348 4.00000
4.00000 7.03348 4.00000
4.00000 7.03348 4.00000
4.00000 7.03351 4.00000
4.00000 7.03348 4.00000
4.00000 7.03348 4.00000
4.00000 7.03348 4.00000
4.00000 7.03348 4.00000
4.00000 7.03348 4.00000
4.00000 7.03348 4.00000
4.00000 7.03348 4.00000
4.00000 7.03348 4.00000
4.00000 7.03348 4.00000
4.00000 7.03348 4.00000
4.00000 7.03348 4.00000
4.00000 7.03348 4.00000
4.00000 7.03348 4.00000
4.00000 7.03348 4.00000
4.00000 7.03348 4.00000
4.00000 7.03348 4.00000
4.00000 7.03349 4.00000
4.00000 7.03352 4.00000
4.00000 7.03348 4.00000
4.00000 7.03347 4.00000
4.00000 7.03349 4.00000
4.00000 7.03352 4.00000
4.00184 7.06189 4.00185
4.00613 7.12863 4.00613
4.01036 7.19569 4.01036
4.01457 7.26302 4.01457
4.01875 7.33059 4.01875
4.02291 7.39836 4.02291
4.02709 7.46630 4.02709
4.03127 7.53437 4.03127
4.03548 7.60253 4.03548
4.03973 7.67074 4.03973
4.04404 7.73895 4.04404
4.04843 7.80712 4.04843
4.05290 7.87519 4.05290
4.05749 7.94312 4.05748
4.06220 8.01085 4.06220
4.06708 8.07830 4.06708
4.07214 8.14539 4.07214
4.07742 8.21206 4.07742
4.08295 8.27819 4.08295
4.08879 8.34368 4.08879
4.09497 8.40839 4.09497
4.10156 8.47219 4.10156
4.10862 8.53490 4.10862
4.11624 8.59633 4.11624
4.12450 8.65624 4.12450
4.13345 8.71456 4.13344
4.14302 8.77144 4.14301
4.15324 8.82684 4.15324
4.16416 8.88069 4.16416
4.17579 8.93293 4.17579
4.18817 8.98351 4.18817
4.20131 9.03240 4.20132
4.21525 9.07957 4.21525
4.23000 9.12498 4.23000
4.24557 9.16863 4.24557
4.26197 9.21049 4.26198
4.27923 9.25057 4.27923
4.29735 9.28885 4.29735
4.31635 9.32532 4.31635
4.33623 9.35997 4.33623
4.35701 9.39278 4.35701
4.37872 9.42372 4.37871
4.40137 9.45273 4.40137
4.42502 9.47974 4.42502
4.44970 9.50466 4.44970
4.47548 9.52735 4.47548
4.50243 9.54765 4.50243
4.53066 9.56535 4.53065
4.56027 9.58021 4.56025
4.59139 9.59193 4.59138
4.62417 9.60021 4.62417
4.65876 9.60472 4.65876
7.36485 7.52812 4.03088
7.52695 7.44830 4.02598
7.66797 7.38926 4.02236
7.79619 7.34289 4.01950
7.91572 7.30514 4.01718
8.02897 7.27367 4.01523
8.13746 7.24697 4.01357
8.24217 7.22407 4.01214
8.34390 7.20419 4.01090
8.44319 7.18682 4.00981
8.54042 7.17155 4.00885
8.63596 7.15803 4.00799
8.73005 7.14603 4.00723
8.82290 7.13534 4.00655
8.91469 7.12577 4.00595
9.00556 7.11720 4.00540
9.09563 7.10949 4.00491
9.18502 7.10254 4.00446
9.27377 7.09630 4.00406
9.36201 7.09064 4.00370
9.44979 7.08552 4.00337
9.53716 7.08088 4.00307
9.62420 7.07666 4.00280
9.71087 7.07287 4.00256
9.79730 7.06940 4.00233
9.88348 7.06624 4.00213
9.96946 7.06336 4.00194
10.05524 7.06075 4.00177
10.14086 7.05837 4.00162
10.22634 7.05621 4.00148
10.31170 7.05423 4.00135
10.39695 7.05243 4.00123
10.48212 7.05079 4.00113
10.56721 7.04929 4.00103
10.65225 7.04791 4.00094
10.73721 7.04667 4.00086
10.82214 7.04553 4.00079
10.90705 7.04449 4.00072
10.99193 7.04353 4.00065
11.07678 7.04267 4.00060
11.16162 7.04188 4.00055
11.24646 7.04115 4.00050
11.33130 7.04049 4.00046
11.41614 7.03988 4.00042
11.50099 7.03933 4.00038
11.58586 7.03883 4.00035
11.67073 7.03837 4.00032
11.75566 7.03792 4.00029
11.84055 7.03756 4.00027
11.92549 7.03721 4.00024
12.01045 7.03689 4.00022
12.09545 7.03659 4.00020
12.18047 7.03632 4.00018
12.26553 7.03607 4.00017
12.35062 7.03585 4.00015
12.43574 7.03565 4.00014
12.52090 7.03546 4.00013
12.60608 7.03529 4.00012
12.69132 7.03512 4.00011
12.77658 7.03498 4.00010
12.86188 7.03485 4.00009
12.94723 7.03473 4.00008
13.03261 7.03462 4.00007
13.11802 7.03452 4.00007
13.20348 7.03443 4.00006
13.28898 7.03434 4.00006
13.37452 7.03427 4.00005
13.46008 7.03420 4.00005
13.54562 7.03414 4.00004
13.63126 7.03409 4.00004
13.71694 7.03404 4.00004
13.80266 7.03398 4.00003
13.88840 7.03395 4.00003
13.97420 7.03390 4.00003
14.06003 7.03386 4.00003
14.14590 7.03383 4.00002
14.23181 7.03380 4.00002
14.31775 7.03377 4.00002
14.40373 7.03375 4.00002
14.48976 7.03371 4.00002
14.57581 7.03370 4.00001
14.66191 7.03368 4.00001
14.74803 7.03366 4.00001
14.83419 7.03365 4.00001
14.92039 7.03363 4.00001
15.00662 7.03362 4.00001
15.09289 7.03361 4.00001
15.17919 7.03359 4.00001
15.26552 7.03359 4.00001
15.35190 7.03357 4.00001
15.43830 7.03357 4.00001
15.52473 7.03356 4.00001
15.61120 7.03355 4.00000
15.69770 7.03355 4.00000
15.78423 7.03354 4.00000
15.87080 7.03354 4.00000
15.95739 7.03353 4.00000
16.04402 7.03353 4.00000
16.13067 7.03352 4.00000
16.21736 7.03352 4.00000
16.30407 7.03351 4.00000
16.39082 7.03351 4.00000
16.47759 7.03351 4.00000
16.56440 7.03350 4.00000
16.65123 7.03350 4.00000
16.73808 7.03350 4.00000
16.82497 7.03350 4.00000
16.91188 7.03350 4.00000
16.99883 7.03349 4.00000
17.08578 7.03350 4.00000
17.17279 7.03349 4.00000
17.25981 7.03349 4.00000
17.34686 7.03349 4.00000
17.43393 7.03349 4.00000
17.52103 7.03348 4.00000
17.60815 7.03349 4.00000
17.69529 7.03349 4.00000
17.78247 7.03348 4.00000
17.86966 7.03349 4.00000
17.95688 7.03349 4.00000
18.04411 7.03349 4.00000
18.13138 7.03348 4.00000
18.21867 7.03348 4.00000
18.30599 7.03348 4.00000
18.39331 7.03348 4.00000
18.48067 7.03348 4.00000
18.56805 7.03348 4.00000
18.65545 7.03348 4.00000
18.74288 7.03348 4.00000
18.83032 7.03348 4.00000
18.91778 7.03348 4.00000
19.00528 7.03348 4.00000
19.09278 7.03348 4.00000
19.18031 7.03348 4.00000
19.26785 7.03348 4.00000
19.35542 7.03348 4.00000
19.44300 7.03348 4.00000
19.53061 7.03348 4.00000
19.61823 7.03348 4.00000
19.70588 7.03348 4.00000
19.79354 7.03348 4.00000
19.88122 7.03348 4.00000
19.96892 7.03348 4.00000
20.05662 7.03348 4.00000
20.14436 7.03348 4.00000
20.23211 7.03347 4.00000
20.31987 7.03348 4.00000
20.40764 7.03348 4.00000
20.49543 7.03348 4.00000
20.58324 7.03348 4.00000
20.67107 7.03348 4.00000
20.75891 7.03348 4.00000
20.84677 7.03348 4.00000
20.93465 7.03348 4.00000
21.02254 7.03348 4.00000
21.11045 7.03348 4.00000
21.19838 7.03348 4.00000
21.28631 7.03348 4.00000
21.37427 7.03348 4.00000
21.46224 7.03348 4.00000
21.55023 7.03348 4.00000
21.63823 7.03348 4.00000
21.72624 7.03348 4.00000
21.81427 7.03348 4.00000
21.90232 7.03348 4.00000
21.99038 7.03348 4.00000
22.07845 7.03348 4.00000
22.16654 7.03348 4.00000
22.25465 7.03348 4.00000
22.34276 7.03348 4.00000
22.43090 7.03348 4.00000
22.51904 7.03348 4.00000
22.60720 7.03348 4.00000
22.69537 7.03348 4.00000
22.78356 7.03348 4.00000
22.87176 7.03348 4.00000
22.95997 7.03348 4.00000
23.04819 7.03348 4.00000
23.13643 7.03348 4.00000
23.22469 7.03348 4.00000
23.31295 7.03348 4.00000
23.40123 7.03348 4.00000
23.48952 7.03348 4.00000
23.57782 7.03348 4.00000
23.66614 7.03348 4.00000
23.75447 7.03348 4.00000
23.84281 7.03348 4.00000
23.93116 7.03348 4.00000
24.01953 7.03348 4.00000
24.10791 7.03348 4.00000
24.19630 7.03348 4.00000
24.28470 7.03348 4.00000
24.37312 7.03348 4.00000
24.46155 7.03348 4.00000
24.54999 7.03348 4.00000
24.63844 7.03348 4.00000
24.72691 7.03348 4.00000
24.81539 7.03348 4.00000
24.90388 7.03348 4.00000
24.99238 7.03348 4.00000
25.08090 7.03348 4.00000
25.16942 7.03348 4.00000
25.25795 7.03349 4.00000
25.34651 7.03349 4.00000
25.43508 7.03348 4.00000
25.52365 7.03349 4.00000
25.61224 7.03349 4.00000
25.70085 7.03348 4.00000
25.78945 7.03349 4.00000
25.87807 7.03349 4.00000
25.96672 7.03348 4.00000
26.05537 7.03348 4.00000
26.14402 7.03349 4.00000
26.23269 7.03349 4.00000
26.32139 7.03348 4.00000
26.41008 7.03348 4.00000
26.49879 7.03348 4.00000
26.58751 7.03348 4.00000
26.67625 7.03348 4.00000
26.76499 7.03348 4.00000
26.85375 7.03348 4.00000
26.94251 7.03348 4.00000
27.03129 7.03348 4.00000
27.12009 7.03348 4.00000
27.20889 7.03348 4.00000
27.29771 7.03348 4.00000
27.38654 7.03348 4.00000
27.47539 7.03348 4.00000
27.56424 7.03348 4.00000
27.65311 7.03348 4.00000
27.74199 7.03348 4.00000
27.83089 7.03348 4.00000
27.91980 7.03348 4.00000
28.00872 7.03348 4.00000
28.09765 7.03348 4.00000
28.18660 7.03348 4.00000
28.27556 7.03348 4.00000
28.36453 7.03348 4.00000
28.45351 7.03348 4.00000
28.54251 7.03348 4.00000
28.63152 7.03348 4.00000
28.72056 7.03348 4.00000
28.80959 7.03348 4.00000
28.89865 7.03348 4.00000
28.98772 7.03348 4.00000
29.07680 7.03348 4.00000
29.16590 7.03348 4.00000
29.25499 7.03348 4.00000
29.34410 7.03348 4.00000
29.43324 7.03348 4.00000
29.52238 7.03348 4.00000
29.61153 7.03348 4.00000
29.70069 7.03348 4.00000
29.78984 7.03348 4.00000
29.87903 7.03348 4.00000
29.96822 7.03348 4.00000
30.05743 7.03348 4.00000
30.14664 7.03348 4.00000
30.23587 7.03348 4.00000
30.32510 7.03348 4.00000
30.41435 7.03348 4.00000
30.50360 7.03348 4.00000
30.59286 7.03348 4.00000
30.68214 7.03348 4.00000
30.77142 7.03348 4.00000
30.86070 7.03348 4.00000
30.95000 7.03348 4.00000
31.03930 7.03348 4.00000
31.12862 7.03348 4.00000
31.21794 7.03348 4.00000
31.30726 7.03348 4.00000
31.39644 7.03348 4.00000
31.48563 7.03348 4.00000
31.57483 7.03348 4.00000
31.66403 7.03348 4.00000
31.75325 7.03348 4.00000
31.84247 7.03348 4.00000

Angle 0.096581 4.548981

4.00000 7.03348 4.00000
4.00000 7.03348 4.00000
4.00000 7.03348 4.00000
4.00000 7.03348 4.00000
4.00000 7.03348 4.00000
4.00000 7.03348 4.00000
4.00000 7.03348 4.00000
4.00000 7.03348 4.00000
4.00000 7.03348 4.00000
4.00000 7.03348 4.00000
4.00000 7.03348 4.00000
4.00000 7.03348 4.00000
4.00000 7.03348 4.00000
4.00000 7.03348 4.00000
4.00000 7.03348 4.00000
4.00000 7.03348 4.00000
4.00000 7.03348 4.00000
4.00000 7.03347 4.00000
4.00000 7.03348 4.00000
4.00000 7.03348 4.00000
4.00000 7.03348 4.00000
4.00000 7.03348 4.00000
4.00000 7.03348 4.00000
4.00000 7.03348 4.00000
4.00000 7.03348 4.00000
4.00000 7.03348 4.00000
4.00000 7.03349 4.00000
4.00000 7.03350 4.00000
4.00000 7.03349 4.00000
4.00000 7.03349 4.00000
4.00000 7.03348 4.00000
4.00000 7.03348 4.00000
4.00000 7.03348 4.00000
4.00000 7.03348 4.00000
4.00000 7.03348 4.00000
4.00000 7.03348 4.00000
4.00000 7.03348 4.00000
4.00000 7.03348 4.00000
4.00000 7.03348 4.00000
4.00000 7.03348 4.00000
4.00000 7.03348 4.00000
4.00000 7.03348 4.00000
4.00000 7.03348 4.00000
4.00000 7.03348 4.00000
4.00000 7.03348 4.00000
4.00000 7.03348 4.00000
4.00000 7.03348 4.00000
4.00000 7.03348 4.00000
4.00000 7.03348 4.00000
4.00000 7.03348 4.00000
4.00000 7.03346 4.00000
4.00000 7.03347 4.00000
4.00000 7.03347 4.00000
4.00000 7.03348 4.00000
4.00000 7.03348 4.00000
4.00000 7.03348 4.00000
4.00000 7.03348 4.00000
4.00000 7.03347 4.00000
4.00000 7.03348 4.00000
4.00000 7.03348 4.00000
4.00000 7.03348 4.00000
4.00000 7.03348 4.00000
4.00000 7.03348 4.00000
4.00000 7.03348 4.00000
4.00000 7.03348 4.00000
4.00000 7.03348 4.00000
4.00000 7.03348 4.00000
4.00000 7.03348 4.00000
4.00000 7.03348 4.00000
4.00000 7.03348 4.00000
4.00000 7.03348 4.00000
4.00000 7.03348 4.00000
4.00000 7.03348 4.00000
4.00000 7.03348 4.00000
4.00000 7.03348 4.00000
4.00000 7.03348 4.00000
4.00000 7.03348 4.00000
4.00000 7.03348 4.00000
4.00000 7.03348 4.00000
4.00000 7.03348 4.00000
4.00000 7.03348 4.00000
4.00000 7.03348 4.00000
4.00000 7.03348 4.00000
4.00000 7.03348 4.00000
4.00000 7.03348 4.00000
4.00000 7.03348 4.00000
4.00000 7.03348 4.00000
4.00000 7.03348 4.00000
4.00000 7.03348 4.00000
4.00000 7.03348 4.00000
4.00000 7.03348 4.00000
4.00000 7.03348 4.00000
4.00000 7.03347 4.00000
4.00000 7.03348 4.00000
4.00000 7.03348 4.00000
4.00000 7.03348 4.00000
4.00000 7.03348 4.00000
4.00000 7.03348 4.00000
4.00211 7.06592 4.00211
4.00633 7.13181 4.00633
4.01051 7.19802 4.01051
4.01466 7.26451 4.01466
4.01879 7.33124 4.01879
4.02290 7.39819 4.02290
4.02702 7.46530 4.02702
4.03116 7.53256 4.03116
4.03532 7.59991 4.03532
4.03952 7.66733 4.03952
4.04378 7.73477 4.04378
4.04811 7.80217 4.04811
4.05252 7.86951 4.05252
4.05705 7.93671 4.05705
4.06170 8.00373 4.06170
4.06650 8.07049 4.06650
4.07149 8.13693 4.07149
4.07668 8.20297 4.07668
4.08212 8.26850 4.08212
4.08785 8.33344 4.08785
4.09391 8.39765 4.09391
4.10036 8.46099 4.10036
4.10727 8.52330 4.10727
4.11470 8.58440 4.11470
4.12274 8.64407 4.12274
4.13147 8.70215 4.13147
4.14082 8.75883 4.14082
4.15080 8.81407 4.15080
4.16145 8.86780 4.16145
4.17281 8.91998 4.17281
4.18488 8.97054 4.18488
4.19771 9.01946 4.19771
4.21132 9.06669 4.21132
4.22571 9.11221 4.22571
4.24091 9.15600 4.24091
4.25694 9.19805 4.25694
4.27380 9.23834 4.27380
4.29150 9.27688 4.29150
4.31006 9.31364 4.31006
4.32949 9.34862 4.32950
4.34981 9.38180 4.34981
4.37104 9.41314 4.37104
4.39319 9.44262 4.39319
4.41630 9.47015 4.41630
4.44041 9.49566 4.44041
4.46559 9.51903 4.46559
4.49189 9.54012 4.49189
4.51941 9.55872 4.51941
4.54825 9.57462 4.54825
4.57853 9.58756 4.57853
4.61039 9.59722 4.61039
4.64398 9.60330 4.64397
4.68005 9.60549 4.67881
7.45997 7.47961 4.02790
7.60775 7.41338 4.02384
7.74010 7.36238 4.02070
7.86238 7.32138 4.01818
7.97754 7.28748 4.01608
8.08737 7.25891 4.01431
8.19309 7.23448 4.01279
8.29553 7.21337 4.01147
8.39535 7.19493 4.01032
8.49291 7.17881 4.00930
8.58867 7.16454 4.00841
8.68289 7.15189 4.00760
8.77580 7.14063 4.00689
8.86757 7.13056 4.00625
8.95838 7.12154 4.00568
9.04834 7.11344 4.00516
9.13756 7.10615 4.00469
9.22615 7.09957 4.00427
9.31418 7.09364 4.00389
9.40173 7.08825 4.00355
9.48884 7.08338 4.00323
9.57556 7.07898 4.00295
9.66199 7.07496 4.00269
9.74811 7.07132 4.00246
9.83398 7.06800 4.00224
9.91961 7.06499 4.00205
10.00506 7.06225 4.00187
10.09034 7.05975 4.00171
10.17547 7.05747 4.00156
10.26051 7.05537 4.00142
10.34537 7.05350 4.00130
10.43017 7.05177 4.00119
10.51490 7.05019 4.00109
10.59955 7.04875 4.00099
10.68417 7.04742 4.00091
10.76872 7.04623 4.00083
10.85324 7.04514 4.00076
10.93774 7.04413 4.00069
11.02222 7.04321 4.00063
11.10669 7.04238 4.00058
11.19115 7.04161 4.00053
11.27561 7.04091 4.00048
11.36008 7.04028 4.00044
11.44455 7.03970 4.00040
11.52904 7.03916 4.00037
11.61354 7.03867 4.00034
11.69806 7.03822 4.00031
11.78261 7.03782 4.00028
11.86717 7.03745 4.00026
11.95177 7.03710 4.00024
12.03640 7.03679 4.00022
12.12105 7.03651 4.00020
12.20574 7.03625 4.00018
12.29047 7.03601 4.00016
12.37522 7.03579 4.00015
12.46002 7.03559 4.00014
12.54485 7.03541 4.00013
12.62972 7.03524 4.00011
12.71463 7.03509 4.00011
12.79957 7.03495 4.00010
12.88456 7.03482 4.00009
12.96958 7.03471 4.00008
13.05465 7.03460 4.00007
13.13976 7.03450 4.00007
13.22490 7.03442 4.00006
13.31010 7.03433 4.00005
13.39532 7.03426 4.00005
13.48058 7.03419 4.00005
13.56590 7.03413 4.00004
13.65125 7.03408 4.00004
13.73663 7.03402 4.00004
13.82206 7.03398 4.00003
13.90753 7.03393 4.00003
13.99305 7.03389 4.00003
14.07860 7.03386 4.00002
14.16419 7.03383 4.00003
14.24983 7.03379 4.00002
14.33547 7.03377 4.00002
14.42117 7.03374 4.00002
14.50692 7.03372 4.00002
14.59270 7.03370 4.00001
14.67853 7.03368 4.00001
14.76439 7.03366 4.00001
14.85029 7.03365 4.00001
14.93623 7.03363 4.00001
15.02220 7.03362 4.00001
15.10821 7.03361 4.00001
15.19426 7.03359 4.00001
15.28034 7.03358 4.00001
15.36646 7.03358 4.00001
15.45261 7.03357 4.00001
15.53879 7.03356 4.00001
15.62501 7.03355 4.00001
15.71126 7.03355 4.00000
15.79755 7.03354 4.00000
15.88386 7.03353 4.00000
15.97021 7.03353 4.00000
16.05659 7.03353 4.00000
16.14300 7.03352 4.00000
16.22944 7.03352 4.00000
16.31591 7.03351 4.00000
16.40241 7.03351 4.00000
16.48894 7.03351 4.00000
16.57550 7.03351 4.00000
16.66209 7.03350 4.00000
16.74870 7.03350 4.00000
16.83535 7.03350 4.00000
16.92202 7.03350 4.00000
17.00872 7.03350 4.00000
17.09545 7.03349 4.00000
17.18221 7.03349 4.00000
17.26899 7.03349 4.00000
17.35585 7.03349 4.00000
17.44273 7.03349 4.00000
17.52964 7.03349 4.00000
17.61658 7.03349 4.00000
17.70354 7.03349 4.00000
17.79053 7.03348 4.00000
17.87755 7.03349 4.00000
17.96459 7.03348 4.00000
18.05165 7.03349 4.00000
18.13874 7.03348 4.00000
18.22585 7.03348 4.00000
18.31298 7.03348 4.00000
18.40014 7.03348 4.00000
18.48732 7.03348 4.00000
18.57452 7.03348 4.00000
18.66174 7.03348 4.00000
18.74899 7.03348 4.00000
18.83626 7.03348 4.00000
18.92355 7.03348 4.00000
19.01086 7.03348 4.00000
19.09819 7.03348 4.00000
19.18555 7.03347 4.00000
19.27292 7.03347 4.00000
19.36032 7.03347 4.00000
19.44773 7.03347 4.00000
19.53517 7.03347 4.00000
19.62261 7.03348 4.00000
19.71009 7.03348 4.00000
19.79758 7.03348 4.00000
19.88509 7.03348 4.00000
19.97262 7.03348 4.00000
20.06017 7.03348 4.00000
20.14774 7.03348 4.00000
20.23532 7.03348 4.00000
20.32293 7.03348 4.00000
20.41055 7.03348 4.00000
20.49819 7.03348 4.00000
20.58586 7.03348 4.00000
20.67355 7.03348 4.00000
20.76126 7.03348 4.00000
20.84899 7.03348 4.00000
20.93673 7.03348 4.00000
21.02449 7.03348 4.00000
21.11227 7.03348 4.00000
21.20006 7.03348 4.00000
21.28787 7.03348 4.00000
21.37569 7.03348 4.00000
21.46352 7.03348 4.00000
21.55136 7.03348 4.00000
21.63921 7.03348 4.00000
21.72708 7.03348 4.00000
21.81497 7.03348 4.00000
21.90287 7.03348 4.00000
21.99079 7.03348 4.00000
22.07872 7.03348 4.00000
22.16667 7.03348 4.00000
22.25463 7.03348 4.00000
22.34261 7.03348 4.00000
22.43061 7.03348 4.00000
22.51862 7.03348 4.00000
22.60664 7.03348 4.00000
22.69468 7.03348 4.00000
22.78273 7.03348 4.00000
22.87080 7.03348 4.00000
22.95888 7.03348 4.00000
23.04699 7.03347 4.00000
23.13509 7.03348 4.00000
23.22322 7.03348 4.00000
23.31137 7.03347 4.00000
23.39953 7.03348 4.00000
23.48769 7.03348 4.00000
23.57588 7.03348 4.00000
23.66409 7.03348 4.00000
23.75229 7.03348 4.00000
23.84051 7.03348 4.00000
23.92873 7.03348 4.00000
24.01698 7.03348 4.00000
24.10523 7.03348 4.00000
24.19349 7.03348 4.00000
24.28178 7.03347 4.00000
24.37006 7.03348 4.00000
24.45837 7.03348 4.00000
24.54668 7.03348 4.00000
24.63501 7.03348 4.00000
24.72335 7.03348 4.00000
24.81170 7.03348 4.00000
24.90006 7.03348 4.00000
24.98843 7.03348 4.00000
25.07682 7.03348 4.00000
25.16523 7.03348 4.00000
25.25363 7.03348 4.00000
25.34206 7.03348 4.00000
25.43049 7.03348 4.00000
25.51894 7.03348 4.00000
25.60739 7.03348 4.00000
25.69586 7.03348 4.00000
25.78434 7.03348 4.00000
25.87283 7.03348 4.00000
25.96133 7.03348 4.00000
26.04985 7.03348 4.00000
26.13837 7.03348 4.00000
26.22692 7.03348 4.00000
26.31547 7.03348 4.00000
26.40404 7.03347 4.00000
26.49259 7.03348 4.00000
26.58118 7.03348 4.00000
26.66978 7.03348 4.00000
26.75840 7.03348 4.00000
26.84702 7.03348 4.00000
26.93565 7.03348 4.00000
27.02429 7.03348 4.00000
27.11294 7.03348 4.00000
27.20160 7.03348 4.00000
27.29027 7.03348 4.00000
27.37895 7.03348 4.00000
27.46764 7.03348 4.00000
27.55634 7.03348 4.00000
27.64505 7.03348 4.00000
27.73377 7.03348 4.00000
27.82250 7.03348 4.00000
27.91124 7.03348 4.00000
27.99998 7.03348 4.00000
28.08874 7.03348 4.00000
28.17750 7.03348 4.00000
28.26628 7.03348 4.00000
28.35506 7.03348 4.00000
28.44385 7.03348 4.00000
28.53265 7.03348 4.00000
28.62146 7.03348 4.00000
28.71028 7.03348 4.00000
28.79910 7.03348 4.00000
28.88794 7.03348 4.00000
28.97678 7.03348 4.00000
29.06563 7.03348 4.00000
29.15449 7.03348 4.00000
29.24336 7.03348 4.00000
29.33224 7.03348 4.00000

Angle 0.654612 4.553276

4.00000 7.03348 4.00000
4.00000 7.03348 4.00000
4.00000 7.03348 4.00000
4.00000 7.03348 4.00000
4.00000 7.03348 4.00000
4.00000 7.03348 4.00000
4.00000 7.03348 4.00000
4.00000 7.03347 4.00000
4.00000 7.03347 4.00000
4.00000 7.03348 4.00000
4.00000 7.03348 4.00000
4.00000 7.03348 4.00000
4.00000 7.03346 4.00000
4.00000 7.03348 4.00000
4.00000 7.03348 4.00000
4.00000 7.03348 4.00000
4.00000 7.03348 4.00000
4.00000 7.03348 4.00000
4.00000 7.03349 4.00000
4.00000 7.03348 4.00000
4.00000 7.03349 4.00000
4.00000 7.03349 4.00000
4.00000 7.03348 4.00000
4.00000 7.03349 4.00000
4.00000 7.03348 4.00000
4.00000 7.03348 4.00000
4.00000 7.03349 4.00000
4.00000 7.03350 4.00000
4.00000 7.03350 4.00000
4.00000 7.03350 4.00000
4.00000 7.03351 4.00000
4.00000 7.03348 4.00000
4.00000 7.03345 4.00000
4.00000 7.03348 4.00000
4.00000 7.03348 4.00000
4.00000 7.03348 4.00000
4.00000 7.03348 4.00000
4.00000 7.03348 4.00000
4.00000 7.03348 4.00000
4.00000 7.03348 4.00000
4.00000 7.03350 4.00000
4.00000 7.03348 4.00000
4.00000 7.03349 4.00000
4.00000 7.03348 4.00000
4.00000 7.03348 4.00000
4.00000 7.03348 4.00000
4.00000 7.03348 4.00000
4.00000 7.03347 4.00000
4.00000 7.03348 4.00000
4.00000 7.03349 4.00000
4.00000 7.03348 4.00000
4.00000 7.03347 4.00000
4.00000 7.03346 4.00000
4.00000 7.03346 4.00000
4.00000 7.03347 4.00000
4.00000 7.03347 4.00000
4.00000 7.03347 4.00000
4.00000 7.03348 4.00000
4.00000 7.03348 4.00000
4.00000 7.03348 4.00000
4.00000 7.03348 4.00000
4.00000 7.03348 4.00000
4.00000 7.03348 4.00000
4.00000 7.03348 4.00000
4.00000 7.03348 4.00000
4.00000 7.03348 4.00000
4.00000 7.03348 4.00000
4.00000 7.03348 4.00000
4.00000 7.03348 4.00000
4.00000 7.03348 4.00000
4.00000 7.03348 4.00000
4.00000 7.03348 4.00000
4.00000 7.03348 4.00000
4.00000 7.03348 4.00000
4.00000 7.03348 4.00000
4.00000 7.03348 4.00000
4.00000 7.03348 4.00000
4.00000 7.03347 4.00000
4.00000 7.03347 4.00000
4.00000 7.03348 4.00000
4.00000 7.03348 4.00000
4.00000 7.03348 4.00000
4.00000 7.03348 4.00000
4.00000 7.03348 4.00000
4.00000 7.03348 4.00000
4.00000 7.03348 4.00000
4.00000 7.03348 4.00000
4.00000 7.03348 4.00000
4.00000 7.03348 4.00000
4.00000 7.03347 4.00000
4.00000 7.03346 4.00000
4.00000 7.03347 4.00000
4.00000 7.03347 4.00000
4.00000 7.03348 4.00000
4.00000 7.03348 4.00000
4.00000 7.03348 4.00000
4.00000 7.03348 4.00000
4.00000 7.03346 4.00000
4.00000 7.03348 4.00000
4.00000 7.03346 4.00000
4.00000 7.03348 4.00000
4.00000 7.03348 4.00000
4.00000 7.03348 4.00000
4.00000 7.03347 4.00000
4.00000 7.03347 4.00000
4.00000 7.03348 4.00000
4.00000 7.03348 4.00000
4.00000 7.03348 4.00000
4.00000 7.03348 4.00000
4.00000 7.03348 4.00000
4.00000 7.03348 4.00000
4.00000 7.03348 4.00000
4.00000 7.03348 4.00000
4.00000 7.03348 4.00000
4.00000 7.03348 4.00000
4.00000 7.03348 4.00000
4.00000 7.03348 4.00000
4.00000 7.03348 4.00000
4.00000 7.03348 4.00000
4.00000 7.03348 4.00000
4.00000 7.03348 4.00000
4.00000 7.03347 4.00000
4.00000 7.03348 4.00000
4.00000 7.03348 4.00000
4.00000 7.03348 4.00000
4.00000 7.03348 4.00000
4.00000 7.03348 4.00000
4.00000 7.03348 4.00000
4.00000 7.03347 4.00000
4.00000 7.03348 4.00000
4.00000 7.03348 4.00000
4.00000 7.03348 4.00000
4.00000 7.03348 4.00000
4.00000 7.03348 4.00000
4.00000 7.03348 4.00000
4.00000 7.03348 4.00000
4.00000 7.03348 4.00000
4.00000 7.03348 4.00000
4.00000 7.03348 4.00000
4.00000 7.03348 4.00000
4.00000 7.03348 4.00000
4.00000 7.03348 4.00000
4.00000 7.03348 4.00000
4.00000 7.03348 4.00000
4.00000 7.03348 4.00000
4.00000 7.03348 4.00000
4.00000 7.03348 4.00000
4.00000 7.03348 4.00000
4.00000 7.03348 4.00000
4.00000 7.03348 4.00000
4.00000 7.03348 4.00000
4.00000 7.03348 4.00000
4.00000 7.03348 4.00000
4.00000 7.03349 4.00000
4.00000 7.03347 4.00000
4.00000 7.03348 4.00000
4.00000 7.03348 4.00000
4.00000 7.03348 4.00000
4.00000 7.03348 4.00000
4.00000 7.03348 4.00000
4.00000 7.03348 4.00000
4.00000 7.03348 4.00000
4.00000 7.03348 4.00000
4.00000 7.03347 4.00000
4.00000 7.03348 4.00000
4.00000 7.03346 4.00000
4.00000 7.03348 4.00000
4.00000 7.03348 4.00000
4.00000 7.03348 4.00000
4.00000 7.03348 4.00000
4.00000 7.03352 4.00000
4.00000 7.03348 4.00000
4.00000 7.03348 4.00000
4.00157 7.05768 4.00157
4.00646 7.13380 4.00646
4.01127 7.21016 4.01127
4.01604 7.28673 4.01604
4.02077 7.36344 4.02077
4.02549 7.44025 4.02549
4.03021 7.51710 4.03021
4.03495 7.59394 4.03495
4.03973 7.67072 4.03973
4.04458 7.74737 4.04458
4.04952 7.82383 4.04951
4.05456 7.90004 4.05456
4.05975 7.97592 4.05975
4.06511 8.05138 4.06511
4.07068 8.12633 4.07068
4.07649 8.20066 4.07649
4.08261 8.27425 4.08261
4.08909 8.34694 4.08909
4.09599 8.41858 4.09599
4.10339 8.48897 4.10339
4.11138 8.55787 4.11138
4.12008 8.62500 4.12008
4.12959 8.69011 4.12959
4.13987 8.75335 4.13987
4.15092 8.81473 4.15092
4.16278 8.87418 4.16279
4.17549 8.93163 4.17549
4.18908 8.98703 4.18908
4.20357 9.04033 4.20357
4.21899 9.09151 4.21900
4.23538 9.14052 4.23538
4.25273 9.18738 4.25273
4.27106 9.23206 4.27106
4.29039 9.27457 4.29039
4.31073 9.31490 4.31073
4.33210 9.35305 4.33210
4.35450 9.38900 4.35450
4.37797 9.42271 4.37796
4.40252 9.45412 4.40253
4.42822 9.48316 4.42822
4.45512 9.50971 4.45512
4.48329 9.53359 4.48329
4.51283 9.55460 4.51284
4.54388 9.57245 4.54388
4.57659 9.58683 4.57657
4.61109 9.59739 4.61110
4.64760 9.60372 4.64760
7.32073 7.55229 4.03237
7.50167 7.45986 4.02669
7.65539 7.39417 4.02266
7.79359 7.34377 4.01956
7.92162 7.30341 4.01707
8.04242 7.27018 4.01501
8.15783 7.24231 4.01328
8.26905 7.21860 4.01180
8.37695 7.19820 4.01052
8.48214 7.18050 4.00941
8.58510 7.16505 4.00844
8.68619 7.15147 4.00758
8.78570 7.13949 4.00682
8.88387 7.12888 4.00614
8.98088 7.11944 4.00554
9.07689 7.11103 4.00501
9.17203 7.10352 4.00452
9.26642 7.09678 4.00409
9.36015 7.09074 4.00371
9.45329 7.08532 4.00336
9.54593 7.08043 4.00304
9.63811 7.07603 4.00276
9.72990 7.07206 4.00250
9.82133 7.06847 4.00227
9.91245 7.06523 4.00206
10.00330 7.06230 4.00187
10.09390 7.05965 4.00170
10.18428 7.05725 4.00154
10.27447 7.05507 4.00140
10.36449 7.05309 4.00128
10.45436 7.05131 4.00116
10.54410 7.04968 4.00105
10.63372 7.04821 4.00096
10.72323 7.04687 4.00087
10.81265 7.04566 4.00079
10.90200 7.04455 4.00072
10.99127 7.04355 4.00066
11.08048 7.04264 4.00060
11.16964 7.04181 4.00054
11.25876 7.04105 4.00049
11.34783 7.04037 4.00045
11.43688 7.03975 4.00041
11.52589 7.03918 4.00037
11.61488 7.03867 4.00034
11.70386 7.03820 4.00031
11.79281 7.03777 4.00028
11.88176 7.03738 4.00025
11.97070 7.03703 4.00023
12.05963 7.03671 4.00021
12.14856 7.03642 4.00019
12.23749 7.03616 4.00018
12.32642 7.03591 4.00016
12.41535 7.03569 4.00014
12.50428 7.03549 4.00013
12.59322 7.03532 4.00012
12.68218 7.03514 4.00011
12.77113 7.03500 4.00010
12.86009 7.03486 4.00009
12.94907 7.03474 4.00008
13.03806 7.03462 4.00007
13.12705 7.03452 4.00007
13.21605 7.03443 4.00006
13.30508 7.03434 4.00006
13.39411 7.03426 4.00005
13.48316 7.03419 4.00005
13.57222 7.03413 4.00004
13.66130 7.03406 4.00004
13.75039 7.03401 4.00003
13.83948 7.03397 4.00003
13.92860 7.03392 4.00003
14.01773 7.03388 4.00003
14.10687 7.03385 4.00002
14.19603 7.03381 4.00002
14.28521 7.03378 4.00002
14.37439 7.03375 4.00002
14.46359 7.03373 4.00002
14.55280 7.03370 4.00001
14.64202 7.03369 4.00001
14.73127 7.03366 4.00001
14.82052 7.03365 4.00001
14.90979 7.03363 4.00001
14.99907 7.03362 4.00001
15.08836 7.03361 4.00001
15.17767 7.03360 4.00001
15.26699 7.03358 4.00001
15.35633 7.03358 4.00001
15.44567 7.03357 4.00001
15.53504 7.03355 4.00000
15.62441 7.03355 4.00000
15.71379 7.03355 4.00000
15.80319 7.03354 4.00000
15.89260 7.03353 4.00000
15.98202 7.03353 4.00000
16.07146 7.03352 4.00000
16.16090 7.03352 4.00000
16.25036 7.03352 4.00000
16.33983 7.03351 4.00000
16.42930 7.03351 4.00000
16.51880 7.03351 4.00000
16.60830 7.03350 4.00000
16.69781 7.03350 4.00000
16.78734 7.03350 4.00000
16.87688 7.03350 4.00000
16.96642 7.03350 4.00000
17.05598 7.03350 4.00000
17.14555 7.03349 4.00000
17.23513 7.03349 4.00000
17.32472 7.03349 4.00000
17.41432 7.03349 4.00000
17.50393 7.03349 4.00000
17.59354 7.03349 4.00000
17.68317 7.03348 4.00000
17.77280 7.03349 4.00000
17.86245 7.03348 4.00000
17.95209 7.03349 4.00000
18.04176 7.03348 4.00000
18.13142 7.03348 4.00000
18.22110 7.03348 4.00000
18.31078 7.03348 4.00000
18.40048 7.03348 4.00000
18.49017 7.03348 4.00000
18.57989 7.03348 4.00000
18.66960 7.03348 4.00000
18.75932 7.03348 4.00000
18.84905 7.03348 4.00000
18.93878 7.03348 4.00000
19.02853 7.03348 4.00000
19.11827 7.03348 4.00000
19.20802 7.03348 4.00000
19.29778 7.03348 4.00000
19.38755 7.03348 4.00000
19.47732 7.03348 4.00000
19.56710 7.03348 4.00000
19.65689 7.03348 4.00000
19.74668 7.03348 4.00000
19.83648 7.03348 4.00000
19.92629 7.03348 4.00000
20.01610 7.03348 4.00000
20.10592 7.03348 4.00000
20.19575 7.03348 4.00000
20.28558 7.03348 4.00000
20.37542 7.03348 4.00000
20.46526 7.03348 4.00000
20.55511 7.03348 4.00000
20.64496 7.03348 4.00000
20.73482 7.03348 4.00000
20.82469 7.03348 4.00000
20.91456 7.03348 4.00000
21.00444 7.03348 4.00000
21.09433 7.03348 4.00000
21.18422 7.03348 4.00000
21.27412 7.03348 4.00000
21.36402 7.03348 4.00000
21.45392 7.03348 4.00000
21.54384 7.03348 4.00000
21.63375 7.03348 4.00000
21.72367 7.03348 4.00000
21.81360 7.03348 4.00000
21.90353 7.03348 4.00000
21.99347 7.03348 4.00000
22.08341 7.03348 4.00000
22.17335 7.03348 4.00000
22.26330 7.03348 4.00000
22.35326 7.03348 4.00000
22.44322 7.03348 4.00000
22.53318 7.03348 4.00000
22.62315 7.03348 4.00000
22.71312 7.03348 4.00000
22.80310 7.03348 4.00000
22.89308 7.03348 4.00000
22.98306 7.03348 4.00000
23.07305 7.03348 4.00000
23.16304 7.03348 4.00000
23.25304 7.03348 4.00000
23.34304 7.03348 4.00000
23.43305 7.03348 4.00000
23.52306 7.03348 4.00000
23.61307 7.03348 4.00000
23.70309 7.03348 4.00000
23.79311 7.03349 4.00000

