Angle 0.053362 5.054711

4.00000 7.03348 4.00000
4.00000 7.03348 4.00000
4.00000 7.03348 4.00000
4.00000 7.03348 4.00000
4.00000 7.03348 4.00000
4.00000 7.03348 4.00000
4.00000 7.03348 4.00000
4.00000 7.03348 4.00000
4.00000 7.03348 4.00000
4.00000 7.03348 4.00000
4.00000 7.03348 4.00000
4.00000 7.03348 4.00000
4.00000 7.03348 4.00000
4.00000 7.03349 4.00000
4.00000 7.03347 4.00000
4.00000 7.03348 4.00000
4.00000 7.03348 4.00000
4.00000 7.03348 4.00000
4.00000 7.03347 4.00000
4.00000 7.03348 4.00000
4.00000 7.03348 4.00000
4.00000 7.03348 4.00000
4.00000 7.03348 4.00000
4.00000 7.03348 4.00000
4.00000 7.03348 4.00000
4.00000 7.03348 4.00000
4.00000 7.03348 4.00000
4.00000 7.03348 4.00000
4.00000 7.03348 4.00000
4.00000 7.03348 4.00000
4.00000 7.03348 4.00000
4.00000 7.03348 4.00000
4.00000 7.03348 4.00000
4.00000 7.03348 4.00000
4.00000 7.03348 4.00000
4.00000 7.03348 4.00000
4.00000 7.03348 4.00000
4.00000 7.03349 4.00000
4.00000 7.03351 4.00000
4.00000 7.03349 4.00000
4.00000 7.03348 4.00000
4.00000 7.03348 4.00000
4.00000 7.03348 4.00000
4.00000 7.03348 4.00000
4.00000 7.03348 4.00000
4.00000 7.03348 4.00000
4.00000 7.03348 4.00000
4.00000 7.03350 4.00000
4.00000 7.03348 4.00000
4.00000 7.03347 4.00000
4.00000 7.03348 4.00000
4.00000 7.03348 4.00000
4.00000 7.03348 4.00000
4.00000 7.03348 4.00000
4.00000 7.03348 4.00000
4.00000 7.03348 4.00000
4.00000 7.03348 4.00000
4.00000 7.03348 4.00000
4.00000 7.03354 4.00000
4.00000 7.03347 4.00000
4.00000 7.03348 4.00000
4.00316 7.08227 4.00316
4.00680 7.13924 4.00680
4.01042 7.19657 4.01042
4.01402 7.25424 4.01402
4.01761 7.31222 4.01761
4.02120 7.37049 4.02120
4.02480 7.42903 4.02480
4.02841 7.48780 4.02841
4.03203 7.54679 4.03203
4.03569 7.60596 4.03569
4.03939 7.66529 4.03939
4.04314 7.72474 4.04314
4.04695 7.78429 4.04695
4.05083 7.84389 4.05083
4.05479 7.90351 4.05479
4.05886 7.96311 4.05886
4.06304 8.02264 4.06304
4.06735 8.08206 4.06735
4.07182 8.14130 4.07182
4.07647 8.20031 4.07647
4.08131 8.25901 4.08131
4.08639 8.31733 4.08639
4.09174 8.37518 4.09174
4.09739 8.43245 4.09739
4.10339 8.48903 4.10339
4.10980 8.54480 4.10980
4.11667 8.59959 4.11667
4.12406 8.65324 4.12406
4.13203 8.70567 4.13203
4.14050 8.75702 4.14050
4.14952 8.80725 4.14952
4.15909 8.85631 4.15909
4.16925 8.90415 4.16925
4.18002 8.95073 4.18002
4.19141 8.99600 4.19141
4.20345 9.03993 4.20346
4.21617 9.08250 4.21616
4.22956 9.12368 4.22956
4.24364 9.16345 4.24364
4.25844 9.20179 4.25844
4.27395 9.23870 4.27395
4.29020 9.27416 4.29020
4.30718 9.30816 4.30718
4.32492 9.34068 4.32492
4.34342 9.37171 4.34342
4.36271 9.40122 4.36271
4.38279 9.42918 4.38279
4.40370 9.45554 4.40371
4.42547 9.48023 4.42547
4.44814 9.50318 4.44814
4.47175 9.52427 4.47175
4.49637 9.54338 4.49637
4.52207 9.56034 4.52207
4.54894 9.57496 4.54894
4.57709 9.58702 4.57708
4.60661 9.59628 4.60662
4.63763 9.60247 4.63766
4.67030 9.60532 4.67031
4.02950 7.50556 7.40792
4.02527 7.43670 7.55301
4.02203 7.38392 7.68186
4.01942 7.34151 7.80029
4.01725 7.30641 7.91142
4.01542 7.27677 8.01715
4.01384 7.25137 8.11871
4.01247 7.22934 8.21697
4.01127 7.21009 8.31254
4.01020 7.19312 8.40593
4.00926 7.17809 8.49748
4.00841 7.16471 8.58748
4.00766 7.15275 8.67618
4.00698 7.14202 8.76375
4.00637 7.13237 8.85036
4.00581 7.12367 8.93614
4.00531 7.11580 9.02118
4.00486 7.10868 9.10560
4.00444 7.10222 9.18948
4.00406 7.09633 9.27289
4.00372 7.09100 9.35585
4.00341 7.08615 9.43846
4.00313 7.08171 9.52075
4.00287 7.07766 9.60278
4.00263 7.07397 9.68455
4.00241 7.07060 9.76612
4.00221 7.06752 9.84750
4.00203 7.06468 9.92876
4.00186 7.06211 10.00985
4.00170 7.05974 10.09085
4.00157 7.05757 10.17174
4.00144 7.05558 10.25257
4.00132 7.05376 10.33333
4.00121 7.05209 10.41406
4.00111 7.05055 10.49474
4.00102 7.04915 10.57539
4.00094 7.04786 10.65603
4.00086 7.04668 10.73666
4.00079 7.04559 10.81729
4.00073 7.04460 10.89793
4.00066 7.04368 10.97859
4.00061 7.04285 11.05926
4.00056 7.04207 11.13996
4.00052 7.04137 11.22069
4.00047 7.04072 11.30145
4.00043 7.04012 11.38225
4.00040 7.03957 11.46309
4.00037 7.03907 11.54398
4.00033 7.03861 11.62491
4.00031 7.03819 11.70589
4.00028 7.03780 11.78693
4.00026 7.03744 11.86801
4.00024 7.03711 11.94915
4.00022 7.03681 12.03035
4.00020 7.03654 12.11160
4.00018 7.03628 12.19291
4.00017 7.03605 12.27428
4.00016 7.03584 12.35572
4.00014 7.03564 12.43721
4.00013 7.03546 12.51876
4.00012 7.03530 12.60038
4.00011 7.03515 12.68205
4.00010 7.03501 12.76379
4.00009 7.03488 12.84559
4.00008 7.03476 12.92746
4.00008 7.03466 13.00938
4.00007 7.03456 13.09137
4.00007 7.03447 13.17342
4.00006 7.03439 13.25554
4.00005 7.03431 13.33771
4.00005 7.03424 13.41995
4.00004 7.03418 13.50225
4.00004 7.03412 13.58461
4.00004 7.03407 13.66703
4.00004 7.03401 13.74953
4.00003 7.03397 13.83204
4.00003 7.03393 13.91464
4.00003 7.03389 13.99731
4.00002 7.03386 14.08003
4.00002 7.03383 14.16282
4.00002 7.03380 14.24566
4.00002 7.03377 14.32856
4.00002 7.03374 14.41154
4.00002 7.03372 14.49455
4.00001 7.03370 14.57765
4.00001 7.03368 14.66078
4.00001 7.03367 14.74399
4.00001 7.03365 14.82724
4.00001 7.03364 14.91056
4.00001 7.03362 14.99391
4.00001 7.03362 15.07733
4.00001 7.03360 15.16082
4.00001 7.03359 15.24436
4.00001 7.03358 15.32794
4.00001 7.03357 15.41159
4.00001 7.03356 15.49524
4.00000 7.03355 15.57895
4.00000 7.03355 15.66269
4.00000 7.03354 15.74649
4.00000 7.03354 15.83035
4.00000 7.03353 15.91424
4.00000 7.03353 15.99819
4.00000 7.03353 16.08218
4.00000 7.03352 16.16622
4.00000 7.03352 16.25031
4.00000 7.03351 16.33445
4.00000 7.03351 16.41863
4.00000 7.03351 16.50285
4.00000 7.03351 16.58713
4.00000 7.03350 16.67144
4.00000 7.03350 16.75580
4.00000 7.03350 16.84021
4.00000 7.03350 16.92466
4.00000 7.03350 17.00915
4.00000 7.03349 17.09368
4.00000 7.03349 17.17826
4.00000 7.03349 17.26288
4.00000 7.03349 17.34754
4.00000 7.03349 17.43223
4.00000 7.03349 17.51696
4.00000 7.03349 17.60174
4.00000 7.03349 17.68655
4.00000 7.03349 17.77141
4.00000 7.03349 17.85631
4.00000 7.03349 17.94124
4.00000 7.03348 18.02622
4.00000 7.03348 18.11123
4.00000 7.03348 18.19628
4.00000 7.03348 18.28136
4.00000 7.03348 18.36649
4.00000 7.03348 18.45165
4.00000 7.03348 18.53685
4.00000 7.03348 18.62208
4.00000 7.03348 18.70735
4.00000 7.03348 18.79265
4.00000 7.03348 18.87799
4.00000 7.03348 18.96336
4.00000 7.03348 19.04877
4.00000 7.03348 19.13421
4.00000 7.03348 19.21968
4.00000 7.03348 19.30519
4.00000 7.03348 19.39073
4.00000 7.03348 19.47630
4.00000 7.03348 19.56191
4.00000 7.03348 19.64754
4.00000 7.03348 19.73321
4.00000 7.03348 19.81891
4.00000 7.03348 19.90464
4.00000 7.03348 19.99040
4.00000 7.03347 20.07619
4.00000 7.03348 20.16200
4.00000 7.03348 20.24786
4.00000 7.03348 20.33374
4.00000 7.03348 20.41965
4.00000 7.03348 20.50558
4.00000 7.03348 20.59154
4.00000 7.03348 20.67754
4.00000 7.03347 20.76357
4.00000 7.03348 20.84961
4.00000 7.03348 20.93569
4.00000 7.03348 21.02180
4.00000 7.03347 21.10794
4.00000 7.03348 21.19410
4.00000 7.03348 21.28028
4.00000 7.03347 21.36650
4.00000 7.03348 21.45273
4.00000 7.03348 21.53900
4.00000 7.03348 21.62529
4.00000 7.03347 21.71161
4.00000 7.03348 21.79795
4.00000 7.03348 21.88432
4.00000 7.03348 21.97071
4.00000 7.03347 22.05713
4.00000 7.03348 22.14357
4.00000 7.03348 22.23004
4.00000 7.03348 22.31652
4.00000 7.03348 22.40303
4.00000 7.03348 22.48956
4.00000 7.03348 22.57613
4.00000 7.03348 22.66270
4.00000 7.03348 22.74931
4.00000 7.03348 22.83593
4.00000 7.03348 22.92258
4.00000 7.03348 23.00925
4.00000 7.03348 23.09592
4.00000 7.03348 23.18263
4.00000 7.03348 23.26936
4.00000 7.03348 23.35610
4.00000 7.03348 23.44286
4.00000 7.03348 23.52964
4.00000 7.03348 23.61643
4.00000 7.03348 23.70325
4.00000 7.03348 23.79009
4.00000 7.03348 23.87695
4.00000 7.03348 23.96382
4.00000 7.03348 24.05072
4.00000 7.03348 24.13763
4.00000 7.03348 24.22457
4.00000 7.03348 24.31152
4.00000 7.03348 24.39849
4.00000 7.03348 24.48548
4.00000 7.03348 24.57249
4.00000 7.03348 24.65951
4.00000 7.03348 24.74655
4.00000 7.03348 24.83361
4.00000 7.03348 24.92069
4.00000 7.03348 25.00779
4.00000 7.03348 25.09490
4.00000 7.03348 25.18203
4.00000 7.03348 25.26918
4.00000 7.03348 25.35634
4.00000 7.03348 25.44352
4.00000 7.03348 25.53072
4.00000 7.03348 25.61793
4.00000 7.03348 25.70516
4.00000 7.03348 25.79240
4.00000 7.03348 25.87966
4.00000 7.03348 25.96694
4.00000 7.03348 26.05423
4.00000 7.03348 26.14153
4.00000 7.03348 26.22885
4.00000 7.03348 26.31619
4.00000 7.03348 26.40354
4.00000 7.03348 26.49090
4.00000 7.03348 26.57828
4.00000 7.03348 26.66567
4.00000 7.03348 26.75308
4.00000 7.03348 26.84050
4.00000 7.03348 26.92794
4.00000 7.03348 27.01539
4.00000 7.03348 27.10285
4.00000 7.03348 27.19033
4.00000 7.03348 27.27782
4.00000 7.03348 27.36533
4.00000 7.03348 27.45285
4.00000 7.03348 27.54038
4.00000 7.03348 27.62792
4.00000 7.03348 27.71548
4.00000 7.03348 27.80305
4.00000 7.03348 27.89064
4.00000 7.03348 27.97823
4.00000 7.03348 28.06584
4.00000 7.03348 28.15347
4.00000 7.03348 28.24110
4.00000 7.03348 28.32875
4.00000 7.03348 28.41641
4.00000 7.03349 28.50408
4.00000 7.03349 28.59178
4.00000 7.03348 28.67950
4.00000 7.03349 28.76721
4.00000 7.03349 28.85494
4.00000 7.03348 28.94270
4.00000 7.03348 29.03045
4.00000 7.03349 29.11821
4.00000 7.03348 29.20600
4.00000 7.03348 29.29378
4.00000 7.03348 29.38158
4.00000 7.03349 29.46939
4.00000 7.03349 29.55721
4.00000 7.03348 29.64505
4.00000 7.03348 29.73290
4.00000 7.03348 29.82075
4.00000 7.03348 29.90862
4.00000 7.03348 29.99650
4.00000 7.03348 30.08439
4.00000 7.03348 30.17228
4.00000 7.03348 30.26020
4.00000 7.03348 30.34812
4.00000 7.03348 30.43605
4.00000 7.03348 30.52399
4.00000 7.03348 30.61194
4.00000 7.03348 30.69991
4.00000 7.03348 30.78788
4.00000 7.03348 30.87587
4.00000 7.03348 30.96387
4.00000 7.03348 31.05188
4.00000 7.03348 31.13991
4.00000 7.03348 31.22794
4.00000 7.03348 31.31599
4.00000 7.03348 31.40405
4.00000 7.03348 31.49212

Angle 0.087520 4.555280

4.00000 7.03344 4.00000
4.00000 7.03346 4.00000
4.00000 7.03346 4.00000
4.00000 7.03346 4.00000
4.00000 7.03347 4.00000
4.00000 7.03347 4.00000
4.00000 7.03347 4.00000
4.00000 7.03347 4.00000
4.00000 7.03347 4.00000
4.00000 7.03348 4.00000
4.00000 7.03348 4.00000
4.00000 7.03348 4.00000
4.00000 7.03348 4.00000
4.00000 7.03348 4.00000
4.00000 7.03348 4.00000
4.00000 7.03348 4.00000
4.00000 7.03348 4.00000
4.00000 7.03348 4.00000
4.00000 7.03349 4.00000
4.00000 7.03349 4.00000
4.00000 7.03347 4.00000
4.00000 7.03348 4.00000
4.00000 7.03348 4.00000
4.00000 7.03348 4.00000
4.00000 7.03348 4.00000
4.00000 7.03348 4.00000
4.00000 7.03347 4.00000
4.00000 7.03347 4.00000
4.00000 7.03348 4.00000
4.00000 7.03348 4.00000
4.00000 7.03348 4.00000
4.00000 7.03348 4.00000
4.00000 7.03348 4.00000
4.00000 7.03348 4.00000
4.00000 7.03347 4.00000
4.00000 7.03348 4.00000
4.00000 7.03348 4.00000
4.00000 7.03348 4.00000
4.00000 7.03348 4.00000
4.00000 7.03348 4.00000
4.00000 7.03348 4.00000
4.00000 7.03348 4.00000
4.00000 7.03348 4.00000
4.00000 7.03348 4.00000
4.00000 7.03348 4.00000
4.00000 7.03348 4.00000
4.00000 7.03348 4.00000
4.00000 7.03348 4.00000
4.00000 7.03348 4.00000
4.00000 7.03348 4.00000
4.00000 7.03348 4.00000
4.00000 7.03348 4.00000
4.00000 7.03347 4.00000
4.00000 7.03347 4.00000
4.00000 7.03348 4.00000
4.00000 7.03348 4.00000
4.00000 7.03348 4.00000
4.00000 7.03348 4.00000
4.00000 7.03348 4.00000
4.00000 7.03347 4.00000
4.00000 7.03348 4.00000
4.00000 7.03348 4.00000
4.00000 7.03348 4.00000
4.00000 7.03348 4.00000
4.00000 7.03348 4.00000
4.00000 7.03348 4.00000
4.00000 7.03348 4.00000
4.00000 7.03348 4.00000
4.00000 7.03348 4.00000
4.00000 7.03348 4.00000
4.00000 7.03348 4.00000
4.00000 7.03349 4.00000
4.00000 7.03349 4.00000
4.00000 7.03350 4.00000
4.00000 7.03349 4.00000
4.00000 7.03349 4.00000
4.00000 7.03348 4.00000
4.00000 7.03348 4.00000
4.00000 7.03348 4.00000
4.00000 7.03348 4.00000
4.00000 7.03348 4.00000
4.00000 7.03348 4.00000
4.00000 7.03348 4.00000
4.00000 7.03348 4.00000
4.00000 7.03348 4.00000
4.00000 7.03348 4.00000
4.00000 7.03348 4.00000
4.00000 7.03348 4.00000
4.00000 7.03348 4.00000
4.00000 7.03350 4.00000
4.00000 7.03350 4.00000
4.00000 7.03350 4.00000
4.00000 7.03350 4.00000
4.00000 7.03350 4.00000
4.00000 7.03350 4.00000
4.00000 7.03348 4.00000
4.00000 7.03348 4.00000
4.00000 7.03348 4.00000
4.00000 7.03348 4.00000
4.00000 7.03348 4.00000
4.00000 7.03348 4.00000
4.00000 7.03348 4.00000
4.00000 7.03348 4.00000
4.00000 7.03348 4.00000
4.00000 7.03348 4.00000
4.00000 7.03348 4.00000
4.00000 7.03348 4.00000
4.00000 7.03348 4.00000
4.00000 7.03348 4.00000
4.00000 7.03348 4.00000
4.00000 7.03348 4.00000
4.00000 7.03348 4.00000
4.00000 7.03348 4.00000
4.00000 7.03348 4.00000
4.00000 7.03348 4.00000
4.00000 7.03348 4.00000
4.00000 7.03348 4.00000
4.00000 7.03346 4.00000
4.00000 7.03347 4.00000
4.00000 7.03348 4.00000
4.00000 7.03348 4.00000
4.00000 7.03348 4.00000
4.00000 7.03349 4.00000
4.00000 7.03353 4.00000
4.00359 7.08898 4.00359
4.00767 7.15292 4.00767
4.01171 7.21717 4.01171
4.01573 7.28171 4.01573
4.01973 7.34650 4.01973
4.02372 7.41152 4.02372
4.02773 7.47672 4.02772
4.03174 7.54207 4.03174
4.03579 7.60754 4.03579
4.03988 7.67308 4.03988
4.04402 7.73868 4.04403
4.04824 7.80426 4.04824
4.05254 7.86979 4.05254
4.05695 7.93524 4.05694
4.06147 8.00053 4.06147
4.06614 8.06561 4.06614
4.07099 8.13041 4.07099
4.07603 8.19485 4.07603
4.08130 8.25886 4.08130
4.08684 8.32232 4.08684
4.09269 8.38514 4.09269
4.09891 8.44718 4.09891
4.10555 8.50829 4.10555
4.11267 8.56831 4.11267
4.12036 8.62704 4.12036
4.12870 8.68428 4.12870
4.13764 8.74015 4.13764
4.14719 8.79468 4.14719
4.15737 8.84780 4.15737
4.16822 8.89946 4.16822
4.17975 8.94962 4.17975
4.19200 8.99822 4.19200
4.20498 9.04523 4.20498
4.21872 9.09062 4.21872
4.23323 9.13437 4.23323
4.24852 9.17646 4.24852
4.26462 9.21688 4.26462
4.28153 9.25562 4.28153
4.29926 9.29267 4.29926
4.31783 9.32802 4.31783
4.33724 9.36165 4.33724
4.35752 9.39355 4.35752
4.37868 9.42368 4.37868
4.40075 9.45198 4.40075
4.42377 9.47840 4.42377
4.44777 9.50283 4.44777
4.47283 9.52517 4.47283
4.49899 9.54525 4.49900
4.52637 9.56289 4.52637
4.55505 9.57786 4.55505
4.58516 9.58989 4.58516
4.61684 9.59871 4.61684
4.65015 9.60399 4.65028
4.03253 7.55471 7.31639
4.02722 7.46853 7.48316
4.02338 7.40589 7.62602
4.02038 7.35713 7.75487
4.01795 7.31764 7.87440
4.01592 7.28481 7.98725
4.01419 7.25703 8.09508
4.01271 7.23320 8.19899
4.01142 7.21254 8.29979
4.01029 7.19448 8.39805
4.00929 7.17860 8.49420
4.00840 7.16454 8.58860
4.00762 7.15207 8.68150
4.00691 7.14095 8.77313
4.00628 7.13097 8.86369
4.00571 7.12202 8.95330
4.00519 7.11398 9.04209
4.00473 7.10673 9.13018
4.00431 7.10018 9.21765
4.00393 7.09424 9.30460
4.00358 7.08888 9.39106
4.00327 7.08402 9.47709
4.00299 7.07959 9.56278
4.00273 7.07557 9.64815
4.00250 7.07195 9.73321
4.00228 7.06860 9.81808
4.00208 7.06556 9.90272
4.00191 7.06280 9.98716
4.00174 7.06028 10.07146
4.00159 7.05798 10.15561
4.00146 7.05588 10.23964
4.00133 7.05397 10.32358
4.00122 7.05222 10.40742
4.00112 7.05061 10.49121
4.00102 7.04919 10.57488
4.00094 7.04782 10.65858
4.00086 7.04660 10.74221
4.00078 7.04546 10.82583
4.00072 7.04446 10.90940
4.00065 7.04353 10.99297
4.00060 7.04268 11.07653
4.00055 7.04190 11.16009
4.00050 7.04118 11.24367
4.00046 7.04052 11.32725
4.00042 7.03992 11.41085
4.00038 7.03936 11.49448
4.00035 7.03887 11.57810
4.00032 7.03841 11.66176
4.00030 7.03799 11.74545
4.00027 7.03761 11.82918
4.00024 7.03723 11.91296
4.00022 7.03693 11.99673
4.00020 7.03664 12.08055
4.00019 7.03637 12.16441
4.00017 7.03612 12.24832
4.00016 7.03591 12.33225
4.00014 7.03569 12.41625
4.00013 7.03551 12.50027
4.00012 7.03533 12.58435
4.00011 7.03517 12.66847
4.00010 7.03503 12.75262
4.00009 7.03489 12.83684
4.00008 7.03477 12.92109
4.00008 7.03466 13.00539
4.00007 7.03456 13.08972
4.00006 7.03447 13.17411
4.00006 7.03438 13.25855
4.00005 7.03430 13.34303
4.00005 7.03423 13.42755
4.00004 7.03417 13.51213
4.00004 7.03411 13.59675
4.00004 7.03406 13.68141
4.00003 7.03401 13.76612
4.00003 7.03396 13.85086
4.00003 7.03392 13.93565
4.00003 7.03388 14.02050
4.00002 7.03385 14.10538
4.00002 7.03381 14.19031
4.00002 7.03379 14.27528
4.00002 7.03376 14.36030
4.00002 7.03373 14.44536
4.00001 7.03371 14.53046
4.00001 7.03369 14.61561
4.00001 7.03367 14.70080
4.00001 7.03366 14.78602
4.00001 7.03364 14.87129
4.00001 7.03363 14.95660
4.00001 7.03361 15.04195
4.00001 7.03360 15.12734
4.00001 7.03359 15.21277
4.00001 7.03358 15.29825
4.00001 7.03357 15.38376
4.00001 7.03356 15.46932
4.00000 7.03355 15.55492
4.00000 7.03355 15.64056
4.00000 7.03354 15.72623
4.00000 7.03354 15.81194
4.00000 7.03353 15.89770
4.00000 7.03353 15.98348
4.00000 7.03352 16.06931
4.00000 7.03351 16.15518
4.00000 7.03351 16.24107
4.00000 7.03351 16.32701
4.00000 7.03350 16.41298
4.00000 7.03351 16.49898
4.00000 7.03351 16.58501
4.00000 7.03350 16.67108
4.00000 7.03350 16.75718
4.00000 7.03350 16.84333
4.00000 7.03350 16.92949
4.00000 7.03350 17.01569
4.00000 7.03349 17.10192
4.00000 7.03349 17.18819
4.00000 7.03349 17.27448
4.00000 7.03349 17.36080
4.00000 7.03349 17.44715
4.00000 7.03349 17.53353
4.00000 7.03349 17.61994
4.00000 7.03349 17.70638
4.00000 7.03349 17.79286
4.00000 7.03349 17.87936
4.00000 7.03349 17.96589
4.00000 7.03349 18.05245
4.00000 7.03348 18.13904
4.00000 7.03348 18.22566
4.00000 7.03348 18.31230
4.00000 7.03348 18.39896
4.00000 7.03348 18.48565
4.00000 7.03348 18.57237
4.00000 7.03348 18.65911
4.00000 7.03348 18.74588
4.00000 7.03348 18.83266
4.00000 7.03348 18.91947
4.00000 7.03348 19.00631
4.00000 7.03348 19.09317
4.00000 7.03348 19.18005
4.00000 7.03348 19.26696
4.00000 7.03348 19.35389
4.00000 7.03348 19.44084
4.00000 7.03348 19.52782
4.00000 7.03348 19.61482
4.00000 7.03348 19.70184
4.00000 7.03348 19.78889
4.00000 7.03348 19.87595
4.00000 7.03348 19.96304
4.00000 7.03348 20.05015
4.00000 7.03348 20.13729
4.00000 7.03348 20.22444
4.00000 7.03348 20.31162
4.00000 7.03347 20.39882
4.00000 7.03348 20.48604
4.00000 7.03348 20.57329
4.00000 7.03347 20.66055
4.00000 7.03348 20.74783
4.00000 7.03348 20.83512
4.00000 7.03348 20.92244
4.00000 7.03349 21.00978
4.00000 7.03348 21.09715
4.00000 7.03348 21.18452
4.00000 7.03348 21.27191
4.00000 7.03348 21.35933
4.00000 7.03347 21.44677
4.00000 7.03348 21.53422
4.00000 7.03348 21.62169
4.00000 7.03348 21.70918
4.00000 7.03347 21.79670
4.00000 7.03348 21.88422
4.00000 7.03348 21.97176
4.00000 7.03348 22.05932
4.00000 7.03348 22.14690
4.00000 7.03348 22.23450
4.00000 7.03348 22.32211
4.00000 7.03348 22.40974
4.00000 7.03348 22.49739
4.00000 7.03348 22.58505
4.00000 7.03348 22.67274
4.00000 7.03348 22.76043
4.00000 7.03348 22.84815
4.00000 7.03348 22.93588
4.00000 7.03348 23.02363
4.00000 7.03348 23.11139
4.00000 7.03348 23.19917
4.00000 7.03348 23.28697
4.00000 7.03348 23.37478
4.00000 7.03348 23.46261
4.00000 7.03348 23.55045
4.00000 7.03348 23.63831
4.00000 7.03347 23.72619
4.00000 7.03348 23.81408
4.00000 7.03348 23.90199
4.00000 7.03348 23.98992
4.00000 7.03348 24.07786
4.00000 7.03348 24.16582
4.00000 7.03348 24.25378
4.00000 7.03348 24.34177
4.00000 7.03348 24.42977
4.00000 7.03348 24.51778
4.00000 7.03348 24.60580
4.00000 7.03348 24.69384
4.00000 7.03348 24.78190
4.00000 7.03348 24.86996
4.00000 7.03348 24.95804
4.00000 7.03348 25.04614
4.00000 7.03348 25.13425
4.00000 7.03348 25.22237
4.00000 7.03348 25.31050
4.00000 7.03348 25.39865
4.00000 7.03348 25.48681
4.00000 7.03348 25.57498
4.00000 7.03348 25.66316
4.00000 7.03348 25.75136
4.00000 7.03348 25.83957
4.00000 7.03348 25.92779
4.00000 7.03348 26.01603
4.00000 7.03348 26.10428
4.00000 7.03348 26.19254
4.00000 7.03348 26.28081
4.00000 7.03348 26.36909
4.00000 7.03348 26.45739
4.00000 7.03348 26.54570
4.00000 7.03348 26.63402
4.00000 7.03348 26.72235
4.00000 7.03348 26.81069

Angle 0.308258 1.670023

4.00000 7.03348 4.00000
4.00000 7.03348 4.00000
4.00000 7.03348 4.00000
4.00000 7.03348 4.00000
4.00000 7.03348 4.00000
4.00000 7.03348 4.00000
4.00000 7.03348 4.00000
4.00000 7.03348 4.00000
4.00000 7.03348 4.00000
4.00000 7.03348 4.00000
4.00000 7.03348 4.00000
4.00000 7.03348 4.00000
4.00000 7.03348 4.00000
4.00000 7.03348 4.00000
4.00000 7.03348 4.00000
4.00000 7.03348 4.00000
4.00000 7.03348 4.00000
4.00000 7.03348 4.00000
4.00000 7.03348 4.00000
4.00000 7.03348 4.00000
4.00000 7.03348 4.00000
4.00000 7.03348 4.00000
4.00000 7.03345 4.00000
4.00000 7.03348 4.00000
4.00000 7.03348 4.00000
4.00000 7.03348 4.00000
4.00000 7.03348 4.00000
4.00000 7.03348 4.00000
4.00000 7.03348 4.00000
4.00000 7.03348 4.00000
4.00000 7.03348 4.00000
4.00000 7.03348 4.00000
4.00000 7.03348 4.00000
4.00000 7.03345 4.00000
4.00000 7.03346 4.00000
4.00000 7.03346 4.00000
4.00000 7.03347 4.00000
4.00000 7.03347 4.00000
4.00000 7.03347 4.00000
4.00000 7.03348 4.00000
4.00000 7.03348 4.00000
4.00000 7.03348 4.00000
4.00000 7.03348 4.00000
4.00000 7.03348 4.00000
4.00000 7.03348 4.00000
4.00000 7.03348 4.00000
4.00000 7.03348 4.00000
4.00000 7.03348 4.00000
4.00000 7.03348 4.00000
4.00000 7.03348 4.00000
4.00000 7.03348 4.00000
4.00000 7.03349 4.00000
4.00000 7.03348 4.00000
4.00000 7.03348 4.00000
4.00000 7.03348 4.00000
4.00000 7.03348 4.00000
4.00000 7.03348 4.00000
4.00000 7.03348 4.00000
4.00000 7.03348 4.00000
4.00000 7.03348 4.00000
4.00000 7.03348 4.00000
4.00000 7.03348 4.00000
4.00000 7.03350 4.00000
4.00000 7.03349 4.00000
4.00000 7.03348 4.00000
4.00000 7.03348 4.00000
4.00000 7.03348 4.00000
4.00000 7.03348 4.00000
4.00000 7.03348 4.00000
4.00000 7.03348 4.00000
4.00000 7.03348 4.00000
4.00000 7.03348 4.00000
4.00000 7.03348 4.00000
4.00000 7.03348 4.00000
4.00000 7.03348 4.00000
4.00000 7.03348 4.00000
4.00000 7.03348 4.00000
4.00000 7.03348 4.00000
4.00000 7.03348 4.00000
4.00000 7.03348 4.00000
4.00000 7.03348 4.00000
4.00000 7.03348 4.00000
4.00000 7.03348 4.00000
4.00000 7.03348 4.00000
4.00000 7.03348 4.00000
4.00000 7.03348 4.00000
4.00000 7.03348 4.00000
4.00000 7.03348 4.00000
4.00000 7.03348 4.00000
4.00000 7.03347 4.00000
4.00000 7.03348 4.00000
4.00000 7.03348 4.00000
4.00000 7.03348 4.00000
4.00000 7.03348 4.00000
4.00000 7.03348 4.00000
4.00000 7.03348 4.00000
4.00000 7.03348 4.00000
4.00000 7.03348 4.00000
4.00000 7.03348 4.00000
4.00000 7.03348 4.00000
4.00000 7.03348 4.00000
4.00000 7.03348 4.00000
4.00000 7.03348 4.00000
4.00000 7.03348 4.00000
4.00000 7.03348 4.00000
4.00000 7.03348 4.00000
4.00000 7.03348 4.00000
4.00000 7.03348 4.00000
4.00000 7.03348 4.00000
4.00000 7.03350 4.00000
4.00000 7.03349 4.00000
4.00000 7.03348 4.00000
4.00000 7.03348 4.00000
4.00000 7.03348 4.00000
4.00000 7.03348 4.00000
4.00000 7.03348 4.00000
4.00000 7.03348 4.00000
4.00000 7.03348 4.00000
4.00000 7.03348 4.00000
4.00000 7.03348 4.00000
4.00000 7.03348 4.00000
4.00000 7.03348 4.00000
4.00000 7.03348 4.00000
4.00000 7.03349 4.00000
4.00000 7.03348 4.00000
4.00000 7.03347 4.00000
4.00000 7.03348 4.00000
4.00000 7.03348 4.00000
4.00000 7.03348 4.00000
4.00000 7.03348 4.00000
4.00000 7.03348 4.00000
4.00000 7.03348 4.00000
4.00000 7.03348 4.00000
4.00000 7.03348 4.00000
4.00000 7.03348 4.00000
4.00000 7.03348 4.00000
4.00000 7.03348 4.00000
4.00000 7.03348 4.00000
4.00000 7.03348 4.00000
4.00000 7.03348 4.00000
4.00000 7.03348 4.00000
4.00000 7.03348 4.00000
4.00000 7.03348 4.00000
4.00000 7.03348 4.00000
4.00000 7.03348 4.00000
4.00000 7.03347 4.00000
4.00000 7.03348 4.00000
4.00000 7.03345 4.00000
4.00000 7.03347 4.00000
4.00000 7.03348 4.00000
4.00000 7.03348 4.00000
4.00000 7.03348 4.00000
4.00000 7.03348 4.00000
4.00000 7.03348 4.00000
4.00000 7.03348 4.00000
4.00000 7.03348 4.00000
4.00000 7.03347 4.00000
4.00000 7.03348 4.00000
4.00000 7.03348 4.00000
4.00000 7.03348 4.00000
4.00000 7.03347 4.00000
4.00000 7.03348 4.00000
4.00000 7.03348 4.00000
4.00000 7.03349 4.00000
4.00000 7.03348 4.00000
4.00000 7.03348 4.00000
4.00000 7.03345 4.00000
4.00000 7.03348 4.00000
4.00000 7.03348 4.00000
4.00000 7.03347 4.00000
4.00000 7.03348 4.00000
4.00000 7.03348 4.00000
4.00000 7.03348 4.00000
4.00000 7.03347 4.00000
4.00000 7.03349 4.00000
4.00000 7.03348 4.00000
4.00000 7.03348 4.00000
4.00000 7.03352 4.00000
4.00000 7.03348 4.00000
4.00000 7.03348 4.00000
4.00384 7.09284 4.00384
4.00823 7.16174 4.00823
4.01257 7.23092 4.01257
4.01688 7.30034 4.01688
4.02117 7.36996 4.02117
4.02546 7.43974 4.02546
4.02975 7.50965 4.02975
4.03406 7.57965 4.03406
4.03842 7.64967 4.03842
4.04282 7.71970 4.04282
4.04730 7.78966 4.04730
4.05186 7.85952 4.05186
4.05653 7.92921 4.05653
4.06134 7.99867 4.06134
4.06631 8.06784 4.06631
4.07146 8.13663 4.07146
4.07684 8.20495 4.07684
4.08248 8.27270 4.08248
4.08843 8.33977 4.08843
4.09473 8.40602 4.09473
4.10146 8.47129 4.10146
4.10868 8.53541 4.10868
4.11648 8.59817 4.11648
4.12495 8.65932 4.12495
4.13413 8.71880 4.13413
4.14396 8.77677 4.14396
4.15447 8.83316 4.15447
4.16571 8.88792 4.16571
4.17769 8.94098 4.17769
4.19045 8.99231 4.19045
4.20400 9.04184 4.20400
4.21838 9.08957 4.21838
4.23360 9.13546 4.23360
4.24968 9.17950 4.24968
4.26663 9.22168 4.26663
4.28446 9.26199 4.28446
4.30318 9.30042 4.30318
4.32281 9.33696 4.32281
4.34336 9.37161 4.34336
4.36485 9.40433 4.36485
4.38730 9.43509 4.38730
4.41074 9.46382 4.41074
4.43522 9.49044 4.43522
4.46079 9.51483 4.46079
4.48753 9.53685 4.48753
4.51551 9.55629 4.51551
4.54486 9.57294 4.54486
4.57569 9.58650 4.57569
4.60815 9.59667 4.60815
4.64240 9.60311 4.64240
4.67859 9.60549 4.67859
7.45989 7.47965 4.02790
7.61074 7.41214 4.02376
7.74561 7.36042 4.02058
7.87009 7.31897 4.01803
7.98725 7.28481 4.01592
8.09895 7.25609 4.01414
8.20645 7.23159 4.01261
8.31061 7.21045 4.01129
8.41208 7.19205 4.01014
8.51128 7.17595 4.00912
8.60863 7.16175 4.00823
8.70441 7.14918 4.00743
8.79884 7.13801 4.00672
8.89214 7.12803 4.00609
8.98444 7.11912 4.00552
9.07589 7.11111 4.00501
9.16659 7.10392 4.00455
9.25663 7.09744 4.00414
9.34611 7.09161 4.00376
9.43508 7.08634 4.00342
9.52363 7.08155 4.00312
9.61177 7.07725 4.00284
9.69958 7.07333 4.00259
9.78708 7.06978 4.00236
9.87434 7.06655 4.00215
9.96137 7.06362 4.00196
10.04819 7.06095 4.00179
10.13483 7.05853 4.00163
10.22132 7.05632 4.00149
10.30766 7.05433 4.00136
10.39391 7.05249 4.00124
10.48005 7.05082 4.00113
10.56610 7.04930 4.00103
10.65207 7.04792 4.00094
10.73798 7.04666 4.00086
10.82385 7.04550 4.00078
10.90967 7.04446 4.00071
10.99545 7.04350 4.00065
11.08120 7.04263 4.00060
11.16697 7.04181 4.00054
11.25268 7.04109 4.00050
11.33839 7.04044 4.00045
11.42410 7.03983 4.00041
11.50984 7.03926 4.00038
11.59555 7.03877 4.00034
11.68128 7.03830 4.00031
11.76702 7.03788 4.00029
11.85277 7.03750 4.00026
11.93853 7.03716 4.00024
12.02433 7.03683 4.00022
12.11014 7.03654 4.00020
12.19598 7.03627 4.00018
12.28184 7.03603 4.00017
12.36772 7.03581 4.00015
12.45364 7.03560 4.00014
12.53958 7.03542 4.00013
12.62556 7.03525 4.00012
12.71155 7.03510 4.00011
12.79759 7.03495 4.00010
12.88365 7.03482 4.00009
12.96975 7.03471 4.00008
13.05588 7.03460 4.00007
13.14204 7.03450 4.00007
13.22823 7.03441 4.00006
13.31446 7.03433 4.00006
13.40072 7.03425 4.00005
13.48701 7.03419 4.00005
13.57333 7.03413 4.00004
13.65969 7.03407 4.00004
13.74609 7.03402 4.00003
13.83251 7.03397 4.00003
13.91897 7.03393 4.00003
14.00546 7.03389 4.00003
14.09198 7.03385 4.00003
14.17854 7.03382 4.00002
14.26514 7.03379 4.00002
14.35176 7.03375 4.00002
14.43841 7.03374 4.00002
14.52510 7.03373 4.00001
14.61182 7.03370 4.00001
14.69857 7.03367 4.00002
14.78535 7.03366 4.00001
14.87217 7.03363 4.00002
14.95898 7.03364 4.00001
15.04587 7.03362 4.00001
15.13278 7.03360 4.00001
15.21971 7.03359 4.00001
15.30667 7.03358 4.00000
15.39364 7.03358 4.00001
15.48066 7.03356 4.00001
15.56774 7.03356 4.00000
15.65484 7.03355 4.00000
15.74198 7.03354 4.00000
15.82914 7.03354 4.00000
15.91634 7.03353 4.00000
16.00357 7.03353 4.00000
16.09082 7.03352 4.00000
16.17811 7.03352 4.00000
16.26541 7.03351 4.00000
16.35275 7.03351 4.00000
16.44011 7.03351 4.00000
16.52750 7.03351 4.00000
16.61491 7.03350 4.00000
16.70234 7.03350 4.00000
16.78980 7.03350 4.00000
16.87728 7.03349 4.00000
16.96478 7.03349 4.00000
17.05231 7.03349 4.00000
17.13986 7.03349 4.00000
17.22743 7.03349 4.00000
17.31502 7.03349 4.00000
17.40263 7.03348 4.00000
17.49027 7.03348 4.00000
17.57793 7.03348 4.00000
17.66561 7.03348 4.00000
17.75330 7.03348 4.00000
17.84102 7.03348 4.00000
17.92876 7.03348 4.00000
18.01651 7.03349 4.00000
18.10429 7.03349 4.00000
18.19209 7.03348 4.00000
18.27990 7.03349 4.00000
18.36774 7.03348 4.00000
18.45559 7.03348 4.00000
18.54346 7.03348 4.00000
18.63134 7.03348 4.00000
18.71925 7.03348 4.00000
18.80717 7.03348 4.00000
18.89511 7.03348 4.00000
18.98306 7.03348 4.00000
19.07106 7.03348 4.00000
19.15907 7.03348 4.00000
19.24709 7.03348 4.00000
19.33514 7.03348 4.00000
19.42320 7.03348 4.00000
19.51128 7.03348 4.00000
19.59937 7.03348 4.00000
19.68748 7.03348 4.00000
19.77558 7.03348 4.00000
19.86370 7.03348 4.00000
19.95183 7.03348 4.00000
20.03997 7.03348 4.00000
20.12814 7.03348 4.00000
20.21631 7.03348 4.00000
20.30451 7.03348 4.00000
20.39271 7.03348 4.00000
20.48093 7.03348 4.00000
20.56917 7.03348 4.00000
20.65742 7.03348 4.00000
20.74569 7.03348 4.00000
20.83396 7.03348 4.00000
20.92226 7.03348 4.00000
21.01056 7.03348 4.00000
21.09889 7.03348 4.00000
21.18722 7.03348 4.00000
21.27557 7.03348 4.00000
21.36393 7.03348 4.00000
21.45231 7.03348 4.00000
21.54071 7.03348 4.00000
21.62912 7.03348 4.00000
21.71756 7.03347 4.00000
21.80597 7.03348 4.00000
21.89441 7.03348 4.00000
21.98287 7.03348 4.00000
22.07135 7.03348 4.00000
22.15984 7.03348 4.00000
22.24834 7.03348 4.00000
22.33683 7.03348 4.00000
22.42537 7.03347 4.00000

Angle 0.585331 1.132723

4.00000 7.03348 4.00000
4.00000 7.03349 4.00000
4.00000 7.03348 4.00000
4.00000 7.03348 4.00000
4.00000 7.03348 4.00000
4.00000 7.03348 4.00000
4.00000 7.03348 4.00000
4.00000 7.03348 4.00000
4.00000 7.03348 4.00000
4.00000 7.03348 4.00000
4.00000 7.03348 4.00000
4.00000 7.03348 4.00000
4.00000 7.03348 4.00000
4.00000 7.03348 4.00000
4.00000 7.03348 4.00000
4.00000 7.03348 4.00000
4.00000 7.03348 4.00000
4.00000 7.03348 4.00000
4.00000 7.03348 4.00000
4.00000 7.03348 4.00000
4.00000 7.03348 4.00000
4.00000 7.03348 4.00000
4.00000 7.03348 4.00000
4.00000 7.03348 4.00000
4.00000 7.03347 4.00000
4.00000 7.03348 4.00000
4.00000 7.03348 4.00000
4.00000 7.03348 4.00000
4.00000 7.03348 4.00000
4.00000 7.03348 4.00000
4.00000 7.03348 4.00000
4.00000 7.03348 4.00000
4.00000 7.03348 4.00000
4.00000 7.03348 4.00000
4.00000 7.03348 4.00000
4.00000 7.03348 4.00000
4.00000 7.03348 4.00000
4.00000 7.03348 4.00000
4.00000 7.03349 4.00000
4.00000 7.03348 4.00000
4.00000 7.03348 4.00000
4.00000 7.03348 4.00000
4.00000 7.03348 4.00000
4.00000 7.03348 4.00000
4.00000 7.03348 4.00000
4.00000 7.03348 4.00000
4.00000 7.03348 4.00000
4.00000 7.03347 4.00000
4.00000 7.03348 4.00000
4.00000 7.03348 4.00000
4.00000 7.03348 4.00000
4.00000 7.03348 4.00000
4.00000 7.03348 4.00000
4.00000 7.03348 4.00000
4.00000 7.03348 4.00000
4.00000 7.03348 4.00000
4.00000 7.03348 4.00000
4.00000 7.03348 4.00000
4.00000 7.03348 4.00000
4.00000 7.03348 4.00000
4.00000 7.03348 4.00000
4.00000 7.03348 4.00000
4.00000 7.03348 4.00000
4.00000 7.03348 4.00000
4.00000 7.03348 4.00000
4.00000 7.03348 4.00000
4.00000 7.03348 4.00000
4.00000 7.03348 4.00000
4.00000 7.03348 4.00000
4.00000 7.03349 4.00000
4.00000 7.03349 4.00000
4.00000 7.03348 4.00000
4.00372 7.09097 4.00372
4.00773 7.15382 4.00773
4.01170 7.21699 4.01170
4.01565 7.28045 4.01565
4.01958 7.34418 4.01958
4.02351 7.40813 4.02351
4.02745 7.47228 4.02745
4.03141 7.53660 4.03141
4.03539 7.60105 4.03539
4.03941 7.66560 4.03941
4.04349 7.73020 4.04349
4.04763 7.79482 4.04763
4.05185 7.85942 4.05185
4.05618 7.92395 4.05618
4.06062 7.98835 4.06062
4.06519 8.05256 4.06519
4.06993 8.11654 4.06993
4.07486 8.18020 4.07486
4.08000 8.24346 4.08000
4.08540 8.30623 4.08540
4.09110 8.36841 4.09110
4.09713 8.42988 4.09713
4.10355 8.49050 4.10356
4.11044 8.55012 4.11044
4.11785 8.60854 4.11785
4.12587 8.66558 4.12587
4.13452 8.72121 4.13452
4.14374 8.77556 4.14374
4.15358 8.82857 4.15358
4.16405 8.88018 4.16405
4.17519 8.93034 4.17519
4.18703 8.97901 4.18702
4.19956 9.02614 4.19956
4.21284 9.07171 4.21284
4.22686 9.11568 4.22686
4.24166 9.15804 4.24166
4.25723 9.19878 4.25723
4.27359 9.23788 4.27359
4.29076 9.27533 4.29076
4.30874 9.31113 4.30874
4.32755 9.34526 4.32755
4.34720 9.37770 4.34720
4.36770 9.40843 4.36770
4.38909 9.43740 4.38909
4.41139 9.46456 4.41139
4.43463 9.48984 4.43464
4.45888 9.51312 4.45888
4.48418 9.53428 4.48418
4.51062 9.55315 4.51062
4.53828 9.56953 4.53828
4.56729 9.58319 4.56729
4.59775 9.59386 4.59775
4.62980 9.60123 4.62981
4.66359 9.60503 4.66359
7.38327 7.51834 4.03028
7.53801 7.44334 4.02568
7.67385 7.38699 4.02222
7.79795 7.34230 4.01947
7.91395 7.30567 4.01721
8.02404 7.27496 4.01531
8.12962 7.24880 4.01368
8.23166 7.22624 4.01228
8.33080 7.20663 4.01105
8.42762 7.18941 4.00997
8.52248 7.17423 4.00901
8.61570 7.16078 4.00817
8.70753 7.14879 4.00741
8.79818 7.13807 4.00673
8.88779 7.12848 4.00612
8.97653 7.11984 4.00557
9.06450 7.11207 4.00507
9.15180 7.10505 4.00462
9.23852 7.09870 4.00422
9.32473 7.09295 4.00385
9.41050 7.08774 4.00351
9.49588 7.08301 4.00321
9.58092 7.07871 4.00293
9.66564 7.07480 4.00269
9.75013 7.07123 4.00245
9.83439 7.06797 4.00224
9.91842 7.06504 4.00205
10.00232 7.06232 4.00187
10.08603 7.05987 4.00171
10.16964 7.05762 4.00157
10.25313 7.05557 4.00144
10.33653 7.05369 4.00131
10.41985 7.05197 4.00121
10.50311 7.05040 4.00110
10.58631 7.04897 4.00101
10.66948 7.04766 4.00092
10.75262 7.04646 4.00085
10.83573 7.04536 4.00077
10.91883 7.04435 4.00071
11.00192 7.04343 4.00065
11.08501 7.04259 4.00059
11.16811 7.04182 4.00054
11.25122 7.04112 4.00050
11.33433 7.04047 4.00046
11.41748 7.03988 4.00042
11.50064 7.03934 4.00038
11.58383 7.03884 4.00035
11.66706 7.03837 4.00033
11.75031 7.03797 4.00029
11.83359 7.03759 4.00027
11.91691 7.03724 4.00025
12.00027 7.03692 4.00022
12.08367 7.03663 4.00021
12.16710 7.03637 4.00019
12.25060 7.03612 4.00017
12.33414 7.03589 4.00015
12.41773 7.03567 4.00014
12.50133 7.03550 4.00013
12.58500 7.03533 4.00012
12.66871 7.03517 4.00011
12.75246 7.03502 4.00010
12.83626 7.03489 4.00009
12.92012 7.03478 4.00008
13.00402 7.03466 4.00008
13.08798 7.03456 4.00007
13.17198 7.03447 4.00007
13.25603 7.03438 4.00006
13.34013 7.03431 4.00005
13.42428 7.03424 4.00005
13.50847 7.03417 4.00004
13.59272 7.03411 4.00004
13.67701 7.03406 4.00004
13.76136 7.03401 4.00003
13.84575 7.03396 4.00003
13.93019 7.03391 4.00003
14.01467 7.03388 4.00003
14.09921 7.03385 4.00002
14.18379 7.03382 4.00002
14.26841 7.03379 4.00002
14.35308 7.03376 4.00002
14.43780 7.03374 4.00002
14.52257 7.03372 4.00002
14.60737 7.03369 4.00001
14.69223 7.03368 4.00001
14.77712 7.03366 4.00001
14.86206 7.03364 4.00001
14.94704 7.03363 4.00001
15.03207 7.03362 4.00001
15.11714 7.03360 4.00001
15.20225 7.03359 4.00001
15.28740 7.03358 4.00001
15.37259 7.03358 4.00001
15.45782 7.03357 4.00001
15.54309 7.03356 4.00001
15.62841 7.03355 4.00000
15.71376 7.03355 4.00000
15.79915 7.03354 4.00000
15.88458 7.03353 4.00000
15.97005 7.03353 4.00000
16.05555 7.03353 4.00000
16.14110 7.03352 4.00000
16.22668 7.03352 4.00000
16.31230 7.03351 4.00000
16.39794 7.03351 4.00000
16.48363 7.03351 4.00000
16.56935 7.03351 4.00000
16.65511 7.03350 4.00000
16.74090 7.03350 4.00000
16.82673 7.03350 4.00000
16.91259 7.03350 4.00000
16.99849 7.03350 4.00000
17.08442 7.03350 4.00000
17.17038 7.03349 4.00000
17.25637 7.03349 4.00000
17.34240 7.03349 4.00000
17.42846 7.03349 4.00000
17.51455 7.03349 4.00000
17.60067 7.03349 4.00000
17.68682 7.03349 4.00000
17.77300 7.03349 4.00000
17.85922 7.03349 4.00000
17.94546 7.03349 4.00000
18.03173 7.03349 4.00000
18.11804 7.03348 4.00000
18.20437 7.03348 4.00000
18.29073 7.03348 4.00000
18.37713 7.03348 4.00000
18.46354 7.03348 4.00000
18.54999 7.03348 4.00000
18.63647 7.03348 4.00000
18.72296 7.03348 4.00000
18.80949 7.03348 4.00000
18.89605 7.03348 4.00000
18.98263 7.03348 4.00000
19.06924 7.03348 4.00000
19.15587 7.03348 4.00000
19.24254 7.03348 4.00000
19.32922 7.03348 4.00000
19.41593 7.03348 4.00000
19.50267 7.03348 4.00000
19.58944 7.03347 4.00000
19.67622 7.03348 4.00000
19.76303 7.03348 4.00000
19.84988 7.03347 4.00000
19.93673 7.03348 4.00000
20.02361 7.03348 4.00000
20.11052 7.03348 4.00000
20.19745 7.03348 4.00000
20.28440 7.03348 4.00000
20.37139 7.03348 4.00000
20.45838 7.03348 4.00000
20.54541 7.03348 4.00000
20.63244 7.03348 4.00000
20.71951 7.03348 4.00000
20.80660 7.03348 4.00000
20.89371 7.03348 4.00000
20.98083 7.03348 4.00000
21.06799 7.03348 4.00000
21.15516 7.03348 4.00000
21.24235 7.03348 4.00000
21.32956 7.03348 4.00000
21.41680 7.03348 4.00000
21.50405 7.03348 4.00000
21.59131 7.03348 4.00000
21.67860 7.03348 4.00000
21.76591 7.03348 4.00000
21.85323 7.03348 4.00000
21.94058 7.03348 4.00000
22.02794 7.03348 4.00000
22.11532 7.03348 4.00000
22.20272 7.03348 4.00000
22.29014 7.03348 4.00000
22.37758 7.03348 4.00000
22.46503 7.03348 4.00000
22.55250 7.03348 4.00000
22.63999 7.03348 4.00000
22.72750 7.03348 4.00000
22.81502 7.03348 4.00000
22.90256 7.03348 4.00000
22.99012 7.03348 4.00000
23.07769 7.03348 4.00000
23.16528 7.03348 4.00000
23.25289 7.03348 4.00000
23.34052 7.03348 4.00000
23.42816 7.03348 4.00000
23.51581 7.03348 4.00000
23.60348 7.03348 4.00000
23.69117 7.03348 4.00000
23.77888 7.03348 4.00000
23.86659 7.03348 4.00000
23.95433 7.03348 4.00000
24.04208 7.03348 4.00000
24.12984 7.03348 4.00000
24.21762 7.03348 4.00000
24.30542 7.03348 4.00000
24.39323 7.03348 4.00000
24.48105 7.03348 4.00000
24.56889 7.03348 4.00000
24.65674 7.03348 4.00000
24.74461 7.03348 4.00000
24.83249 7.03348 4.00000
24.92039 7.03348 4.00000
25.00829 7.03348 4.00000
25.09622 7.03348 4.00000
25.18415 7.03348 4.00000
25.27210 7.03348 4.00000
25.36007 7.03348 4.00000
25.44805 7.03348 4.00000
25.53604 7.03348 4.00000
25.62404 7.03348 4.00000
25.71206 7.03348 4.00000
25.80009 7.03348 4.00000
25.88813 7.03348 4.00000
25.97619 7.03348 4.00000
26.06426 7.03348 4.00000
26.15234 7.03348 4.00000
26.24044 7.03348 4.00000
26.32855 7.03348 4.00000
26.41667 7.03348 4.00000
26.50481 7.03348 4.00000
26.59296 7.03348 4.00000
26.68112 7.03348 4.00000
26.76930 7.03348 4.00000
26.85747 7.03349 4.00000
26.94567 7.03349 4.00000
27.03389 7.03348 4.00000
27.12210 7.03348 4.00000
27.21033 7.03349 4.00000
27.29859 7.03348 4.00000
27.38684 7.03348 4.00000
27.47510 7.03349 4.00000
27.56338 7.03349 4.00000
27.65169 7.03348 4.00000
27.73999 7.03348 4.00000
27.82830 7.03348 4.00000
27.91662 7.03348 4.00000
28.00495 7.03348 4.00000
28.09330 7.03348 4.00000
28.18166 7.03348 4.00000
28.27002 7.03348 4.00000
28.35841 7.03348 4.00000
28.44680 7.03348 4.00000
28.53520 7.03348 4.00000
28.62362 7.03348 4.00000
28.71204 7.03348 4.00000
28.80048 7.03348 4.00000
28.88893 7.03348 4.00000
28.97739 7.03348 4.00000
29.06586 7.03348 4.00000
29.15435 7.03348 4.00000
29.24285 7.03348 4.00000
29.33135 7.03348 4.00000
29.41987 7.03348 4.00000
29.50840 7.03348 4.00000
29.59694 7.03348 4.00000
29.68549 7.03348 4.00000
29.77405 7.03348 4.00000
29.86262 7.03348 4.00000
29.95121 7.03348 4.00000
30.03982 7.03348 4.00000
30.12843 7.03348 4.00000
30.21706 7.03348 4.00000
30.30568 7.03348 4.00000
30.39433 7.03348 4.00000
30.48299 7.03348 4.00000
30.57165 7.03348 4.00000
30.66033 7.03348 4.00000
30.74900 7.03348 4.00000
30.83769 7.03348 4.00000
30.92641 7.03348 4.00000
31.01512 7.03348 4.00000
31.10384 7.03348 4.00000
31.19257 7.03348 4.00000
31.28130 7.03348 4.00000

Angle 0.565648 3.727406

4.00000 7.03348 4.00000
4.00000 7.03348 4.00000
4.00000 7.03348 4.00000
4.00000 7.03348 4.00000
4.00000 7.03348 4.00000
4.00000 7.03348 4.00000
4.00000 7.03348 4.00000
4.00000 7.03348 4.00000
4.00000 7.03349 4.00000
4.00000 7.03348 4.00000
4.00000 7.03348 4.00000
4.00000 7.03348 4.00000
4.00000 7.03348 4.00000
4.00000 7.03347 4.00000
4.00000 7.03348 4.00000
4.00000 7.03348 4.00000
4.00000 7.03348 4.00000
4.00000 7.03349 4.00000
4.00000 7.03348 4.00000
4.00000 7.03348 4.00000
4.00000 7.03349 4.00000
4.00000 7.03348 4.00000
4.00000 7.03350 4.00000
4.00000 7.03349 4.00000
4.00000 7.03349 4.00000
4.00000 7.03348 4.00000
4.00000 7.03349 4.00000
4.00000 7.03349 4.00000
4.00000 7.03350 4.00000
4.00000 7.03350 4.00000
4.00000 7.03348 4.00000
4.00000 7.03348 4.00000
4.00000 7.03349 4.00000
4.00000 7.03349 4.00000
4.00000 7.03348 4.00000
4.00000 7.03348 4.00000
4.00000 7.03348 4.00000
4.00000 7.03348 4.00000
4.00000 7.03348 4.00000
4.00000 7.03347 4.00000
4.00000 7.03348 4.00000
4.00000 7.03348 4.00000
4.00000 7.03348 4.00000
4.00000 7.03347 4.00000
4.00000 7.03347 4.00000
4.00000 7.03348 4.00000
4.00000 7.03347 4.00000
4.00000 7.03349 4.00000
4.00000 7.03349 4.00000
4.00000 7.03348 4.00000
4.00000 7.03349 4.00000
4.00000 7.03352 4.00000
4.00000 7.03350 4.00000
4.00000 7.03348 4.00000
4.00000 7.03346 4.00000
4.00000 7.03346 4.00000
4.00000 7.03348 4.00000
4.00000 7.03348 4.00000
4.00000 7.03348 4.00000
4.00000 7.03344 4.00000
4.00000 7.03342 4.00001
3.99999 7.03366 3.99999
4.00000 7.03347 4.00000
4.00001 7.03328 4.00001
4.00000 7.03348 4.00000
4.00000 7.03343 4.00001
4.00000 7.03348 4.00000
4.00000 7.03342 4.00000
4.00000 7.03348 4.00000
4.00000 7.03348 4.00000
4.00000 7.03348 4.00000
4.00000 7.03350 4.00000
4.00000 7.03348 4.00000
4.00000 7.03347 4.00000
4.00000 7.03343 4.00000
4.00000 7.03348 4.00000
4.00000 7.03348 4.00000
4.00000 7.03348 4.00000
4.00000 7.03348 4.00000
4.00000 7.03348 4.00000
4.00000 7.03348 4.00000
4.00000 7.03345 4.00000
4.00000 7.03346 4.00000
4.00000 7.03346 4.00000
4.00000 7.03346 4.00000
4.00000 7.03347 4.00000
4.00000 7.03347 4.00000
4.00000 7.03350 4.00000
4.00000 7.03350 4.00000
4.00000 7.03349 4.00000
4.00000 7.03349 4.00000
4.00000 7.03349 4.00000
4.00000 7.03349 4.00000
4.00000 7.03349 4.00000
4.00000 7.03349 4.00000
4.00000 7.03349 4.00000
4.00000 7.03348 4.00000
4.00000 7.03348 4.00000
4.00000 7.03348 4.00000
4.00000 7.03348 4.00000
4.00000 7.03348 4.00000
4.00000 7.03348 4.00000
4.00000 7.03348 4.00000
4.00000 7.03348 4.00000
4.00000 7.03348 4.00000
4.00000 7.03348 4.00000
4.00000 7.03348 4.00000
4.00000 7.03348 4.00000
4.00000 7.03348 4.00000
4.00000 7.03348 4.00000
4.00000 7.03348 4.00000
4.00000 7.03348 4.00000
4.00000 7.03348 4.00000
4.00000 7.03348 4.00000
4.00000 7.03348 4.00000
4.00000 7.03348 4.00000
4.00000 7.03348 4.00000
4.00000 7.03348 4.00000
4.00000 7.03348 4.00000
4.00000 7.03348 4.00000
4.00000 7.03347 4.00000
4.00000 7.03347 4.00000
4.00000 7.03348 4.00000
4.00000 7.03348 4.00000
4.00000 7.03348 4.00000
4.00000 7.03347 4.00000
4.00000 7.03348 4.00000
4.00000 7.03348 4.00000
4.00000 7.03348 4.00000
4.00000 7.03348 4.00000
4.00000 7.03348 4.00000
4.00000 7.03348 4.00000
4.00000 7.03348 4.00000
4.00000 7.03348 4.00000
4.00000 7.03348 4.00000
4.00000 7.03348 4.00000
4.00000 7.03348 4.00000
4.00000 7.03348 4.00000
4.00000 7.03348 4.00000
4.00000 7.03348 4.00000
4.00000 7.03348 4.00000
4.00000 7.03348 4.00000
4.00000 7.03348 4.00000
4.00000 7.03348 4.00000
4.00000 7.03348 4.00000
4.00000 7.03348 4.00000
4.00000 7.03348 4.00000
4.00000 7.03348 4.00000
4.00000 7.03348 4.00000
4.00000 7.03348 4.00000
4.00000 7.03349 4.00000
4.00000 7.03348 4.00000
4.00000 7.03349 4.00000
4.00000 7.03348 4.00000
4.00000 7.03348 4.00000
4.00000 7.03348 4.00000
4.00000 7.03348 4.00000
4.00000 7.03348 4.00000
4.00000 7.03348 4.00000
4.00000 7.03348 4.00000
4.00000 7.03348 4.00000
4.00000 7.03348 4.00000
4.00000 7.03347 4.00000
4.00000 7.03348 4.00000
4.00000 7.03348 4.00000
4.00000 7.03348 4.00000
4.00000 7.03348 4.00000
4.00000 7.03348 4.00000
4.00000 7.03348 4.00000
4.00000 7.03348 4.00000
4.00000 7.03348 4.00000
4.00000 7.03348 4.00000
4.00000 7.03349 4.00000
4.00000 7.03349 4.00000
4.00000 7.03348 4.00000
4.00000 7.03348 4.00000
4.00000 7.03348 4.00000
4.00000 7.03348 4.00000
4.00000 7.03347 4.00000
4.00000 7.03347 4.00000
4.00000 7.03347 4.00000
4.00000 7.03348 4.00000
4.00000 7.03347 4.00000
4.00000 7.03347 4.00000
4.00000 7.03347 4.00000
4.00000 7.03348 4.00000
4.00000 7.03348 4.00000
4.00000 7.03348 4.00000
4.00000 7.03348 4.00000
4.00000 7.03348 4.00000
4.00000 7.03348 4.00000
4.00000 7.03348 4.00000
4.00000 7.03348 4.00000
4.00000 7.03348 4.00000
4.00000 7.03348 4.00000
4.00000 7.03348 4.00000
4.00000 7.03348 4.00000
4.00000 7.03348 4.00000
4.00000 7.03348 4.00000
4.00000 7.03348 4.00000
4.00000 7.03348 4.00000
4.00000 7.03348 4.00000
4.00000 7.03348 4.00000
4.00000 7.03348 4.00000
4.00000 7.03348 4.00000
4.00000 7.03348 4.00000
4.00000 7.03348 4.00000
4.00000 7.03348 4.00000
4.00000 7.03348 4.00000
4.00000 7.03348 4.00000
4.00000 7.03348 4.00000
4.00334 7.08504 4.00334
4.00822 7.16163 4.00822
4.01304 7.23845 4.01304
4.01781 7.31544 4.01781
4.02256 7.39256 4.02256
4.02730 7.46975 4.02730
4.03205 7.54696 4.03205
4.03682 7.62413 4.03682
4.04165 7.70121 4.04165
4.04655 7.77813 4.04655
4.05155 7.85483 4.05155
4.05667 7.93125 4.05667
4.06195 8.00729 4.06195
4.06741 8.08286 4.06741
4.07311 8.15788 4.07311
4.07907 8.23221 4.07907
4.08536 8.30573 4.08536
4.09204 8.37828 4.09204
4.09917 8.44968 4.09917
4.10685 8.51971 4.10685
4.11518 8.58813 4.11518
4.12427 8.65463 4.12427
4.13418 8.71910 4.13418
4.14484 8.78173 4.14484
4.15631 8.84246 4.15630
4.16860 8.90120 4.16860
4.18176 8.95791 4.18176
4.19582 9.01251 4.19582
4.21081 9.06499 4.21080
4.22674 9.11531 4.22674
4.24364 9.16345 4.24364
4.26153 9.20941 4.26153
4.28042 9.25318 4.28042
4.30031 9.29475 4.30031
4.32122 9.33414 4.32122
4.34317 9.37131 4.34317
4.36618 9.40625 4.36618
4.39027 9.43892 4.39027
4.41548 9.46923 4.41548
4.44187 9.49710 4.44187
4.46949 9.52237 4.46949
4.49845 9.54486 4.49845
4.52885 9.56433 4.52885
4.56084 9.58046 4.56084
4.59457 9.59291 4.59457
4.63022 9.60130 4.63022
4.66798 9.60524 4.66798
7.42243 7.49819 4.02904
7.58704 7.42204 4.02437
7.73187 7.36534 4.02089
7.86444 7.32073 4.01814
7.98858 7.28445 4.01589
8.10656 7.25426 4.01402
8.21984 7.22873 4.01243
8.32942 7.20689 4.01107
8.43603 7.18801 4.00988
8.54019 7.17158 4.00885
8.64233 7.15718 4.00794
8.74275 7.14450 4.00714
8.84173 7.13329 4.00642
8.93946 7.12335 4.00579
9.03612 7.11449 4.00523
9.13186 7.10659 4.00472
9.22678 7.09953 4.00427
9.32101 7.09319 4.00386
9.41461 7.08751 4.00350
9.50767 7.08239 4.00317
9.60025 7.07779 4.00287
9.69241 7.07364 4.00260
9.78419 7.06989 4.00236
9.87564 7.06650 4.00214
9.96680 7.06345 4.00195
10.05770 7.06068 4.00177
10.14837 7.05817 4.00161
10.23884 7.05591 4.00146
10.32912 7.05385 4.00133
10.41924 7.05198 4.00120
10.50922 7.05030 4.00109
10.59908 7.04876 4.00099
10.68882 7.04737 4.00090
10.77847 7.04611 4.00082
10.86803 7.04496 4.00075
10.95751 7.04391 4.00068
11.04693 7.04297 4.00062
11.13629 7.04211 4.00056
11.22560 7.04133 4.00051
11.31486 7.04062 4.00047
11.40409 7.03997 4.00042
11.49329 7.03938 4.00039
11.58247 7.03885 4.00035
11.67162 7.03836 4.00032
11.76075 7.03792 4.00029
11.84987 7.03752 4.00026
11.93898 7.03715 4.00024
12.02808 7.03682 4.00022
12.11717 7.03652 4.00020
12.20626 7.03624 4.00018
12.29535 7.03599 4.00016
12.38445 7.03577 4.00015
12.47354 7.03556 4.00014
12.56264 7.03537 4.00012
12.65174 7.03520 4.00011
12.74085 7.03504 4.00010
12.82996 7.03490 4.00009
12.91909 7.03477 4.00008
13.00822 7.03466 4.00008
13.09736 7.03455 4.00007
13.18652 7.03445 4.00006
13.27568 7.03437 4.00006
13.36485 7.03429 4.00005
13.45404 7.03421 4.00005
13.54324 7.03415 4.00004
13.63245 7.03409 4.00004
13.72167 7.03403 4.00004
13.81091 7.03398 4.00003
13.90016 7.03394 4.00003
13.98942 7.03389 4.00003
14.07870 7.03386 4.00003
14.16798 7.03382 4.00002
14.25728 7.03379 4.00002
14.34660 7.03376 4.00002
14.43592 7.03374 4.00002
14.52526 7.03371 4.00002
14.61462 7.03369 4.00001
14.70398 7.03367 4.00001
14.79336 7.03366 4.00001
14.88275 7.03364 4.00001
14.97215 7.03363 4.00001
15.06157 7.03361 4.00001
15.15099 7.03360 4.00001
15.24043 7.03359 4.00001
15.32989 7.03358 4.00001
15.41935 7.03357 4.00001
15.50883 7.03356 4.00001
15.59831 7.03355 4.00001
15.68781 7.03355 4.00000
15.77732 7.03354 4.00000
15.86684 7.03354 4.00000
15.95637 7.03353 4.00000
16.04592 7.03353 4.00000
16.13547 7.03352 4.00000
16.22504 7.03352 4.00000
16.31461 7.03351 4.00000
16.40420 7.03351 4.00000
16.49379 7.03351 4.00000
16.58340 7.03351 4.00000
16.67302 7.03350 4.00000
16.76264 7.03350 4.00000
16.85228 7.03350 4.00000
16.94192 7.03350 4.00000
17.03158 7.03350 4.00000
17.12124 7.03349 4.00000
17.21092 7.03349 4.00000
17.30060 7.03349 4.00000
17.39029 7.03349 4.00000
17.47999 7.03349 4.00000
17.56970 7.03349 4.00000
17.65942 7.03349 4.00000
17.74914 7.03349 4.00000
17.83888 7.03349 4.00000
17.92862 7.03349 4.00000
18.01837 7.03349 4.00000
18.10813 7.03348 4.00000
18.19789 7.03348 4.00000
18.28767 7.03348 4.00000
18.37745 7.03348 4.00000
18.46724 7.03348 4.00000
18.55703 7.03348 4.00000
18.64684 7.03348 4.00000
18.73665 7.03348 4.00000
18.82647 7.03348 4.00000
18.91629 7.03348 4.00000
19.00612 7.03348 4.00000
19.09596 7.03348 4.00000
19.18580 7.03348 4.00000
19.27566 7.03348 4.00000
19.36551 7.03348 4.00000
19.45538 7.03348 4.00000
19.54525 7.03348 4.00000
19.63513 7.03348 4.00000
19.72501 7.03348 4.00000
19.81490 7.03348 4.00000
19.90479 7.03348 4.00000
19.99470 7.03348 4.00000
20.08460 7.03348 4.00000
20.17452 7.03348 4.00000
20.26443 7.03348 4.00000
20.35436 7.03348 4.00000
20.44429 7.03348 4.00000

Angle 0.286953 2.111668

4.00000 7.03348 4.00000
4.00000 7.03348 4.00000
4.00000 7.03348 4.00000
4.00000 7.03348 4.00000
4.00000 7.03348 4.00000
4.00000 7.03348 4.00000
4.00000 7.03348 4.00000
4.00000 7.03348 4.00000
4.00000 7.03348 4.00000
4.00000 7.03348 4.00000
4.00000 7.03348 4.00000
4.00000 7.03348 4.00000
4.00000 7.03348 4.00000
4.00000 7.03348 4.00000
4.00000 7.03348 4.00000
4.00000 7.03348 4.00000
4.00000 7.03348 4.00000
4.00000 7.03348 4.00000
4.00000 7.03348 4.00000
4.00000 7.03348 4.00000
4.00000 7.03348 4.00000
4.00000 7.03348 4.00000
4.00000 7.03348 4.00000
4.00000 7.03348 4.00000
4.00000 7.03348 4.00000
4.00000 7.03348 4.00000
4.00000 7.03348 4.00000
4.00000 7.03348 4.00000
4.00000 7.03348 4.00000
4.00000 7.03348 4.00000
4.00000 7.03348 4.00000
4.00000 7.03348 4.00000
4.00000 7.03348 4.00000
4.00000 7.03348 4.00000
4.00000 7.03348 4.00000
4.00000 7.03348 4.00000
4.00000 7.03348 4.00000
4.00000 7.03348 4.00000
4.00000 7.03348 4.00000
4.00000 7.03348 4.00000
4.00000 7.03348 4.00000
4.00000 7.03348 4.00000
4.00000 7.03348 4.00000
4.00000 7.03348 4.00000
4.00000 7.03348 4.00000
4.00000 7.03348 4.00000
4.00000 7.03348 4.00000
4.00000 7.03348 4.00000
4.00000 7.03348 4.00000
4.00000 7.03348 4.00000
4.00000 7.03348 4.00000
4.00000 7.03348 4.00000
4.00000 7.03348 4.00000
4.00000 7.03348 4.00000
4.00000 7.03348 4.00000
4.00000 7.03348 4.00000
4.00000 7.03348 4.00000
4.00000 7.03348 4.00000
4.00000 7.03348 4.00000
4.00000 7.03348 4.00000
4.00000 7.03348 4.00000
4.00001 7.03349 4.00000
4.00000 7.03348 4.00000
4.00000 7.03348 4.00000
4.00000 7.03348 4.00000
4.00000 7.03348 4.00000
4.00000 7.03348 4.00000
4.00000 7.03348 4.00000
4.00000 7.03348 4.00000
4.00000 7.03348 4.00000
4.00000 7.03347 4.00000
4.00000 7.03348 4.00000
4.00000 7.03348 4.00000
4.00000 7.03348 4.00000
4.00000 7.03348 4.00000
4.00000 7.03349 4.00000
4.00000 7.03348 4.00000
4.00000 7.03348 4.00000
4.00000 7.03348 4.00000
4.00000 7.03348 4.00000
4.00000 7.03348 4.00000
4.00000 7.03348 4.00000
4.00000 7.03348 4.00000
4.00231 7.06899 4.00231
4.00642 7.13331 4.00643
4.01051 7.19795 4.01051
4.01456 7.26290 4.01456
4.01859 7.32809 4.01859
4.02262 7.39351 4.02262
4.02664 7.45912 4.02664
4.03069 7.52489 4.03069
4.03475 7.59078 4.03475
4.03886 7.65676 4.03886
4.04302 7.72278 4.04302
4.04724 7.78880 4.04724
4.05155 7.85477 4.05155
4.05595 7.92066 4.05595
4.06048 7.98640 4.06048
4.06515 8.05193 4.06515
4.06998 8.11719 4.06998
4.07501 8.18210 4.07501
4.08027 8.24657 4.08027
4.08578 8.31052 4.08578
4.09161 8.37383 4.09161
4.09779 8.43637 4.09779
4.10439 8.49800 4.10439
4.11146 8.55855 4.11146
4.11910 8.61782 4.11910
4.12738 8.67560 4.12738
4.13628 8.73197 4.13628
4.14579 8.78698 4.14579
4.15593 8.84058 4.15593
4.16674 8.89271 4.16674
4.17824 8.94331 4.17824
4.19046 8.99235 4.19046
4.20341 9.03979 4.20341
4.21713 9.08559 4.21713
4.23162 9.12973 4.23162
4.24691 9.17220 4.24691
4.26300 9.21297 4.26300
4.27991 9.25205 4.27991
4.29764 9.28943 4.29764
4.31622 9.32508 4.31622
4.33565 9.35901 4.33565
4.35595 9.39119 4.35595
4.37713 9.42157 4.37713
4.39923 9.45013 4.39923
4.42228 9.47678 4.42228
4.44633 9.50144 4.44633
4.47142 9.52400 4.47142
4.49763 9.54428 4.49764
4.52506 9.56212 4.52506
4.55379 9.57727 4.55379
4.58396 9.58948 4.58396
4.61570 9.59846 4.61570
4.64915 9.60388 4.64915
7.31127 7.55762 4.03270
7.47955 7.47024 4.02733
7.62334 7.40698 4.02345
7.75287 7.35784 4.02042
7.87295 7.31808 4.01797
7.98626 7.28508 4.01593
8.09451 7.25717 4.01420
8.19880 7.23324 4.01271
8.29995 7.21251 4.01142
8.39854 7.19440 4.01028
8.49501 7.17848 4.00928
8.58971 7.16439 4.00839
8.68290 7.15189 4.00760
8.77482 7.14074 4.00690
8.86565 7.13076 4.00626
8.95552 7.12182 4.00569
9.04459 7.11376 4.00518
9.13293 7.10651 4.00472
9.22066 7.09996 4.00430
9.30784 7.09404 4.00392
9.39455 7.08868 4.00357
9.48085 7.08381 4.00326
9.56677 7.07940 4.00298
9.65238 7.07539 4.00272
9.73771 7.07174 4.00248
9.82279 7.06842 4.00227
9.90766 7.06540 4.00207
9.99234 7.06264 4.00189
10.07686 7.06013 4.00173
10.16124 7.05784 4.00158
10.24550 7.05575 4.00145
10.32966 7.05384 4.00132
10.41373 7.05210 4.00121
10.49773 7.05050 4.00111
10.58166 7.04905 4.00101
10.66555 7.04772 4.00093
10.74940 7.04650 4.00085
10.83321 7.04539 4.00078
10.91702 7.04437 4.00071
11.00079 7.04345 4.00065
11.08457 7.04260 4.00060
11.16834 7.04183 4.00054
11.25213 7.04111 4.00050
11.33593 7.04045 4.00045
11.41972 7.03986 4.00042
11.50354 7.03932 4.00038
11.58738 7.03882 4.00035
11.67125 7.03836 4.00032
11.75514 7.03795 4.00029
11.83906 7.03756 4.00027
11.92301 7.03722 4.00024
12.00700 7.03689 4.00023
12.09102 7.03661 4.00020
12.17508 7.03634 4.00019
12.25917 7.03609 4.00017
12.34331 7.03587 4.00016
12.42749 7.03566 4.00014
12.51172 7.03548 4.00013
12.59598 7.03531 4.00012
12.68028 7.03515 4.00011
12.76463 7.03501 4.00010
12.84903 7.03488 4.00009
12.93347 7.03476 4.00009
13.01796 7.03465 4.00008
13.10247 7.03454 4.00007
13.18704 7.03445 4.00006
13.27166 7.03437 4.00006
13.35632 7.03429 4.00005
13.44103 7.03422 4.00005
13.52579 7.03416 4.00005
13.61059 7.03410 4.00004
13.69544 7.03405 4.00004
13.78033 7.03400 4.00004
13.86527 7.03395 4.00003
13.95012 7.03391 4.00003
14.03514 7.03387 4.00003
14.12021 7.03384 4.00003
14.20531 7.03381 4.00002
14.29047 7.03378 4.00002
14.37566 7.03375 4.00002
14.46090 7.03373 4.00002
14.54617 7.03371 4.00002
14.63148 7.03369 4.00002
14.71686 7.03367 4.00001
14.80225 7.03365 4.00001
14.88750 7.03363 4.00001
14.97296 7.03363 4.00001
15.05848 7.03361 4.00001
15.14404 7.03360 4.00001
15.22964 7.03359 4.00001
15.31527 7.03358 4.00001
15.40095 7.03357 4.00001
15.48667 7.03356 4.00001
15.57242 7.03356 4.00001
15.65821 7.03355 4.00001
15.74404 7.03354 4.00000
15.82991 7.03354 4.00000
15.91581 7.03353 4.00000
16.00175 7.03353 4.00000
16.08772 7.03352 4.00000
16.17373 7.03352 4.00000
16.25977 7.03352 4.00000
16.34585 7.03351 4.00000
16.43196 7.03351 4.00000
16.51811 7.03351 4.00000
16.60428 7.03351 4.00000
16.69050 7.03350 4.00000
16.77674 7.03350 4.00000
16.86302 7.03350 4.00000
16.94932 7.03350 4.00000
17.03566 7.03350 4.00000
17.12204 7.03349 4.00000
17.20844 7.03349 4.00000
17.29487 7.03349 4.00000
17.38128 7.03349 4.00000
17.46772 7.03349 4.00000
17.55419 7.03349 4.00000
17.64069 7.03349 4.00000
17.72722 7.03349 4.00000
17.81379 7.03348 4.00000
17.90037 7.03349 4.00000
17.98700 7.03348 4.00000
18.07364 7.03348 4.00000
18.16032 7.03348 4.00000
18.24702 7.03348 4.00000
18.33374 7.03348 4.00000
18.42049 7.03348 4.00000
18.50727 7.03348 4.00000
18.59408 7.03348 4.00000
18.68091 7.03348 4.00000
18.76776 7.03348 4.00000
18.85464 7.03348 4.00000
18.94154 7.03348 4.00000
19.02847 7.03348 4.00000
19.11542 7.03347 4.00000
19.20240 7.03347 4.00000
19.28940 7.03347 4.00000
19.37641 7.03348 4.00000
19.46345 7.03348 4.00000
19.55052 7.03348 4.00000
19.63761 7.03348 4.00000
19.72472 7.03348 4.00000
19.81186 7.03348 4.00000
19.89902 7.03348 4.00000
19.98620 7.03348 4.00000
20.07340 7.03348 4.00000
20.16062 7.03348 4.00000
20.24786 7.03348 4.00000
20.33513 7.03348 4.00000
20.42241 7.03348 4.00000
20.50971 7.03348 4.00000
20.59703 7.03348 4.00000
20.68437 7.03348 4.00000
20.77172 7.03348 4.00000
20.85910 7.03348 4.00000
20.94650 7.03348 4.00000
21.03391 7.03348 4.00000
21.12135 7.03348 4.00000
21.20881 7.03348 4.00000
21.29629 7.03348 4.00000
21.38379 7.03348 4.00000
21.47131 7.03348 4.00000
21.55885 7.03348 4.00000
21.64641 7.03348 4.00000
21.73398 7.03348 4.00000
21.82158 7.03348 4.00000
21.90919 7.03348 4.00000
21.99681 7.03348 4.00000
22.08446 7.03348 4.00000
22.17212 7.03348 4.00000
22.25980 7.03348 4.00000
22.34749 7.03348 4.00000
22.43521 7.03348 4.00000
22.52294 7.03348 4.00000
22.61068 7.03348 4.00000
22.69844 7.03348 4.00000
22.78622 7.03348 4.00000
22.87402 7.03348 4.00000
22.96182 7.03348 4.00000
23.04965 7.03348 4.00000
23.13749 7.03348 4.00000
23.22535 7.03347 4.00000
23.31322 7.03348 4.00000
23.40110 7.03348 4.00000
23.48901 7.03347 4.00000
23.57692 7.03348 4.00000
23.66485 7.03348 4.00000
23.75278 7.03348 4.00000
23.84074 7.03348 4.00000
23.92872 7.03348 4.00000
24.01670 7.03348 4.00000
24.10471 7.03348 4.00000
24.19273 7.03348 4.00000
24.28075 7.03348 4.00000
24.36880 7.03347 4.00000
24.45686 7.03348 4.00000
24.54493 7.03347 4.00000
24.63301 7.03348 4.00000
24.72111 7.03348 4.00000
24.80922 7.03348 4.00000
24.89736 7.03347 4.00000
24.98549 7.03348 4.00000
25.07364 7.03348 4.00000
25.16180 7.03348 4.00000
25.24998 7.03348 4.00000
25.33818 7.03348 4.00000
25.42638 7.03348 4.00000
25.51459 7.03348 4.00000
25.60282 7.03348 4.00000
25.69106 7.03348 4.00000
25.77931 7.03348 4.00000
25.86757 7.03348 4.00000
25.95584 7.03348 4.00000
26.04413 7.03348 4.00000
26.13243 7.03348 4.00000
26.22074 7.03348 4.00000
26.30906 7.03348 4.00000
26.39738 7.03348 4.00000
26.48571 7.03348 4.00000
26.57406 7.03348 4.00000
26.66241 7.03348 4.00000
26.75078 7.03348 4.00000
26.83915 7.03348 4.00000
26.92754 7.03348 4.00000
27.01594 7.03348 4.00000
27.10435 7.03348 4.00000
27.19277 7.03348 4.00000
27.28120 7.03348 4.00000
27.36964 7.03348 4.00000
27.45809 7.03348 4.00000
27.54655 7.03348 4.00000
27.63502 7.03348 4.00000
27.72351 7.03348 4.00000
27.81200 7.03348 4.00000
27.90050 7.03348 4.00000
27.98901 7.03348 4.00000
28.07754 7.03348 4.00000
28.16607 7.03348 4.00000
28.25461 7.03348 4.00000
28.34316 7.03348 4.00000
28.43172 7.03348 4.00000
28.52029 7.03348 4.00000
28.60887 7.03348 4.00000
28.69746 7.03348 4.00000
28.78606 7.03348 4.00000
28.87467 7.03348 4.00000
28.96329 7.03348 4.00000
29.05192 7.03348 4.00000
29.14055 7.03348 4.00000
29.22920 7.03348 4.00000
29.31785 7.03348 4.00000
29.40652 7.03348 4.00000
29.49519 7.03348 4.00000
29.58387 7.03348 4.00000
29.67256 7.03348 4.00000
29.76126 7.03348 4.00000
29.84997 7.03348 4.00000
29.93869 7.03348 4.00000
30.02742 7.03348 4.00000
30.11615 7.03348 4.00000
30.20490 7.03348 4.00000
30.29365 7.03348 4.00000
30.38241 7.03348 4.00000
30.47118 7.03348 4.00000

Angle 0.398611 5.648265

4.00000 7.03348 4.00000
4.00000 7.03348 4.00000
4.00000 7.03348 4.00000
4.00000 7.03347 4.00000
4.00000 7.03348 4.00000
4.00000 7.03348 4.00000
4.00000 7.03348 4.00000
4.00000 7.03348 4.00000
4.00000 7.03348 4.00000
4.00000 7.03348 4.00000
4.00000 7.03348 4.00000
4.00000 7.03348 4.00000
4.00000 7.03348 4.00000
4.00000 7.03348 4.00000
4.00000 7.03348 4.00000
4.00000 7.03348 4.00000
4.00000 7.03348 4.00000
4.00000 7.03348 4.00000
4.00000 7.03348 4.00000
4.00000 7.03348 4.00000
4.00000 7.03348 4.00000
4.00000 7.03348 4.00000
4.00000 7.03348 4.00000
4.00000 7.03348 4.00000
4.00000 7.03348 4.00000
4.00000 7.03348 4.00000
4.00000 7.03348 4.00000
4.00000 7.03348 4.00000
4.00000 7.03348 4.00000
4.00000 7.03348 4.00000
4.00000 7.03348 4.00000
4.00000 7.03348 4.00000
4.00000 7.03348 4.00000
4.00000 7.03348 4.00000
4.00000 7.03348 4.00000
4.00000 7.03348 4.00000
4.00000 7.03348 4.00000
4.00000 7.03348 4.00000
4.00000 7.03348 4.00000
4.00000 7.03348 4.00000
4.00000 7.03346 4.00000
4.00000 7.03348 4.00000
4.00000 7.03348 4.00000
4.00000 7.03348 4.00000
4.00000 7.03348 4.00000
4.00000 7.03348 4.00000
4.00000 7.03348 4.00000
4.00000 7.03348 4.00000
4.00000 7.03348 4.00000
4.00000 7.03348 4.00000
4.00000 7.03348 4.00000
4.00000 7.03348 4.00000
4.00000 7.03348 4.00000
4.00000 7.03348 4.00000
4.00000 7.03347 4.00000
4.00000 7.03342 4.00000
4.00000 7.03348 4.00000
4.00000 7.03348 4.00000
4.00000 7.03348 4.00000
4.00000 7.03348 4.00000
4.00000 7.03348 4.00000
4.00000 7.03348 4.00000
4.00000 7.03347 4.00000
4.00000 7.03348 4.00000
4.00000 7.03349 4.00000
4.00000 7.03352 4.00000
4.00000 7.03348 4.00000
4.00440 7.10148 4.00439
4.00900 7.17394 4.00900
4.01355 7.24664 4.01355
4.01806 7.31955 4.01806
4.02256 7.39262 4.02256
4.02705 7.46580 4.02705
4.03156 7.53905 4.03156
4.03609 7.61233 4.03609
4.04067 7.68558 4.04067
4.04531 7.75875 4.04531
4.05003 7.83178 4.05004
4.05487 7.90461 4.05487
4.05984 7.97718 4.05984
4.06496 8.04940 4.06496
4.07029 8.12120 4.07028
4.07584 8.19248 4.07584
4.08166 8.26312 4.08166
4.08781 8.33300 4.08781
4.09433 8.40197 4.09433
4.10131 8.46987 4.10131
4.10881 8.53649 4.10881
4.11693 8.60160 4.11693
4.12578 8.66494 4.12578
4.13538 8.72647 4.13538
4.14567 8.78634 4.14567
4.15671 8.84449 4.15671
4.16852 8.90083 4.16852
4.18113 8.95533 4.18113
4.19458 9.00791 4.19458
4.20888 9.05856 4.20888
4.22407 9.10724 4.22407
4.24016 9.15393 4.24016
4.25716 9.19861 4.25716
4.27509 9.24129 4.27509
4.29396 9.28195 4.29396
4.31378 9.32059 4.31378
4.33457 9.35721 4.33457
4.35634 9.39177 4.35634
4.37911 9.42425 4.37911
4.40292 9.45460 4.40292
4.42780 9.48272 4.42780
4.45382 9.50851 4.45382
4.48104 9.53182 4.48104
4.50955 9.55245 4.50955
4.53946 9.57016 4.53947
4.57092 9.58466 4.57092
4.60407 9.59561 4.60407
4.63907 9.60267 4.63908
4.67611 9.60546 4.67611
4.02810 7.48282 7.45343
4.02380 7.41286 7.60901
4.02054 7.35974 7.74750
4.01793 7.31743 7.87506
4.01579 7.28271 7.99496
4.01398 7.25363 8.10919
4.01244 7.22889 8.21907
4.01111 7.20763 8.32548
4.00995 7.18917 8.42910
4.00894 7.17304 8.53042
4.00804 7.15885 8.62983
4.00725 7.14633 8.72762
4.00654 7.13519 8.82404
4.00592 7.12532 8.91925
4.00535 7.11648 9.01348
4.00485 7.10858 9.10680
4.00440 7.10150 9.19935
4.00399 7.09512 9.29125
4.00362 7.08939 9.38255
4.00329 7.08423 9.47334
4.00299 7.07955 9.56368
4.00272 7.07535 9.65360
4.00247 7.07152 9.74320
4.00224 7.06805 9.83248
4.00204 7.06494 9.92146
4.00186 7.06209 10.01023
4.00169 7.05951 10.09878
4.00154 7.05718 10.18713
4.00140 7.05505 10.27532
4.00128 7.05312 10.36337
4.00116 7.05136 10.45129
4.00106 7.04977 10.53910
4.00097 7.04832 10.62680
4.00088 7.04700 10.71443
4.00080 7.04579 10.80199
4.00073 7.04470 10.88948
4.00067 7.04370 10.97692
4.00061 7.04280 11.06432
4.00055 7.04197 11.15168
4.00050 7.04122 11.23901
4.00046 7.04053 11.32631
4.00042 7.03991 11.41360
4.00038 7.03933 11.50089
4.00035 7.03881 11.58815
4.00032 7.03834 11.67541
4.00029 7.03790 11.76268
4.00026 7.03752 11.84993
4.00024 7.03716 11.93719
4.00022 7.03684 12.02447
4.00020 7.03654 12.11175
4.00018 7.03627 12.19905
4.00017 7.03602 12.28635
4.00015 7.03579 12.37368
4.00014 7.03559 12.46102
4.00013 7.03540 12.54837
4.00012 7.03523 12.63575
4.00010 7.03507 12.72315
4.00009 7.03493 12.81056
4.00009 7.03480 12.89799
4.00008 7.03469 12.98545
4.00007 7.03458 13.07293
4.00007 7.03448 13.16043
4.00006 7.03439 13.24796
4.00005 7.03431 13.33552
4.00005 7.03424 13.42310
4.00005 7.03417 13.51071
4.00004 7.03411 13.59835
4.00004 7.03406 13.68602
4.00003 7.03400 13.77360
4.00003 7.03395 13.86130
4.00003 7.03391 13.94902
4.00003 7.03387 14.03677
4.00002 7.03384 14.12454
4.00002 7.03380 14.21235
4.00002 7.03377 14.30017
4.00002 7.03375 14.38802
4.00002 7.03373 14.47590
4.00001 7.03370 14.56380
4.00001 7.03368 14.65173
4.00001 7.03366 14.73968
4.00001 7.03365 14.82766
4.00001 7.03363 14.91565
4.00001 7.03362 15.00367
4.00001 7.03361 15.09172
4.00001 7.03359 15.17978
4.00001 7.03358 15.26787
4.00001 7.03357 15.35598
4.00001 7.03356 15.44411
4.00001 7.03356 15.53226
4.00000 7.03355 15.62043
4.00000 7.03354 15.70862
4.00000 7.03354 15.79684
4.00000 7.03353 15.88507
4.00000 7.03353 15.97331
4.00000 7.03353 16.06158
4.00000 7.03352 16.14986
4.00000 7.03351 16.23818
4.00000 7.03351 16.32650
4.00000 7.03351 16.41484
4.00000 7.03351 16.50320
4.00000 7.03351 16.59158
4.00000 7.03350 16.67997
4.00000 7.03350 16.76838
4.00000 7.03350 16.85681
4.00000 7.03350 16.94526
4.00000 7.03350 17.03372
4.00000 7.03349 17.12222
4.00000 7.03349 17.21073
4.00000 7.03349 17.29926
4.00000 7.03349 17.38780
4.00000 7.03349 17.47637
4.00000 7.03349 17.56494
4.00000 7.03349 17.65354
4.00000 7.03349 17.74214
4.00000 7.03349 17.83076
4.00000 7.03349 17.91938
4.00000 7.03348 18.00803
4.00000 7.03349 18.09668
4.00000 7.03348 18.18533
4.00000 7.03348 18.27401
4.00000 7.03348 18.36269
4.00000 7.03348 18.45139
4.00000 7.03348 18.54011
4.00000 7.03348 18.62883
4.00000 7.03348 18.71757
4.00000 7.03348 18.80633
4.00000 7.03348 18.89509
4.00000 7.03348 18.98387
4.00000 7.03348 19.07266
4.00000 7.03348 19.16147
4.00000 7.03348 19.25029
4.00000 7.03348 19.33912
4.00000 7.03348 19.42796
4.00000 7.03348 19.51682
4.00000 7.03348 19.60570
4.00000 7.03348 19.69458
4.00000 7.03347 19.78347
4.00000 7.03348 19.87236
4.00000 7.03348 19.96127
4.00000 7.03348 20.05020
4.00000 7.03348 20.13914
4.00000 7.03348 20.22809
4.00000 7.03349 20.31704
4.00000 7.03348 20.40602
4.00000 7.03348 20.49499
4.00000 7.03348 20.58400
4.00000 7.03348 20.67299
4.00000 7.03347 20.76200
4.00000 7.03348 20.85102
4.00000 7.03348 20.94005
4.00000 7.03348 21.02909
4.00000 7.03348 21.11814
4.00000 7.03348 21.20719
4.00000 7.03348 21.29626
4.00000 7.03348 21.38534
4.00000 7.03348 21.47443
4.00000 7.03348 21.56353
4.00000 7.03348 21.65264
4.00000 7.03348 21.74176
4.00000 7.03348 21.83088
4.00000 7.03348 21.92002
4.00000 7.03348 22.00917
4.00000 7.03348 22.09832
4.00000 7.03348 22.18749
4.00000 7.03348 22.27667
4.00000 7.03348 22.36585
4.00000 7.03348 22.45504
4.00000 7.03348 22.54425
4.00000 7.03348 22.63347
4.00000 7.03348 22.72269
4.00000 7.03347 22.81193
4.00000 7.03348 22.90118
4.00000 7.03348 22.99042
4.00000 7.03349 23.07966
4.00000 7.03348 23.16895
4.00000 7.03348 23.25823
4.00000 7.03348 23.34753
4.00000 7.03348 23.43683
4.00000 7.03348 23.52614
4.00000 7.03348 23.61546
4.00000 7.03348 23.70478
4.00000 7.03348 23.79411
4.00000 7.03348 23.88345
4.00000 7.03348 23.97280
4.00000 7.03348 24.06216
4.00000 7.03348 24.15152
4.00000 7.03348 24.24089
4.00000 7.03348 24.33027
4.00000 7.03348 24.41965
4.00000 7.03348 24.50904
4.00000 7.03348 24.59844
4.00000 7.03348 24.68785
4.00000 7.03348 24.77726
4.00000 7.03348 24.86668
4.00000 7.03348 24.95610
4.00000 7.03348 25.04553
4.00000 7.03348 25.13497
4.00000 7.03348 25.22442
4.00000 7.03348 25.31387
4.00000 7.03348 25.40333
4.00000 7.03348 25.49280
4.00000 7.03348 25.58227
4.00000 7.03348 25.67175
4.00000 7.03348 25.76123
4.00000 7.03348 25.85073
4.00000 7.03348 25.94023
4.00000 7.03348 26.02973
4.00000 7.03348 26.11925
4.00000 7.03348 26.20877
4.00000 7.03348 26.29829
4.00000 7.03348 26.38783
4.00000 7.03348 26.47737
4.00000 7.03348 26.56691
4.00000 7.03348 26.65646
4.00000 7.03348 26.74602
4.00000 7.03348 26.83559
4.00000 7.03348 26.92516
4.00000 7.03348 27.01474
4.00000 7.03348 27.10432
4.00000 7.03348 27.19391
4.00000 7.03348 27.28350
4.00000 7.03348 27.37311
4.00000 7.03348 27.46271
4.00000 7.03348 27.55233
4.00000 7.03349 27.64191
4.00000 7.03349 27.73151
4.00000 7.03348 27.82113
4.00000 7.03349 27.91074
4.00000 7.03349 28.00035
4.00000 7.03348 28.08999
4.00000 7.03348 28.17962
4.00000 7.03349 28.26925
4.00000 7.03349 28.35890
4.00000 7.03348 28.44856
4.00000 7.03348 28.53822
4.00000 7.03348 28.62788
4.00000 7.03348 28.71755
4.00000 7.03348 28.80722
4.00000 7.03348 28.89690
4.00000 7.03348 28.98659
4.00000 7.03348 29.07628
4.00000 7.03348 29.16598
4.00000 7.03348 29.25568
4.00000 7.03348 29.34539
4.00000 7.03348 29.43510
4.00000 7.03348 29.52482
4.00000 7.03348 29.61455
4.00000 7.03348 29.70428
4.00000 7.03348 29.79402
4.00000 7.03348 29.88376
4.00000 7.03348 29.97353
4.00000 7.03348 30.06331
4.00000 7.03348 30.15308
4.00000 7.03348 30.24287
4.00000 7.03348 30.33264
4.00000 7.03348 30.42243
4.00000 7.03348 30.51221
4.00000 7.03348 30.60201
4.00000 7.03348 30.69181
4.00000 7.03348 30.78162
4.00000 7.03348 30.87144
4.00000 7.03348 30.96126
4.00000 7.03348 31.05108
4.00000 7.03348 31.14091
4.00000 7.03348 31.23074
4.00000 7.03348 31.32058
4.00000 7.03348 31.41043
4.00000 7.03348 31.50028
4.00000 7.03348 31.59013
4.00000 7.03348 31.67999
4.00000 7.03348 31.76988
4.00000 7.03348 31.85974
4.00000 7.03348 31.94963
4.00000 7.03348 32.03951
4.00000 7.03348 32.12940
4.00000 7.03348 32.21930
4.00000 7.03348 32.30920
4.00000 7.03348 32.39911
4.00000 7.03348 32.48900
4.00000 7.03348 32.57891
4.00000 7.03348 32.66883
4.00000 7.03348 32.75875
4.00000 7.03348 32.84867
4.00000 7.03348 32.93860

Angle 0.235991 5.568956

4.00000 7.03348 4.00000
4.00000 7.03348 4.00000
4.00000 7.03348 4.00000
4.00000 7.03349 4.00000
4.00000 7.03348 4.00000
4.00000 7.03348 4.00000
4.00000 7.03348 4.00000
4.00000 7.03348 4.00000
4.00000 7.03348 4.00000
4.00000 7.03348 4.00000
4.00000 7.03347 4.00000
4.00000 7.03347 4.00000
4.00000 7.03348 4.00000
4.00000 7.03346 4.00000
4.00000 7.03348 4.00000
4.00000 7.03348 4.00000
4.00000 7.03348 4.00000
4.00000 7.03348 4.00000
4.00000 7.03348 4.00000
4.00000 7.03348 4.00000
4.00000 7.03348 4.00000
4.00000 7.03348 4.00000
4.00000 7.03348 4.00000
4.00000 7.03348 4.00000
4.00000 7.03348 4.00000
4.00001 7.03345 4.00000
4.00000 7.03348 4.00000
4.00000 7.03348 4.00000
4.00000 7.03348 4.00000
4.00000 7.03348 4.00000
4.00000 7.03348 4.00000
4.00000 7.03348 4.00000
4.00000 7.03348 4.00000
4.00000 7.03348 4.00000
4.00000 7.03349 4.00000
4.00000 7.03348 4.00000
4.00000 7.03349 4.00000
4.00000 7.03348 4.00000
4.00000 7.03348 4.00000
4.00000 7.03348 4.00000
4.00000 7.03348 4.00000
4.00000 7.03348 4.00000
4.00000 7.03348 4.00000
4.00000 7.03348 4.00000
4.00000 7.03348 4.00000
4.00000 7.03348 4.00000
4.00000 7.03348 4.00000
4.00000 7.03348 4.00000
4.00000 7.03348 4.00000
4.00000 7.03348 4.00000
4.00000 7.03348 4.00000
4.00000 7.03348 4.00000
4.00000 7.03348 4.00000
4.00000 7.03347 4.00000
4.00000 7.03348 4.00000
4.00000 7.03348 4.00000
4.00000 7.03347 4.00000
4.00000 7.03348 4.00000
4.00000 7.03348 4.00000
4.00000 7.03348 4.00000
4.00000 7.03348 4.00000
4.00000 7.03348 4.00000
4.00000 7.03348 4.00000
4.00000 7.03348 4.00000
4.00000 7.03346 4.00000
4.00000 7.03346 4.00000
4.00000 7.03346 4.00000
4.00000 7.03346 4.00000
4.00000 7.03346 4.00000
4.00000 7.03347 4.00000
4.00000 7.03347 4.00000
4.00000 7.03348 4.00000
4.00000 7.03348 4.00000
4.00000 7.03348 4.00000
4.00000 7.03348 4.00000
4.00000 7.03348 4.00000
4.00000 7.03348 4.00000
4.00000 7.03348 4.00000
4.00000 7.03349 4.00000
4.00000 7.03352 4.00000
4.00000 7.03348 4.00000
4.00000 7.03348 4.00000
4.00000 7.03348 4.00000
4.00000 7.03349 4.00000
4.00000 7.03348 4.00000
4.00000 7.03348 4.00000
4.00000 7.03349 4.00000
4.00037 7.03917 4.00037
4.00505 7.11178 4.00505
4.00967 7.18469 4.00967
4.01424 7.25783 4.01424
4.01878 7.33117 4.01878
4.02330 7.40466 4.02330
4.02782 7.47825 4.02782
4.03235 7.55190 4.03235
4.03691 7.62556 4.03691
4.04152 7.69918 4.04152
4.04620 7.77270 4.04620
4.05097 7.84606 4.05097
4.05585 7.91921 4.05585
4.06088 7.99206 4.06088
4.06607 8.06455 4.06607
4.07146 8.13659 4.07146
4.07709 8.20807 4.07709
4.08301 8.27888 4.08301
4.08927 8.34889 4.08927
4.09592 8.41794 4.09592
4.10304 8.48585 4.10304
4.11072 8.55243 4.11072
4.11904 8.61741 4.11904
4.12813 8.68055 4.12813
4.13794 8.74193 4.13794
4.14847 8.80161 4.14847
4.15975 8.85953 4.15975
4.17182 8.91562 4.17182
4.18470 8.96982 4.18471
4.19844 9.02209 4.19844
4.21305 9.07239 4.21305
4.22854 9.12069 4.22855
4.24495 9.16698 4.24496
4.26229 9.21126 4.26229
4.28056 9.25350 4.28056
4.29979 9.29372 4.29979
4.31997 9.33189 4.31997
4.34113 9.36802 4.34113
4.36329 9.40206 4.36329
4.38646 9.43400 4.38646
4.41069 9.46376 4.41069
4.43602 9.49125 4.43602
4.46250 9.51634 4.46250
4.49023 9.53888 4.49023
4.51928 9.55864 4.51929
4.54980 9.57538 4.54980
4.58191 9.58877 4.58191
4.61578 9.59847 4.61578
4.65158 9.60412 4.65158
7.33669 7.54340 4.03183
7.51049 7.45579 4.02644
7.65951 7.39256 4.02256
7.79404 7.34362 4.01955
7.91894 7.30419 4.01712
8.03697 7.27158 4.01510
8.14982 7.24414 4.01339
8.25867 7.22068 4.01193
8.36430 7.20046 4.01066
8.46732 7.18287 4.00956
8.56817 7.16746 4.00859
8.66720 7.15391 4.00773
8.76471 7.14191 4.00697
8.86091 7.13126 4.00629
8.95599 7.12177 4.00569
9.05010 7.11329 4.00515
9.14337 7.10570 4.00466
9.23590 7.09889 4.00423
9.32780 7.09276 4.00384
9.41913 7.08724 4.00348
9.50997 7.08227 4.00316
9.60037 7.07778 4.00287
9.69039 7.07372 4.00261
9.78007 7.07005 4.00237
9.86945 7.06672 4.00216
9.95856 7.06371 4.00196
10.04745 7.06098 4.00179
10.13613 7.05850 4.00163
10.22462 7.05625 4.00148
10.31296 7.05420 4.00135
10.40116 7.05234 4.00123
10.48924 7.05066 4.00112
10.57721 7.04912 4.00102
10.66509 7.04773 4.00093
10.75288 7.04645 4.00084
10.84061 7.04530 4.00077
10.92827 7.04425 4.00070
11.01589 7.04329 4.00064
11.10346 7.04242 4.00058
11.19100 7.04162 4.00053
11.27851 7.04090 4.00048
11.36600 7.04024 4.00044
11.45347 7.03964 4.00040
11.54092 7.03909 4.00037
11.62837 7.03859 4.00033
11.71581 7.03814 4.00030
11.80326 7.03773 4.00028
11.89070 7.03735 4.00025
11.97815 7.03700 4.00023
12.06560 7.03669 4.00021
12.15306 7.03641 4.00019
12.24054 7.03615 4.00017
12.32802 7.03591 4.00016
12.41552 7.03569 4.00015
12.50305 7.03549 4.00013
12.59058 7.03532 4.00012
12.67813 7.03516 4.00011
12.76571 7.03500 4.00010
12.85329 7.03487 4.00009
12.94090 7.03474 4.00008
13.02853 7.03463 4.00008
13.11618 7.03453 4.00007
13.20385 7.03444 4.00006
13.29155 7.03436 4.00006
13.37927 7.03427 4.00005
13.46701 7.03420 4.00005
13.55477 7.03414 4.00004
13.64256 7.03407 4.00004
13.73037 7.03403 4.00004
13.81820 7.03398 4.00003
13.90606 7.03394 4.00003
13.99392 7.03389 4.00003
14.08182 7.03386 4.00002
14.16975 7.03382 4.00002
14.25769 7.03379 4.00002
14.34566 7.03376 4.00002
14.43366 7.03374 4.00002
14.52167 7.03372 4.00002
14.60971 7.03369 4.00001
14.69777 7.03368 4.00001
14.78585 7.03366 4.00001
14.87396 7.03364 4.00001
14.96208 7.03363 4.00001
15.05023 7.03361 4.00001
15.13840 7.03360 4.00001
15.22658 7.03359 4.00001
15.31480 7.03358 4.00001
15.40303 7.03357 4.00001
15.49128 7.03356 4.00001
15.57955 7.03356 4.00000
15.66785 7.03355 4.00000
15.75616 7.03354 4.00000
15.84449 7.03354 4.00000
15.93285 7.03353 4.00000
16.02122 7.03353 4.00000
16.10961 7.03352 4.00000
16.19801 7.03352 4.00000
16.28643 7.03352 4.00000
16.37487 7.03351 4.00000
16.46333 7.03351 4.00000
16.55181 7.03351 4.00000
16.64030 7.03350 4.00000
16.72881 7.03350 4.00000
16.81733 7.03350 4.00000
16.90588 7.03350 4.00000
16.99444 7.03350 4.00000
17.08301 7.03350 4.00000
17.17161 7.03349 4.00000
17.26021 7.03349 4.00000
17.34884 7.03349 4.00000
17.43748 7.03349 4.00000
17.52613 7.03349 4.00000
17.61480 7.03349 4.00000
17.70349 7.03349 4.00000
17.79220 7.03348 4.00000
17.88090 7.03349 4.00000
17.96963 7.03349 4.00000
18.05838 7.03348 4.00000
18.14714 7.03348 4.00000
18.23591 7.03348 4.00000
18.32469 7.03348 4.00000
18.41349 7.03348 4.00000
18.50231 7.03348 4.00000
18.59113 7.03348 4.00000
18.67997 7.03348 4.00000
18.76882 7.03348 4.00000
18.85768 7.03348 4.00000
18.94657 7.03348 4.00000
19.03545 7.03348 4.00000
19.12435 7.03348 4.00000
19.21326 7.03348 4.00000
19.30219 7.03348 4.00000
19.39113 7.03348 4.00000
19.48008 7.03348 4.00000
19.56904 7.03348 4.00000
19.65801 7.03348 4.00000
19.74700 7.03348 4.00000
19.83600 7.03348 4.00000
19.92500 7.03348 4.00000
20.01403 7.03348 4.00000
20.10305 7.03348 4.00000
20.19210 7.03348 4.00000
20.28114 7.03348 4.00000
20.37021 7.03348 4.00000
20.45928 7.03348 4.00000
20.54836 7.03348 4.00000
20.63745 7.03348 4.00000
20.72656 7.03348 4.00000
20.81567 7.03348 4.00000
20.90480 7.03348 4.00000
20.99393 7.03347 4.00000
21.08307 7.03348 4.00000
21.17223 7.03348 4.00000
21.26140 7.03348 4.00000
21.35057 7.03348 4.00000
21.43975 7.03347 4.00000
21.52894 7.03348 4.00000
21.61814 7.03348 4.00000
21.70735 7.03348 4.00000
21.79656 7.03348 4.00000
21.88579 7.03348 4.00000
21.97503 7.03348 4.00000
22.06427 7.03348 4.00000
22.15353 7.03348 4.00000
22.24279 7.03348 4.00000
22.33206 7.03348 4.00000
22.42134 7.03348 4.00000
22.51063 7.03348 4.00000
22.59992 7.03348 4.00000
22.68923 7.03348 4.00000
22.77854 7.03348 4.00000
22.86786 7.03348 4.00000
22.95719 7.03348 4.00000
23.04652 7.03348 4.00000
23.13586 7.03348 4.00000
23.22521 7.03348 4.00000
23.31457 7.03348 4.00000
23.40394 7.03348 4.00000
23.49331 7.03348 4.00000
23.58269 7.03348 4.00000
23.67208 7.03348 4.00000
23.76148 7.03348 4.00000
23.85088 7.03348 4.00000
23.94029 7.03348 4.00000
24.02971 7.03348 4.00000
24.11913 7.03348 4.00000
24.20856 7.03348 4.00000
24.29800 7.03348 4.00000
24.38744 7.03348 4.00000
24.47690 7.03348 4.00000
24.56636 7.03348 4.00000
24.65582 7.03348 4.00000
24.74530 7.03348 4.00000
24.83478 7.03348 4.00000
24.92426 7.03348 4.00000
25.01375 7.03348 4.00000
25.10325 7.03348 4.00000
25.19276 7.03348 4.00000
25.28227 7.03348 4.00000
25.37179 7.03348 4.00000
25.46132 7.03348 4.00000
25.55085 7.03348 4.00000
25.64039 7.03348 4.00000
25.72992 7.03348 4.00000
25.81947 7.03348 4.00000
25.90902 7.03348 4.00000
25.99859 7.03348 4.00000
26.08814 7.03349 4.00000
26.17770 7.03349 4.00000
26.26729 7.03348 4.00000
26.35686 7.03349 4.00000
26.44644 7.03349 4.00000
26.53605 7.03348 4.00000
26.62564 7.03348 4.00000
26.71524 7.03348 4.00000
26.80484 7.03349 4.00000
26.89446 7.03349 4.00000
26.98409 7.03348 4.00000
27.07372 7.03348 4.00000
27.16335 7.03348 4.00000
27.25299 7.03348 4.00000
27.34263 7.03348 4.00000
27.43228 7.03348 4.00000
27.52193 7.03348 4.00000
27.61159 7.03348 4.00000
27.70126 7.03348 4.00000
27.79093 7.03348 4.00000
27.88060 7.03348 4.00000
27.97029 7.03348 4.00000
28.05997 7.03348 4.00000
28.14967 7.03348 4.00000
28.23937 7.03348 4.00000
28.32908 7.03348 4.00000
28.41879 7.03348 4.00000
28.50851 7.03348 4.00000
28.59824 7.03348 4.00000
28.68796 7.03348 4.00000
28.77770 7.03348 4.00000
28.86745 7.03348 4.00000
28.95720 7.03348 4.00000
29.04696 7.03348 4.00000
29.13672 7.03348 4.00000
29.22649 7.03348 4.00000
29.31626 7.03348 4.00000
29.40604 7.03348 4.00000
29.49581 7.03348 4.00000
29.58560 7.03348 4.00000
29.67540 7.03348 4.00000
29.76520 7.03348 4.00000
29.85500 7.03348 4.00000
29.94481 7.03348 4.00000
30.03464 7.03348 4.00000
30.12446 7.03348 4.00000
30.21430 7.03348 4.00000
30.30412 7.03348 4.00000
30.39396 7.03348 4.00000
30.48382 7.03348 4.00000
30.57366 7.03348 4.00000
30.66352 7.03348 4.00000
30.75337 7.03348 4.00000
30.84323 7.03348 4.00000
30.93311 7.03348 4.00000
31.02298 7.03348 4.00000
31.11285 7.03348 4.00000

