Angle 0.224076 5.876376

4.00000 7.03348 4.00000
4.00000 7.03348 4.00000
4.00000 7.03348 4.00000
4.00000 7.03348 4.00000
4.00000 7.03348 4.00000
4.00000 7.03348 4.00000
4.00000 7.03348 4.00000
4.00000 7.03349 4.00000
4.00000 7.03348 4.00000
4.00000 7.03348 4.00000
4.00000 7.03348 4.00000
4.00000 7.03348 4.00000
4.00000 7.03348 4.00000
4.00000 7.03348 4.00000
4.00000 7.03348 4.00000
4.00000 7.03348 4.00000
4.00000 7.03348 4.00000
4.00000 7.03348 4.00000
4.00000 7.03349 4.00000
4.00000 7.03348 4.00000
4.00000 7.03348 4.00000
4.00000 7.03348 4.00000
4.00000 7.03348 4.00000
4.00000 7.03348 4.00000
4.00000 7.03348 4.00000
4.00000 7.03348 4.00000
4.00000 7.03348 4.00000
4.00000 7.03348 4.00000
4.00000 7.03348 4.00000
4.00000 7.03348 4.00000
4.00000 7.03348 4.00000
4.00000 7.03348 4.00000
4.00000 7.03348 4.00000
4.00000 7.03348 4.00000
4.00000 7.03348 4.00000
4.00000 7.03348 4.00000
4.00000 7.03348 4.00000
4.00000 7.03348 4.00000
4.00000 7.03348 4.00000
4.00000 7.03348 4.00000
4.00000 7.03348 4.00000
4.00000 7.03348 4.00000
4.00000 7.03348 4.00000
4.00000 7.03348 4.00000
4.00000 7.03350 3.99999
4.00000 7.03350 3.99999
4.00000 7.03348 4.00000
4.00000 7.03348 4.00000
4.00000 7.03350 4.00000
4.00000 7.03348 4.00000
4.00000 7.03348 4.00000
4.00000 7.03348 4.00000
4.00000 7.03348 4.00000
4.00000 7.03348 4.00000
4.00000 7.03348 4.00000
4.00000 7.03347 4.00000
4.00000 7.03348 4.00000
4.00000 7.03347 4.00000
4.00000 7.03348 4.00000
4.00000 7.03348 4.00000
4.00000 7.03348 4.00000
4.00000 7.03348 4.00000
4.00000 7.03348 4.00000
4.00000 7.03348 4.00000
4.00000 7.03348 4.00000
4.00000 7.03348 4.00000
4.00000 7.03348 4.00000
4.00000 7.03348 4.00000
4.00000 7.03348 4.00000
4.00000 7.03348 4.00000
4.00000 7.03348 4.00000
4.00000 7.03348 4.00000
4.00000 7.03349 4.00000
4.00000 7.03348 4.00000
4.00000 7.03348 4.00000
4.00000 7.03348 4.00000
4.00000 7.03348 4.00000
4.00000 7.03348 4.00000
4.00000 7.03348 4.00000
4.00000 7.03348 4.00000
4.00000 7.03348 4.00000
4.00000 7.03348 4.00000
4.00000 7.03349 4.00000
4.00000 7.03348 4.00000
4.00000 7.03349 4.00000
4.00000 7.03348 4.00000
4.00000 7.03348 4.00000
4.00000 7.03348 4.00000
4.00000 7.03347 4.00000
4.00000 7.03348 4.00000
4.00000 7.03349 4.00000
4.00000 7.03348 4.00000
4.00000 7.03348 4.00000
4.00000 7.03348 4.00000
4.00000 7.03348 4.00000
4.00000 7.03348 4.00000
4.00000 7.03348 4.00000
4.00000 7.03348 4.00000
4.00000 7.03348 4.00000
4.00000 7.03348 4.00000
4.00000 7.03347 4.00000
4.00000 7.03348 4.00000
4.00000 7.03348 4.00000
4.00000 7.03348 4.00000
4.00000 7.03348 4.00000
4.00000 7.03348 4.00000
4.00000 7.03348 4.00000
4.00000 7.03348 4.00000
4.00000 7.03348 4.00000
4.00000 7.03348 4.00000
4.00000 7.03348 4.00000
4.00000 7.03349 4.00000
4.00000 7.03349 4.00000
4.00000 7.03350 4.00000
4.00000 7.03350 4.00000
4.00000 7.03349 4.00000
4.00000 7.03349 4.00000
4.00000 7.03348 4.00000
4.00000 7.03348 4.00000
4.00000 7.03348 4.00000
4.00000 7.03348 4.00000
4.00000 7.03348 4.00000
4.00000 7.03348 4.00000
4.00000 7.03348 4.00000
4.00000 7.03348 4.00000
4.00000 7.03348 4.00000
4.00000 7.03348 4.00000
4.00000 7.03348 4.00000
4.00000 7.03348 4.00000
4.00000 7.03348 4.00000
4.00000 7.03348 4.00000
4.00000 7.03352 4.00000
4.00000 7.03348 4.00000
4.00461 7.10486 4.00461
4.00946 7.18123 4.00946
4.01425 7.25783 4.01424
4.01899 7.33459 4.01899
4.02372 7.41146 4.02372
4.02844 7.48839 4.02844
4.03318 7.56533 4.03318
4.03795 7.64223 4.03795
4.04278 7.71902 4.04278
4.04768 7.79565 4.04768
4.05269 7.87205 4.05269
4.05783 7.94814 4.05783
4.06313 8.02385 4.06313
4.06862 8.09908 4.06862
4.07435 8.17373 4.07435
4.08036 8.24768 4.08036
4.08670 8.32079 4.08670
4.09345 8.39291 4.09345
4.10066 8.46384 4.10066
4.10844 8.53337 4.10844
4.11688 8.60124 4.11688
4.12611 8.66715 4.12611
4.13613 8.73109 4.13614
4.14692 8.79320 4.14692
4.15850 8.85340 4.15850
4.17092 8.91162 4.17091
4.18420 8.96780 4.18420
4.19838 9.02189 4.19838
4.21349 9.07386 4.21349
4.22955 9.12367 4.22955
4.24658 9.17132 4.24658
4.26459 9.21680 4.26459
4.28359 9.26010 4.28359
4.30359 9.30122 4.30360
4.32462 9.34016 4.32462
4.34668 9.37690 4.34668
4.36980 9.41141 4.36980
4.39400 9.44364 4.39400
4.41933 9.47353 4.41933
4.44583 9.50096 4.44583
4.47358 9.52579 4.47358
4.50267 9.54781 4.50267
4.53322 9.56678 4.53322
4.56536 9.58239 4.56537
4.59927 9.59429 4.59927
4.63511 9.60209 4.63511
4.67308 9.60540 4.67308
7.44517 7.48686 4.02835
7.60624 7.41400 4.02387
7.74894 7.35923 4.02051
7.88003 7.31590 4.01784
8.00309 7.28051 4.01565
8.12021 7.25100 4.01382
8.23277 7.22602 4.01226
8.34176 7.20459 4.01092
8.44785 7.18605 4.00976
8.55159 7.16988 4.00874
8.65331 7.15572 4.00785
8.75337 7.14324 4.00706
8.85203 7.13219 4.00635
8.94946 7.12238 4.00573
9.04584 7.11365 4.00517
9.14131 7.10585 4.00467
9.23599 7.09888 4.00423
9.32998 7.09262 4.00383
9.42336 7.08700 4.00347
9.51621 7.08195 4.00314
9.60858 7.07740 4.00285
9.70054 7.07329 4.00258
9.79215 7.06958 4.00234
9.88341 7.06624 4.00213
9.97440 7.06321 4.00193
10.06512 7.06047 4.00175
10.15562 7.05799 4.00159
10.24593 7.05574 4.00145
10.33605 7.05370 4.00132
10.42602 7.05185 4.00120
10.51585 7.05018 4.00108
10.60555 7.04866 4.00099
10.69514 7.04728 4.00090
10.78465 7.04602 4.00082
10.87406 7.04488 4.00074
10.96340 7.04385 4.00068
11.05268 7.04291 4.00061
11.14190 7.04206 4.00056
11.23108 7.04127 4.00051
11.32021 7.04058 4.00046
11.40932 7.03993 4.00042
11.49837 7.03935 4.00038
11.58742 7.03882 4.00035
11.67644 7.03834 4.00032
11.76545 7.03790 4.00029
11.85444 7.03750 4.00026
11.94342 7.03714 4.00024
12.03240 7.03681 4.00022
12.12137 7.03651 4.00020
12.21034 7.03623 4.00018
12.29931 7.03598 4.00017
12.38828 7.03576 4.00015
12.47726 7.03555 4.00014
12.56624 7.03537 4.00012
12.65523 7.03519 4.00011
12.74422 7.03504 4.00010
12.83322 7.03489 4.00010
12.92223 7.03478 4.00008
13.01125 7.03465 4.00008
13.10028 7.03455 4.00007
13.18933 7.03445 4.00006
13.27838 7.03436 4.00006
13.36745 7.03428 4.00006
13.45652 7.03421 4.00005
13.54562 7.03414 4.00004
13.63472 7.03408 4.00004
13.72384 7.03403 4.00004
13.81297 7.03398 4.00003
13.90211 7.03394 4.00003
13.99128 7.03389 4.00003
14.08045 7.03386 4.00003
14.16964 7.03382 4.00002
14.25884 7.03379 4.00002
14.34805 7.03376 4.00002
14.43727 7.03374 4.00002
14.52652 7.03371 4.00002
14.61577 7.03369 4.00002
14.70504 7.03367 4.00001
14.79432 7.03366 4.00001
14.88362 7.03364 4.00001
14.97293 7.03363 4.00001
15.06225 7.03361 4.00001
15.15158 7.03360 4.00001
15.24093 7.03359 4.00001
15.33029 7.03358 4.00001
15.41967 7.03357 4.00001
15.50905 7.03356 4.00001
15.59845 7.03355 4.00001
15.68786 7.03355 4.00001
15.77728 7.03354 4.00001
15.86672 7.03354 4.00000
15.95616 7.03353 4.00000
16.04562 7.03353 4.00000
16.13509 7.03352 4.00000
16.22457 7.03352 4.00000
16.31406 7.03351 4.00000
16.40356 7.03351 4.00000
16.49308 7.03351 4.00000
16.58261 7.03351 4.00000
16.67215 7.03350 4.00000
16.76169 7.03350 4.00000
16.85125 7.03350 4.00000
16.94082 7.03350 4.00000
17.03041 7.03350 4.00000
17.12000 7.03349 4.00000
17.20960 7.03349 4.00000
17.29921 7.03349 4.00000
17.38882 7.03349 4.00000
17.47845 7.03349 4.00000
17.56809 7.03349 4.00000
17.65774 7.03349 4.00000
17.74739 7.03349 4.00000
17.83706 7.03349 4.00000
17.92673 7.03349 4.00000
18.01641 7.03349 4.00000
18.10611 7.03348 4.00000
18.19580 7.03348 4.00000
18.28551 7.03348 4.00000
18.37523 7.03348 4.00000
18.46495 7.03348 4.00000
18.55467 7.03348 4.00000
18.64441 7.03348 4.00000
18.73415 7.03348 4.00000
18.82389 7.03348 4.00000
18.91365 7.03348 4.00000
19.00341 7.03348 4.00000
19.09317 7.03348 4.00000
19.18294 7.03348 4.00000
19.27272 7.03348 4.00000
19.36250 7.03348 4.00000
19.45229 7.03347 4.00000
19.54209 7.03347 4.00000
19.63189 7.03347 4.00000
19.72170 7.03347 4.00000
19.81152 7.03347 4.00000
19.90134 7.03347 4.00000
19.99116 7.03347 4.00000
20.08099 7.03347 4.00000
20.17083 7.03347 4.00000
20.26067 7.03348 4.00000
20.35052 7.03348 4.00000
20.44038 7.03348 4.00000
20.53024 7.03348 4.00000
20.62011 7.03348 4.00000
20.70998 7.03348 4.00000
20.79985 7.03348 4.00000
20.88974 7.03348 4.00000
20.97962 7.03348 4.00000
21.06952 7.03348 4.00000
21.15944 7.03348 4.00000
21.24935 7.03348 4.00000
21.33928 7.03348 4.00000
21.42920 7.03348 4.00000
21.51914 7.03348 4.00000
21.60908 7.03348 4.00000
21.69902 7.03348 4.00000
21.78897 7.03348 4.00000
21.87892 7.03348 4.00000
21.96887 7.03347 4.00000
22.05883 7.03348 4.00000
22.14879 7.03347 4.00000
22.23874 7.03348 4.00000
22.32871 7.03348 4.00000
22.41868 7.03348 4.00000
22.50865 7.03348 4.00000
22.59863 7.03348 4.00000
22.68862 7.03348 4.00000
22.77861 7.03348 4.00000
22.86861 7.03348 4.00000
22.95861 7.03348 4.00000
23.04861 7.03348 4.00000
23.13862 7.03348 4.00000
23.22864 7.03348 4.00000
23.31866 7.03348 4.00000
23.40868 7.03348 4.00000
23.49871 7.03348 4.00000
23.58875 7.03347 4.00000
23.67878 7.03348 4.00000
23.76882 7.03348 4.00000
23.85887 7.03347 4.00000
23.94891 7.03348 4.00000
24.03896 7.03348 4.00000
24.12902 7.03348 4.00000
24.21906 7.03348 4.00000
24.30912 7.03348 4.00000
24.39919 7.03348 4.00000
24.48925 7.03348 4.00000
24.57932 7.03348 4.00000
24.66940 7.03347 4.00000
24.75947 7.03348 4.00000
24.84955 7.03348 4.00000
24.93963 7.03348 4.00000
25.02972 7.03348 4.00000
25.11981 7.03348 4.00000
25.20990 7.03348 4.00000
25.30000 7.03348 4.00000
25.39010 7.03348 4.00000
25.48021 7.03348 4.00000
25.57032 7.03348 4.00000
25.66042 7.03348 4.00000
25.75054 7.03348 4.00000
25.84065 7.03348 4.00000
25.93078 7.03348 4.00000
26.02090 7.03348 4.00000
26.11103 7.03348 4.00000
26.20115 7.03348 4.00000
26.29129 7.03348 4.00000
26.38142 7.03348 4.00000
26.47156 7.03348 4.00000
26.56170 7.03348 4.00000
26.65184 7.03348 4.00000
26.74199 7.03348 4.00000
26.83214 7.03347 4.00000
26.92228 7.03349 4.00000
27.01244 7.03348 4.00000
27.10260 7.03348 4.00000
27.19275 7.03348 4.00000
27.28292 7.03348 4.00000
27.37308 7.03348 4.00000
27.46325 7.03348 4.00000

Angle 0.559689 4.244642

4.00000 7.03348 4.00000
4.00000 7.03348 4.00000
4.00000 7.03348 4.00000
4.00000 7.03348 4.00000
4.00000 7.03348 4.00000
4.00000 7.03348 4.00000
4.00000 7.03348 4.00000
4.00000 7.03348 4.00000
4.00000 7.03348 4.00000
4.00000 7.03348 4.00000
4.00000 7.03348 4.00000
4.00000 7.03348 4.00000
4.00000 7.03348 4.00000
4.00000 7.03348 4.00000
4.00000 7.03348 4.00000
4.00000 7.03348 4.00000
4.00000 7.03348 4.00000
4.00000 7.03348 4.00000
4.00000 7.03348 4.00000
4.00000 7.03348 4.00000
4.00000 7.03348 4.00000
4.00000 7.03348 4.00000
4.00000 7.03348 4.00000
4.00000 7.03348 4.00000
4.00000 7.03348 4.00000
4.00000 7.03348 4.00000
4.00000 7.03348 4.00000
4.00000 7.03348 4.00000
4.00000 7.03348 4.00000
4.00000 7.03348 4.00000
4.00000 7.03348 4.00000
4.00000 7.03348 4.00000
4.00000 7.03348 4.00000
4.00000 7.03348 4.00000
4.00000 7.03348 4.00000
4.00000 7.03348 4.00000
4.00000 7.03348 4.00000
4.00000 7.03348 4.00000
4.00000 7.03348 4.00000
4.00000 7.03348 4.00000
4.00000 7.03348 4.00000
4.00000 7.03348 4.00000
4.00000 7.03348 4.00000
4.00000 7.03348 4.00000
4.00000 7.03348 4.00000
4.00000 7.03348 4.00000
4.00000 7.03349 4.00000
4.00000 7.03348 4.00000
4.00000 7.03348 4.00000
4.00000 7.03348 4.00000
4.00000 7.03348 4.00000
4.00000 7.03348 4.00000
4.00000 7.03347 4.00000
4.00000 7.03347 4.00000
4.00000 7.03347 4.00000
4.00000 7.03346 4.00000
4.00000 7.03348 4.00000
4.00000 7.03348 4.00000
4.00000 7.03348 4.00000
4.00000 7.03348 4.00000
4.00000 7.03348 4.00000
4.00000 7.03348 4.00000
4.00000 7.03348 4.00000
4.00000 7.03348 4.00000
4.00000 7.03348 4.00000
4.00000 7.03349 4.00000
4.00277 7.07620 4.00277
4.00639 7.13272 4.00639
4.00998 7.18962 4.00998
4.01356 7.24686 4.01356
4.01713 7.30442 4.01713
4.02070 7.36227 4.02070
4.02427 7.42039 4.02427
4.02785 7.47877 4.02785
4.03145 7.53736 4.03145
4.03509 7.59614 4.03509
4.03875 7.65509 4.03875
4.04247 7.71417 4.04247
4.04625 7.77336 4.04624
4.05009 7.83261 4.05009
4.05402 7.89190 4.05401
4.05804 7.95118 4.05804
4.06217 8.01040 4.06217
4.06643 8.06953 4.06643
4.07084 8.12850 4.07084
4.07542 8.18726 4.07542
4.08019 8.24573 4.08019
4.08519 8.30385 4.08519
4.09045 8.36153 4.09045
4.09600 8.41867 4.09600
4.10188 8.47516 4.10188
4.10815 8.53088 4.10815
4.11486 8.58568 4.11486
4.12208 8.63939 4.12208
4.12987 8.69188 4.12987
4.13817 8.74329 4.13817
4.14700 8.79361 4.14699
4.15637 8.84279 4.15637
4.16632 8.89077 4.16632
4.17687 8.93751 4.17687
4.18803 8.98297 4.18803
4.19984 9.02712 4.19983
4.21229 9.06992 4.21229
4.22543 9.11135 4.22543
4.23924 9.15139 4.23924
4.25376 9.19003 4.25376
4.26899 9.22724 4.26899
4.28494 9.26302 4.28494
4.30163 9.29736 4.30163
4.31906 9.33024 4.31905
4.33724 9.36165 4.33724
4.35620 9.39156 4.35620
4.37594 9.41994 4.37594
4.39650 9.44676 4.39650
4.41789 9.47194 4.41789
4.44017 9.49542 4.44017
4.46337 9.51710 4.46336
4.48754 9.53686 4.48754
4.51277 9.55454 4.51276
4.53912 9.56998 4.53912
4.56670 9.58295 4.56670
4.59562 9.59323 4.59561
4.62598 9.60055 4.62598
4.65793 9.60466 4.65793
7.34691 7.53781 4.03148
7.50038 7.46046 4.02673
7.63408 7.40264 4.02318
7.75568 7.35685 4.02036
7.86904 7.31930 4.01805
7.97638 7.28780 4.01610
8.07916 7.26092 4.01444
8.17835 7.23772 4.01299
8.27466 7.21748 4.01173
8.36862 7.19969 4.01062
8.46062 7.18396 4.00963
8.55098 7.16998 4.00875
8.63995 7.15750 4.00796
8.72773 7.14631 4.00725
8.81449 7.13626 4.00661
8.90037 7.12720 4.00604
8.98549 7.11902 4.00552
9.06995 7.11161 4.00504
9.15384 7.10489 4.00461
9.23722 7.09880 4.00422
9.32017 7.09325 4.00387
9.40272 7.08820 4.00354
9.48495 7.08360 4.00325
9.56689 7.07940 4.00298
9.64860 7.07555 4.00273
9.73007 7.07205 4.00250
9.81134 7.06885 4.00230
9.89246 7.06592 4.00211
9.97344 7.06323 4.00193
10.05429 7.06078 4.00177
10.13506 7.05853 4.00163
10.21574 7.05646 4.00149
10.29635 7.05458 4.00137
10.37692 7.05284 4.00126
10.45744 7.05125 4.00116
10.53794 7.04979 4.00106
10.61842 7.04845 4.00097
10.69891 7.04720 4.00089
10.77935 7.04609 4.00082
10.85979 7.04510 4.00075
10.94031 7.04411 4.00069
11.02081 7.04324 4.00064
11.10134 7.04243 4.00058
11.18190 7.04170 4.00053
11.26249 7.04103 4.00049
11.34312 7.04040 4.00045
11.42378 7.03983 4.00041
11.50450 7.03931 4.00038
11.58526 7.03883 4.00035
11.66606 7.03839 4.00032
11.74693 7.03799 4.00029
11.82785 7.03760 4.00027
11.90882 7.03727 4.00025
11.98983 7.03696 4.00023
12.07092 7.03667 4.00021
12.15206 7.03641 4.00019
12.23327 7.03617 4.00018
12.31455 7.03594 4.00016
12.39587 7.03574 4.00015
12.47727 7.03555 4.00014
12.55873 7.03538 4.00013
12.64026 7.03522 4.00012
12.72183 7.03507 4.00011
12.80348 7.03494 4.00010
12.88519 7.03482 4.00009
12.96698 7.03471 4.00008
13.04883 7.03461 4.00008
13.13074 7.03451 4.00007
13.21253 7.03443 4.00006
13.29455 7.03435 4.00006
13.37664 7.03428 4.00005
13.45879 7.03421 4.00005
13.54102 7.03415 4.00005
13.62331 7.03409 4.00004
13.70566 7.03404 4.00004
13.78803 7.03396 4.00003
13.87041 7.03395 4.00003
13.95292 7.03391 4.00003
14.03550 7.03387 4.00003
14.11815 7.03384 4.00002
14.20086 7.03381 4.00002
14.28363 7.03378 4.00002
14.36647 7.03376 4.00002
14.44937 7.03373 4.00002
14.53233 7.03371 4.00002
14.61535 7.03369 4.00001
14.69842 7.03367 4.00002
14.78137 7.03366 4.00001
14.86456 7.03364 4.00001
14.94781 7.03363 4.00001
15.03111 7.03362 4.00001
15.11447 7.03361 4.00001
15.19789 7.03359 4.00001
15.28108 7.03358 4.00000
15.36458 7.03358 4.00001
15.44814 7.03357 4.00001
15.53177 7.03356 4.00001
15.61545 7.03355 4.00001
15.69918 7.03355 4.00001
15.78297 7.03354 4.00000
15.86680 7.03354 4.00000
15.95069 7.03353 4.00000
16.03463 7.03353 4.00000
16.11862 7.03352 4.00000
16.20266 7.03352 4.00000
16.28675 7.03352 4.00000
16.37089 7.03351 4.00000
16.45507 7.03351 4.00000
16.53930 7.03351 4.00000
16.62358 7.03350 4.00000
16.70790 7.03350 4.00000
16.79227 7.03350 4.00000
16.87669 7.03350 4.00000
16.96114 7.03350 4.00000
17.04565 7.03350 4.00000
17.13019 7.03349 4.00000
17.21478 7.03349 4.00000
17.29941 7.03349 4.00000
17.38409 7.03349 4.00000
17.46880 7.03349 4.00000
17.55356 7.03349 4.00000
17.63835 7.03349 4.00000
17.72319 7.03349 4.00000
17.80807 7.03349 4.00000
17.89298 7.03349 4.00000
17.97794 7.03349 4.00000
18.06287 7.03348 4.00000
18.14783 7.03348 4.00000
18.23283 7.03348 4.00000
18.31786 7.03348 4.00000
18.40293 7.03348 4.00000
18.48804 7.03348 4.00000
18.57318 7.03348 4.00000
18.65836 7.03348 4.00000
18.74357 7.03348 4.00000
18.82881 7.03348 4.00000
18.91409 7.03347 4.00000
18.99939 7.03348 4.00000
19.08473 7.03348 4.00000
19.17011 7.03348 4.00000
19.25552 7.03348 4.00000
19.34096 7.03348 4.00000
19.42643 7.03348 4.00000
19.51194 7.03348 4.00000
19.59748 7.03348 4.00000
19.68304 7.03348 4.00000
19.76864 7.03348 4.00000
19.85427 7.03348 4.00000
19.93993 7.03348 4.00000
20.02562 7.03348 4.00000
20.11134 7.03348 4.00000
20.19708 7.03348 4.00000
20.28286 7.03348 4.00000
20.36865 7.03348 4.00000
20.45449 7.03348 4.00000
20.54035 7.03348 4.00000
20.62623 7.03348 4.00000
20.71213 7.03348 4.00000
20.79806 7.03348 4.00000
20.88402 7.03348 4.00000
20.97000 7.03348 4.00000
21.05603 7.03348 4.00000
21.14208 7.03348 4.00000
21.22816 7.03348 4.00000
21.31427 7.03348 4.00000
21.40040 7.03348 4.00000
21.48656 7.03348 4.00000
21.57274 7.03348 4.00000
21.65895 7.03348 4.00000
21.74518 7.03348 4.00000
21.83144 7.03348 4.00000
21.91772 7.03348 4.00000
22.00402 7.03348 4.00000
22.09035 7.03348 4.00000
22.17671 7.03348 4.00000
22.26308 7.03348 4.00000
22.34948 7.03348 4.00000
22.43591 7.03348 4.00000
22.52235 7.03348 4.00000
22.60882 7.03348 4.00000
22.69531 7.03348 4.00000
22.78182 7.03348 4.00000
22.86836 7.03348 4.00000
22.95492 7.03348 4.00000
23.04150 7.03348 4.00000
23.12810 7.03348 4.00000
23.21472 7.03348 4.00000
23.30136 7.03348 4.00000
23.38801 7.03347 4.00000
23.47469 7.03348 4.00000
23.56140 7.03348 4.00000
23.64813 7.03348 4.00000
23.73488 7.03347 4.00000
23.82162 7.03348 4.00000
23.90841 7.03348 4.00000
23.99521 7.03347 4.00000
24.08203 7.03348 4.00000
24.16887 7.03348 4.00000
24.25574 7.03348 4.00000
24.34262 7.03348 4.00000
24.42952 7.03348 4.00000
24.51643 7.03348 4.00000
24.60336 7.03348 4.00000
24.69032 7.03348 4.00000
24.77729 7.03348 4.00000
24.86429 7.03347 4.00000
24.95130 7.03348 4.00000
25.03833 7.03348 4.00000
25.12537 7.03348 4.00000
25.21244 7.03348 4.00000
25.29952 7.03348 4.00000
25.38663 7.03347 4.00000
25.47374 7.03348 4.00000
25.56088 7.03348 4.00000
25.64802 7.03348 4.00000
25.73519 7.03348 4.00000
25.82237 7.03348 4.00000
25.90957 7.03348 4.00000
25.99678 7.03348 4.00000
26.08402 7.03348 4.00000
26.17126 7.03348 4.00000
26.25853 7.03348 4.00000
26.34580 7.03348 4.00000
26.43307 7.03348 4.00000
26.52036 7.03348 4.00000
26.60767 7.03348 4.00000
26.69499 7.03348 4.00000
26.78232 7.03348 4.00000
26.86967 7.03348 4.00000
26.95704 7.03348 4.00000
27.04441 7.03348 4.00000
27.13181 7.03348 4.00000
27.21922 7.03348 4.00000
27.30664 7.03348 4.00000
27.39407 7.03348 4.00000
27.48152 7.03348 4.00000
27.56898 7.03348 4.00000
27.65646 7.03348 4.00000
27.74395 7.03348 4.00000
27.83146 7.03348 4.00000
27.91897 7.03348 4.00000
28.00650 7.03348 4.00000
28.09405 7.03348 4.00000
28.18161 7.03348 4.00000
28.26918 7.03348 4.00000
28.35676 7.03348 4.00000
28.44436 7.03348 4.00000
28.53197 7.03348 4.00000
28.61960 7.03348 4.00000
28.70723 7.03348 4.00000
28.79488 7.03348 4.00000
28.88254 7.03348 4.00000
28.97021 7.03348 4.00000
29.05790 7.03348 4.00000
29.14560 7.03348 4.00000
29.23331 7.03348 4.00000
29.32103 7.03348 4.00000
29.40876 7.03348 4.00000
29.49651 7.03348 4.00000
29.58427 7.03348 4.00000
29.67204 7.03348 4.00000
29.75982 7.03348 4.00000
29.84761 7.03348 4.00000
29.93542 7.03348 4.00000
30.02324 7.03348 4.00000
30.11107 7.03348 4.00000
30.19891 7.03348 4.00000
30.28676 7.03348 4.00000
30.37463 7.03348 4.00000
30.46251 7.03348 4.00000
30.55040 7.03348 4.00000
30.63830 7.03348 4.00000
30.72621 7.03348 4.00000
30.81414 7.03348 4.00000
30.90208 7.03348 4.00000
30.99002 7.03348 4.00000

Angle 0.356999 4.830883

4.00000 7.03347 4.00000
4.00000 7.03347 4.00000
4.00000 7.03347 4.00000
4.00000 7.03347 4.00000
4.00000 7.03347 4.00000
4.00000 7.03347 4.00000
4.00000 7.03348 4.00000
4.00000 7.03348 4.00000
4.00000 7.03348 4.00000
4.00000 7.03346 4.00000
4.00000 7.03348 4.00000
4.00000 7.03348 4.00000
4.00000 7.03348 4.00000
4.00000 7.03348 4.00000
4.00000 7.03348 4.00000
4.00000 7.03347 4.00000
4.00000 7.03348 4.00000
4.00000 7.03348 4.00000
4.00000 7.03348 4.00000
4.00000 7.03348 4.00000
4.00000 7.03348 4.00000
4.00000 7.03348 4.00000
4.00000 7.03348 4.00000
4.00000 7.03348 4.00000
4.00000 7.03348 4.00000
4.00000 7.03348 4.00000
4.00000 7.03348 4.00000
4.00000 7.03348 4.00000
4.00000 7.03348 4.00000
4.00000 7.03347 4.00000
4.00000 7.03348 4.00000
4.00000 7.03348 4.00000
4.00000 7.03348 4.00000
4.00000 7.03348 4.00000
4.00000 7.03348 4.00000
4.00000 7.03348 4.00000
4.00000 7.03348 4.00000
4.00000 7.03348 4.00000
4.00000 7.03348 4.00000
4.00000 7.03348 4.00000
4.00000 7.03348 4.00000
4.00000 7.03348 4.00000
4.00000 7.03348 4.00000
4.00000 7.03348 4.00000
4.00000 7.03348 4.00000
4.00000 7.03348 4.00000
4.00000 7.03348 4.00000
4.00000 7.03348 4.00000
4.00000 7.03348 4.00000
4.00000 7.03348 4.00000
4.00000 7.03347 4.00000
4.00000 7.03348 4.00000
4.00000 7.03348 4.00000
4.00000 7.03348 4.00000
4.00000 7.03348 4.00000
4.00000 7.03348 4.00000
4.00000 7.03348 4.00000
4.00000 7.03348 4.00000
4.00000 7.03348 4.00000
4.00000 7.03348 4.00000
4.00000 7.03348 4.00000
4.00000 7.03348 4.00000
4.00000 7.03348 4.00000
4.00000 7.03348 4.00000
4.00000 7.03348 4.00000
4.00000 7.03348 4.00000
4.00000 7.03348 4.00000
4.00000 7.03348 4.00000
4.00000 7.03348 4.00000
4.00000 7.03348 4.00000
4.00000 7.03348 4.00000
4.00000 7.03348 4.00000
4.00025 7.03725 4.00025
4.00447 7.10270 4.00447
4.00865 7.16848 4.00865
4.01280 7.23456 4.01280
4.01691 7.30090 4.01691
4.02102 7.36747 4.02102
4.02512 7.43423 4.02512
4.02923 7.50116 4.02923
4.03336 7.56820 4.03336
4.03752 7.63532 4.03752
4.04173 7.70249 4.04173
4.04601 7.76966 4.04601
4.05036 7.83677 4.05036
4.05481 7.90379 4.05481
4.05938 7.97066 4.05938
4.06409 8.03732 4.06409
4.06896 8.10369 4.06896
4.07403 8.16970 4.07403
4.07932 8.23528 4.07932
4.08488 8.30031 4.08488
4.09074 8.36468 4.09074
4.09697 8.42828 4.09697
4.10360 8.49094 4.10360
4.11073 8.55249 4.11073
4.11841 8.61275 4.11841
4.12675 8.67147 4.12675
4.13574 8.72871 4.13574
4.14535 8.78455 4.14536
4.15561 8.83894 4.15561
4.16655 8.89181 4.16655
4.17819 8.94310 4.17819
4.19057 8.99278 4.19057
4.20371 9.04081 4.20370
4.21762 9.08714 4.21762
4.23233 9.13177 4.23233
4.24785 9.17468 4.24785
4.26419 9.21584 4.26419
4.28137 9.25526 4.28137
4.29939 9.29293 4.29939
4.31828 9.32883 4.31828
4.33803 9.36296 4.33803
4.35868 9.39528 4.35868
4.38023 9.42576 4.38023
4.40272 9.45436 4.40272
4.42618 9.48099 4.42618
4.45067 9.50557 4.45067
4.47624 9.52797 4.47624
4.50296 9.54801 4.50296
4.53093 9.56551 4.53093
4.56027 9.58021 4.56027
4.59110 9.59184 4.59110
4.62355 9.60009 4.62355
4.65779 9.60465 4.65779
7.35837 7.53159 4.03110
7.52018 7.45136 4.02617
7.66073 7.39208 4.02253
7.78844 7.34551 4.01966
7.90746 7.30758 4.01733
8.02015 7.27596 4.01537
8.12806 7.24915 4.01370
8.23223 7.22611 4.01227
8.33338 7.20615 4.01102
8.43211 7.18865 4.00992
8.52876 7.17329 4.00896
8.62376 7.15966 4.00810
8.71725 7.14759 4.00733
8.80954 7.13681 4.00665
8.90076 7.12717 4.00603
8.99107 7.11851 4.00548
9.08058 7.11072 4.00499
9.16939 7.10373 4.00454
9.25762 7.09738 4.00413
9.34530 7.09166 4.00377
9.43252 7.08648 4.00343
9.51934 7.08180 4.00313
9.60581 7.07752 4.00285
9.69197 7.07363 4.00260
9.77782 7.07014 4.00238
9.86346 7.06694 4.00217
9.94888 7.06402 4.00198
10.03413 7.06137 4.00181
10.11921 7.05895 4.00166
10.20415 7.05675 4.00151
10.28897 7.05474 4.00138
10.37369 7.05291 4.00126
10.45835 7.05121 4.00115
10.54291 7.04969 4.00105
10.62741 7.04829 4.00096
10.71187 7.04702 4.00088
10.79627 7.04586 4.00080
10.88064 7.04480 4.00074
10.96500 7.04383 4.00067
11.04935 7.04294 4.00062
11.13369 7.04213 4.00056
11.21802 7.04139 4.00052
11.30236 7.04071 4.00047
11.38670 7.04008 4.00043
11.47104 7.03953 4.00039
11.55542 7.03900 4.00036
11.63981 7.03853 4.00033
11.72421 7.03810 4.00030
11.80864 7.03770 4.00028
11.89310 7.03734 4.00025
11.97759 7.03701 4.00023
12.06211 7.03670 4.00021
12.14666 7.03643 4.00019
12.23124 7.03617 4.00018
12.31586 7.03594 4.00016
12.40052 7.03573 4.00015
12.48521 7.03553 4.00013
12.56994 7.03536 4.00013
12.65471 7.03520 4.00011
12.73952 7.03505 4.00010
12.82437 7.03491 4.00009
12.90926 7.03479 4.00009
12.99418 7.03468 4.00008
13.07916 7.03457 4.00007
13.16417 7.03448 4.00007
13.24923 7.03439 4.00006
13.33432 7.03432 4.00005
13.41945 7.03424 4.00005
13.50463 7.03417 4.00005
13.58985 7.03411 4.00004
13.67511 7.03406 4.00004
13.76041 7.03401 4.00003
13.84575 7.03396 4.00003
13.93114 7.03392 4.00003
14.01657 7.03389 4.00002
14.10203 7.03384 4.00003
14.18752 7.03382 4.00002
14.27306 7.03379 4.00002
14.35865 7.03376 4.00002
14.44427 7.03374 4.00002
14.52994 7.03371 4.00002
14.61564 7.03370 4.00001
14.70138 7.03368 4.00001
14.78716 7.03366 4.00001
14.87298 7.03364 4.00001
14.95884 7.03362 4.00001
15.04471 7.03362 4.00001
15.13065 7.03360 4.00001
15.21662 7.03359 4.00001
15.30262 7.03358 4.00000
15.38864 7.03358 4.00000
15.47470 7.03357 4.00001
15.56082 7.03356 4.00001
15.64696 7.03355 4.00001
15.73313 7.03354 4.00000
15.81934 7.03354 4.00000
15.90558 7.03353 4.00000
15.99185 7.03353 4.00000
16.07815 7.03352 4.00000
16.16448 7.03352 4.00000
16.25085 7.03352 4.00000
16.33725 7.03351 4.00000
16.42367 7.03351 4.00000
16.51013 7.03351 4.00000
16.59662 7.03351 4.00000
16.68313 7.03350 4.00000
16.76972 7.03350 4.00000
16.85634 7.03350 4.00000
16.94300 7.03350 4.00000
17.02968 7.03350 4.00000
17.11639 7.03349 4.00000
17.20313 7.03349 4.00000
17.28990 7.03349 4.00000
17.37670 7.03349 4.00000
17.46352 7.03349 4.00000
17.55038 7.03348 4.00000
17.63725 7.03348 4.00000
17.72415 7.03348 4.00000
17.81108 7.03348 4.00000
17.89803 7.03348 4.00000
17.98501 7.03348 4.00000
18.07202 7.03348 4.00000
18.15904 7.03348 4.00000
18.24610 7.03348 4.00000
18.33317 7.03348 4.00000
18.42027 7.03348 4.00000
18.50739 7.03348 4.00000
18.59454 7.03348 4.00000
18.68171 7.03348 4.00000
18.76890 7.03347 4.00000
18.85611 7.03347 4.00000
18.94333 7.03348 4.00000
19.03059 7.03348 4.00000
19.11787 7.03348 4.00000
19.20516 7.03348 4.00000
19.29249 7.03347 4.00000
19.37982 7.03348 4.00000
19.46717 7.03348 4.00000
19.55455 7.03348 4.00000
19.64195 7.03348 4.00000
19.72936 7.03348 4.00000
19.81680 7.03348 4.00000
19.90425 7.03348 4.00000
19.99173 7.03348 4.00000
20.07924 7.03348 4.00000
20.16677 7.03348 4.00000
20.25432 7.03348 4.00000
20.34188 7.03348 4.00000
20.42947 7.03348 4.00000
20.51708 7.03348 4.00000
20.60470 7.03348 4.00000
20.69234 7.03348 4.00000
20.77998 7.03347 4.00000
20.86763 7.03348 4.00000
20.95530 7.03348 4.00000
21.04299 7.03348 4.00000
21.13069 7.03348 4.00000
21.21841 7.03348 4.00000
21.30615 7.03348 4.00000
21.39391 7.03348 4.00000
21.48168 7.03348 4.00000
21.56947 7.03348 4.00000
21.65727 7.03348 4.00000
21.74509 7.03348 4.00000
21.83292 7.03348 4.00000
21.92078 7.03348 4.00000
22.00864 7.03348 4.00000
22.09653 7.03348 4.00000
22.18443 7.03348 4.00000
22.27234 7.03348 4.00000
22.36028 7.03348 4.00000
22.44824 7.03347 4.00000
22.53618 7.03348 4.00000
22.62416 7.03348 4.00000
22.71214 7.03348 4.00000
22.80015 7.03348 4.00000
22.88819 7.03348 4.00000
22.97622 7.03347 4.00000
23.06426 7.03348 4.00000
23.15232 7.03348 4.00000
23.24040 7.03348 4.00000
23.32848 7.03348 4.00000
23.41660 7.03348 4.00000
23.50471 7.03348 4.00000
23.59284 7.03348 4.00000
23.68099 7.03347 4.00000
23.76914 7.03348 4.00000
23.85731 7.03348 4.00000
23.94549 7.03348 4.00000
24.03368 7.03348 4.00000
24.12189 7.03348 4.00000
24.21010 7.03348 4.00000
24.29834 7.03348 4.00000
24.38658 7.03348 4.00000
24.47484 7.03348 4.00000
24.56311 7.03348 4.00000
24.65139 7.03348 4.00000
24.73969 7.03348 4.00000
24.82799 7.03348 4.00000
24.91632 7.03348 4.00000
25.00465 7.03348 4.00000
25.09300 7.03348 4.00000
25.18135 7.03348 4.00000
25.26972 7.03348 4.00000
25.35810 7.03348 4.00000
25.44649 7.03348 4.00000
25.53490 7.03348 4.00000
25.62333 7.03348 4.00000
25.71176 7.03348 4.00000
25.80021 7.03347 4.00000
25.88867 7.03348 4.00000
25.97715 7.03348 4.00000
26.06564 7.03348 4.00000
26.15414 7.03348 4.00000
26.24265 7.03348 4.00000
26.33118 7.03348 4.00000
26.41971 7.03348 4.00000
26.50825 7.03348 4.00000
26.59681 7.03348 4.00000
26.68537 7.03348 4.00000
26.77395 7.03348 4.00000
26.86254 7.03348 4.00000
26.95113 7.03348 4.00000
27.03974 7.03348 4.00000
27.12836 7.03348 4.00000
27.21698 7.03348 4.00000
27.30562 7.03348 4.00000
27.39427 7.03348 4.00000
27.48292 7.03348 4.00000
27.57159 7.03348 4.00000
27.66027 7.03348 4.00000
27.74895 7.03348 4.00000
27.83765 7.03348 4.00000
27.92635 7.03348 4.00000
28.01507 7.03348 4.00000
28.10379 7.03348 4.00000
28.19252 7.03348 4.00000
28.28127 7.03348 4.00000
28.37002 7.03348 4.00000
28.45878 7.03348 4.00000
28.54755 7.03348 4.00000
28.63633 7.03348 4.00000
28.72512 7.03348 4.00000
28.81392 7.03348 4.00000
28.90273 7.03348 4.00000
28.99155 7.03348 4.00000
29.08037 7.03348 4.00000
29.16921 7.03348 4.00000
29.25806 7.03348 4.00000
29.34691 7.03348 4.00000
29.43577 7.03348 4.00000
29.52465 7.03348 4.00000
29.61353 7.03348 4.00000
29.70242 7.03348 4.00000
29.79132 7.03348 4.00000
29.88023 7.03348 4.00000
29.96914 7.03348 4.00000
30.05807 7.03348 4.00000
30.14700 7.03348 4.00000
30.23595 7.03348 4.00000
30.32490 7.03348 4.00000
30.41386 7.03348 4.00000
30.50283 7.03348 4.00000
30.59181 7.03348 4.00000
30.68079 7.03348 4.00000
30.76975 7.03348 4.00000
30.85873 7.03349 4.00000
30.94771 7.03349 4.00000
31.03673 7.03348 4.00000
31.12573 7.03348 4.00000
31.21474 7.03349 4.00000
31.30378 7.03348 4.00000
31.39282 7.03348 4.00000
31.48185 7.03348 4.00000
31.57090 7.03348 4.00000

Angle 0.202827 3.446606

4.00000 7.03347 4.00000
4.00000 7.03348 4.00000
4.00000 7.03348 4.00000
4.00000 7.03348 4.00000
4.00000 7.03348 4.00000
4.00000 7.03348 4.00000
4.00000 7.03348 4.00000
4.00000 7.03347 4.00000
4.00000 7.03348 4.00000
4.00000 7.03348 4.00000
4.00000 7.03348 4.00000
4.00000 7.03348 4.00000
4.00000 7.03348 4.00000
4.00000 7.03348 4.00000
4.00000 7.03348 4.00000
4.00000 7.03348 4.00000
4.00000 7.03348 4.00000
4.00000 7.03348 4.00000
4.00000 7.03350 4.00000
4.00000 7.03348 4.00000
4.00000 7.03348 4.00000
4.00000 7.03348 4.00000
4.00000 7.03348 4.00000
4.00000 7.03348 4.00000
4.00000 7.03348 4.00000
4.00000 7.03347 4.00000
4.00000 7.03347 4.00000
4.00000 7.03348 4.00000
4.00000 7.03348 4.00000
4.00000 7.03348 4.00000
4.00000 7.03348 4.00000
4.00000 7.03348 4.00000
4.00000 7.03349 4.00000
4.00000 7.03348 4.00000
4.00000 7.03348 4.00000
4.00000 7.03348 4.00000
4.00000 7.03348 4.00000
4.00000 7.03348 4.00000
4.00000 7.03348 4.00000
4.00000 7.03348 4.00000
4.00000 7.03348 4.00000
4.00000 7.03348 4.00000
4.00000 7.03348 4.00000
4.00000 7.03348 4.00000
4.00000 7.03348 4.00000
4.00000 7.03348 4.00000
4.00000 7.03348 4.00000
4.00000 7.03348 4.00000
4.00000 7.03348 4.00000
4.00000 7.03348 4.00000
4.00000 7.03348 4.00000
4.00000 7.03348 4.00000
4.00000 7.03348 4.00000
4.00000 7.03348 4.00000
4.00000 7.03348 4.00000
4.00000 7.03348 4.00000
4.00000 7.03348 4.00000
4.00000 7.03348 4.00000
4.00000 7.03348 4.00000
4.00000 7.03348 4.00000
4.00000 7.03348 4.00000
4.00000 7.03348 4.00000
4.00000 7.03348 4.00000
4.00000 7.03348 4.00000
4.00000 7.03347 4.00000
4.00000 7.03348 4.00000
4.00000 7.03348 4.00000
4.00000 7.03348 4.00000
4.00000 7.03348 4.00000
4.00000 7.03348 4.00000
4.00000 7.03348 4.00000
4.00000 7.03348 4.00000
4.00000 7.03348 4.00000
4.00000 7.03348 4.00000
4.00000 7.03348 4.00000
4.00000 7.03348 4.00000
4.00000 7.03348 4.00000
4.00000 7.03348 4.00000
4.00000 7.03347 4.00000
4.00000 7.03347 4.00000
4.00000 7.03348 4.00000
4.00000 7.03348 4.00000
4.00000 7.03348 4.00000
4.00000 7.03348 4.00000
4.00000 7.03348 4.00000
4.00000 7.03348 4.00000
4.00000 7.03348 4.00000
4.00000 7.03348 4.00000
4.00000 7.03348 4.00000
4.00000 7.03348 4.00000
4.00000 7.03348 4.00000
4.00000 7.03348 4.00000
4.00000 7.03348 4.00000
4.00000 7.03348 4.00000
4.00000 7.03348 4.00000
4.00000 7.03348 4.00000
4.00000 7.03348 4.00000
4.00000 7.03348 4.00000
4.00000 7.03348 4.00000
4.00000 7.03348 4.00000
4.00000 7.03348 4.00000
4.00000 7.03348 4.00000
4.00000 7.03348 4.00000
4.00000 7.03348 4.00000
4.00000 7.03348 4.00000
4.00000 7.03348 4.00000
4.00000 7.03348 4.00000
4.00000 7.03348 4.00000
4.00000 7.03348 4.00000
4.00000 7.03348 4.00000
4.00000 7.03348 4.00000
4.00000 7.03348 4.00000
4.00000 7.03348 4.00000
4.00000 7.03348 4.00000
4.00000 7.03348 4.00000
4.00000 7.03348 4.00000
4.00000 7.03348 4.00000
4.00000 7.03348 4.00000
4.00000 7.03348 4.00000
4.00000 7.03348 4.00000
4.00000 7.03348 4.00000
4.00000 7.03348 4.00000
4.00000 7.03348 4.00000
4.00000 7.03348 4.00000
4.00000 7.03348 4.00000
4.00000 7.03348 4.00000
4.00000 7.03348 4.00000
4.00000 7.03348 4.00000
4.00000 7.03348 4.00000
4.00000 7.03348 4.00000
4.00000 7.03348 4.00000
4.00000 7.03348 4.00000
4.00000 7.03348 4.00000
4.00000 7.03348 4.00000
4.00000 7.03348 4.00000
4.00000 7.03348 4.00000
4.00000 7.03348 4.00000
4.00000 7.03348 4.00000
4.00000 7.03348 4.00000
4.00000 7.03348 4.00000
4.00000 7.03348 4.00000
4.00000 7.03348 4.00000
4.00000 7.03348 4.00000
4.00000 7.03348 4.00000
4.00000 7.03348 4.00000
4.00000 7.03348 4.00000
4.00000 7.03348 4.00000
4.00000 7.03348 4.00000
4.00000 7.03348 4.00000
4.00000 7.03348 4.00000
4.00000 7.03348 4.00000
4.00000 7.03348 4.00000
4.00000 7.03348 4.00000
4.00000 7.03348 4.00000
4.00000 7.03348 4.00000
4.00000 7.03348 4.00000
4.00000 7.03348 4.00000
4.00000 7.03349 4.00000
4.00000 7.03348 4.00000
4.00000 7.03349 4.00000
4.00000 7.03348 4.00000
4.00000 7.03348 4.00000
4.00000 7.03348 4.00000
4.00000 7.03348 4.00000
4.00000 7.03348 4.00000
4.00000 7.03348 4.00000
4.00000 7.03348 4.00000
4.00000 7.03348 4.00000
4.00000 7.03348 4.00000
4.00000 7.03348 4.00000
4.00000 7.03348 4.00000
4.00000 7.03348 4.00000
4.00000 7.03348 4.00000
4.00000 7.03348 4.00000
4.00000 7.03348 4.00000
4.00000 7.03348 4.00000
4.00000 7.03348 4.00000
4.00000 7.03348 4.00000
4.00000 7.03348 4.00000
4.00000 7.03348 4.00000
4.00000 7.03348 4.00000
4.00000 7.03348 4.00000
4.00000 7.03348 4.00000
4.00000 7.03348 4.00000
4.00000 7.03348 4.00000
4.00000 7.03348 4.00000
4.00000 7.03348 4.00000
4.00000 7.03348 4.00000
4.00000 7.03348 4.00000
4.00000 7.03349 4.00000
4.00000 7.03349 4.00000
4.00000 7.03348 4.00000
4.00000 7.03348 4.00000
4.00000 7.03348 4.00000
4.00000 7.03348 4.00000
4.00000 7.03349 4.00000
4.00000 7.03348 4.00000
4.00000 7.03349 4.00000
4.00000 7.03348 4.00000
4.00038 7.03932 4.00038
4.00433 7.10043 4.00433
4.00824 7.16190 4.00824
4.01212 7.22370 4.01212
4.01598 7.28579 4.01598
4.01983 7.34816 4.01983
4.02368 7.41076 4.02368
4.02753 7.47357 4.02753
4.03141 7.53657 4.03140
4.03531 7.59970 4.03531
4.03925 7.66295 4.03925
4.04324 7.72628 4.04324
4.04730 7.78965 4.04730
4.05143 7.85301 4.05143
4.05566 7.91633 4.05566
4.06000 7.97955 4.06000
4.06447 8.04262 4.06447
4.06910 8.10548 4.06910
4.07390 8.16807 4.07390
4.07891 8.23030 4.07891
4.08416 8.29210 4.08416
4.08968 8.35337 4.08968
4.09553 8.41399 4.09553
4.10174 8.47384 4.10174
4.10837 8.53278 4.10837
4.11550 8.59063 4.11550
4.12319 8.64722 4.12319
4.13151 8.70240 4.13151
4.14039 8.75636 4.14039
4.14985 8.80904 4.14985
4.15993 8.86040 4.15992
4.17064 8.91038 4.17064
4.18201 8.95894 4.18201
4.19407 9.00603 4.19407
4.20684 9.05162 4.20684
4.22033 9.09569 4.22033
4.23456 9.13819 4.23456
4.24955 9.17914 4.24955
4.26530 9.21851 4.26530
4.28183 9.25628 4.28183
4.29915 9.29246 4.29916
4.31728 9.32702 4.31728
4.33622 9.35995 4.33621
4.35598 9.39124 4.35598
4.37660 9.42084 4.37660
4.39809 9.44872 4.39809
4.42048 9.47481 4.42048
4.44382 9.49902 4.44382
4.46816 9.52124 4.46816
4.49356 9.54134 4.49356
4.52010 9.55915 4.52010
4.54789 9.57445 4.54789
4.57702 9.58700 4.57702
4.60762 9.59654 4.60762
4.63983 9.60277 4.63983
4.67379 9.60542 4.67376
7.42920 7.49478 4.02883
7.57604 7.42672 4.02466
7.70686 7.37451 4.02145
7.82734 7.33257 4.01887
7.94056 7.29789 4.01673
8.04835 7.26866 4.01492
8.15199 7.24364 4.01336
8.25231 7.22199 4.01201
8.34997 7.20307 4.01083
8.44542 7.18645 4.00978
8.53902 7.17176 4.00886
8.63108 7.15870 4.00803
8.72182 7.14704 4.00730
8.81144 7.13660 4.00663
8.90008 7.12723 4.00604
8.98788 7.11880 4.00550
9.07495 7.11120 4.00502
9.16138 7.10432 4.00458
9.24725 7.09810 4.00418
9.33266 7.09245 4.00382
9.41764 7.08731 4.00349
9.50222 7.08268 4.00319
9.58653 7.07841 4.00291
9.67049 7.07458 4.00266
9.75421 7.07109 4.00244
9.83775 7.06787 4.00223
9.92109 7.06494 4.00204
10.00427 7.06227 4.00187
10.08731 7.05983 4.00171
10.17020 7.05763 4.00157
10.25305 7.05557 4.00144
10.33580 7.05370 4.00131
10.41845 7.05200 4.00121
10.50108 7.05042 4.00110
10.58362 7.04901 4.00101
10.66617 7.04769 4.00092
10.74865 7.04651 4.00085
10.83116 7.04540 4.00078
10.91362 7.04442 4.00071
10.99612 7.04347 4.00065
11.07858 7.04265 4.00060
11.16109 7.04187 4.00055
11.24362 7.04114 4.00050
11.32611 7.04053 4.00046
11.40870 7.03990 4.00042
11.49123 7.03939 4.00039
11.57385 7.03889 4.00035
11.65652 7.03842 4.00032
11.73919 7.03800 4.00029
11.82191 7.03762 4.00027
11.90468 7.03727 4.00025
11.98745 7.03697 4.00023
12.07029 7.03667 4.00021
12.15318 7.03641 4.00019
12.23612 7.03616 4.00017
12.31911 7.03593 4.00016
12.40215 7.03573 4.00014
12.48522 7.03554 4.00014
12.56836 7.03536 4.00012
12.65154 7.03520 4.00011
12.73478 7.03505 4.00010
12.81807 7.03492 4.00009
12.90142 7.03480 4.00009
12.98480 7.03469 4.00008
13.06825 7.03458 4.00007
13.15176 7.03449 4.00007
13.23528 7.03440 4.00006
13.31889 7.03433 4.00006
13.40253 7.03426 4.00005
13.48622 7.03419 4.00005
13.56998 7.03413 4.00004
13.65379 7.03407 4.00004
13.73766 7.03403 4.00004
13.82157 7.03398 4.00003
13.90553 7.03393 4.00003
13.98956 7.03389 4.00003
14.07356 7.03386 4.00002
14.15767 7.03383 4.00002
14.24183 7.03380 4.00002
14.32605 7.03377 4.00002
14.41032 7.03375 4.00002
14.49464 7.03373 4.00002
14.57902 7.03370 4.00002
14.66344 7.03369 4.00002
14.74793 7.03367 4.00001
14.83243 7.03365 4.00001
14.91699 7.03363 4.00001
15.00158 7.03362 4.00001
15.08623 7.03360 4.00001
15.17092 7.03359 4.00001
15.25565 7.03358 4.00001
15.34043 7.03357 4.00001
15.42525 7.03356 4.00001
15.51011 7.03355 4.00001
15.59502 7.03355 4.00000
15.67997 7.03354 4.00000
15.76495 7.03354 4.00000
15.84997 7.03354 4.00000
15.93504 7.03353 4.00000
16.02015 7.03353 4.00000
16.10531 7.03352 4.00000
16.19049 7.03352 4.00000
16.27572 7.03352 4.00000
16.36099 7.03351 4.00000
16.44630 7.03351 4.00000
16.53164 7.03351 4.00000
16.61702 7.03351 4.00000
16.70244 7.03350 4.00000
16.78789 7.03350 4.00000
16.87338 7.03350 4.00000
16.95891 7.03350 4.00000
17.04447 7.03350 4.00000
17.13007 7.03349 4.00000
17.21570 7.03349 4.00000
17.30136 7.03349 4.00000
17.38706 7.03349 4.00000
17.47278 7.03349 4.00000
17.55854 7.03349 4.00000
17.64434 7.03349 4.00000
17.73016 7.03349 4.00000
17.81602 7.03349 4.00000
17.90192 7.03348 4.00000
17.98784 7.03349 4.00000
18.07380 7.03348 4.00000
18.15979 7.03348 4.00000
18.24581 7.03348 4.00000
18.33186 7.03348 4.00000
18.41794 7.03348 4.00000
18.50405 7.03348 4.00000
18.59019 7.03348 4.00000
18.67635 7.03348 4.00000
18.76255 7.03348 4.00000
18.84877 7.03348 4.00000
18.93503 7.03348 4.00000
19.02131 7.03348 4.00000
19.10762 7.03348 4.00000
19.19395 7.03348 4.00000
19.28031 7.03348 4.00000
19.36670 7.03348 4.00000
19.45312 7.03348 4.00000
19.53956 7.03348 4.00000
19.62603 7.03348 4.00000
19.71252 7.03348 4.00000
19.79904 7.03348 4.00000
19.88558 7.03348 4.00000

Angle 0.459556 0.283687

4.00000 7.03348 4.00000
4.00000 7.03348 4.00000
4.00000 7.03348 4.00000
4.00000 7.03348 4.00000
4.00000 7.03348 4.00000
4.00000 7.03348 4.00000
4.00000 7.03348 4.00000
4.00000 7.03348 4.00000
4.00000 7.03348 4.00000
4.00000 7.03348 4.00000
4.00000 7.03348 4.00000
4.00000 7.03348 4.00000
4.00000 7.03348 4.00000
4.00000 7.03348 4.00000
4.00000 7.03348 4.00000
4.00000 7.03348 4.00000
4.00000 7.03348 4.00000
4.00000 7.03348 4.00000
4.00000 7.03348 4.00000
4.00000 7.03348 4.00000
4.00000 7.03348 4.00000
4.00000 7.03348 4.00000
4.00000 7.03348 4.00000
4.00000 7.03348 4.00000
4.00000 7.03348 4.00000
4.00000 7.03348 4.00000
4.00000 7.03348 4.00000
4.00000 7.03348 4.00000
4.00000 7.03348 4.00000
4.00000 7.03348 4.00000
4.00000 7.03348 4.00000
4.00000 7.03348 4.00000
4.00000 7.03348 4.00000
4.00000 7.03348 4.00000
4.00000 7.03348 4.00000
4.00000 7.03348 4.00000
4.00000 7.03348 4.00000
4.00000 7.03348 4.00000
4.00000 7.03348 4.00000
4.00000 7.03348 4.00000
4.00000 7.03348 4.00000
4.00000 7.03348 4.00000
4.00000 7.03348 4.00000
4.00000 7.03348 4.00000
4.00000 7.03348 4.00000
4.00000 7.03348 4.00000
4.00000 7.03348 4.00000
4.00000 7.03348 4.00000
4.00000 7.03348 4.00000
4.00000 7.03348 4.00000
4.00000 7.03348 4.00000
4.00000 7.03348 4.00000
4.00000 7.03348 4.00000
4.00000 7.03348 4.00000
4.00000 7.03349 4.00000
4.00000 7.03348 4.00000
4.00000 7.03348 4.00000
4.00000 7.03348 4.00000
4.00000 7.03348 4.00000
4.00000 7.03348 4.00000
4.00000 7.03348 4.00000
4.00000 7.03348 4.00000
4.00000 7.03348 4.00000
4.00000 7.03348 4.00000
4.00000 7.03348 4.00000
4.00000 7.03348 4.00000
4.00000 7.03348 4.00000
4.00000 7.03348 4.00000
4.00000 7.03348 4.00000
4.00000 7.03348 4.00000
4.00000 7.03348 4.00000
4.00000 7.03348 4.00000
4.00000 7.03348 4.00000
4.00000 7.03348 4.00000
4.00000 7.03348 4.00000
4.00000 7.03348 4.00000
4.00000 7.03348 4.00000
4.00000 7.03348 4.00000
4.00000 7.03348 4.00000
4.00000 7.03348 4.00000
4.00000 7.03348 4.00000
4.00000 7.03348 4.00000
4.00000 7.03348 4.00000
4.00000 7.03348 4.00000
4.00000 7.03348 4.00000
4.00000 7.03348 4.00000
4.00000 7.03348 4.00000
4.00000 7.03348 4.00000
4.00000 7.03348 4.00000
4.00000 7.03348 4.00000
4.00000 7.03348 4.00000
4.00000 7.03348 4.00000
4.00000 7.03348 4.00000
4.00000 7.03348 4.00000
4.00000 7.03348 4.00000
4.00193 7.06314 4.00193
4.00579 7.12337 4.00579
4.00963 7.18396 4.00963
4.01344 7.24487 4.01344
4.01723 7.30607 4.01723
4.02102 7.36754 4.02102
4.02481 7.42925 4.02481
4.02861 7.49117 4.02861
4.03243 7.55327 4.03243
4.03629 7.61551 4.03629
4.04018 7.67788 4.04018
4.04413 7.74032 4.04413
4.04815 7.80280 4.04815
4.05224 7.86529 4.05224
4.05643 7.92773 4.05643
4.06074 7.99009 4.06074
4.06517 8.05230 4.06517
4.06976 8.11431 4.06976
4.07453 8.17606 4.07453
4.07950 8.23746 4.07950
4.08472 8.29844 4.08472
4.09020 8.35890 4.09020
4.09600 8.41873 4.09600
4.10217 8.47781 4.10217
4.10875 8.53600 4.10875
4.11582 8.59313 4.11582
4.12345 8.64901 4.12345
4.13169 8.70354 4.13169
4.14048 8.75688 4.14048
4.14984 8.80898 4.14984
4.15980 8.85980 4.15980
4.17039 8.90927 4.17039
4.18162 8.95736 4.18163
4.19353 9.00401 4.19353
4.20613 9.04921 4.20613
4.21945 9.09292 4.21944
4.23348 9.13511 4.23348
4.24826 9.17578 4.24826
4.26379 9.21490 4.26379
4.28009 9.25247 4.28009
4.29717 9.28847 4.29717
4.31503 9.32289 4.31503
4.33369 9.35573 4.33369
4.35316 9.38695 4.35316
4.37347 9.41653 4.37347
4.39463 9.44443 4.39463
4.41668 9.47058 4.41668
4.43965 9.49490 4.43965
4.46360 9.51730 4.46360
4.48858 9.53764 4.48858
4.51467 9.55576 4.51467
4.54196 9.57146 4.54196
4.57055 9.58451 4.57055
4.60057 9.59466 4.60057
4.63214 9.60162 4.63214
4.66535 9.60512 4.66544
4.70040 9.60491 4.70050
7.54011 7.44240 4.02562
7.67337 7.38718 4.02223
7.79532 7.34318 4.01952
7.90946 7.30700 4.01729
8.01783 7.27659 4.01541
8.12181 7.25064 4.01380
8.22233 7.22820 4.01240
8.32004 7.20866 4.01118
8.41545 7.19148 4.01010
8.50896 7.17631 4.00915
8.60085 7.16283 4.00830
8.69138 7.15081 4.00754
8.78074 7.14006 4.00685
8.86911 7.13041 4.00624
8.95661 7.12171 4.00569
9.04336 7.11387 4.00519
9.12945 7.10678 4.00473
9.21497 7.10037 4.00432
9.30000 7.09455 4.00395
9.38458 7.08927 4.00361
9.46879 7.08447 4.00330
9.55266 7.08010 4.00302
9.63624 7.07612 4.00277
9.71958 7.07249 4.00253
9.80268 7.06919 4.00232
9.88562 7.06616 4.00212
9.96837 7.06340 4.00194
10.05098 7.06088 4.00178
10.13348 7.05857 4.00163
10.21587 7.05646 4.00149
10.29817 7.05453 4.00137
10.38041 7.05277 4.00125
10.46258 7.05115 4.00115
10.54471 7.04967 4.00105
10.62680 7.04832 4.00097
10.70888 7.04708 4.00089
10.79093 7.04594 4.00081
10.87300 7.04488 4.00074
10.95502 7.04394 4.00068
11.03707 7.04307 4.00062
11.11914 7.04226 4.00057
11.20122 7.04153 4.00052
11.28332 7.04086 4.00048
11.36544 7.04024 4.00044
11.44760 7.03968 4.00040
11.52979 7.03916 4.00037
11.61201 7.03868 4.00034
11.69427 7.03825 4.00031
11.77657 7.03785 4.00029
11.85893 7.03748 4.00026
11.94130 7.03715 4.00024
12.02374 7.03684 4.00022
12.10623 7.03656 4.00020
12.18880 7.03627 4.00018
12.27134 7.03606 4.00017
12.35397 7.03585 4.00015
12.43667 7.03564 4.00015
12.51941 7.03546 4.00013
12.60219 7.03529 4.00012
12.68504 7.03514 4.00011
12.76794 7.03500 4.00010
12.85089 7.03488 4.00009
12.93390 7.03476 4.00008
13.01697 7.03465 4.00008
13.10010 7.03455 4.00007
13.18329 7.03446 4.00007
13.26654 7.03437 4.00006
13.34984 7.03430 4.00006
13.43320 7.03423 4.00005
13.51661 7.03417 4.00005
13.60008 7.03411 4.00004
13.68360 7.03405 4.00004
13.76718 7.03401 4.00004
13.85081 7.03396 4.00003
13.93449 7.03392 4.00003
14.01822 7.03388 4.00003
14.10201 7.03385 4.00003
14.18584 7.03382 4.00002
14.26973 7.03379 4.00002
14.35367 7.03376 4.00002
14.43766 7.03374 4.00002
14.52170 7.03371 4.00002
14.60578 7.03369 4.00002
14.68992 7.03368 4.00001
14.77410 7.03366 4.00001
14.85834 7.03364 4.00001
14.94261 7.03363 4.00001
15.02694 7.03362 4.00001
15.11131 7.03361 4.00001
15.19573 7.03359 4.00001
15.28019 7.03358 4.00001
15.36470 7.03358 4.00001
15.44925 7.03357 4.00001
15.53384 7.03356 4.00001
15.61848 7.03355 4.00001
15.70317 7.03355 4.00000
15.78789 7.03354 4.00000
15.87266 7.03354 4.00000
15.95747 7.03353 4.00000
16.04232 7.03353 4.00000
16.12721 7.03352 4.00000
16.21214 7.03352 4.00000
16.29712 7.03352 4.00000
16.38213 7.03351 4.00000
16.46718 7.03351 4.00000
16.55227 7.03351 4.00000
16.63740 7.03350 4.00000
16.72257 7.03350 4.00000
16.80778 7.03350 4.00000
16.89302 7.03350 4.00000
16.97830 7.03350 4.00000
17.06362 7.03350 4.00000
17.14898 7.03349 4.00000
17.23437 7.03349 4.00000
17.31979 7.03349 4.00000
17.40526 7.03349 4.00000
17.49075 7.03349 4.00000
17.57628 7.03349 4.00000
17.66185 7.03349 4.00000
17.74745 7.03349 4.00000
17.83308 7.03349 4.00000
17.91875 7.03349 4.00000
18.00445 7.03349 4.00000
18.09018 7.03348 4.00000
18.17595 7.03348 4.00000
18.26175 7.03348 4.00000
18.34758 7.03348 4.00000
18.43344 7.03348 4.00000
18.51933 7.03348 4.00000
18.60525 7.03348 4.00000
18.69121 7.03348 4.00000
18.77719 7.03348 4.00000
18.86318 7.03348 4.00000
18.94920 7.03348 4.00000
19.03525 7.03348 4.00000
19.12134 7.03348 4.00000
19.20745 7.03348 4.00000
19.29359 7.03348 4.00000
19.37977 7.03348 4.00000
19.46596 7.03348 4.00000
19.55219 7.03348 4.00000
19.63845 7.03348 4.00000
19.72473 7.03347 4.00000
19.81104 7.03347 4.00000
19.89737 7.03347 4.00000
19.98373 7.03347 4.00000
20.07012 7.03347 4.00000
20.15653 7.03347 4.00000
20.24297 7.03347 4.00000
20.32944 7.03347 4.00000
20.41593 7.03347 4.00000
20.50244 7.03347 4.00000
20.58897 7.03348 4.00000
20.67554 7.03348 4.00000
20.76212 7.03348 4.00000
20.84873 7.03348 4.00000
20.93537 7.03348 4.00000
21.02203 7.03348 4.00000
21.10871 7.03348 4.00000
21.19542 7.03348 4.00000
21.28215 7.03347 4.00000
21.36890 7.03348 4.00000
21.45568 7.03348 4.00000
21.54247 7.03348 4.00000
21.62929 7.03348 4.00000
21.71613 7.03348 4.00000
21.80300 7.03348 4.00000
21.88988 7.03348 4.00000
21.97678 7.03348 4.00000
22.06370 7.03348 4.00000
22.15065 7.03348 4.00000
22.23761 7.03348 4.00000
22.32460 7.03348 4.00000
22.41160 7.03348 4.00000
22.49863 7.03348 4.00000
22.58567 7.03348 4.00000
22.67274 7.03348 4.00000
22.75984 7.03347 4.00000
22.84694 7.03348 4.00000
22.93407 7.03348 4.00000
23.02121 7.03348 4.00000
23.10838 7.03348 4.00000
23.19557 7.03348 4.00000
23.28277 7.03348 4.00000
23.36999 7.03348 4.00000
23.45723 7.03348 4.00000
23.54449 7.03348 4.00000
23.63177 7.03348 4.00000
23.71907 7.03348 4.00000
23.80638 7.03348 4.00000
23.89371 7.03348 4.00000
23.98106 7.03348 4.00000
24.06843 7.03348 4.00000
24.15581 7.03348 4.00000
24.24321 7.03348 4.00000
24.33063 7.03348 4.00000
24.41806 7.03348 4.00000
24.50551 7.03348 4.00000
24.59298 7.03348 4.00000
24.68047 7.03347 4.00000
24.76796 7.03348 4.00000
24.85548 7.03348 4.00000
24.94301 7.03348 4.00000
25.03056 7.03348 4.00000
25.11811 7.03349 4.00000
25.20570 7.03348 4.00000
25.29330 7.03348 4.00000
25.38091 7.03348 4.00000
25.46853 7.03348 4.00000
25.55617 7.03348 4.00000
25.64383 7.03348 4.00000
25.73149 7.03348 4.00000
25.81919 7.03348 4.00000
25.90688 7.03348 4.00000
25.99461 7.03347 4.00000
26.08233 7.03348 4.00000
26.17007 7.03348 4.00000
26.25783 7.03348 4.00000
26.34560 7.03348 4.00000
26.43339 7.03348 4.00000
26.52119 7.03348 4.00000
26.60901 7.03348 4.00000
26.69683 7.03348 4.00000
26.78468 7.03348 4.00000
26.87254 7.03348 4.00000
26.96040 7.03348 4.00000
27.04829 7.03348 4.00000
27.13618 7.03348 4.00000
27.22409 7.03348 4.00000
27.31201 7.03348 4.00000
27.39995 7.03348 4.00000
27.48790 7.03348 4.00000
27.57586 7.03348 4.00000
27.66383 7.03348 4.00000
27.75182 7.03348 4.00000
27.83982 7.03348 4.00000
27.92784 7.03347 4.00000
28.01586 7.03348 4.00000
28.10390 7.03348 4.00000
28.19195 7.03348 4.00000
28.28001 7.03348 4.00000
28.36809 7.03348 4.00000
28.45618 7.03348 4.00000
28.54428 7.03348 4.00000
28.63239 7.03348 4.00000
28.72052 7.03348 4.00000
28.80865 7.03348 4.00000
28.89680 7.03348 4.00000

Angle 0.209739 1.914180

4.00000 7.03348 4.00000
4.00000 7.03348 4.00000
4.00000 7.03348 4.00000
4.00000 7.03348 4.00000
4.00000 7.03348 4.00000
4.00000 7.03348 4.00000
4.00000 7.03348 4.00000
4.00000 7.03348 4.00000
4.00000 7.03349 4.00000
4.00000 7.03348 4.00000
4.00000 7.03348 4.00000
4.00000 7.03348 4.00000
4.00000 7.03348 4.00000
4.00000 7.03348 4.00000
4.00000 7.03348 4.00000
4.00000 7.03348 4.00000
4.00000 7.03348 4.00000
4.00000 7.03348 4.00000
4.00000 7.03348 4.00000
4.00000 7.03349 4.00000
4.00000 7.03348 4.00000
4.00000 7.03347 4.00000
4.00001 7.03343 4.00000
4.00000 7.03348 4.00000
4.00000 7.03348 4.00000
4.00000 7.03348 4.00000
4.00000 7.03348 4.00000
4.00000 7.03348 4.00000
4.00000 7.03346 4.00000
4.00000 7.03347 4.00000
4.00000 7.03347 4.00000
4.00000 7.03348 4.00000
4.00000 7.03348 4.00000
4.00000 7.03348 4.00000
4.00000 7.03347 4.00000
4.00000 7.03348 4.00000
4.00000 7.03348 4.00000
4.00000 7.03348 4.00000
4.00000 7.03349 4.00000
4.00000 7.03348 4.00000
4.00000 7.03347 4.00000
4.00000 7.03349 4.00000
4.00000 7.03349 4.00000
4.00000 7.03349 4.00000
4.00000 7.03348 4.00000
4.00000 7.03349 4.00000
4.00000 7.03348 4.00000
4.00000 7.03349 4.00000
4.00000 7.03348 4.00000
4.00000 7.03347 4.00000
4.00000 7.03348 4.00000
4.00000 7.03348 4.00000
4.00000 7.03346 4.00000
4.00000 7.03348 4.00000
4.00000 7.03348 4.00000
4.00000 7.03348 4.00000
4.00000 7.03348 4.00000
4.00000 7.03348 4.00000
4.00000 7.03348 4.00000
4.00000 7.03348 4.00000
4.00000 7.03348 4.00000
4.00000 7.03348 4.00000
4.00000 7.03348 4.00000
4.00000 7.03348 4.00000
4.00000 7.03348 4.00000
4.00000 7.03347 4.00000
4.00000 7.03347 4.00000
4.00000 7.03348 4.00000
4.00000 7.03348 4.00000
4.00000 7.03348 4.00000
4.00000 7.03348 4.00000
4.00000 7.03349 4.00000
4.00000 7.03348 4.00000
4.00000 7.03348 4.00000
4.00000 7.03348 4.00000
4.00000 7.03348 4.00000
4.00000 7.03348 4.00000
4.00000 7.03348 4.00000
4.00000 7.03348 4.00000
4.00000 7.03348 4.00000
4.00000 7.03348 4.00000
4.00000 7.03348 4.00000
4.00000 7.03348 4.00000
4.00000 7.03348 4.00000
4.00000 7.03348 4.00000
4.00000 7.03348 4.00000
4.00000 7.03348 4.00000
4.00000 7.03348 4.00000
4.00000 7.03348 4.00000
4.00000 7.03348 4.00000
4.00000 7.03348 4.00000
4.00000 7.03348 4.00000
4.00000 7.03348 4.00000
4.00000 7.03348 4.00000
4.00000 7.03348 4.00000
4.00000 7.03348 4.00000
4.00000 7.03350 4.00000
4.00000 7.03348 4.00000
4.00000 7.03348 4.00000
4.00000 7.03348 4.00000
4.00000 7.03348 4.00000
4.00000 7.03348 4.00000
4.00000 7.03348 4.00000
4.00000 7.03348 4.00000
4.00000 7.03348 4.00000
4.00000 7.03348 4.00000
4.00000 7.03348 4.00000
4.00000 7.03348 4.00000
4.00000 7.03348 4.00000
4.00000 7.03348 4.00000
4.00000 7.03348 4.00000
4.00000 7.03348 4.00000
4.00000 7.03348 4.00000
4.00000 7.03348 4.00000
4.00000 7.03348 4.00000
4.00000 7.03348 4.00000
4.00000 7.03348 4.00000
4.00000 7.03348 4.00000
4.00000 7.03348 4.00000
4.00000 7.03348 4.00000
4.00000 7.03348 4.00000
4.00000 7.03349 4.00000
4.00000 7.03349 4.00000
4.00000 7.03348 4.00000
4.00000 7.03348 4.00000
4.00000 7.03348 4.00000
4.00000 7.03348 4.00000
4.00000 7.03348 4.00000
4.00000 7.03348 4.00000
4.00000 7.03349 4.00000
4.00000 7.03349 4.00000
4.00000 7.03349 4.00000
4.00000 7.03349 4.00000
4.00000 7.03349 4.00000
4.00000 7.03349 4.00000
4.00000 7.03349 4.00000
4.00000 7.03349 4.00000
4.00000 7.03349 4.00000
4.00000 7.03350 4.00000
4.00000 7.03348 4.00000
4.00000 7.03348 4.00000
4.00000 7.03349 4.00000
4.00000 7.03348 4.00000
4.00000 7.03348 4.00000
4.00000 7.03348 4.00000
4.00000 7.03348 4.00000
4.00000 7.03348 4.00000
4.00000 7.03348 4.00000
4.00000 7.03348 4.00000
4.00000 7.03348 4.00000
4.00000 7.03345 4.00000
4.00000 7.03348 4.00000
4.00000 7.03348 4.00000
4.00000 7.03348 4.00000
4.00000 7.03348 4.00000
4.00000 7.03348 4.00000
4.00000 7.03347 4.00000
4.00000 7.03348 4.00000
4.00000 7.03341 4.00000
4.00475 7.10696 4.00474
4.00954 7.18252 4.00954
4.01427 7.25831 4.01427
4.01897 7.33426 4.01897
4.02365 7.41034 4.02365
4.02833 7.48649 4.02832
4.03301 7.56266 4.03301
4.03774 7.63879 4.03774
4.04252 7.71484 4.04251
4.04737 7.79074 4.04737
4.05232 7.86643 4.05232
4.05740 7.94183 4.05739
4.06263 8.01687 4.06263
4.06805 8.09146 4.06805
4.07370 8.16550 4.07370
4.07962 8.23887 4.07962
4.08587 8.31145 4.08587
4.09250 8.38307 4.09250
4.09958 8.45357 4.09958
4.10720 8.52273 4.10720
4.11546 8.59030 4.11546
4.12447 8.65601 4.12447
4.13428 8.71974 4.13428
4.14483 8.78168 4.14483
4.15617 8.84176 4.15617
4.16831 8.89991 4.16832
4.18131 8.95608 4.18131
4.19519 9.01020 4.19519
4.20998 9.06224 4.20998
4.22569 9.11217 4.22570
4.24236 9.15997 4.24236
4.25999 9.20564 4.25999
4.27860 9.24917 4.27861
4.29820 9.29056 4.29821
4.31881 9.32980 4.31881
4.34043 9.36687 4.34043
4.36308 9.40177 4.36308
4.38680 9.43444 4.38680
4.41161 9.46482 4.41161
4.43757 9.49282 4.43757
4.46474 9.51830 4.46474
4.49320 9.54108 4.49321
4.52307 9.56094 4.52307
4.55446 9.57759 4.55446
4.58754 9.59069 4.58754
4.62247 9.59988 4.62248
4.65945 9.60477 4.65945
4.69881 9.60500 4.69843
4.02535 7.43798 7.55011
4.02166 7.37797 7.69759
4.01878 7.33117 7.83167
4.01644 7.29330 7.95670
4.01450 7.26190 8.07520
4.01285 7.23543 8.18875
4.01144 7.21280 8.29842
4.01021 7.19328 8.40500
4.00914 7.17630 8.50903
4.00821 7.16143 8.61097
4.00738 7.14834 8.71114
4.00665 7.13677 8.80981
4.00599 7.12651 8.90720
4.00541 7.11737 9.00350
4.00489 7.10922 9.09884
4.00442 7.10193 9.19335
4.00400 7.09539 9.28714
4.00363 7.08952 9.38030
4.00329 7.08424 9.47290
4.00298 7.07948 9.56501
4.00271 7.07519 9.65669
4.00246 7.07132 9.74799
4.00223 7.06782 9.83895
4.00202 7.06466 9.92962
4.00184 7.06179 10.02002
4.00167 7.05920 10.11018
4.00152 7.05685 10.20014
4.00138 7.05472 10.28992
4.00126 7.05278 10.37954
4.00114 7.05103 10.46901
4.00104 7.04944 10.55835
4.00094 7.04799 10.64759
4.00086 7.04668 10.73672
4.00078 7.04549 10.82577
4.00071 7.04440 10.91475
4.00065 7.04342 11.00366
4.00059 7.04252 11.09252
4.00054 7.04170 11.18132
4.00049 7.04096 11.27009
4.00044 7.04029 11.35882
4.00040 7.03968 11.44752
4.00037 7.03912 11.53620
4.00033 7.03861 11.62485
4.00031 7.03815 11.71350
4.00028 7.03773 11.80213
4.00025 7.03735 11.89075
4.00023 7.03700 11.97936
4.00021 7.03669 12.06797
4.00019 7.03639 12.15660
4.00017 7.03613 12.24521
4.00016 7.03589 12.33383
4.00014 7.03568 12.42245
4.00013 7.03548 12.51108
4.00012 7.03530 12.59972
4.00011 7.03514 12.68837
4.00010 7.03499 12.77702
4.00009 7.03485 12.86569
4.00008 7.03473 12.95438
4.00007 7.03461 13.04307
4.00007 7.03451 13.13178
4.00006 7.03442 13.22050
4.00006 7.03434 13.30923
4.00005 7.03426 13.39798
4.00005 7.03419 13.48675
4.00004 7.03412 13.57553
4.00004 7.03407 13.66432
4.00003 7.03401 13.75313
4.00003 7.03396 13.84196
4.00003 7.03392 13.93080
4.00003 7.03388 14.01966
4.00002 7.03384 14.10854
4.00002 7.03381 14.19743
4.00002 7.03378 14.28633
4.00002 7.03375 14.37525
4.00002 7.03373 14.46419
4.00001 7.03371 14.55314
4.00001 7.03369 14.64211
4.00001 7.03367 14.73110
4.00001 7.03365 14.82010
4.00001 7.03364 14.90911
4.00001 7.03362 14.99814
4.00001 7.03361 15.08719
4.00001 7.03360 15.17625
4.00001 7.03359 15.26532
4.00001 7.03358 15.35441
4.00001 7.03357 15.44352
4.00001 7.03356 15.53264
4.00000 7.03355 15.62177
4.00000 7.03355 15.71092
4.00000 7.03354 15.80008
4.00000 7.03353 15.88926
4.00000 7.03353 15.97845
4.00000 7.03352 16.06766
4.00000 7.03352 16.15687
4.00000 7.03352 16.24610
4.00000 7.03351 16.33535
4.00000 7.03351 16.42460
4.00000 7.03351 16.51387
4.00000 7.03351 16.60315
4.00000 7.03350 16.69245
4.00000 7.03350 16.78175
4.00000 7.03350 16.87107
4.00000 7.03350 16.96040
4.00000 7.03350 17.04974
4.00000 7.03349 17.13909
4.00000 7.03349 17.22845
4.00000 7.03349 17.31782
4.00000 7.03349 17.40721
4.00000 7.03349 17.49660
4.00000 7.03349 17.58600
4.00000 7.03349 17.67542
4.00000 7.03349 17.76484
4.00000 7.03349 17.85428
4.00000 7.03349 17.94372
4.00000 7.03349 18.03317
4.00000 7.03348 18.12264
4.00000 7.03348 18.21211
4.00000 7.03348 18.30159
4.00000 7.03348 18.39108
4.00000 7.03348 18.48058
4.00000 7.03348 18.57009
4.00000 7.03348 18.65961
4.00000 7.03348 18.74914
4.00000 7.03348 18.83867
4.00000 7.03348 18.92822
4.00000 7.03348 19.01777
4.00000 7.03348 19.10733
4.00000 7.03348 19.19690
4.00000 7.03348 19.28647
4.00000 7.03348 19.37606
4.00000 7.03348 19.46565
4.00000 7.03348 19.55525
4.00000 7.03348 19.64486
4.00000 7.03348 19.73448
4.00000 7.03348 19.82410
4.00000 7.03348 19.91373
4.00000 7.03348 20.00337
4.00000 7.03348 20.09301
4.00000 7.03348 20.18267
4.00000 7.03348 20.27233
4.00000 7.03348 20.36199
4.00000 7.03348 20.45167
4.00000 7.03348 20.54135
4.00000 7.03348 20.63103
4.00000 7.03348 20.72073
4.00000 7.03348 20.81043
4.00000 7.03348 20.90014
4.00000 7.03348 20.98986
4.00000 7.03348 21.07959
4.00000 7.03348 21.16933
4.00000 7.03348 21.25907
4.00000 7.03348 21.34881
4.00000 7.03348 21.43856
4.00000 7.03348 21.52832
4.00000 7.03348 21.61809
4.00000 7.03348 21.70786
4.00000 7.03348 21.79763
4.00000 7.03348 21.88741
4.00000 7.03348 21.97720
4.00000 7.03348 22.06699
4.00000 7.03348 22.15679
4.00000 7.03348 22.24659
4.00000 7.03348 22.33640
4.00000 7.03348 22.42622
4.00000 7.03348 22.51604
4.00000 7.03348 22.60586
4.00000 7.03348 22.69569
4.00000 7.03348 22.78553
4.00000 7.03347 22.87536
4.00000 7.03348 22.96520
4.00000 7.03347 23.05505
4.00000 7.03348 23.14490
4.00000 7.03347 23.23476
4.00000 7.03347 23.32461
4.00000 7.03347 23.41447
4.00000 7.03347 23.50434
4.00000 7.03347 23.59421
4.00000 7.03347 23.68409
4.00000 7.03347 23.77397
4.00000 7.03347 23.86385
4.00000 7.03347 23.95374
4.00000 7.03347 24.04363
4.00000 7.03347 24.13353
4.00000 7.03347 24.22343
4.00000 7.03347 24.31333
4.00000 7.03347 24.40324
4.00000 7.03348 24.49315
4.00000 7.03348 24.58307
4.00000 7.03348 24.67299
4.00000 7.03348 24.76292
4.00000 7.03348 24.85285
4.00000 7.03348 24.94278
4.00000 7.03348 25.03272

Angle 0.598303 0.756449

4.00000 7.03348 4.00000
4.00000 7.03348 4.00000
4.00000 7.03348 4.00000
4.00000 7.03348 4.00000
4.00000 7.03348 4.00000
4.00000 7.03348 4.00000
4.00000 7.03348 4.00000
4.00000 7.03348 4.00000
4.00000 7.03348 4.00000
4.00000 7.03348 4.00000
4.00000 7.03348 4.00000
4.00000 7.03348 4.00000
4.00000 7.03348 4.00000
4.00000 7.03348 4.00000
4.00000 7.03348 4.00000
4.00000 7.03348 4.00000
4.00000 7.03348 4.00000
4.00000 7.03348 4.00000
4.00000 7.03348 4.00000
4.00000 7.03348 4.00000
4.00000 7.03348 4.00000
4.00000 7.03348 4.00000
4.00000 7.03348 4.00000
4.00000 7.03348 4.00000
4.00000 7.03348 4.00000
4.00000 7.03348 4.00000
4.00000 7.03348 4.00000
4.00000 7.03348 4.00000
4.00000 7.03348 4.00000
4.00000 7.03348 4.00000
4.00000 7.03348 4.00000
4.00000 7.03348 4.00000
4.00000 7.03348 4.00000
4.00000 7.03348 4.00000
4.00000 7.03348 4.00000
4.00000 7.03348 4.00000
4.00000 7.03348 4.00000
4.00000 7.03348 4.00000
4.00000 7.03348 4.00000
4.00000 7.03347 4.00000
4.00000 7.03348 4.00000
4.00000 7.03348 4.00000
4.00000 7.03348 4.00000
4.00000 7.03348 4.00000
4.00000 7.03348 4.00000
4.00000 7.03348 4.00000
4.00000 7.03348 4.00000
4.00000 7.03348 4.00000
4.00000 7.03348 4.00000
4.00000 7.03348 4.00000
4.00000 7.03348 4.00000
4.00000 7.03348 4.00000
4.00000 7.03348 4.00000
4.00000 7.03348 4.00000
4.00000 7.03348 4.00000
4.00000 7.03348 4.00000
4.00000 7.03348 4.00000
4.00000 7.03348 4.00000
4.00000 7.03348 4.00000
4.00000 7.03348 4.00000
4.00000 7.03348 4.00000
4.00000 7.03348 4.00000
4.00000 7.03348 4.00000
4.00000 7.03348 4.00000
4.00000 7.03348 4.00000
4.00000 7.03348 4.00000
4.00000 7.03348 4.00000
4.00000 7.03348 4.00000
4.00000 7.03348 4.00000
4.00000 7.03348 4.00000
4.00000 7.03348 4.00000
4.00000 7.03348 4.00000
4.00000 7.03348 4.00000
4.00000 7.03348 4.00000
4.00000 7.03348 4.00000
4.00000 7.03348 4.00000
4.00000 7.03348 4.00000
4.00000 7.03348 4.00000
4.00000 7.03348 4.00000
4.00000 7.03348 4.00000
4.00000 7.03348 4.00000
4.00000 7.03348 4.00000
4.00000 7.03348 4.00000
4.00000 7.03348 4.00000
4.00000 7.03348 4.00000
4.00000 7.03348 4.00000
4.00000 7.03348 4.00000
4.00000 7.03348 4.00000
4.00000 7.03348 4.00000
4.00000 7.03348 4.00000
4.00000 7.03348 4.00000
4.00000 7.03348 4.00000
4.00000 7.03348 4.00000
4.00000 7.03348 4.00000
4.00000 7.03348 4.00000
4.00000 7.03348 4.00000
4.00000 7.03348 4.00000
4.00000 7.03348 4.00000
4.00000 7.03348 4.00000
4.00000 7.03348 4.00000
4.00000 7.03348 4.00000
4.00000 7.03348 4.00000
4.00000 7.03348 4.00000
4.00000 7.03348 4.00000
4.00000 7.03348 4.00000
4.00000 7.03348 4.00000
4.00000 7.03349 4.00000
4.00000 7.03349 4.00000
4.00000 7.03350 4.00000
4.00000 7.03348 4.00000
4.00000 7.03348 4.00000
4.00000 7.03350 4.00000
4.00235 7.06966 4.00235
4.00725 7.14631 4.00725
4.01209 7.22319 4.01209
4.01687 7.30025 4.01687
4.02163 7.37745 4.02163
4.02637 7.45473 4.02637
4.03113 7.53204 4.03113
4.03590 7.60932 4.03590
4.04073 7.68651 4.04073
4.04562 7.76357 4.04562
4.05060 7.84041 4.05060
4.05570 7.91697 4.05570
4.06095 7.99318 4.06095
4.06639 8.06894 4.06639
4.07204 8.14415 4.07204
4.07796 8.21871 4.07796
4.08419 8.29248 4.08419
4.09080 8.36530 4.09080
4.09785 8.43699 4.09785
4.10544 8.50736 4.10544
4.11365 8.57615 4.11365
4.12261 8.64309 4.12261
4.13239 8.70796 4.13239
4.14293 8.77099 4.14293
4.15427 8.83211 4.15427
4.16643 8.89126 4.16643
4.17945 8.94837 4.17945
4.19337 9.00340 4.19337
4.20821 9.05629 4.20821
4.22400 9.10702 4.22400
4.24076 9.15557 4.24076
4.25850 9.20194 4.25850
4.27723 9.24611 4.27723
4.29698 9.28809 4.29698
4.31774 9.32787 4.31774
4.33954 9.36543 4.33954
4.36240 9.40077 4.36240
4.38633 9.43383 4.38633
4.41138 9.46456 4.41138
4.43760 9.49285 4.43760
4.46505 9.51857 4.46505
4.49381 9.54153 4.49382
4.52401 9.56150 4.52401
4.55576 9.57819 4.55576
4.58925 9.59124 4.58923
4.62461 9.60029 4.62461
4.66207 9.60494 4.66207
7.39481 7.51232 4.02991
7.56369 7.43204 4.02498
7.71100 7.37297 4.02135
7.84521 7.32681 4.01851
7.97054 7.28942 4.01620
8.08942 7.25841 4.01428
8.20341 7.23224 4.01265
8.31356 7.20989 4.01125
8.42065 7.19060 4.01004
8.52521 7.17383 4.00899
8.62770 7.15914 4.00806
8.72842 7.14623 4.00725
8.82766 7.13482 4.00652
8.92562 7.12469 4.00588
9.02250 7.11569 4.00530
9.11842 7.10766 4.00479
9.21352 7.10047 4.00433
9.30790 7.09404 4.00392
9.40165 7.08826 4.00355
9.49484 7.08307 4.00321
9.58755 7.07839 4.00291
9.67982 7.07418 4.00264
9.77171 7.07038 4.00239
9.86327 7.06694 4.00217
9.95452 7.06384 4.00197
10.04551 7.06103 4.00179
10.13627 7.05849 4.00163
10.22681 7.05619 4.00148
10.31717 7.05411 4.00134
10.40737 7.05222 4.00122
10.49742 7.05051 4.00111
10.58735 7.04895 4.00101
10.67716 7.04754 4.00092
10.76687 7.04626 4.00083
10.85649 7.04510 4.00076
10.94603 7.04404 4.00069
11.03551 7.04308 4.00063
11.12493 7.04221 4.00057
11.21429 7.04142 4.00052
11.30362 7.04070 4.00047
11.39290 7.04005 4.00043
11.48215 7.03945 4.00039
11.57138 7.03891 4.00035
11.66058 7.03842 4.00032
11.74976 7.03797 4.00029
11.83893 7.03757 4.00027
11.92809 7.03719 4.00024
12.01723 7.03686 4.00022
12.10638 7.03655 4.00020
12.19551 7.03627 4.00018
12.28465 7.03602 4.00017
12.37378 7.03579 4.00015
12.46292 7.03558 4.00014
12.55206 7.03539 4.00012
12.64121 7.03522 4.00011
12.73036 7.03506 4.00010
12.81952 7.03492 4.00009
12.90868 7.03479 4.00009
12.99786 7.03467 4.00008
13.08704 7.03456 4.00007
13.17623 7.03446 4.00006
13.26544 7.03438 4.00006
13.35465 7.03429 4.00005
13.44388 7.03422 4.00005
13.53312 7.03415 4.00004
13.62237 7.03409 4.00004
13.71163 7.03404 4.00004
13.80090 7.03399 4.00003
13.89019 7.03394 4.00003
13.97949 7.03390 4.00003
14.06880 7.03386 4.00002
14.15813 7.03383 4.00002
14.24746 7.03379 4.00002
14.33681 7.03377 4.00002
14.42617 7.03374 4.00002
14.51555 7.03372 4.00002
14.60494 7.03369 4.00001
14.69434 7.03368 4.00001
14.78375 7.03366 4.00001
14.87318 7.03364 4.00001
14.96261 7.03363 4.00001
15.05206 7.03361 4.00001
15.14153 7.03360 4.00001
15.23100 7.03359 4.00001
15.32048 7.03358 4.00001
15.40998 7.03357 4.00001
15.49949 7.03356 4.00001
15.58901 7.03356 4.00001
15.67854 7.03355 4.00000
15.76808 7.03354 4.00000
15.85764 7.03354 4.00000
15.94720 7.03353 4.00000
16.03678 7.03353 4.00000
16.12636 7.03352 4.00000
16.21596 7.03352 4.00000
16.30557 7.03351 4.00000
16.39518 7.03351 4.00000
16.48481 7.03351 4.00000
16.57445 7.03351 4.00000
16.66410 7.03350 4.00000
16.75375 7.03350 4.00000
16.84342 7.03350 4.00000
16.93309 7.03350 4.00000
17.02278 7.03350 4.00000
17.11247 7.03349 4.00000
17.20217 7.03349 4.00000
17.29188 7.03349 4.00000
17.38160 7.03349 4.00000
17.47133 7.03349 4.00000
17.56107 7.03349 4.00000
17.65081 7.03349 4.00000
17.74057 7.03349 4.00000
17.83033 7.03349 4.00000
17.92010 7.03349 4.00000
18.00988 7.03349 4.00000
18.09966 7.03348 4.00000
18.18945 7.03348 4.00000
18.27925 7.03348 4.00000
18.36906 7.03348 4.00000
18.45888 7.03348 4.00000
18.54870 7.03348 4.00000
18.63853 7.03348 4.00000
18.72836 7.03348 4.00000
18.81821 7.03348 4.00000
18.90806 7.03348 4.00000
18.99791 7.03348 4.00000
19.08778 7.03348 4.00000
19.17765 7.03348 4.00000
19.26752 7.03348 4.00000
19.35741 7.03348 4.00000
19.44730 7.03348 4.00000
19.53719 7.03348 4.00000
19.62709 7.03348 4.00000
19.71700 7.03348 4.00000
19.80691 7.03348 4.00000
19.89683 7.03348 4.00000
19.98676 7.03348 4.00000
20.07669 7.03348 4.00000
20.16662 7.03348 4.00000
20.25657 7.03348 4.00000
20.34651 7.03348 4.00000
20.43647 7.03348 4.00000
20.52642 7.03348 4.00000
20.61639 7.03348 4.00000
20.70636 7.03348 4.00000
20.79633 7.03348 4.00000
20.88631 7.03348 4.00000
20.97629 7.03348 4.00000
21.06628 7.03348 4.00000
21.15628 7.03348 4.00000
21.24627 7.03348 4.00000
21.33628 7.03348 4.00000
21.42628 7.03348 4.00000
21.51630 7.03348 4.00000
21.60631 7.03348 4.00000
21.69634 7.03348 4.00000
21.78636 7.03348 4.00000
21.87639 7.03348 4.00000
21.96643 7.03348 4.00000
22.05647 7.03348 4.00000
22.14651 7.03348 4.00000
22.23656 7.03348 4.00000
22.32661 7.03348 4.00000
22.41667 7.03348 4.00000
22.50673 7.03348 4.00000
22.59679 7.03348 4.00000
22.68686 7.03348 4.00000
22.77693 7.03348 4.00000
22.86701 7.03348 4.00000
22.95709 7.03348 4.00000
23.04717 7.03348 4.00000
23.13726 7.03348 4.00000
23.22735 7.03348 4.00000
23.31744 7.03348 4.00000
23.40754 7.03348 4.00000
23.49764 7.03348 4.00000
23.58776 7.03347 4.00000
23.67786 7.03348 4.00000
23.76797 7.03348 4.00000
23.85810 7.03347 4.00000
23.94822 7.03347 4.00000
24.03834 7.03347 4.00000
24.12847 7.03347 4.00000
24.21860 7.03347 4.00000
24.30873 7.03347 4.00000
24.39887 7.03347 4.00000
24.48901 7.03347 4.00000
24.57916 7.03347 4.00000
24.66930 7.03347 4.00000
24.75945 7.03347 4.00000
24.84961 7.03347 4.00000
24.93977 7.03347 4.00000
25.02993 7.03347 4.00000
25.12009 7.03347 4.00000
25.21026 7.03347 4.00000
25.30043 7.03347 4.00000
25.39061 7.03347 4.00000
25.48078 7.03348 4.00000
25.57095 7.03348 4.00000
25.66113 7.03348 4.00000
25.75131 7.03348 4.00000
25.84150 7.03348 4.00000
25.93168 7.03348 4.00000
26.02187 7.03348 4.00000
26.11206 7.03348 4.00000
26.20225 7.03348 4.00000
26.29245 7.03348 4.00000
26.38264 7.03348 4.00000
26.47284 7.03348 4.00000
26.56304 7.03348 4.00000
26.65324 7.03348 4.00000
26.74345 7.03348 4.00000
26.83366 7.03348 4.00000
26.92387 7.03348 4.00000
27.01409 7.03348 4.00000
27.10431 7.03348 4.00000
27.19453 7.03348 4.00000
27.28476 7.03348 4.00000
27.37498 7.03348 4.00000
27.46522 7.03348 4.00000
27.55545 7.03348 4.00000
27.64568 7.03348 4.00000
27.73592 7.03348 4.00000
27.82616 7.03348 4.00000
27.91641 7.03348 4.00000
28.00665 7.03348 4.00000
28.09690 7.03348 4.00000
28.18714 7.03348 4.00000
28.27739 7.03348 4.00000
28.36765 7.03348 4.00000
28.45790 7.03348 4.00000
28.54815 7.03348 4.00000
28.63841 7.03348 4.00000
28.72866 7.03348 4.00000
28.81892 7.03348 4.00000
28.90916 7.03348 4.00000
28.99943 7.03348 4.00000
29.08969 7.03348 4.00000
29.17995 7.03348 4.00000
29.27024 7.03347 4.00000
29.36050 7.03348 4.00000

Angle 0.253911 0.773823

4.00000 7.03349 4.00000
4.00000 7.03348 4.00000
4.00000 7.03349 4.00000
4.00000 7.03349 4.00000
4.00000 7.03349 4.00000
4.00000 7.03348 4.00000
4.00000 7.03348 4.00000
4.00000 7.03348 4.00000
4.00000 7.03348 4.00000
4.00000 7.03348 4.00000
4.00000 7.03348 4.00000
4.00000 7.03348 4.00000
4.00000 7.03348 4.00000
4.00000 7.03348 4.00000
4.00000 7.03348 4.00000
4.00000 7.03348 4.00000
4.00000 7.03348 4.00000
4.00000 7.03348 4.00000
4.00000 7.03348 4.00000
4.00000 7.03348 4.00000
4.00000 7.03348 4.00000
4.00000 7.03348 4.00000
4.00000 7.03348 4.00000
4.00000 7.03348 4.00000
4.00000 7.03348 4.00000
4.00000 7.03348 4.00000
4.00000 7.03348 4.00000
4.00000 7.03348 4.00000
4.00000 7.03348 4.00000
4.00000 7.03348 4.00000
4.00000 7.03348 4.00000
4.00000 7.03348 4.00000
4.00000 7.03348 4.00000
4.00000 7.03348 4.00000
4.00000 7.03348 4.00000
4.00000 7.03348 4.00000
4.00000 7.03348 4.00000
4.00000 7.03348 4.00000
4.00000 7.03348 4.00000
4.00000 7.03348 4.00000
4.00000 7.03348 4.00000
4.00000 7.03348 4.00000
4.00000 7.03348 4.00000
4.00000 7.03348 4.00000
4.00000 7.03348 4.00000
4.00000 7.03348 4.00000
4.00000 7.03348 4.00000
4.00000 7.03348 4.00000
4.00000 7.03348 4.00000
4.00000 7.03348 4.00000
4.00000 7.03348 4.00000
4.00000 7.03348 4.00000
4.00000 7.03348 4.00000
4.00000 7.03348 4.00000
4.00000 7.03349 4.00000
4.00000 7.03348 4.00000
4.00000 7.03348 4.00000
4.00000 7.03348 4.00000
4.00000 7.03348 4.00000
4.00000 7.03348 4.00000
4.00000 7.03348 4.00000
4.00000 7.03348 4.00000
4.00000 7.03348 4.00000
4.00000 7.03348 4.00000
4.00000 7.03348 4.00000
4.00000 7.03348 4.00000
4.00000 7.03348 4.00000
4.00000 7.03348 4.00000
4.00000 7.03348 4.00000
4.00000 7.03348 4.00000
4.00000 7.03348 4.00000
4.00000 7.03348 4.00000
4.00000 7.03348 4.00000
4.00000 7.03348 4.00000
4.00000 7.03348 4.00000
4.00000 7.03348 4.00000
4.00000 7.03348 4.00000
4.00000 7.03348 4.00000
4.00000 7.03348 4.00000
4.00000 7.03348 4.00000
4.00000 7.03348 4.00000
4.00000 7.03348 4.00000
4.00000 7.03348 4.00000
4.00000 7.03348 4.00000
4.00000 7.03348 4.00000
4.00000 7.03348 4.00000
4.00000 7.03348 4.00000
4.00000 7.03348 4.00000
4.00000 7.03348 4.00000
4.00000 7.03348 4.00000
4.00000 7.03348 4.00000
4.00000 7.03348 4.00000
4.00000 7.03348 4.00000
4.00000 7.03348 4.00000
4.00000 7.03348 4.00000
4.00000 7.03348 4.00000
4.00000 7.03348 4.00000
4.00000 7.03348 4.00000
4.00000 7.03346 4.00000
4.00000 7.03348 4.00000
4.00000 7.03348 4.00000
4.00000 7.03348 4.00000
4.00000 7.03348 4.00000
4.00000 7.03348 4.00000
4.00000 7.03348 4.00000
4.00000 7.03348 4.00000
4.00000 7.03348 4.00000
4.00000 7.03349 4.00000
4.00000 7.03348 4.00000
4.00000 7.03348 4.00000
4.00000 7.03348 4.00000
4.00000 7.03348 4.00000
4.00000 7.03348 4.00000
4.00000 7.03348 4.00000
4.00000 7.03348 4.00000
4.00000 7.03348 4.00000
4.00000 7.03348 4.00000
4.00000 7.03348 4.00000
4.00000 7.03348 4.00000
4.00000 7.03348 4.00000
4.00000 7.03351 4.00000
4.00000 7.03348 4.00000
4.00000 7.03349 4.00000
4.00000 7.03348 4.00000
4.00000 7.03348 4.00000
4.00000 7.03348 4.00000
4.00000 7.03348 4.00000
4.00000 7.03348 4.00000
4.00000 7.03348 4.00000
4.00000 7.03348 4.00000
4.00000 7.03348 4.00000
4.00000 7.03348 4.00000
4.00000 7.03348 4.00000
4.00000 7.03348 4.00000
4.00000 7.03348 4.00000
4.00000 7.03348 4.00000
4.00000 7.03348 4.00000
4.00000 7.03348 4.00000
4.00000 7.03348 4.00000
4.00000 7.03348 4.00000
4.00000 7.03348 4.00000
4.00000 7.03348 4.00000
4.00000 7.03348 4.00000
4.00000 7.03348 4.00000
4.00000 7.03348 4.00000
4.00000 7.03348 4.00000
4.00000 7.03348 4.00000
4.00000 7.03348 4.00000
4.00000 7.03348 4.00000
4.00000 7.03349 4.00000
4.00040 7.03960 4.00041
4.00515 7.11328 4.00515
4.00983 7.18723 4.00983
4.01447 7.26142 4.01447
4.01907 7.33577 4.01907
4.02365 7.41029 4.02365
4.02823 7.48488 4.02822
4.03282 7.55952 4.03282
4.03745 7.63414 4.03745
4.04213 7.70871 4.04212
4.04688 7.78315 4.04688
4.05172 7.85741 4.05172
4.05668 7.93143 4.05668
4.06180 8.00512 4.06180
4.06708 8.07842 4.06708
4.07259 8.15121 4.07259
4.07834 8.22341 4.07834
4.08440 8.29488 4.08440
4.09082 8.36548 4.09082
4.09766 8.43506 4.09766
4.10499 8.50341 4.10499
4.11292 8.57032 4.11292
4.12154 8.63553 4.12154
4.13094 8.69880 4.13094
4.14107 8.76033 4.14107
4.15195 8.82010 4.15195
4.16360 8.87804 4.16360
4.17606 8.93408 4.17606
4.18937 8.98817 4.18937
4.20355 9.04027 4.20355
4.21863 9.09035 4.21863
4.23462 9.13838 4.23462
4.25155 9.18434 4.25155
4.26942 9.22824 4.26942
4.28825 9.27007 4.28825
4.30805 9.30982 4.30805
4.32883 9.34748 4.32884
4.35062 9.38304 4.35062
4.37342 9.41647 4.37342
4.39728 9.44772 4.39728
4.42222 9.47671 4.42222
4.44830 9.50334 4.44831
4.47560 9.52745 4.47560
4.50420 9.54886 4.50420
4.53421 9.56733 4.53421
4.56577 9.58256 4.56577
4.59903 9.59422 4.59903
4.63416 9.60194 4.63416
4.67133 9.60536 4.67134
7.43406 7.49236 4.02869
7.59388 7.41916 4.02419
7.73526 7.36412 4.02081
7.86501 7.32055 4.01813
7.98671 7.28496 4.01593
8.10250 7.25524 4.01408
8.21374 7.23004 4.01251
8.32142 7.20839 4.01116
8.42621 7.18966 4.00999
8.52862 7.17331 4.00896
8.62906 7.15896 4.00805
8.72783 7.14630 4.00725
8.82520 7.13509 4.00654
8.92135 7.12512 4.00590
9.01645 7.11623 4.00534
9.11065 7.10829 4.00483
9.20407 7.10116 4.00437
9.29680 7.09476 4.00396
9.38894 7.08901 4.00359
9.48053 7.08383 4.00326
9.57167 7.07916 4.00296
9.66239 7.07494 4.00269
9.75275 7.07113 4.00244
9.84280 7.06768 4.00222
9.93256 7.06456 4.00202
10.02207 7.06173 4.00184
10.11136 7.05916 4.00167
10.20045 7.05684 4.00152
10.28937 7.05473 4.00138
10.37814 7.05281 4.00126
10.46678 7.05107 4.00114
10.55530 7.04949 4.00104
10.64372 7.04805 4.00095
10.73204 7.04675 4.00086
10.82030 7.04556 4.00079
10.90848 7.04448 4.00072
10.99661 7.04349 4.00065
11.08469 7.04260 4.00059
11.17272 7.04178 4.00054
11.26072 7.04104 4.00049
11.34871 7.04035 4.00045
11.43665 7.03975 4.00041
11.52458 7.03919 4.00037
11.61250 7.03868 4.00034
11.70041 7.03822 4.00031
11.78831 7.03779 4.00028
11.87621 7.03741 4.00026
11.96411 7.03706 4.00023
12.05202 7.03674 4.00021
12.13992 7.03645 4.00019
12.22784 7.03618 4.00018
12.31576 7.03594 4.00016
12.40369 7.03572 4.00015
12.49164 7.03552 4.00013
12.57960 7.03534 4.00012
12.66757 7.03517 4.00011
12.75557 7.03502 4.00010
12.84357 7.03488 4.00009
12.93159 7.03476 4.00008
13.01963 7.03464 4.00008
13.10769 7.03454 4.00007
13.19577 7.03444 4.00006
13.28387 7.03436 4.00005
13.37198 7.03428 4.00005
13.46011 7.03421 4.00005
13.54826 7.03414 4.00004
13.63644 7.03408 4.00004
13.72464 7.03402 4.00003
13.81284 7.03398 4.00003
13.90108 7.03394 4.00003
13.98933 7.03389 4.00003
14.07761 7.03386 4.00003
14.16590 7.03382 4.00002
14.25422 7.03379 4.00002
14.34255 7.03377 4.00002
14.43090 7.03374 4.00001
14.51928 7.03372 4.00002
14.60767 7.03369 4.00001
14.69608 7.03368 4.00001
14.78452 7.03366 4.00001
14.87298 7.03364 4.00001
14.96146 7.03363 4.00001
15.04996 7.03361 4.00001
15.13848 7.03360 4.00001
15.22702 7.03359 4.00001
15.31558 7.03358 4.00001
15.40416 7.03357 4.00001
15.49275 7.03356 4.00001
15.58137 7.03356 4.00000
15.67000 7.03355 4.00000
15.75865 7.03354 4.00000
15.84732 7.03354 4.00000
15.93601 7.03353 4.00000
16.02471 7.03353 4.00000
16.11343 7.03352 4.00000
16.20217 7.03352 4.00000
16.29092 7.03352 4.00000
16.37969 7.03351 4.00000
16.46847 7.03351 4.00000
16.55726 7.03350 4.00000
16.64607 7.03350 4.00000
16.73490 7.03350 4.00000
16.82373 7.03349 4.00000
16.91258 7.03349 4.00000
17.00144 7.03349 4.00000
17.09032 7.03349 4.00000
17.17921 7.03349 4.00000
17.26811 7.03349 4.00000
17.35703 7.03349 4.00000
17.44596 7.03348 4.00000
17.53490 7.03348 4.00000
17.62386 7.03348 4.00000
17.71283 7.03348 4.00000
17.80181 7.03348 4.00000
17.89080 7.03348 4.00000
17.97980 7.03349 4.00000
18.06881 7.03349 4.00000
18.15785 7.03348 4.00000
18.24690 7.03348 4.00000
18.33594 7.03348 4.00000
18.42501 7.03348 4.00000
18.51409 7.03348 4.00000
18.60317 7.03348 4.00000
18.69227 7.03348 4.00000
18.78138 7.03348 4.00000
18.87050 7.03348 4.00000
18.95964 7.03348 4.00000
19.04880 7.03348 4.00000
19.13797 7.03348 4.00000
19.22714 7.03348 4.00000
19.31633 7.03348 4.00000
19.40553 7.03348 4.00000
19.49474 7.03348 4.00000
19.58396 7.03348 4.00000
19.67319 7.03348 4.00000
19.76241 7.03348 4.00000
19.85164 7.03348 4.00000
19.94089 7.03348 4.00000
20.03014 7.03348 4.00000
20.11940 7.03348 4.00000
20.20867 7.03348 4.00000
20.29795 7.03348 4.00000
20.38724 7.03348 4.00000
20.47654 7.03348 4.00000
20.56585 7.03348 4.00000
20.65517 7.03348 4.00000
20.74449 7.03348 4.00000
20.83383 7.03348 4.00000
20.92317 7.03348 4.00000
21.01253 7.03348 4.00000
21.10189 7.03348 4.00000
21.19126 7.03348 4.00000
21.28065 7.03348 4.00000
21.37004 7.03348 4.00000
21.45945 7.03347 4.00000
21.54884 7.03348 4.00000
21.63825 7.03348 4.00000
21.72767 7.03348 4.00000
21.81711 7.03347 4.00000
21.90655 7.03347 4.00000
21.99598 7.03348 4.00000
22.08543 7.03348 4.00000
22.17490 7.03348 4.00000
22.26437 7.03347 4.00000
22.35383 7.03348 4.00000
22.44331 7.03348 4.00000
22.53280 7.03347 4.00000
22.62229 7.03348 4.00000
22.71180 7.03347 4.00000
22.80131 7.03348 4.00000
22.89082 7.03348 4.00000
22.98034 7.03348 4.00000
23.06987 7.03348 4.00000
23.15940 7.03348 4.00000
23.24894 7.03348 4.00000
23.33849 7.03348 4.00000
23.42804 7.03348 4.00000
23.51761 7.03348 4.00000
23.60717 7.03348 4.00000
23.69675 7.03348 4.00000
23.78633 7.03348 4.00000
23.87592 7.03348 4.00000
23.96551 7.03348 4.00000
24.05511 7.03348 4.00000
24.14472 7.03348 4.00000
24.23434 7.03348 4.00000
24.32396 7.03348 4.00000
24.41358 7.03348 4.00000
24.50321 7.03348 4.00000
24.59285 7.03347 4.00000
24.68249 7.03348 4.00000
24.77214 7.03348 4.00000
24.86179 7.03348 4.00000
24.95146 7.03348 4.00000
25.04112 7.03348 4.00000
25.13080 7.03348 4.00000
25.22048 7.03348 4.00000
25.31016 7.03348 4.00000
25.39985 7.03348 4.00000
25.48954 7.03348 4.00000
25.57924 7.03348 4.00000

