Angle 0.380808 5.758808

4.00000 7.03348 4.00000
4.00000 7.03348 4.00000
4.00000 7.03348 4.00000
4.00000 7.03348 4.00000
4.00000 7.03348 4.00000
4.00000 7.03348 4.00000
4.00000 7.03349 4.00000
4.00000 7.03348 4.00000
4.00000 7.03348 4.00000
4.00000 7.03348 4.00000
4.00000 7.03348 4.00000
4.00000 7.03348 4.00000
4.00000 7.03348 4.00000
4.00000 7.03348 4.00000
4.00000 7.03348 4.00000
4.00000 7.03348 4.00000
4.00000 7.03348 4.00000
4.00000 7.03348 4.00000
4.00000 7.03348 4.00000
4.00000 7.03348 4.00000
4.00000 7.03349 4.00000
4.00000 7.03346 4.00000
4.00000 7.03348 4.00000
4.00000 7.03348 4.00000
4.00000 7.03348 4.00000
4.00000 7.03348 4.00000
4.00000 7.03348 4.00000
4.00000 7.03348 4.00000
4.00000 7.03348 4.00000
4.00000 7.03348 4.00000
4.00000 7.03348 4.00000
4.00000 7.03348 4.00000
4.00000 7.03347 4.00000
4.00000 7.03347 4.00000
4.00000 7.03347 4.00000
4.00000 7.03347 4.00000
4.00000 7.03348 4.00000
4.00000 7.03348 4.00000
4.00000 7.03348 4.00000
4.00000 7.03347 4.00000
4.00000 7.03348 4.00000
4.00000 7.03348 4.00000
4.00000 7.03347 4.00000
4.00000 7.03348 4.00000
4.00000 7.03346 4.00000
4.00000 7.03348 4.00000
4.00000 7.03348 4.00000
4.00000 7.03349 4.00000
4.00000 7.03349 4.00000
4.00000 7.03348 4.00000
4.00000 7.03349 4.00000
4.00000 7.03348 4.00000
4.00000 7.03348 4.00000
4.00000 7.03347 4.00000
4.00000 7.03348 4.00000
4.00000 7.03348 4.00000
4.00000 7.03348 4.00000
4.00000 7.03348 4.00000
4.00419 7.09830 4.00419
4.00879 7.17074 4.00879
4.01335 7.24343 4.01335
4.01787 7.31632 4.01787
4.02236 7.38938 4.02236
4.02685 7.46256 4.02686
4.03136 7.53581 4.03136
4.03589 7.60908 4.03589
4.04046 7.68233 4.04046
4.04510 7.75550 4.04510
4.04982 7.82853 4.04982
4.05465 7.90137 4.05465
4.05961 7.97395 4.05961
4.06473 8.04618 4.06473
4.07004 8.11800 4.07004
4.07558 8.18929 4.07558
4.08139 8.25996 4.08139
4.08752 8.32988 4.08752
4.09403 8.39889 4.09403
4.10098 8.46684 4.10098
4.10846 8.53352 4.10846
4.11655 8.59870 4.11655
4.12536 8.66212 4.12536
4.13493 8.72372 4.13493
4.14519 8.78367 4.14519
4.15619 8.84190 4.15619
4.16796 8.89832 4.16796
4.18054 8.95290 4.18054
4.19395 9.00557 4.19395
4.20821 9.05630 4.20821
4.22336 9.10507 4.22336
4.23941 9.15184 4.23941
4.25637 9.19662 4.25636
4.27425 9.23938 4.27425
4.29308 9.28014 4.29308
4.31285 9.31887 4.31285
4.33360 9.35558 4.33359
4.35532 9.39024 4.35532
4.37805 9.42281 4.37804
4.40181 9.45325 4.40180
4.42664 9.48148 4.42664
4.45260 9.50738 4.45260
4.47976 9.53080 4.47976
4.50821 9.55156 4.50821
4.53806 9.56941 4.53806
4.56943 9.58407 4.56944
4.60250 9.59519 4.60250
4.63742 9.60243 4.63742
4.67435 9.60543 4.67436
7.44567 7.48661 4.02833
7.60227 7.41565 4.02398
7.74138 7.36192 4.02068
7.86935 7.31920 4.01804
7.98955 7.28418 4.01588
8.10401 7.25487 4.01406
8.21406 7.22996 4.01251
8.32061 7.20855 4.01117
8.42435 7.18997 4.01000
8.52577 7.17374 4.00898
8.62525 7.15948 4.00808
8.72310 7.14688 4.00729
8.81956 7.13570 4.00658
8.91484 7.12576 4.00594
9.00910 7.11688 4.00538
9.10246 7.10893 4.00487
9.19505 7.10181 4.00442
9.28697 7.09541 4.00401
9.37830 7.08965 4.00364
9.46911 7.08445 4.00330
9.55947 7.07976 4.00300
9.64942 7.07552 4.00273
9.73902 7.07169 4.00248
9.82830 7.06821 4.00225
9.91731 7.06507 4.00205
10.00608 7.06222 4.00187
10.09463 7.05963 4.00170
10.18299 7.05728 4.00155
10.27119 7.05514 4.00141
10.35923 7.05321 4.00128
10.44715 7.05145 4.00117
10.53497 7.04984 4.00106
10.62268 7.04838 4.00097
10.71031 7.04706 4.00088
10.79786 7.04585 4.00081
10.88536 7.04475 4.00073
10.97280 7.04375 4.00067
11.06020 7.04284 4.00061
11.14756 7.04200 4.00056
11.23489 7.04125 4.00051
11.32219 7.04056 4.00046
11.40948 7.03993 4.00042
11.49675 7.03936 4.00038
11.58401 7.03884 4.00035
11.67128 7.03836 4.00032
11.75853 7.03793 4.00029
11.84580 7.03754 4.00026
11.93306 7.03718 4.00024
12.02033 7.03685 4.00022
12.10761 7.03655 4.00020
12.19490 7.03628 4.00018
12.28221 7.03603 4.00017
12.36954 7.03580 4.00015
12.45688 7.03560 4.00014
12.54422 7.03541 4.00013
12.63160 7.03524 4.00011
12.71898 7.03509 4.00011
12.80640 7.03494 4.00010
12.89383 7.03481 4.00009
12.98129 7.03469 4.00008
13.06876 7.03459 4.00007
13.15626 7.03449 4.00007
13.24379 7.03440 4.00006
13.33133 7.03432 4.00005
13.41890 7.03424 4.00005
13.50651 7.03417 4.00005
13.59412 7.03412 4.00004
13.68177 7.03406 4.00004
13.76945 7.03400 4.00003
13.85715 7.03396 4.00003
13.94487 7.03392 4.00003
14.03262 7.03387 4.00003
14.12040 7.03384 4.00002
14.20819 7.03381 4.00002
14.29602 7.03378 4.00002
14.38386 7.03375 4.00002
14.47173 7.03373 4.00002
14.55962 7.03371 4.00001
14.64754 7.03368 4.00001
14.73548 7.03367 4.00001
14.82325 7.03365 4.00001
14.91122 7.03364 4.00001
14.99922 7.03362 4.00001
15.08723 7.03361 4.00001
15.17527 7.03360 4.00001
15.26333 7.03359 4.00001
15.35142 7.03358 4.00001
15.43952 7.03357 4.00001
15.52765 7.03356 4.00001
15.61580 7.03355 4.00000
15.70397 7.03355 4.00000
15.79216 7.03354 4.00000
15.88037 7.03354 4.00000
15.96860 7.03353 4.00000
16.05685 7.03353 4.00000
16.14513 7.03352 4.00000
16.23342 7.03352 4.00000
16.32173 7.03351 4.00000
16.41006 7.03351 4.00000
16.49842 7.03351 4.00000
16.58678 7.03351 4.00000
16.67517 7.03350 4.00000
16.76358 7.03350 4.00000
16.85200 7.03350 4.00000
16.94044 7.03350 4.00000
17.02889 7.03350 4.00000
17.11736 7.03349 4.00000
17.20585 7.03349 4.00000
17.29435 7.03349 4.00000
17.38286 7.03349 4.00000
17.47140 7.03349 4.00000
17.55995 7.03349 4.00000
17.64851 7.03349 4.00000
17.73709 7.03349 4.00000
17.82568 7.03349 4.00000
17.91429 7.03349 4.00000
18.00292 7.03349 4.00000
18.09156 7.03349 4.00000
18.18021 7.03348 4.00000
18.26888 7.03348 4.00000
18.35757 7.03348 4.00000
18.44627 7.03348 4.00000
18.53498 7.03348 4.00000
18.62372 7.03348 4.00000
18.71245 7.03348 4.00000
18.80122 7.03348 4.00000
18.88997 7.03348 4.00000
18.97875 7.03348 4.00000
19.06754 7.03348 4.00000
19.15636 7.03347 4.00000
19.24517 7.03348 4.00000
19.33400 7.03348 4.00000
19.42286 7.03347 4.00000
19.51170 7.03348 4.00000
19.60057 7.03348 4.00000
19.68946 7.03347 4.00000
19.77834 7.03348 4.00000
19.86725 7.03348 4.00000
19.95617 7.03348 4.00000
20.04509 7.03348 4.00000
20.13403 7.03348 4.00000
20.22297 7.03348 4.00000
20.31193 7.03348 4.00000
20.40090 7.03348 4.00000
20.48988 7.03348 4.00000
20.57887 7.03348 4.00000
20.66788 7.03348 4.00000
20.75689 7.03348 4.00000
20.84591 7.03348 4.00000
20.93495 7.03348 4.00000
21.02399 7.03348 4.00000
21.11305 7.03348 4.00000
21.20211 7.03348 4.00000
21.29119 7.03348 4.00000
21.38028 7.03348 4.00000
21.46937 7.03348 4.00000
21.55848 7.03348 4.00000
21.64759 7.03348 4.00000
21.73672 7.03347 4.00000
21.82586 7.03348 4.00000
21.91500 7.03348 4.00000
22.00417 7.03347 4.00000
22.09333 7.03347 4.00000
22.18250 7.03348 4.00000
22.27168 7.03348 4.00000
22.36088 7.03348 4.00000
22.45008 7.03348 4.00000
22.53929 7.03348 4.00000
22.62851 7.03348 4.00000
22.71774 7.03348 4.00000
22.80698 7.03348 4.00000
22.89623 7.03348 4.00000
22.98548 7.03348 4.00000
23.07474 7.03348 4.00000
23.16401 7.03348 4.00000
23.25329 7.03348 4.00000
23.34258 7.03348 4.00000
23.43188 7.03348 4.00000
23.52118 7.03348 4.00000
23.61049 7.03348 4.00000
23.69981 7.03348 4.00000
23.78913 7.03348 4.00000
23.87847 7.03348 4.00000
23.96781 7.03348 4.00000
24.05716 7.03348 4.00000
24.14651 7.03348 4.00000
24.23587 7.03348 4.00000
24.32524 7.03348 4.00000
24.41462 7.03348 4.00000
24.50401 7.03348 4.00000
24.59340 7.03348 4.00000
24.68280 7.03348 4.00000
24.77221 7.03348 4.00000
24.86162 7.03348 4.00000
24.95104 7.03348 4.00000
25.04047 7.03348 4.00000
25.12990 7.03348 4.00000
25.21935 7.03348 4.00000
25.30879 7.03348 4.00000
25.39825 7.03348 4.00000
25.48771 7.03348 4.00000
25.57718 7.03348 4.00000
25.66666 7.03348 4.00000
25.75614 7.03348 4.00000
25.84563 7.03348 4.00000
25.93513 7.03348 4.00000
26.02463 7.03348 4.00000
26.11414 7.03348 4.00000
26.20365 7.03348 4.00000
26.29318 7.03348 4.00000
26.38271 7.03348 4.00000
26.47224 7.03348 4.00000
26.56178 7.03348 4.00000
26.65133 7.03348 4.00000
26.74087 7.03348 4.00000
26.83042 7.03348 4.00000
26.91995 7.03349 4.00000
27.00953 7.03348 4.00000
27.09909 7.03349 4.00000
27.18865 7.03349 4.00000
27.27824 7.03348 4.00000
27.36782 7.03348 4.00000
27.45741 7.03349 4.00000
27.54700 7.03349 4.00000
27.63661 7.03348 4.00000
27.72622 7.03348 4.00000
27.81583 7.03348 4.00000
27.90545 7.03348 4.00000
27.99507 7.03348 4.00000
28.08471 7.03348 4.00000
28.17434 7.03348 4.00000
28.26398 7.03348 4.00000
28.35363 7.03348 4.00000
28.44329 7.03348 4.00000
28.53295 7.03348 4.00000
28.62261 7.03348 4.00000
28.71228 7.03348 4.00000
28.80196 7.03348 4.00000
28.89165 7.03348 4.00000
28.98134 7.03348 4.00000
29.07103 7.03348 4.00000
29.16074 7.03348 4.00000
29.25045 7.03348 4.00000
29.34017 7.03348 4.00000
29.42989 7.03348 4.00000
29.51962 7.03348 4.00000
29.60936 7.03348 4.00000
29.69911 7.03348 4.00000
29.78886 7.03348 4.00000
29.87861 7.03348 4.00000
29.96837 7.03348 4.00000
30.05814 7.03348 4.00000
30.14791 7.03348 4.00000
30.23768 7.03348 4.00000
30.32746 7.03348 4.00000
30.41725 7.03348 4.00000
30.50704 7.03348 4.00000
30.59684 7.03348 4.00000
30.68665 7.03348 4.00000
30.77647 7.03348 4.00000
30.86628 7.03348 4.00000
30.95612 7.03348 4.00000
31.04594 7.03348 4.00000
31.13577 7.03348 4.00000
31.22562 7.03348 4.00000
31.31546 7.03348 4.00000
31.40532 7.03348 4.00000
31.49516 7.03348 4.00000
31.58501 7.03348 4.00000
31.67488 7.03348 4.00000
31.76475 7.03348 4.00000
31.85462 7.03348 4.00000
31.94449 7.03348 4.00000
32.03437 7.03348 4.00000
32.12425 7.03348 4.00000
32.21414 7.03348 4.00000
32.30403 7.03348 4.00000
32.39392 7.03348 4.00000
32.48382 7.03348 4.00000
32.57372 7.03348 4.00000
32.66362 7.03348 4.00000
32.75352 7.03348 4.00000
32.84343 7.03348 4.00000
32.93334 7.03348 4.00000
33.02326 7.03348 4.00000
33.11317 7.03348 4.00000
33.20309 7.03348 4.00000
33.29301 7.03348 4.00000
33.38284 7.03348 4.00000
33.47269 7.03348 4.00000
33.56253 7.03348 4.00000
33.65239 7.03348 4.00000
33.74222 7.03348 4.00000

Angle 0.357399 2.080720

4.00000 7.03348 4.00000
4.00000 7.03348 4.00000
4.00000 7.03348 4.00000
4.00000 7.03348 4.00000
4.00000 7.03348 4.00000
4.00000 7.03348 4.00000
4.00000 7.03348 4.00000
4.00000 7.03348 4.00000
4.00000 7.03348 4.00000
4.00000 7.03348 4.00000
4.00000 7.03348 4.00000
4.00000 7.03348 4.00000
4.00000 7.03348 4.00000
4.00000 7.03348 4.00000
4.00000 7.03348 4.00000
4.00000 7.03348 4.00000
4.00000 7.03348 4.00000
4.00000 7.03348 4.00000
4.00000 7.03348 4.00000
4.00000 7.03348 4.00000
4.00000 7.03347 4.00000
4.00000 7.03348 4.00000
4.00000 7.03348 4.00000
4.00000 7.03348 4.00000
4.00000 7.03348 4.00000
4.00000 7.03348 4.00000
4.00000 7.03348 4.00000
4.00000 7.03348 4.00000
4.00000 7.03348 4.00000
4.00000 7.03348 4.00000
4.00000 7.03348 4.00000
4.00000 7.03348 4.00000
4.00000 7.03348 4.00000
4.00000 7.03348 4.00000
4.00000 7.03347 4.00000
4.00000 7.03348 4.00000
4.00000 7.03348 4.00000
4.00000 7.03348 4.00000
4.00000 7.03346 4.00000
4.00000 7.03348 4.00000
4.00000 7.03348 4.00000
4.00000 7.03348 4.00000
4.00000 7.03348 4.00000
4.00000 7.03348 4.00000
4.00000 7.03348 4.00000
4.00000 7.03348 4.00000
4.00000 7.03347 4.00000
4.00000 7.03348 4.00000
4.00000 7.03348 4.00000
4.00000 7.03348 4.00000
4.00000 7.03348 4.00000
4.00000 7.03348 4.00000
4.00000 7.03348 4.00000
4.00000 7.03347 4.00000
4.00000 7.03347 4.00000
4.00000 7.03347 4.00000
4.00000 7.03347 4.00000
4.00000 7.03347 4.00000
4.00000 7.03347 4.00000
4.00000 7.03347 4.00000
4.00000 7.03347 4.00000
4.00000 7.03347 4.00000
4.00000 7.03347 4.00000
4.00000 7.03348 4.00000
4.00000 7.03348 4.00000
4.00000 7.03348 4.00000
4.00000 7.03348 4.00000
4.00000 7.03348 4.00000
4.00000 7.03348 4.00000
4.00000 7.03348 4.00000
4.00000 7.03348 4.00000
4.00000 7.03348 4.00000
4.00000 7.03348 4.00000
4.00000 7.03348 4.00000
4.00000 7.03348 4.00000
4.00000 7.03348 4.00000
4.00000 7.03348 4.00000
4.00000 7.03347 4.00000
4.00000 7.03348 4.00000
4.00000 7.03348 4.00000
4.00000 7.03348 4.00000
4.00000 7.03348 4.00000
4.00000 7.03348 4.00000
4.00000 7.03348 4.00000
4.00000 7.03348 4.00000
4.00000 7.03348 4.00000
4.00000 7.03348 4.00000
4.00000 7.03348 4.00000
4.00000 7.03348 4.00000
4.00000 7.03348 4.00000
4.00000 7.03348 4.00000
4.00000 7.03348 4.00000
4.00000 7.03348 4.00000
4.00000 7.03347 4.00000
4.00000 7.03348 4.00000
4.00000 7.03348 4.00000
4.00000 7.03348 4.00000
4.00000 7.03348 4.00000
4.00000 7.03348 4.00000
4.00000 7.03348 4.00000
4.00000 7.03347 4.00000
4.00000 7.03347 4.00000
4.00000 7.03348 4.00000
4.00000 7.03348 4.00000
4.00000 7.03348 4.00000
4.00000 7.03348 4.00000
4.00000 7.03348 4.00000
4.00000 7.03347 4.00000
4.00000 7.03347 4.00000
4.00000 7.03348 4.00000
4.00000 7.03348 4.00000
4.00000 7.03347 4.00000
4.00000 7.03348 4.00000
4.00000 7.03348 4.00000
4.00000 7.03348 4.00000
4.00000 7.03348 4.00000
4.00000 7.03348 4.00000
4.00000 7.03348 4.00000
4.00000 7.03348 4.00000
4.00000 7.03348 4.00000
4.00000 7.03348 4.00000
4.00000 7.03348 4.00000
4.00000 7.03348 4.00000
4.00000 7.03348 4.00000
4.00000 7.03348 4.00000
4.00000 7.03346 4.00000
4.00000 7.03348 4.00000
4.00000 7.03348 4.00000
4.00000 7.03348 4.00000
4.00000 7.03348 4.00000
4.00000 7.03348 4.00000
4.00000 7.03348 4.00000
4.00000 7.03348 4.00000
4.00000 7.03348 4.00000
4.00000 7.03348 4.00000
4.00000 7.03348 4.00000
4.00000 7.03348 4.00000
4.00000 7.03348 4.00000
4.00000 7.03348 4.00000
4.00000 7.03348 4.00000
4.00000 7.03348 4.00000
4.00000 7.03348 4.00000
4.00000 7.03348 4.00000
4.00000 7.03348 4.00000
4.00000 7.03348 4.00000
4.00000 7.03348 4.00000
4.00000 7.03348 4.00000
4.00000 7.03348 4.00000
4.00000 7.03348 4.00000
4.00000 7.03348 4.00000
4.00000 7.03348 4.00000
4.00000 7.03348 4.00000
4.00000 7.03348 4.00000
4.00000 7.03348 4.00000
4.00000 7.03348 4.00000
4.00000 7.03348 4.00000
4.00000 7.03348 4.00000
4.00000 7.03348 4.00000
4.00000 7.03348 4.00000
4.00000 7.03348 4.00000
4.00000 7.03348 4.00000
4.00000 7.03348 4.00000
4.00000 7.03348 4.00000
4.00000 7.03348 4.00000
4.00000 7.03348 4.00000
4.00000 7.03348 4.00000
4.00000 7.03348 4.00000
4.00000 7.03348 4.00000
4.00000 7.03348 4.00000
4.00000 7.03348 4.00000
4.00000 7.03348 4.00000
4.00000 7.03348 4.00000
4.00000 7.03349 4.00000
4.00000 7.03348 4.00000
4.00000 7.03348 4.00000
4.00000 7.03349 4.00000
4.00000 7.03348 4.00000
4.00000 7.03348 4.00000
4.00000 7.03348 4.00000
4.00000 7.03347 4.00000
4.00000 7.03348 4.00000
4.00000 7.03348 4.00000
4.00000 7.03348 4.00000
4.00000 7.03348 4.00000
4.00000 7.03349 4.00000
4.00000 7.03348 4.00000
4.00000 7.03348 4.00000
4.00000 7.03348 4.00000
4.00000 7.03346 4.00000
4.00000 7.03347 4.00000
4.00000 7.03348 4.00000
4.00000 7.03348 4.00000
4.00000 7.03346 4.00000
4.00000 7.03345 4.00000
4.00000 7.03348 4.00000
4.00000 7.03348 4.00000
4.00000 7.03347 4.00000
4.00000 7.03348 4.00000
4.00000 7.03348 4.00000
4.00000 7.03348 4.00000
4.00000 7.03348 4.00000
4.00353 7.08797 4.00353
4.00827 7.16242 4.00827
4.01295 7.23711 4.01295
4.01760 7.31200 4.01760
4.02222 7.38704 4.02222
4.02683 7.46218 4.02683
4.03145 7.53736 4.03145
4.03610 7.61254 4.03610
4.04080 7.68767 4.04080
4.04556 7.76268 4.04556
4.05041 7.83752 4.05041
4.05538 7.91213 4.05538
4.06048 7.98642 4.06048
4.06576 8.06032 4.06576
4.07124 8.13374 4.07124
4.07697 8.20656 4.07697
4.08299 8.27868 4.08300
4.08937 8.34995 4.08937
4.09615 8.42021 4.09615
4.10342 8.48927 4.10342
4.11126 8.55692 4.11126
4.11979 8.62289 4.11979
4.12910 8.68691 4.12910
4.13916 8.74914 4.13915
4.14995 8.80959 4.14995
4.16153 8.86819 4.16153
4.17393 8.92489 4.17393
4.18717 8.97961 4.18717
4.20129 9.03232 4.20129
4.21632 9.08299 4.21632
4.23226 9.13159 4.23226
4.24915 9.17810 4.24915
4.26698 9.22252 4.26698
4.28579 9.26484 4.28579
4.30557 9.30506 4.30557
4.32634 9.34317 4.32635
4.34812 9.37916 4.34812
4.37093 9.41300 4.37093
4.39479 9.44464 4.39480
4.41975 9.47400 4.41975
4.44585 9.50099 4.44585
4.47317 9.52545 4.47317
4.50179 9.54721 4.50179
4.53183 9.56601 4.53183
4.56342 9.58157 4.56341
4.59670 9.59355 4.59670
4.63187 9.60158 4.63186
4.66908 9.60528 4.66908
4.02898 7.49707 7.42462
4.02438 7.42231 7.58641
4.02095 7.36635 7.72910
4.01823 7.32217 7.85985
4.01600 7.28615 7.98235
4.01414 7.25612 8.09882
4.01255 7.23069 8.21067
4.01119 7.20888 8.31888
4.01001 7.19000 8.42416
4.00897 7.17355 8.52703
4.00806 7.15911 8.62791
4.00726 7.14639 8.72710
4.00654 7.13512 8.82486
4.00590 7.12511 8.92139
4.00533 7.11619 9.01687
4.00483 7.10821 9.11144
4.00437 7.10107 9.20521
4.00396 7.09466 9.29829
4.00359 7.08890 9.39075
4.00326 7.08373 9.48266
4.00295 7.07904 9.57415
4.00268 7.07483 9.66519
4.00244 7.07101 9.75587
4.00221 7.06756 9.84623
4.00201 7.06444 9.93630
4.00183 7.06161 10.02612
4.00166 7.05905 10.11571
4.00151 7.05673 10.20510
4.00137 7.05462 10.29433
4.00125 7.05270 10.38339
4.00114 7.05097 10.47232
4.00104 7.04939 10.56113
4.00094 7.04795 10.64985
4.00086 7.04665 10.73845
4.00078 7.04547 10.82699
4.00071 7.04438 10.91547
4.00065 7.04343 11.00384
4.00059 7.04252 11.09221
4.00054 7.04171 11.18052
4.00049 7.04098 11.26879
4.00044 7.04031 11.35704
4.00041 7.03969 11.44526
4.00037 7.03913 11.53346
4.00034 7.03863 11.62164
4.00031 7.03817 11.70981
4.00028 7.03775 11.79798
4.00026 7.03736 11.88613
4.00023 7.03702 11.97430
4.00021 7.03671 12.06245
4.00019 7.03641 12.15061
4.00017 7.03614 12.23879
4.00016 7.03591 12.32695
4.00015 7.03569 12.41514
4.00013 7.03550 12.50333
4.00012 7.03531 12.59153
4.00011 7.03514 12.67976
4.00010 7.03500 12.76799
4.00009 7.03486 12.85623
4.00008 7.03473 12.94449
4.00007 7.03462 13.03277
4.00007 7.03453 13.12106
4.00006 7.03444 13.20937
4.00006 7.03435 13.29769
4.00005 7.03427 13.38604
4.00005 7.03420 13.47440
4.00004 7.03413 13.56278
4.00004 7.03407 13.65118
4.00004 7.03402 13.73960
4.00003 7.03397 13.82804
4.00003 7.03393 13.91649
4.00003 7.03389 14.00497
4.00002 7.03385 14.09346
4.00002 7.03382 14.18197
4.00002 7.03379 14.27050
4.00002 7.03376 14.35905
4.00002 7.03373 14.44762
4.00001 7.03371 14.53621
4.00001 7.03369 14.62481
4.00001 7.03367 14.71343
4.00001 7.03365 14.80208
4.00001 7.03364 14.89073
4.00001 7.03362 14.97941
4.00001 7.03361 15.06810
4.00001 7.03360 15.15682
4.00001 7.03359 15.24554
4.00001 7.03358 15.33429
4.00001 7.03357 15.42305
4.00001 7.03356 15.51183
4.00000 7.03355 15.60063
4.00000 7.03355 15.68944
4.00000 7.03354 15.77827
4.00000 7.03354 15.86712
4.00000 7.03353 15.95598
4.00000 7.03353 16.04485
4.00000 7.03352 16.13374
4.00000 7.03352 16.22265
4.00000 7.03351 16.31157
4.00000 7.03351 16.40051
4.00000 7.03351 16.48946
4.00000 7.03350 16.57843
4.00000 7.03350 16.66740
4.00000 7.03350 16.75640
4.00000 7.03350 16.84540
4.00000 7.03350 16.93443
4.00000 7.03350 17.02346
4.00000 7.03349 17.11251
4.00000 7.03349 17.20157
4.00000 7.03349 17.29064
4.00000 7.03349 17.37973
4.00000 7.03350 17.46882
4.00000 7.03349 17.55795
4.00000 7.03349 17.64707
4.00000 7.03348 17.73621
4.00000 7.03348 17.82536
4.00000 7.03348 17.91452
4.00000 7.03349 18.00369
4.00000 7.03348 18.09288
4.00000 7.03348 18.18207
4.00000 7.03348 18.27128
4.00000 7.03348 18.36050
4.00000 7.03348 18.44974
4.00000 7.03348 18.53898
4.00000 7.03348 18.62823
4.00000 7.03348 18.71750
4.00000 7.03348 18.80677
4.00000 7.03348 18.89606
4.00000 7.03348 18.98535
4.00000 7.03348 19.07466
4.00000 7.03348 19.16397
4.00000 7.03348 19.25330
4.00000 7.03348 19.34263
4.00000 7.03348 19.43198
4.00000 7.03348 19.52133
4.00000 7.03348 19.61069
4.00000 7.03348 19.70006
4.00000 7.03348 19.78944
4.00000 7.03348 19.87883
4.00000 7.03347 19.96823
4.00000 7.03348 20.05762
4.00000 7.03348 20.14704
4.00000 7.03349 20.23645
4.00000 7.03348 20.32589
4.00000 7.03348 20.41532
4.00000 7.03348 20.50476
4.00000 7.03348 20.59421
4.00000 7.03348 20.68367
4.00000 7.03348 20.77314
4.00000 7.03348 20.86261
4.00000 7.03348 20.95210
4.00000 7.03348 21.04159
4.00000 7.03348 21.13109

Angle 0.442022 3.859401

4.00000 7.03348 4.00000
4.00000 7.03348 4.00000
4.00000 7.03348 4.00000
4.00000 7.03348 4.00000
4.00000 7.03348 4.00000
4.00000 7.03348 4.00000
4.00000 7.03348 4.00000
4.00000 7.03347 4.00000
4.00000 7.03344 4.00000
4.00000 7.03347 4.00000
4.00000 7.03346 4.00001
4.00000 7.03348 4.00000
4.00000 7.03348 4.00000
4.00000 7.03348 4.00000
4.00000 7.03348 4.00000
4.00000 7.03348 4.00000
4.00000 7.03348 4.00000
4.00000 7.03348 4.00000
4.00000 7.03348 4.00000
4.00000 7.03348 4.00000
4.00000 7.03348 4.00000
4.00000 7.03348 4.00000
4.00000 7.03348 4.00000
4.00000 7.03348 4.00000
4.00000 7.03348 4.00000
4.00000 7.03348 4.00000
4.00000 7.03348 4.00000
4.00000 7.03347 4.00000
4.00000 7.03348 4.00000
4.00000 7.03348 4.00000
4.00000 7.03348 4.00000
4.00000 7.03348 4.00000
4.00000 7.03348 4.00000
4.00000 7.03348 4.00000
4.00000 7.03348 4.00000
4.00000 7.03348 4.00000
4.00000 7.03348 4.00000
4.00000 7.03348 4.00000
4.00000 7.03348 4.00000
4.00000 7.03348 4.00000
4.00000 7.03348 4.00000
4.00000 7.03348 4.00000
4.00000 7.03348 4.00000
4.00000 7.03348 4.00000
4.00000 7.03348 4.00000
4.00000 7.03348 4.00000
4.00000 7.03348 4.00000
4.00000 7.03348 4.00000
4.00000 7.03348 4.00000
4.00000 7.03348 4.00000
4.00000 7.03348 4.00000
4.00000 7.03348 4.00000
4.00000 7.03348 4.00000
4.00000 7.03348 4.00000
4.00000 7.03348 4.00000
4.00000 7.03348 4.00000
4.00000 7.03348 4.00000
4.00000 7.03348 4.00000
4.00000 7.03348 4.00000
4.00000 7.03348 4.00000
4.00000 7.03348 4.00000
4.00000 7.03348 4.00000
4.00000 7.03348 4.00000
4.00000 7.03348 4.00000
4.00000 7.03348 4.00000
4.00000 7.03348 4.00000
4.00000 7.03348 4.00000
4.00000 7.03348 4.00000
4.00000 7.03348 4.00000
4.00000 7.03348 4.00000
4.00000 7.03348 4.00000
4.00000 7.03348 4.00000
4.00000 7.03348 4.00000
4.00000 7.03348 4.00000
4.00000 7.03348 4.00000
4.00000 7.03348 4.00000
4.00000 7.03348 4.00000
4.00000 7.03348 4.00000
4.00000 7.03348 4.00000
4.00000 7.03348 4.00000
4.00000 7.03348 4.00000
4.00000 7.03348 4.00000
4.00000 7.03348 4.00000
4.00000 7.03348 4.00000
4.00000 7.03348 4.00000
4.00000 7.03348 4.00000
4.00000 7.03348 4.00000
4.00000 7.03348 4.00000
4.00000 7.03348 4.00000
4.00000 7.03348 4.00000
4.00000 7.03348 4.00000
4.00000 7.03348 4.00000
4.00000 7.03348 4.00000
4.00000 7.03348 4.00000
4.00000 7.03348 4.00000
4.00000 7.03348 4.00000
4.00000 7.03348 4.00000
4.00000 7.03348 4.00000
4.00000 7.03348 4.00000
4.00000 7.03349 4.00000
4.00000 7.03348 4.00000
4.00000 7.03348 4.00000
4.00000 7.03348 4.00000
4.00000 7.03348 4.00000
4.00000 7.03348 4.00000
4.00000 7.03348 4.00000
4.00000 7.03348 4.00000
4.00000 7.03348 4.00000
4.00000 7.03348 4.00000
4.00000 7.03348 4.00000
4.00000 7.03348 4.00000
4.00000 7.03348 4.00000
4.00000 7.03348 4.00000
4.00000 7.03348 4.00000
4.00000 7.03348 4.00000
4.00000 7.03348 4.00000
4.00000 7.03351 4.00000
4.00077 7.04533 4.00077
4.00547 7.11837 4.00547
4.01011 7.19168 4.01011
4.01470 7.26524 4.01470
4.01926 7.33898 4.01926
4.02381 7.41286 4.02380
4.02835 7.48683 4.02834
4.03290 7.56085 4.03290
4.03749 7.63487 4.03749
4.04213 7.70883 4.04213
4.04685 7.78269 4.04685
4.05165 7.85637 4.05165
4.05658 7.92982 4.05658
4.06164 8.00296 4.06164
4.06689 8.07572 4.06689
4.07234 8.14800 4.07234
4.07804 8.21970 4.07804
4.08404 8.29069 4.08404
4.09038 8.36085 4.09038
4.09714 8.43001 4.09714
4.10439 8.49799 4.10439
4.11220 8.56457 4.11220
4.12070 8.62950 4.12070
4.12997 8.69252 4.12997
4.13996 8.75383 4.13996
4.15067 8.81340 4.15067
4.16216 8.87118 4.16216
4.17444 8.92710 4.17444
4.18755 8.98110 4.18755
4.20153 9.03314 4.20153
4.21638 9.08319 4.21638
4.23214 9.13123 4.23214
4.24882 9.17724 4.24882
4.26643 9.22120 4.26643
4.28499 9.26313 4.28499
4.30451 9.30300 4.30451
4.32500 9.34082 4.32500
4.34647 9.37656 4.34647
4.36895 9.41021 4.36895
4.39247 9.44171 4.39247
4.41705 9.47100 4.41705
4.44275 9.49797 4.44275
4.46964 9.52250 4.46964
4.49780 9.54440 4.49780
4.52732 9.56344 4.52732
4.55835 9.57936 4.55835
4.59103 9.59182 4.59103
4.62552 9.60046 4.62552
4.66200 9.60493 4.66200
4.70043 9.60488 4.70082
4.02521 7.43576 7.55515
4.02161 7.37717 7.69971
4.01879 7.33124 7.83144
4.01648 7.29393 7.95445
4.01456 7.26292 8.07113
4.01293 7.23669 8.18300
4.01153 7.21423 8.29110
4.01031 7.19481 8.39616
4.00925 7.17789 8.49875
4.00831 7.16305 8.59928
4.00748 7.14996 8.69808
4.00675 7.13837 8.79542
4.00609 7.12810 8.89149
4.00551 7.11892 8.98650
4.00499 7.11073 9.08056
4.00452 7.10338 9.17382
4.00409 7.09678 9.26637
4.00371 7.09086 9.35830
4.00337 7.08552 9.44969
4.00306 7.08070 9.54060
4.00278 7.07635 9.63108
4.00253 7.07242 9.72120
4.00230 7.06886 9.81099
4.00209 7.06564 9.90049
4.00190 7.06272 9.98973
4.00173 7.06007 10.07875
4.00157 7.05767 10.16757
4.00143 7.05549 10.25621
4.00130 7.05351 10.34470
4.00119 7.05172 10.43304
4.00108 7.05008 10.52128
4.00098 7.04859 10.60941
4.00090 7.04724 10.69745
4.00082 7.04601 10.78541
4.00074 7.04489 10.87330
4.00068 7.04388 10.96113
4.00062 7.04294 11.04892
4.00056 7.04210 11.13666
4.00051 7.04132 11.22439
4.00047 7.04064 11.31205
4.00042 7.04000 11.39971
4.00039 7.03942 11.48735
4.00035 7.03889 11.57498
4.00032 7.03841 11.66260
4.00029 7.03797 11.75022
4.00027 7.03757 11.83783
4.00024 7.03721 11.92544
4.00022 7.03688 12.01306
4.00020 7.03657 12.10069
4.00018 7.03630 12.18832
4.00017 7.03605 12.27596
4.00015 7.03582 12.36362
4.00014 7.03561 12.45129
4.00013 7.03542 12.53897
4.00012 7.03525 12.62667
4.00011 7.03509 12.71439
4.00010 7.03495 12.80212
4.00009 7.03482 12.88988
4.00008 7.03470 12.97765
4.00007 7.03459 13.06544
4.00007 7.03449 13.15326
4.00006 7.03440 13.24109
4.00005 7.03432 13.32894
4.00005 7.03424 13.41682
4.00005 7.03417 13.50471
4.00004 7.03411 13.59263
4.00004 7.03406 13.68057
4.00003 7.03400 13.76854
4.00003 7.03396 13.85652
4.00003 7.03391 13.94453
4.00002 7.03387 14.03256
4.00002 7.03385 14.12060
4.00002 7.03381 14.20867
4.00002 7.03378 14.29677
4.00002 7.03375 14.38488
4.00002 7.03373 14.47302
4.00001 7.03371 14.56117
4.00001 7.03369 14.64935
4.00001 7.03367 14.73755
4.00001 7.03365 14.82577
4.00001 7.03363 14.91401
4.00001 7.03362 15.00228
4.00001 7.03361 15.09056
4.00001 7.03360 15.17886
4.00001 7.03359 15.26718
4.00001 7.03358 15.35552
4.00001 7.03357 15.44388
4.00001 7.03356 15.53226
4.00000 7.03355 15.62066
4.00000 7.03355 15.70908
4.00000 7.03354 15.79752
4.00000 7.03353 15.88597
4.00000 7.03353 15.97445
4.00000 7.03353 16.06294
4.00000 7.03352 16.15146
4.00000 7.03352 16.23999
4.00000 7.03351 16.32854
4.00000 7.03351 16.41711
4.00000 7.03351 16.50569
4.00000 7.03351 16.59430
4.00000 7.03350 16.68292
4.00000 7.03350 16.77155
4.00000 7.03350 16.86020
4.00000 7.03350 16.94887
4.00000 7.03350 17.03756
4.00000 7.03349 17.12626
4.00000 7.03349 17.21497
4.00000 7.03349 17.30371
4.00000 7.03349 17.39245
4.00000 7.03349 17.48121
4.00000 7.03348 17.56998
4.00000 7.03349 17.65877
4.00000 7.03348 17.74757
4.00000 7.03348 17.83638
4.00000 7.03348 17.92521
4.00000 7.03348 18.01405
4.00000 7.03348 18.10290
4.00000 7.03348 18.19177
4.00000 7.03348 18.28065
4.00000 7.03348 18.36954
4.00000 7.03348 18.45845
4.00000 7.03348 18.54737
4.00000 7.03348 18.63630
4.00000 7.03348 18.72524
4.00000 7.03348 18.81419
4.00000 7.03347 18.90316
4.00000 7.03347 18.99214
4.00000 7.03348 19.08112
4.00000 7.03348 19.17012
4.00000 7.03348 19.25914
4.00000 7.03348 19.34816
4.00000 7.03348 19.43720
4.00000 7.03348 19.52625
4.00000 7.03348 19.61531
4.00000 7.03348 19.70437
4.00000 7.03348 19.79345
4.00000 7.03348 19.88254
4.00000 7.03348 19.97164
4.00000 7.03348 20.06076
4.00000 7.03348 20.14988
4.00000 7.03348 20.23902
4.00000 7.03348 20.32817
4.00000 7.03348 20.41733
4.00000 7.03348 20.50650
4.00000 7.03348 20.59568
4.00000 7.03348 20.68486
4.00000 7.03348 20.77406
4.00000 7.03348 20.86326
4.00000 7.03348 20.95247
4.00000 7.03348 21.04169
4.00000 7.03348 21.13092
4.00000 7.03348 21.22016
4.00000 7.03348 21.30941
4.00000 7.03348 21.39866
4.00000 7.03348 21.48793
4.00000 7.03348 21.57721
4.00000 7.03348 21.66649
4.00000 7.03348 21.75578
4.00000 7.03348 21.84508
4.00000 7.03348 21.93439
4.00000 7.03348 22.02371
4.00000 7.03348 22.11304
4.00000 7.03348 22.20238
4.00000 7.03348 22.29172
4.00000 7.03348 22.38107
4.00000 7.03348 22.47044
4.00000 7.03347 22.55981
4.00000 7.03348 22.64918
4.00000 7.03348 22.73856
4.00000 7.03348 22.82795
4.00000 7.03347 22.91736
4.00000 7.03348 23.00676
4.00000 7.03348 23.09617
4.00000 7.03348 23.18560
4.00000 7.03348 23.27502
4.00000 7.03348 23.36446
4.00000 7.03348 23.45390
4.00000 7.03347 23.54336
4.00000 7.03348 23.63281
4.00000 7.03348 23.72227
4.00000 7.03348 23.81175
4.00000 7.03348 23.90122
4.00000 7.03348 23.99071
4.00000 7.03348 24.08020
4.00000 7.03348 24.16970
4.00000 7.03348 24.25920
4.00000 7.03348 24.34871
4.00000 7.03348 24.43823
4.00000 7.03348 24.52776
4.00000 7.03348 24.61729
4.00000 7.03348 24.70682
4.00000 7.03348 24.79637
4.00000 7.03348 24.88592
4.00000 7.03348 24.97548
4.00000 7.03348 25.06503
4.00000 7.03348 25.15461
4.00000 7.03348 25.24417
4.00000 7.03348 25.33376
4.00000 7.03348 25.42334
4.00000 7.03348 25.51293
4.00000 7.03347 25.60253
4.00000 7.03348 25.69212
4.00000 7.03348 25.78173
4.00000 7.03347 25.87135
4.00000 7.03347 25.96097
4.00000 7.03348 26.05058
4.00000 7.03348 26.14021
4.00000 7.03348 26.22984
4.00000 7.03348 26.31947
4.00000 7.03348 26.40912
4.00000 7.03348 26.49876
4.00000 7.03348 26.58841
4.00000 7.03348 26.67807
4.00000 7.03348 26.76773
4.00000 7.03348 26.85740
4.00000 7.03348 26.94707
4.00000 7.03348 27.03675
4.00000 7.03348 27.12643
4.00000 7.03348 27.21611
4.00000 7.03348 27.30580
4.00000 7.03348 27.39550
4.00000 7.03348 27.48520
4.00000 7.03348 27.57490
4.00000 7.03348 27.66461
4.00000 7.03348 27.75432
4.00000 7.03348 27.84404
4.00000 7.03348 27.93376
4.00000 7.03348 28.02349
4.00000 7.03348 28.11322
4.00000 7.03348 28.20296
4.00000 7.03348 28.29270
4.00000 7.03348 28.38244
4.00000 7.03348 28.47219

Angle 0.732546 5.504767

4.00000 7.03348 4.00000
4.00000 7.03347 4.00000
4.00000 7.03347 4.00000
4.00000 7.03348 4.00000
4.00000 7.03348 4.00000
4.00000 7.03348 4.00000
4.00000 7.03348 4.00000
4.00000 7.03348 4.00000
4.00000 7.03349 4.00000
4.00000 7.03348 4.00000
4.00000 7.03349 4.00000
4.00000 7.03349 4.00000
4.00000 7.03348 4.00000
4.00000 7.03348 4.00000
4.00000 7.03349 4.00000
4.00000 7.03348 4.00000
4.00000 7.03348 4.00000
4.00000 7.03348 4.00000
4.00000 7.03348 4.00000
4.00000 7.03348 4.00000
4.00000 7.03348 4.00000
4.00000 7.03348 4.00000
4.00000 7.03348 4.00000
4.00000 7.03348 4.00000
4.00000 7.03348 4.00000
4.00000 7.03348 4.00000
4.00000 7.03348 4.00000
4.00000 7.03348 4.00000
4.00000 7.03348 4.00000
4.00000 7.03348 4.00000
4.00000 7.03348 4.00000
4.00000 7.03348 4.00000
4.00000 7.03348 4.00000
4.00000 7.03348 4.00000
4.00000 7.03348 4.00000
4.00000 7.03348 4.00000
4.00000 7.03348 4.00000
4.00000 7.03348 4.00000
4.00000 7.03348 4.00000
4.00000 7.03347 4.00000
4.00000 7.03348 4.00000
4.00000 7.03348 4.00000
4.00000 7.03348 4.00000
4.00000 7.03348 4.00000
4.00000 7.03348 4.00000
4.00000 7.03348 4.00000
4.00000 7.03347 4.00000
4.00000 7.03347 4.00000
4.00000 7.03348 4.00000
4.00000 7.03349 4.00000
4.00000 7.03348 4.00000
4.00000 7.03348 4.00000
4.00000 7.03349 4.00000
4.00000 7.03348 4.00000
4.00000 7.03349 4.00000
4.00108 7.05711 4.00117
4.00295 7.09805 4.00319
4.00490 7.14039 4.00527
4.00692 7.18404 4.00741
4.00900 7.22889 4.00962
4.01113 7.27488 4.01187
4.01333 7.32193 4.01418
4.01559 7.36996 4.01654
4.01791 7.41891 4.01896
4.02029 7.46871 4.02143
4.02273 7.51931 4.02396
4.02524 7.57064 4.02655
4.02781 7.62264 4.02920
4.03045 7.67527 4.03192
4.03316 7.72847 4.03470
4.03596 7.78219 4.03756
4.03884 7.83638 4.04051
4.04181 7.89098 4.04354
4.04488 7.94594 4.04667
4.04806 8.00121 4.04990
4.05136 8.05673 4.05325
4.05479 8.11244 4.05674
4.05838 8.16828 4.06037
4.06213 8.22418 4.06416
4.06607 8.28007 4.06813
4.07021 8.33588 4.07231
4.07460 8.39150 4.07672
4.07925 8.44685 4.08140
4.08421 8.50183 4.08638
4.08951 8.55630 4.09170
4.09522 8.61014 4.09741
4.10139 8.66318 4.10358
4.10804 8.71543 4.11021
4.11515 8.76700 4.11729
4.12274 8.81785 4.12485
4.13084 8.86793 4.13290
4.13949 8.91719 4.14149
4.14870 8.96559 4.15062
4.15852 9.01308 4.16034
4.16896 9.05964 4.17067
4.18006 9.10522 4.18162
4.19182 9.14981 4.19323
4.20428 9.19337 4.20549
4.21744 9.23590 4.21845
4.23133 9.27739 4.23209
4.24595 9.31783 4.24643
4.26130 9.35723 4.26148
4.27741 9.39559 4.27723
4.29425 9.43291 4.29368
4.31184 9.46923 4.31083
4.33018 9.50454 4.32867
4.34926 9.53886 4.34720
4.36909 9.57220 4.36640
4.38967 9.60455 4.38626
4.41102 9.63591 4.40679
4.43317 9.66624 4.42797
4.45615 9.69550 4.44981
4.48003 9.72357 4.47233
4.50500 9.75033 4.49551
4.53120 9.77550 4.51940
4.55905 9.79872 4.54398
4.58929 9.81936 4.56911
4.62373 9.83633 4.59403
4.66979 9.84703 4.61384
8.94005 7.15963 4.00622
9.05162 7.14559 4.00553
9.15995 7.13347 4.00493
9.26564 7.12289 4.00441
9.36908 7.11363 4.00396
9.47060 7.10546 4.00355
9.57048 7.09824 4.00320
9.66894 7.09183 4.00288
9.76616 7.08612 4.00260
9.86231 7.08103 4.00235
9.95752 7.07646 4.00213
10.05190 7.07237 4.00192
10.14553 7.06869 4.00174
10.23852 7.06538 4.00158
10.33093 7.06240 4.00143
10.42281 7.05972 4.00130
10.51425 7.05729 4.00118
10.60528 7.05510 4.00107
10.69595 7.05312 4.00097
10.78631 7.05132 4.00088
10.87638 7.04969 4.00080
10.96617 7.04822 4.00073
11.05575 7.04689 4.00066
11.14515 7.04567 4.00060
11.23436 7.04457 4.00055
11.32341 7.04356 4.00050
11.41230 7.04266 4.00045
11.50108 7.04183 4.00041
11.58973 7.04109 4.00038
11.67831 7.04041 4.00034
11.76680 7.03978 4.00031
11.85521 7.03922 4.00028
11.94357 7.03870 4.00026
12.03186 7.03824 4.00024
12.12010 7.03781 4.00021
12.20832 7.03742 4.00020
12.29648 7.03707 4.00018
12.38466 7.03675 4.00016
12.47275 7.03645 4.00015
12.56084 7.03619 4.00013
12.64893 7.03595 4.00012
12.73699 7.03572 4.00011
12.82507 7.03553 4.00010
12.91314 7.03534 4.00010
13.00119 7.03517 4.00008
13.08945 7.03503 4.00008
13.17735 7.03488 4.00007
13.26549 7.03476 4.00006
13.35345 7.03465 4.00006
13.44157 7.03454 4.00005
13.52976 7.03445 4.00005
13.61799 7.03438 4.00005
13.70656 7.03430 4.00004
13.79397 7.03421 4.00004
13.88229 7.03416 4.00003
13.97102 7.03410 4.00003
14.05873 7.03403 4.00003
14.14734 7.03400 4.00003
14.23484 7.03393 4.00002
14.32324 7.03391 4.00002
14.41209 7.03388 4.00002
14.50132 7.03385 4.00002
14.58842 7.03379 4.00002
14.67725 7.03379 4.00001
14.76656 7.03376 4.00001
14.85276 7.03371 4.00001
14.94132 7.03371 4.00001
15.03034 7.03369 4.00001
15.11977 7.03368 4.00001
15.20963 7.03366 4.00001
15.29989 7.03365 4.00001
15.39058 7.03363 4.00001
15.48170 7.03362 4.00001
15.57328 7.03361 4.00001
15.66535 7.03360 4.00001
15.74097 7.03357 4.00001
15.83073 7.03358 4.00000
15.92120 7.03357 4.00000
16.01245 7.03357 4.00000
16.10459 7.03356 4.00000
16.18714 7.03355 4.00000
16.27712 7.03355 4.00000
16.36809 7.03354 4.00000
16.46023 7.03354 4.00000
16.55384 7.03353 4.00000
16.64882 7.03353 4.00000
16.74476 7.03352 4.00000
16.83956 7.03351 4.00000
16.89645 7.03355 4.00001
16.98840 7.03352 4.00000
17.08129 7.03352 4.00000
17.17528 7.03351 4.00000
17.27054 7.03351 4.00000
17.36676 7.03351 4.00000
17.46251 7.03350 4.00000
17.55564 7.03349 4.00000
17.61345 7.03350 4.00000
17.70717 7.03350 4.00000
17.80207 7.03350 4.00000
17.89804 7.03350 4.00000
17.99424 7.03349 4.00000
18.08890 7.03349 4.00000
18.18090 7.03348 4.00000
18.24213 7.03351 4.00001
18.33736 7.03349 4.00000
18.43335 7.03349 4.00000
18.52923 7.03349 4.00000
18.62287 7.03348 4.00000
18.71451 7.03348 4.00000
18.80468 7.03348 4.00000
18.89408 7.03348 4.00000
18.98306 7.03348 4.00000
19.07179 7.03348 4.00000
19.16044 7.03348 4.00000
19.24905 7.03348 4.00000
19.33759 7.03348 4.00000
19.42613 7.03348 4.00000
19.51464 7.03348 4.00000
19.60312 7.03348 4.00000
19.68821 7.03348 4.00000
19.77391 7.03348 4.00000
19.86012 7.03348 4.00000
19.94674 7.03348 4.00000
20.03369 7.03348 4.00000
20.12092 7.03348 4.00000
20.20839 7.03348 4.00000
20.29606 7.03348 4.00000
20.38391 7.03348 4.00000
20.47193 7.03348 4.00000
20.56008 7.03348 4.00000
20.64837 7.03348 4.00000
20.73678 7.03348 4.00000
20.82531 7.03348 4.00000
20.91393 7.03348 4.00000
21.00265 7.03348 4.00000
21.09147 7.03348 4.00000
21.18037 7.03348 4.00000
21.26934 7.03348 4.00000
21.35840 7.03348 4.00000
21.44752 7.03348 4.00000
21.53671 7.03348 4.00000
21.62597 7.03348 4.00000
21.71528 7.03348 4.00000
21.80466 7.03348 4.00000
21.89408 7.03348 4.00000
21.98356 7.03348 4.00000
22.07309 7.03348 4.00000
22.16267 7.03348 4.00000
22.25164 7.03348 4.00000
22.34069 7.03348 4.00000
22.42982 7.03348 4.00000
22.51901 7.03348 4.00000
22.60827 7.03348 4.00000
22.69758 7.03348 4.00000
22.78695 7.03348 4.00000
22.87635 7.03348 4.00000
22.96579 7.03348 4.00000
23.05527 7.03348 4.00000
23.14478 7.03348 4.00000
23.23431 7.03348 4.00000
23.32387 7.03348 4.00000
23.41345 7.03348 4.00000
23.50302 7.03349 4.00000
23.59263 7.03349 4.00000
23.68225 7.03349 4.00000
23.77188 7.03349 4.00000
23.86153 7.03349 4.00000
23.95119 7.03349 4.00000
24.04084 7.03349 4.00000
24.13051 7.03349 4.00000
24.22019 7.03349 4.00000
24.30987 7.03349 4.00000
24.39956 7.03348 4.00000
24.48923 7.03348 4.00000
24.57891 7.03348 4.00000
24.66860 7.03348 4.00000
24.75828 7.03348 4.00000
24.84798 7.03348 4.00000
24.93767 7.03348 4.00000
25.02736 7.03348 4.00000
25.11706 7.03348 4.00000
25.20676 7.03348 4.00000
25.29646 7.03348 4.00000
25.38617 7.03348 4.00000
25.47588 7.03348 4.00000
25.56559 7.03348 4.00000
25.65530 7.03348 4.00000
25.74502 7.03348 4.00000
25.83474 7.03348 4.00000
25.92447 7.03348 4.00000
26.01420 7.03348 4.00000
26.10393 7.03348 4.00000
26.19367 7.03348 4.00000
26.28341 7.03348 4.00000
26.37316 7.03348 4.00000
26.46291 7.03348 4.00000
26.55266 7.03348 4.00000
26.64243 7.03348 4.00000
26.73219 7.03348 4.00000
26.82196 7.03348 4.00000
26.91174 7.03348 4.00000
27.00152 7.03348 4.00000
27.09130 7.03348 4.00000
27.18109 7.03348 4.00000
27.27088 7.03348 4.00000
27.36068 7.03348 4.00000
27.45048 7.03348 4.00000
27.54029 7.03348 4.00000
27.63010 7.03348 4.00000
27.71992 7.03348 4.00000
27.80973 7.03348 4.00000
27.89956 7.03348 4.00000
27.98938 7.03348 4.00000
28.07921 7.03348 4.00000
28.16905 7.03348 4.00000
28.25889 7.03348 4.00000
28.34873 7.03348 4.00000
28.43858 7.03348 4.00000
28.52843 7.03348 4.00000
28.61828 7.03348 4.00000
28.70814 7.03348 4.00000
28.79800 7.03348 4.00000
28.88787 7.03348 4.00000
28.97774 7.03348 4.00000
29.06760 7.03348 4.00000
29.15748 7.03348 4.00000
29.24737 7.03348 4.00000
29.33725 7.03348 4.00000
29.42713 7.03348 4.00000
29.51703 7.03348 4.00000
29.60692 7.03348 4.00000
29.69681 7.03348 4.00000
29.78672 7.03348 4.00000
29.87662 7.03348 4.00000
29.96653 7.03348 4.00000
30.05644 7.03348 4.00000
30.14635 7.03348 4.00000
30.23627 7.03348 4.00000
30.32620 7.03348 4.00000
30.41612 7.03348 4.00000
30.50605 7.03348 4.00000
30.59598 7.03348 4.00000
30.68593 7.03348 4.00000
30.77586 7.03348 4.00000
30.86581 7.03348 4.00000
30.95576 7.03348 4.00000
31.04571 7.03348 4.00000
31.13566 7.03348 4.00000
31.22562 7.03348 4.00000
31.31558 7.03348 4.00000
31.40554 7.03348 4.00000
31.49551 7.03348 4.00000
31.58548 7.03348 4.00000
31.67546 7.03348 4.00000
31.76543 7.03348 4.00000
31.85542 7.03348 4.00000
31.94540 7.03348 4.00000
32.03539 7.03348 4.00000
32.12538 7.03348 4.00000
32.21538 7.03348 4.00000
32.30538 7.03348 4.00000
32.39538 7.03348 4.00000
32.48539 7.03348 4.00000
32.57539 7.03348 4.00000
32.66541 7.03348 4.00000
32.75542 7.03348 4.00000
32.84544 7.03348 4.00000
32.93546 7.03348 4.00000
33.02549 7.03348 4.00000
33.11551 7.03348 4.00000
33.20542 7.03348 4.00000
33.29535 7.03348 4.00000
33.38529 7.03348 4.00000
33.47524 7.03348 4.00000
33.56521 7.03348 4.00000
33.65519 7.03348 4.00000
33.74516 7.03348 4.00000
33.83538 7.03348 4.00000
33.92554 7.03348 4.00000
34.01599 7.03348 4.00000
34.10609 7.03348 4.00000

Angle 0.387010 2.791133

4.00000 7.03348 4.00000
4.00000 7.03348 4.00000
4.00000 7.03348 4.00000
4.00000 7.03348 4.00000
4.00000 7.03348 4.00000
4.00000 7.03348 4.00000
4.00000 7.03348 4.00000
4.00000 7.03348 4.00000
4.00000 7.03348 4.00000
4.00000 7.03348 4.00000
4.00000 7.03348 4.00000
4.00000 7.03348 4.00000
4.00000 7.03349 4.00000
4.00000 7.03348 4.00000
4.00000 7.03348 4.00000
4.00000 7.03349 4.00000
4.00000 7.03348 4.00000
4.00000 7.03348 4.00000
4.00000 7.03348 4.00000
4.00000 7.03348 4.00000
4.00000 7.03349 4.00000
4.00000 7.03348 4.00000
4.00000 7.03348 4.00000
4.00000 7.03348 4.00000
4.00000 7.03348 4.00000
4.00000 7.03348 4.00000
4.00000 7.03348 4.00000
4.00000 7.03348 4.00000
4.00000 7.03348 4.00000
4.00000 7.03348 4.00000
4.00000 7.03348 4.00000
4.00000 7.03348 4.00000
4.00000 7.03348 4.00000
4.00000 7.03348 4.00000
4.00000 7.03348 4.00000
4.00000 7.03348 4.00000
4.00000 7.03348 4.00000
4.00000 7.03348 4.00000
4.00000 7.03348 4.00000
4.00000 7.03348 4.00000
4.00000 7.03348 4.00000
4.00000 7.03348 4.00000
4.00000 7.03348 4.00000
4.00000 7.03348 4.00000
4.00000 7.03348 4.00000
4.00000 7.03348 4.00000
4.00000 7.03348 4.00000
4.00000 7.03348 4.00000
4.00000 7.03348 4.00000
4.00000 7.03348 4.00000
4.00000 7.03348 4.00000
4.00000 7.03348 4.00000
4.00000 7.03348 4.00000
4.00000 7.03347 4.00000
4.00000 7.03348 4.00000
4.00000 7.03348 4.00000
4.00000 7.03348 4.00000
4.00000 7.03348 4.00000
4.00000 7.03348 4.00000
4.00000 7.03347 4.00000
4.00000 7.03347 4.00000
4.00000 7.03348 4.00000
4.00000 7.03348 4.00000
4.00000 7.03348 4.00000
4.00000 7.03348 4.00000
4.00000 7.03348 4.00000
4.00000 7.03348 4.00000
4.00000 7.03348 4.00000
4.00000 7.03348 4.00000
4.00000 7.03348 4.00000
4.00000 7.03348 4.00000
4.00000 7.03348 4.00000
4.00000 7.03348 4.00000
4.00000 7.03348 4.00000
4.00000 7.03348 4.00000
4.00000 7.03348 4.00000
4.00000 7.03348 4.00000
4.00000 7.03349 4.00000
4.00000 7.03348 4.00000
4.00000 7.03348 4.00000
4.00000 7.03348 4.00000
4.00000 7.03348 4.00000
4.00000 7.03348 4.00000
4.00000 7.03348 4.00000
4.00000 7.03348 4.00000
4.00000 7.03348 4.00000
4.00000 7.03348 4.00000
4.00000 7.03348 4.00000
4.00000 7.03348 4.00000
4.00000 7.03346 4.00000
4.00000 7.03348 4.00000
4.00000 7.03348 4.00000
4.00000 7.03348 4.00000
4.00000 7.03348 4.00000
4.00000 7.03348 4.00000
4.00000 7.03348 4.00000
4.00000 7.03348 4.00000
4.00000 7.03348 4.00000
4.00000 7.03348 4.00000
4.00000 7.03348 4.00000
4.00000 7.03348 4.00000
4.00000 7.03348 4.00000
4.00000 7.03348 4.00000
4.00000 7.03348 4.00000
4.00000 7.03348 4.00000
4.00000 7.03348 4.00000
4.00000 7.03348 4.00000
4.00000 7.03348 4.00000
4.00000 7.03348 4.00000
4.00000 7.03348 4.00000
4.00000 7.03348 4.00000
4.00000 7.03347 4.00000
4.00000 7.03348 4.00000
4.00000 7.03348 4.00000
4.00000 7.03348 4.00000
4.00000 7.03348 4.00000
4.00000 7.03347 4.00000
4.00000 7.03348 4.00000
4.00000 7.03348 4.00000
4.00000 7.03348 4.00000
4.00000 7.03348 4.00000
4.00000 7.03348 4.00000
4.00000 7.03348 4.00000
4.00000 7.03348 4.00000
4.00000 7.03348 4.00000
4.00000 7.03348 4.00000
4.00000 7.03348 4.00000
4.00000 7.03348 4.00000
4.00000 7.03348 4.00000
4.00000 7.03348 4.00000
4.00000 7.03348 4.00000
4.00000 7.03348 4.00000
4.00000 7.03347 4.00000
4.00000 7.03348 4.00000
4.00000 7.03348 4.00000
4.00000 7.03348 4.00000
4.00000 7.03348 4.00000
4.00000 7.03348 4.00000
4.00000 7.03348 4.00000
4.00000 7.03348 4.00000
4.00000 7.03348 4.00000
4.00000 7.03348 4.00000
4.00000 7.03348 4.00000
4.00000 7.03348 4.00000
4.00000 7.03348 4.00000
4.00000 7.03348 4.00000
4.00000 7.03348 4.00000
4.00000 7.03348 4.00000
4.00000 7.03348 4.00000
4.00000 7.03348 4.00000
4.00000 7.03348 4.00000
4.00000 7.03348 4.00000
4.00000 7.03348 4.00000
4.00000 7.03349 4.00000
4.00000 7.03348 4.00000
4.00000 7.03348 4.00000
4.00000 7.03348 4.00000
4.00000 7.03348 4.00000
4.00000 7.03348 4.00000
4.00000 7.03347 4.00000
4.00000 7.03348 4.00000
4.00000 7.03348 4.00000
4.00000 7.03346 4.00000
4.00000 7.03348 4.00000
4.00000 7.03348 4.00000
4.00000 7.03348 4.00000
4.00000 7.03348 4.00000
4.00000 7.03348 4.00000
4.00000 7.03348 4.00000
4.00000 7.03348 4.00000
4.00000 7.03348 4.00000
4.00000 7.03348 4.00000
4.00000 7.03348 4.00000
4.00000 7.03348 4.00000
4.00000 7.03348 4.00000
4.00000 7.03348 4.00000
4.00000 7.03347 4.00000
4.00000 7.03348 4.00000
4.00000 7.03348 4.00000
4.00000 7.03348 4.00000
4.00000 7.03348 4.00000
4.00000 7.03348 4.00000
4.00000 7.03348 4.00000
4.00000 7.03348 4.00000
4.00000 7.03348 4.00000
4.00000 7.03348 4.00000
4.00000 7.03348 4.00000
4.00000 7.03348 4.00000
4.00000 7.03347 4.00000
4.00000 7.03348 4.00000
4.00000 7.03348 4.00000
4.00000 7.03348 4.00000
4.00000 7.03348 4.00000
4.00000 7.03348 4.00000
4.00000 7.03348 4.00000
4.00000 7.03348 4.00000
4.00000 7.03348 4.00000
4.00000 7.03348 4.00000
4.00000 7.03348 4.00000
4.00000 7.03348 4.00000
4.00000 7.03348 4.00000
4.00000 7.03348 4.00000
4.00000 7.03348 4.00000
4.00000 7.03348 4.00000
4.00000 7.03348 4.00000
4.00000 7.03348 4.00000
4.00000 7.03348 4.00000
4.00000 7.03349 4.00000
4.00000 7.03348 4.00000
4.00000 7.03348 4.00000
4.00000 7.03348 4.00000
4.00000 7.03348 4.00000
4.00000 7.03348 4.00000
4.00000 7.03348 4.00000
4.00000 7.03348 4.00000
4.00000 7.03348 4.00000
4.00000 7.03348 4.00000
4.00000 7.03348 4.00000
4.00000 7.03348 4.00000
4.00000 7.03348 4.00000
4.00000 7.03348 4.00000
4.00000 7.03348 4.00000
4.00000 7.03348 4.00000
4.00000 7.03348 4.00000
4.00000 7.03348 4.00000
4.00000 7.03348 4.00000
4.00000 7.03348 4.00000
4.00000 7.03348 4.00000
4.00000 7.03348 4.00000
4.00000 7.03347 4.00000
4.00000 7.03348 4.00000
4.00000 7.03348 4.00000
4.00000 7.03348 4.00000
4.00000 7.03348 4.00000
4.00000 7.03348 4.00000
4.00000 7.03348 4.00000
4.00000 7.03349 4.00000
4.00000 7.03347 4.00000
4.00000 7.03350 4.00000
4.00000 7.03346 4.00000
4.00000 7.03348 4.00000
4.00000 7.03348 4.00000
4.00000 7.03348 4.00000
4.00065 7.04349 4.00065
4.00548 7.11843 4.00548
4.01023 7.19363 4.01023
4.01494 7.26905 4.01494
4.01961 7.34464 4.01961
4.02426 7.42035 4.02426
4.02892 7.49612 4.02892
4.03359 7.57192 4.03359
4.03829 7.64768 4.03829
4.04305 7.72335 4.04305
4.04789 7.79887 4.04789
4.05283 7.87417 4.05283
4.05790 7.94920 4.05790
4.06313 8.02386 4.06313
4.06854 8.09807 4.06854
4.07419 8.17172 4.07419
4.08011 8.24471 4.08011
4.08635 8.31691 4.08636
4.09299 8.38815 4.09299
4.10007 8.45827 4.10007
4.10770 8.52704 4.10770
4.11597 8.59424 4.11597
4.12499 8.65956 4.12499
4.13480 8.72294 4.13480
4.14535 8.78455 4.14535
4.15667 8.84430 4.15668
4.16881 8.90215 4.16881
4.18179 8.95802 4.18179
4.19565 9.01187 4.19564
4.21040 9.06365 4.21040
4.22609 9.11334 4.22609
4.24272 9.16093 4.24271
4.26030 9.20639 4.26030
4.27885 9.24973 4.27886
4.29840 9.29095 4.29840
4.31894 9.33003 4.31894
4.34049 9.36697 4.34049
4.36306 9.40175 4.36307
4.38670 9.43431 4.38670
4.41142 9.46461 4.41142
4.43728 9.49253 4.43728
4.46435 9.51796 4.46435
4.49270 9.54071 4.49270
4.52244 9.56056 4.52244
4.55370 9.57723 4.55370
4.58663 9.59039 4.58663
4.62140 9.59966 4.62140
4.65818 9.60468 4.65819
4.69715 9.60509 4.69717
4.02551 7.44069 7.54396
4.02180 7.38020 7.69167
4.01890 7.33306 7.82583
4.01655 7.29496 7.95086
4.01459 7.26338 8.06929
4.01293 7.23673 8.18276
4.01151 7.21399 8.29230
4.01028 7.19437 8.39873
4.00921 7.17729 8.50262
4.00827 7.16236 8.60437
4.00743 7.14919 8.70438
4.00669 7.13755 8.80289
4.00604 7.12722 8.90012
4.00545 7.11804 8.99622
4.00493 7.10983 9.09138
4.00446 7.10249 9.18571
4.00404 7.09591 9.27932
4.00366 7.09000 9.37228
4.00332 7.08469 9.46469
4.00301 7.07990 9.55662
4.00273 7.07558 9.64811
4.00248 7.07168 9.73922
4.00225 7.06815 9.83000
4.00204 7.06496 9.92047
4.00186 7.06207 10.01068
4.00169 7.05946 10.10065
4.00154 7.05709 10.19042
4.00140 7.05494 10.28001
4.00127 7.05299 10.36943
4.00115 7.05122 10.45871
4.00105 7.04962 10.54787
4.00096 7.04816 10.63691
4.00087 7.04683 10.72586
4.00079 7.04563 10.81472
4.00072 7.04453 10.90352
4.00066 7.04354 10.99224
4.00060 7.04263 11.08091
4.00054 7.04181 11.16953
4.00049 7.04106 11.25812
4.00045 7.04038 11.34666
4.00041 7.03976 11.43518
4.00037 7.03919 11.52369
4.00034 7.03868 11.61216
4.00031 7.03822 11.70062
4.00028 7.03779 11.78908
4.00026 7.03741 11.87752
4.00023 7.03705 11.96597
4.00021 7.03673 12.05440
4.00019 7.03643 12.14285
4.00018 7.03617 12.23129
4.00016 7.03593 12.31974
4.00015 7.03571 12.40819
4.00013 7.03551 12.49665
4.00012 7.03533 12.58513
4.00011 7.03516 12.67361
4.00010 7.03501 12.76210
4.00009 7.03487 12.85061
4.00008 7.03475 12.93913
4.00008 7.03463 13.02766
4.00007 7.03453 13.11621
4.00006 7.03443 13.20477
4.00006 7.03435 13.29335
4.00005 7.03427 13.38194
4.00005 7.03420 13.47055
4.00005 7.03414 13.55918
4.00004 7.03408 13.64782
4.00004 7.03402 13.73648
4.00003 7.03397 13.82516
4.00003 7.03393 13.91386
4.00003 7.03389 14.00256
4.00003 7.03385 14.09129
4.00002 7.03382 14.18003
4.00002 7.03379 14.26880
4.00002 7.03376 14.35758
4.00002 7.03373 14.44636
4.00002 7.03371 14.53517
4.00001 7.03369 14.62400
4.00001 7.03367 14.71285
4.00001 7.03365 14.80172
4.00001 7.03364 14.89060
4.00001 7.03362 14.97951
4.00001 7.03361 15.06842
4.00001 7.03360 15.15736
4.00001 7.03359 15.24630
4.00001 7.03358 15.33526
4.00001 7.03357 15.42423
4.00001 7.03356 15.51323
4.00000 7.03356 15.60223
4.00000 7.03355 15.69126
4.00000 7.03354 15.78030
4.00001 7.03354 15.86935
4.00000 7.03353 15.95842
4.00000 7.03353 16.04751
4.00000 7.03352 16.13661
4.00000 7.03352 16.22572
4.00000 7.03351 16.31485
4.00000 7.03351 16.40399
4.00000 7.03351 16.49314
4.00000 7.03351 16.58231
4.00000 7.03350 16.67149
4.00000 7.03350 16.76070
4.00000 7.03350 16.84993
4.00000 7.03350 16.93917
4.00000 7.03350 17.02843
4.00000 7.03349 17.11770
4.00000 7.03349 17.20698
4.00000 7.03349 17.29627
4.00000 7.03349 17.38558

Angle 0.724191 4.789269

4.00000 7.03348 4.00000
4.00000 7.03348 4.00000
4.00000 7.03348 4.00000
4.00000 7.03348 4.00000
4.00000 7.03348 4.00000
4.00000 7.03348 4.00000
4.00000 7.03348 4.00000
4.00000 7.03348 4.00000
4.00000 7.03348 4.00000
4.00000 7.03348 4.00000
4.00000 7.03348 4.00000
4.00000 7.03349 4.00000
4.00000 7.03348 4.00000
4.00000 7.03348 4.00000
4.00000 7.03348 4.00000
4.00000 7.03348 4.00000
4.00000 7.03348 4.00000
4.00000 7.03348 4.00000
4.00000 7.03348 4.00000
4.00000 7.03348 4.00000
4.00000 7.03348 4.00000
4.00000 7.03348 4.00000
4.00000 7.03348 4.00000
4.00000 7.03348 4.00000
4.00000 7.03348 4.00000
4.00000 7.03349 4.00000
4.00000 7.03348 4.00000
4.00000 7.03348 4.00000
4.00000 7.03349 4.00000
4.00000 7.03348 4.00000
4.00000 7.03348 4.00000
4.00000 7.03348 4.00000
4.00000 7.03348 4.00000
4.00000 7.03348 4.00000
4.00000 7.03348 4.00000
4.00000 7.03348 4.00000
4.00000 7.03348 4.00000
4.00000 7.03348 4.00000
4.00000 7.03349 4.00000
4.00000 7.03349 4.00000
4.00000 7.03348 4.00000
4.00000 7.03348 4.00000
4.00000 7.03348 4.00000
4.00000 7.03350 4.00000
4.00000 7.03348 4.00000
4.00000 7.03348 4.00000
4.00000 7.03348 4.00000
4.00000 7.03348 4.00000
4.00000 7.03348 4.00000
4.00000 7.03348 4.00000
4.00000 7.03348 4.00000
4.00000 7.03348 4.00000
4.00000 7.03343 4.00000
4.00000 7.03344 4.00000
4.00000 7.03344 4.00000
4.00000 7.03344 4.00000
4.00000 7.03345 4.00000
4.00000 7.03346 4.00000
4.00000 7.03348 4.00000
4.00000 7.03348 4.00000
4.00000 7.03348 4.00000
4.00000 7.03348 4.00000
4.00000 7.03348 4.00000
4.00000 7.03348 4.00000
4.00000 7.03348 4.00000
4.00000 7.03348 4.00000
4.00000 7.03348 4.00000
4.00000 7.03348 4.00000
4.00000 7.03348 4.00000
4.00000 7.03348 4.00000
4.00000 7.03348 4.00000
4.00000 7.03348 4.00000
4.00000 7.03348 4.00000
4.00000 7.03348 4.00000
4.00000 7.03348 4.00000
4.00000 7.03348 4.00000
4.00000 7.03348 4.00000
4.00000 7.03348 4.00000
4.00000 7.03348 4.00000
4.00000 7.03348 4.00000
4.00000 7.03348 4.00000
4.00000 7.03348 4.00000
4.00000 7.03348 4.00000
4.00000 7.03348 4.00000
4.00000 7.03347 4.00000
4.00000 7.03348 4.00000
4.00000 7.03348 4.00000
4.00000 7.03348 4.00000
4.00000 7.03348 4.00000
4.00000 7.03348 4.00000
4.00000 7.03348 4.00000
4.00000 7.03348 4.00000
4.00000 7.03348 4.00000
4.00000 7.03348 4.00000
4.00000 7.03348 4.00000
4.00000 7.03348 4.00000
4.00000 7.03347 4.00000
4.00000 7.03348 4.00000
4.00000 7.03348 4.00000
4.00000 7.03348 4.00000
4.00000 7.03348 4.00000
4.00000 7.03349 4.00000
4.00000 7.03348 4.00000
4.00000 7.03348 4.00000
4.00000 7.03348 4.00000
4.00000 7.03348 4.00000
4.00000 7.03348 4.00000
4.00000 7.03348 4.00000
4.00000 7.03348 4.00000
4.00000 7.03348 4.00000
4.00000 7.03347 4.00000
4.00000 7.03352 4.00000
4.00273 7.07551 4.00273
4.00756 7.15122 4.00756
4.01233 7.22718 4.01233
4.01706 7.30332 4.01706
4.02176 7.37960 4.02176
4.02645 7.45597 4.02645
4.03115 7.53238 4.03115
4.03587 7.60878 4.03587
4.04064 7.68510 4.04064
4.04547 7.76130 4.04547
4.05040 7.83730 4.05040
4.05544 7.91305 4.05544
4.06062 7.98845 4.06062
4.06598 8.06344 4.06599
4.07156 8.13791 4.07156
4.07739 8.21175 4.07739
4.08353 8.28484 4.08353
4.09003 8.35704 4.09003
4.09695 8.42816 4.09695
4.10439 8.49802 4.10439
4.11243 8.56637 4.11243
4.12118 8.63295 4.12118
4.13074 8.69752 4.13074
4.14106 8.76025 4.14106
4.15215 8.82115 4.15215
4.16404 8.88012 4.16404
4.17677 8.93711 4.17677
4.19038 8.99207 4.19038
4.20490 9.04494 4.20490
4.22033 9.09570 4.22033
4.23672 9.14433 4.23672
4.25407 9.19082 4.25407
4.27240 9.23516 4.27240
4.29172 9.27734 4.29173
4.31205 9.31736 4.31205
4.33339 9.35523 4.33338
4.35576 9.39090 4.35576
4.37918 9.42435 4.37918
4.40370 9.45553 4.40370
4.42935 9.48435 4.42935
4.45619 9.51069 4.45619
4.48430 9.53437 4.48431
4.51378 9.55520 4.51379
4.54476 9.57289 4.54477
4.57738 9.58713 4.57738
4.61181 9.59756 4.61181
4.64822 9.60379 4.64822
7.32334 7.55083 4.03228
7.50320 7.45915 4.02665
7.65624 7.39384 4.02264
7.79390 7.34366 4.01955
7.92147 7.30345 4.01707
8.04188 7.27032 4.01502
8.15693 7.24252 4.01329
8.26781 7.21884 4.01181
8.37539 7.19848 4.01054
8.48027 7.18080 4.00943
8.58294 7.16535 4.00845
8.68374 7.15178 4.00760
8.78297 7.13980 4.00684
8.88087 7.12918 4.00616
8.97760 7.11974 4.00556
9.07335 7.11133 4.00502
9.16823 7.10380 4.00454
9.26236 7.09706 4.00411
9.35583 7.09101 4.00372
9.44872 7.08557 4.00337
9.54111 7.08068 4.00306
9.63304 7.07626 4.00277
9.72458 7.07228 4.00252
9.81577 7.06868 4.00229
9.90665 7.06543 4.00207
9.99725 7.06249 4.00189
10.08762 7.05983 4.00171
10.17776 7.05741 4.00156
10.26772 7.05523 4.00141
10.35751 7.05324 4.00129
10.44714 7.05144 4.00117
10.53665 7.04981 4.00106
10.62604 7.04833 4.00097
10.71533 7.04698 4.00088
10.80452 7.04576 4.00080
10.89364 7.04465 4.00073
10.98269 7.04364 4.00066
11.07168 7.04272 4.00060
11.16062 7.04189 4.00055
11.24952 7.04113 4.00050
11.33838 7.04044 4.00045
11.42721 7.03981 4.00041
11.51601 7.03924 4.00038
11.60478 7.03872 4.00034
11.69355 7.03825 4.00031
11.78229 7.03782 4.00028
11.87103 7.03742 4.00026
11.95976 7.03707 4.00024
12.04849 7.03675 4.00021
12.13721 7.03645 4.00020
12.22594 7.03618 4.00018
12.31466 7.03594 4.00016
12.40340 7.03572 4.00015
12.49213 7.03552 4.00014
12.58087 7.03533 4.00012
12.66963 7.03517 4.00011
12.75839 7.03502 4.00010
12.84717 7.03487 4.00009
12.93594 7.03475 4.00008
13.02474 7.03464 4.00008
13.11354 7.03453 4.00007
13.20236 7.03444 4.00006
13.29120 7.03435 4.00006
13.38004 7.03427 4.00005
13.46890 7.03420 4.00005
13.55778 7.03414 4.00004
13.64667 7.03408 4.00004
13.73557 7.03402 4.00004
13.82449 7.03397 4.00003
13.91343 7.03393 4.00003
14.00238 7.03389 4.00003
14.09134 7.03385 4.00002
14.18032 7.03382 4.00002
14.26932 7.03379 4.00002
14.35833 7.03376 4.00002
14.44735 7.03373 4.00002
14.53639 7.03371 4.00001
14.62545 7.03369 4.00001
14.71452 7.03367 4.00001
14.80361 7.03365 4.00001
14.89271 7.03364 4.00001
14.98182 7.03362 4.00001
15.07095 7.03361 4.00001
15.16010 7.03360 4.00001
15.24925 7.03359 4.00001
15.33842 7.03358 4.00001
15.42761 7.03357 4.00001
15.51681 7.03356 4.00001
15.60602 7.03355 4.00000
15.69524 7.03355 4.00000
15.78448 7.03354 4.00000
15.87373 7.03354 4.00000
15.96300 7.03353 4.00000
16.05228 7.03353 4.00000
16.14157 7.03352 4.00000
16.23087 7.03352 4.00000
16.32019 7.03351 4.00000
16.40952 7.03351 4.00000
16.49886 7.03351 4.00000
16.58821 7.03351 4.00000
16.67757 7.03350 4.00000
16.76694 7.03350 4.00000
16.85633 7.03350 4.00000
16.94573 7.03350 4.00000
17.03514 7.03349 4.00000
17.12456 7.03349 4.00000
17.21398 7.03349 4.00000
17.30343 7.03349 4.00000
17.39288 7.03349 4.00000
17.48234 7.03349 4.00000
17.57181 7.03348 4.00000
17.66129 7.03349 4.00000
17.75078 7.03349 4.00000
17.84029 7.03348 4.00000
17.92979 7.03349 4.00000
18.01931 7.03349 4.00000
18.10884 7.03348 4.00000
18.19838 7.03348 4.00000
18.28793 7.03348 4.00000
18.37748 7.03348 4.00000
18.46705 7.03348 4.00000
18.55660 7.03350 4.00000
18.64620 7.03348 4.00000
18.73579 7.03348 4.00000
18.82539 7.03348 4.00000
18.91500 7.03348 4.00000
19.00462 7.03348 4.00000
19.09425 7.03348 4.00000
19.18388 7.03348 4.00000
19.27353 7.03348 4.00000
19.36317 7.03348 4.00000
19.45283 7.03348 4.00000
19.54249 7.03348 4.00000
19.63217 7.03348 4.00000
19.72185 7.03348 4.00000
19.81154 7.03348 4.00000
19.90123 7.03348 4.00000
19.99092 7.03348 4.00000
20.08063 7.03348 4.00000
20.17035 7.03348 4.00000
20.26007 7.03348 4.00000
20.34980 7.03348 4.00000
20.43952 7.03348 4.00000
20.52926 7.03348 4.00000
20.61901 7.03348 4.00000
20.70876 7.03348 4.00000
20.79851 7.03348 4.00000
20.88828 7.03348 4.00000
20.97805 7.03348 4.00000
21.06782 7.03348 4.00000
21.15760 7.03348 4.00000
21.24739 7.03348 4.00000
21.33719 7.03348 4.00000
21.42699 7.03348 4.00000
21.51679 7.03348 4.00000
21.60660 7.03348 4.00000
21.69642 7.03348 4.00000
21.78624 7.03348 4.00000
21.87607 7.03348 4.00000
21.96591 7.03348 4.00000
22.05575 7.03348 4.00000
22.14559 7.03348 4.00000
22.23544 7.03348 4.00000
22.32530 7.03348 4.00000
22.41516 7.03348 4.00000
22.50502 7.03348 4.00000
22.59489 7.03348 4.00000
22.68477 7.03348 4.00000
22.77465 7.03348 4.00000
22.86454 7.03348 4.00000
22.95443 7.03348 4.00000
23.04433 7.03348 4.00000
23.13423 7.03348 4.00000
23.22413 7.03348 4.00000
23.31404 7.03348 4.00000
23.40396 7.03348 4.00000
23.49388 7.03348 4.00000
23.58380 7.03348 4.00000
23.67373 7.03348 4.00000
23.76366 7.03348 4.00000
23.85360 7.03348 4.00000
23.94354 7.03348 4.00000
24.03349 7.03348 4.00000
24.12344 7.03348 4.00000
24.21339 7.03348 4.00000
24.30335 7.03348 4.00000
24.39331 7.03348 4.00000
24.48328 7.03348 4.00000
24.57325 7.03348 4.00000
24.66323 7.03348 4.00000
24.75321 7.03348 4.00000
24.84319 7.03348 4.00000
24.93318 7.03348 4.00000
25.02317 7.03348 4.00000
25.11315 7.03349 4.00000
25.20315 7.03349 4.00000
25.29316 7.03348 4.00000
25.38316 7.03348 4.00000
25.47316 7.03349 4.00000
25.56318 7.03348 4.00000
25.65320 7.03348 4.00000
25.74321 7.03348 4.00000
25.83324 7.03348 4.00000
25.92326 7.03348 4.00000
26.01329 7.03348 4.00000
26.10333 7.03348 4.00000
26.19336 7.03348 4.00000
26.28340 7.03348 4.00000
26.37345 7.03348 4.00000
26.46349 7.03348 4.00000
26.55354 7.03348 4.00000
26.64359 7.03348 4.00000
26.73365 7.03348 4.00000
26.82370 7.03348 4.00000
26.91377 7.03348 4.00000
27.00384 7.03348 4.00000
27.09391 7.03348 4.00000
27.18399 7.03348 4.00000
27.27406 7.03348 4.00000
27.36415 7.03348 4.00000
27.45423 7.03348 4.00000
27.54432 7.03348 4.00000
27.63441 7.03348 4.00000
27.72450 7.03348 4.00000
27.81460 7.03348 4.00000
27.90470 7.03348 4.00000
27.99480 7.03348 4.00000
28.08491 7.03348 4.00000
28.17502 7.03348 4.00000
28.26513 7.03348 4.00000
28.35525 7.03348 4.00000
28.44537 7.03348 4.00000
28.53549 7.03348 4.00000
28.62562 7.03348 4.00000
28.71575 7.03348 4.00000
28.80589 7.03348 4.00000
28.89603 7.03348 4.00000
28.98617 7.03348 4.00000
29.07632 7.03348 4.00000
29.16646 7.03348 4.00000
29.25661 7.03348 4.00000

Angle 0.379028 1.000252

4.00000 7.03348 4.00000
4.00000 7.03348 4.00000
4.00000 7.03348 4.00000
4.00000 7.03348 4.00000
4.00000 7.03348 4.00000
4.00000 7.03348 4.00000
4.00000 7.03348 4.00000
4.00000 7.03348 4.00000
4.00000 7.03348 4.00000
4.00000 7.03347 4.00000
4.00000 7.03348 4.00000
4.00000 7.03348 4.00000
4.00000 7.03348 4.00000
4.00000 7.03348 4.00000
4.00000 7.03348 4.00000
4.00000 7.03348 4.00000
4.00000 7.03348 4.00000
4.00000 7.03348 4.00000
4.00000 7.03348 4.00000
4.00000 7.03348 4.00000
4.00000 7.03348 4.00000
4.00000 7.03348 4.00000
4.00000 7.03348 4.00000
4.00000 7.03348 4.00000
4.00000 7.03348 4.00000
4.00000 7.03348 4.00000
4.00000 7.03348 4.00000
4.00000 7.03347 4.00000
4.00000 7.03348 4.00000
4.00000 7.03348 4.00000
4.00000 7.03347 4.00000
4.00000 7.03348 4.00000
4.00000 7.03348 4.00000
4.00000 7.03348 4.00000
4.00000 7.03348 4.00000
4.00000 7.03348 4.00000
4.00000 7.03348 4.00000
4.00000 7.03348 4.00000
4.00000 7.03348 4.00000
4.00000 7.03348 4.00000
4.00000 7.03348 4.00000
4.00000 7.03348 4.00000
4.00000 7.03348 4.00000
4.00000 7.03348 4.00000
4.00000 7.03348 4.00000
4.00000 7.03348 4.00000
4.00000 7.03348 4.00000
4.00000 7.03348 4.00000
4.00000 7.03348 4.00000
4.00000 7.03348 4.00000
4.00000 7.03348 4.00000
4.00000 7.03348 4.00000
4.00000 7.03347 4.00000
4.00000 7.03348 4.00000
4.00000 7.03348 4.00000
4.00000 7.03348 4.00000
4.00000 7.03348 4.00000
4.00000 7.03350 4.00000
4.00000 7.03348 4.00000
4.00000 7.03348 4.00000
4.00000 7.03348 4.00000
4.00000 7.03348 4.00000
4.00000 7.03348 4.00000
4.00000 7.03348 4.00000
4.00000 7.03348 4.00000
4.00000 7.03348 4.00000
4.00000 7.03348 4.00000
4.00000 7.03348 4.00000
4.00000 7.03348 4.00000
4.00000 7.03348 4.00000
4.00000 7.03349 4.00000
4.00000 7.03347 4.00000
4.00000 7.03348 4.00000
4.00000 7.03348 4.00000
4.00000 7.03349 4.00000
4.00000 7.03348 4.00000
4.00000 7.03346 4.00000
4.00000 7.03348 4.00000
4.00000 7.03348 4.00000
4.00000 7.03348 4.00000
4.00000 7.03348 4.00000
4.00000 7.03348 4.00000
4.00000 7.03348 4.00000
4.00000 7.03348 4.00000
4.00000 7.03348 4.00000
4.00000 7.03348 4.00000
4.00000 7.03348 4.00000
4.00000 7.03348 4.00000
4.00000 7.03348 4.00000
4.00000 7.03348 4.00000
4.00000 7.03348 4.00000
4.00000 7.03348 4.00000
4.00000 7.03348 4.00000
4.00000 7.03348 4.00000
4.00000 7.03348 4.00000
4.00000 7.03348 4.00000
4.00000 7.03349 4.00000
4.00000 7.03348 4.00000
4.00000 7.03347 4.00000
4.00000 7.03348 4.00000
4.00000 7.03348 4.00000
4.00000 7.03348 4.00000
4.00000 7.03348 4.00000
4.00000 7.03348 4.00000
4.00000 7.03347 4.00000
4.00000 7.03348 4.00000
4.00000 7.03348 4.00000
4.00000 7.03348 4.00000
4.00000 7.03348 4.00000
4.00000 7.03348 4.00000
4.00000 7.03348 4.00000
4.00000 7.03348 4.00000
4.00000 7.03348 4.00000
4.00000 7.03348 4.00000
4.00000 7.03348 4.00000
4.00000 7.03348 4.00000
4.00000 7.03347 4.00000
4.00000 7.03348 4.00000
4.00000 7.03348 4.00000
4.00000 7.03348 4.00000
4.00000 7.03348 4.00000
4.00000 7.03348 4.00000
4.00000 7.03348 4.00000
4.00000 7.03348 4.00000
4.00000 7.03348 4.00000
4.00000 7.03348 4.00000
4.00000 7.03348 4.00000
4.00000 7.03348 4.00000
4.00000 7.03348 4.00000
4.00000 7.03348 4.00000
4.00000 7.03348 4.00000
4.00000 7.03348 4.00000
4.00000 7.03348 4.00000
4.00000 7.03348 4.00000
4.00000 7.03348 4.00000
4.00000 7.03348 4.00000
4.00000 7.03348 4.00000
4.00000 7.03348 4.00000
4.00000 7.03348 4.00000
4.00000 7.03348 4.00000
4.00000 7.03348 4.00000
4.00000 7.03348 4.00000
4.00000 7.03348 4.00000
4.00000 7.03347 4.00000
4.00000 7.03348 4.00000
4.00000 7.03348 4.00000
4.00000 7.03348 4.00000
4.00000 7.03348 4.00000
4.00347 7.08702 4.00347
4.00833 7.16333 4.00833
4.01313 7.23988 4.01313
4.01788 7.31659 4.01788
4.02261 7.39344 4.02261
4.02733 7.47036 4.02733
4.03207 7.54730 4.03207
4.03683 7.62421 4.03683
4.04164 7.70103 4.04164
4.04652 7.77770 4.04652
4.05151 7.85415 4.05151
4.05661 7.93032 4.05661
4.06187 8.00612 4.06187
4.06731 8.08147 4.06731
4.07298 8.15626 4.07298
4.07892 8.23038 4.07892
4.08518 8.30370 4.08518
4.09183 8.37606 4.09182
4.09892 8.44729 4.09892
4.10656 8.51717 4.10656
4.11483 8.58545 4.11483
4.12386 8.65185 4.12386
4.13371 8.71622 4.13371
4.14431 8.77876 4.14431
4.15570 8.83941 4.15570
4.16792 8.89810 4.16792
4.18099 8.95476 4.18099
4.19496 9.00935 4.19496
4.20985 9.06182 4.20985
4.22569 9.11214 4.22569
4.24248 9.16030 4.24248
4.26025 9.20629 4.26026
4.27902 9.25010 4.27902
4.29879 9.29173 4.29879
4.31957 9.33118 4.31958
4.34139 9.36844 4.34139
4.36425 9.40347 4.36426
4.38820 9.43625 4.38820
4.41325 9.46670 4.41325
4.43947 9.49472 4.43947
4.46692 9.52018 4.46691
4.49568 9.54288 4.49568
4.52587 9.56260 4.52587
4.55763 9.57903 4.55762
4.59110 9.59184 4.59110
4.62647 9.60064 4.62647
4.66392 9.60504 4.66392
4.70360 9.60470 4.70362
7.57023 7.42922 4.02481
7.71646 7.37096 4.02123
7.84989 7.32532 4.01842
7.97460 7.28829 4.01613
8.09297 7.25754 4.01423
8.20652 7.23157 4.01261
8.31628 7.20937 4.01122
8.42301 7.19020 4.01002
8.52724 7.17352 4.00897
8.62942 7.15890 4.00805
8.72985 7.14605 4.00723
8.82881 7.13469 4.00651
8.92651 7.12461 4.00587
9.02312 7.11563 4.00530
9.11880 7.10762 4.00479
9.21366 7.10046 4.00433
9.30780 7.09404 4.00392
9.40132 7.08827 4.00355
9.49428 7.08310 4.00321
9.58676 7.07843 4.00291
9.67881 7.07422 4.00264
9.77049 7.07043 4.00240
9.86183 7.06700 4.00218
9.95288 7.06389 4.00198
10.04366 7.06109 4.00180
10.13421 7.05855 4.00163
10.22455 7.05625 4.00148
10.31471 7.05417 4.00135
10.40471 7.05228 4.00122
10.49457 7.05056 4.00111
10.58430 7.04901 4.00101
10.67392 7.04759 4.00092
10.76344 7.04631 4.00083
10.85287 7.04515 4.00076
10.94222 7.04409 4.00069
11.03151 7.04313 4.00063
11.12075 7.04225 4.00057
11.20993 7.04146 4.00052
11.29907 7.04074 4.00047
11.38817 7.04008 4.00043
11.47725 7.03948 4.00039
11.56630 7.03894 4.00036
11.65532 7.03845 4.00032
11.74432 7.03800 4.00029
11.83332 7.03759 4.00027
11.92230 7.03723 4.00024
12.01128 7.03688 4.00022
12.10025 7.03657 4.00020
12.18922 7.03630 4.00018
12.27819 7.03604 4.00017
12.36716 7.03581 4.00015
12.45612 7.03560 4.00014
12.54511 7.03541 4.00013
12.63409 7.03523 4.00011
12.72308 7.03507 4.00010
12.81208 7.03493 4.00009
12.90109 7.03480 4.00009
12.99010 7.03468 4.00008
13.07912 7.03458 4.00007
13.16817 7.03447 4.00007
13.25722 7.03438 4.00006
13.34628 7.03430 4.00005
13.43535 7.03423 4.00005
13.52444 7.03416 4.00004
13.61354 7.03410 4.00004
13.70265 7.03404 4.00004
13.79178 7.03399 4.00003
13.88091 7.03395 4.00003
13.97007 7.03390 4.00003
14.05924 7.03386 4.00003
14.14842 7.03383 4.00002
14.23761 7.03380 4.00002
14.32682 7.03377 4.00002
14.41605 7.03374 4.00002
14.50528 7.03372 4.00002
14.59453 7.03370 4.00001
14.68380 7.03368 4.00001
14.77307 7.03366 4.00001
14.86236 7.03364 4.00001
14.95166 7.03363 4.00001
15.04098 7.03362 4.00001
15.13031 7.03360 4.00001
15.21965 7.03359 4.00001
15.30901 7.03358 4.00001
15.39838 7.03357 4.00001
15.48776 7.03356 4.00001
15.57716 7.03356 4.00001
15.66657 7.03355 4.00001
15.75599 7.03354 4.00000
15.84542 7.03354 4.00000
15.93486 7.03353 4.00000
16.02432 7.03353 4.00000
16.11379 7.03352 4.00000
16.20326 7.03352 4.00000
16.29275 7.03352 4.00000
16.38225 7.03351 4.00000
16.47177 7.03351 4.00000
16.56129 7.03351 4.00000
16.65082 7.03350 4.00000
16.74036 7.03350 4.00000
16.82992 7.03350 4.00000
16.91948 7.03350 4.00000
17.00905 7.03350 4.00000
17.09864 7.03349 4.00000
17.18823 7.03349 4.00000
17.27783 7.03349 4.00000
17.36744 7.03349 4.00000
17.45706 7.03349 4.00000
17.54669 7.03349 4.00000
17.63633 7.03349 4.00000
17.72598 7.03349 4.00000
17.81564 7.03349 4.00000
17.90530 7.03349 4.00000
17.99497 7.03349 4.00000
18.08465 7.03348 4.00000
18.17434 7.03348 4.00000
18.26404 7.03348 4.00000
18.35375 7.03348 4.00000
18.44346 7.03348 4.00000
18.53318 7.03348 4.00000
18.62291 7.03348 4.00000
18.71265 7.03348 4.00000
18.80239 7.03348 4.00000
18.89215 7.03348 4.00000
18.98190 7.03348 4.00000
19.07167 7.03348 4.00000
19.16144 7.03348 4.00000
19.25122 7.03348 4.00000
19.34102 7.03348 4.00000
19.43082 7.03348 4.00000
19.52062 7.03348 4.00000
19.61044 7.03348 4.00000
19.70026 7.03348 4.00000
19.79008 7.03348 4.00000
19.87992 7.03348 4.00000
19.96975 7.03348 4.00000
20.05960 7.03348 4.00000
20.14945 7.03348 4.00000
20.23931 7.03348 4.00000
20.32917 7.03348 4.00000
20.41904 7.03348 4.00000
20.50892 7.03348 4.00000
20.59880 7.03348 4.00000
20.68868 7.03348 4.00000
20.77858 7.03348 4.00000
20.86847 7.03348 4.00000
20.95838 7.03348 4.00000
21.04828 7.03348 4.00000
21.13820 7.03348 4.00000
21.22812 7.03348 4.00000
21.31804 7.03348 4.00000
21.40797 7.03347 4.00000
21.49789 7.03348 4.00000
21.58783 7.03347 4.00000
21.67776 7.03348 4.00000
21.76771 7.03347 4.00000
21.85765 7.03347 4.00000
21.94760 7.03347 4.00000
22.03755 7.03347 4.00000
22.12751 7.03347 4.00000
22.21747 7.03347 4.00000
22.30743 7.03347 4.00000
22.39740 7.03347 4.00000
22.48737 7.03347 4.00000
22.57735 7.03347 4.00000
22.66733 7.03347 4.00000
22.75732 7.03347 4.00000
22.84730 7.03347 4.00000
22.93729 7.03347 4.00000
23.02729 7.03347 4.00000
23.11728 7.03348 4.00000
23.20729 7.03348 4.00000
23.29729 7.03349 4.00000
23.38730 7.03348 4.00000
23.47732 7.03348 4.00000
23.56733 7.03348 4.00000
23.65736 7.03348 4.00000
23.74737 7.03348 4.00000
23.83741 7.03348 4.00000
23.92745 7.03348 4.00000
24.01750 7.03348 4.00000
24.10756 7.03348 4.00000
24.19762 7.03348 4.00000
24.28768 7.03348 4.00000
24.37775 7.03348 4.00000
24.46782 7.03348 4.00000
24.55789 7.03348 4.00000
24.64797 7.03348 4.00000
24.73805 7.03348 4.00000
24.82813 7.03347 4.00000
24.91820 7.03348 4.00000
25.00827 7.03348 4.00000
25.09835 7.03348 4.00000
25.18844 7.03348 4.00000
25.27853 7.03348 4.00000
25.36863 7.03348 4.00000
25.45872 7.03348 4.00000
25.54883 7.03348 4.00000
25.63893 7.03348 4.00000
25.72904 7.03348 4.00000
25.81915 7.03348 4.00000
25.90927 7.03348 4.00000
25.99939 7.03348 4.00000
26.08951 7.03348 4.00000

Angle 0.559478 5.689221

4.00000 7.03348 4.00000
4.00000 7.03347 4.00000
4.00000 7.03348 4.00000
4.00000 7.03347 4.00000
4.00000 7.03346 4.00000
4.00000 7.03346 4.00000
4.00000 7.03346 4.00000
4.00000 7.03347 4.00000
4.00000 7.03347 4.00000
4.00000 7.03347 4.00000
4.00000 7.03347 4.00000
4.00000 7.03348 4.00000
4.00000 7.03348 4.00000
4.00000 7.03348 4.00000
4.00000 7.03348 4.00000
4.00000 7.03348 4.00000
4.00000 7.03348 4.00000
4.00000 7.03348 4.00000
4.00000 7.03348 4.00000
4.00000 7.03348 4.00000
4.00000 7.03348 4.00000
4.00000 7.03348 4.00000
4.00000 7.03348 4.00000
4.00000 7.03348 4.00000
4.00000 7.03348 4.00000
4.00000 7.03348 4.00000
4.00000 7.03348 4.00000
4.00000 7.03349 4.00000
4.00000 7.03348 4.00000
4.00000 7.03348 4.00000
4.00000 7.03348 4.00000
4.00000 7.03348 4.00000
4.00000 7.03348 4.00000
4.00000 7.03348 4.00000
4.00000 7.03348 4.00000
4.00000 7.03348 4.00000
4.00000 7.03348 4.00000
4.00000 7.03348 4.00000
4.00000 7.03348 4.00000
4.00000 7.03348 4.00000
4.00000 7.03348 4.00000
4.00000 7.03346 4.00000
4.00000 7.03348 4.00000
4.00124 7.05258 4.00124
4.00613 7.12868 4.00613
4.01095 7.20503 4.01095
4.01572 7.28158 4.01572
4.02045 7.35829 4.02045
4.02517 7.43509 4.02517
4.02989 7.51194 4.02989
4.03463 7.58878 4.03463
4.03941 7.66556 4.03941
4.04425 7.74222 4.04425
4.04918 7.81870 4.04918
4.05422 7.89492 4.05422
4.05939 7.97083 4.05939
4.06474 8.04632 4.06474
4.07029 8.12130 4.07029
4.07609 8.19568 4.07609
4.08219 8.26932 4.08219
4.08864 8.34208 4.08864
4.09551 8.41379 4.09551
4.10287 8.48427 4.10287
4.11082 8.55327 4.11082
4.11947 8.62054 4.11947
4.12893 8.68578 4.12893
4.13916 8.74914 4.13916
4.15015 8.81065 4.15015
4.16196 8.87023 4.16196
4.17461 8.92782 4.17461
4.18813 8.98336 4.18813
4.20256 9.03680 4.20256
4.21792 9.08812 4.21793
4.23424 9.13728 4.23424
4.25152 9.18428 4.25152
4.26979 9.22911 4.26979
4.28906 9.27177 4.28906
4.30933 9.31225 4.30933
4.33062 9.35054 4.33062
4.35295 9.38664 4.35295
4.37635 9.42050 4.37634
4.40083 9.45207 4.40083
4.42645 9.48128 4.42645
4.45326 9.50799 4.45326
4.48134 9.53206 4.48134
4.51079 9.55326 4.51079
4.54173 9.57134 4.54174
4.57431 9.58598 4.57431
4.60870 9.59681 4.60869
4.64507 9.60343 4.64507
7.30685 7.56014 4.03286
7.49048 7.46508 4.02701
7.64556 7.39806 4.02290
7.78460 7.34682 4.01975
7.91320 7.30589 4.01722
8.03442 7.27225 4.01514
8.15015 7.24406 4.01339
8.26162 7.22010 4.01189
8.36972 7.19950 4.01060
8.47508 7.18164 4.00948
8.57818 7.16603 4.00850
8.67939 7.15234 4.00763
8.77900 7.14026 4.00687
8.87725 7.12956 4.00619
8.97433 7.12005 4.00558
9.07041 7.11157 4.00504
9.16560 7.10400 4.00456
9.26003 7.09723 4.00412
9.35381 7.09113 4.00373
9.44698 7.08567 4.00338
9.53965 7.08075 4.00306
9.63186 7.07632 4.00278
9.72368 7.07232 4.00252
9.81513 7.06871 4.00229
9.90627 7.06545 4.00207
9.99713 7.06250 4.00189
10.08775 7.05982 4.00171
10.17815 7.05740 4.00156
10.26835 7.05521 4.00141
10.35838 7.05323 4.00128
10.44826 7.05142 4.00117
10.53800 7.04979 4.00106
10.62763 7.04830 4.00096
10.71715 7.04696 4.00088
10.80658 7.04574 4.00080
10.89593 7.04462 4.00073
10.98520 7.04361 4.00066
11.07442 7.04270 4.00060
11.16358 7.04186 4.00055
11.25269 7.04111 4.00050
11.34178 7.04041 4.00045
11.43082 7.03979 4.00041
11.51984 7.03921 4.00037
11.60883 7.03870 4.00034
11.69780 7.03823 4.00031
11.78676 7.03780 4.00028
11.87570 7.03741 4.00026
11.96464 7.03705 4.00023
12.05357 7.03673 4.00021
12.14250 7.03644 4.00019
12.23143 7.03617 4.00018
12.32036 7.03593 4.00016
12.40929 7.03571 4.00015
12.49822 7.03551 4.00013
12.58716 7.03532 4.00012
12.67611 7.03516 4.00011
12.76506 7.03501 4.00010
12.85403 7.03487 4.00009
12.94301 7.03474 4.00008
13.03199 7.03463 4.00008
13.12098 7.03452 4.00007
13.21000 7.03443 4.00006
13.29901 7.03435 4.00006
13.38804 7.03427 4.00005
13.47709 7.03419 4.00005
13.56615 7.03412 4.00004
13.65522 7.03407 4.00004
13.74429 7.03402 4.00004
13.83339 7.03397 4.00003
13.92251 7.03392 4.00003
14.01163 7.03388 4.00003
14.10076 7.03385 4.00002
14.18992 7.03381 4.00002
14.27909 7.03378 4.00002
14.36826 7.03376 4.00002
14.45746 7.03373 4.00002
14.54667 7.03371 4.00002
14.63590 7.03368 4.00001
14.72512 7.03366 4.00002
14.81438 7.03365 4.00001
14.90364 7.03364 4.00001
14.99292 7.03362 4.00001
15.08221 7.03360 4.00001
15.17151 7.03359 4.00001
15.26083 7.03358 4.00001
15.35016 7.03357 4.00001
15.43950 7.03356 4.00001
15.52885 7.03355 4.00000
15.61822 7.03355 4.00000
15.70760 7.03354 4.00000
15.79699 7.03353 4.00000
15.88639 7.03353 4.00000
15.97581 7.03352 4.00000
16.06523 7.03352 4.00000
16.15467 7.03351 4.00000
16.24412 7.03351 4.00000
16.33358 7.03351 4.00000
16.42305 7.03350 4.00000
16.51253 7.03351 4.00000
16.60202 7.03351 4.00000
16.69152 7.03350 4.00000
16.78104 7.03350 4.00000
16.87057 7.03350 4.00000
16.96010 7.03350 4.00000
17.04965 7.03350 4.00000
17.13920 7.03349 4.00000
17.22877 7.03349 4.00000
17.31834 7.03349 4.00000
17.40793 7.03349 4.00000
17.49752 7.03349 4.00000
17.58712 7.03349 4.00000
17.67674 7.03349 4.00000
17.76636 7.03349 4.00000
17.85599 7.03349 4.00000
17.94563 7.03349 4.00000
18.03528 7.03348 4.00000
18.12494 7.03348 4.00000
18.21460 7.03348 4.00000
18.30427 7.03348 4.00000
18.39395 7.03348 4.00000
18.48364 7.03348 4.00000
18.57334 7.03348 4.00000
18.66304 7.03348 4.00000
18.75276 7.03348 4.00000
18.84248 7.03348 4.00000
18.93221 7.03348 4.00000
19.02194 7.03348 4.00000
19.11169 7.03348 4.00000
19.20144 7.03348 4.00000
19.29119 7.03348 4.00000
19.38096 7.03348 4.00000
19.47073 7.03348 4.00000
19.56051 7.03348 4.00000
19.65030 7.03348 4.00000
19.74009 7.03348 4.00000
19.82989 7.03348 4.00000
19.91970 7.03347 4.00000
20.00950 7.03348 4.00000
20.09931 7.03349 4.00000
20.18915 7.03348 4.00000
20.27898 7.03348 4.00000
20.36881 7.03348 4.00000
20.45867 7.03347 4.00000
20.54851 7.03348 4.00000
20.63836 7.03348 4.00000
20.72822 7.03348 4.00000
20.81809 7.03348 4.00000
20.90797 7.03347 4.00000
20.99784 7.03348 4.00000
21.08773 7.03348 4.00000
21.17761 7.03348 4.00000
21.26751 7.03348 4.00000
21.35741 7.03348 4.00000
21.44732 7.03348 4.00000
21.53723 7.03348 4.00000
21.62715 7.03348 4.00000
21.71707 7.03348 4.00000
21.80700 7.03348 4.00000
21.89693 7.03348 4.00000
21.98687 7.03348 4.00000
22.07680 7.03348 4.00000
22.16675 7.03348 4.00000
22.25670 7.03348 4.00000
22.34666 7.03348 4.00000
22.43662 7.03348 4.00000
22.52658 7.03348 4.00000
22.61655 7.03348 4.00000
22.70653 7.03348 4.00000
22.79650 7.03348 4.00000
22.88648 7.03348 4.00000
22.97647 7.03347 4.00000
23.06645 7.03348 4.00000
23.15645 7.03348 4.00000
23.24645 7.03348 4.00000
23.33645 7.03348 4.00000
23.42646 7.03348 4.00000
23.51646 7.03348 4.00000
23.60647 7.03348 4.00000
23.69649 7.03348 4.00000
23.78651 7.03348 4.00000
23.87653 7.03348 4.00000
23.96656 7.03348 4.00000
24.05659 7.03348 4.00000
24.14663 7.03348 4.00000
24.23667 7.03348 4.00000
24.32671 7.03348 4.00000
24.41676 7.03348 4.00000
24.50681 7.03348 4.00000
24.59686 7.03348 4.00000
24.68692 7.03348 4.00000
24.77698 7.03348 4.00000
24.86704 7.03348 4.00000
24.95711 7.03348 4.00000
25.04718 7.03348 4.00000
25.13726 7.03348 4.00000
25.22734 7.03348 4.00000
25.31742 7.03348 4.00000
25.40750 7.03348 4.00000
25.49759 7.03348 4.00000
25.58768 7.03348 4.00000
25.67778 7.03348 4.00000
25.76787 7.03348 4.00000
25.85797 7.03348 4.00000
25.94808 7.03348 4.00000
26.03819 7.03348 4.00000
26.12830 7.03348 4.00000
26.21841 7.03348 4.00000
26.30852 7.03348 4.00000
26.39864 7.03348 4.00000
26.48877 7.03348 4.00000
26.57889 7.03348 4.00000
26.66902 7.03348 4.00000
26.75915 7.03348 4.00000
26.84928 7.03348 4.00000
26.93942 7.03348 4.00000
27.02956 7.03348 4.00000
27.11970 7.03348 4.00000
27.20984 7.03348 4.00000
27.29999 7.03348 4.00000
27.39014 7.03348 4.00000
27.48030 7.03348 4.00000
27.57045 7.03348 4.00000
27.66061 7.03348 4.00000
27.75077 7.03348 4.00000
27.84093 7.03348 4.00000
27.93110 7.03348 4.00000
28.02126 7.03348 4.00000
28.11143 7.03348 4.00000
28.20160 7.03348 4.00000
28.29177 7.03348 4.00000
28.38195 7.03348 4.00000
28.47213 7.03348 4.00000
28.56230 7.03348 4.00000
28.65249 7.03348 4.00000
28.74267 7.03348 4.00000
28.83286 7.03348 4.00000
28.92305 7.03348 4.00000
29.01325 7.03348 4.00000
29.10344 7.03348 4.00000
29.19364 7.03348 4.00000
29.28384 7.03347 4.00000
29.37404 7.03348 4.00000
29.46424 7.03348 4.00000
29.55446 7.03347 4.00000
29.64466 7.03348 4.00000
29.73487 7.03348 4.00000
29.82509 7.03348 4.00000
29.91530 7.03348 4.00000
30.00552 7.03348 4.00000
30.09573 7.03348 4.00000
30.18596 7.03348 4.00000
30.27618 7.03348 4.00000
30.36641 7.03348 4.00000
30.45664 7.03348 4.00000
30.54685 7.03349 4.00000
30.63710 7.03348 4.00000
30.72732 7.03349 4.00000
30.81758 7.03348 4.00000
30.90781 7.03348 4.00000
30.99805 7.03348 4.00000
31.08829 7.03348 4.00000
31.17854 7.03348 4.00000
31.26879 7.03348 4.00000
31.35903 7.03348 4.00000
31.44928 7.03348 4.00000
31.53954 7.03348 4.00000
31.62979 7.03348 4.00000
31.72005 7.03348 4.00000
31.81031 7.03348 4.00000
31.90057 7.03348 4.00000
31.99083 7.03348 4.00000
32.08109 7.03348 4.00000
32.17137 7.03348 4.00000
32.26163 7.03348 4.00000
32.35191 7.03348 4.00000
32.44218 7.03348 4.00000
32.53246 7.03348 4.00000
32.62274 7.03348 4.00000
32.71302 7.03348 4.00000
32.80330 7.03348 4.00000
32.89358 7.03348 4.00000
32.98387 7.03348 4.00000
33.07416 7.03348 4.00000
33.16445 7.03348 4.00000
33.25474 7.03348 4.00000
33.34504 7.03348 4.00000
33.43533 7.03348 4.00000
33.52563 7.03348 4.00000
33.61593 7.03348 4.00000
33.70623 7.03348 4.00000
33.79653 7.03348 4.00000
33.88683 7.03348 4.00000
33.97714 7.03348 4.00000
34.06745 7.03348 4.00000
34.15775 7.03348 4.00000
34.24806 7.03348 4.00000
34.33837 7.03348 4.00000
34.42868 7.03348 4.00000
34.51900 7.03348 4.00000
34.60931 7.03348 4.00000
34.69961 7.03348 4.00000
34.78992 7.03348 4.00000
34.88022 7.03348 4.00000
34.97054 7.03348 4.00000
35.06084 7.03348 4.00000
35.15116 7.03348 4.00000
35.24148 7.03348 4.00000
35.33179 7.03348 4.00000
35.42211 7.03348 4.00000
35.51243 7.03348 4.00000

