Angle 0.448192 1.942253

4.00000 7.03348 4.00000
4.00000 7.03348 4.00000
4.00000 7.03348 4.00000
4.00000 7.03348 4.00000
4.00000 7.03348 4.00000
4.00000 7.03348 4.00000
4.00000 7.03348 4.00000
4.00000 7.03348 4.00000
4.00000 7.03348 4.00000
4.00000 7.03348 4.00000
4.00000 7.03348 4.00000
4.00000 7.03348 4.00000
4.00000 7.03348 4.00000
4.00000 7.03348 4.00000
4.00000 7.03348 4.00000
4.00000 7.03348 4.00000
4.00000 7.03348 4.00000
4.00000 7.03348 4.00000
4.00000 7.03348 4.00000
4.00000 7.03348 4.00000
4.00000 7.03348 4.00000
4.00000 7.03348 4.00000
4.00000 7.03348 4.00000
4.00000 7.03348 4.00000
4.00000 7.03348 4.00000
4.00000 7.03347 4.00000
4.00000 7.03348 4.00000
4.00000 7.03348 4.00000
4.00000 7.03348 4.00000
4.00000 7.03348 4.00000
4.00000 7.03348 4.00000
4.00000 7.03348 4.00000
4.00000 7.03348 4.00000
4.00000 7.03348 4.00000
4.00000 7.03348 4.00000
4.00000 7.03348 4.00000
4.00000 7.03348 4.00000
4.00000 7.03348 4.00000
4.00000 7.03348 4.00000
4.00000 7.03348 4.00000
4.00000 7.03348 4.00000
4.00000 7.03348 4.00000
4.00000 7.03348 4.00000
4.00000 7.03348 4.00000
4.00000 7.03348 4.00000
4.00000 7.03348 4.00000
4.00000 7.03348 4.00000
4.00000 7.03348 4.00000
4.00000 7.03348 4.00000
4.00000 7.03348 4.00000
4.00000 7.03348 4.00000
4.00000 7.03348 4.00000
4.00000 7.03348 4.00000
4.00000 7.03348 4.00000
4.00000 7.03348 4.00000
4.00000 7.03348 4.00000
4.00000 7.03348 4.00000
4.00000 7.03348 4.00000
4.00000 7.03348 4.00000
4.00000 7.03348 4.00000
4.00000 7.03348 4.00000
4.00000 7.03348 4.00000
4.00000 7.03348 4.00000
4.00000 7.03348 4.00000
4.00000 7.03348 4.00000
4.00000 7.03348 4.00000
4.00000 7.03348 4.00000
4.00000 7.03348 4.00000
4.00000 7.03348 4.00000
4.00000 7.03348 4.00000
4.00000 7.03348 4.00000
4.00000 7.03348 4.00000
4.00000 7.03348 4.00000
4.00000 7.03348 4.00000
4.00000 7.03348 4.00000
4.00000 7.03348 4.00000
4.00000 7.03348 4.00000
4.00000 7.03348 4.00000
4.00000 7.03348 4.00000
4.00000 7.03348 4.00000
4.00000 7.03348 4.00000
4.00000 7.03348 4.00000
4.00000 7.03348 4.00000
4.00000 7.03348 4.00000
4.00000 7.03348 4.00000
4.00000 7.03348 4.00000
4.00000 7.03348 4.00000
4.00000 7.03348 4.00000
4.00000 7.03348 4.00000
4.00000 7.03348 4.00000
4.00000 7.03348 4.00000
4.00000 7.03348 4.00000
4.00000 7.03348 4.00000
4.00000 7.03348 4.00000
4.00000 7.03348 4.00000
4.00000 7.03348 4.00000
4.00000 7.03348 4.00000
4.00000 7.03348 4.00000
4.00000 7.03348 4.00000
4.00000 7.03348 4.00000
4.00000 7.03348 4.00000
4.00000 7.03348 4.00000
4.00000 7.03348 4.00000
4.00000 7.03348 4.00000
4.00000 7.03348 4.00000
4.00000 7.03348 4.00000
4.00000 7.03348 4.00000
4.00000 7.03348 4.00000
4.00000 7.03348 4.00000
4.00000 7.03348 4.00000
4.00000 7.03348 4.00000
4.00000 7.03348 4.00000
4.00000 7.03348 4.00000
4.00000 7.03348 4.00000
4.00000 7.03349 4.00000
4.00000 7.03346 4.00000
4.00000 7.03348 4.00000
4.00000 7.03348 4.00000
4.00000 7.03348 4.00000
4.00000 7.03348 4.00000
4.00000 7.03348 4.00000
4.00000 7.03348 4.00000
4.00000 7.03348 4.00000
4.00000 7.03348 4.00000
4.00000 7.03348 4.00000
4.00000 7.03348 4.00000
4.00000 7.03348 4.00000
4.00000 7.03348 4.00000
4.00000 7.03348 4.00000
4.00000 7.03348 4.00000
4.00000 7.03348 4.00000
4.00000 7.03348 4.00000
4.00000 7.03348 4.00000
4.00000 7.03348 4.00000
4.00000 7.03352 4.00000
4.00000 7.03350 4.00000
4.00000 7.03348 4.00000
4.00000 7.03348 4.00000
4.00000 7.03348 4.00000
4.00000 7.03348 4.00000
4.00000 7.03346 4.00000
4.00000 7.03348 4.00000
4.00000 7.03348 4.00000
4.00000 7.03348 4.00000
4.00000 7.03348 4.00000
4.00000 7.03348 4.00000
4.00000 7.03348 4.00000
4.00000 7.03349 4.00000
4.00000 7.03348 4.00000
4.00000 7.03347 4.00000
4.00000 7.03347 4.00000
4.00000 7.03348 4.00000
4.00000 7.03349 4.00000
4.00000 7.03348 4.00000
4.00000 7.03348 4.00000
4.00000 7.03348 4.00000
4.00000 7.03348 4.00000
4.00001 7.03358 4.00001
4.00146 7.05598 4.00146
4.00586 7.12442 4.00586
4.01021 7.19318 4.01021
4.01452 7.26220 4.01451
4.01880 7.33144 4.01880
4.02307 7.40088 4.02307
4.02734 7.47046 4.02734
4.03163 7.54015 4.03163
4.03594 7.60991 4.03594
4.04030 7.67969 4.04030
4.04471 7.74945 4.04471
4.04921 7.81913 4.04921
4.05380 7.88868 4.05380
4.05851 7.95805 4.05851
4.06336 8.02717 4.06336
4.06839 8.09596 4.06839
4.07361 8.16434 4.07361
4.07907 8.23223 4.07907
4.08481 8.29951 4.08481
4.09087 8.36606 4.09087
4.09732 8.43174 4.09732
4.10421 8.49639 4.10421
4.11162 8.55981 4.11162
4.11964 8.62179 4.11964
4.12836 8.68210 4.12836
4.13776 8.74084 4.13776
4.14781 8.79807 4.14781
4.15856 8.85370 4.15856
4.17004 8.90769 4.17004
4.18227 8.95997 4.18226
4.19527 9.01051 4.19528
4.20909 9.05926 4.20909
4.22373 9.10620 4.22373
4.23922 9.15132 4.23922
4.25556 9.19458 4.25556
4.27277 9.23600 4.27277
4.29086 9.27555 4.29086
4.30985 9.31324 4.30985
4.32975 9.34905 4.32975
4.35056 9.38296 4.35056
4.37232 9.41494 4.37232
4.39504 9.44495 4.39504
4.41877 9.47292 4.41877
4.44355 9.49875 4.44355
4.46943 9.52232 4.46943
4.49650 9.54348 4.49650
4.52485 9.56200 4.52485
4.55459 9.57765 4.55460
4.58587 9.59013 4.58586
4.61881 9.59913 4.61881
4.65358 9.60431 4.65358
7.34091 7.54110 4.03168
7.50895 7.45650 4.02648
7.65369 7.39485 4.02270
7.78467 7.34680 4.01974
7.90641 7.30791 4.01735
8.02151 7.27562 4.01535
8.13162 7.24834 4.01365
8.23784 7.22496 4.01220
8.34094 7.20473 4.01093
8.44147 7.18711 4.00983
8.53991 7.17162 4.00885
8.63660 7.15795 4.00799
8.73178 7.14582 4.00722
8.82571 7.13503 4.00653
8.91852 7.12539 4.00592
9.01040 7.11676 4.00537
9.10145 7.10902 4.00488
9.19180 7.10205 4.00443
9.28152 7.09577 4.00403
9.37069 7.09010 4.00366
9.45939 7.08498 4.00334
9.54766 7.08034 4.00304
9.63557 7.07615 4.00277
9.72315 7.07234 4.00252
9.81044 7.06888 4.00230
9.89748 7.06574 4.00210
9.98431 7.06289 4.00191
10.07093 7.06030 4.00174
10.15739 7.05794 4.00159
10.24370 7.05579 4.00145
10.32989 7.05383 4.00132
10.41593 7.05208 4.00121
10.50194 7.05043 4.00110
10.58781 7.04897 4.00101
10.67366 7.04759 4.00092
10.75943 7.04636 4.00084
10.84515 7.04524 4.00077
10.93084 7.04421 4.00070
11.01648 7.04329 4.00064
11.10212 7.04242 4.00058
11.18772 7.04165 4.00053
11.27333 7.04093 4.00049
11.35892 7.04029 4.00044
11.44451 7.03970 4.00041
11.53011 7.03915 4.00037
11.61572 7.03866 4.00034
11.70133 7.03821 4.00031
11.78695 7.03780 4.00028
11.87260 7.03742 4.00026
11.95826 7.03708 4.00024
12.04395 7.03676 4.00021
12.12965 7.03648 4.00020
12.21539 7.03622 4.00018
12.30113 7.03598 4.00016
12.38692 7.03576 4.00015
12.47273 7.03556 4.00014
12.55857 7.03538 4.00012
12.64444 7.03522 4.00011
12.73035 7.03506 4.00010
12.81628 7.03493 4.00009
12.90224 7.03480 4.00009
12.98824 7.03468 4.00008
13.07428 7.03457 4.00007
13.16034 7.03447 4.00006
13.24645 7.03439 4.00006
13.33258 7.03431 4.00005
13.41876 7.03423 4.00005
13.50496 7.03416 4.00004
13.59121 7.03410 4.00004
13.67747 7.03406 4.00004
13.76378 7.03401 4.00003
13.85011 7.03396 4.00003
13.93650 7.03391 4.00003
14.02290 7.03388 4.00003
14.10930 7.03386 4.00002
14.19579 7.03381 4.00002
14.28230 7.03378 4.00002
14.36884 7.03376 4.00002
14.45541 7.03373 4.00002
14.54202 7.03371 4.00002
14.62866 7.03369 4.00001
14.71534 7.03367 4.00001
14.80204 7.03365 4.00001
14.88878 7.03364 4.00001
14.97555 7.03362 4.00001
15.06235 7.03361 4.00001
15.14918 7.03360 4.00001
15.23605 7.03359 4.00001
15.32294 7.03358 4.00001
15.40986 7.03357 4.00001
15.49681 7.03356 4.00001
15.58379 7.03356 4.00000
15.67081 7.03355 4.00000
15.75785 7.03354 4.00000
15.84492 7.03353 4.00000
15.93201 7.03353 4.00000
16.01914 7.03353 4.00000
16.10629 7.03352 4.00000
16.19347 7.03352 4.00000
16.28068 7.03352 4.00000
16.36792 7.03350 4.00000
16.45517 7.03351 4.00000
16.54246 7.03351 4.00000
16.62978 7.03350 4.00000
16.71712 7.03350 4.00000
16.80448 7.03350 4.00000
16.89187 7.03350 4.00000
16.97928 7.03350 4.00000
17.06672 7.03349 4.00000
17.15418 7.03349 4.00000
17.24167 7.03349 4.00000
17.32918 7.03349 4.00000
17.41672 7.03349 4.00000
17.50427 7.03349 4.00000
17.59186 7.03349 4.00000
17.67946 7.03349 4.00000
17.76709 7.03349 4.00000
17.85473 7.03349 4.00000
17.94240 7.03349 4.00000
18.03009 7.03349 4.00000
18.11781 7.03348 4.00000
18.20554 7.03348 4.00000
18.29330 7.03348 4.00000
18.38107 7.03348 4.00000
18.46886 7.03348 4.00000
18.55667 7.03348 4.00000
18.64451 7.03348 4.00000
18.73236 7.03348 4.00000
18.82024 7.03348 4.00000
18.90812 7.03348 4.00000
18.99604 7.03348 4.00000
19.08396 7.03348 4.00000
19.17189 7.03348 4.00000
19.25986 7.03348 4.00000
19.34784 7.03348 4.00000
19.43583 7.03348 4.00000
19.52383 7.03348 4.00000
19.61185 7.03348 4.00000
19.69989 7.03348 4.00000
19.78795 7.03348 4.00000
19.87602 7.03348 4.00000
19.96410 7.03348 4.00000
20.05221 7.03348 4.00000
20.14033 7.03348 4.00000
20.22846 7.03348 4.00000
20.31661 7.03348 4.00000
20.40478 7.03348 4.00000
20.49296 7.03348 4.00000
20.58116 7.03348 4.00000
20.66937 7.03348 4.00000
20.75759 7.03348 4.00000
20.84583 7.03348 4.00000
20.93409 7.03348 4.00000
21.02236 7.03348 4.00000
21.11064 7.03348 4.00000
21.19893 7.03348 4.00000
21.28725 7.03348 4.00000
21.37557 7.03348 4.00000
21.46391 7.03348 4.00000
21.55226 7.03348 4.00000
21.64063 7.03348 4.00000
21.72900 7.03348 4.00000
21.81739 7.03348 4.00000
21.90580 7.03348 4.00000
21.99421 7.03348 4.00000
22.08264 7.03348 4.00000
22.17108 7.03348 4.00000
22.25953 7.03348 4.00000
22.34800 7.03348 4.00000
22.43647 7.03348 4.00000
22.52496 7.03348 4.00000
22.61346 7.03348 4.00000
22.70197 7.03348 4.00000
22.79049 7.03348 4.00000
22.87903 7.03348 4.00000
22.96757 7.03348 4.00000
23.05613 7.03348 4.00000
23.14469 7.03348 4.00000
23.23327 7.03348 4.00000
23.32186 7.03348 4.00000
23.41046 7.03348 4.00000
23.49907 7.03348 4.00000
23.58769 7.03348 4.00000
23.67632 7.03348 4.00000
23.76496 7.03348 4.00000
23.85361 7.03348 4.00000
23.94227 7.03348 4.00000
24.03094 7.03348 4.00000
24.11963 7.03348 4.00000
24.20832 7.03348 4.00000
24.29703 7.03348 4.00000

Angle 0.581762 3.644135

4.00000 7.03348 4.00000
4.00000 7.03348 4.00000
4.00000 7.03348 4.00000
4.00000 7.03348 4.00000
4.00000 7.03348 4.00000
4.00000 7.03348 4.00000
4.00000 7.03348 4.00000
4.00000 7.03348 4.00000
4.00000 7.03348 4.00000
4.00000 7.03348 4.00000
4.00000 7.03348 4.00000
4.00000 7.03348 4.00000
4.00000 7.03348 4.00000
4.00000 7.03348 4.00000
4.00000 7.03348 4.00000
4.00000 7.03348 4.00000
4.00000 7.03348 4.00000
4.00000 7.03348 4.00000
4.00000 7.03348 4.00000
4.00000 7.03347 4.00000
4.00000 7.03348 4.00000
4.00000 7.03348 4.00000
4.00000 7.03348 4.00000
4.00000 7.03348 4.00000
4.00000 7.03348 4.00000
4.00000 7.03348 4.00000
4.00000 7.03348 4.00000
4.00000 7.03348 4.00000
4.00000 7.03348 4.00000
4.00000 7.03348 4.00000
4.00000 7.03348 4.00000
4.00000 7.03348 4.00000
4.00000 7.03348 4.00000
4.00000 7.03348 4.00000
4.00000 7.03348 4.00000
4.00000 7.03348 4.00000
4.00000 7.03348 4.00000
4.00000 7.03348 4.00000
4.00000 7.03348 4.00000
4.00000 7.03348 4.00000
4.00000 7.03348 4.00000
4.00000 7.03348 4.00000
4.00000 7.03348 4.00000
4.00000 7.03348 4.00000
4.00000 7.03348 4.00000
4.00000 7.03348 4.00000
4.00000 7.03348 4.00000
4.00000 7.03348 4.00000
4.00000 7.03348 4.00000
4.00000 7.03348 4.00000
4.00000 7.03348 4.00000
4.00000 7.03348 4.00000
4.00000 7.03346 4.00000
4.00000 7.03346 4.00000
4.00000 7.03347 4.00000
4.00000 7.03348 4.00000
4.00000 7.03347 4.00000
4.00000 7.03348 4.00000
4.00000 7.03348 4.00000
4.00000 7.03344 4.00001
4.00000 7.03348 4.00000
4.00000 7.03348 4.00000
4.00000 7.03348 4.00000
4.00000 7.03348 4.00000
4.00000 7.03348 4.00000
4.00000 7.03348 4.00000
4.00000 7.03348 4.00000
4.00000 7.03348 4.00000
4.00000 7.03348 4.00000
4.00000 7.03348 4.00000
4.00000 7.03348 4.00000
4.00000 7.03348 4.00000
4.00000 7.03348 4.00000
4.00000 7.03348 4.00000
4.00000 7.03348 4.00000
4.00000 7.03348 4.00000
4.00000 7.03348 4.00000
4.00000 7.03348 4.00000
4.00000 7.03348 4.00000
4.00000 7.03348 4.00000
4.00000 7.03348 4.00000
4.00000 7.03348 4.00000
4.00000 7.03348 4.00000
4.00000 7.03348 4.00000
4.00000 7.03348 4.00000
4.00000 7.03348 4.00000
4.00000 7.03348 4.00000
4.00000 7.03348 4.00000
4.00000 7.03348 4.00000
4.00000 7.03348 4.00000
4.00000 7.03348 4.00000
4.00000 7.03348 4.00000
4.00000 7.03348 4.00000
4.00000 7.03348 4.00000
4.00000 7.03348 4.00000
4.00000 7.03348 4.00000
4.00000 7.03348 4.00000
4.00000 7.03348 4.00000
4.00000 7.03347 4.00000
4.00000 7.03348 4.00000
4.00000 7.03348 4.00000
4.00000 7.03348 4.00000
4.00000 7.03348 4.00000
4.00000 7.03348 4.00000
4.00000 7.03348 4.00000
4.00000 7.03348 4.00000
4.00000 7.03348 4.00000
4.00000 7.03348 4.00000
4.00000 7.03348 4.00000
4.00000 7.03348 4.00000
4.00000 7.03348 4.00000
4.00000 7.03348 4.00000
4.00000 7.03348 4.00000
4.00000 7.03348 4.00000
4.00000 7.03348 4.00000
4.00000 7.03348 4.00000
4.00000 7.03348 4.00000
4.00000 7.03348 4.00000
4.00000 7.03348 4.00000
4.00000 7.03348 4.00000
4.00000 7.03348 4.00000
4.00000 7.03348 4.00000
4.00000 7.03348 4.00000
4.00000 7.03349 4.00000
4.00000 7.03349 4.00000
4.00000 7.03348 4.00000
4.00000 7.03348 4.00000
4.00000 7.03348 4.00000
4.00000 7.03348 4.00000
4.00000 7.03352 4.00000
4.00001 7.03352 4.00000
4.00059 7.04248 4.00059
4.00530 7.11580 4.00531
4.00997 7.18938 4.00997
4.01458 7.26322 4.01458
4.01916 7.33723 4.01915
4.02371 7.41138 4.02371
4.02827 7.48562 4.02827
4.03284 7.55991 4.03284
4.03745 7.63420 4.03745
4.04211 7.70842 4.04211
4.04684 7.78254 4.04684
4.05166 7.85647 4.05166
4.05660 7.93017 4.05660
4.06169 8.00356 4.06169
4.06695 8.07656 4.06695
4.07242 8.14906 4.07242
4.07814 8.22098 4.07814
4.08417 8.29219 4.08417
4.09054 8.36255 4.09054
4.09733 8.43190 4.09733
4.10462 8.50004 4.10462
4.11248 8.56677 4.11248
4.12102 8.63183 4.12102
4.13035 8.69497 4.13035
4.14039 8.75639 4.14039
4.15118 8.81605 4.15118
4.16273 8.87391 4.16273
4.17509 8.92989 4.17509
4.18828 8.98394 4.18828
4.20234 9.03602 4.20234
4.21729 9.08609 4.21729
4.23314 9.13414 4.23315
4.24993 9.18013 4.24993
4.26765 9.22408 4.26765
4.28632 9.26597 4.28632
4.30596 9.30580 4.30596
4.32657 9.34356 4.32657
4.34817 9.37924 4.34818
4.37079 9.41280 4.37079
4.39445 9.44420 4.39445
4.41918 9.47337 4.41919
4.44505 9.50021 4.44505
4.47211 9.52457 4.47211
4.50045 9.54627 4.50045
4.53018 9.56508 4.53018
4.56143 9.58072 4.56143
4.59435 9.59285 4.59435
4.62911 9.60111 4.62911
4.66588 9.60514 4.66589
7.40843 7.50532 4.02948
7.57152 7.42866 4.02477
7.71471 7.37160 4.02127
7.84559 7.32669 4.01851
7.96805 7.29011 4.01625
8.08434 7.25966 4.01436
8.19596 7.23386 4.01275
8.30389 7.21173 4.01137
8.40883 7.19262 4.01017
8.51135 7.17594 4.00912
8.61185 7.16131 4.00820
8.71065 7.14840 4.00738
8.80800 7.13698 4.00666
8.90410 7.12683 4.00601
8.99916 7.11777 4.00544
9.09329 7.10968 4.00492
9.18662 7.10243 4.00445
9.27925 7.09593 4.00404
9.37127 7.09007 4.00366
9.46274 7.08480 4.00333
9.55376 7.08004 4.00302
9.64436 7.07575 4.00274
9.73456 7.07189 4.00249
9.82449 7.06835 4.00226
9.91409 7.06518 4.00206
10.00345 7.06230 4.00187
10.09259 7.05969 4.00170
10.18152 7.05732 4.00155
10.27029 7.05517 4.00141
10.35890 7.05322 4.00128
10.44738 7.05144 4.00117
10.53574 7.04982 4.00106
10.62399 7.04836 4.00097
10.71216 7.04703 4.00088
10.80025 7.04582 4.00080
10.88827 7.04471 4.00073
10.97623 7.04371 4.00067
11.06415 7.04279 4.00061
11.15202 7.04197 4.00055
11.23985 7.04121 4.00050
11.32766 7.04052 4.00046
11.41545 7.03989 4.00042
11.50322 7.03932 4.00038
11.59097 7.03880 4.00035
11.67872 7.03833 4.00032
11.76646 7.03789 4.00029
11.85420 7.03750 4.00026
11.94194 7.03714 4.00024
12.02968 7.03682 4.00022
12.11743 7.03652 4.00020
12.20518 7.03625 4.00018
12.29295 7.03600 4.00016
12.38073 7.03578 4.00015
12.46852 7.03557 4.00014
12.55632 7.03538 4.00013
12.64415 7.03521 4.00011
12.73198 7.03506 4.00010
12.81983 7.03492 4.00009
12.90770 7.03479 4.00009
12.99559 7.03467 4.00008
13.08350 7.03457 4.00007
13.17143 7.03447 4.00006
13.25938 7.03438 4.00006
13.34734 7.03430 4.00005
13.43533 7.03423 4.00004
13.52334 7.03416 4.00004
13.61137 7.03410 4.00004
13.69941 7.03405 4.00004
13.78749 7.03399 4.00003
13.87559 7.03395 4.00003
13.96370 7.03391 4.00003
14.05185 7.03385 4.00002
14.13999 7.03383 4.00002
14.22817 7.03380 4.00002
14.31637 7.03377 4.00002
14.40459 7.03375 4.00002
14.49283 7.03372 4.00002
14.58109 7.03370 4.00001
14.66937 7.03368 4.00001
14.75767 7.03366 4.00001
14.84599 7.03365 4.00001
14.93434 7.03363 4.00001
15.02271 7.03362 4.00001
15.11110 7.03361 4.00001
15.19951 7.03359 4.00001
15.28794 7.03358 4.00001
15.37639 7.03357 4.00001
15.46486 7.03357 4.00001
15.55335 7.03356 4.00000
15.64186 7.03355 4.00000
15.73039 7.03354 4.00000
15.81894 7.03354 4.00000
15.90751 7.03353 4.00000
15.99609 7.03353 4.00000
16.08470 7.03352 4.00000
16.17332 7.03352 4.00000
16.26195 7.03352 4.00000
16.35061 7.03351 4.00000
16.43928 7.03351 4.00000
16.52796 7.03350 4.00000
16.61666 7.03350 4.00000
16.70537 7.03350 4.00000
16.79410 7.03350 4.00000
16.88285 7.03349 4.00000
16.97160 7.03349 4.00000
17.06037 7.03349 4.00000
17.14915 7.03349 4.00000
17.23795 7.03349 4.00000
17.32676 7.03349 4.00000
17.41559 7.03348 4.00000
17.50443 7.03348 4.00000
17.59328 7.03348 4.00000
17.68215 7.03348 4.00000
17.77103 7.03348 4.00000
17.85992 7.03348 4.00000
17.94882 7.03348 4.00000
18.03774 7.03348 4.00000
18.12666 7.03348 4.00000
18.21560 7.03348 4.00000
18.30456 7.03348 4.00000
18.39353 7.03348 4.00000
18.48251 7.03348 4.00000
18.57150 7.03348 4.00000
18.66050 7.03348 4.00000
18.74952 7.03348 4.00000
18.83854 7.03348 4.00000
18.92758 7.03348 4.00000
19.01663 7.03348 4.00000
19.10568 7.03348 4.00000
19.19477 7.03348 4.00000
19.28386 7.03348 4.00000
19.37297 7.03348 4.00000
19.46209 7.03348 4.00000
19.55122 7.03348 4.00000
19.64036 7.03348 4.00000
19.72950 7.03348 4.00000
19.81866 7.03348 4.00000
19.90783 7.03348 4.00000
19.99701 7.03348 4.00000
20.08619 7.03348 4.00000
20.17538 7.03348 4.00000
20.26457 7.03348 4.00000
20.35377 7.03348 4.00000
20.44298 7.03348 4.00000
20.53221 7.03348 4.00000
20.62144 7.03348 4.00000
20.71068 7.03348 4.00000
20.79993 7.03348 4.00000
20.88919 7.03348 4.00000
20.97846 7.03348 4.00000
21.06774 7.03348 4.00000
21.15703 7.03348 4.00000
21.24632 7.03348 4.00000
21.33563 7.03348 4.00000
21.42494 7.03348 4.00000
21.51427 7.03348 4.00000
21.60361 7.03348 4.00000
21.69295 7.03348 4.00000
21.78230 7.03347 4.00000
21.87165 7.03348 4.00000
21.96101 7.03348 4.00000
22.05039 7.03348 4.00000
22.13977 7.03348 4.00000
22.22915 7.03348 4.00000
22.31855 7.03348 4.00000
22.40796 7.03348 4.00000
22.49737 7.03348 4.00000
22.58679 7.03347 4.00000
22.67621 7.03348 4.00000
22.76564 7.03348 4.00000
22.85508 7.03348 4.00000
22.94453 7.03348 4.00000
23.03398 7.03348 4.00000
23.12344 7.03348 4.00000
23.21291 7.03348 4.00000
23.30239 7.03348 4.00000
23.39187 7.03348 4.00000
23.48136 7.03348 4.00000
23.57085 7.03348 4.00000
23.66036 7.03348 4.00000
23.74987 7.03348 4.00000
23.83939 7.03348 4.00000
23.92891 7.03348 4.00000
24.01844 7.03348 4.00000
24.10798 7.03348 4.00000
24.19752 7.03348 4.00000
24.28707 7.03348 4.00000
24.37663 7.03348 4.00000
24.46619 7.03348 4.00000
24.55576 7.03348 4.00000
24.64534 7.03348 4.00000
24.73492 7.03348 4.00000
24.82451 7.03348 4.00000
24.91410 7.03348 4.00000
25.00371 7.03348 4.00000
25.09331 7.03348 4.00000
25.18292 7.03348 4.00000
25.27254 7.03348 4.00000
25.36217 7.03348 4.00000
25.45180 7.03348 4.00000
25.54144 7.03348 4.00000
25.63108 7.03348 4.00000
25.72072 7.03348 4.00000
25.81038 7.03348 4.00000
25.90003 7.03348 4.00000
25.98970 7.03348 4.00000
26.07937 7.03348 4.00000
26.16904 7.03348 4.00000
26.25872 7.03348 4.00000
26.34840 7.03348 4.00000
26.43809 7.03348 4.00000
26.52778 7.03348 4.00000
26.61748 7.03348 4.00000
26.70718 7.03348 4.00000
26.79689 7.03348 4.00000
26.88660 7.03348 4.00000
26.97632 7.03348 4.00000
27.06604 7.03348 4.00000
27.15577 7.03348 4.00000
27.24550 7.03348 4.00000

Angle 0.629705 3.944124

4.00000 7.03348 4.00000
4.00000 7.03349 4.00000
4.00000 7.03348 4.00000
4.00000 7.03348 4.00000
4.00000 7.03348 4.00000
4.00000 7.03348 4.00000
4.00000 7.03349 4.00000
4.00000 7.03348 4.00000
4.00000 7.03348 4.00000
4.00000 7.03348 4.00000
4.00000 7.03348 4.00000
4.00000 7.03348 4.00000
4.00000 7.03348 4.00000
4.00000 7.03348 4.00000
4.00000 7.03348 4.00000
4.00000 7.03348 4.00000
4.00000 7.03346 4.00000
4.00000 7.03348 4.00000
4.00000 7.03348 4.00000
4.00000 7.03348 4.00000
4.00000 7.03348 4.00000
4.00000 7.03348 4.00000
4.00000 7.03348 4.00000
4.00000 7.03348 4.00000
4.00000 7.03350 4.00000
4.00000 7.03350 4.00000
4.00000 7.03348 4.00000
4.00000 7.03348 4.00000
4.00000 7.03348 4.00000
4.00000 7.03348 4.00000
4.00000 7.03348 4.00000
4.00000 7.03348 4.00000
4.00000 7.03348 4.00000
4.00000 7.03348 4.00000
4.00000 7.03348 4.00000
4.00000 7.03348 4.00000
4.00000 7.03348 4.00000
4.00000 7.03348 4.00000
4.00000 7.03348 4.00000
4.00000 7.03348 4.00000
4.00000 7.03348 4.00000
4.00000 7.03348 4.00000
4.00000 7.03348 4.00000
4.00000 7.03348 4.00000
4.00000 7.03348 4.00000
4.00000 7.03348 4.00000
4.00000 7.03348 4.00000
4.00000 7.03348 4.00000
4.00000 7.03348 4.00000
4.00000 7.03348 4.00000
4.00000 7.03348 4.00000
4.00000 7.03348 4.00000
4.00000 7.03348 4.00000
4.00000 7.03348 4.00000
4.00000 7.03348 4.00000
4.00000 7.03348 4.00000
4.00000 7.03348 4.00000
4.00000 7.03348 4.00000
4.00000 7.03348 4.00000
4.00000 7.03348 4.00000
4.00000 7.03348 4.00000
4.00000 7.03348 4.00000
4.00000 7.03348 4.00000
4.00000 7.03349 4.00000
4.00000 7.03348 4.00000
4.00000 7.03348 4.00000
4.00000 7.03348 4.00000
4.00000 7.03348 4.00000
4.00000 7.03348 4.00000
4.00000 7.03348 4.00000
4.00000 7.03347 4.00000
4.00000 7.03348 4.00000
4.00000 7.03348 4.00000
4.00000 7.03348 4.00000
4.00000 7.03348 4.00000
4.00000 7.03348 4.00000
4.00000 7.03348 4.00000
4.00000 7.03348 4.00000
4.00000 7.03347 4.00000
4.00000 7.03348 4.00000
4.00000 7.03347 4.00000
4.00000 7.03348 4.00000
4.00000 7.03348 4.00000
4.00000 7.03348 4.00000
4.00000 7.03348 4.00000
4.00000 7.03348 4.00000
4.00000 7.03348 4.00000
4.00000 7.03348 4.00000
4.00000 7.03348 4.00000
4.00000 7.03348 4.00000
4.00000 7.03348 4.00000
4.00000 7.03348 4.00000
4.00000 7.03348 4.00000
4.00000 7.03348 4.00000
4.00000 7.03348 4.00000
4.00000 7.03348 4.00000
4.00000 7.03348 4.00000
4.00000 7.03348 4.00000
4.00000 7.03348 4.00000
4.00000 7.03347 4.00000
4.00000 7.03348 4.00000
4.00000 7.03348 4.00000
4.00000 7.03348 4.00000
4.00000 7.03348 4.00000
4.00000 7.03348 4.00000
4.00000 7.03348 4.00000
4.00000 7.03351 4.00000
4.00000 7.03348 4.00000
4.00000 7.03348 4.00000
4.00000 7.03348 4.00000
4.00000 7.03348 4.00000
4.00000 7.03348 4.00000
4.00000 7.03348 4.00000
4.00000 7.03348 4.00000
4.00000 7.03348 4.00000
4.00000 7.03349 4.00000
4.00000 7.03349 4.00000
4.00000 7.03351 4.00000
4.00000 7.03351 4.00000
4.00000 7.03350 4.00000
4.00000 7.03349 4.00000
4.00000 7.03348 4.00000
4.00000 7.03348 4.00000
4.00000 7.03348 4.00000
4.00000 7.03348 4.00000
4.00000 7.03348 4.00000
4.00000 7.03348 4.00000
4.00000 7.03348 4.00000
4.00000 7.03348 4.00000
4.00000 7.03348 4.00000
4.00000 7.03348 4.00000
4.00000 7.03348 4.00000
4.00000 7.03348 4.00000
4.00000 7.03348 4.00000
4.00000 7.03348 4.00000
4.00000 7.03348 4.00000
4.00000 7.03348 4.00000
4.00000 7.03348 4.00000
4.00000 7.03348 4.00000
4.00000 7.03348 4.00000
4.00000 7.03348 4.00000
4.00000 7.03348 4.00000
4.00000 7.03348 4.00000
4.00000 7.03348 4.00000
4.00000 7.03348 4.00000
4.00000 7.03348 4.00000
4.00000 7.03348 4.00000
4.00000 7.03348 4.00000
4.00000 7.03348 4.00000
4.00000 7.03348 4.00000
4.00000 7.03348 4.00000
4.00000 7.03348 4.00000
4.00000 7.03348 4.00000
4.00000 7.03348 4.00000
4.00000 7.03348 4.00000
4.00000 7.03348 4.00000
4.00000 7.03348 4.00000
4.00000 7.03348 4.00000
4.00000 7.03348 4.00000
4.00000 7.03348 4.00000
4.00000 7.03349 4.00000
4.00000 7.03348 4.00000
4.00000 7.03348 4.00000
4.00000 7.03348 4.00000
4.00000 7.03348 4.00000
4.00000 7.03348 4.00000
4.00000 7.03348 4.00000
4.00000 7.03348 4.00000
4.00000 7.03348 4.00000
4.00000 7.03348 4.00000
4.00000 7.03348 4.00000
4.00000 7.03348 4.00000
4.00000 7.03348 4.00000
4.00000 7.03348 4.00000
4.00000 7.03348 4.00000
4.00000 7.03348 4.00000
4.00000 7.03348 4.00000
4.00000 7.03348 4.00000
4.00000 7.03348 4.00000
4.00000 7.03348 4.00000
4.00000 7.03348 4.00000
4.00000 7.03348 4.00000
4.00000 7.03348 4.00000
4.00000 7.03348 4.00000
4.00000 7.03347 4.00000
4.00000 7.03348 4.00000
4.00000 7.03348 4.00000
4.00000 7.03348 4.00000
4.00000 7.03348 4.00000
4.00000 7.03348 4.00000
4.00000 7.03348 4.00000
4.00000 7.03348 4.00000
4.00000 7.03348 4.00000
4.00000 7.03348 4.00000
4.00000 7.03348 4.00000
4.00000 7.03348 4.00000
4.00000 7.03348 4.00000
4.00000 7.03348 4.00000
4.00000 7.03348 4.00000
4.00000 7.03348 4.00000
4.00000 7.03348 4.00000
4.00000 7.03348 4.00000
4.00000 7.03348 4.00000
4.00000 7.03348 4.00000
4.00000 7.03348 4.00000
4.00000 7.03349 4.00000
4.00000 7.03348 4.00000
4.00000 7.03348 4.00000
4.00000 7.03348 4.00000
4.00000 7.03348 4.00000
4.00000 7.03348 4.00000
4.00000 7.03348 4.00000
4.00000 7.03348 4.00000
4.00000 7.03349 4.00000
4.00000 7.03348 4.00000
4.00000 7.03348 4.00000
4.00000 7.03348 4.00000
4.00000 7.03348 4.00000
4.00000 7.03348 4.00000
4.00000 7.03348 4.00000
4.00000 7.03348 4.00000
4.00000 7.03348 4.00000
4.00000 7.03348 4.00000
4.00000 7.03348 4.00000
4.00000 7.03349 4.00000
4.00000 7.03348 4.00000
4.00000 7.03348 4.00000
4.00000 7.03348 4.00000
4.00000 7.03348 4.00000
4.00000 7.03348 4.00000
4.00000 7.03348 4.00000
4.00000 7.03348 4.00000
4.00000 7.03348 4.00000
4.00000 7.03349 4.00000
4.00000 7.03348 4.00000
4.00090 7.04728 4.00090
4.00490 7.10937 4.00490
4.00886 7.17181 4.00886
4.01280 7.23457 4.01280
4.01671 7.29761 4.01671
4.02061 7.36091 4.02061
4.02452 7.42444 4.02452
4.02843 7.48817 4.02843
4.03236 7.55205 4.03236
4.03632 7.61606 4.03632
4.04033 7.68017 4.04033
4.04439 7.74433 4.04439
4.04852 7.80851 4.04852
4.05273 7.87266 4.05273
4.05705 7.93673 4.05705
4.06148 8.00068 4.06148
4.06606 8.06444 4.06606
4.07080 8.12795 4.07080
4.07573 8.19115 4.07573
4.08088 8.25394 4.08089
4.08630 8.31624 4.08630
4.09200 8.37795 4.09200
4.09806 8.43893 4.09806
4.10451 8.49906 4.10451
4.11142 8.55818 4.11142
4.11886 8.61610 4.11886
4.12693 8.67262 4.12693
4.13559 8.72779 4.13559
4.14484 8.78170 4.14484
4.15469 8.83427 4.15469
4.16518 8.88545 4.16517
4.17632 8.93520 4.17633
4.18816 8.98347 4.18816
4.20070 9.03022 4.20070
4.21397 9.07542 4.21397
4.22799 9.11904 4.22799
4.24277 9.16108 4.24277
4.25831 9.20150 4.25832
4.27466 9.24030 4.27466
4.29179 9.27748 4.29179
4.30973 9.31302 4.30973
4.32850 9.34690 4.32850
4.34810 9.37912 4.34810
4.36855 9.40963 4.36855
4.38987 9.43841 4.38987
4.41210 9.46539 4.41210
4.43528 9.49049 4.43528
4.45944 9.51362 4.45944
4.48466 9.53465 4.48466
4.51100 9.55340 4.51100
4.53857 9.56969 4.53857
4.56746 9.58326 4.56746
4.59781 9.59387 4.59781
4.62974 9.60122 4.62973
4.66343 9.60501 4.66334
4.03034 7.51924 7.38157
4.02573 7.44423 7.53601
4.02227 7.38788 7.67156
4.01952 7.34317 7.79536
4.01726 7.30651 7.91110
4.01536 7.27578 8.02092
4.01373 7.24960 8.12623
4.01233 7.22703 8.22798
4.01109 7.20736 8.32690
4.01001 7.19012 8.42345
4.00906 7.17491 8.51806
4.00821 7.16142 8.61103
4.00745 7.14941 8.70261
4.00677 7.13866 8.79300
4.00615 7.12903 8.88238
4.00560 7.12037 8.97087
4.00510 7.11257 9.05860
4.00465 7.10552 9.14566
4.00425 7.09915 9.23214
4.00388 7.09338 9.31811
4.00354 7.08814 9.40364
4.00323 7.08339 9.48878
4.00296 7.07907 9.57358
4.00270 7.07514 9.65807
4.00247 7.07155 9.74232
4.00226 7.06829 9.82633
4.00207 7.06531 9.91015
4.00189 7.06260 9.99380
4.00173 7.06012 10.07730
4.00158 7.05785 10.16067
4.00145 7.05578 10.24394
4.00133 7.05389 10.32711
4.00122 7.05217 10.41020
4.00111 7.05059 10.49323
4.00102 7.04914 10.57622
4.00093 7.04782 10.65916
4.00086 7.04660 10.74208
4.00078 7.04547 10.82499
4.00072 7.04448 10.90785
4.00065 7.04356 10.99072
4.00060 7.04269 11.07360
4.00055 7.04191 11.15649
4.00050 7.04121 11.23937
4.00046 7.04056 11.32227
4.00042 7.03996 11.40520
4.00038 7.03942 11.48816
4.00036 7.03891 11.57113
4.00033 7.03847 11.65413
4.00030 7.03803 11.73719
4.00027 7.03765 11.82027
4.00025 7.03729 11.90339
4.00023 7.03697 11.98655
4.00021 7.03668 12.06975
4.00019 7.03641 12.15299
4.00018 7.03616 12.23628
4.00016 7.03593 12.31960
4.00015 7.03572 12.40298
4.00013 7.03553 12.48640
4.00012 7.03536 12.56987
4.00011 7.03520 12.65339
4.00010 7.03505 12.73697
4.00009 7.03492 12.82058
4.00009 7.03479 12.90425
4.00008 7.03468 12.98796
4.00007 7.03458 13.07173
4.00007 7.03449 13.15555
4.00006 7.03440 13.23942
4.00006 7.03432 13.32335
4.00005 7.03425 13.40732
4.00005 7.03418 13.49134
4.00004 7.03412 13.57541
4.00004 7.03407 13.65954
4.00004 7.03402 13.74371
4.00003 7.03397 13.82793
4.00003 7.03393 13.91219
4.00003 7.03389 13.99651
4.00003 7.03386 14.08087
4.00002 7.03382 14.16528
4.00002 7.03379 14.24974
4.00002 7.03377 14.33425
4.00002 7.03374 14.41880
4.00002 7.03372 14.50339
4.00001 7.03370 14.58803
4.00001 7.03368 14.67272
4.00001 7.03366 14.75745
4.00001 7.03365 14.84222
4.00001 7.03363 14.92704
4.00001 7.03362 15.01190
4.00001 7.03361 15.09680
4.00001 7.03360 15.18174
4.00001 7.03359 15.26673
4.00001 7.03358 15.35176
4.00001 7.03357 15.43683
4.00001 7.03356 15.52194
4.00001 7.03355 15.60709
4.00000 7.03355 15.69228
4.00000 7.03354 15.77751
4.00000 7.03354 15.86278
4.00000 7.03353 15.94809
4.00000 7.03353 16.03344
4.00000 7.03352 16.11883
4.00000 7.03352 16.20425
4.00000 7.03352 16.28971
4.00000 7.03351 16.37521
4.00000 7.03351 16.46075
4.00000 7.03351 16.54632
4.00000 7.03350 16.63193
4.00000 7.03350 16.71757
4.00000 7.03350 16.80325
4.00000 7.03350 16.88897

Angle 0.047424 4.292618

4.00000 7.03348 4.00000
4.00000 7.03348 4.00000
4.00000 7.03348 4.00000
4.00000 7.03348 4.00000
4.00000 7.03348 4.00000
4.00000 7.03348 4.00000
4.00000 7.03348 4.00000
4.00000 7.03348 4.00000
4.00000 7.03348 4.00000
4.00000 7.03347 4.00000
4.00000 7.03348 4.00000
4.00000 7.03348 4.00000
4.00000 7.03348 4.00000
4.00000 7.03348 4.00000
4.00000 7.03348 4.00000
4.00000 7.03348 4.00000
4.00000 7.03348 4.00000
4.00000 7.03348 4.00000
4.00000 7.03348 4.00000
4.00000 7.03348 4.00000
4.00000 7.03348 4.00000
4.00000 7.03348 4.00000
4.00000 7.03348 4.00000
4.00000 7.03348 4.00000
4.00000 7.03348 4.00000
4.00000 7.03348 4.00000
4.00000 7.03348 4.00000
4.00000 7.03348 4.00000
4.00000 7.03348 4.00000
4.00000 7.03348 4.00000
4.00000 7.03348 4.00000
4.00000 7.03348 4.00000
4.00000 7.03348 4.00000
4.00000 7.03348 4.00000
4.00000 7.03348 4.00000
4.00000 7.03348 4.00000
4.00000 7.03348 4.00000
4.00000 7.03348 4.00000
4.00000 7.03348 4.00000
4.00000 7.03348 4.00000
4.00000 7.03348 4.00000
4.00000 7.03348 4.00000
4.00000 7.03348 4.00000
4.00000 7.03348 4.00000
4.00000 7.03348 4.00000
4.00000 7.03348 4.00000
4.00000 7.03348 4.00000
4.00000 7.03348 4.00000
4.00000 7.03348 4.00000
4.00000 7.03348 4.00000
4.00000 7.03348 4.00000
4.00000 7.03348 4.00000
4.00000 7.03348 4.00000
4.00000 7.03348 4.00000
4.00000 7.03348 4.00000
4.00000 7.03347 4.00000
4.00000 7.03348 4.00000
4.00000 7.03348 4.00000
4.00000 7.03348 4.00000
4.00000 7.03347 4.00000
4.00000 7.03348 4.00000
4.00000 7.03347 4.00000
4.00000 7.03348 4.00000
4.00000 7.03348 4.00000
4.00000 7.03348 4.00000
4.00000 7.03348 4.00000
4.00000 7.03347 4.00000
4.00000 7.03348 4.00000
4.00000 7.03348 4.00000
4.00000 7.03348 4.00000
4.00000 7.03348 4.00000
4.00000 7.03349 4.00000
4.00000 7.03349 4.00000
4.00000 7.03348 4.00000
4.00000 7.03348 4.00000
4.00000 7.03348 4.00000
4.00000 7.03348 4.00000
4.00000 7.03348 4.00000
4.00000 7.03348 4.00000
4.00000 7.03348 4.00000
4.00000 7.03348 4.00000
4.00000 7.03348 4.00000
4.00000 7.03348 4.00000
4.00000 7.03348 4.00000
4.00000 7.03348 4.00000
4.00000 7.03348 4.00000
4.00000 7.03348 4.00000
4.00000 7.03348 4.00000
4.00000 7.03348 4.00000
4.00000 7.03348 4.00000
4.00000 7.03348 4.00000
4.00000 7.03348 4.00000
4.00000 7.03348 4.00000
4.00000 7.03348 4.00000
4.00000 7.03348 4.00000
4.00000 7.03348 4.00000
4.00000 7.03348 4.00000
4.00000 7.03347 4.00000
4.00000 7.03348 4.00000
4.00000 7.03348 4.00000
4.00000 7.03348 4.00000
4.00000 7.03348 4.00000
4.00000 7.03348 4.00000
4.00000 7.03348 4.00000
4.00000 7.03348 4.00000
4.00000 7.03348 4.00000
4.00000 7.03348 4.00000
4.00000 7.03348 4.00000
4.00000 7.03348 4.00000
4.00000 7.03348 4.00000
4.00000 7.03348 4.00000
4.00000 7.03348 4.00000
4.00000 7.03348 4.00000
4.00000 7.03348 4.00000
4.00000 7.03348 4.00000
4.00000 7.03348 4.00000
4.00000 7.03348 4.00000
4.00000 7.03348 4.00000
4.00000 7.03348 4.00000
4.00000 7.03348 4.00000
4.00000 7.03348 4.00000
4.00000 7.03348 4.00000
4.00000 7.03348 4.00000
4.00024 7.03712 4.00024
4.00504 7.11153 4.00504
4.00977 7.18622 4.00977
4.01445 7.26114 4.01445
4.01909 7.33623 4.01909
4.02372 7.41146 4.02372
4.02834 7.48676 4.02834
4.03298 7.56210 4.03298
4.03765 7.63741 4.03765
4.04237 7.71265 4.04238
4.04717 7.78776 4.04717
4.05207 7.86267 4.05207
4.05709 7.93731 4.05709
4.06226 8.01162 4.06226
4.06761 8.08549 4.06761
4.07318 8.15885 4.07318
4.07902 8.23157 4.07902
4.08517 8.30354 4.08517
4.09168 8.37460 4.09168
4.09864 8.44458 4.09864
4.10611 8.51328 4.10611
4.11420 8.58048 4.11420
4.12300 8.64589 4.12300
4.13261 8.70934 4.13261
4.14294 8.77104 4.14294
4.15404 8.83092 4.15404
4.16593 8.88894 4.16592
4.17864 8.94501 4.17864
4.19223 8.99909 4.19222
4.20669 9.05113 4.20669
4.22207 9.10111 4.22208
4.23839 9.14901 4.23839
4.25565 9.19482 4.25565
4.27387 9.23852 4.27387
4.29307 9.28011 4.29307
4.31325 9.31960 4.31325
4.33442 9.35697 4.33443
4.35662 9.39220 4.35662
4.37986 9.42526 4.37985
4.40416 9.45608 4.40416
4.42958 9.48459 4.42958
4.45617 9.51067 4.45617
4.48402 9.53415 4.48401
4.51320 9.55482 4.51320
4.54386 9.57243 4.54386
4.57613 9.58667 4.57613
4.61017 9.59717 4.61017
4.64615 9.60356 4.64616
4.68429 9.60548 4.68423
7.49122 7.46474 4.02699
7.64445 7.39850 4.02292
7.78199 7.34771 4.01980
7.90928 7.30705 4.01729
8.02932 7.27358 4.01522
8.14393 7.24548 4.01348
8.25435 7.22157 4.01198
8.36144 7.20098 4.01070
8.46582 7.18311 4.00957
8.56794 7.16751 4.00859
8.66822 7.15378 4.00772
8.76690 7.14166 4.00696
8.86425 7.13091 4.00627
8.96044 7.12135 4.00566
9.05563 7.11282 4.00512
9.14995 7.10519 4.00463
9.24353 7.09835 4.00419
9.33644 7.09221 4.00380
9.42877 7.08669 4.00345
9.52059 7.08171 4.00313
9.61196 7.07723 4.00284
9.70294 7.07318 4.00258
9.79356 7.06952 4.00234
9.88388 7.06622 4.00213
9.97393 7.06322 4.00193
10.06373 7.06051 4.00176
10.15333 7.05804 4.00160
10.24273 7.05581 4.00145
10.33196 7.05379 4.00132
10.42105 7.05195 4.00120
10.51000 7.05028 4.00109
10.59885 7.04876 4.00099
10.68759 7.04739 4.00091
10.77625 7.04614 4.00082
10.86483 7.04500 4.00075
10.95334 7.04396 4.00068
11.04180 7.04302 4.00062
11.13021 7.04216 4.00057
11.21858 7.04139 4.00052
11.30691 7.04068 4.00047
11.39522 7.04003 4.00043
11.48350 7.03944 4.00039
11.57176 7.03891 4.00035
11.66001 7.03842 4.00032
11.74825 7.03798 4.00029
11.83648 7.03758 4.00027
11.92471 7.03721 4.00024
12.01293 7.03688 4.00022
12.10116 7.03657 4.00020
12.18939 7.03629 4.00018
12.27763 7.03604 4.00017
12.36587 7.03581 4.00015
12.45413 7.03560 4.00014
12.54239 7.03541 4.00013
12.63066 7.03524 4.00011
12.71896 7.03508 4.00010
12.80725 7.03494 4.00010
12.89557 7.03481 4.00009
12.98390 7.03469 4.00008
13.07224 7.03458 4.00007
13.16060 7.03448 4.00007
13.24898 7.03439 4.00006
13.33737 7.03431 4.00006
13.42579 7.03424 4.00005
13.51421 7.03417 4.00004
13.60266 7.03411 4.00004
13.69113 7.03405 4.00004
13.77961 7.03400 4.00003
13.86811 7.03395 4.00003
13.95664 7.03391 4.00003
14.04517 7.03387 4.00003
14.13373 7.03384 4.00002
14.22231 7.03380 4.00002
14.31090 7.03377 4.00002
14.39952 7.03375 4.00002
14.48814 7.03372 4.00002
14.57679 7.03370 4.00002
14.66546 7.03368 4.00001
14.75414 7.03366 4.00001
14.84284 7.03365 4.00001
14.93156 7.03363 4.00001
15.02030 7.03362 4.00001
15.10905 7.03361 4.00001
15.19782 7.03359 4.00001
15.28660 7.03358 4.00001
15.37541 7.03357 4.00001
15.46422 7.03357 4.00001
15.55306 7.03356 4.00001
15.64191 7.03355 4.00001
15.73077 7.03354 4.00000
15.81965 7.03354 4.00000
15.90855 7.03353 4.00000
15.99746 7.03353 4.00000
16.08639 7.03352 4.00000
16.17533 7.03352 4.00000
16.26429 7.03352 4.00000
16.35326 7.03351 4.00000
16.44224 7.03351 4.00000
16.53124 7.03351 4.00000
16.62025 7.03350 4.00000
16.70928 7.03350 4.00000
16.79832 7.03350 4.00000
16.88737 7.03350 4.00000
16.97643 7.03350 4.00000
17.06551 7.03350 4.00000
17.15461 7.03349 4.00000
17.24371 7.03349 4.00000
17.33283 7.03349 4.00000
17.42197 7.03349 4.00000
17.51112 7.03349 4.00000
17.60028 7.03349 4.00000
17.68946 7.03349 4.00000
17.77864 7.03349 4.00000
17.86784 7.03349 4.00000
17.95705 7.03349 4.00000
18.04627 7.03349 4.00000
18.13550 7.03348 4.00000
18.22475 7.03348 4.00000
18.31400 7.03348 4.00000
18.40326 7.03348 4.00000
18.49254 7.03348 4.00000
18.58183 7.03348 4.00000
18.67112 7.03348 4.00000
18.76043 7.03348 4.00000
18.84974 7.03348 4.00000
18.93907 7.03348 4.00000
19.02841 7.03348 4.00000
19.11775 7.03348 4.00000
19.20710 7.03348 4.00000
19.29647 7.03348 4.00000
19.38583 7.03348 4.00000
19.47522 7.03347 4.00000
19.56460 7.03348 4.00000
19.65399 7.03348 4.00000
19.74340 7.03347 4.00000
19.83281 7.03347 4.00000
19.92223 7.03347 4.00000
20.01166 7.03347 4.00000
20.10110 7.03347 4.00000
20.19054 7.03347 4.00000
20.27999 7.03347 4.00000
20.36946 7.03347 4.00000
20.45893 7.03347 4.00000
20.54840 7.03347 4.00000
20.63789 7.03347 4.00000
20.72738 7.03348 4.00000
20.81688 7.03348 4.00000
20.90639 7.03348 4.00000
20.99591 7.03348 4.00000
21.08543 7.03348 4.00000
21.17496 7.03348 4.00000
21.26450 7.03348 4.00000
21.35405 7.03348 4.00000
21.44360 7.03348 4.00000
21.53317 7.03348 4.00000
21.62273 7.03348 4.00000
21.71232 7.03348 4.00000
21.80190 7.03348 4.00000
21.89150 7.03348 4.00000
21.98110 7.03348 4.00000
22.07071 7.03348 4.00000
22.16033 7.03348 4.00000
22.24995 7.03348 4.00000
22.33958 7.03348 4.00000
22.42921 7.03348 4.00000
22.51885 7.03348 4.00000
22.60849 7.03348 4.00000
22.69813 7.03348 4.00000
22.78779 7.03348 4.00000
22.87745 7.03348 4.00000
22.96711 7.03348 4.00000
23.05679 7.03348 4.00000
23.14647 7.03348 4.00000
23.23615 7.03348 4.00000
23.32585 7.03348 4.00000
23.41554 7.03348 4.00000
23.50525 7.03348 4.00000
23.59496 7.03348 4.00000
23.68467 7.03348 4.00000
23.77439 7.03348 4.00000
23.86412 7.03348 4.00000
23.95385 7.03348 4.00000
24.04359 7.03348 4.00000
24.13334 7.03347 4.00000
24.22308 7.03348 4.00000
24.31284 7.03348 4.00000
24.40261 7.03347 4.00000
24.49236 7.03348 4.00000
24.58213 7.03348 4.00000
24.67191 7.03348 4.00000
24.76168 7.03348 4.00000
24.85148 7.03347 4.00000
24.94126 7.03348 4.00000
25.03105 7.03348 4.00000
25.12086 7.03347 4.00000
25.21066 7.03348 4.00000
25.30046 7.03348 4.00000
25.39028 7.03348 4.00000
25.48010 7.03347 4.00000
25.56992 7.03348 4.00000
25.65974 7.03348 4.00000
25.74958 7.03348 4.00000
25.83941 7.03348 4.00000
25.92926 7.03348 4.00000
26.01910 7.03348 4.00000
26.10896 7.03348 4.00000
26.19881 7.03348 4.00000
26.28867 7.03348 4.00000
26.37853 7.03348 4.00000
26.46840 7.03348 4.00000
26.55827 7.03348 4.00000
26.64814 7.03348 4.00000
26.73802 7.03348 4.00000
26.82790 7.03348 4.00000
26.91780 7.03348 4.00000
27.00768 7.03348 4.00000
27.09758 7.03348 4.00000
27.18748 7.03348 4.00000
27.27738 7.03348 4.00000
27.36729 7.03348 4.00000
27.45720 7.03347 4.00000
27.54711 7.03348 4.00000
27.63702 7.03348 4.00000
27.72694 7.03348 4.00000
27.81686 7.03348 4.00000
27.90679 7.03348 4.00000
27.99672 7.03348 4.00000
28.08665 7.03348 4.00000

Angle 0.216339 1.829504

4.00000 7.03348 4.00000
4.00000 7.03348 4.00000
4.00000 7.03348 4.00000
4.00000 7.03348 4.00000
4.00000 7.03348 4.00000
4.00000 7.03348 4.00000
4.00000 7.03348 4.00000
4.00000 7.03348 4.00000
4.00000 7.03348 4.00000
4.00000 7.03349 4.00000
4.00000 7.03348 4.00000
4.00000 7.03348 4.00000
4.00000 7.03348 4.00000
4.00000 7.03348 4.00000
4.00000 7.03348 4.00000
4.00000 7.03348 4.00000
4.00000 7.03348 4.00000
4.00000 7.03348 4.00000
4.00000 7.03348 4.00000
4.00000 7.03348 4.00000
4.00000 7.03348 4.00000
4.00000 7.03348 4.00000
4.00000 7.03348 4.00000
4.00000 7.03348 4.00000
4.00000 7.03348 4.00000
4.00000 7.03348 4.00000
4.00000 7.03348 4.00000
4.00000 7.03348 4.00000
4.00000 7.03348 4.00000
4.00000 7.03348 4.00000
4.00000 7.03348 4.00000
4.00000 7.03347 4.00000
4.00000 7.03348 4.00000
4.00000 7.03348 4.00000
4.00000 7.03348 4.00000
4.00000 7.03348 4.00000
4.00000 7.03348 4.00000
4.00000 7.03347 4.00000
4.00000 7.03349 4.00000
4.00000 7.03349 4.00000
4.00000 7.03349 4.00000
4.00000 7.03349 4.00000
4.00000 7.03348 4.00000
4.00000 7.03348 4.00000
4.00000 7.03349 4.00000
4.00000 7.03348 4.00000
4.00000 7.03349 4.00000
4.00000 7.03348 4.00000
4.00000 7.03347 4.00000
4.00000 7.03346 4.00000
4.00000 7.03348 4.00000
4.00000 7.03349 4.00000
4.00000 7.03348 4.00000
4.00000 7.03348 4.00000
4.00000 7.03348 4.00000
4.00000 7.03348 4.00000
4.00000 7.03348 4.00000
4.00000 7.03348 4.00000
4.00000 7.03345 4.00000
4.00000 7.03345 4.00000
4.00000 7.03345 4.00000
4.00000 7.03348 4.00000
4.00000 7.03348 4.00000
4.00000 7.03348 4.00000
4.00000 7.03349 4.00000
4.00000 7.03349 4.00000
4.00000 7.03348 4.00000
4.00000 7.03350 4.00000
4.00000 7.03350 4.00000
4.00000 7.03350 4.00000
4.00000 7.03348 4.00000
4.00000 7.03348 4.00000
4.00000 7.03348 4.00000
4.00000 7.03348 4.00000
4.00000 7.03348 4.00000
4.00000 7.03348 4.00000
4.00000 7.03348 4.00000
4.00000 7.03348 4.00000
4.00000 7.03348 4.00000
4.00000 7.03348 4.00000
4.00000 7.03348 4.00000
4.00000 7.03348 4.00000
4.00000 7.03348 4.00000
4.00000 7.03348 4.00000
4.00000 7.03348 4.00000
4.00000 7.03348 4.00000
4.00000 7.03348 4.00000
4.00000 7.03348 4.00000
4.00000 7.03348 4.00000
4.00000 7.03348 4.00000
4.00000 7.03348 4.00000
4.00000 7.03348 4.00000
4.00000 7.03348 4.00000
4.00000 7.03348 4.00000
4.00000 7.03348 4.00000
4.00000 7.03348 4.00000
4.00000 7.03348 4.00000
4.00000 7.03348 4.00000
4.00000 7.03348 4.00000
4.00000 7.03348 4.00000
4.00000 7.03348 4.00000
4.00000 7.03348 4.00000
4.00000 7.03348 4.00000
4.00000 7.03348 4.00000
4.00000 7.03348 4.00000
4.00000 7.03348 4.00000
4.00000 7.03348 4.00000
4.00000 7.03348 4.00000
4.00000 7.03348 4.00000
4.00000 7.03348 4.00000
4.00000 7.03348 4.00000
4.00000 7.03348 4.00000
4.00000 7.03348 4.00000
4.00000 7.03348 4.00000
4.00000 7.03348 4.00000
4.00000 7.03348 4.00000
4.00000 7.03348 4.00000
4.00000 7.03348 4.00000
4.00000 7.03348 4.00000
4.00000 7.03348 4.00000
4.00000 7.03348 4.00000
4.00000 7.03348 4.00000
4.00000 7.03348 4.00000
4.00000 7.03348 4.00000
4.00000 7.03348 4.00000
4.00000 7.03348 4.00000
4.00000 7.03348 4.00000
4.00000 7.03348 4.00000
4.00000 7.03348 4.00000
4.00000 7.03348 4.00000
4.00000 7.03348 4.00000
4.00000 7.03349 4.00000
4.00000 7.03349 4.00000
4.00000 7.03349 4.00000
4.00000 7.03348 4.00000
4.00000 7.03348 4.00000
4.00000 7.03348 4.00000
4.00000 7.03348 4.00000
4.00000 7.03348 4.00000
4.00000 7.03348 4.00000
4.00000 7.03348 4.00000
4.00000 7.03348 4.00000
4.00000 7.03348 4.00000
4.00000 7.03348 4.00000
4.00000 7.03348 4.00000
4.00000 7.03348 4.00000
4.00000 7.03348 4.00000
4.00000 7.03348 4.00000
4.00000 7.03348 4.00000
4.00279 7.07648 4.00279
4.00746 7.14973 4.00746
4.01209 7.22324 4.01209
4.01667 7.29697 4.01667
4.02122 7.37087 4.02122
4.02577 7.44487 4.02577
4.03032 7.51896 4.03032
4.03490 7.59307 4.03489
4.03951 7.66716 4.03951
4.04418 7.74116 4.04419
4.04894 7.81503 4.04894
4.05380 7.88870 4.05380
4.05879 7.96210 4.05879
4.06394 8.03516 4.06394
4.06927 8.10779 4.06927
4.07484 8.17990 4.07484
4.08067 8.25138 4.08067
4.08682 8.32209 4.08682
4.09335 8.39189 4.09335
4.10032 8.46062 4.10032
4.10782 8.52806 4.10782
4.11593 8.59399 4.11593
4.12478 8.65814 4.12478
4.13439 8.72042 4.13439
4.14471 8.78100 4.14471
4.15578 8.83983 4.15578
4.16764 8.89682 4.16764
4.18030 8.95192 4.18031
4.19382 9.00508 4.19382
4.20820 9.05626 4.20820
4.22348 9.10544 4.22349
4.23967 9.15258 4.23968
4.25679 9.19769 4.25679
4.27485 9.24076 4.27486
4.29387 9.28177 4.29387
4.31385 9.32073 4.31385
4.33481 9.35762 4.33481
4.35677 9.39242 4.35677
4.37974 9.42510 4.37974
4.40377 9.45561 4.40377
4.42888 9.48386 4.42888
4.45514 9.50973 4.45515
4.48263 9.53308 4.48264
4.51144 9.55369 4.51143
4.54168 9.57131 4.54168
4.57348 9.58566 4.57348
4.60701 9.59638 4.60702
4.64244 9.60311 4.64244
4.67910 9.60549 4.68078
4.02757 7.47420 7.47124
4.02339 7.40611 7.62551
4.02020 7.35414 7.76341
4.01764 7.31263 7.89072
4.01553 7.27852 8.01057
4.01375 7.24991 8.12488
4.01223 7.22557 8.23491
4.01092 7.20463 8.34155
4.00978 7.18645 8.44544
4.00878 7.17056 8.54706
4.00790 7.15658 8.64679
4.00712 7.14425 8.74492
4.00642 7.13330 8.84169
4.00580 7.12357 8.93728
4.00525 7.11487 9.03188
4.00475 7.10709 9.12560
4.00431 7.10011 9.21856
4.00390 7.09384 9.31086
4.00354 7.08820 9.40257
4.00321 7.08313 9.49377
4.00292 7.07854 9.58452
4.00265 7.07439 9.67487
4.00241 7.07065 9.76487
4.00219 7.06726 9.85457
4.00200 7.06418 9.94399
4.00181 7.06140 10.03316
4.00165 7.05887 10.12213
4.00150 7.05658 10.21090
4.00137 7.05450 10.29952
4.00125 7.05261 10.38798
4.00114 7.05089 10.47632
4.00103 7.04933 10.56454
4.00094 7.04791 10.65267
4.00086 7.04662 10.74071
4.00078 7.04545 10.82868
4.00071 7.04438 10.91659
4.00065 7.04341 11.00444
4.00059 7.04252 11.09225
4.00054 7.04172 11.18002
4.00049 7.04098 11.26775
4.00044 7.04031 11.35546
4.00040 7.03970 11.44316
4.00037 7.03915 11.53083
4.00034 7.03864 11.61849
4.00031 7.03819 11.70615
4.00028 7.03777 11.79381
4.00026 7.03738 11.88146
4.00023 7.03704 11.96912
4.00021 7.03672 12.05677
4.00019 7.03643 12.14444
4.00018 7.03616 12.23212
4.00016 7.03593 12.31981
4.00015 7.03571 12.40751
4.00013 7.03551 12.49522
4.00012 7.03533 12.58295
4.00011 7.03516 12.67070
4.00010 7.03502 12.75845
4.00009 7.03487 12.84624
4.00008 7.03475 12.93404
4.00008 7.03463 13.02186
4.00007 7.03453 13.10970
4.00006 7.03443 13.19755
4.00006 7.03435 13.28543
4.00005 7.03427 13.37333
4.00005 7.03421 13.46124
4.00004 7.03414 13.54919
4.00004 7.03408 13.63715
4.00004 7.03402 13.72514
4.00003 7.03398 13.81314
4.00003 7.03393 13.90117
4.00003 7.03389 13.98922
4.00002 7.03386 14.07729
4.00002 7.03382 14.16538
4.00002 7.03379 14.25349
4.00002 7.03376 14.34163
4.00002 7.03373 14.42980
4.00002 7.03371 14.51797
4.00001 7.03369 14.60617
4.00001 7.03367 14.69439
4.00001 7.03366 14.78263
4.00001 7.03364 14.87089
4.00001 7.03363 14.95917
4.00001 7.03361 15.04747
4.00001 7.03360 15.13580
4.00001 7.03359 15.22414
4.00001 7.03358 15.31250
4.00001 7.03357 15.40088
4.00001 7.03356 15.48928
4.00000 7.03356 15.57770
4.00000 7.03355 15.66614
4.00000 7.03354 15.75460
4.00000 7.03354 15.84308
4.00000 7.03353 15.93157
4.00000 7.03352 16.02008
4.00000 7.03352 16.10861
4.00000 7.03352 16.19716
4.00000 7.03351 16.28572
4.00000 7.03351 16.37430
4.00000 7.03350 16.46290
4.00000 7.03351 16.55151
4.00000 7.03350 16.64014
4.00000 7.03350 16.72879
4.00000 7.03350 16.81745
4.00000 7.03350 16.90613
4.00000 7.03349 16.99483
4.00000 7.03349 17.08354
4.00000 7.03349 17.17226
4.00000 7.03350 17.26100
4.00000 7.03349 17.34976
4.00000 7.03349 17.43853
4.00000 7.03349 17.52732
4.00000 7.03349 17.61612
4.00000 7.03349 17.70494
4.00000 7.03349 17.79377
4.00000 7.03349 17.88261
4.00000 7.03349 17.97147
4.00000 7.03349 18.06034
4.00000 7.03348 18.14922
4.00000 7.03348 18.23812
4.00000 7.03348 18.32703
4.00000 7.03348 18.41596
4.00000 7.03348 18.50489
4.00000 7.03348 18.59385
4.00000 7.03348 18.68280
4.00000 7.03348 18.77178
4.00000 7.03348 18.86076
4.00000 7.03348 18.94976
4.00000 7.03348 19.03877
4.00000 7.03348 19.12779
4.00000 7.03348 19.21682
4.00000 7.03348 19.30587
4.00000 7.03348 19.39492
4.00000 7.03348 19.48398
4.00000 7.03348 19.57306
4.00000 7.03348 19.66215
4.00000 7.03348 19.75123
4.00000 7.03348 19.84034
4.00000 7.03348 19.92945
4.00000 7.03348 20.01857
4.00000 7.03348 20.10771
4.00000 7.03348 20.19685
4.00000 7.03348 20.28601
4.00000 7.03348 20.37517
4.00000 7.03348 20.46434
4.00000 7.03348 20.55353
4.00000 7.03348 20.64272
4.00000 7.03348 20.73192
4.00000 7.03348 20.82114
4.00000 7.03348 20.91036
4.00000 7.03348 20.99959
4.00000 7.03348 21.08883
4.00000 7.03348 21.17808
4.00000 7.03348 21.26733
4.00000 7.03348 21.35660
4.00000 7.03348 21.44588
4.00000 7.03348 21.53516
4.00000 7.03348 21.62445
4.00000 7.03348 21.71376
4.00000 7.03348 21.80307
4.00000 7.03348 21.89239
4.00000 7.03348 21.98171
4.00000 7.03348 22.07105
4.00000 7.03348 22.16039
4.00000 7.03348 22.24974
4.00000 7.03348 22.33910
4.00000 7.03348 22.42847
4.00000 7.03348 22.51785
4.00000 7.03348 22.60723
4.00000 7.03348 22.69662
4.00000 7.03348 22.78602
4.00000 7.03348 22.87542
4.00000 7.03348 22.96484
4.00000 7.03348 23.05426
4.00000 7.03348 23.14369
4.00000 7.03348 23.23312
4.00000 7.03348 23.32257
4.00000 7.03348 23.41202
4.00000 7.03348 23.50148
4.00000 7.03348 23.59094
4.00000 7.03348 23.68041
4.00000 7.03348 23.76989
4.00000 7.03348 23.85938
4.00000 7.03348 23.94887
4.00000 7.03348 24.03837
4.00000 7.03348 24.12788
4.00000 7.03348 24.21740
4.00000 7.03348 24.30692
4.00000 7.03348 24.39645
4.00000 7.03348 24.48598
4.00000 7.03348 24.57553
4.00000 7.03348 24.66508
4.00000 7.03348 24.75463
4.00000 7.03349 24.84418
4.00000 7.03349 24.93374
4.00000 7.03348 25.02333
4.00000 7.03349 25.11290
4.00000 7.03349 25.20248
4.00000 7.03348 25.29209
4.00000 7.03348 25.38168
4.00000 7.03349 25.47128
4.00000 7.03349 25.56089
4.00000 7.03348 25.65052

Angle 0.472824 4.922890

4.00000 7.03348 4.00000
4.00000 7.03348 4.00000
4.00000 7.03348 4.00000
4.00000 7.03348 4.00000
4.00000 7.03348 4.00000
4.00000 7.03348 4.00000
4.00000 7.03348 4.00000
4.00000 7.03348 4.00000
4.00000 7.03348 4.00000
4.00000 7.03348 4.00000
4.00000 7.03348 4.00000
4.00000 7.03348 4.00000
4.00000 7.03348 4.00000
4.00000 7.03347 4.00000
4.00000 7.03347 4.00000
4.00000 7.03347 4.00000
4.00000 7.03347 4.00000
4.00000 7.03347 4.00000
4.00000 7.03347 4.00000
4.00000 7.03347 4.00000
4.00000 7.03347 4.00000
4.00000 7.03348 4.00000
4.00000 7.03348 4.00000
4.00000 7.03348 4.00000
4.00000 7.03349 4.00000
4.00000 7.03348 4.00000
4.00000 7.03348 4.00000
4.00000 7.03348 4.00000
4.00000 7.03348 4.00000
4.00000 7.03348 4.00000
4.00000 7.03348 4.00000
4.00000 7.03348 4.00000
4.00000 7.03348 4.00000
4.00000 7.03348 4.00000
4.00000 7.03348 4.00000
4.00000 7.03348 4.00000
4.00000 7.03348 4.00000
4.00000 7.03348 4.00000
4.00000 7.03348 4.00000
4.00000 7.03349 4.00000
4.00000 7.03350 4.00000
4.00000 7.03350 4.00000
4.00000 7.03349 4.00000
4.00000 7.03348 4.00000
4.00000 7.03346 4.00000
4.00000 7.03346 4.00000
4.00000 7.03348 4.00000
4.00000 7.03348 4.00000
4.00000 7.03348 4.00000
4.00000 7.03348 4.00000
4.00000 7.03348 4.00000
4.00000 7.03346 4.00000
4.00000 7.03346 4.00000
4.00000 7.03348 4.00000
4.00000 7.03348 4.00000
4.00000 7.03348 4.00000
4.00000 7.03348 4.00000
4.00000 7.03348 4.00000
4.00000 7.03348 4.00000
4.00000 7.03348 4.00000
4.00000 7.03348 4.00000
4.00000 7.03348 4.00000
4.00000 7.03348 4.00000
4.00000 7.03348 4.00000
4.00000 7.03348 4.00000
4.00000 7.03348 4.00000
4.00000 7.03347 4.00000
4.00000 7.03348 4.00000
4.00000 7.03348 4.00000
4.00000 7.03348 4.00000
4.00000 7.03348 4.00000
4.00000 7.03348 4.00000
4.00000 7.03348 4.00000
4.00000 7.03348 4.00000
4.00000 7.03348 4.00000
4.00000 7.03348 4.00000
4.00000 7.03348 4.00000
4.00000 7.03348 4.00000
4.00000 7.03348 4.00000
4.00000 7.03348 4.00000
4.00000 7.03348 4.00000
4.00000 7.03348 4.00000
4.00000 7.03348 4.00000
4.00000 7.03348 4.00000
4.00000 7.03348 4.00000
4.00000 7.03348 4.00000
4.00000 7.03348 4.00000
4.00000 7.03349 4.00000
4.00000 7.03349 4.00000
4.00000 7.03348 4.00000
4.00000 7.03348 4.00000
4.00000 7.03348 4.00000
4.00000 7.03348 4.00000
4.00000 7.03348 4.00000
4.00000 7.03348 4.00000
4.00000 7.03348 4.00000
4.00000 7.03349 4.00000
4.00000 7.03348 4.00000
4.00000 7.03348 4.00000
4.00000 7.03353 4.00000
4.00000 7.03351 4.00000
4.00000 7.03348 4.00000
4.00000 7.03348 4.00000
4.00000 7.03347 4.00000
4.00018 7.03627 4.00018
4.00512 7.11277 4.00512
4.00998 7.18953 4.00998
4.01478 7.26650 4.01478
4.01955 7.34362 4.01955
4.02430 7.42085 4.02430
4.02904 7.49813 4.02904
4.03380 7.57541 4.03380
4.03860 7.65263 4.03860
4.04346 7.72974 4.04346
4.04839 7.80666 4.04840
4.05344 7.88333 4.05344
4.05862 7.95969 4.05862
4.06397 8.03564 4.06397
4.06952 8.11109 4.06952
4.07531 8.18593 4.07531
4.08140 8.26004 4.08140
4.08783 8.33327 4.08784
4.09468 8.40548 4.09468
4.10202 8.47645 4.10202
4.10994 8.54595 4.10994
4.11854 8.61373 4.11854
4.12796 8.67949 4.12796
4.13817 8.74331 4.13817
4.14915 8.80527 4.14915
4.16093 8.86529 4.16093
4.17357 8.92330 4.17357
4.18708 8.97924 4.18708
4.20151 9.03308 4.20151
4.21687 9.08476 4.21687
4.23321 9.13427 4.23318
4.25051 9.18160 4.25047
4.26880 9.22674 4.26875
4.28809 9.26969 4.28804
4.30839 9.31043 4.30836
4.32971 9.34898 4.32971
4.35208 9.38531 4.35209
4.37553 9.41938 4.37553
4.40007 9.45115 4.40007
4.42576 9.48054 4.42576
4.45265 9.50742 4.45264
4.48081 9.53163 4.48080
4.51034 9.55297 4.51033
4.54138 9.57116 4.54137
4.57405 9.58588 4.57405
4.60855 9.59677 4.60855
4.64505 9.60343 4.64505
7.30748 7.55977 4.03284
7.49156 7.46458 4.02698
7.64701 7.39748 4.02286
7.78638 7.34621 4.01971
7.91529 7.30527 4.01718
8.03681 7.27163 4.01510
8.15281 7.24345 4.01335
8.26456 7.21950 4.01186
8.37293 7.19892 4.01057
8.47855 7.18108 4.00945
8.58190 7.16550 4.00846
8.68336 7.15183 4.00760
8.78323 7.13977 4.00684
8.88173 7.12910 4.00616
8.97906 7.11961 4.00555
9.07538 7.11116 4.00501
9.17082 7.10361 4.00453
9.26550 7.09685 4.00410
9.35951 7.09078 4.00371
9.45293 7.08534 4.00336
9.54583 7.08044 4.00304
9.63828 7.07602 4.00276
9.73032 7.07204 4.00250
9.82201 7.06845 4.00227
9.91339 7.06520 4.00206
10.00448 7.06227 4.00187
10.09532 7.05961 4.00170
10.18595 7.05721 4.00154
10.27638 7.05503 4.00140
10.36664 7.05305 4.00127
10.45674 7.05126 4.00116
10.54671 7.04964 4.00105
10.63656 7.04816 4.00096
10.72630 7.04683 4.00087
10.81595 7.04561 4.00079
10.90552 7.04451 4.00072
10.99501 7.04351 4.00065
11.08445 7.04260 4.00059
11.17382 7.04177 4.00054
11.26315 7.04102 4.00049
11.35244 7.04034 4.00045
11.44170 7.03972 4.00041
11.53092 7.03915 4.00037
11.62013 7.03864 4.00033
11.70931 7.03817 4.00030
11.79847 7.03775 4.00028
11.88762 7.03736 4.00025
11.97676 7.03701 4.00023
12.06589 7.03669 4.00021
12.15502 7.03640 4.00019
12.24415 7.03614 4.00017
12.33328 7.03590 4.00016
12.42241 7.03567 4.00014
12.51154 7.03547 4.00013
12.60068 7.03529 4.00012
12.68982 7.03512 4.00011
12.77895 7.03498 4.00010
12.86810 7.03485 4.00009
12.95727 7.03472 4.00008
13.04644 7.03461 4.00007
13.13562 7.03451 4.00007
13.22481 7.03441 4.00006
13.31401 7.03433 4.00005
13.40322 7.03425 4.00005
13.49244 7.03418 4.00005
13.58168 7.03412 4.00004
13.67093 7.03406 4.00004
13.76019 7.03401 4.00003
13.84946 7.03396 4.00003
13.93874 7.03392 4.00003
14.02804 7.03388 4.00003
14.11735 7.03384 4.00002
14.20668 7.03381 4.00002
14.29601 7.03378 4.00002
14.38537 7.03375 4.00002
14.47473 7.03373 4.00002
14.56410 7.03370 4.00001
14.65349 7.03368 4.00001
14.74289 7.03366 4.00001
14.83230 7.03365 4.00001
14.92173 7.03363 4.00001
15.01116 7.03362 4.00001
15.10061 7.03361 4.00001
15.19008 7.03359 4.00001
15.27955 7.03358 4.00001
15.36904 7.03357 4.00001
15.45854 7.03357 4.00001
15.54804 7.03356 4.00000
15.63756 7.03355 4.00000
15.72709 7.03354 4.00000
15.81663 7.03354 4.00000
15.90619 7.03353 4.00000
15.99575 7.03353 4.00000
16.08533 7.03352 4.00000
16.17491 7.03352 4.00000
16.26451 7.03352 4.00000
16.35411 7.03351 4.00000
16.44373 7.03351 4.00000
16.53336 7.03351 4.00000
16.62300 7.03350 4.00000
16.71265 7.03350 4.00000
16.80230 7.03350 4.00000
16.89197 7.03350 4.00000
16.98165 7.03350 4.00000
17.07133 7.03350 4.00000
17.16103 7.03349 4.00000
17.25073 7.03349 4.00000
17.34044 7.03349 4.00000
17.43017 7.03349 4.00000
17.51990 7.03349 4.00000
17.60963 7.03349 4.00000
17.69938 7.03349 4.00000
17.78914 7.03348 4.00000
17.87890 7.03349 4.00000
17.96867 7.03348 4.00000
18.05845 7.03348 4.00000
18.14823 7.03348 4.00000
18.23802 7.03348 4.00000
18.32783 7.03348 4.00000
18.41763 7.03348 4.00000
18.50744 7.03348 4.00000
18.59727 7.03348 4.00000
18.68709 7.03348 4.00000
18.77693 7.03348 4.00000
18.86679 7.03347 4.00000
18.95664 7.03348 4.00000
19.04649 7.03348 4.00000
19.13636 7.03348 4.00000
19.22624 7.03348 4.00000
19.31612 7.03348 4.00000
19.40601 7.03348 4.00000
19.49590 7.03348 4.00000
19.58580 7.03348 4.00000
19.67571 7.03348 4.00000
19.76562 7.03348 4.00000
19.85554 7.03348 4.00000
19.94545 7.03348 4.00000
20.03539 7.03348 4.00000
20.12532 7.03348 4.00000
20.21526 7.03348 4.00000
20.30520 7.03348 4.00000
20.39515 7.03348 4.00000
20.48511 7.03348 4.00000
20.57507 7.03348 4.00000
20.66503 7.03348 4.00000
20.75500 7.03348 4.00000
20.84497 7.03348 4.00000
20.93496 7.03348 4.00000
21.02494 7.03347 4.00000
21.11492 7.03348 4.00000
21.20492 7.03348 4.00000
21.29491 7.03348 4.00000
21.38492 7.03348 4.00000
21.47492 7.03348 4.00000
21.56493 7.03348 4.00000
21.65494 7.03348 4.00000
21.74496 7.03348 4.00000
21.83498 7.03348 4.00000
21.92500 7.03348 4.00000
22.01503 7.03348 4.00000
22.10507 7.03348 4.00000
22.19510 7.03348 4.00000
22.28515 7.03348 4.00000
22.37519 7.03348 4.00000
22.46524 7.03348 4.00000
22.55530 7.03348 4.00000
22.64536 7.03348 4.00000
22.73542 7.03348 4.00000
22.82548 7.03348 4.00000
22.91556 7.03348 4.00000
23.00563 7.03348 4.00000
23.09571 7.03348 4.00000
23.18579 7.03348 4.00000
23.27588 7.03348 4.00000
23.36597 7.03348 4.00000
23.45607 7.03348 4.00000
23.54617 7.03348 4.00000
23.63628 7.03348 4.00000
23.72638 7.03348 4.00000
23.81649 7.03348 4.00000
23.90661 7.03348 4.00000
23.99673 7.03348 4.00000
24.08685 7.03348 4.00000
24.17697 7.03348 4.00000
24.26710 7.03348 4.00000
24.35723 7.03348 4.00000
24.44737 7.03348 4.00000
24.53750 7.03348 4.00000
24.62765 7.03348 4.00000
24.71779 7.03348 4.00000
24.80794 7.03348 4.00000
24.89809 7.03348 4.00000
24.98824 7.03348 4.00000
25.07840 7.03348 4.00000
25.16856 7.03348 4.00000
25.25872 7.03348 4.00000
25.34888 7.03348 4.00000
25.43905 7.03348 4.00000
25.52922 7.03348 4.00000
25.61939 7.03348 4.00000
25.70957 7.03348 4.00000
25.79975 7.03348 4.00000
25.88993 7.03348 4.00000
25.98010 7.03348 4.00000
26.07029 7.03348 4.00000
26.16047 7.03348 4.00000
26.25066 7.03348 4.00000
26.34085 7.03348 4.00000
26.43104 7.03348 4.00000
26.52123 7.03348 4.00000
26.61143 7.03348 4.00000
26.70163 7.03348 4.00000
26.79183 7.03348 4.00000
26.88202 7.03350 4.00000
26.97225 7.03348 4.00000
27.06246 7.03348 4.00000
27.15267 7.03348 4.00000
27.24287 7.03349 4.00000
27.33311 7.03348 4.00000
27.42331 7.03349 4.00000
27.51356 7.03348 4.00000
27.60379 7.03347 4.00000
27.69401 7.03348 4.00000
27.78424 7.03347 4.00000
27.87447 7.03348 4.00000
27.96469 7.03349 4.00000
28.05494 7.03348 4.00000
28.14517 7.03348 4.00000
28.23541 7.03348 4.00000
28.32565 7.03348 4.00000
28.41590 7.03348 4.00000
28.50614 7.03348 4.00000
28.59639 7.03348 4.00000
28.68664 7.03348 4.00000
28.77689 7.03348 4.00000
28.86714 7.03348 4.00000
28.95739 7.03348 4.00000
29.04766 7.03348 4.00000
29.13792 7.03348 4.00000
29.22819 7.03348 4.00000
29.31846 7.03348 4.00000
29.40872 7.03348 4.00000
29.49900 7.03348 4.00000
29.58927 7.03348 4.00000
29.67954 7.03348 4.00000
29.76982 7.03348 4.00000
29.86009 7.03348 4.00000
29.95037 7.03348 4.00000
30.04065 7.03348 4.00000

Angle 0.321371 0.702051

4.00000 7.03348 4.00000
4.00000 7.03348 4.00000
4.00000 7.03348 4.00000
4.00000 7.03348 4.00000
4.00000 7.03348 4.00000
4.00000 7.03348 4.00000
4.00000 7.03348 4.00000
4.00000 7.03348 4.00000
4.00000 7.03348 4.00000
4.00000 7.03348 4.00000
4.00000 7.03348 4.00000
4.00000 7.03348 4.00000
4.00000 7.03348 4.00000
4.00000 7.03348 4.00000
4.00000 7.03348 4.00000
4.00000 7.03348 4.00000
4.00000 7.03348 4.00000
4.00000 7.03348 4.00000
4.00000 7.03348 4.00000
4.00000 7.03348 4.00000
4.00000 7.03348 4.00000
4.00000 7.03348 4.00000
4.00000 7.03348 4.00000
4.00000 7.03348 4.00000
4.00000 7.03348 4.00000
4.00000 7.03348 4.00000
3.99999 7.03345 3.99999
3.99999 7.03345 3.99999
3.99999 7.03344 4.00000
3.99999 7.03344 4.00000
3.99999 7.03344 4.00000
4.00000 7.03348 4.00000
4.00000 7.03348 4.00000
4.00000 7.03348 4.00000
4.00000 7.03346 4.00000
4.00000 7.03348 4.00000
4.00000 7.03348 4.00000
4.00000 7.03347 4.00000
4.00000 7.03348 4.00000
4.00000 7.03348 4.00000
4.00000 7.03348 4.00000
4.00000 7.03348 4.00000
4.00000 7.03349 4.00000
4.00000 7.03350 4.00000
4.00000 7.03350 4.00000
4.00000 7.03348 4.00000
4.00000 7.03348 4.00000
4.00000 7.03348 4.00000
4.00000 7.03348 4.00000
4.00000 7.03347 4.00000
4.00000 7.03348 4.00000
4.00000 7.03348 4.00000
4.00000 7.03348 4.00000
4.00000 7.03348 4.00000
4.00000 7.03348 4.00000
4.00000 7.03348 4.00000
4.00000 7.03348 4.00000
4.00000 7.03349 4.00000
4.00000 7.03348 4.00000
4.00000 7.03347 4.00000
4.00000 7.03348 4.00000
4.00311 7.08152 4.00311
4.00761 7.15197 4.00761
4.01206 7.22270 4.01205
4.01647 7.29366 4.01646
4.02085 7.36482 4.02085
4.02523 7.43612 4.02523
4.02962 7.50754 4.02962
4.03402 7.57902 4.03402
4.03847 7.65052 4.03847
4.04297 7.72199 4.04297
4.04754 7.79338 4.04754
4.05220 7.86463 4.05220
4.05698 7.93569 4.05698
4.06189 8.00649 4.06189
4.06698 8.07694 4.06698
4.07226 8.14698 4.07226
4.07778 8.21650 4.07778
4.08358 8.28539 4.08358
4.08970 8.35353 4.08970
4.09621 8.42078 4.09621
4.10316 8.48696 4.10316
4.11065 8.55188 4.11065
4.11876 8.61531 4.11876
4.12759 8.67700 4.12759
4.13712 8.73703 4.13712
4.14733 8.79546 4.14733
4.15826 8.85224 4.15826
4.16995 8.90728 4.16995
4.18241 8.96055 4.18241
4.19568 9.01200 4.19568
4.20978 9.06158 4.20978
4.22474 9.10927 4.22474
4.24057 9.15505 4.24057
4.25728 9.19891 4.25728
4.27490 9.24085 4.27490
4.29342 9.28084 4.29342
4.31287 9.31890 4.31287
4.33325 9.35500 4.33325
4.35459 9.38913 4.35459
4.37690 9.42125 4.37689
4.40021 9.45131 4.40021
4.42456 9.47925 4.42456
4.45000 9.50495 4.45000
4.47660 9.52827 4.47660
4.50445 9.54903 4.50445
4.53364 9.56702 4.53364
4.56430 9.58195 4.56430
4.59657 9.59351 4.59657
4.63064 9.60136 4.63060
4.66660 9.60518 4.66660
7.40772 7.50566 4.02950
7.56744 7.43042 4.02488
7.70796 7.37410 4.02142
7.83652 7.32960 4.01868
7.95686 7.29325 4.01644
8.07118 7.26290 4.01456
8.18089 7.23715 4.01296
8.28699 7.21503 4.01158
8.39017 7.19585 4.01037
8.49095 7.17911 4.00932
8.58974 7.16439 4.00839
8.68686 7.15139 4.00757
8.78256 7.13985 4.00684
8.87705 7.12959 4.00619
8.97050 7.12040 4.00560
9.06303 7.11220 4.00508
9.15479 7.10482 4.00461
9.24585 7.09820 4.00418
9.33632 7.09222 4.00380
9.42625 7.08684 4.00346
9.51573 7.08197 4.00314
9.60479 7.07757 4.00286
9.69350 7.07359 4.00260
9.78190 7.06998 4.00237
9.87001 7.06670 4.00216
9.95789 7.06373 4.00197
10.04554 7.06103 4.00179
10.13301 7.05858 4.00163
10.22031 7.05635 4.00149
10.30747 7.05432 4.00136
10.39449 7.05248 4.00124
10.48142 7.05080 4.00113
10.56824 7.04927 4.00103
10.65499 7.04788 4.00094
10.74166 7.04661 4.00085
10.82827 7.04546 4.00078
10.91484 7.04440 4.00071
11.00137 7.04344 4.00065
11.08785 7.04257 4.00059
11.17432 7.04177 4.00054
11.26077 7.04104 4.00049
11.34720 7.04037 4.00045
11.43362 7.03977 4.00041
11.52004 7.03922 4.00037
11.60646 7.03871 4.00034
11.69287 7.03825 4.00031
11.77930 7.03783 4.00028
11.86573 7.03745 4.00026
11.95219 7.03710 4.00024
12.03865 7.03678 4.00022
12.12513 7.03649 4.00020
12.21162 7.03623 4.00018
12.29814 7.03599 4.00016
12.38468 7.03577 4.00015
12.47123 7.03557 4.00014
12.55782 7.03538 4.00012
12.64443 7.03521 4.00011
12.73106 7.03506 4.00010
12.81772 7.03492 4.00010
12.90440 7.03480 4.00008
12.99111 7.03468 4.00008
13.07786 7.03457 4.00007
13.16464 7.03448 4.00007
13.25145 7.03439 4.00006
13.33829 7.03431 4.00005
13.42516 7.03423 4.00005
13.51206 7.03417 4.00005
13.59899 7.03411 4.00004
13.68596 7.03405 4.00004
13.77295 7.03400 4.00003
13.85998 7.03396 4.00003
13.94703 7.03392 4.00003
14.03412 7.03388 4.00003
14.12123 7.03384 4.00002
14.20838 7.03381 4.00002
14.29555 7.03378 4.00002
14.38275 7.03375 4.00002
14.46998 7.03373 4.00002
14.55724 7.03371 4.00001
14.64453 7.03369 4.00001
14.73185 7.03367 4.00001
14.81919 7.03365 4.00001
14.90655 7.03363 4.00001
14.99395 7.03362 4.00001
15.08137 7.03361 4.00001
15.16882 7.03359 4.00001
15.25629 7.03358 4.00001
15.34379 7.03357 4.00001
15.43130 7.03357 4.00001
15.51815 7.03356 4.00001
15.60569 7.03355 4.00000
15.69326 7.03355 4.00000
15.78086 7.03354 4.00000
15.86848 7.03353 4.00000
15.95613 7.03353 4.00000
16.04380 7.03353 4.00000
16.13149 7.03352 4.00000
16.21921 7.03352 4.00000
16.30695 7.03352 4.00000
16.39471 7.03351 4.00000
16.48250 7.03351 4.00000
16.57031 7.03351 4.00000
16.65814 7.03350 4.00000
16.74600 7.03350 4.00000
16.83387 7.03350 4.00000
16.92177 7.03350 4.00000
17.00969 7.03350 4.00000
17.09764 7.03349 4.00000
17.18560 7.03349 4.00000
17.27358 7.03349 4.00000
17.36158 7.03349 4.00000
17.44959 7.03349 4.00000
17.53763 7.03349 4.00000
17.62568 7.03349 4.00000
17.71375 7.03349 4.00000
17.80184 7.03349 4.00000
17.88995 7.03349 4.00000
17.97808 7.03349 4.00000
18.06623 7.03349 4.00000
18.15439 7.03348 4.00000
18.24257 7.03348 4.00000
18.33077 7.03348 4.00000
18.41898 7.03348 4.00000
18.50721 7.03348 4.00000
18.59546 7.03348 4.00000
18.68373 7.03348 4.00000
18.77201 7.03348 4.00000
18.86031 7.03348 4.00000
18.94862 7.03348 4.00000
19.03695 7.03348 4.00000
19.12530 7.03348 4.00000
19.21367 7.03347 4.00000
19.30204 7.03348 4.00000
19.39045 7.03347 4.00000
19.47885 7.03348 4.00000
19.56727 7.03348 4.00000
19.65571 7.03348 4.00000
19.74416 7.03348 4.00000
19.83262 7.03348 4.00000
19.92111 7.03347 4.00000
20.00960 7.03348 4.00000
20.09810 7.03348 4.00000
20.18662 7.03348 4.00000
20.27516 7.03348 4.00000
20.36370 7.03348 4.00000
20.45227 7.03348 4.00000
20.54084 7.03348 4.00000
20.62943 7.03348 4.00000
20.71802 7.03348 4.00000
20.80663 7.03348 4.00000
20.89526 7.03348 4.00000
20.98390 7.03348 4.00000
21.07254 7.03348 4.00000
21.16121 7.03348 4.00000
21.24988 7.03348 4.00000
21.33857 7.03348 4.00000
21.42727 7.03348 4.00000
21.51597 7.03348 4.00000
21.60470 7.03348 4.00000
21.69343 7.03348 4.00000
21.78218 7.03348 4.00000
21.87093 7.03348 4.00000
21.95970 7.03348 4.00000
22.04848 7.03348 4.00000
22.13727 7.03348 4.00000
22.22607 7.03348 4.00000
22.31489 7.03348 4.00000
22.40372 7.03348 4.00000
22.49256 7.03347 4.00000
22.58140 7.03348 4.00000
22.67026 7.03348 4.00000
22.75913 7.03348 4.00000
22.84801 7.03348 4.00000
22.93691 7.03348 4.00000
23.02581 7.03348 4.00000
23.11473 7.03348 4.00000
23.20365 7.03348 4.00000
23.29259 7.03348 4.00000
23.38153 7.03348 4.00000
23.47048 7.03348 4.00000
23.55945 7.03348 4.00000
23.64842 7.03348 4.00000
23.73740 7.03348 4.00000
23.82639 7.03348 4.00000
23.91540 7.03348 4.00000
24.00441 7.03348 4.00000
24.09343 7.03348 4.00000
24.18245 7.03348 4.00000
24.27149 7.03348 4.00000
24.36054 7.03348 4.00000
24.44959 7.03348 4.00000
24.53866 7.03348 4.00000
24.62773 7.03348 4.00000
24.71681 7.03348 4.00000
24.80590 7.03348 4.00000
24.89500 7.03348 4.00000
24.98410 7.03348 4.00000
25.07322 7.03348 4.00000
25.16234 7.03348 4.00000
25.25148 7.03348 4.00000
25.34062 7.03348 4.00000
25.42977 7.03348 4.00000
25.51893 7.03348 4.00000
25.60809 7.03348 4.00000
25.69727 7.03348 4.00000
25.78645 7.03348 4.00000
25.87564 7.03348 4.00000
25.96484 7.03348 4.00000
26.05405 7.03348 4.00000
26.14327 7.03348 4.00000
26.23249 7.03348 4.00000
26.32172 7.03348 4.00000
26.41096 7.03348 4.00000
26.50021 7.03348 4.00000
26.58946 7.03348 4.00000
26.67873 7.03348 4.00000
26.76800 7.03348 4.00000
26.85728 7.03348 4.00000
26.94656 7.03348 4.00000
27.03586 7.03348 4.00000
27.12516 7.03348 4.00000
27.21447 7.03348 4.00000
27.30378 7.03348 4.00000
27.39311 7.03348 4.00000
27.48241 7.03349 4.00000
27.57173 7.03349 4.00000
27.66108 7.03348 4.00000
27.75041 7.03349 4.00000
27.83975 7.03349 4.00000
27.92912 7.03348 4.00000
28.01848 7.03348 4.00000
28.10784 7.03349 4.00000
28.19721 7.03349 4.00000
28.28660 7.03349 4.00000
28.37600 7.03348 4.00000
28.46539 7.03348 4.00000
28.55480 7.03348 4.00000
28.64421 7.03348 4.00000
28.73362 7.03348 4.00000
28.82305 7.03348 4.00000
28.91248 7.03348 4.00000
29.00191 7.03348 4.00000
29.09136 7.03348 4.00000
29.18081 7.03348 4.00000
29.27027 7.03348 4.00000
29.35974 7.03348 4.00000
29.44921 7.03348 4.00000
29.53869 7.03348 4.00000
29.62817 7.03348 4.00000
29.71769 7.03348 4.00000
29.80718 7.03348 4.00000
29.89670 7.03348 4.00000
29.98621 7.03348 4.00000
30.07574 7.03348 4.00000
30.16528 7.03348 4.00000
30.25483 7.03348 4.00000
30.34438 7.03348 4.00000
30.43394 7.03348 4.00000
30.52350 7.03348 4.00000
30.61308 7.03348 4.00000
30.70265 7.03348 4.00000
30.79222 7.03348 4.00000
30.88181 7.03348 4.00000
30.97140 7.03348 4.00000
31.06101 7.03348 4.00000
31.15062 7.03348 4.00000
31.24025 7.03348 4.00000
31.32987 7.03348 4.00000
31.41951 7.03348 4.00000
31.50916 7.03348 4.00000
31.59880 7.03348 4.00000
31.68846 7.03348 4.00000
31.77811 7.03348 4.00000
31.86777 7.03348 4.00000
31.95745 7.03348 4.00000
32.04712 7.03348 4.00000
32.13681 7.03348 4.00000
32.22648 7.03348 4.00000
32.31616 7.03348 4.00000
32.40586 7.03348 4.00000
32.49556 7.03348 4.00000
32.58526 7.03348 4.00000
32.67497 7.03348 4.00000
32.76468 7.03348 4.00000
32.85440 7.03348 4.00000
32.94412 7.03348 4.00000
33.03385 7.03348 4.00000
33.12357 7.03348 4.00000
33.21331 7.03348 4.00000

Angle 0.025365 5.118587

4.00000 7.03348 4.00000
4.00000 7.03347 4.00000
4.00000 7.03348 4.00000
4.00000 7.03348 4.00000
4.00000 7.03348 4.00000
4.00000 7.03348 4.00000
4.00000 7.03348 4.00000
4.00000 7.03348 4.00000
4.00000 7.03348 4.00000
4.00000 7.03348 4.00000
4.00000 7.03348 4.00000
4.00000 7.03348 4.00000
4.00000 7.03348 4.00000
4.00000 7.03348 4.00000
4.00000 7.03348 4.00000
4.00000 7.03348 4.00000
4.00000 7.03348 4.00000
4.00000 7.03348 4.00000
4.00000 7.03348 4.00000
4.00000 7.03348 4.00000
4.00000 7.03348 4.00000
4.00000 7.03348 4.00000
4.00000 7.03348 4.00000
4.00000 7.03348 4.00000
4.00000 7.03348 4.00000
4.00000 7.03348 4.00000
4.00000 7.03348 4.00000
4.00000 7.03348 4.00000
4.00000 7.03346 4.00000
4.00000 7.03346 4.00000
4.00000 7.03347 4.00000
4.00000 7.03348 4.00000
4.00000 7.03348 4.00000
4.00000 7.03348 4.00000
4.00000 7.03348 4.00000
4.00000 7.03348 4.00000
4.00000 7.03348 4.00000
4.00000 7.03348 4.00000
4.00000 7.03348 4.00000
4.00000 7.03348 4.00000
4.00000 7.03348 4.00000
4.00000 7.03348 4.00000
4.00000 7.03348 4.00000
4.00000 7.03347 4.00000
4.00000 7.03348 4.00000
4.00000 7.03348 4.00000
4.00000 7.03348 4.00000
4.00000 7.03347 4.00000
4.00000 7.03348 4.00000
4.00000 7.03348 4.00000
4.00000 7.03348 4.00000
4.00000 7.03348 4.00000
4.00000 7.03348 4.00000
4.00000 7.03348 4.00000
4.00000 7.03348 4.00000
4.00000 7.03348 4.00000
4.00000 7.03348 4.00000
4.00000 7.03348 4.00000
4.00000 7.03348 4.00000
4.00000 7.03348 4.00000
4.00000 7.03348 4.00000
4.00000 7.03348 4.00000
4.00000 7.03347 4.00000
4.00000 7.03348 4.00000
4.00000 7.03348 4.00000
4.00000 7.03348 4.00000
4.00000 7.03348 4.00000
4.00000 7.03348 4.00000
4.00000 7.03348 4.00000
4.00000 7.03347 4.00000
4.00000 7.03348 4.00000
4.00000 7.03348 4.00000
4.00000 7.03348 4.00000
4.00000 7.03349 4.00000
4.00000 7.03348 4.00000
4.00000 7.03348 4.00000
4.00000 7.03348 4.00000
4.00000 7.03349 4.00000
4.00000 7.03348 4.00000
4.00000 7.03348 4.00000
4.00000 7.03348 4.00000
4.00000 7.03348 4.00000
4.00306 7.08075 4.00306
4.00669 7.13743 4.00669
4.01029 7.19447 4.01029
4.01387 7.25185 4.01387
4.01745 7.30955 4.01745
4.02102 7.36753 4.02102
4.02460 7.42579 4.02460
4.02819 7.48429 4.02819
4.03180 7.54301 4.03180
4.03544 7.60192 4.03544
4.03912 7.66098 4.03912
4.04285 7.72018 4.04285
4.04664 7.77947 4.04664
4.05050 7.83883 4.05050
4.05444 7.89821 4.05444
4.05848 7.95759 4.05848
4.06263 8.01690 4.06263
4.06691 8.07610 4.06691
4.07135 8.13514 4.07135
4.07596 8.19396 4.07595
4.08076 8.25249 4.08076
4.08580 8.31064 4.08580
4.09109 8.36835 4.09109
4.09668 8.42550 4.09668
4.10262 8.48198 4.10262
4.10895 8.53767 4.10895
4.11573 8.59242 4.11573
4.12303 8.64605 4.12303
4.13089 8.69847 4.13089
4.13927 8.74981 4.13927
4.14818 8.80005 4.14818
4.15764 8.84913 4.15764
4.16768 8.89701 4.16768
4.17832 8.94364 4.17832
4.18958 8.98899 4.18958
4.20149 9.03301 4.20149
4.21405 9.07567 4.21405
4.22729 9.11696 4.22729
4.24122 9.15686 4.24123
4.25586 9.19534 4.25586
4.27120 9.23239 4.27120
4.28728 9.26801 4.28728
4.30408 9.30218 4.30408
4.32164 9.33488 4.32164
4.33995 9.36611 4.33995
4.35904 9.39583 4.35904
4.37893 9.42401 4.37893
4.39963 9.45061 4.39963
4.42118 9.47557 4.42117
4.44361 9.49881 4.44360
4.46697 9.52023 4.46697
4.49132 9.53970 4.49133
4.51674 9.55707 4.51674
4.54330 9.57215 4.54330
4.57111 9.58473 4.57111
4.60027 9.59458 4.60027
4.63090 9.60142 4.63092
4.66314 9.60500 4.66314
7.37323 7.52365 4.03061
7.52286 7.45015 4.02609
7.65439 7.39455 4.02268
7.77453 7.35028 4.01996
7.88687 7.31381 4.01771
7.99348 7.28312 4.01581
8.09570 7.25688 4.01418
8.19445 7.23418 4.01277
8.29042 7.21436 4.01153
8.38409 7.19693 4.01044
8.47588 7.18150 4.00947
8.56606 7.16778 4.00861
8.65488 7.15552 4.00783
8.74255 7.14453 4.00714
8.82921 7.13465 4.00651
8.91502 7.12574 4.00594
9.00009 7.11769 4.00543
9.08451 7.11040 4.00497
9.16836 7.10379 4.00454
9.25171 7.09780 4.00416
9.33466 7.09233 4.00381
9.41719 7.08738 4.00349
9.49941 7.08286 4.00320
9.58137 7.07871 4.00293
9.66310 7.07491 4.00269
9.74459 7.07146 4.00246
9.82589 7.06830 4.00226
9.90704 7.06541 4.00207
9.98808 7.06274 4.00190
10.06896 7.06034 4.00174
10.14975 7.05813 4.00160
10.23047 7.05610 4.00147
10.31111 7.05425 4.00135
10.39172 7.05254 4.00124
10.47229 7.05097 4.00114
10.55283 7.04953 4.00104
10.63336 7.04821 4.00096
10.71386 7.04700 4.00088
10.79440 7.04588 4.00080
10.87490 7.04487 4.00074
10.95548 7.04390 4.00068
11.03599 7.04308 4.00063
11.11657 7.04229 4.00057
11.19718 7.04157 4.00053
11.27780 7.04093 4.00048
11.35850 7.04029 4.00044
11.43923 7.03973 4.00041
11.51999 7.03922 4.00037
11.60080 7.03874 4.00034
11.68167 7.03831 4.00032
11.76258 7.03791 4.00029
11.84357 7.03752 4.00026
11.92460 7.03719 4.00024
12.00564 7.03690 4.00022
12.08677 7.03662 4.00020
12.16797 7.03636 4.00019
12.24923 7.03612 4.00017
12.33054 7.03590 4.00016
12.41192 7.03570 4.00015
12.49335 7.03552 4.00013
12.57484 7.03535 4.00012
12.65641 7.03519 4.00011
12.73803 7.03505 4.00010
12.81972 7.03492 4.00010
12.90147 7.03480 4.00009
12.98328 7.03469 4.00008
13.06517 7.03459 4.00007
13.14711 7.03450 4.00007
13.22910 7.03441 4.00006
13.31117 7.03433 4.00006
13.39330 7.03426 4.00005
13.47549 7.03420 4.00005
13.55774 7.03415 4.00005
13.64005 7.03408 4.00004
13.72243 7.03403 4.00004
13.80488 7.03399 4.00003
13.88736 7.03394 4.00003
13.96992 7.03391 4.00003
14.05254 7.03389 4.00003
14.13519 7.03384 4.00002
14.21793 7.03380 4.00002
14.30072 7.03378 4.00002
14.38358 7.03375 4.00002
14.46649 7.03373 4.00002
14.54947 7.03371 4.00002
14.63251 7.03369 4.00001
14.71560 7.03367 4.00001
14.79875 7.03366 4.00001
14.88196 7.03364 4.00001
14.96522 7.03363 4.00001
15.04855 7.03361 4.00001
15.13192 7.03360 4.00001
15.21535 7.03359 4.00001
15.29884 7.03358 4.00001
15.38237 7.03357 4.00001
15.46596 7.03356 4.00001
15.54961 7.03356 4.00001
15.63330 7.03355 4.00000
15.71704 7.03354 4.00000
15.80084 7.03354 4.00000
15.88468 7.03353 4.00000
15.96858 7.03353 4.00000
16.05252 7.03353 4.00000
16.13651 7.03352 4.00000
16.22055 7.03352 4.00000
16.30463 7.03351 4.00000
16.38876 7.03351 4.00000
16.47294 7.03351 4.00000
16.55716 7.03351 4.00000
16.64142 7.03350 4.00000
16.72574 7.03350 4.00000
16.81009 7.03350 4.00000
16.89449 7.03350 4.00000
16.97893 7.03350 4.00000
17.06341 7.03350 4.00000
17.14794 7.03349 4.00000
17.23250 7.03349 4.00000
17.31711 7.03349 4.00000
17.40176 7.03349 4.00000
17.48645 7.03349 4.00000
17.57117 7.03349 4.00000
17.65594 7.03349 4.00000
17.74075 7.03349 4.00000
17.82559 7.03349 4.00000
17.91047 7.03349 4.00000
17.99539 7.03349 4.00000
18.08035 7.03349 4.00000
18.16534 7.03348 4.00000
18.25037 7.03348 4.00000
18.33544 7.03348 4.00000
18.42054 7.03348 4.00000
18.50567 7.03348 4.00000
18.59084 7.03348 4.00000
18.67605 7.03348 4.00000
18.76128 7.03348 4.00000
18.84656 7.03348 4.00000
18.93186 7.03348 4.00000
19.01720 7.03348 4.00000
19.10258 7.03348 4.00000
19.18798 7.03348 4.00000
19.27341 7.03348 4.00000
19.35888 7.03348 4.00000
19.44437 7.03348 4.00000
19.52991 7.03347 4.00000
19.61546 7.03348 4.00000
19.70105 7.03348 4.00000
19.78667 7.03348 4.00000
19.87232 7.03348 4.00000
19.95800 7.03347 4.00000
20.04370 7.03348 4.00000
20.12944 7.03348 4.00000
20.21521 7.03348 4.00000
20.30100 7.03348 4.00000
20.38682 7.03348 4.00000
20.47267 7.03348 4.00000
20.55855 7.03348 4.00000
20.64445 7.03348 4.00000
20.73038 7.03348 4.00000
20.81634 7.03348 4.00000
20.90232 7.03348 4.00000
20.98834 7.03348 4.00000
21.07437 7.03348 4.00000
21.16043 7.03348 4.00000
21.24651 7.03348 4.00000
21.33263 7.03348 4.00000
21.41876 7.03348 4.00000
21.50492 7.03348 4.00000
21.59110 7.03348 4.00000
21.67730 7.03348 4.00000
21.76352 7.03348 4.00000
21.84977 7.03348 4.00000
21.93603 7.03348 4.00000
22.02232 7.03348 4.00000
22.10864 7.03348 4.00000
22.19497 7.03348 4.00000
22.28133 7.03348 4.00000
22.36772 7.03348 4.00000
22.45412 7.03348 4.00000
22.54054 7.03348 4.00000
22.62699 7.03348 4.00000
22.71346 7.03348 4.00000
22.79995 7.03348 4.00000
22.88646 7.03348 4.00000
22.97300 7.03348 4.00000
23.05955 7.03348 4.00000
23.14613 7.03348 4.00000
23.23272 7.03348 4.00000
23.31934 7.03348 4.00000
23.40598 7.03348 4.00000
23.49263 7.03348 4.00000
23.57931 7.03348 4.00000
23.66601 7.03348 4.00000
23.75273 7.03348 4.00000
23.83947 7.03348 4.00000
23.92622 7.03348 4.00000
24.01300 7.03348 4.00000
24.09980 7.03348 4.00000
24.18661 7.03348 4.00000
24.27345 7.03348 4.00000
24.36030 7.03348 4.00000
24.44717 7.03348 4.00000
24.53407 7.03348 4.00000
24.62098 7.03348 4.00000
24.70791 7.03348 4.00000
24.79486 7.03348 4.00000
24.88182 7.03348 4.00000
24.96881 7.03348 4.00000
25.05582 7.03348 4.00000
25.14284 7.03348 4.00000
25.22988 7.03348 4.00000
25.31695 7.03348 4.00000
25.40403 7.03348 4.00000
25.49112 7.03348 4.00000
25.57824 7.03348 4.00000
25.66538 7.03348 4.00000
25.75253 7.03348 4.00000
25.83970 7.03348 4.00000
25.92690 7.03348 4.00000
26.01411 7.03348 4.00000
26.10134 7.03348 4.00000
26.18858 7.03348 4.00000
26.27585 7.03348 4.00000
26.36314 7.03348 4.00000
26.45044 7.03348 4.00000
26.53777 7.03348 4.00000
26.62511 7.03348 4.00000
26.71247 7.03348 4.00000
26.79985 7.03348 4.00000
26.88726 7.03348 4.00000
26.97468 7.03348 4.00000
27.06211 7.03348 4.00000
27.14956 7.03349 4.00000
27.23704 7.03348 4.00000
27.32454 7.03348 4.00000
27.41204 7.03349 4.00000
27.49958 7.03348 4.00000
27.58714 7.03348 4.00000
27.67471 7.03348 4.00000
27.76231 7.03348 4.00000
27.84993 7.03348 4.00000
27.93756 7.03348 4.00000
28.02522 7.03348 4.00000
28.11289 7.03348 4.00000
28.20059 7.03348 4.00000
28.28831 7.03348 4.00000
28.37605 7.03348 4.00000
28.46380 7.03348 4.00000
28.55158 7.03348 4.00000
28.63938 7.03348 4.00000
28.72720 7.03348 4.00000
28.81504 7.03348 4.00000
28.90290 7.03348 4.00000
28.99078 7.03348 4.00000
29.07869 7.03348 4.00000
29.16661 7.03348 4.00000
29.25455 7.03348 4.00000
29.34252 7.03348 4.00000
29.43050 7.03348 4.00000
29.51851 7.03348 4.00000
29.60653 7.03348 4.00000

