0.6712
0.6724
0.6735
0.6745
0.6755
0.6764
0.6773
0.6781
0.6788
0.6794
0.6800
0.6806
0.6811
0.6815
0.6820
0.6824
0.6829
0.6835
0.6842
0.6850
0.6859
0.6869
0.6879
0.6890
0.6902
0.6916
0.6931
0.6947
0.6965
0.6985
0.7008
0.7037
0.7069
0.7106
0.7156
0.7222
0.7221
0.7221
0.7220
0.7220
0.7220
0.7221
0.7221
0.7223
0.7226
0.7231
0.7242
0.7256
0.7277
0.7301
0.7327
0.7354
0.7377
0.7397
0.7414
0.7413
0.7393
0.7359
0.7300
0.7223
0.7138
0.7037
0.6944
0.6846
0.6756
0.6678
0.6610
0.6552
0.6506
0.6467
0.6435
0.6409
0.6389
0.6372
0.6359
0.6350
0.6342
0.6337
0.6333
0.6331
0.6330
0.6331
0.6334
0.6343
0.6360
0.6330
0.6317
0.6305
0.6277
0.6251
0.6249
0.6248
0.6247
0.6248
0.6249
0.6251
0.6254
0.6259
0.6266
0.6270
0.6270
0.6271
0.6272
0.6274
0.6276
0.6278
0.6280
0.6283
0.6286
0.6290
0.6294
0.6298
0.6302
0.6307
0.6312
0.6317
0.6322
0.6328
0.6334
0.6340
0.6347
0.6353
0.6360
0.6367
0.6374
0.6382
0.6389
0.6397
0.6405
0.6413
0.6421
0.6430
0.6438
0.6446
0.6455
0.6464
0.6473
0.6483
0.6493
0.6504
0.6516
0.6510
0.6534
0.6558
0.6583
0.6608
0.6634
0.6660
0.6686
0.6713
0.6741
0.6769
0.6797
0.6826
0.6855
0.6885
0.6915
0.6946
0.6977
0.7008
0.7041
0.7073
0.7106
0.7140
0.7174
0.7209
0.7244
0.7280
0.7317
0.7354
0.7392
0.7430
0.7469
0.7509
0.7550
0.7592
0.7634
0.7678
0.7722
0.7768
0.7815
0.7863
0.7913
0.7966
0.8020
0.8078
0.8141
0.8212
0.8299
0.8416
0.8442
0.8468
0.8495
0.8522
0.8549
0.8577
0.8605
0.8633
0.8662
0.8692
0.8723
0.8757
0.8788
0.8820
0.8848
0.8872
0.8894
0.8915
0.8936
0.8958
0.8985
0.8995
0.9003
0.9011
0.9019
0.9027
0.9035
0.9042
0.9050
0.9057
0.9065
0.9072
0.9079
0.9087
0.9093
0.9100
0.9109
0.9113
0.9118
0.9128
0.9132
0.9137
0.9148
0.9152
0.9157
0.9162
0.9173
0.9178
0.9183
0.9187
0.9192
0.9197
0.9215
0.9207
0.9212
0.9216
0.9236
0.9240
0.9244
0.9248
0.9252
0.9257
0.9261
0.9265
0.9269
0.9274
0.9278
0.9283
0.9288
0.9291
0.9296
0.9300
0.9305
0.9310
0.9314
0.9319
0.9324
0.9328
0.9332
0.9337
0.9341
0.9346
0.9346
0.9350
0.9355
0.9359
0.9363
0.9367
0.9372
0.9376
0.9380
0.9384
0.9388
0.9392
0.9396
0.9400
0.9404
0.9408
0.9411
0.9415
0.9419
0.9423
0.9426
0.9430
0.9433
0.9437
0.9441
0.9444
0.9448
0.9452
0.9455
0.9458
0.9461
0.9464
0.9469
0.9472
0.9475
0.9479
0.9482
0.9484
0.9487
0.9490
0.9494
0.9497
0.9500
0.9502
0.9505
0.9508
0.9510
0.9513
0.9515
0.9518
0.9520
0.9523
0.9525
0.9528
0.9530
0.9533
0.9535
0.9538
0.9541
0.9543
0.9546
0.9549
0.9551
0.9554
0.9556
0.9559
0.9561
0.9564
0.9567
0.9569
0.9572
0.9575
0.9577
0.9580
0.9583
0.9585
0.9588
0.9590
0.9593
0.9595
0.9598
0.9600
0.9603
0.9605
0.9607
0.9610
0.9612
0.9615
0.9617
0.9619
0.9622
0.9624
0.9626
0.9629
0.9631
0.9633
0.9635
0.9638
0.9640
0.9642
0.9644
0.9647
0.9649
0.9651
0.9653
0.9655
0.9658
0.9660
0.9662
0.9664
0.9666
0.9668
0.9670
0.9672
0.9674
0.9676
0.9678
0.9680
0.9682
0.9684
0.9686
0.9688
0.9690
0.9692
0.9694
0.9696
0.9698
0.9699
