0.3730
0.3720
0.3712
0.3705
0.3699
0.3694
0.3691
0.3689
0.3689
0.3690
0.3692
0.3696
0.3701
0.3708
0.3717
0.3727
0.3740
0.3755
0.3772
0.3791
0.3811
0.3834
0.3859
0.3885
0.3913
0.3945
0.3980
0.4021
0.4066
0.4087
0.4108
0.4131
0.4155
0.4180
0.4207
0.4234
0.4263
0.4293
0.4324
0.4357
0.4391
0.4427
0.4465
0.4505
0.4548
0.4596
0.4623
0.4661
0.4700
0.4741
0.4783
0.4827
0.4870
0.4916
0.4963
0.5012
0.5064
0.5120
0.5180
0.5243
0.5309
0.5380
0.5449
0.5514
0.5569
0.5609
0.5634
0.5647
0.5636
0.5603
0.5552
0.5486
0.5416
0.5346
0.5281
0.5229
0.5189
0.5165
0.5155
0.5156
0.5168
0.5189
0.5217
0.5251
0.5290
0.5332
0.5374
0.5417
0.5459
0.5501
0.5542
0.5578
0.5602
0.5641
0.5701
0.5764
0.5831
0.5904
0.5987
0.6116
0.6151
0.6186
0.6222
0.6258
0.6294
0.6331
0.6368
0.6405
0.6443
0.6480
0.6518
0.6556
0.6594
0.6633
0.6671
0.6710
0.6748
0.6787
0.6825
0.6864
0.6903
0.6941
0.6980
0.7019
0.7057
0.7096
0.7134
0.7173
0.7211
0.7250
0.7288
0.7327
0.7365
0.7403
0.7441
0.7479
0.7518
0.7556
0.7594
0.7633
0.7672
0.7711
0.7752
0.7794
0.7838
0.7885
0.7937
0.7997
0.8066
0.8104
0.8140
0.8176
0.8213
0.8251
0.8290
0.8325
0.8353
0.8376
0.8396
0.8416
0.8435
0.8453
0.8472
0.8489
0.8506
0.8523
0.8539
0.8555
0.8570
0.8585
0.8599
0.8614
0.8628
0.8641
0.8654
0.8667
0.8680
0.8692
0.8704
0.8715
0.8726
0.8737
0.8748
0.8760
0.8774
0.8792
0.8819
0.8867
0.8886
0.8905
0.8925
0.8944
0.8963
0.8983
0.9002
0.9022
0.9041
0.9061
0.9080
0.9100
0.9119
0.9138
0.9157
0.9177
0.9196
0.9215
0.9234
0.9253
0.9272
0.9291
0.9309
0.9327
0.9343
0.9361
0.9375
0.9388
0.9396
0.9430
0.9451
0.9471
0.9491
0.9513
0.9517
0.9522
0.9526
0.9530
0.9535
0.9539
0.9543
0.9547
0.9551
0.9555
0.9559
0.9563
0.9567
0.9570
0.9574
0.9578
0.9581
0.9585
0.9588
0.9592
0.9595
0.9599
0.9602
0.9606
0.9609
0.9612
0.9616
0.9619
0.9622
0.9625
0.9628
0.9631
0.9634
0.9637
0.9640
0.9643
0.9646
0.9649
0.9652
0.9654
0.9657
0.9659
0.9662
0.9665
0.9667
0.9670
0.9673
0.9675
0.9678
0.9680
0.9683
0.9685
0.9687
0.9690
0.9693
0.9695
0.9698
0.9700
0.9703
0.9705
0.9708
0.9710
0.9712
0.9715
0.9717
0.9719
0.9722
0.9724
0.9726
0.9728
0.9731
0.9733
0.9735
0.9737
0.9739
0.9741
0.9743
0.9745
0.9747
0.9749
0.9751
0.9753
0.9754
0.9756
0.9758
0.9760
0.9762
0.9763
0.9765
0.9767
0.9769
0.9771
0.9773
0.9775
0.9777
0.9779
0.9780
0.9782
0.9784
0.9786
0.9787
0.9789
0.9791
0.9792
0.9794
0.9795
0.9797
0.9798
0.9800
0.9801
0.9803
0.9804
0.9806
0.9807
0.9809
0.9810
0.9811
0.9812
0.9814
0.9815
0.9816
0.9817
0.9819
0.9820
0.9821
0.9823
0.9824
0.9825
0.9826
0.9827
0.9829
0.9830
0.9831
0.9832
0.9834
0.9835
0.9836
0.9837
0.9838
0.9839
0.9840
0.9842
0.9843
0.9844
0.9845
0.9846
0.9847
0.9848
0.9849
0.9850
0.9851
0.9852
0.9853
0.9854
0.9855
0.9855
0.9856
0.9857
0.9858
0.9859
0.9860
0.9861
0.9862
0.9863
0.9864
0.9865
0.9866
0.9867
0.9868
0.9869
0.9870
0.9871
0.9872
0.9872
0.9873
0.9874
0.9875
0.9876
