0.1985
0.1981
0.1978
0.1977
0.1976
0.1977
0.1978
0.1981
0.1984
0.1988
0.1994
0.2000
0.2007
0.2016
0.2025
0.2035
0.2046
0.2057
0.2070
0.2084
0.2098
0.2114
0.2131
0.2148
0.2167
0.2187
0.2207
0.2229
0.2251
0.2274
0.2298
0.2322
0.2348
0.2375
0.2402
0.2430
0.2460
0.2490
0.2521
0.2554
0.2587
0.2621
0.2656
0.2693
0.2731
0.2770
0.2810
0.2851
0.2893
0.2936
0.2980
0.3025
0.3069
0.3115
0.3161
0.3208
0.3256
0.3304
0.3353
0.3404
0.3456
0.3509
0.3563
0.3619
0.3676
0.3735
0.3796
0.3859
0.3926
0.3997
0.4074
0.4166
0.4273
0.4387
0.4429
0.4465
0.4501
0.4535
0.4570
0.4604
0.4637
0.4671
0.4703
0.4736
0.4767
0.4799
0.4826
0.4852
0.4871
0.4881
0.4920
0.4959
0.4999
0.5039
0.5082
0.5125
0.5170
0.5218
0.5271
0.5333
0.5431
0.5469
0.5508
0.5548
0.5588
0.5628
0.5669
0.5708
0.5747
0.5788
0.5831
0.5882
0.5931
0.5964
0.5995
0.6022
0.6050
0.6077
0.6108
0.6134
0.6102
0.6192
0.6192
0.6213
0.6233
0.6252
0.6271
0.6289
0.6306
0.6322
0.6337
0.6352
0.6365
0.6376
0.6386
0.6395
0.6400
0.6403
0.6401
0.6392
0.6364
0.6368
0.6396
0.6424
0.6451
0.6479
0.6506
0.6533
0.6560
0.6586
0.6613
0.6639
0.6665
0.6691
0.6716
0.6742
0.6767
0.6792
0.6817
0.6842
0.6866
0.6891
0.6915
0.6939
0.6963
0.6986
0.7010
0.7033
0.7056
0.7079
0.7102
0.7124
0.7146
0.7168
0.7190
0.7212
0.7234
0.7255
0.7276
0.7297
0.7318
0.7339
0.7359
0.7379
0.7400
0.7420
0.7440
0.7459
0.7479
0.7498
0.7517
0.7537
0.7556
0.7573
0.7591
0.7610
0.7628
0.7646
0.7664
0.7682
0.7699
0.7716
0.7734
0.7751
0.7768
0.7784
0.7801
0.7817
0.7834
0.7850
0.7866
0.7881
0.7897
0.7913
0.7928
0.7943
0.7958
0.7973
0.7988
0.8002
0.8017
0.8032
0.8044
0.8060
0.8074
0.8086
0.8101
0.8113
0.8126
0.8143
0.8154
0.8165
0.8181
0.8192
0.8202
0.8220
0.8230
0.8240
0.8257
0.8268
0.8276
0.8287
0.8299
0.8307
0.8318
0.8326
0.8345
0.8352
0.8366
0.8382
0.8398
0.8405
0.8414
0.8421
0.8428
0.8438
0.8443
0.8457
0.8463
0.8479
0.8485
0.8496
0.8501
0.8520
0.8528
0.8537
0.8542
0.8547
0.8556
0.8561
0.8569
0.8580
0.8585
0.8589
0.8596
0.8601
0.8610
0.8619
0.8623
0.8633
0.8637
0.8646
0.8650
0.8654
0.8661
0.8665
0.8669
0.8675
0.8679
0.8688
0.8692
0.8697
0.8701
0.8709
0.8713
0.8725
0.8730
0.8734
0.8739
0.8743
0.8748
0.8753
0.8757
0.8762
0.8767
0.8771
0.8776
0.8781
0.8786
0.8791
0.8796
0.8801
0.8806
0.8811
0.8816
0.8821
0.8826
0.8831
0.8836
0.8842
0.8847
0.8852
0.8858
0.8863
0.8868
0.8874
0.8879
0.8884
0.8890
0.8895
0.8901
0.8906
0.8911
0.8917
0.8922
0.8927
0.8933
0.8938
0.8943
0.8948
0.8954
0.8959
0.8964
0.8969
0.8975
0.8980
0.8985
0.8990
0.8995
0.9000
0.9006
0.9011
0.9016
0.9021
0.9026
0.9031
0.9036
0.9041
0.9047
0.9052
0.9057
0.9062
0.9067
0.9072
0.9077
0.9083
0.9088
0.9093
0.9098
0.9103
0.9108
0.9114
0.9119
0.9124
0.9129
0.9134
0.9139
0.9144
0.9149
0.9155
0.9160
0.9165
0.9170
0.9175
0.9180
0.9185
0.9190
0.9195
0.9200
0.9205
0.9210
0.9215
0.9220
0.9225
0.9230
0.9235
0.9240
0.9245
0.9250
0.9255
