0.4436
0.4441
0.4448
0.4454
0.4462
0.4470
0.4478
0.4488
0.4498
0.4510
0.4523
0.4537
0.4552
0.4566
0.4579
0.4588
0.4594
0.4599
0.4606
0.4613
0.4620
0.4628
0.4635
0.4642
0.4650
0.4656
0.4663
0.4669
0.4675
0.4680
0.4686
0.4691
0.4697
0.4702
0.4708
0.4713
0.4720
0.4727
0.4739
0.4756
0.4775
0.4798
0.4821
0.4841
0.4856
0.4861
0.4851
0.4821
0.4777
0.4706
0.4611
0.4497
0.4367
0.4233
0.4103
0.3980
0.3872
0.3776
0.3693
0.3621
0.3560
0.3510
0.3468
0.3434
0.3405
0.3381
0.3363
0.3348
0.3337
0.3328
0.3321
0.3317
0.3314
0.3314
0.3315
0.3316
0.3315
0.3311
0.3326
0.3344
0.3365
0.3389
0.3415
0.3445
0.3477
0.3512
0.3551
0.3595
0.3645
0.3693
0.3725
0.3760
0.3796
0.3834
0.3874
0.3916
0.3961
0.4009
0.4058
0.4108
0.4159
0.4209
0.4261
0.4315
0.4373
0.4426
0.4463
0.4501
0.4540
0.4580
0.4622
0.4666
0.4710
0.4756
0.4804
0.4852
0.4902
0.4954
0.5007
0.5061
0.5116
0.5173
0.5231
0.5290
0.5350
0.5412
0.5475
0.5539
0.5605
0.5671
0.5739
0.5807
0.5878
0.5949
0.6023
0.6099
0.6177
0.6257
0.6341
0.6427
0.6518
0.6614
0.6719
0.6842
0.6982
0.7050
0.7121
0.7195
0.7272
0.7354
0.7444
0.7550
0.7691
0.7745
0.7799
0.7852
0.7901
0.7948
0.7992
0.8035
0.8078
0.8121
0.8165
0.8210
0.8256
0.8303
0.8340
0.8377
0.8414
0.8452
0.8491
0.8531
0.8572
0.8613
0.8655
0.8696
0.8738
0.8780
0.8822
0.8865
0.8909
0.8954
0.9002
0.9054
0.9112
0.9180
0.9264
0.9286
0.9308
0.9331
0.9354
0.9378
0.9402
0.9428
0.9455
0.9483
0.9507
0.9531
0.9550
0.9568
0.9586
0.9604
0.9622
0.9625
0.9629
0.9632
0.9636
0.9640
0.9644
0.9647
0.9651
0.9654
0.9658
0.9660
0.9664
0.9667
0.9670
0.9674
0.9677
0.9680
0.9683
0.9686
0.9689
0.9692
0.9695
0.9698
0.9701
0.9704
0.9707
0.9710
0.9712
0.9715
0.9718
0.9721
0.9723
0.9726
0.9728
0.9731
0.9733
0.9736
0.9738
0.9740
0.9743
0.9745
0.9747
0.9749
0.9752
0.9754
0.9756
0.9758
0.9760
0.9763
0.9764
0.9767
0.9768
0.9771
0.9772
0.9774
0.9776
0.9777
0.9780
0.9782
0.9784
0.9784
0.9786
0.9788
0.9790
0.9792
0.9793
0.9794
0.9796
0.9798
0.9800
0.9803
0.9805
0.9808
0.9807
0.9810
0.9812
0.9812
0.9814
0.9816
0.9819
0.9816
0.9818
0.9820
0.9822
0.9824
0.9826
0.9828
0.9830
0.9832
0.9834
0.9835
0.9837
0.9839
0.9840
0.9842
0.9843
0.9845
0.9846
0.9848
0.9849
0.9851
0.9852
0.9854
0.9855
0.9856
0.9858
0.9859
0.9861
0.9862
0.9863
0.9864
0.9865
0.9867
0.9868
0.9869
0.9870
0.9871
0.9872
0.9873
0.9874
0.9875
0.9876
0.9877
0.9878
0.9879
0.9880
0.9880
0.9881
0.9882
0.9883
0.9884
0.9885
0.9886
0.9887
0.9888
0.9889
0.9890
0.9891
0.9892
0.9893
0.9893
0.9894
0.9895
0.9896
0.9897
0.9898
0.9898
0.9899
0.9900
0.9901
0.9901
0.9902
0.9903
0.9903
0.9904
0.9905
0.9905
0.9906
0.9906
0.9907
0.9907
0.9908
0.9909
0.9909
0.9910
0.9910
0.9911
0.9911
0.9912
0.9912
0.9913
0.9913
0.9914
0.9914
0.9915
0.9915
0.9916
0.9916
0.9917
0.9917
0.9918
0.9918
0.9919
0.9919
0.9919
0.9920
0.9920
0.9921
0.9921
0.9921
0.9922
0.9922
0.9922
0.9923
0.9923
0.9923
0.9924
