0.3504
0.3535
0.3568
0.3601
0.3636
0.3672
0.3709
0.3747
0.3787
0.3829
0.3872
0.3917
0.3963
0.4013
0.4068
0.4123
0.4156
0.4189
0.4224
0.4260
0.4297
0.4335
0.4372
0.4411
0.4450
0.4489
0.4530
0.4571
0.4613
0.4657
0.4701
0.4746
0.4793
0.4842
0.4892
0.4946
0.5004
0.5069
0.5150
0.5187
0.5224
0.5262
0.5301
0.5341
0.5383
0.5426
0.5472
0.5519
0.5552
0.5586
0.5621
0.5657
0.5694
0.5733
0.5773
0.5814
0.5857
0.5903
0.5950
0.6000
0.6054
0.6111
0.6170
0.6233
0.6302
0.6378
0.6469
0.6591
0.6745
0.6902
0.7046
0.6933
0.6791
0.6683
0.6507
0.6255
0.6012
0.6012
0.6283
0.6597
0.6840
0.7010
0.7129
0.6752
0.6692
0.6686
0.6695
0.6708
0.6726
0.6745
0.6766
0.6788
0.6811
0.6833
0.6856
0.6879
0.6902
0.6925
0.6948
0.6970
0.6992
0.7014
0.7036
0.7057
0.7079
0.7100
0.7123
0.7146
0.7171
0.7206
0.7242
0.7281
0.7322
0.7365
0.7407
0.7445
0.7415
0.7439
0.7461
0.7482
0.7502
0.7522
0.7543
0.7563
0.7583
0.7603
0.7624
0.7644
0.7665
0.7686
0.7707
0.7728
0.7750
0.7772
0.7795
0.7819
0.7841
0.7865
0.7888
0.7912
0.7936
0.7960
0.7985
0.8010
0.8035
0.8061
0.8087
0.8113
0.8141
0.8169
0.8198
0.8228
0.8259
0.8293
0.8328
0.8369
0.8424
0.8447
0.8460
0.8473
0.8485
0.8498
0.8510
0.8522
0.8534
0.8545
0.8557
0.8568
0.8579
0.8589
0.8599
0.8609
0.8619
0.8628
0.8636
0.8644
0.8651
0.8658
0.8664
0.8670
0.8674
0.8677
0.8686
0.8655
0.8673
0.8691
0.8709
0.8727
0.8745
0.8762
0.8780
0.8798
0.8816
0.8834
0.8852
0.8870
0.8888
0.8907
0.8926
0.8945
0.8963
0.8982
0.9002
0.9021
0.9040
0.9060
0.9080
0.9100
0.9120
0.9140
0.9161
0.9182
0.9203
0.9225
0.9247
0.9270
0.9294
0.9317
0.9340
0.9363
0.9381
0.9395
0.9408
0.9420
0.9432
0.9444
0.9453
0.9458
0.9461
0.9466
0.9471
0.9475
0.9480
0.9484
0.9488
0.9493
0.9497
0.9501
0.9505
0.9509
0.9513
0.9517
0.9521
0.9525
0.9528
0.9532
0.9536
0.9539
0.9543
0.9546
0.9550
0.9549
0.9553
0.9556
0.9559
0.9563
0.9566
0.9569
0.9572
0.9575
0.9578
0.9582
0.9584
0.9588
0.9590
0.9594
0.9596
0.9600
0.9602
0.9605
0.9608
0.9610
0.9613
0.9617
0.9619
0.9621
0.9624
0.9627
0.9629
0.9632
0.9634
0.9637
0.9638
0.9641
0.9644
0.9646
0.9649
0.9652
0.9654
0.9656
0.9659
0.9661
0.9663
0.9666
0.9668
0.9668
0.9671
0.9672
0.9675
0.9677
0.9680
0.9681
0.9684
0.9685
0.9688
0.9691
0.9691
0.9694
0.9697
0.9698
0.9701
0.9704
0.9707
0.9707
0.9710
0.9712
0.9715
0.9718
0.9721
0.9719
0.9722
0.9724
0.9727
0.9730
0.9732
0.9735
0.9738
0.9740
0.9743
0.9745
0.9748
0.9750
0.9752
0.9754
0.9757
0.9759
0.9761
0.9763
0.9765
0.9767
0.9769
0.9771
0.9773
0.9775
0.9777
0.9779
0.9781
0.9782
0.9784
0.9786
0.9788
0.9789
0.9791
0.9793
0.9794
0.9796
0.9798
0.9799
0.9801
0.9802
0.9804
0.9805
0.9807
0.9808
0.9810
0.9811
0.9812
0.9814
0.9815
0.9817
0.9818
0.9819
0.9821
0.9822
0.9823
0.9825
0.9826
0.9827
0.9829
0.9830
0.9831
0.9832
0.9834
0.9835
0.9836
0.9837
0.9839
0.9840
0.9841
0.9842
0.9843
0.9844
0.9845
0.9846
0.9848
0.9849
0.9850
0.9851
0.9852
0.9853
