0.4393
0.4390
0.4391
0.4395
0.4402
0.4414
0.4429
0.4448
0.4470
0.4498
0.4530
0.4567
0.4609
0.4658
0.4718
0.4801
0.4898
0.4924
0.4953
0.4986
0.5021
0.5062
0.5105
0.5158
0.5225
0.5329
0.5349
0.5373
0.5398
0.5430
0.5506
0.5505
0.5505
0.5502
0.5495
0.5483
0.5465
0.5444
0.5423
0.5405
0.5386
0.5337
0.5289
0.5241
0.5195
0.5151
0.5109
0.5070
0.5033
0.4999
0.4966
0.4935
0.4905
0.4874
0.4843
0.4808
0.4768
0.4720
0.4662
0.4590
0.4516
0.4441
0.4368
0.4300
0.4238
0.4183
0.4134
0.4092
0.4058
0.4030
0.4008
0.3992
0.3981
0.3975
0.3974
0.3977
0.3983
0.3993
0.4006
0.4022
0.4040
0.4061
0.4084
0.4110
0.4137
0.4166
0.4197
0.4230
0.4265
0.4301
0.4339
0.4378
0.4418
0.4461
0.4504
0.4549
0.4596
0.4644
0.4694
0.4745
0.4797
0.4850
0.4904
0.4959
0.5015
0.5071
0.5128
0.5185
0.5243
0.5301
0.5360
0.5420
0.5480
0.5541
0.5602
0.5664
0.5725
0.5787
0.5849
0.5912
0.5976
0.6040
0.6105
0.6171
0.6238
0.6306
0.6377
0.6453
0.6533
0.6621
0.6731
0.6825
0.6863
0.6902
0.6936
0.6973
0.7010
0.7044
0.7078
0.7113
0.7147
0.7186
0.7220
0.7253
0.7287
0.7321
0.7355
0.7388
0.7422
0.7455
0.7490
0.7523
0.7557
0.7592
0.7632
0.7667
0.7701
0.7736
0.7771
0.7805
0.7841
0.7877
0.7913
0.7950
0.7987
0.8024
0.8062
0.8101
0.8141
0.8181
0.8218
0.8261
0.8298
0.8335
0.8367
0.8402
0.8430
0.8457
0.8483
0.8514
0.8540
0.8566
0.8598
0.8625
0.8647
0.8664
0.8674
0.8698
0.8722
0.8756
0.8783
0.8811
0.8840
0.8870
0.8898
0.8925
0.8950
0.8973
0.8993
0.9013
0.9031
0.9049
0.9066
0.9084
0.9101
0.9118
0.9138
0.9169
0.9177
0.9182
0.9188
0.9193
0.9199
0.9204
0.9210
0.9215
0.9220
0.9225
0.9231
0.9236
0.9241
0.9246
0.9251
0.9256
0.9261
0.9266
0.9271
0.9276
0.9280
0.9285
0.9290
0.9294
0.9299
0.9303
0.9308
0.9312
0.9317
0.9321
0.9325
0.9330
0.9334
0.9339
0.9342
0.9347
0.9350
0.9355
0.9358
0.9363
0.9367
0.9370
0.9374
0.9378
0.9383
0.9385
0.9389
0.9393
0.9397
0.9401
0.9403
0.9407
0.9411
0.9414
0.9418
0.9422
0.9426
0.9430
0.9433
0.9437
0.9440
0.9444
0.9447
0.9451
0.9454
0.9458
0.9461
0.9464
0.9468
0.9471
0.9474
0.9477
0.9481
0.9484
0.9487
0.9490
0.9493
0.9497
0.9500
0.9504
0.9507
0.9510
0.9514
0.9517
0.9520
0.9523
0.9526
0.9530
0.9533
0.9536
0.9539
0.9542
0.9545
0.9548
0.9551
0.9553
0.9556
0.9559
0.9562
0.9565
0.9567
0.9570
0.9573
0.9576
0.9579
0.9581
0.9584
0.9586
0.9589
0.9592
0.9594
0.9597
0.9600
0.9602
0.9605
0.9607
0.9610
0.9613
0.9615
0.9617
0.9620
0.9623
0.9625
0.9628
0.9630
0.9633
0.9635
0.9637
0.9640
0.9642
0.9644
0.9647
0.9649
0.9651
0.9654
0.9656
0.9658
0.9660
0.9663
0.9665
0.9667
0.9669
0.9672
0.9674
0.9676
0.9678
0.9680
0.9683
0.9685
0.9687
0.9689
0.9691
0.9694
0.9696
0.9698
0.9700
0.9702
0.9705
0.9707
0.9709
0.9711
0.9713
0.9716
0.9718
0.9720
0.9722
0.9724
0.9726
0.9729
0.9731
0.9733
0.9735
0.9737
0.9740
0.9742
0.9744
0.9746
0.9748
0.9751
0.9753
0.9755
0.9757
0.9759
0.9761
0.9764
0.9766
0.9768
0.9770
0.9772
0.9775
0.9777
0.9779
