0.4803
0.4815
0.4827
0.4839
0.4853
0.4867
0.4882
0.4898
0.4914
0.4932
0.4950
0.4969
0.4990
0.5011
0.5033
0.5055
0.5079
0.5103
0.5129
0.5155
0.5181
0.5209
0.5237
0.5266
0.5296
0.5328
0.5360
0.5393
0.5427
0.5460
0.5494
0.5529
0.5562
0.5595
0.5626
0.5655
0.5681
0.5714
0.5757
0.5804
0.5853
0.5903
0.5949
0.5991
0.6027
0.6059
0.6086
0.6108
0.6123
0.6129
0.6121
0.6101
0.6075
0.6043
0.6009
0.5972
0.5935
0.5902
0.5873
0.5854
0.5855
0.5841
0.5833
0.5830
0.5835
0.5847
0.5866
0.5895
0.5934
0.5998
0.6045
0.6045
0.6048
0.6053
0.6059
0.6068
0.6078
0.6090
0.6103
0.6118
0.6134
0.6150
0.6168
0.6188
0.6209
0.6233
0.6260
0.6273
0.6287
0.6303
0.6319
0.6338
0.6360
0.6388
0.6416
0.6442
0.6481
0.6555
0.6642
0.6741
0.6846
0.6942
0.6973
0.6974
0.6780
0.6310
0.6158
0.6007
0.5900
0.5891
0.5995
0.6175
0.6372
0.6521
0.6439
0.6434
0.6435
0.6438
0.6440
0.6438
0.6411
0.6411
0.6426
0.6440
0.6456
0.6472
0.6489
0.6506
0.6524
0.6542
0.6561
0.6581
0.6601
0.6621
0.6642
0.6663
0.6684
0.6705
0.6726
0.6748
0.6770
0.6792
0.6814
0.6837
0.6860
0.6883
0.6906
0.6929
0.6952
0.6976
0.7000
0.7024
0.7048
0.7073
0.7097
0.7122
0.7147
0.7172
0.7197
0.7223
0.7249
0.7275
0.7301
0.7327
0.7354
0.7380
0.7408
0.7435
0.7463
0.7491
0.7519
0.7547
0.7576
0.7604
0.7633
0.7662
0.7692
0.7721
0.7752
0.7783
0.7813
0.7845
0.7877
0.7910
0.7943
0.7978
0.8014
0.8051
0.8090
0.8129
0.8166
0.8198
0.8228
0.8256
0.8283
0.8309
0.8336
0.8362
0.8389
0.8417
0.8447
0.8488
0.8502
0.8517
0.8531
0.8546
0.8560
0.8575
0.8590
0.8605
0.8619
0.8633
0.8648
0.8662
0.8676
0.8691
0.8705
0.8720
0.8735
0.8750
0.8769
0.8784
0.8796
0.8814
0.8829
0.8844
0.8857
0.8877
0.8890
0.8904
0.8917
0.8942
0.8955
0.8971
0.8994
0.9010
0.9026
0.9043
0.9066
0.9083
0.9103
0.9122
0.9141
0.9166
0.9186
0.9207
0.9228
0.9251
0.9268
0.9285
0.9299
0.9316
0.9327
0.9337
0.9347
0.9357
0.9366
0.9377
0.9387
0.9391
0.9393
0.9395
0.9398
0.9400
0.9402
0.9405
0.9408
0.9410
0.9413
0.9415
0.9417
0.9419
0.9422
0.9424
0.9426
0.9429
0.9431
0.9433
0.9436
0.9438
0.9440
0.9442
0.9445
0.9447
0.9449
0.9451
0.9454
0.9456
0.9458
0.9461
0.9463
0.9465
0.9467
0.9470
0.9472
0.9474
0.9477
0.9479
0.9482
0.9484
0.9486
0.9488
0.9491
0.9493
0.9495
0.9498
0.9500
0.9502
0.9504
0.9507
0.9509
0.9511
0.9514
0.9516
0.9518
0.9521
0.9523
0.9525
0.9527
0.9530
0.9532
0.9534
0.9537
0.9539
0.9541
0.9544
0.9546
0.9548
0.9551
0.9553
0.9555
0.9558
0.9560
0.9563
0.9565
0.9568
0.9570
0.9572
0.9575
0.9577
0.9580
0.9582
0.9585
0.9587
0.9589
0.9592
0.9594
0.9597
0.9599
0.9602
0.9604
0.9606
0.9609
0.9611
0.9613
0.9616
0.9618
0.9621
0.9623
0.9625
0.9628
0.9630
0.9632
0.9635
0.9637
0.9639
0.9642
0.9644
0.9646
0.9649
0.9651
0.9654
0.9656
0.9658
0.9661
0.9663
0.9666
0.9668
0.9670
0.9673
0.9675
0.9677
0.9680
0.9682
0.9685
0.9687
0.9689
0.9692
0.9694
0.9696
0.9699
0.9701
0.9703
0.9706
0.9708
0.9710
0.9712
0.9715
0.9717
0.9719
