0.3714
0.3684
0.3654
0.3623
0.3593
0.3562
0.3532
0.3501
0.3471
0.3441
0.3411
0.3381
0.3350
0.3320
0.3289
0.3257
0.3224
0.3190
0.3153
0.3112
0.3063
0.2983
0.2933
0.2905
0.2876
0.2856
0.2860
0.2865
0.2873
0.2882
0.2893
0.2906
0.2922
0.2939
0.2956
0.2976
0.2997
0.3021
0.3048
0.3079
0.3108
0.3233
0.3426
0.3273
0.3102
0.2947
0.2890
0.2977
0.3173
0.3410
0.3608
0.3608
0.3574
0.3603
0.3634
0.3668
0.3704
0.3741
0.3780
0.3821
0.3865
0.3911
0.3960
0.4013
0.4071
0.4132
0.4187
0.4222
0.4258
0.4296
0.4334
0.4375
0.4420
0.4452
0.4478
0.4505
0.4533
0.4560
0.4587
0.4615
0.4643
0.4673
0.4703
0.4735
0.4769
0.4801
0.4837
0.4875
0.4915
0.4956
0.4999
0.5043
0.5089
0.5136
0.5184
0.5234
0.5285
0.5336
0.5389
0.5442
0.5496
0.5550
0.5604
0.5659
0.5714
0.5770
0.5826
0.5883
0.5941
0.5999
0.6058
0.6118
0.6178
0.6239
0.6301
0.6363
0.6426
0.6488
0.6550
0.6610
0.6668
0.6723
0.6775
0.6825
0.6873
0.6919
0.6963
0.7006
0.7046
0.7085
0.7123
0.7158
0.7193
0.7242
0.7292
0.7339
0.7381
0.7421
0.7456
0.7489
0.7520
0.7550
0.7580
0.7609
0.7639
0.7669
0.7701
0.7733
0.7767
0.7804
0.7842
0.7885
0.7929
0.7980
0.8046
0.8090
0.8106
0.8121
0.8140
0.8157
0.8172
0.8191
0.8207
0.8225
0.8244
0.8260
0.8279
0.8295
0.8313
0.8330
0.8350
0.8366
0.8382
0.8398
0.8418
0.8433
0.8447
0.8463
0.8486
0.8525
0.8527
0.8543
0.8552
0.8555
0.8571
0.8597
0.8624
0.8651
0.8678
0.8706
0.8734
0.8763
0.8792
0.8822
0.8853
0.8885
0.8908
0.8931
0.8954
0.8978
0.9003
0.9028
0.9054
0.9081
0.9109
0.9139
0.9169
0.9198
0.9225
0.9248
0.9269
0.9289
0.9309
0.9331
0.9359
0.9368
0.9373
0.9377
0.9382
0.9387
0.9391
0.9396
0.9400
0.9405
0.9409
0.9413
0.9418
0.9422
0.9426
0.9430
0.9434
0.9438
0.9442
0.9446
0.9450
0.9454
0.9458
0.9461
0.9465
0.9469
0.9473
0.9476
0.9480
0.9484
0.9487
0.9491
0.9495
0.9498
0.9502
0.9505
0.9509
0.9512
0.9516
0.9519
0.9522
0.9526
0.9529
0.9532
0.9535
0.9539
0.9542
0.9545
0.9548
0.9551
0.9555
0.9558
0.9561
0.9564
0.9567
0.9570
0.9573
0.9576
0.9579
0.9582
0.9584
0.9587
0.9590
0.9593
0.9596
0.9598
0.9601
0.9604
0.9606
0.9609
0.9613
0.9615
0.9618
0.9620
0.9623
0.9625
0.9628
0.9631
0.9633
0.9636
0.9638
0.9641
0.9643
0.9645
0.9648
0.9651
0.9653
0.9656
0.9657
0.9659
0.9662
0.9665
0.9667
0.9670
0.9672
0.9673
0.9675
0.9678
0.9680
0.9682
0.9685
0.9687
0.9689
0.9692
0.9694
0.9696
0.9698
0.9701
0.9703
0.9705
0.9707
0.9709
0.9711
0.9713
0.9715
0.9717
0.9719
0.9721
0.9724
0.9725
0.9727
0.9729
0.9731
0.9733
0.9735
0.9737
0.9739
0.9741
0.9743
0.9745
0.9747
0.9749
0.9751
0.9753
0.9755
0.9757
0.9759
0.9760
0.9762
0.9764
0.9766
0.9768
0.9770
0.9772
0.9773
0.9775
0.9777
0.9779
0.9781
0.9783
0.9784
0.9786
0.9788
0.9790
0.9792
0.9794
0.9796
0.9797
0.9799
0.9801
0.9803
0.9805
0.9807
0.9808
0.9810
0.9812
0.9814
0.9815
0.9817
0.9819
0.9821
0.9823
0.9824
0.9826
0.9828
0.9830
0.9831
0.9833
0.9835
0.9836
0.9838
0.9840
0.9841
0.9843
0.9845
0.9846
