Angle 0.217416 5.169183

4.00000 7.03348 4.00000
4.00000 7.03348 4.00000
4.00000 7.03348 4.00000
4.00000 7.03348 4.00000
4.00000 7.03347 4.00000
4.00000 7.03347 4.00000
4.00000 7.03347 4.00000
4.00000 7.03347 4.00000
4.00000 7.03347 4.00000
4.00000 7.03347 4.00000
4.00000 7.03346 4.00000
4.00000 7.03346 4.00000
4.00000 7.03346 4.00000
4.00000 7.03346 4.00000
4.00000 7.03346 4.00000
4.00000 7.03348 4.00000
4.00000 7.03348 4.00000
4.00000 7.03347 4.00000
4.00000 7.03348 4.00000
4.00000 7.03348 4.00000
4.00000 7.03348 4.00000
4.00000 7.03348 4.00000
4.00000 7.03348 4.00000
4.00000 7.03348 4.00000
4.00000 7.03348 4.00000
4.00000 7.03348 4.00000
4.00000 7.03348 4.00000
4.00000 7.03348 4.00000
4.00000 7.03348 4.00000
4.00000 7.03348 4.00000
4.00000 7.03348 4.00000
4.00000 7.03348 4.00000
4.00000 7.03348 4.00000
4.00000 7.03348 4.00000
4.00000 7.03348 4.00000
4.00000 7.03348 4.00000
4.00000 7.03348 4.00000
4.00000 7.03348 4.00000
4.00000 7.03348 4.00000
4.00000 7.03348 4.00000
4.00000 7.03348 4.00000
4.00000 7.03348 4.00000
4.00000 7.03348 4.00000
4.00000 7.03348 4.00000
4.00000 7.03348 4.00000
4.00000 7.03348 4.00000
4.00000 7.03348 4.00000
4.00000 7.03348 4.00000
4.00000 7.03348 4.00000
4.00000 7.03348 4.00000
4.00000 7.03348 4.00000
4.00000 7.03348 4.00000
4.00000 7.03347 4.00000
4.00000 7.03347 4.00000
4.00000 7.03347 4.00000
4.00000 7.03347 4.00000
4.00000 7.03347 4.00000
4.00000 7.03347 4.00000
4.00000 7.03347 4.00000
4.00000 7.03347 4.00000
4.00000 7.03347 4.00000
4.00000 7.03347 4.00000
4.00000 7.03347 4.00000
4.00000 7.03347 4.00000
4.00000 7.03347 4.00000
4.00000 7.03347 4.00000
4.00000 7.03347 4.00000
4.00000 7.03347 4.00000
4.00000 7.03347 4.00000
4.00000 7.03348 4.00000
4.00000 7.03348 4.00000
4.00000 7.03348 4.00000
4.00000 7.03348 4.00000
4.00000 7.03348 4.00000
4.00000 7.03348 4.00000
4.00000 7.03348 4.00000
4.00000 7.03348 4.00000
4.00000 7.03348 4.00000
4.00000 7.03348 4.00000
4.00000 7.03348 4.00000
4.00000 7.03348 4.00000
4.00000 7.03348 4.00000
4.00000 7.03348 4.00000
4.00000 7.03348 4.00000
4.00000 7.03348 4.00000
4.00000 7.03348 4.00000
4.00000 7.03348 4.00000
4.00000 7.03348 4.00000
4.00000 7.03348 4.00000
4.00000 7.03348 4.00000
4.00000 7.03348 4.00000
4.00000 7.03348 4.00000
4.00000 7.03348 4.00000
4.00000 7.03348 4.00000
4.00000 7.03348 4.00000
4.00000 7.03348 4.00000
4.00000 7.03348 4.00000
4.00000 7.03348 4.00000
4.00000 7.03348 4.00000
4.00000 7.03348 4.00000
4.00000 7.03348 4.00000
4.00000 7.03348 4.00000
4.00000 7.03348 4.00000
4.00000 7.03349 4.00000
4.00000 7.03349 4.00000
4.00000 7.03348 4.00000
4.00000 7.03348 4.00000
4.00000 7.03348 4.00000
4.00000 7.03348 4.00000
4.00000 7.03348 4.00000
4.00000 7.03348 4.00000
4.00000 7.03348 4.00000
4.00000 7.03348 4.00000
4.00000 7.03348 4.00000
4.00000 7.03348 4.00000
4.00000 7.03348 4.00000
4.00000 7.03348 4.00000
4.00000 7.03348 4.00000
4.00000 7.03348 4.00000
4.00000 7.03348 4.00000
4.00000 7.03348 4.00000
4.00000 7.03348 4.00000
4.00000 7.03348 4.00000
4.00000 7.03348 4.00000
4.00000 7.03348 4.00000
4.00000 7.03348 4.00000
4.00000 7.03348 4.00000
4.00000 7.03348 4.00000
4.00000 7.03348 4.00000
4.00000 7.03348 4.00000
4.00000 7.03348 4.00000
4.00000 7.03348 4.00000
4.00000 7.03348 4.00000
4.00000 7.03348 4.00000
4.00034 7.04179 4.00034
4.00272 7.10003 4.00272
4.00505 7.15864 4.00505
4.00735 7.21761 4.00735
4.00961 7.27691 4.00961
4.01184 7.33654 4.01184
4.01405 7.39648 4.01405
4.01624 7.45671 4.01624
4.01843 7.51723 4.01843
4.02060 7.57801 4.02060
4.02278 7.63905 4.02278
4.02496 7.70032 4.02496
4.02716 7.76181 4.02716
4.02937 7.82351 4.02937
4.03161 7.88540 4.03161
4.03388 7.94746 4.03388
4.03620 8.00966 4.03620
4.03857 8.07199 4.03857
4.04101 8.13441 4.04101
4.04352 8.19691 4.04352
4.04612 8.25945 4.04612
4.04884 8.32199 4.04883
4.05167 8.38449 4.05167
4.05467 8.44691 4.05467
4.05784 8.50917 4.05784
4.06123 8.57121 4.06123
4.06488 8.63294 4.06488
4.06882 8.69428 4.06882
4.07303 8.75530 4.07303
4.07750 8.81599 4.07750
4.08223 8.87634 4.08224
4.08725 8.93633 4.08725
4.09256 8.99594 4.09256
4.09814 9.05516 4.09814
4.10401 9.11402 4.10401
4.11015 9.17251 4.11015
4.11654 9.23069 4.11654
4.12315 9.28861 4.12315
4.12994 9.34635 4.12994
4.13685 9.40402 4.13685
4.14381 9.46177 4.14381
4.15072 9.51979 4.15072
4.15748 9.57829 4.15748
4.16393 9.63756 4.16393
4.16993 9.69791 4.16993
4.17528 9.75972 4.17528
4.17978 9.82338 4.17978
4.18322 9.88933 4.18322
4.18541 9.95794 4.18541
4.18619 10.02952 4.18619
4.18553 10.10414 4.18553
4.18420 10.18024 4.18420
4.18252 10.25720 4.18252
4.18049 10.33501 4.18049
4.17811 10.41367 4.17811
4.17537 10.49320 4.17537
4.17224 10.57364 4.17224
4.16870 10.65504 4.16870
4.16471 10.73751 4.16471
4.16019 10.82115 4.16019
4.15507 10.90614 4.15507
4.14923 10.99270 4.14923
4.14251 11.08114 4.14251
4.13469 11.17193 4.13469
4.12542 11.26575 4.12542
4.11414 11.36371 4.11414
4.09987 11.46779 4.09987
4.08094 11.58132 4.08094
4.05317 11.71264 4.05317
4.00000 13.19120 4.00000
4.00000 13.19120 4.00000
4.00000 13.19120 4.00000
4.00000 13.19120 4.00000
4.00000 13.19120 4.00000
4.00000 13.19120 4.00000
4.00000 13.19120 4.00000
4.00000 13.19120 4.00000
4.00000 13.19120 4.00000
4.00000 13.19120 4.00000
4.00000 13.19120 4.00000
4.00000 13.19120 4.00000
4.00000 13.19120 4.00000
4.00000 13.19120 4.00000
4.00000 13.19120 4.00000
4.00001 13.19123 4.00001
4.00000 13.19120 4.00000
4.00202 13.19892 4.00202
4.01431 13.25225 4.01431
4.02469 13.30950 4.02469
4.03318 13.37062 4.03318
4.03982 13.43555 4.03982
4.04465 13.50419 4.04465
4.04776 13.57638 4.04776
4.04957 13.65124 4.04957
4.05126 13.72646 4.05126
4.05289 13.80186 4.05289
4.05449 13.87743 4.05449
4.05606 13.95317 4.05606
4.05759 14.02905 4.05759
4.05909 14.10508 4.05909
4.06057 14.18125 4.06057
4.06202 14.25756 4.06202
4.06346 14.33399 4.06346
4.06487 14.41055 4.06487
4.06626 14.48723 4.06626
4.06764 14.56402 4.06764
4.06901 14.64093 4.06901
4.07036 14.71794 4.07036
4.07169 14.79506 4.07169
4.07302 14.87229 4.07302
4.07433 14.94961 4.07433
4.07564 15.02704 4.07564
4.07692 15.10457 4.07692
4.07806 15.18249 4.07805
4.07898 15.26090 4.07898
4.07972 15.33976 4.07972
4.08028 15.41905 4.08028
4.08067 15.49875 4.08067
4.08091 15.57883 4.08091
4.08100 15.65928 4.08100
4.08095 15.74007 4.08095
4.08078 15.82118 4.08078
4.08049 15.90260 4.08049
4.08009 15.98430 4.08009
4.07960 16.06627 4.07960
4.07901 16.14848 4.07901
4.07834 16.23093 4.07834
4.07760 16.31360 4.07760
4.07679 16.39647 4.07679
4.07591 16.47952 4.07591
4.07498 16.56275 4.07498
4.07400 16.64615 4.07400
4.07298 16.72969 4.07298
4.07192 16.81338 4.07192
4.07083 16.89719 4.07083
4.06970 16.98112 4.06970
4.06855 17.06516 4.06855
4.06738 17.14931 4.06738
4.06620 17.23354 4.06620
4.06500 17.31786 4.06500
4.06379 17.40227 4.06379
4.06257 17.48674 4.06257
4.06135 17.57128 4.06135
4.06013 17.65588 4.06013
4.05891 17.74053 4.05891
4.05769 17.82524 4.05769
4.05647 17.90999 4.05647
4.05526 17.99479 4.05526
4.05406 18.07962 4.05406
4.05286 18.16449 4.05287
4.05168 18.24939 4.05168
4.05051 18.33432 4.05051
4.04935 18.41928 4.04935
4.04821 18.50426 4.04821
4.04708 18.58927 4.04708
4.04596 18.67429 4.04596
4.04486 18.75933 4.04486
4.04378 18.84439 4.04378
4.04272 18.92947 4.04272
4.04167 19.01456 4.04167
4.04064 19.09966 4.04064
4.03962 19.18477 4.03962
4.03863 19.26990 4.03863
4.03765 19.35503 4.03765
4.03669 19.44017 4.03669
4.03576 19.52533 4.03576
4.03483 19.61049 4.03483
4.03393 19.69566 4.03393
4.03305 19.78084 4.03305
4.03218 19.86602 4.03218
4.03134 19.95122 4.03134
4.03051 20.03642 4.03051
4.02970 20.12162 4.02970
4.02891 20.20684 4.02891
4.02814 20.29206 4.02814
4.02738 20.37728 4.02738
4.02664 20.46252 4.02664
4.02592 20.54776 4.02592
4.02521 20.63301 4.02521
4.02453 20.71826 4.02453
4.02385 20.80353 4.02386
4.02320 20.88880 4.02320
4.02256 20.97407 4.02256
4.02194 21.05936 4.02194
4.02133 21.14465 4.02133
4.02074 21.22996 4.02074
4.02016 21.31527 4.02016
4.01960 21.40059 4.01960
4.01905 21.48592 4.01905
4.01851 21.57125 4.01851
4.01799 21.65660 4.01799
4.01749 21.74196 4.01749
4.01699 21.82732 4.01699
4.01651 21.91270 4.01651
4.01604 21.99809 4.01604
4.01559 22.08349 4.01559
4.01514 22.16890 4.01514
4.01471 22.25432 4.01471
4.01429 22.33975 4.01429
4.01388 22.42519 4.01388
4.01348 22.51065 4.01348
4.01310 22.59612 4.01310
4.01272 22.68160 4.01272
4.01235 22.76709 4.01235
4.01200 22.85260 4.01200
4.01165 22.93812 4.01165
4.01131 23.02365 4.01131
4.01098 23.10919 4.01098
4.01067 23.19475 4.01067
4.01036 23.28033 4.01036
4.01005 23.36591 4.01005
4.00976 23.45152 4.00976
4.00948 23.53713 4.00948
4.00920 23.62276 4.00920
4.00893 23.70841 4.00893
4.00867 23.79407 4.00867
4.00842 23.87975 4.00842
4.00817 23.96544 4.00817
4.00793 24.05114 4.00793
4.00770 24.13687 4.00770
4.00747 24.22260 4.00747
4.00725 24.30836 4.00725
4.00704 24.39413 4.00704
4.00683 24.47991 4.00683
4.00663 24.56572 4.00663
4.00643 24.65153 4.00643
4.00624 24.73737 4.00624
4.00606 24.82322 4.00606
4.00588 24.90909 4.00588
4.00570 24.99497 4.00570
4.00553 25.08087 4.00553
4.00537 25.16679 4.00537
4.00521 25.25272 4.00521
4.00505 25.33867 4.00505
4.00491 25.42464 4.00491
4.00476 25.51063 4.00476
4.00462 25.59663 4.00462
4.00448 25.68265 4.00448
4.00435 25.76868 4.00435
4.00422 25.85473 4.00422
4.00409 25.94081 4.00409
4.00397 26.02689 4.00397
4.00385 26.11300 4.00385
4.00373 26.19912 4.00373
4.00362 26.28526 4.00362
4.00351 26.37142 4.00351
4.00341 26.45759 4.00341
4.00331 26.54378 4.00331
4.00321 26.62999 4.00321
4.00311 26.71622 4.00311
4.00302 26.80246 4.00302
4.00293 26.88872 4.00293
4.00284 26.97500 4.00284
4.00275 27.06129 4.00275
4.00267 27.14761 4.00267
4.00259 27.23394 4.00259
4.00251 27.32028 4.00251
4.00244 27.40664 4.00244
4.00236 27.49303 4.00236
4.00229 27.57943 4.00229
4.00222 27.66584 4.00222
4.00216 27.75227 4.00216
4.00209 27.83872 4.00209
4.00203 27.92519 4.00203
4.00197 28.01167 4.00196
4.00191 28.09817 4.00191

Angle 0.499960 6.223033

4.00000 7.03348 4.00000
4.00000 7.03348 4.00000
4.00000 7.03348 4.00000
4.00000 7.03348 4.00000
4.00000 7.03348 4.00000
4.00000 7.03348 4.00000
4.00000 7.03348 4.00000
4.00000 7.03348 4.00000
4.00000 7.03348 4.00000
4.00000 7.03348 4.00000
4.00000 7.03348 4.00000
4.00000 7.03348 4.00000
4.00000 7.03348 4.00000
4.00000 7.03348 4.00000
4.00000 7.03348 4.00000
4.00000 7.03348 4.00000
4.00000 7.03348 4.00000
4.00000 7.03348 4.00000
4.00000 7.03348 4.00000
4.00000 7.03348 4.00000
4.00000 7.03348 4.00000
4.00000 7.03348 4.00000
4.00000 7.03348 4.00000
4.00000 7.03348 4.00000
4.00000 7.03348 4.00000
4.00000 7.03348 4.00000
4.00000 7.03348 4.00000
4.00000 7.03348 4.00000
4.00000 7.03348 4.00000
4.00000 7.03348 4.00000
4.00000 7.03348 4.00000
4.00000 7.03348 4.00000
4.00000 7.03348 4.00000
4.00000 7.03348 4.00000
4.00000 7.03348 4.00000
4.00000 7.03348 4.00000
4.00000 7.03348 4.00000
4.00000 7.03348 4.00000
4.00000 7.03348 4.00000
4.00000 7.03348 4.00000
4.00000 7.03348 4.00000
4.00000 7.03348 4.00000
4.00000 7.03348 4.00000
4.00000 7.03348 4.00000
4.00000 7.03348 4.00000
4.00000 7.03348 4.00000
4.00000 7.03348 4.00000
4.00000 7.03348 4.00000
4.00000 7.03348 4.00000
4.00000 7.03348 4.00000
4.00000 7.03348 4.00000
4.00000 7.03348 4.00000
4.00000 7.03348 4.00000
4.00000 7.03348 4.00000
4.00000 7.03348 4.00000
4.00000 7.03348 4.00000
4.00000 7.03348 4.00000
4.00000 7.03348 4.00000
4.00000 7.03348 4.00000
4.00000 7.03348 4.00000
4.00000 7.03348 4.00000
4.00000 7.03348 4.00000
4.00000 7.03348 4.00000
4.00000 7.03348 4.00000
4.00000 7.03348 4.00000
4.00000 7.03348 4.00000
4.00000 7.03348 4.00000
4.00000 7.03348 4.00000
4.00000 7.03348 4.00000
4.00000 7.03349 4.00000
4.00000 7.03348 4.00000
4.00000 7.03348 4.00000
4.00000 7.03348 4.00000
4.00000 7.03348 4.00000
4.00000 7.03348 4.00000
4.00000 7.03348 4.00000
4.00000 7.03348 4.00000
4.00000 7.03348 4.00000
4.00000 7.03348 4.00000
4.00000 7.03348 4.00000
4.00000 7.03348 4.00000
4.00000 7.03348 4.00000
4.00000 7.03348 4.00000
4.00000 7.03348 4.00000
4.00000 7.03348 4.00000
4.00000 7.03348 4.00000
4.00000 7.03348 4.00000
4.00000 7.03348 4.00000
4.00000 7.03348 4.00000
4.00000 7.03348 4.00000
4.00000 7.03348 4.00000
4.00000 7.03348 4.00000
4.00000 7.03348 4.00000
4.00000 7.03348 4.00000
4.00000 7.03348 4.00000
4.00000 7.03348 4.00000
4.00000 7.03348 4.00000
4.00000 7.03348 4.00000
4.00000 7.03348 4.00000
4.00000 7.03348 4.00000
4.00000 7.03348 4.00000
4.00000 7.03348 4.00000
4.00000 7.03351 4.00000
4.00014 7.03686 4.00014
4.00319 7.11163 4.00319
4.00615 7.18668 4.00615
4.00904 7.26198 4.00904
4.01188 7.33750 4.01188
4.01466 7.41322 4.01466
4.01742 7.48911 4.01742
4.02014 7.56515 4.02014
4.02286 7.64131 4.02286
4.02558 7.71757 4.02558
4.02830 7.79391 4.02830
4.03106 7.87028 4.03106
4.03385 7.94667 4.03385
4.03670 8.02304 4.03670
4.03963 8.09935 4.03963
4.04265 8.17556 4.04265
4.04579 8.25162 4.04579
4.04908 8.32747 4.04908
4.05255 8.40304 4.05255
4.05624 8.47825 4.05624
4.06021 8.55299 4.06021
4.06452 8.62712 4.06452
4.06924 8.70052 4.06924
4.07432 8.77327 4.07432
4.07977 8.84538 4.07977
4.08559 8.91681 4.08559
4.09179 8.98755 4.09179
4.09838 9.05759 4.09838
4.10534 9.12696 4.10534
4.11266 9.19569 4.11266
4.12030 9.26386 4.12030
4.12819 9.33159 4.12819
4.13625 9.39905 4.13625
4.14437 9.46645 4.14437
4.15240 9.53411 4.15240
4.16016 9.60238 4.16016
4.16741 9.67173 4.16741
4.17389 9.74267 4.17389
4.17930 9.81583 4.17930
4.18332 9.89182 4.18332
4.18567 9.97124 4.18567
4.18612 10.05450 4.18612
4.18493 10.14110 4.18493
4.18318 10.22888 4.18318
4.18097 10.31764 4.18097
4.17831 10.40736 4.17831
4.17519 10.49806 4.17519
4.17157 10.58981 4.17157
4.16741 10.68270 4.16741
4.16264 10.77687 4.16264
4.15716 10.87251 4.15716
4.15083 10.96990 4.15083
4.14345 11.06945 4.14345
4.13471 11.17177 4.13471
4.12413 11.27781 4.12413
4.11088 11.38925 4.11088
4.09343 11.50914 4.09343
4.06866 11.64372 4.06866
4.02522 11.81569 4.02522
4.00000 13.19120 4.00000
4.00000 13.19120 4.00000
4.00000 13.19120 4.00000
4.00000 13.19120 4.00000
4.00000 13.19120 4.00000
4.00000 13.19120 4.00000
4.00000 13.19120 4.00000
4.00000 13.19120 4.00000
4.00000 13.19120 4.00000
4.00000 13.19120 4.00000
4.00000 13.19120 4.00000
4.00000 13.19120 4.00000
4.00000 13.19120 4.00000
4.00000 13.19120 4.00000
4.00000 13.19120 4.00000
4.00709 13.21949 4.00709
4.01969 13.28013 4.01969
4.02997 13.34543 4.02997
4.03798 13.41531 4.03798
4.04379 13.48964 4.04379
4.04750 13.56821 4.04750
4.04955 13.65013 4.04955
4.05139 13.73251 4.05139
4.05318 13.81502 4.05318
4.05491 13.89767 4.05491
4.05661 13.98045 4.05661
4.05827 14.06333 4.05827
4.05990 14.14631 4.05990
4.06149 14.22939 4.06149
4.06306 14.31256 4.06306
4.06460 14.39581 4.06460
4.06612 14.47914 4.06612
4.06762 14.56254 4.06762
4.06910 14.64602 4.06910
4.07056 14.72956 4.07056
4.07200 14.81316 4.07200
4.07344 14.89683 4.07344
4.07486 14.98055 4.07485
4.07626 15.06433 4.07626
4.07758 15.14830 4.07758
4.07867 15.23278 4.07867
4.07953 15.31773 4.07953
4.08018 15.40314 4.08018
4.08063 15.48898 4.08063
4.08090 15.57521 4.08090
4.08100 15.66181 4.08100
4.08094 15.74875 4.08094
4.08074 15.83600 4.08074
4.08040 15.92355 4.08040
4.07994 16.01137 4.07994
4.07937 16.09944 4.07937
4.07870 16.18773 4.07870
4.07794 16.27624 4.07794
4.07710 16.36493 4.07710
4.07619 16.45379 4.07619
4.07521 16.54281 4.07521
4.07417 16.63197 4.07417
4.07309 16.72125 4.07309
4.07196 16.81065 4.07196
4.07079 16.90015 4.07079
4.06958 16.98973 4.06959
4.06836 17.07940 4.06836
4.06711 17.16913 4.06711
4.06584 17.25892 4.06584
4.06456 17.34876 4.06456
4.06327 17.43864 4.06327
4.06197 17.52855 4.06197
4.06067 17.61850 4.06067
4.05937 17.70847 4.05937
4.05807 17.79845 4.05807
4.05678 17.88845 4.05678
4.05549 17.97845 4.05549
4.05422 18.06846 4.05422
4.05295 18.15847 4.05295
4.05170 18.24847 4.05170
4.05045 18.33847 4.05045
4.04923 18.42846 4.04923
4.04802 18.51843 4.04802
4.04683 18.60840 4.04683
4.04565 18.69834 4.04565
4.04449 18.78827 4.04449
4.04336 18.87819 4.04336
4.04224 18.96808 4.04224
4.04114 19.05795 4.04114
4.04006 19.14780 4.04006
4.03900 19.23762 4.03900
4.03797 19.32743 4.03797
4.03695 19.41721 4.03695
4.03596 19.50696 4.03596
4.03498 19.59670 4.03498
4.03403 19.68640 4.03403
4.03310 19.77609 4.03310
4.03219 19.86575 4.03219
4.03130 19.95538 4.03130
4.03043 20.04499 4.03043
4.02958 20.13458 4.02958
4.02875 20.22415 4.02875
4.02794 20.31369 4.02794
4.02715 20.40320 4.02715
4.02638 20.49270 4.02638
4.02563 20.58217 4.02563
4.02490 20.67162 4.02490
4.02419 20.76105 4.02419
4.02349 20.85046 4.02349
4.02282 20.93985 4.02282
4.02216 21.02922 4.02216
4.02151 21.11857 4.02151
4.02089 21.20790 4.02089
4.02028 21.29722 4.02028
4.01969 21.38651 4.01969
4.01911 21.47579 4.01911
4.01855 21.56505 4.01855
4.01801 21.65430 4.01801
4.01748 21.74353 4.01748
4.01696 21.83275 4.01696
4.01646 21.92195 4.01646
4.01597 22.01114 4.01597
4.01550 22.10031 4.01550
4.01504 22.18947 4.01504
4.01459 22.27862 4.01459
4.01416 22.36776 4.01415
4.01373 22.45689 4.01373
4.01332 22.54601 4.01332
4.01292 22.63511 4.01292
4.01254 22.72421 4.01253
4.01216 22.81329 4.01216
4.01179 22.90237 4.01179
4.01144 22.99144 4.01144
4.01109 23.08051 4.01109
4.01076 23.16956 4.01076
4.01043 23.25861 4.01043
4.01012 23.34765 4.01012
4.00981 23.43668 4.00981
4.00951 23.52571 4.00951
4.00923 23.61473 4.00923
4.00895 23.70375 4.00895
4.00867 23.79277 4.00867
4.00841 23.88178 4.00841
4.00815 23.97078 4.00815
4.00791 24.05978 4.00791
4.00766 24.14878 4.00766
4.00743 24.23778 4.00743
4.00720 24.32677 4.00720
4.00698 24.41576 4.00698
4.00677 24.50475 4.00677
4.00656 24.59374 4.00656
4.00636 24.68272 4.00636
4.00617 24.77171 4.00617
4.00598 24.86069 4.00598
4.00579 24.94967 4.00579
4.00562 25.03865 4.00562
4.00544 25.12763 4.00544
4.00528 25.21662 4.00528
4.00511 25.30560 4.00511
4.00496 25.39458 4.00496
4.00480 25.48356 4.00480
4.00466 25.57254 4.00466
4.00451 25.66153 4.00451
4.00437 25.75051 4.00437
4.00424 25.83950 4.00424
4.00411 25.92849 4.00411
4.00398 26.01748 4.00398
4.00386 26.10647 4.00386
4.00374 26.19547 4.00374
4.00362 26.28446 4.00362
4.00351 26.37346 4.00351
4.00340 26.46246 4.00340
4.00330 26.55147 4.00330
4.00319 26.64047 4.00319
4.00310 26.72948 4.00310
4.00300 26.81849 4.00300
4.00291 26.90751 4.00291
4.00282 26.99653 4.00282
4.00273 27.08555 4.00273
4.00264 27.17457 4.00264
4.00256 27.26360 4.00256
4.00248 27.35263 4.00248
4.00241 27.44167 4.00241
4.00233 27.53071 4.00233
4.00226 27.61975 4.00226
4.00219 27.70880 4.00219
4.00212 27.79785 4.00212
4.00205 27.88691 4.00205
4.00199 27.97596 4.00199
4.00193 28.06503 4.00193
4.00187 28.15410 4.00187
4.00181 28.24317 4.00181
4.00175 28.33224 4.00175
4.00170 28.42132 4.00170
4.00165 28.51041 4.00165
4.00160 28.59950 4.00160
4.00154 28.68859 4.00155
4.00150 28.77769 4.00150
4.00145 28.86680 4.00145
4.00141 28.95590 4.00141
4.00136 29.04502 4.00136
4.00132 29.13413 4.00132
4.00128 29.22326 4.00128
4.00124 29.31238 4.00124
4.00120 29.40151 4.00120
4.00116 29.49065 4.00116
4.00113 29.57979 4.00113
4.00109 29.66894 4.00109
4.00106 29.75809 4.00106
4.00103 29.84724 4.00102
4.00099 29.93641 4.00099
4.00096 30.02557 4.00096
4.00093 30.11474 4.00093
4.00090 30.20392 4.00090
4.00087 30.29310 4.00087
4.00085 30.38228 4.00085
4.00082 30.47147 4.00082
4.00079 30.56067 4.00080
4.00077 30.64987 4.00077
4.00075 30.73908 4.00075
4.00072 30.82828 4.00073
4.00070 30.91750 4.00070
4.00068 31.00672 4.00068
4.00066 31.09595 4.00066
4.00064 31.18518 4.00064
4.00062 31.27442 4.00062
4.00060 31.36366 4.00060
4.00058 31.45290 4.00058
4.00056 31.54215 4.00056
4.00054 31.63141 4.00054
4.00052 31.72067 4.00053
4.00051 31.80993 4.00051
4.00049 31.89920 4.00049
4.00048 31.98848 4.00048
4.00047 32.07776 4.00046
4.00045 32.16705 4.00045
4.00043 32.25634 4.00043
4.00042 32.34563 4.00042
4.00041 32.43493 4.00041
4.00039 32.52424 4.00039
4.00038 32.61355 4.00038
4.00037 32.70286 4.00037
4.00036 32.79218 4.00036

Angle 0.225897 5.068131

4.00000 7.03348 4.00000
4.00000 7.03348 4.00000
4.00000 7.03348 4.00000
4.00000 7.03348 4.00000
4.00000 7.03348 4.00000
4.00000 7.03349 4.00000
4.00000 7.03349 4.00000
4.00000 7.03348 4.00000
4.00000 7.03348 4.00000
4.00000 7.03348 4.00000
4.00000 7.03348 4.00000
4.00000 7.03348 4.00000
4.00000 7.03348 4.00000
4.00000 7.03348 4.00000
4.00000 7.03348 4.00000
4.00000 7.03348 4.00000
4.00000 7.03348 4.00000
4.00000 7.03348 4.00000
4.00000 7.03348 4.00000
4.00000 7.03348 4.00000
4.00000 7.03348 4.00000
4.00000 7.03348 4.00000
4.00000 7.03348 4.00000
4.00000 7.03348 4.00000
4.00000 7.03348 4.00000
4.00000 7.03348 4.00000
4.00000 7.03348 4.00000
4.00000 7.03349 4.00000
4.00000 7.03352 4.00000
4.00113 7.06088 4.00113
4.00283 7.10264 4.00283
4.00451 7.14482 4.00451
4.00618 7.18743 4.00618
4.00784 7.23046 4.00784
4.00949 7.27390 4.00949
4.01114 7.31775 4.01114
4.01278 7.36200 4.01278
4.01442 7.40663 4.01442
4.01606 7.45165 4.01606
4.01770 7.49704 4.01770
4.01934 7.54281 4.01934
4.02099 7.58893 4.02099
4.02265 7.63540 4.02265
4.02432 7.68222 4.02432
4.02600 7.72936 4.02600
4.02769 7.77684 4.02769
4.02941 7.82463 4.02941
4.03115 7.87272 4.03115
4.03291 7.92111 4.03291
4.03471 7.96977 4.03471
4.03654 8.01871 4.03654
4.03841 8.06790 4.03841
4.04033 8.11733 4.04033
4.04231 8.16699 4.04230
4.04434 8.21685 4.04434
4.04644 8.26690 4.04644
4.04862 8.31711 4.04862
4.05089 8.36746 4.05089
4.05326 8.41793 4.05326
4.05574 8.46846 4.05574
4.05836 8.51904 4.05836
4.06114 8.56962 4.06114
4.06409 8.62014 4.06409
4.06726 8.67054 4.06726
4.07062 8.72083 4.07062
4.07416 8.77106 4.07416
4.07789 8.82120 4.07789
4.08182 8.87123 4.08182
4.08595 8.92114 4.08595
4.09029 8.97092 4.09029
4.09484 9.02056 4.09484
4.09960 9.07005 4.09960
4.10456 9.11940 4.10456
4.10973 9.16861 4.10973
4.11509 9.21771 4.11509
4.12063 9.26672 4.12063
4.12631 9.31569 4.12631
4.13212 9.36467 4.13212
4.13802 9.41373 4.13802
4.14395 9.46297 4.14395
4.14986 9.51251 4.14986
4.15568 9.56249 4.15568
4.16132 9.61306 4.16132
4.16668 9.66443 4.16668
4.17166 9.71683 4.17166
4.17611 9.77049 4.17611
4.17992 9.82569 4.17992
4.18293 9.88271 4.18293
4.18502 9.94181 4.18502
4.18607 10.00321 4.18607
4.18602 10.06705 4.18602
4.18507 10.13290 4.18507
4.18381 10.19959 4.18381
4.18228 10.26704 4.18228
4.18048 10.33525 4.18048
4.17841 10.40422 4.17841
4.17606 10.47396 4.17606
4.17342 10.54450 4.17342
4.17046 10.61588 4.17046
4.16715 10.68816 4.16715
4.16347 10.76139 4.16346
4.15935 10.83569 4.15935
4.15474 10.91117 4.15474
4.14956 10.98801 4.14956
4.14369 11.06641 4.14369
4.13697 11.14671 4.13697
4.12918 11.22933 4.12918
4.11998 11.31496 4.11998
4.10884 11.40468 4.10884
4.09485 11.50025 4.09485
4.07650 11.60475 4.07650
4.04993 11.72586 4.04993
4.00000 13.19120 4.00000
4.00000 13.19120 4.00000
4.00000 13.19120 4.00000
4.00000 13.19120 4.00000
4.00000 13.19120 4.00000
4.00000 13.19120 4.00000
4.00000 13.19120 4.00000
4.00000 13.19120 4.00000
4.00000 13.19120 4.00000
4.00000 13.19120 4.00000
4.00000 13.19120 4.00000
4.00000 13.19120 4.00000
4.00000 13.19120 4.00000
4.00000 13.19121 4.00000
4.00000 13.19120 4.00000
4.00000 13.19120 4.00000
4.00000 13.19120 4.00000
4.00001 13.19123 4.00001
4.00000 13.19120 4.00000
4.00498 13.21071 4.00498
4.01592 13.26024 4.01592
4.02526 13.31310 4.02526
4.03302 13.36926 4.03302
4.03922 13.42868 4.03922
4.04390 13.49129 4.04390
4.04710 13.55699 4.04710
4.04898 13.62547 4.04898
4.05055 13.69471 4.05055
4.05208 13.76417 4.05208
4.05358 13.83383 4.05358
4.05504 13.90369 4.05504
4.05648 13.97373 4.05648
4.05789 14.04395 4.05789
4.05927 14.11435 4.05927
4.06064 14.18492 4.06064
4.06199 14.25565 4.06199
4.06332 14.32654 4.06332
4.06463 14.39759 4.06463
4.06593 14.46879 4.06593
4.06722 14.54014 4.06722
4.06849 14.61164 4.06849
4.06975 14.68328 4.06975
4.07100 14.75505 4.07100
4.07224 14.82697 4.07224
4.07347 14.89901 4.07347
4.07470 14.97119 4.07470
4.07591 15.04350 4.07591
4.07710 15.11597 4.07710
4.07814 15.18887 4.07814
4.07899 15.26222 4.07899
4.07969 15.33602 4.07969
4.08023 15.41023 4.08023
4.08062 15.48485 4.08062
4.08087 15.55986 4.08087
4.08099 15.63522 4.08099
4.08098 15.71094 4.08098
4.08087 15.78699 4.08087
4.08064 15.86335 4.08064
4.08032 15.94001 4.08032
4.07991 16.01696 4.07991
4.07941 16.09418 4.07941
4.07883 16.17165 4.07883
4.07818 16.24936 4.07818
4.07747 16.32730 4.07747
4.07670 16.40545 4.07669
4.07587 16.48381 4.07587
4.07499 16.56237 4.07499
4.07406 16.64110 4.07406
4.07310 16.72000 4.07310
4.07210 16.79907 4.07210
4.07107 16.87829 4.07107
4.07002 16.95765 4.07002
4.06894 17.03716 4.06894
4.06784 17.11678 4.06784
4.06672 17.19653 4.06672
4.06559 17.27639 4.06559
4.06445 17.35636 4.06445
4.06330 17.43643 4.06330
4.06214 17.51660 4.06214
4.06098 17.59686 4.06098
4.05982 17.67720 4.05982
4.05866 17.75763 4.05866
4.05750 17.83813 4.05750
4.05635 17.91871 4.05635
4.05520 17.99935 4.05520
4.05405 18.08006 4.05405
4.05292 18.16083 4.05292
4.05179 18.24166 4.05179
4.05067 18.32255 4.05067
4.04957 18.40349 4.04957
4.04847 18.48448 4.04847
4.04739 18.56553 4.04739
4.04632 18.64662 4.04632
4.04527 18.72775 4.04527
4.04423 18.80893 4.04423
4.04320 18.89016 4.04321
4.04220 18.97142 4.04220
4.04120 19.05272 4.04120
4.04022 19.13406 4.04022
4.03926 19.21544 4.03926
4.03832 19.29685 4.03832
4.03739 19.37830 4.03739
4.03648 19.45979 4.03648
4.03558 19.54131 4.03558
4.03470 19.62286 4.03470
4.03384 19.70444 4.03384
4.03300 19.78605 4.03300
4.03217 19.86770 4.03217
4.03136 19.94938 4.03136
4.03056 20.03109 4.03056
4.02978 20.11282 4.02978
4.02902 20.19459 4.02902
4.02828 20.27639 4.02828
4.02755 20.35822 4.02755
4.02683 20.44007 4.02683
4.02613 20.52196 4.02613
4.02545 20.60387 4.02545
4.02479 20.68582 4.02479
4.02413 20.76779 4.02413
4.02350 20.84979 4.02350
4.02288 20.93182 4.02288
4.02227 21.01388 4.02227
4.02168 21.09596 4.02168
4.02110 21.17808 4.02110
4.02053 21.26022 4.02053
4.01998 21.34239 4.01998
4.01944 21.42459 4.01944
4.01892 21.50682 4.01892
4.01840 21.58908 4.01840
4.01790 21.67137 4.01790
4.01742 21.75368 4.01742
4.01694 21.83603 4.01694
4.01648 21.91840 4.01648
4.01603 22.00080 4.01603
4.01559 22.08323 4.01559
4.01516 22.16569 4.01516
4.01474 22.24818 4.01474
4.01433 22.33070 4.01433
4.01394 22.41325 4.01394
4.01355 22.49582 4.01355
4.01318 22.57843 4.01318
4.01281 22.66106 4.01281
4.01245 22.74373 4.01245
4.01210 22.82642 4.01210
4.01177 22.90914 4.01177
4.01144 22.99189 4.01144
4.01112 23.07468 4.01112
4.01080 23.15749 4.01080
4.01050 23.24033 4.01050
4.01020 23.32320 4.01020
4.00992 23.40610 4.00992
4.00964 23.48903 4.00964
4.00936 23.57199 4.00936
4.00910 23.65498 4.00910
4.00884 23.73800 4.00884
4.00859 23.82105 4.00859
4.00834 23.90413 4.00834
4.00811 23.98724 4.00811
4.00788 24.07038 4.00788
4.00765 24.15355 4.00765
4.00743 24.23674 4.00743
4.00722 24.31997 4.00722
4.00701 24.40323 4.00701
4.00681 24.48652 4.00681
4.00662 24.56983 4.00662
4.00643 24.65318 4.00643
4.00624 24.73656 4.00624
4.00606 24.81997 4.00606
4.00589 24.90340 4.00589
4.00572 24.98687 4.00572
4.00556 25.07036 4.00555
4.00539 25.15389 4.00539
4.00524 25.23744 4.00524
4.00509 25.32103 4.00509
4.00494 25.40464 4.00494
4.00480 25.48828 4.00480
4.00466 25.57195 4.00466
4.00452 25.65566 4.00452
4.00439 25.73939 4.00439
4.00426 25.82315 4.00426
4.00414 25.90693 4.00414
4.00402 25.99075 4.00402
4.00390 26.07460 4.00390
4.00379 26.15847 4.00379
4.00368 26.24237 4.00368
4.00357 26.32631 4.00357
4.00346 26.41027 4.00346
4.00336 26.49425 4.00337
4.00326 26.57827 4.00327
4.00317 26.66232 4.00317
4.00308 26.74639 4.00308
4.00299 26.83050 4.00299
4.00290 26.91462 4.00290
4.00282 26.99878 4.00282
4.00273 27.08297 4.00273
4.00265 27.16718 4.00265
4.00257 27.25142 4.00258
4.00250 27.33569 4.00250
4.00242 27.41999 4.00243
4.00236 27.50431 4.00235
4.00228 27.58866 4.00228
4.00222 27.67303 4.00222
4.00215 27.75744 4.00215
4.00208 27.84187 4.00209
4.00203 27.92633 4.00203
4.00197 28.01081 4.00197
4.00191 28.09533 4.00191
4.00185 28.17986 4.00185
4.00180 28.26442 4.00180
4.00175 28.34902 4.00174
4.00169 28.43363 4.00169
4.00164 28.51827 4.00164
4.00159 28.60294 4.00159
4.00155 28.68764 4.00155
4.00150 28.77236 4.00150
4.00146 28.85710 4.00146
4.00141 28.94188 4.00141
4.00137 29.02667 4.00137
4.00133 29.11149 4.00133
4.00129 29.19634 4.00129
4.00125 29.28121 4.00125
4.00121 29.36610 4.00122
4.00118 29.45102 4.00118
4.00114 29.53597 4.00115
4.00111 29.62094 4.00111
4.00108 29.70593 4.00108
4.00105 29.79095 4.00105
4.00101 29.87599 4.00101
4.00098 29.96106 4.00098
4.00095 30.04615 4.00095
4.00092 30.13126 4.00093
4.00090 30.21640 4.00090
4.00087 30.30156 4.00087
4.00084 30.38674 4.00085
4.00082 30.47195 4.00082
4.00080 30.55718 4.00080
4.00077 30.64244 4.00077
4.00075 30.72771 4.00075
4.00073 30.81301 4.00073
4.00070 30.89834 4.00071
4.00068 30.98368 4.00068
4.00066 31.06905 4.00066
4.00064 31.15444 4.00064
4.00062 31.23985 4.00062
4.00061 31.32528 4.00060
4.00059 31.41074 4.00059
4.00057 31.49621 4.00057
4.00055 31.58171 4.00055
4.00053 31.66723 4.00054
4.00052 31.75277 4.00052
4.00050 31.83834 4.00050
4.00049 31.92392 4.00049
4.00047 32.00953 4.00047
4.00046 32.09515 4.00046
4.00045 32.18080 4.00045
4.00043 32.26647 4.00043
4.00042 32.35216 4.00042
4.00041 32.43787 4.00041
4.00039 32.52360 4.00039
4.00038 32.60935 4.00038
4.00037 32.69512 4.00037
4.00036 32.78091 4.00036
4.00035 32.86672 4.00035
4.00034 32.95255 4.00034
4.00033 33.03841 4.00033
4.00032 33.12428 4.00032
4.00031 33.21017 4.00031
4.00030 33.29607 4.00030
4.00029 33.38201 4.00029
4.00028 33.46795 4.00028
4.00027 33.55392 4.00027
4.00027 33.63991 4.00026
4.00026 33.72591 4.00026
4.00025 33.81193 4.00025
4.00024 33.89798 4.00024
4.00023 33.98404 4.00023
4.00023 34.07012 4.00023
4.00022 34.15622 4.00022
4.00021 34.24233 4.00021
4.00021 34.32847 4.00021
4.00020 34.41462 4.00020
4.00019 34.50080 4.00020
4.00019 34.58699 4.00019
4.00018 34.67321 4.00018
4.00018 34.75944 4.00018
4.00017 34.84565 4.00017
4.00017 34.93191 4.00017
4.00016 35.01819 4.00016

Angle 0.684791 5.503926

4.00000 7.03348 4.00000
4.00000 7.03348 4.00000
4.00000 7.03348 4.00000
4.00000 7.03348 4.00000
4.00000 7.03348 4.00000
4.00000 7.03348 4.00000
4.00000 7.03348 4.00000
4.00000 7.03348 4.00000
4.00000 7.03348 4.00000
4.00000 7.03348 4.00000
4.00000 7.03348 4.00000
4.00000 7.03348 4.00000
4.00000 7.03348 4.00000
4.00000 7.03348 4.00000
4.00000 7.03348 4.00000
4.00000 7.03348 4.00000
4.00000 7.03348 4.00000
4.00000 7.03348 4.00000
4.00000 7.03348 4.00000
4.00000 7.03348 4.00000
4.00000 7.03348 4.00000
4.00000 7.03348 4.00000
4.00000 7.03348 4.00000
4.00000 7.03348 4.00000
4.00000 7.03348 4.00000
4.00000 7.03348 4.00000
4.00000 7.03348 4.00000
4.00000 7.03348 4.00000
4.00000 7.03348 4.00000
4.00000 7.03348 4.00000
4.00000 7.03348 4.00000
4.00000 7.03348 4.00000
4.00000 7.03348 4.00000
4.00000 7.03348 4.00000
4.00000 7.03348 4.00000
4.00000 7.03348 4.00000
4.00000 7.03348 4.00000
4.00000 7.03348 4.00000
4.00000 7.03348 4.00000
4.00000 7.03348 4.00000
4.00000 7.03348 4.00000
4.00000 7.03348 4.00000
4.00000 7.03348 4.00000
4.00000 7.03348 4.00000
4.00000 7.03348 4.00000
4.00000 7.03348 4.00000
4.00000 7.03348 4.00000
4.00000 7.03348 4.00000
4.00000 7.03348 4.00000
4.00000 7.03348 4.00000
4.00000 7.03348 4.00000
4.00000 7.03348 4.00000
4.00000 7.03348 4.00000
4.00000 7.03348 4.00000
4.00000 7.03348 4.00000
4.00000 7.03348 4.00000
4.00000 7.03348 4.00000
4.00000 7.03348 4.00000
4.00000 7.03348 4.00000
4.00000 7.03348 4.00000
4.00000 7.03348 4.00000
4.00000 7.03348 4.00000
4.00000 7.03348 4.00000
4.00000 7.03348 4.00000
4.00000 7.03347 4.00000
4.00000 7.03347 4.00000
4.00000 7.03347 4.00000
4.00000 7.03348 4.00000
4.00000 7.03348 4.00000
4.00000 7.03348 4.00000
4.00000 7.03348 4.00000
4.00000 7.03348 4.00000
4.00000 7.03348 4.00000
4.00000 7.03348 4.00000
4.00000 7.03348 4.00000
4.00000 7.03348 4.00000
4.00000 7.03348 4.00000
4.00000 7.03348 4.00000
4.00000 7.03348 4.00000
4.00000 7.03348 4.00000
4.00000 7.03348 4.00000
4.00000 7.03348 4.00000
4.00000 7.03348 4.00000
4.00000 7.03348 4.00000
4.00000 7.03348 4.00000
4.00000 7.03348 4.00000
4.00000 7.03348 4.00000
4.00000 7.03348 4.00000
4.00000 7.03348 4.00000
4.00000 7.03348 4.00000
4.00000 7.03348 4.00000
4.00000 7.03348 4.00000
4.00000 7.03348 4.00000
4.00000 7.03348 4.00000
4.00000 7.03348 4.00000
4.00000 7.03348 4.00000
4.00000 7.03348 4.00000
4.00000 7.03348 4.00000
4.00000 7.03348 4.00000
4.00000 7.03348 4.00000
4.00000 7.03348 4.00000
4.00000 7.03348 4.00000
4.00000 7.03348 4.00000
4.00000 7.03348 4.00000
4.00000 7.03348 4.00000
4.00000 7.03348 4.00000
4.00000 7.03348 4.00000
4.00000 7.03348 4.00000
4.00000 7.03348 4.00000
4.00000 7.03348 4.00000
4.00000 7.03348 4.00000
4.00000 7.03348 4.00000
4.00000 7.03348 4.00000
4.00000 7.03348 4.00000
4.00000 7.03348 4.00000
4.00000 7.03348 4.00000
4.00000 7.03348 4.00000
4.00000 7.03348 4.00000
4.00000 7.03348 4.00000
4.00000 7.03348 4.00000
4.00000 7.03348 4.00000
4.00000 7.03348 4.00000
4.00000 7.03349 4.00000
4.00000 7.03349 4.00000
4.00160 7.07231 4.00160
4.00473 7.15051 4.00473
4.00778 7.22895 4.00778
4.01076 7.30761 4.01076
4.01368 7.38644 4.01368
4.01656 7.46544 4.01656
4.01941 7.54455 4.01941
4.02223 7.62378 4.02223
4.02506 7.70307 4.02506
4.02789 7.78240 4.02789
4.03075 7.86175 4.03075
4.03365 7.94108 4.03365
4.03660 8.02035 4.03660
4.03964 8.09952 4.03964
4.04277 8.17855 4.04277
4.04603 8.25738 4.04603
4.04946 8.33595 4.04946
4.05308 8.41418 4.05308
4.05694 8.49196 4.05694
4.06112 8.56919 4.06111
4.06567 8.64571 4.06567
4.07066 8.72141 4.07066
4.07602 8.79641 4.07602
4.08178 8.87068 4.08178
4.08793 8.94419 4.08793
4.09450 9.01694 4.09450
4.10147 9.08892 4.10147
4.10883 9.16017 4.10883
4.11655 9.23075 4.11655
4.12457 9.30078 4.12457
4.13281 9.37040 4.13281
4.14117 9.43984 4.14117
4.14949 9.50938 4.14949
4.15760 9.57940 4.15760
4.16526 9.65037 4.16526
4.17219 9.72283 4.17219
4.17808 9.79743 4.17808
4.18257 9.87483 4.18257
4.18536 9.95571 4.18536
4.18618 10.04056 4.18618
4.18513 10.12917 4.18513
4.18339 10.21921 4.18339
4.18117 10.31025 4.18117
4.17848 10.40229 4.17848
4.17529 10.49534 4.17529
4.17159 10.58945 4.17159
4.16731 10.68475 4.16731
4.16240 10.78136 4.16240
4.15673 10.87951 4.15673
4.15016 10.97950 4.15016
4.14246 11.08179 4.14246
4.13328 11.18706 4.13328
4.12208 11.29642 4.12208
4.10787 11.41183 4.10787
4.08881 11.53697 4.08881
4.06075 11.68014 4.06075
4.00300 11.88271 4.00300
4.00000 13.19120 4.00000
4.00000 13.19120 4.00000
4.00000 13.19120 4.00000
4.00000 13.19120 4.00000
4.00000 13.19120 4.00000
4.00000 13.19120 4.00000
4.00000 13.19120 4.00000
4.00000 13.19120 4.00000
4.00000 13.19120 4.00000
4.00000 13.19120 4.00000
4.00000 13.19120 4.00000
4.00000 13.19120 4.00000
4.00000 13.19120 4.00000
4.00000 13.19120 4.00000
4.00125 13.19593 4.00125
4.01504 13.25587 4.01504
4.02643 13.32066 4.02643
4.03542 13.39025 4.03542
4.04210 13.46449 4.04210
4.04656 13.54321 4.04656
4.04899 13.62600 4.04899
4.05089 13.70989 4.05089
4.05272 13.79392 4.05272
4.05451 13.87808 4.05451
4.05624 13.96235 4.05624
4.05794 14.04673 4.05794
4.05960 14.13120 4.05960
4.06123 14.21576 4.06123
4.06283 14.30040 4.06283
4.06440 14.38511 4.06440
4.06595 14.46989 4.06595
4.06748 14.55474 4.06748
4.06898 14.63965 4.06898
4.07047 14.72461 4.07047
4.07194 14.80963 4.07194
4.07340 14.89470 4.07340
4.07484 14.97982 4.07484
4.07627 15.06498 4.07627
4.07761 15.15034 4.07761
4.07871 15.23621 4.07871
4.07957 15.32256 4.07957
4.08022 15.40937 4.08022
4.08066 15.49660 4.08066
4.08092 15.58422 4.08092
4.08100 15.67222 4.08100
4.08092 15.76055 4.08092
4.08069 15.84919 4.08069
4.08033 15.93812 4.08033
4.07985 16.02732 4.07985
4.07925 16.11675 4.07925
4.07855 16.20641 4.07855
4.07776 16.29626 4.07776
4.07689 16.38630 4.07689
4.07595 16.47650 4.07595
4.07494 16.56684 4.07494
4.07387 16.65731 4.07387
4.07275 16.74790 4.07275
4.07159 16.83860 4.07159
4.07040 16.92938 4.07040
4.06917 17.02024 4.06917
4.06792 17.11116 4.06792
4.06664 17.20214 4.06664
4.06535 17.29318 4.06535
4.06405 17.38425 4.06405
4.06274 17.47535 4.06274
4.06142 17.56647 4.06142
4.06010 17.65762 4.06010
4.05879 17.74877 4.05879
4.05748 17.83993 4.05747
4.05617 17.93110 4.05617
4.05487 18.02226 4.05487
4.05358 18.11341 4.05358
4.05231 18.20456 4.05231
4.05104 18.29569 4.05104
4.04979 18.38680 4.04979
4.04856 18.47790 4.04856
4.04735 18.56897 4.04735
4.04615 18.66002 4.04615
4.04497 18.75105 4.04497
4.04381 18.84205 4.04381
4.04267 18.93302 4.04267
4.04155 19.02397 4.04155
4.04045 19.11489 4.04045
4.03938 19.20577 4.03938
4.03832 19.29663 4.03832
4.03729 19.38745 4.03729
4.03627 19.47824 4.03627
4.03528 19.56900 4.03528
4.03431 19.65974 4.03431
4.03336 19.75043 4.03336
4.03244 19.84110 4.03244
4.03153 19.93173 4.03153
4.03065 20.02234 4.03065
4.02978 20.11291 4.02978
4.02894 20.20345 4.02894
4.02812 20.29396 4.02812
4.02732 20.38445 4.02732
4.02653 20.47490 4.02653
4.02577 20.56532 4.02577
4.02503 20.65572 4.02503
4.02430 20.74609 4.02431
4.02360 20.83643 4.02360
4.02291 20.92674 4.02291
4.02224 21.01703 4.02224
4.02159 21.10729 4.02159
4.02096 21.19753 4.02096
4.02034 21.28774 4.02034
4.01974 21.37793 4.01975
4.01916 21.46809 4.01916
4.01859 21.55824 4.01859
4.01804 21.64836 4.01804
4.01751 21.73846 4.01751
4.01698 21.82854 4.01699
4.01648 21.91860 4.01648
4.01599 22.00864 4.01599
4.01551 22.09866 4.01551
4.01504 22.18866 4.01504
4.01459 22.27865 4.01459
4.01415 22.36862 4.01415
4.01372 22.45857 4.01372
4.01331 22.54850 4.01331
4.01291 22.63842 4.01291
4.01252 22.72833 4.01252
4.01214 22.81822 4.01214
4.01177 22.90810 4.01177
4.01141 22.99796 4.01141
4.01107 23.08781 4.01107
4.01073 23.17765 4.01073
4.01040 23.26748 4.01040
4.01008 23.35730 4.01009
4.00978 23.44710 4.00978
4.00948 23.53690 4.00948
4.00919 23.62668 4.00919
4.00891 23.71646 4.00891
4.00863 23.80622 4.00863
4.00837 23.89598 4.00837
4.00811 23.98573 4.00811
4.00786 24.07547 4.00786
4.00762 24.16520 4.00762
4.00739 24.25493 4.00739
4.00716 24.34465 4.00716
4.00694 24.43436 4.00694
4.00673 24.52407 4.00672
4.00652 24.61377 4.00652
4.00632 24.70347 4.00632
4.00612 24.79316 4.00612
4.00593 24.88284 4.00593
4.00575 24.97253 4.00575
4.00557 25.06220 4.00557
4.00540 25.15187 4.00540
4.00523 25.24154 4.00523
4.00507 25.33121 4.00507
4.00491 25.42087 4.00491
4.00476 25.51053 4.00476
4.00461 25.60018 4.00461
4.00447 25.68983 4.00447
4.00433 25.77949 4.00433
4.00419 25.86914 4.00419
4.00406 25.95878 4.00406
4.00394 26.04842 4.00394
4.00381 26.13807 4.00381
4.00370 26.22771 4.00370
4.00358 26.31735 4.00358
4.00347 26.40699 4.00347
4.00336 26.49663 4.00336
4.00326 26.58627 4.00326
4.00316 26.67590 4.00315
4.00306 26.76554 4.00306
4.00296 26.85518 4.00296
4.00287 26.94481 4.00287
4.00278 27.03445 4.00278
4.00269 27.12408 4.00269
4.00261 27.21372 4.00261
4.00253 27.30336 4.00253
4.00245 27.39300 4.00245
4.00237 27.48263 4.00237
4.00230 27.57227 4.00230
4.00223 27.66191 4.00223
4.00215 27.75155 4.00216
4.00209 27.84119 4.00209
4.00202 27.93084 4.00202
4.00196 28.02048 4.00196
4.00190 28.11012 4.00190
4.00184 28.19977 4.00184
4.00178 28.28942 4.00178
4.00173 28.37907 4.00173
4.00167 28.46872 4.00167
4.00162 28.55837 4.00162
4.00157 28.64802 4.00157
4.00152 28.73768 4.00152
4.00147 28.82734 4.00147
4.00143 28.91700 4.00143
4.00138 29.00666 4.00138
4.00134 29.09633 4.00134
4.00130 29.18599 4.00130
4.00125 29.27566 4.00125
4.00122 29.36533 4.00121
4.00118 29.45500 4.00118
4.00114 29.54467 4.00114
4.00110 29.63435 4.00110
4.00107 29.72403 4.00107
4.00103 29.81371 4.00104
4.00100 29.90340 4.00100
4.00097 29.99308 4.00097
4.00094 30.08277 4.00094
4.00091 30.17246 4.00091
4.00088 30.26216 4.00088
4.00086 30.35185 4.00086
4.00083 30.44155 4.00083
4.00080 30.53125 4.00080
4.00078 30.62096 4.00078
4.00075 30.71066 4.00075
4.00073 30.80037 4.00073
4.00071 30.89009 4.00071
4.00068 30.97980 4.00068
4.00066 31.06952 4.00066
4.00064 31.15924 4.00064
4.00062 31.24896 4.00062
4.00060 31.33869 4.00060

Angle 0.333640 3.258010

4.00000 7.03347 4.00000
4.00000 7.03348 4.00000
4.00000 7.03348 4.00000
4.00000 7.03348 4.00000
4.00000 7.03348 4.00000
4.00000 7.03348 4.00000
4.00000 7.03348 4.00000
4.00000 7.03348 4.00000
4.00000 7.03348 4.00000
4.00000 7.03348 4.00000
4.00000 7.03348 4.00000
4.00000 7.03348 4.00000
4.00000 7.03348 4.00000
4.00000 7.03348 4.00000
4.00000 7.03348 4.00000
4.00000 7.03348 4.00000
4.00000 7.03348 4.00000
4.00000 7.03348 4.00000
4.00000 7.03348 4.00000
4.00000 7.03348 4.00000
4.00000 7.03348 4.00000
4.00000 7.03348 4.00000
4.00000 7.03348 4.00000
4.00000 7.03348 4.00000
4.00000 7.03348 4.00000
4.00000 7.03348 4.00000
4.00000 7.03348 4.00000
4.00000 7.03348 4.00000
4.00000 7.03348 4.00000
4.00000 7.03348 4.00000
4.00000 7.03348 4.00000
4.00000 7.03348 4.00000
4.00000 7.03348 4.00000
4.00000 7.03348 4.00000
4.00000 7.03348 4.00000
4.00000 7.03348 4.00000
4.00000 7.03348 4.00000
4.00000 7.03348 4.00000
4.00000 7.03348 4.00000
4.00000 7.03348 4.00000
4.00000 7.03348 4.00000
4.00000 7.03348 4.00000
4.00000 7.03349 4.00000
4.00000 7.03348 4.00000
4.00000 7.03348 4.00000
4.00000 7.03347 4.00000
4.00000 7.03347 4.00000
4.00000 7.03348 4.00000
4.00000 7.03348 4.00000
4.00000 7.03348 4.00000
4.00000 7.03348 4.00000
4.00000 7.03348 4.00000
4.00000 7.03348 4.00000
4.00000 7.03348 4.00000
4.00000 7.03348 4.00000
4.00000 7.03348 4.00000
4.00000 7.03348 4.00000
4.00000 7.03348 4.00000
4.00000 7.03348 4.00000
4.00000 7.03348 4.00000
4.00000 7.03348 4.00000
4.00000 7.03348 4.00000
4.00000 7.03348 4.00000
4.00000 7.03348 4.00000
4.00000 7.03348 4.00000
4.00000 7.03348 4.00000
4.00000 7.03348 4.00000
4.00000 7.03348 4.00000
4.00000 7.03348 4.00000
4.00000 7.03348 4.00000
4.00000 7.03348 4.00000
4.00000 7.03348 4.00000
4.00000 7.03348 4.00000
4.00000 7.03348 4.00000
4.00000 7.03348 4.00000
4.00000 7.03348 4.00000
4.00000 7.03348 4.00000
4.00000 7.03348 4.00000
4.00000 7.03348 4.00000
4.00000 7.03348 4.00000
4.00000 7.03348 4.00000
4.00000 7.03348 4.00000
4.00000 7.03348 4.00000
4.00000 7.03348 4.00000
4.00000 7.03348 4.00000
4.00000 7.03348 4.00000
4.00000 7.03348 4.00000
4.00000 7.03348 4.00000
4.00000 7.03348 4.00000
4.00000 7.03348 4.00000
4.00000 7.03348 4.00000
4.00000 7.03348 4.00000
4.00000 7.03348 4.00000
4.00000 7.03348 4.00000
4.00000 7.03348 4.00000
4.00000 7.03348 4.00000
4.00000 7.03348 4.00000
4.00000 7.03348 4.00000
4.00000 7.03348 4.00000
4.00000 7.03348 4.00000
4.00000 7.03348 4.00000
4.00000 7.03348 4.00000
4.00000 7.03348 4.00000
4.00000 7.03348 4.00000
4.00000 7.03348 4.00000
4.00000 7.03348 4.00000
4.00000 7.03348 4.00000
4.00000 7.03348 4.00000
4.00000 7.03348 4.00000
4.00000 7.03348 4.00000
4.00000 7.03348 4.00000
4.00000 7.03348 4.00000
4.00000 7.03348 4.00000
4.00000 7.03348 4.00000
4.00000 7.03348 4.00000
4.00000 7.03348 4.00000
4.00000 7.03348 4.00000
4.00000 7.03348 4.00000
4.00000 7.03348 4.00000
4.00000 7.03348 4.00000
4.00000 7.03348 4.00000
4.00000 7.03348 4.00000
4.00000 7.03348 4.00000
4.00000 7.03348 4.00000
4.00000 7.03348 4.00000
4.00000 7.03348 4.00000
4.00000 7.03348 4.00000
4.00000 7.03348 4.00000
4.00000 7.03348 4.00000
4.00000 7.03346 4.00000
4.00000 7.03347 4.00000
4.00000 7.03348 4.00000
4.00000 7.03348 4.00000
4.00000 7.03348 4.00000
4.00000 7.03348 4.00000
4.00000 7.03348 4.00000
4.00000 7.03348 4.00000
4.00000 7.03348 4.00000
4.00000 7.03348 4.00000
4.00000 7.03348 4.00000
4.00000 7.03348 4.00000
4.00000 7.03348 4.00000
4.00000 7.03348 4.00000
4.00000 7.03348 4.00000
4.00000 7.03348 4.00000
4.00000 7.03348 4.00000
4.00000 7.03348 4.00000
4.00000 7.03348 4.00000
4.00000 7.03348 4.00000
4.00000 7.03348 4.00000
4.00000 7.03348 4.00000
4.00000 7.03348 4.00000
4.00000 7.03348 4.00000
4.00000 7.03348 4.00000
4.00000 7.03348 4.00000
4.00000 7.03348 4.00000
4.00000 7.03348 4.00000
4.00000 7.03348 4.00000
4.00000 7.03348 4.00000
4.00000 7.03348 4.00000
4.00000 7.03348 4.00000
4.00000 7.03348 4.00000
4.00000 7.03348 4.00000
4.00000 7.03348 4.00000
4.00000 7.03348 4.00000
4.00000 7.03348 4.00000
4.00000 7.03348 4.00000
4.00000 7.03348 4.00000
4.00000 7.03348 4.00000
4.00000 7.03348 4.00000
4.00000 7.03348 4.00000
4.00000 7.03348 4.00000
4.00000 7.03348 4.00000
4.00000 7.03348 4.00000
4.00000 7.03348 4.00000
4.00000 7.03348 4.00000
4.00000 7.03348 4.00000
4.00000 7.03348 4.00000
4.00000 7.03348 4.00000
4.00000 7.03348 4.00000
4.00000 7.03348 4.00000
4.00000 7.03348 4.00000
4.00000 7.03348 4.00000
4.00000 7.03348 4.00000
4.00000 7.03348 4.00000
4.00000 7.03348 4.00000
4.00000 7.03348 4.00000
4.00000 7.03348 4.00000
4.00000 7.03348 4.00000
4.00000 7.03348 4.00000
4.00000 7.03348 4.00000
4.00000 7.03348 4.00000
4.00000 7.03348 4.00000
4.00000 7.03348 4.00000
4.00000 7.03348 4.00000
4.00000 7.03348 4.00000
4.00000 7.03348 4.00000
4.00000 7.03348 4.00000
4.00000 7.03348 4.00000
4.00000 7.03348 4.00000
4.00000 7.03348 4.00000
4.00000 7.03348 4.00000
4.00000 7.03348 4.00000
4.00000 7.03348 4.00000
4.00000 7.03348 4.00000
4.00000 7.03348 4.00000
4.00000 7.03348 4.00000
4.00000 7.03348 4.00000
4.00000 7.03348 4.00000
4.00000 7.03348 4.00000
4.00000 7.03348 4.00000
4.00000 7.03348 4.00000
4.00000 7.03348 4.00000
4.00000 7.03348 4.00000
4.00000 7.03348 4.00000
4.00000 7.03354 4.00000
4.00000 7.03351 4.00000
4.00173 7.07546 4.00172
4.00443 7.14286 4.00443
4.00708 7.21058 4.00708
4.00967 7.27858 4.00967
4.01222 7.34686 4.01222
4.01474 7.41538 4.01474
4.01724 7.48414 4.01724
4.01971 7.55310 4.01971
4.02218 7.62226 4.02218
4.02465 7.69159 4.02465
4.02713 7.76106 4.02713
4.02963 7.83067 4.02963
4.03215 7.90038 4.03215
4.03472 7.97017 4.03472
4.03735 8.04002 4.03735
4.04004 8.10988 4.04004
4.04282 8.17973 4.04282
4.04570 8.24952 4.04570
4.04871 8.31922 4.04871
4.05187 8.38875 4.05187
4.05522 8.45807 4.05522
4.05879 8.52708 4.05879
4.06264 8.59568 4.06264
4.06682 8.66377 4.06682
4.07134 8.73130 4.07134
4.07617 8.79836 4.07617
4.08132 8.86492 4.08132
4.08679 8.93096 4.08679
4.09260 8.99645 4.09260
4.09875 9.06141 4.09875
4.10523 9.12583 4.10523
4.11202 9.18976 4.11202
4.11909 9.25325 4.11909
4.12640 9.31639 4.12640
4.13388 9.37930 4.13388
4.14145 9.44216 4.14145
4.14900 9.50518 4.14900
4.15638 9.56864 4.15638
4.16344 9.63288 4.16344
4.16996 9.69830 4.16996
4.17572 9.76537 4.17572
4.18045 9.83459 4.18045
4.18390 9.90649 4.18390
4.18583 9.98154 4.18583
4.18608 10.06006 4.18608
4.18492 10.14149 4.18492
4.18329 10.22398 4.18329
4.18125 10.30739 4.18125
4.17881 10.39170 4.17881
4.17596 10.47694 4.17596
4.17267 10.56314 4.17267
4.16892 10.65037 4.16892
4.16464 10.73875 4.16464
4.15977 10.82841 4.15977
4.15420 10.91956 4.15420
4.14779 11.01249 4.14779
4.14034 11.10760 4.14034
4.13152 11.20551 4.13152
4.12087 11.30720 4.12087
4.10752 11.41436 4.10752
4.08999 11.52999 4.08999
4.06511 11.66039 4.06511
4.02096 11.82941 4.02096
4.00000 13.19120 4.00000
4.00000 13.19120 4.00000
4.00000 13.19120 4.00000
4.00000 13.19120 4.00000
4.00000 13.19120 4.00000
4.00000 13.19120 4.00000
4.00000 13.19120 4.00000
4.00000 13.19120 4.00000
4.00000 13.19120 4.00000
4.00000 13.19120 4.00000
4.00000 13.19121 4.00000
4.00000 13.19120 4.00000
4.00000 13.19120 4.00000
4.00000 13.19120 4.00000
4.00000 13.19120 4.00000
4.00000 13.19120 4.00000
4.01057 13.23471 4.01057
4.02209 13.29377 4.02209
4.03151 13.35711 4.03151
4.03886 13.42465 4.03886
4.04420 13.49627 4.04420
4.04761 13.57181 4.04761
4.04955 13.65037 4.04955
4.05132 13.72934 4.05132
4.05304 13.80847 4.05304
4.05471 13.88775 4.05471
4.05634 13.96717 4.05634
4.05794 14.04673 4.05794
4.05951 14.12641 4.05951
4.06105 14.20620 4.06105
4.06256 14.28610 4.06256
4.06405 14.36611 4.06405
4.06552 14.44623 4.06552
4.06697 14.52643 4.06697
4.06840 14.60673 4.06840
4.06982 14.68712 4.06982
4.07122 14.76759 4.07122
4.07261 14.84815 4.07261
4.07398 14.92879 4.07398
4.07534 15.00950 4.07534
4.07669 15.09029 4.07669
4.07790 15.17141 4.07790
4.07890 15.25303 4.07890
4.07968 15.33511 4.07968
4.08027 15.41763 4.08027
4.08068 15.50056 4.08068
4.08092 15.58388 4.08092
4.08100 15.66757 4.08100
4.08093 15.75160 4.08093
4.08074 15.83594 4.08074
4.08041 15.92059 4.08041
4.07998 16.00550 4.07998
4.07943 16.09067 4.07943
4.07880 16.17608 4.07880
4.07808 16.26171 4.07808
4.07727 16.34754 4.07727
4.07640 16.43355 4.07640
4.07547 16.51974 4.07547
4.07448 16.60608 4.07448
4.07344 16.69256 4.07344
4.07236 16.77918 4.07236
4.07124 16.86591 4.07124
4.07008 16.95275 4.07008
4.06890 17.03968 4.06890
4.06770 17.12671 4.06770
4.06648 17.21381 4.06648
4.06524 17.30098 4.06524
4.06399 17.38822 4.06399
4.06274 17.47551 4.06274
4.06147 17.56285 4.06147
4.06021 17.65023 4.06021
4.05895 17.73765 4.05895
4.05769 17.82511 4.05769
4.05643 17.91259 4.05643
4.05518 18.00010 4.05518
4.05395 18.08762 4.05395
4.05272 18.17517 4.05272
4.05150 18.26272 4.05150
4.05029 18.35029 4.05029
4.04910 18.43786 4.04910
4.04793 18.52544 4.04793
4.04676 18.61303 4.04676
4.04562 18.70061 4.04562
4.04449 18.78820 4.04449
4.04339 18.87578 4.04339
4.04230 18.96336 4.04230
4.04122 19.05094 4.04122
4.04017 19.13851 4.04017
4.03914 19.22608 4.03914
4.03812 19.31363 4.03812
4.03713 19.40119 4.03713
4.03616 19.48873 4.03616
4.03520 19.57627 4.03520
4.03427 19.66379 4.03427
4.03335 19.75131 4.03335
4.03246 19.83882 4.03246
4.03158 19.92633 4.03158
4.03073 20.01382 4.03073
4.02989 20.10130 4.02989
4.02908 20.18878 4.02908
4.02828 20.27624 4.02828
4.02750 20.36370 4.02750
4.02674 20.45115 4.02674
4.02599 20.53859 4.02599
4.02527 20.62603 4.02527
4.02456 20.71345 4.02456
4.02388 20.80087 4.02388
4.02320 20.88829 4.02320
4.02255 20.97569 4.02255
4.02191 21.06309 4.02191
4.02129 21.15048 4.02129
4.02068 21.23787 4.02068
4.02009 21.32526 4.02009
4.01952 21.41263 4.01952
4.01896 21.50001 4.01896
4.01841 21.58738 4.01841
4.01788 21.67475 4.01788
4.01737 21.76211 4.01737
4.01687 21.84947 4.01687
4.01638 21.93683 4.01638

Angle 0.035864 4.050804

4.00000 7.03348 4.00000
4.00000 7.03348 4.00000
4.00000 7.03348 4.00000
4.00000 7.03348 4.00000
4.00000 7.03348 4.00000
4.00000 7.03348 4.00000
4.00000 7.03348 4.00000
4.00000 7.03348 4.00000
4.00000 7.03348 4.00000
4.00000 7.03348 4.00000
4.00000 7.03348 4.00000
4.00000 7.03348 4.00000
4.00000 7.03348 4.00000
4.00000 7.03348 4.00000
4.00000 7.03348 4.00000
4.00000 7.03348 4.00000
4.00000 7.03348 4.00000
4.00000 7.03348 4.00000
4.00000 7.03348 4.00000
4.00000 7.03348 4.00000
4.00000 7.03348 4.00000
4.00000 7.03348 4.00000
4.00000 7.03348 4.00000
4.00000 7.03348 4.00000
4.00000 7.03348 4.00000
4.00000 7.03348 4.00000
4.00000 7.03348 4.00000
4.00000 7.03348 4.00000
4.00000 7.03348 4.00000
4.00000 7.03348 4.00000
4.00000 7.03348 4.00000
4.00000 7.03348 4.00000
4.00000 7.03348 4.00000
4.00000 7.03348 4.00000
4.00000 7.03348 4.00000
4.00000 7.03348 4.00000
4.00000 7.03348 4.00000
4.00000 7.03348 4.00000
4.00000 7.03348 4.00000
4.00000 7.03348 4.00000
4.00000 7.03348 4.00000
4.00000 7.03348 4.00000
4.00000 7.03348 4.00000
4.00000 7.03348 4.00000
4.00000 7.03348 4.00000
4.00000 7.03348 4.00000
4.00000 7.03348 4.00000
4.00000 7.03348 4.00000
4.00000 7.03348 4.00000
4.00000 7.03348 4.00000
4.00000 7.03348 4.00000
4.00000 7.03348 4.00000
4.00000 7.03348 4.00000
4.00000 7.03348 4.00000
4.00000 7.03348 4.00000
4.00000 7.03348 4.00000
4.00000 7.03348 4.00000
4.00000 7.03348 4.00000
4.00000 7.03348 4.00000
4.00000 7.03348 4.00000
4.00000 7.03348 4.00000
4.00000 7.03348 4.00000
4.00000 7.03348 4.00000
4.00000 7.03348 4.00000
4.00000 7.03348 4.00000
4.00000 7.03348 4.00000
4.00000 7.03348 4.00000
4.00000 7.03348 4.00000
4.00000 7.03348 4.00000
4.00000 7.03348 4.00000
4.00000 7.03348 4.00000
4.00000 7.03348 4.00000
4.00000 7.03348 4.00000
4.00000 7.03348 4.00000
4.00000 7.03348 4.00000
4.00000 7.03348 4.00000
4.00000 7.03348 4.00000
4.00000 7.03348 4.00000
4.00000 7.03348 4.00000
4.00000 7.03348 4.00000
4.00000 7.03348 4.00000
4.00000 7.03348 4.00000
4.00000 7.03348 4.00000
4.00000 7.03348 4.00000
4.00000 7.03348 4.00000
4.00000 7.03348 4.00000
4.00000 7.03348 4.00000
4.00000 7.03348 4.00000
4.00000 7.03348 4.00000
4.00000 7.03348 4.00000
4.00000 7.03348 4.00000
4.00000 7.03348 4.00000
4.00000 7.03348 4.00000
4.00000 7.03348 4.00000
4.00000 7.03348 4.00000
4.00000 7.03348 4.00000
4.00000 7.03348 4.00000
4.00000 7.03348 4.00000
4.00000 7.03348 4.00000
4.00000 7.03348 4.00000
4.00000 7.03348 4.00000
4.00000 7.03348 4.00000
4.00000 7.03348 4.00000
4.00000 7.03348 4.00000
4.00000 7.03348 4.00000
4.00000 7.03348 4.00000
4.00000 7.03348 4.00000
4.00000 7.03348 4.00000
4.00000 7.03348 4.00000
4.00000 7.03348 4.00000
4.00000 7.03348 4.00000
4.00000 7.03348 4.00000
4.00000 7.03348 4.00000
4.00000 7.03348 4.00000
4.00000 7.03348 4.00000
4.00000 7.03348 4.00000
4.00000 7.03348 4.00000
4.00000 7.03348 4.00000
4.00000 7.03348 4.00000
4.00000 7.03348 4.00000
4.00000 7.03348 4.00000
4.00000 7.03348 4.00000
4.00000 7.03348 4.00000
4.00000 7.03348 4.00000
4.00000 7.03348 4.00000
4.00000 7.03348 4.00000
4.00000 7.03348 4.00000
4.00000 7.03348 4.00000
4.00000 7.03349 4.00000
4.00000 7.03349 4.00000
4.00000 7.03348 4.00000
4.00000 7.03348 4.00000
4.00000 7.03348 4.00000
4.00000 7.03348 4.00000
4.00000 7.03348 4.00000
4.00000 7.03349 4.00000
4.00000 7.03348 4.00000
4.00000 7.03348 4.00000
4.00000 7.03348 4.00000
4.00000 7.03348 4.00000
4.00000 7.03348 4.00000
4.00000 7.03348 4.00000
4.00000 7.03348 4.00000
4.00000 7.03348 4.00000
4.00000 7.03348 4.00000
4.00000 7.03348 4.00000
4.00000 7.03348 4.00000
4.00000 7.03349 4.00000
4.00000 7.03349 4.00000
4.00000 7.03350 4.00000
4.00000 7.03351 4.00000
4.00000 7.03348 4.00000
4.00000 7.03348 4.00000
4.00000 7.03349 4.00000
4.00000 7.03348 4.00000
4.00093 7.05603 4.00093
4.00397 7.13118 4.00397
4.00692 7.20660 4.00692
4.00981 7.28227 4.00981
4.01264 7.35815 4.01264
4.01543 7.43421 4.01543
4.01818 7.51044 4.01818
4.02092 7.58681 4.02092
4.02364 7.66329 4.02364
4.02637 7.73986 4.02637
4.02912 7.81649 4.02912
4.03189 7.89315 4.03189
4.03471 7.96981 4.03471
4.03759 8.04643 4.03759
4.04055 8.12299 4.04056
4.04362 8.19942 4.04362
4.04681 8.27568 4.04681
4.05017 8.35170 4.05017
4.05371 8.42742 4.05371
4.05750 8.50273 4.05750
4.06159 8.57753 4.06159
4.06605 8.65167 4.06605
4.07091 8.72507 4.07091
4.07613 8.79784 4.07613
4.08172 8.86994 4.08172
4.08769 8.94135 4.08769
4.09404 9.01206 4.09404
4.10079 9.08208 4.10079
4.10790 9.15142 4.10790
4.11536 9.22014 4.11536
4.12312 9.28833 4.12312
4.13110 9.35613 4.13110
4.13923 9.42373 4.13923
4.14735 9.49138 4.14735
4.15533 9.55941 4.15533
4.16295 9.62821 4.16295
4.16996 9.69828 4.16996
4.17609 9.77018 4.17609
4.18102 9.84454 4.18102
4.18444 9.92199 4.18444
4.18607 10.00307 4.18607
4.18576 10.08809 4.18576
4.18430 10.17549 4.18430
4.18236 10.26388 4.18236
4.17997 10.35324 4.17997
4.17712 10.44357 4.17712
4.17379 10.53491 4.17379
4.16995 10.62732 4.16995
4.16554 10.72094 4.16554
4.16049 10.81590 4.16049
4.15466 10.91244 4.15466
4.14791 11.01090 4.14791
4.13999 11.11174 4.13999
4.13053 11.21571 4.13053
4.11894 11.32400 4.11894
4.10411 11.43880 4.10411
4.08408 11.56406 4.08408
4.05387 11.70972 4.05387
4.00000 13.19120 4.00000
4.00000 13.19120 4.00000
4.00000 13.19120 4.00000
4.00000 13.19120 4.00000
4.00000 13.19120 4.00000
4.00000 13.19120 4.00000
4.00000 13.19120 4.00000
4.00000 13.19120 4.00000
4.00000 13.19120 4.00000
4.00000 13.19120 4.00000
4.00000 13.19120 4.00000
4.00000 13.19120 4.00000
4.00000 13.19120 4.00000
4.00000 13.19120 4.00000
4.00001 13.19123 4.00001
4.00000 13.19120 4.00000
4.01321 13.24694 4.01321
4.02475 13.30986 4.02475
4.03398 13.37743 4.03398
4.04097 13.44954 4.04097
4.04579 13.52602 4.04579
4.04855 13.60666 4.04855
4.05043 13.68909 4.05042
4.05224 13.77168 4.05224
4.05401 13.85441 4.05401
4.05573 13.93726 4.05573
4.05741 14.02022 4.05741
4.05906 14.10330 4.05906
4.06067 14.18647 4.06067
4.06225 14.26973 4.06225
4.06381 14.35307 4.06381
4.06534 14.43650 4.06534
4.06685 14.52000 4.06685
4.06835 14.60357 4.06835
4.06982 14.68721 4.06982
4.07128 14.77092 4.07128
4.07272 14.85468 4.07272
4.07414 14.93851 4.07415
4.07556 15.02239 4.07556
4.07695 15.10634 4.07695
4.07816 15.19069 4.07816
4.07913 15.27554 4.07913
4.07989 15.36086 4.07989
4.08043 15.44661 4.08043
4.08079 15.53278 4.08079
4.08097 15.61932 4.08097
4.08099 15.70622 4.08099
4.08085 15.79345 4.08085
4.08058 15.88099 4.08058
4.08018 15.96880 4.08018
4.07966 16.05688 4.07966
4.07904 16.14519 4.07904
4.07832 16.23371 4.07832
4.07752 16.32244 4.07752
4.07663 16.41134 4.07663
4.07568 16.50041 4.07569
4.07467 16.58962 4.07467
4.07361 16.67897 4.07361
4.07249 16.76843 4.07249
4.07134 16.85800 4.07134
4.07015 16.94766 4.07015
4.06894 17.03740 4.06894
4.06769 17.12722 4.06769
4.06643 17.21710 4.06643
4.06515 17.30703 4.06515
4.06387 17.39700 4.06387
4.06257 17.48701 4.06257
4.06127 17.57706 4.06127
4.05997 17.66713 4.05997
4.05867 17.75721 4.05867
4.05737 17.84731 4.05737
4.05608 17.93742 4.05608
4.05480 18.02754 4.05480
4.05352 18.11765 4.05352
4.05226 18.20776 4.05226
4.05101 18.29787 4.05101
4.04978 18.38796 4.04978
4.04856 18.47805 4.04856
4.04736 18.56812 4.04736
4.04617 18.65818 4.04617
4.04501 18.74822 4.04501
4.04386 18.83824 4.04386
4.04273 18.92824 4.04273
4.04162 19.01821 4.04162
4.04053 19.10817 4.04053
4.03946 19.19811 4.03947
4.03842 19.28802 4.03842
4.03739 19.37790 4.03739
4.03639 19.46776 4.03639
4.03540 19.55760 4.03540
4.03444 19.64741 4.03444
4.03350 19.73720 4.03350
4.03258 19.82696 4.03258
4.03168 19.91670 4.03168
4.03080 20.00641 4.03080
4.02994 20.09610 4.02994
4.02910 20.18577 4.02910
4.02828 20.27541 4.02828
4.02749 20.36502 4.02749
4.02671 20.45462 4.02671
4.02595 20.54419 4.02595
4.02521 20.63374 4.02521
4.02449 20.72326 4.02449
4.02378 20.81277 4.02378
4.02310 20.90225 4.02310
4.02243 20.99171 4.02243
4.02178 21.08115 4.02178
4.02115 21.17058 4.02115
4.02053 21.25998 4.02053
4.01993 21.34937 4.01993
4.01935 21.43874 4.01935
4.01878 21.52809 4.01878
4.01823 21.61742 4.01823
4.01769 21.70674 4.01769
4.01717 21.79604 4.01717
4.01666 21.88533 4.01666
4.01617 21.97460 4.01617
4.01569 22.06386 4.01569
4.01522 22.15311 4.01522
4.01477 22.24234 4.01477
4.01433 22.33156 4.01433
4.01390 22.42076 4.01390
4.01349 22.50996 4.01349
4.01308 22.59914 4.01308
4.01269 22.68832 4.01269
4.01231 22.77749 4.01231
4.01194 22.86664 4.01194
4.01158 22.95579 4.01158
4.01123 23.04493 4.01123
4.01089 23.13406 4.01089
4.01056 23.22318 4.01056
4.01024 23.31229 4.01024
4.00993 23.40140 4.00993
4.00963 23.49051 4.00963
4.00934 23.57960 4.00934
4.00905 23.66869 4.00906
4.00878 23.75778 4.00878
4.00851 23.84686 4.00851
4.00825 23.93593 4.00826
4.00800 24.02501 4.00800
4.00775 24.11408 4.00776
4.00752 24.20314 4.00752
4.00729 24.29220 4.00729
4.00707 24.38126 4.00707
4.00685 24.47032 4.00685
4.00664 24.55937 4.00664
4.00644 24.64842 4.00644
4.00624 24.73747 4.00624
4.00605 24.82652 4.00605
4.00586 24.91557 4.00586
4.00568 25.00461 4.00568
4.00551 25.09366 4.00551
4.00534 25.18270 4.00534
4.00517 25.27175 4.00517
4.00502 25.36079 4.00502
4.00486 25.44984 4.00486
4.00471 25.53888 4.00471
4.00457 25.62793 4.00457
4.00442 25.71698 4.00443
4.00429 25.80602 4.00429
4.00416 25.89507 4.00416
4.00403 25.98412 4.00403
4.00390 26.07318 4.00390
4.00378 26.16223 4.00378
4.00366 26.25128 4.00367
4.00355 26.34034 4.00355
4.00344 26.42940 4.00344
4.00334 26.51846 4.00334
4.00323 26.60752 4.00323
4.00313 26.69659 4.00313
4.00304 26.78566 4.00304
4.00294 26.87473 4.00294
4.00285 26.96381 4.00285
4.00276 27.05288 4.00276
4.00268 27.14196 4.00268
4.00259 27.23105 4.00259
4.00251 27.32013 4.00251
4.00243 27.40922 4.00243
4.00236 27.49832 4.00236
4.00229 27.58741 4.00229
4.00221 27.67652 4.00221
4.00214 27.76562 4.00214
4.00208 27.85473 4.00208
4.00201 27.94384 4.00201
4.00195 28.03295 4.00195
4.00189 28.12207 4.00189
4.00183 28.21120 4.00183

Angle 0.435922 4.525037

4.00000 7.03348 4.00000
4.00000 7.03346 4.00000
4.00000 7.03346 4.00000
4.00000 7.03348 4.00000
4.00000 7.03348 4.00000
4.00000 7.03348 4.00000
4.00000 7.03348 4.00000
4.00000 7.03348 4.00000
4.00000 7.03348 4.00000
4.00000 7.03348 4.00000
4.00000 7.03348 4.00000
4.00000 7.03348 4.00000
4.00000 7.03348 4.00000
4.00000 7.03348 4.00000
4.00000 7.03348 4.00000
4.00000 7.03348 4.00000
4.00000 7.03348 4.00000
4.00000 7.03348 4.00000
4.00000 7.03348 4.00000
4.00000 7.03348 4.00000
4.00000 7.03348 4.00000
4.00000 7.03348 4.00000
4.00000 7.03348 4.00000
4.00000 7.03348 4.00000
4.00000 7.03348 4.00000
4.00000 7.03348 4.00000
4.00000 7.03348 4.00000
4.00000 7.03348 4.00000
4.00000 7.03348 4.00000
4.00000 7.03348 4.00000
4.00000 7.03348 4.00000
4.00000 7.03348 4.00000
4.00000 7.03348 4.00000
4.00000 7.03348 4.00000
4.00000 7.03348 4.00000
4.00000 7.03348 4.00000
4.00000 7.03348 4.00000
4.00000 7.03348 4.00000
4.00000 7.03348 4.00000
4.00000 7.03348 4.00000
4.00000 7.03348 4.00000
4.00000 7.03348 4.00000
4.00000 7.03348 4.00000
4.00000 7.03348 4.00000
4.00000 7.03348 4.00000
4.00000 7.03348 4.00000
4.00000 7.03348 4.00000
4.00000 7.03348 4.00000
4.00000 7.03348 4.00000
4.00000 7.03348 4.00000
4.00000 7.03348 4.00000
4.00000 7.03348 4.00000
4.00000 7.03348 4.00000
4.00000 7.03348 4.00000
4.00000 7.03348 4.00000
4.00000 7.03348 4.00000
4.00000 7.03348 4.00000
4.00000 7.03348 4.00000
4.00000 7.03348 4.00000
4.00000 7.03348 4.00000
4.00000 7.03348 4.00000
4.00000 7.03348 4.00000
4.00000 7.03348 4.00000
4.00000 7.03348 4.00000
4.00000 7.03348 4.00000
4.00000 7.03348 4.00000
4.00000 7.03348 4.00000
4.00000 7.03348 4.00000
4.00000 7.03348 4.00000
4.00000 7.03348 4.00000
4.00000 7.03348 4.00000
4.00000 7.03348 4.00000
4.00000 7.03348 4.00000
4.00000 7.03348 4.00000
4.00000 7.03348 4.00000
4.00000 7.03348 4.00000
4.00000 7.03348 4.00000
4.00000 7.03348 4.00000
4.00000 7.03348 4.00000
4.00000 7.03348 4.00000
4.00000 7.03348 4.00000
4.00000 7.03348 4.00000
4.00000 7.03348 4.00000
4.00000 7.03348 4.00000
4.00000 7.03348 4.00000
4.00000 7.03348 4.00000
4.00000 7.03348 4.00000
4.00000 7.03348 4.00000
4.00000 7.03348 4.00000
4.00000 7.03348 4.00000
4.00000 7.03348 4.00000
4.00000 7.03348 4.00000
4.00000 7.03348 4.00000
4.00000 7.03348 4.00000
4.00000 7.03348 4.00000
4.00000 7.03348 4.00000
4.00000 7.03348 4.00000
4.00000 7.03348 4.00000
4.00000 7.03348 4.00000
4.00000 7.03348 4.00000
4.00000 7.03348 4.00000
4.00000 7.03348 4.00000
4.00000 7.03348 4.00000
4.00000 7.03348 4.00000
4.00000 7.03348 4.00000
4.00000 7.03348 4.00000
4.00000 7.03348 4.00000
4.00000 7.03348 4.00000
4.00000 7.03348 4.00000
4.00000 7.03348 4.00000
4.00000 7.03348 4.00000
4.00000 7.03348 4.00000
4.00000 7.03348 4.00000
4.00000 7.03348 4.00000
4.00000 7.03348 4.00000
4.00000 7.03348 4.00000
4.00000 7.03348 4.00000
4.00000 7.03348 4.00000
4.00000 7.03348 4.00000
4.00000 7.03348 4.00000
4.00000 7.03348 4.00000
4.00000 7.03348 4.00000
4.00000 7.03348 4.00000
4.00000 7.03348 4.00000
4.00000 7.03348 4.00000
4.00000 7.03348 4.00000
4.00000 7.03348 4.00000
4.00000 7.03348 4.00000
4.00000 7.03348 4.00000
4.00000 7.03348 4.00000
4.00000 7.03348 4.00000
4.00000 7.03348 4.00000
4.00000 7.03348 4.00000
4.00000 7.03348 4.00000
4.00000 7.03348 4.00000
4.00000 7.03348 4.00000
4.00000 7.03348 4.00000
4.00000 7.03348 4.00000
4.00000 7.03348 4.00000
4.00000 7.03348 4.00000
4.00000 7.03348 4.00000
4.00000 7.03348 4.00000
4.00000 7.03348 4.00000
4.00000 7.03348 4.00000
4.00000 7.03348 4.00000
4.00000 7.03348 4.00000
4.00000 7.03348 4.00000
4.00000 7.03348 4.00000
4.00000 7.03348 4.00000
4.00000 7.03348 4.00000
4.00000 7.03348 4.00000
4.00000 7.03348 4.00000
4.00000 7.03348 4.00000
4.00000 7.03348 4.00000
4.00000 7.03348 4.00000
4.00000 7.03348 4.00000
4.00000 7.03348 4.00000
4.00000 7.03348 4.00000
4.00000 7.03348 4.00000
4.00000 7.03348 4.00000
4.00000 7.03348 4.00000
4.00000 7.03348 4.00000
4.00000 7.03348 4.00000
4.00000 7.03348 4.00000
4.00000 7.03348 4.00000
4.00000 7.03348 4.00000
4.00000 7.03348 4.00000
4.00000 7.03348 4.00000
4.00000 7.03348 4.00000
4.00000 7.03348 4.00000
4.00000 7.03348 4.00000
4.00000 7.03348 4.00000
4.00000 7.03349 4.00000
4.00000 7.03349 4.00000
4.00000 7.03348 4.00000
4.00000 7.03348 4.00000
4.00000 7.03348 4.00000
4.00000 7.03348 4.00000
4.00000 7.03348 4.00000
4.00000 7.03348 4.00000
4.00000 7.03349 4.00000
4.00000 7.03348 4.00000
4.00026 7.03978 4.00026
4.00348 7.11897 4.00348
4.00661 7.19841 4.00661
4.00965 7.27807 4.00965
4.01263 7.35791 4.01263
4.01556 7.43791 4.01556
4.01846 7.51804 4.01846
4.02133 7.59826 4.02133
4.02419 7.67855 4.02419
4.02705 7.75889 4.02705
4.02994 7.83924 4.02994
4.03286 7.91956 4.03286
4.03583 7.99982 4.03583
4.03888 8.07999 4.03888
4.04202 8.16001 4.04202
4.04530 8.23982 4.04529
4.04872 8.31937 4.04872
4.05234 8.39858 4.05234
4.05620 8.47735 4.05619
4.06035 8.55557 4.06035
4.06489 8.63307 4.06488
4.06986 8.70974 4.06986
4.07523 8.78566 4.07523
4.08099 8.86083 4.08099
4.08716 8.93523 4.08716
4.09375 9.00883 4.09375
4.10075 9.08165 4.10075
4.10815 9.15370 4.10815
4.11591 9.22506 4.11591
4.12399 9.29583 4.12399
4.13230 9.36617 4.13231
4.14074 9.43630 4.14074
4.14915 9.50652 4.14915
4.15735 9.57719 4.15735
4.16510 9.64880 4.16510
4.17211 9.72192 4.17211
4.17806 9.79720 4.17806
4.18260 9.87533 4.18260
4.18539 9.95699 4.18539
4.18617 10.04269 4.18617
4.18508 10.13217 4.18508
4.18331 10.22305 4.18331
4.18105 10.31494 4.18105
4.17830 10.40783 4.17830
4.17505 10.50175 4.17505
4.17128 10.59675 4.17128
4.16692 10.69295 4.16692
4.16190 10.79051 4.16190
4.15610 10.88964 4.15610
4.14937 10.99067 4.14937
4.14146 11.09410 4.14146
4.13199 11.20065 4.13199
4.12038 11.31153 4.12038
4.10550 11.42895 4.10550
4.08534 11.55699 4.08534
4.05482 11.70576 4.05482
4.00000 13.19120 4.00000
4.00000 13.19120 4.00000
4.00000 13.19120 4.00000
4.00000 13.19120 4.00000
4.00000 13.19120 4.00000
4.00000 13.19120 4.00000
4.00000 13.19121 4.00000
4.00000 13.19120 4.00000
4.00000 13.19120 4.00000
4.00000 13.19120 4.00000
4.00000 13.19120 4.00000
4.00000 13.19120 4.00000
4.00000 13.19120 4.00000
4.00000 13.19120 4.00000
4.00000 13.19120 4.00000
4.00525 13.21179 4.00525
4.01846 13.27347 4.01846
4.02924 13.34006 4.02924
4.03761 13.41147 4.03761
4.04366 13.48755 4.04366
4.04749 13.56809 4.04749
4.04959 13.65211 4.04959
4.05148 13.73657 4.05148
4.05331 13.82117 4.05331
4.05509 13.90589 4.05509
4.05682 13.99071 4.05682
4.05851 14.07563 4.05851
4.06017 14.16064 4.06017
4.06180 14.24574 4.06180
4.06340 14.33090 4.06340
4.06497 14.41614 4.06497
4.06652 14.50144 4.06652
4.06805 14.58680 4.06805
4.06956 14.67222 4.06956
4.07105 14.75769 4.07105
4.07252 14.84321 4.07252
4.07398 14.92877 4.07398
4.07542 15.01438 4.07542
4.07685 15.10004 4.07685
4.07810 15.18608 4.07810
4.07910 15.27262 4.07910
4.07988 15.35963 4.07988
4.08044 15.44709 4.08044
4.08080 15.53496 4.08080
4.08098 15.62321 4.08097
4.08098 15.71181 4.08098
4.08083 15.80074 4.08083
4.08054 15.88997 4.08054
4.08012 15.97948 4.08012
4.07958 16.06924 4.07958
4.07893 16.15923 4.07893
4.07818 16.24943 4.07818
4.07735 16.33982 4.07735
4.07644 16.43038 4.07644
4.07545 16.52109 4.07545
4.07441 16.61193 4.07441
4.07331 16.70290 4.07331
4.07217 16.79398 4.07217
4.07098 16.88514 4.07098
4.06977 16.97639 4.06977
4.06852 17.06771 4.06852
4.06725 17.15908 4.06725
4.06596 17.25051 4.06596
4.06465 17.34198 4.06466
4.06334 17.43347 4.06334
4.06202 17.52500 4.06202
4.06070 17.61654 4.06070
4.05937 17.70809 4.05938
4.05805 17.79965 4.05805
4.05674 17.89121 4.05674
4.05543 17.98277 4.05543
4.05413 18.07431 4.05413
4.05285 18.16585 4.05285
4.05157 18.25737 4.05158
4.05031 18.34887 4.05032
4.04907 18.44036 4.04907
4.04784 18.53182 4.04784
4.04663 18.62325 4.04663
4.04544 18.71466 4.04544
4.04427 18.80604 4.04427
4.04312 18.89739 4.04312
4.04198 18.98871 4.04199
4.04087 19.08000 4.04088
4.03978 19.17126 4.03979
4.03871 19.26248 4.03872
4.03767 19.35367 4.03767
4.03664 19.44483 4.03665
4.03564 19.53595 4.03564
4.03466 19.62703 4.03466
4.03370 19.71809 4.03370
4.03276 19.80911 4.03276
4.03184 19.90009 4.03185
4.03095 19.99104 4.03095
4.03008 20.08196 4.03008
4.02922 20.17284 4.02922
4.02839 20.26370 4.02839
4.02758 20.35452 4.02758
4.02679 20.44530 4.02679
4.02602 20.53606 4.02602
4.02526 20.62678 4.02527
4.02453 20.71748 4.02453
4.02382 20.80814 4.02382
4.02312 20.89878 4.02313
4.02245 20.98939 4.02245
4.02179 21.07997 4.02179
4.02115 21.17052 4.02115
4.02053 21.26105 4.02053
4.01992 21.35155 4.01992
4.01933 21.44202 4.01933
4.01876 21.53247 4.01876
4.01820 21.62290 4.01820
4.01766 21.71330 4.01766
4.01713 21.80368 4.01713
4.01662 21.89404 4.01662
4.01612 21.98437 4.01611
4.01563 22.07469 4.01563
4.01516 22.16498 4.01516
4.01471 22.25526 4.01471
4.01426 22.34551 4.01426
4.01383 22.43575 4.01383
4.01341 22.52597 4.01341
4.01301 22.61617 4.01301
4.01261 22.70636 4.01261
4.01223 22.79653 4.01223
4.01186 22.88668 4.01186
4.01150 22.97682 4.01150
4.01115 23.06694 4.01114
4.01080 23.15706 4.01080
4.01048 23.24715 4.01047
4.01016 23.33723 4.01015
4.00984 23.42731 4.00984
4.00954 23.51736 4.00954
4.00925 23.60741 4.00925
4.00897 23.69745 4.00896
4.00869 23.78747 4.00869
4.00842 23.87749 4.00842
4.00816 23.96749 4.00816
4.00791 24.05749 4.00791
4.00767 24.14747 4.00767
4.00743 24.23745 4.00743
4.00720 24.32742 4.00720
4.00698 24.41738 4.00698
4.00676 24.50734 4.00676
4.00655 24.59728 4.00655
4.00635 24.68722 4.00635
4.00616 24.77715 4.00616
4.00596 24.86708 4.00596
4.00578 24.95700 4.00578
4.00560 25.04691 4.00560
4.00543 25.13682 4.00543
4.00526 25.22673 4.00526
4.00509 25.31663 4.00509
4.00494 25.40652 4.00494
4.00478 25.49641 4.00478
4.00463 25.58629 4.00463
4.00449 25.67618 4.00449
4.00435 25.76605 4.00435
4.00421 25.85593 4.00421
4.00408 25.94580 4.00408
4.00396 26.03567 4.00396
4.00383 26.12553 4.00383
4.00371 26.21540 4.00371

Angle 0.454784 3.471453

4.00000 7.03348 4.00000
4.00000 7.03348 4.00000
4.00000 7.03348 4.00000
4.00000 7.03348 4.00000
4.00000 7.03348 4.00000
4.00000 7.03348 4.00000
4.00000 7.03348 4.00000
4.00000 7.03348 4.00000
4.00000 7.03348 4.00000
4.00000 7.03348 4.00000
4.00000 7.03348 4.00000
4.00000 7.03348 4.00000
4.00000 7.03348 4.00000
4.00000 7.03348 4.00000
4.00000 7.03348 4.00000
4.00000 7.03348 4.00000
4.00000 7.03348 4.00000
4.00000 7.03348 4.00000
4.00000 7.03348 4.00000
4.00000 7.03348 4.00000
4.00000 7.03348 4.00000
4.00000 7.03348 4.00000
4.00000 7.03348 4.00000
4.00000 7.03348 4.00000
4.00000 7.03348 4.00000
4.00000 7.03348 4.00000
4.00000 7.03348 4.00000
4.00000 7.03348 4.00000
4.00000 7.03348 4.00000
4.00000 7.03348 4.00000
4.00000 7.03348 4.00000
4.00000 7.03348 4.00000
4.00000 7.03348 4.00000
4.00000 7.03348 4.00000
4.00000 7.03348 4.00000
4.00000 7.03348 4.00000
4.00000 7.03348 4.00000
4.00000 7.03348 4.00000
4.00000 7.03348 4.00000
4.00000 7.03348 4.00000
4.00000 7.03348 4.00000
4.00000 7.03348 4.00000
4.00000 7.03348 4.00000
4.00000 7.03348 4.00000
4.00000 7.03348 4.00000
4.00000 7.03348 4.00000
4.00000 7.03348 4.00000
4.00000 7.03348 4.00000
4.00000 7.03348 4.00000
4.00000 7.03348 4.00000
4.00000 7.03348 4.00000
4.00000 7.03348 4.00000
4.00000 7.03348 4.00000
4.00000 7.03348 4.00000
4.00000 7.03348 4.00000
4.00000 7.03348 4.00000
4.00000 7.03348 4.00000
4.00000 7.03348 4.00000
4.00000 7.03348 4.00000
4.00000 7.03348 4.00000
4.00000 7.03348 4.00000
4.00000 7.03348 4.00000
4.00000 7.03348 4.00000
4.00000 7.03348 4.00000
4.00000 7.03348 4.00000
4.00000 7.03348 4.00000
4.00000 7.03348 4.00000
4.00000 7.03348 4.00000
4.00000 7.03348 4.00000
4.00000 7.03348 4.00000
4.00000 7.03348 4.00000
4.00000 7.03348 4.00000
4.00000 7.03348 4.00000
4.00000 7.03348 4.00000
4.00000 7.03348 4.00000
4.00000 7.03348 4.00000
4.00000 7.03348 4.00000
4.00000 7.03348 4.00000
4.00000 7.03348 4.00000
4.00000 7.03348 4.00000
4.00000 7.03348 4.00000
4.00000 7.03348 4.00000
4.00000 7.03348 4.00000
4.00000 7.03348 4.00000
4.00000 7.03348 4.00000
4.00000 7.03348 4.00000
4.00000 7.03348 4.00000
4.00000 7.03348 4.00000
4.00000 7.03348 4.00000
4.00000 7.03348 4.00000
4.00000 7.03348 4.00000
4.00000 7.03348 4.00000
4.00000 7.03348 4.00000
4.00000 7.03348 4.00000
4.00000 7.03348 4.00000
4.00000 7.03348 4.00000
4.00000 7.03348 4.00000
4.00000 7.03348 4.00000
4.00000 7.03348 4.00000
4.00000 7.03348 4.00000
4.00000 7.03348 4.00000
4.00000 7.03348 4.00000
4.00000 7.03348 4.00000
4.00000 7.03348 4.00000
4.00000 7.03348 4.00000
4.00000 7.03348 4.00000
4.00000 7.03348 4.00000
4.00000 7.03348 4.00000
4.00000 7.03348 4.00000
4.00000 7.03348 4.00000
4.00000 7.03348 4.00000
4.00000 7.03348 4.00000
4.00000 7.03348 4.00000
4.00000 7.03348 4.00000
4.00000 7.03348 4.00000
4.00000 7.03348 4.00000
4.00000 7.03348 4.00000
4.00000 7.03348 4.00000
4.00000 7.03348 4.00000
4.00000 7.03348 4.00000
4.00000 7.03348 4.00000
4.00000 7.03348 4.00000
4.00000 7.03348 4.00000
4.00000 7.03348 4.00000
4.00000 7.03348 4.00000
4.00000 7.03348 4.00000
4.00000 7.03348 4.00000
4.00000 7.03348 4.00000
4.00000 7.03346 4.00000
4.00000 7.03346 4.00000
4.00000 7.03347 4.00000
4.00000 7.03347 4.00000
4.00000 7.03347 4.00000
4.00000 7.03347 4.00000
4.00000 7.03347 4.00000
4.00000 7.03347 4.00000
4.00000 7.03347 4.00000
4.00000 7.03348 4.00000
4.00000 7.03348 4.00000
4.00000 7.03348 4.00000
4.00000 7.03348 4.00000
4.00000 7.03348 4.00000
4.00000 7.03348 4.00000
4.00000 7.03348 4.00000
4.00000 7.03348 4.00000
4.00000 7.03348 4.00000
4.00000 7.03347 4.00000
4.00000 7.03347 4.00000
4.00000 7.03347 4.00000
4.00000 7.03347 4.00000
4.00000 7.03348 4.00000
4.00000 7.03348 4.00000
4.00000 7.03348 4.00000
4.00000 7.03348 4.00000
4.00000 7.03348 4.00000
4.00000 7.03348 4.00000
4.00000 7.03348 4.00000
4.00000 7.03348 4.00000
4.00000 7.03348 4.00000
4.00000 7.03348 4.00000
4.00000 7.03348 4.00000
4.00000 7.03348 4.00000
4.00000 7.03348 4.00000
4.00000 7.03348 4.00000
4.00000 7.03348 4.00000
4.00000 7.03348 4.00000
4.00000 7.03348 4.00000
4.00000 7.03348 4.00000
4.00000 7.03348 4.00000
4.00000 7.03348 4.00000
4.00000 7.03348 4.00000
4.00000 7.03348 4.00000
4.00000 7.03348 4.00000
4.00000 7.03348 4.00000
4.00000 7.03348 4.00000
4.00000 7.03348 4.00000
4.00000 7.03348 4.00000
4.00000 7.03348 4.00000
4.00000 7.03348 4.00000
4.00000 7.03348 4.00000
4.00000 7.03348 4.00000
4.00000 7.03348 4.00000
4.00000 7.03348 4.00000
4.00000 7.03348 4.00000
4.00000 7.03348 4.00000
4.00000 7.03348 4.00000
4.00000 7.03347 4.00000
4.00000 7.03347 4.00000
4.00000 7.03347 4.00000
4.00000 7.03347 4.00000
4.00000 7.03348 4.00000
4.00000 7.03348 4.00000
4.00000 7.03348 4.00000
4.00000 7.03348 4.00000
4.00000 7.03348 4.00000
4.00000 7.03348 4.00000
4.00000 7.03348 4.00000
4.00000 7.03348 4.00000
4.00000 7.03348 4.00000
4.00000 7.03348 4.00000
4.00000 7.03348 4.00000
4.00000 7.03348 4.00000
4.00000 7.03348 4.00000
4.00000 7.03348 4.00000
4.00000 7.03348 4.00000
4.00000 7.03348 4.00000
4.00000 7.03348 4.00000
4.00000 7.03349 4.00000
4.00000 7.03349 4.00000
4.00000 7.03348 4.00000
4.00000 7.03348 4.00000
4.00000 7.03348 4.00000
4.00000 7.03348 4.00000
4.00000 7.03348 4.00000
4.00000 7.03348 4.00000
4.00000 7.03348 4.00000
4.00000 7.03348 4.00000
4.00000 7.03348 4.00000
4.00000 7.03348 4.00000
4.00000 7.03348 4.00000
4.00000 7.03348 4.00000
4.00000 7.03348 4.00000
4.00000 7.03348 4.00000
4.00000 7.03348 4.00000
4.00000 7.03348 4.00000
4.00000 7.03348 4.00000
4.00000 7.03348 4.00000
4.00000 7.03348 4.00000
4.00000 7.03348 4.00000
4.00000 7.03348 4.00000
4.00000 7.03348 4.00000
4.00000 7.03348 4.00000
4.00000 7.03348 4.00000
4.00000 7.03348 4.00000
4.00000 7.03348 4.00000
4.00000 7.03348 4.00000
4.00000 7.03348 4.00000
4.00000 7.03348 4.00000
4.00000 7.03348 4.00000
4.00000 7.03348 4.00000
4.00000 7.03348 4.00000
4.00000 7.03349 4.00000
4.00000 7.03348 4.00000
4.00000 7.03348 4.00000
4.00000 7.03348 4.00000
4.00001 7.03365 4.00001
4.00096 7.05667 4.00096
4.00387 7.12870 4.00387
4.00671 7.20101 4.00671
4.00948 7.27359 4.00948
4.01221 7.34640 4.01221
4.01489 7.41943 4.01489
4.01754 7.49266 4.01754
4.02018 7.56605 4.02018
4.02280 7.63960 4.02280
4.02542 7.71327 4.02542
4.02806 7.78703 4.02806
4.03072 7.86088 4.03072
4.03342 7.93477 4.03342
4.03616 8.00867 4.03616
4.03898 8.08256 4.03898
4.04188 8.15640 4.04188
4.04489 8.23013 4.04489
4.04803 8.30371 4.04803
4.05133 8.37708 4.05133
4.05483 8.45017 4.05483
4.05857 8.52287 4.05857
4.06260 8.59510 4.06260
4.06701 8.66669 4.06701
4.07178 8.73765 4.07178
4.07689 8.80803 4.07689
4.08235 8.87781 4.08235
4.08818 8.94697 4.08818
4.09436 9.01549 4.09436
4.10092 9.08338 4.10092
4.10782 9.15066 4.10782
4.11505 9.21738 4.11505
4.12257 9.28362 4.12257
4.13032 9.34950 4.13031
4.13820 9.41519 4.13820
4.14610 9.48092 4.14611
4.15390 9.54697 4.15390
4.16139 9.61370 4.16139
4.16837 9.68154 4.16837
4.17458 9.75101 4.17458
4.17973 9.82266 4.17973
4.18354 9.89709 4.18354
4.18573 9.97485 4.18573
4.18611 10.05630 4.18611
4.18493 10.14093 4.18493
4.18323 10.22670 4.18323
4.18109 10.31342 4.18109
4.17851 10.40108 4.17851
4.17550 10.48970 4.17550
4.17201 10.57933 4.17201
4.16801 10.67007 4.16801
4.16343 10.76202 4.16343
4.15819 10.85537 4.15819
4.15217 10.95037 4.15217
4.14517 11.04736 4.14517
4.13695 11.14688 4.13695
4.12710 11.24973 4.12710
4.11494 11.35725 4.11494
4.09925 11.47192 4.09925
4.07775 11.59825 4.07775
4.04399 11.74917 4.04399
4.00000 13.19120 4.00000
4.00000 13.19120 4.00000
4.00000 13.19120 4.00000
4.00000 13.19120 4.00000
4.00000 13.19120 4.00000
4.00000 13.19120 4.00000
4.00000 13.19120 4.00000
4.00000 13.19120 4.00000
4.00000 13.19120 4.00000
4.00000 13.19120 4.00000
4.00000 13.19120 4.00000
4.00000 13.19120 4.00000
4.00000 13.19120 4.00000
4.00000 13.19120 4.00000
4.00000 13.19120 4.00000
4.00000 13.19120 4.00000
4.01180 13.24035 4.01181
4.02340 13.30157 4.02340
4.03278 13.36729 4.03278
4.03998 13.43741 4.03998
4.04507 13.51179 4.04507
4.04815 13.59025 4.04815
4.05002 13.67116 4.05002
4.05182 13.75228 4.05182
4.05357 13.83354 4.05357
4.05527 13.91493 4.05527
4.05693 13.99646 4.05693
4.05856 14.07810 4.05856
4.06016 14.15985 4.06016
4.06172 14.24170 4.06172
4.06326 14.32364 4.06326
4.06478 14.40568 4.06478
4.06627 14.48780 4.06627
4.06775 14.57001 4.06775
4.06921 14.65229 4.06921
4.07065 14.73464 4.07065
4.07207 14.81707 4.07207
4.07348 14.89957 4.07348
4.07488 14.98213 4.07488
4.07627 15.06475 4.07627
4.07757 15.14758 4.07757
4.07865 15.23090 4.07865
4.07950 15.31470 4.07950
4.08015 15.39896 4.08015
4.08061 15.48363 4.08061
4.08089 15.56870 4.08089
4.08100 15.65415 4.08100
4.08095 15.73993 4.08095
4.08077 15.82604 4.08077
4.08045 15.91244 4.08045
4.08001 15.99912 4.08001
4.07947 16.08605 4.07947
4.07882 16.17321 4.07882
4.07809 16.26059 4.07809
4.07727 16.34816 4.07727
4.07638 16.43591 4.07638
4.07542 16.52383 4.07542
4.07441 16.61189 4.07441
4.07335 16.70009 4.07335
4.07224 16.78841 4.07224
4.07109 16.87684 4.07109
4.06991 16.96536 4.06991
4.06871 17.05397 4.06871
4.06748 17.14266 4.06748
4.06623 17.23141 4.06623
4.06497 17.32022 4.06497
4.06369 17.40909 4.06369
4.06241 17.49799 4.06241
4.06113 17.58694 4.06113
4.05984 17.67591 4.05984
4.05856 17.76492 4.05855
4.05727 17.85394 4.05727
4.05600 17.94298 4.05600
4.05473 18.03203 4.05473
4.05347 18.12108 4.05347
4.05223 18.21015 4.05223
4.05099 18.29921 4.05099
4.04977 18.38827 4.04977
4.04857 18.47733 4.04857
4.04738 18.56638 4.04738
4.04621 18.65543 4.04621
4.04505 18.74446 4.04505
4.04392 18.83349 4.04392
4.04280 18.92250 4.04280
4.04170 19.01149 4.04171
4.04063 19.10048 4.04063
4.03957 19.18944 4.03957
4.03853 19.27839 4.03853
4.03751 19.36733 4.03751
4.03652 19.45624 4.03652
4.03554 19.54514 4.03554
4.03458 19.63402 4.03458
4.03365 19.72288 4.03365
4.03274 19.81172 4.03273

