Angle 0.350996 1.595399

4.00000 7.03348 4.00000
4.00000 7.03348 4.00000
4.00000 7.03348 4.00000
4.00000 7.03348 4.00000
4.00000 7.03348 4.00000
4.00000 7.03348 4.00000
4.00000 7.03348 4.00000
4.00000 7.03348 4.00000
4.00000 7.03348 4.00000
4.00000 7.03348 4.00000
4.00000 7.03348 4.00000
4.00000 7.03348 4.00000
4.00000 7.03348 4.00000
4.00000 7.03348 4.00000
4.00000 7.03348 4.00000
4.00000 7.03348 4.00000
4.00000 7.03348 4.00000
4.00000 7.03348 4.00000
4.00000 7.03348 4.00000
4.00000 7.03348 4.00000
4.00000 7.03348 4.00000
4.00000 7.03348 4.00000
4.00000 7.03348 4.00000
4.00000 7.03348 4.00000
4.00000 7.03348 4.00000
4.00000 7.03348 4.00000
4.00000 7.03348 4.00000
4.00000 7.03348 4.00000
4.00000 7.03348 4.00000
4.00000 7.03348 4.00000
4.00000 7.03348 4.00000
4.00000 7.03348 4.00000
4.00000 7.03348 4.00000
4.00000 7.03348 4.00000
4.00000 7.03348 4.00000
4.00000 7.03348 4.00000
4.00000 7.03348 4.00000
4.00000 7.03348 4.00000
4.00000 7.03348 4.00000
4.00000 7.03348 4.00000
4.00000 7.03348 4.00000
4.00000 7.03348 4.00000
4.00000 7.03348 4.00000
4.00000 7.03348 4.00000
4.00000 7.03348 4.00000
4.00000 7.03348 4.00000
4.00000 7.03348 4.00000
4.00000 7.03348 4.00000
4.00000 7.03348 4.00000
4.00000 7.03348 4.00000
4.00000 7.03348 4.00000
4.00000 7.03348 4.00000
4.00000 7.03347 4.00000
4.00000 7.03347 4.00000
4.00000 7.03348 4.00000
4.00000 7.03348 4.00000
4.00000 7.03348 4.00000
4.00000 7.03348 4.00000
4.00000 7.03348 4.00000
4.00000 7.03348 4.00000
4.00000 7.03348 4.00000
4.00000 7.03348 4.00000
4.00000 7.03348 4.00000
4.00000 7.03348 4.00000
4.00000 7.03348 4.00000
4.00000 7.03348 4.00000
4.00000 7.03348 4.00000
4.00000 7.03348 4.00000
4.00000 7.03348 4.00000
4.00000 7.03348 4.00000
4.00000 7.03348 4.00000
4.00000 7.03348 4.00000
4.00000 7.03348 4.00000
4.00000 7.03348 4.00000
4.00000 7.03348 4.00000
4.00000 7.03348 4.00000
4.00000 7.03348 4.00000
4.00000 7.03348 4.00000
4.00000 7.03348 4.00000
4.00000 7.03348 4.00000
4.00000 7.03348 4.00000
4.00000 7.03348 4.00000
4.00000 7.03348 4.00000
4.00000 7.03348 4.00000
4.00000 7.03348 4.00000
4.00000 7.03348 4.00000
4.00000 7.03348 4.00000
4.00000 7.03348 4.00000
4.00000 7.03348 4.00000
4.00000 7.03348 4.00000
4.00000 7.03348 4.00000
4.00000 7.03348 4.00000
4.00000 7.03348 4.00000
4.00000 7.03348 4.00000
4.00000 7.03348 4.00000
4.00000 7.03348 4.00000
4.00000 7.03348 4.00000
4.00000 7.03348 4.00000
4.00000 7.03348 4.00000
4.00000 7.03348 4.00000
4.00000 7.03348 4.00000
4.00000 7.03348 4.00000
4.00000 7.03348 4.00000
4.00000 7.03348 4.00000
4.00000 7.03348 4.00000
4.00000 7.03348 4.00000
4.00000 7.03348 4.00000
4.00000 7.03348 4.00000
4.00000 7.03348 4.00000
4.00000 7.03348 4.00000
4.00000 7.03348 4.00000
4.00000 7.03348 4.00000
4.00000 7.03348 4.00000
4.00000 7.03348 4.00000
4.00000 7.03348 4.00000
4.00000 7.03348 4.00000
4.00000 7.03348 4.00000
4.00000 7.03348 4.00000
4.00000 7.03348 4.00000
4.00000 7.03348 4.00000
4.00000 7.03348 4.00000
4.00000 7.03348 4.00000
4.00000 7.03348 4.00000
4.00000 7.03348 4.00000
4.00000 7.03348 4.00000
4.00000 7.03348 4.00000
4.00000 7.03348 4.00000
4.00000 7.03348 4.00000
4.00000 7.03348 4.00000
4.00000 7.03348 4.00000
4.00000 7.03348 4.00000
4.00000 7.03348 4.00000
4.00000 7.03348 4.00000
4.00000 7.03348 4.00000
4.00000 7.03348 4.00000
4.00000 7.03348 4.00000
4.00000 7.03348 4.00000
4.00000 7.03348 4.00000
4.00000 7.03348 4.00000
4.00000 7.03348 4.00000
4.00000 7.03349 4.00000
4.00000 7.03348 4.00000
4.00000 7.03348 4.00000
4.00000 7.03348 4.00000
4.00000 7.03348 4.00000
4.00000 7.03348 4.00000
4.00000 7.03348 4.00000
4.00000 7.03348 4.00000
4.00000 7.03348 4.00000
4.00000 7.03348 4.00000
4.00000 7.03348 4.00000
4.00000 7.03348 4.00000
4.00000 7.03348 4.00000
4.00000 7.03347 4.00000
4.00000 7.03347 4.00000
4.00000 7.03347 4.00000
4.00000 7.03348 4.00000
4.00000 7.03348 4.00000
4.00000 7.03348 4.00000
4.00000 7.03348 4.00000
4.00000 7.03348 4.00000
4.00000 7.03348 4.00000
4.00000 7.03348 4.00000
4.00000 7.03348 4.00000
4.00000 7.03348 4.00000
4.00000 7.03348 4.00000
4.00000 7.03348 4.00000
4.00000 7.03348 4.00000
4.00000 7.03348 4.00000
4.00000 7.03348 4.00000
4.00000 7.03348 4.00000
4.00000 7.03348 4.00000
4.00000 7.03348 4.00000
4.00000 7.03348 4.00000
4.00000 7.03348 4.00000
4.00000 7.03348 4.00000
4.00000 7.03348 4.00000
4.00000 7.03348 4.00000
4.00000 7.03348 4.00000
4.00000 7.03348 4.00000
4.00000 7.03348 4.00000
4.00000 7.03348 4.00000
4.00000 7.03350 4.00000
4.00000 7.03348 4.00000
4.00312 7.11008 4.00313
4.00620 7.18800 4.00620
4.00920 7.26614 4.00920
4.01214 7.34448 4.01214
4.01502 7.42300 4.01502
4.01787 7.50166 4.01787
4.02069 7.58044 4.02069
4.02350 7.65932 4.02350
4.02631 7.73825 4.02631
4.02914 7.81722 4.02914
4.03200 7.89620 4.03200
4.03491 7.97514 4.03491
4.03788 8.05401 4.03788
4.04094 8.13278 4.04094
4.04411 8.21138 4.04411
4.04742 8.28976 4.04742
4.05090 8.36786 4.05090
4.05460 8.44559 4.05460
4.05857 8.52284 4.05857
4.06286 8.59948 4.06286
4.06757 8.67535 4.06757
4.07269 8.75047 4.07269
4.07818 8.82489 4.07818
4.08406 8.89858 4.08406
4.09034 8.97151 4.09034
4.09704 9.04369 4.09704
4.10412 9.11512 4.10412
4.11159 9.18584 4.11159
4.11939 9.25594 4.11939
4.12747 9.32554 4.12747
4.13574 9.39481 4.13574
4.14408 9.46399 4.14408
4.15232 9.53340 4.15232
4.16027 9.60344 4.16027
4.16769 9.67459 4.16769
4.17428 9.74744 4.17428
4.17973 9.82263 4.17973
4.18369 9.90083 4.18369
4.18585 9.98268 4.18585
4.18600 10.06857 4.18600
4.18464 10.15755 4.18464
4.18275 10.24761 4.18275
4.18039 10.33866 4.18039
4.17755 10.43071 4.17755
4.17422 10.52377 4.17422
4.17037 10.61793 4.17037
4.16592 10.71330 4.16592
4.16082 10.81004 4.16082
4.15492 10.90839 4.15492
4.14807 11.00868 4.14807
4.14001 11.11143 4.14001
4.13036 11.21740 4.13036
4.11848 11.32787 4.11848
4.10320 11.44518 4.10320
4.08234 11.57366 4.08234
4.05021 11.72473 4.05021
4.00000 13.19120 4.00000
4.00000 13.19120 4.00000
4.00000 13.19120 4.00000
4.00000 13.19120 4.00000
4.00000 13.19120 4.00000
4.00000 13.19120 4.00000
4.00000 13.19120 4.00000
4.00000 13.19120 4.00000
4.00000 13.19120 4.00000
4.00000 13.19120 4.00000
4.00000 13.19120 4.00000
4.00000 13.19121 4.00000
4.00000 13.19121 4.00000
4.00000 13.19120 4.00000
4.00000 13.19120 4.00000
4.00460 13.20914 4.00460
4.01781 13.27003 4.01781
4.02863 13.33574 4.02863
4.03709 13.40620 4.03709
4.04326 13.48126 4.04326
4.04724 13.56073 4.04724
4.04940 13.64385 4.04940
4.05128 13.72758 4.05128
4.05310 13.81144 4.05310
4.05487 13.89543 4.05487
4.05659 13.97953 4.05659
4.05828 14.06374 4.05828
4.05993 14.14804 4.05993
4.06155 14.23243 4.06155
4.06314 14.31689 4.06314
4.06470 14.40143 4.06470
4.06624 14.48605 4.06624
4.06776 14.57072 4.06776
4.06926 14.65546 4.06926
4.07074 14.74025 4.07074
4.07221 14.82510 4.07221
4.07366 14.91001 4.07366
4.07510 14.99496 4.07510
4.07652 15.07996 4.07652
4.07782 15.16522 4.07782
4.07887 15.25100 4.07887
4.07970 15.33726 4.07970
4.08031 15.42397 4.08031
4.08072 15.51110 4.08072
4.08094 15.59861 4.08094
4.08100 15.68649 4.08100
4.08089 15.77470 4.08089
4.08064 15.86322 4.08064
4.08026 15.95203 4.08026
4.07976 16.04109 4.07976
4.07915 16.13040 4.07915
4.07844 16.21992 4.07844
4.07764 16.30964 4.07764
4.07676 16.39953 4.07676
4.07580 16.48959 4.07580
4.07479 16.57979 4.07479
4.07371 16.67012 4.07371
4.07259 16.76057 4.07259
4.07143 16.85111 4.07143
4.07023 16.94175 4.07023
4.06900 17.03246 4.06900
4.06775 17.12324 4.06775
4.06647 17.21407 4.06647
4.06518 17.30495 4.06518
4.06388 17.39588 4.06388
4.06257 17.48683 4.06257
4.06126 17.57780 4.06126
4.05994 17.66880 4.05994
4.05863 17.75981 4.05863
4.05732 17.85082 4.05732
4.05602 17.94184 4.05602
4.05472 18.03285 4.05472
4.05343 18.12386 4.05343
4.05216 18.21486 4.05216
4.05090 18.30585 4.05090
4.04966 18.39682 4.04966
4.04843 18.48777 4.04843
4.04722 18.57870 4.04722
4.04602 18.66961 4.04602
4.04485 18.76050 4.04485
4.04369 18.85136 4.04369
4.04256 18.94220 4.04256
4.04144 19.03301 4.04144
4.04035 19.12378 4.04035
4.03927 19.21453 4.03927
4.03822 19.30526 4.03822
4.03719 19.39595 4.03719
4.03618 19.48661 4.03618
4.03519 19.57723 4.03519
4.03423 19.66783 4.03423
4.03328 19.75840 4.03328
4.03236 19.84894 4.03236
4.03145 19.93945 4.03145
4.03057 20.02992 4.03057
4.02971 20.12037 4.02971
4.02887 20.21079 4.02887
4.02805 20.30117 4.02805
4.02725 20.39153 4.02725
4.02647 20.48186 4.02647
4.02571 20.57217 4.02571
4.02497 20.66244 4.02497
4.02425 20.75269 4.02425
4.02355 20.84291 4.02355
4.02287 20.93310 4.02287
4.02220 21.02327 4.02220
4.02155 21.11342 4.02155
4.02092 21.20354 4.02092
4.02031 21.29364 4.02030
4.01971 21.38371 4.01971
4.01913 21.47376 4.01913
4.01856 21.56379 4.01856
4.01801 21.65380 4.01801
4.01748 21.74379 4.01748
4.01696 21.83376 4.01696
4.01645 21.92371 4.01645
4.01596 22.01364 4.01596
4.01548 22.10356 4.01548
4.01502 22.19345 4.01502
4.01457 22.28333 4.01457
4.01413 22.37319 4.01413
4.01370 22.46304 4.01370
4.01329 22.55287 4.01329
4.01289 22.64269 4.01289
4.01250 22.73249 4.01250
4.01212 22.82228 4.01212
4.01175 22.91205 4.01175
4.01140 23.00182 4.01140
4.01105 23.09157 4.01105
4.01072 23.18131 4.01072
4.01039 23.27104 4.01039
4.01007 23.36075 4.01007
4.00976 23.45046 4.00977
4.00947 23.54016 4.00947
4.00918 23.62985 4.00918
4.00890 23.71953 4.00890
4.00862 23.80920 4.00862
4.00836 23.89886 4.00836
4.00810 23.98852 4.00810
4.00786 24.07816 4.00785
4.00762 24.16780 4.00761
4.00738 24.25744 4.00738
4.00715 24.34706 4.00715
4.00693 24.43669 4.00693
4.00672 24.52630 4.00672
4.00651 24.61591 4.00651
4.00631 24.70552 4.00631
4.00612 24.79512 4.00612
4.00593 24.88471 4.00593
4.00574 24.97431 4.00574
4.00557 25.06389 4.00557
4.00539 25.15348 4.00539
4.00523 25.24306 4.00523
4.00507 25.33264 4.00507
4.00491 25.42221 4.00491
4.00476 25.51179 4.00476
4.00461 25.60136 4.00461
4.00447 25.69093 4.00447
4.00433 25.78049 4.00433
4.00419 25.87006 4.00419
4.00406 25.95962 4.00406

Angle 0.657070 2.013805

4.00000 7.03348 4.00000
4.00000 7.03347 4.00000
4.00000 7.03348 4.00000
4.00000 7.03348 4.00000
4.00000 7.03348 4.00000
4.00000 7.03348 4.00000
4.00000 7.03348 4.00000
4.00000 7.03348 4.00000
4.00000 7.03348 4.00000
4.00000 7.03348 4.00000
4.00000 7.03348 4.00000
4.00000 7.03348 4.00000
4.00000 7.03348 4.00000
4.00000 7.03348 4.00000
4.00000 7.03348 4.00000
4.00000 7.03348 4.00000
4.00000 7.03348 4.00000
4.00000 7.03348 4.00000
4.00000 7.03348 4.00000
4.00000 7.03348 4.00000
4.00000 7.03348 4.00000
4.00000 7.03348 4.00000
4.00000 7.03348 4.00000
4.00000 7.03348 4.00000
4.00000 7.03348 4.00000
4.00000 7.03348 4.00000
4.00000 7.03348 4.00000
4.00000 7.03348 4.00000
4.00000 7.03348 4.00000
4.00000 7.03348 4.00000
4.00000 7.03348 4.00000
4.00000 7.03348 4.00000
4.00000 7.03348 4.00000
4.00000 7.03348 4.00000
4.00000 7.03348 4.00000
4.00000 7.03348 4.00000
4.00000 7.03348 4.00000
4.00000 7.03348 4.00000
4.00000 7.03348 4.00000
4.00000 7.03348 4.00000
4.00000 7.03348 4.00000
4.00000 7.03348 4.00000
4.00000 7.03348 4.00000
4.00000 7.03348 4.00000
4.00000 7.03348 4.00000
4.00000 7.03348 4.00000
4.00000 7.03348 4.00000
4.00000 7.03348 4.00000
4.00000 7.03348 4.00000
4.00000 7.03348 4.00000
4.00000 7.03348 4.00000
4.00000 7.03348 4.00000
4.00000 7.03348 4.00000
4.00000 7.03348 4.00000
4.00000 7.03348 4.00000
4.00000 7.03348 4.00000
4.00000 7.03348 4.00000
4.00000 7.03348 4.00000
4.00000 7.03348 4.00000
4.00000 7.03348 4.00000
4.00000 7.03348 4.00000
4.00000 7.03348 4.00000
4.00000 7.03349 4.00000
4.00000 7.03349 4.00000
4.00000 7.03348 4.00000
4.00000 7.03348 4.00000
4.00000 7.03348 4.00000
4.00000 7.03348 4.00000
4.00000 7.03348 4.00000
4.00000 7.03348 4.00000
4.00000 7.03348 4.00000
4.00000 7.03348 4.00000
4.00000 7.03348 4.00000
4.00000 7.03348 4.00000
4.00000 7.03348 4.00000
4.00000 7.03348 4.00000
4.00000 7.03348 4.00000
4.00000 7.03348 4.00000
4.00000 7.03348 4.00000
4.00000 7.03348 4.00000
4.00000 7.03348 4.00000
4.00000 7.03348 4.00000
4.00000 7.03348 4.00000
4.00000 7.03348 4.00000
4.00000 7.03348 4.00000
4.00000 7.03348 4.00000
4.00000 7.03348 4.00000
4.00000 7.03348 4.00000
4.00000 7.03348 4.00000
4.00000 7.03348 4.00000
4.00000 7.03348 4.00000
4.00000 7.03348 4.00000
4.00000 7.03348 4.00000
4.00000 7.03348 4.00000
4.00000 7.03348 4.00000
4.00000 7.03348 4.00000
4.00000 7.03348 4.00000
4.00000 7.03348 4.00000
4.00000 7.03348 4.00000
4.00000 7.03348 4.00000
4.00000 7.03348 4.00000
4.00000 7.03348 4.00000
4.00000 7.03348 4.00000
4.00000 7.03348 4.00000
4.00000 7.03348 4.00000
4.00000 7.03348 4.00000
4.00000 7.03348 4.00000
4.00000 7.03348 4.00000
4.00000 7.03348 4.00000
4.00000 7.03348 4.00000
4.00000 7.03348 4.00000
4.00000 7.03348 4.00000
4.00000 7.03348 4.00000
4.00000 7.03348 4.00000
4.00000 7.03348 4.00000
4.00000 7.03348 4.00000
4.00000 7.03348 4.00000
4.00000 7.03348 4.00000
4.00000 7.03348 4.00000
4.00000 7.03348 4.00000
4.00000 7.03348 4.00000
4.00000 7.03348 4.00000
4.00000 7.03348 4.00000
4.00000 7.03347 4.00000
4.00000 7.03347 4.00000
4.00000 7.03347 4.00000
4.00000 7.03347 4.00000
4.00000 7.03348 4.00000
4.00000 7.03348 4.00000
4.00000 7.03348 4.00000
4.00000 7.03348 4.00000
4.00000 7.03348 4.00000
4.00000 7.03348 4.00000
4.00000 7.03348 4.00000
4.00000 7.03348 4.00000
4.00000 7.03348 4.00000
4.00000 7.03348 4.00000
4.00000 7.03348 4.00000
4.00000 7.03348 4.00000
4.00000 7.03348 4.00000
4.00000 7.03348 4.00000
4.00000 7.03348 4.00000
4.00000 7.03348 4.00000
4.00000 7.03348 4.00000
4.00000 7.03348 4.00000
4.00000 7.03348 4.00000
4.00000 7.03348 4.00000
4.00000 7.03348 4.00000
4.00000 7.03348 4.00000
4.00000 7.03348 4.00000
4.00000 7.03348 4.00000
4.00000 7.03348 4.00000
4.00000 7.03348 4.00000
4.00000 7.03348 4.00000
4.00000 7.03348 4.00000
4.00000 7.03350 4.00000
4.00000 7.03350 4.00000
4.00000 7.03349 4.00000
4.00000 7.03348 4.00000
4.00000 7.03348 4.00000
4.00000 7.03348 4.00000
4.00000 7.03348 4.00000
4.00000 7.03348 4.00000
4.00000 7.03348 4.00000
4.00000 7.03348 4.00000
4.00000 7.03348 4.00000
4.00000 7.03348 4.00000
4.00000 7.03348 4.00000
4.00000 7.03348 4.00000
4.00000 7.03348 4.00000
4.00000 7.03348 4.00000
4.00000 7.03348 4.00000
4.00000 7.03348 4.00000
4.00000 7.03348 4.00000
4.00000 7.03349 4.00000
4.00000 7.03349 4.00000
4.00000 7.03350 4.00000
4.00000 7.03348 4.00000
4.00000 7.03348 4.00000
4.00000 7.03350 4.00000
4.00000 7.03348 4.00000
4.00191 7.08002 4.00191
4.00492 7.15532 4.00493
4.00786 7.23088 4.00786
4.01073 7.30668 4.01073
4.01355 7.38267 4.01355
4.01632 7.45885 4.01632
4.01907 7.53519 4.01907
4.02180 7.61165 4.02180
4.02453 7.68822 4.02453
4.02726 7.76487 4.02726
4.03002 7.84156 4.03002
4.03281 7.91828 4.03281
4.03565 7.99498 4.03565
4.03856 8.07164 4.03856
4.04155 8.14821 4.04155
4.04466 8.22464 4.04466
4.04790 8.30088 4.04791
4.05132 8.37686 4.05132
4.05494 8.45250 4.05494
4.05883 8.52771 4.05883
4.06303 8.60235 4.06303
4.06763 8.67628 4.06763
4.07262 8.74951 4.07262
4.07796 8.82210 4.07796
4.08368 8.89402 4.08368
4.08978 8.96524 4.08978
4.09628 9.03576 4.09628
4.10315 9.10558 4.10315
4.11039 9.17474 4.11039
4.11796 9.24331 4.11796
4.12581 9.31139 4.12581
4.13386 9.37913 4.13386
4.14200 9.44676 4.14200
4.15010 9.51453 4.15010
4.15798 9.58281 4.15798
4.16543 9.65202 4.16543
4.17218 9.72269 4.17218
4.17793 9.79540 4.17793
4.18238 9.87079 4.18238
4.18522 9.94948 4.18522
4.18619 10.03193 4.18619
4.18531 10.11815 4.18531
4.18368 10.20594 4.18368
4.18158 10.29471 4.18158
4.17903 10.38445 4.17903
4.17602 10.47516 4.17602
4.17252 10.56691 4.17252
4.16849 10.65977 4.16849
4.16386 10.75388 4.16386
4.15855 10.84941 4.15855
4.15242 10.94662 4.15242
4.14529 11.04589 4.14529
4.13687 11.14777 4.13687
4.12675 11.25313 4.12675
4.11418 11.36342 4.11418
4.09781 11.48137 4.09781
4.07507 11.61209 4.07507
4.03800 11.77153 4.03800
4.00000 13.19120 4.00000
4.00000 13.19120 4.00000
4.00000 13.19120 4.00000
4.00000 13.19120 4.00000
4.00000 13.19120 4.00000
4.00000 13.19120 4.00000
4.00000 13.19120 4.00000
4.00000 13.19120 4.00000
4.00000 13.19120 4.00000
4.00000 13.19120 4.00000
4.00000 13.19120 4.00000
4.00000 13.19120 4.00000
4.00000 13.19120 4.00000
4.00000 13.19120 4.00000
4.00000 13.19120 4.00000
4.00457 13.20907 4.00458
4.01762 13.26900 4.01762
4.02833 13.33362 4.02833
4.03675 13.40287 4.03675
4.04295 13.47660 4.04295
4.04701 13.55463 4.04701
4.04923 13.63639 4.04923
4.05109 13.71891 4.05109
4.05289 13.80158 4.05289
4.05464 13.88438 4.05464
4.05635 13.96730 4.05635
4.05801 14.05033 4.05801
4.05965 14.13347 4.05965
4.06125 14.21670 4.06125
4.06282 14.30002 4.06282
4.06437 14.38342 4.06437
4.06590 14.46690 4.06590
4.06740 14.55045 4.06740
4.06889 14.63408 4.06889
4.07035 14.71777 4.07035
4.07180 14.80152 4.07180
4.07324 14.88533 4.07324
4.07466 14.96920 4.07466
4.07607 15.05312 4.07607
4.07742 15.13720 4.07742
4.07854 15.22176 4.07854
4.07943 15.30681 4.07943
4.08011 15.39232 4.08011
4.08059 15.47825 4.08059
4.08088 15.56458 4.08088
4.08100 15.65129 4.08100
4.08095 15.73834 4.08095
4.08077 15.82571 4.08077
4.08044 15.91337 4.08045
4.08000 16.00131 4.08000
4.07944 16.08950 4.07944
4.07878 16.17791 4.07878
4.07803 16.26654 4.07803
4.07720 16.35535 4.07720
4.07629 16.44434 4.07629
4.07532 16.53349 4.07532
4.07428 16.62278 4.07428
4.07320 16.71219 4.07320
4.07207 16.80172 4.07207
4.07090 16.89134 4.07090
4.06970 16.98106 4.06970
4.06848 17.07085 4.06848
4.06722 17.16071 4.06723
4.06596 17.25063 4.06596
4.06467 17.34060 4.06468
4.06338 17.43062 4.06338
4.06208 17.52066 4.06208
4.06078 17.61074 4.06078
4.05948 17.70083 4.05948
4.05818 17.79095 4.05818
4.05688 17.88107 4.05688
4.05560 17.97120 4.05560
4.05432 18.06134 4.05432
4.05305 18.15147 4.05305
4.05179 18.24160 4.05179
4.05055 18.33173 4.05055
4.04932 18.42184 4.04932
4.04811 18.51194 4.04811
4.04691 18.60202 4.04691
4.04573 18.69209 4.04573
4.04457 18.78215 4.04457
4.04343 18.87218 4.04343
4.04231 18.96219 4.04231
4.04121 19.05218 4.04121
4.04013 19.14215 4.04013
4.03907 19.23209 4.03907
4.03803 19.32201 4.03803
4.03701 19.41191 4.03701
4.03601 19.50178 4.03601
4.03504 19.59162 4.03504
4.03408 19.68144 4.03408
4.03315 19.77124 4.03315
4.03223 19.86101 4.03224
4.03134 19.95076 4.03134
4.03047 20.04048 4.03047
4.02962 20.13018 4.02962
4.02879 20.21985 4.02879
4.02798 20.30950 4.02798
4.02719 20.39912 4.02719
4.02642 20.48872 4.02642
4.02566 20.57830 4.02566
4.02493 20.66786 4.02493
4.02422 20.75739 4.02422
4.02352 20.84691 4.02352
4.02284 20.93640 4.02284
4.02218 21.02587 4.02218
4.02154 21.11532 4.02154
4.02091 21.20475 4.02091
4.02030 21.29416 4.02030
4.01971 21.38356 4.01971
4.01913 21.47294 4.01913
4.01857 21.56230 4.01857
4.01802 21.65164 4.01802
4.01749 21.74097 4.01749
4.01698 21.83028 4.01698
4.01647 21.91958 4.01647
4.01598 22.00886 4.01598
4.01551 22.09813 4.01551
4.01505 22.18738 4.01505
4.01460 22.27662 4.01460
4.01416 22.36585 4.01416
4.01374 22.45507 4.01374
4.01333 22.54428 4.01333
4.01293 22.63348 4.01293
4.01254 22.72266 4.01254
4.01216 22.81184 4.01216
4.01180 22.90100 4.01180
4.01144 22.99016 4.01144
4.01110 23.07931 4.01110
4.01076 23.16845 4.01076
4.01044 23.25759 4.01044
4.01012 23.34672 4.01012
4.00981 23.43583 4.00982
4.00952 23.52495 4.00952
4.00923 23.61406 4.00923
4.00895 23.70316 4.00895
4.00868 23.79225 4.00868
4.00841 23.88134 4.00841
4.00815 23.97043 4.00815
4.00791 24.05952 4.00791
4.00766 24.14860 4.00766
4.00743 24.23767 4.00743
4.00720 24.32675 4.00720
4.00698 24.41582 4.00698
4.00677 24.50489 4.00677
4.00656 24.59395 4.00656
4.00636 24.68301 4.00636
4.00617 24.77208 4.00617
4.00598 24.86113 4.00598
4.00579 24.95020 4.00579
4.00561 25.03925 4.00561
4.00544 25.12831 4.00544
4.00527 25.21737 4.00527
4.00511 25.30643 4.00511
4.00495 25.39548 4.00495
4.00480 25.48454 4.00480
4.00465 25.57360 4.00465
4.00451 25.66265 4.00451
4.00437 25.75172 4.00437
4.00424 25.84078 4.00424
4.00410 25.92984 4.00411

Angle 0.393195 6.275587

4.00000 7.03348 4.00000
4.00000 7.03348 4.00000
4.00000 7.03348 4.00000
4.00000 7.03348 4.00000
4.00000 7.03348 4.00000
4.00000 7.03348 4.00000
4.00000 7.03348 4.00000
4.00000 7.03348 4.00000
4.00000 7.03348 4.00000
4.00000 7.03348 4.00000
4.00000 7.03346 4.00000
4.00000 7.03346 4.00000
4.00000 7.03348 4.00000
4.00000 7.03348 4.00000
4.00000 7.03347 4.00000
4.00000 7.03347 4.00000
4.00000 7.03347 4.00000
4.00000 7.03348 4.00000
4.00000 7.03348 4.00000
4.00000 7.03348 4.00000
4.00000 7.03348 4.00000
4.00000 7.03348 4.00000
4.00000 7.03348 4.00000
4.00000 7.03348 4.00000
4.00000 7.03348 4.00000
4.00000 7.03348 4.00000
4.00000 7.03348 4.00000
4.00000 7.03348 4.00000
4.00000 7.03348 4.00000
4.00000 7.03348 4.00000
4.00000 7.03348 4.00000
4.00000 7.03348 4.00000
4.00000 7.03348 4.00000
4.00000 7.03348 4.00000
4.00000 7.03348 4.00000
4.00000 7.03348 4.00000
4.00000 7.03346 4.00000
4.00000 7.03346 4.00000
4.00000 7.03348 4.00000
4.00000 7.03348 4.00000
4.00000 7.03348 4.00000
4.00000 7.03349 4.00000
4.00000 7.03348 4.00000
4.00000 7.03348 4.00000
4.00000 7.03348 4.00000
4.00000 7.03348 4.00000
4.00000 7.03348 4.00000
4.00000 7.03348 4.00000
4.00000 7.03348 4.00000
4.00000 7.03348 4.00000
4.00000 7.03348 4.00000
4.00000 7.03348 4.00000
4.00000 7.03348 4.00000
4.00000 7.03348 4.00000
4.00000 7.03348 4.00000
4.00000 7.03348 4.00000
4.00000 7.03348 4.00000
4.00000 7.03348 4.00000
4.00000 7.03348 4.00000
4.00000 7.03348 4.00000
4.00000 7.03348 4.00000
4.00000 7.03348 4.00000
4.00000 7.03348 4.00000
4.00000 7.03348 4.00000
4.00000 7.03348 4.00000
4.00000 7.03348 4.00000
4.00000 7.03348 4.00000
4.00000 7.03348 4.00000
4.00000 7.03348 4.00000
4.00000 7.03348 4.00000
4.00000 7.03348 4.00000
4.00000 7.03348 4.00000
4.00000 7.03348 4.00000
4.00000 7.03348 4.00000
4.00000 7.03348 4.00000
4.00000 7.03348 4.00000
4.00000 7.03348 4.00000
4.00000 7.03348 4.00000
4.00000 7.03348 4.00000
4.00000 7.03348 4.00000
4.00000 7.03348 4.00000
4.00000 7.03348 4.00000
4.00000 7.03348 4.00000
4.00000 7.03351 4.00000
4.00000 7.03351 4.00000
4.00317 7.11117 4.00317
4.00632 7.19091 4.00632
4.00938 7.27087 4.00938
4.01238 7.35101 4.01238
4.01532 7.43131 4.01532
4.01823 7.51173 4.01823
4.02111 7.59226 4.02111
4.02398 7.67285 4.02398
4.02686 7.75348 4.02686
4.02975 7.83412 4.02975
4.03268 7.91474 4.03268
4.03566 7.99530 4.03566
4.03872 8.07575 4.03872
4.04187 8.15606 4.04187
4.04514 8.23616 4.04514
4.04857 8.31600 4.04857
4.05219 8.39549 4.05219
4.05605 8.47454 4.05605
4.06021 8.55304 4.06021
4.06474 8.63082 4.06475
4.06973 8.70776 4.06973
4.07510 8.78394 4.07510
4.08087 8.85937 4.08087
4.08705 8.93401 4.08705
4.09365 9.00785 4.09365
4.10067 9.08090 4.10067
4.10809 9.15318 4.10809
4.11588 9.22476 4.11588
4.12398 9.29574 4.12398
4.13232 9.36628 4.13232
4.14078 9.43661 4.14078
4.14921 9.50703 4.14921
4.15743 9.57791 4.15743
4.16519 9.64974 4.16519
4.17221 9.72309 4.17221
4.17816 9.79861 4.17816
4.18268 9.87702 4.18268
4.18543 9.95898 4.18543
4.18616 10.04502 4.18616
4.18504 10.13481 4.18504
4.18325 10.22595 4.18325
4.18096 10.31811 4.18096
4.17819 10.41128 4.17819
4.17491 10.50548 4.17491
4.17111 10.60076 4.17111
4.16671 10.69726 4.16671
4.16165 10.79511 4.16165
4.15580 10.89457 4.15580
4.14899 10.99596 4.14899
4.14099 11.09977 4.14099
4.13140 11.20678 4.13140
4.11961 11.31823 4.11961
4.10445 11.43642 4.10445
4.08380 11.56563 4.08380
4.05214 11.71687 4.05214
4.00000 13.19120 4.00000
4.00000 13.19120 4.00000
4.00000 13.19120 4.00000
4.00000 13.19120 4.00000
4.00000 13.19120 4.00000
4.00000 13.19120 4.00000
4.00000 13.19120 4.00000
4.00000 13.19120 4.00000
4.00000 13.19120 4.00000
4.00000 13.19120 4.00000
4.00000 13.19120 4.00000
4.00000 13.19120 4.00000
4.00000 13.19120 4.00000
4.00000 13.19120 4.00000
4.00000 13.19120 4.00000
4.00667 13.21770 4.00667
4.01967 13.27999 4.01967
4.03021 13.34721 4.03021
4.03836 13.41925 4.03836
4.04418 13.49596 4.04418
4.04778 13.57712 4.04778
4.04980 13.66146 4.04980
4.05169 13.74610 4.05169
4.05351 13.83086 4.05351
4.05529 13.91575 4.05529
4.05702 14.00074 4.05702
4.05871 14.08582 4.05871
4.06037 14.17099 4.06037
4.06200 14.25625 4.06200
4.06360 14.34157 4.06360
4.06517 14.42696 4.06517
4.06672 14.51242 4.06672
4.06825 14.59793 4.06825
4.06975 14.68350 4.06975
4.07124 14.76912 4.07124
4.07272 14.85479 4.07272
4.07418 14.94050 4.07418
4.07562 15.02625 4.07562
4.07704 15.11208 4.07704
4.07826 15.19832 4.07826
4.07923 15.28507 4.07923
4.07998 15.37228 4.07997
4.08051 15.45994 4.08050
4.08084 15.54800 4.08083
4.08099 15.63644 4.08099
4.08097 15.72524 4.08097
4.08080 15.81435 4.08080
4.08049 15.90376 4.08049
4.08005 15.99345 4.08004
4.07949 16.08338 4.07948
4.07882 16.17354 4.07882
4.07806 16.26390 4.07805
4.07721 16.35445 4.07721
4.07628 16.44516 4.07628
4.07529 16.53603 4.07529
4.07423 16.62702 4.07423
4.07313 16.71814 4.07312
4.07197 16.80935 4.07197
4.07078 16.90066 4.07078
4.06955 16.99205 4.06955
4.06830 17.08350 4.06830
4.06702 17.17501 4.06702
4.06573 17.26657 4.06573
4.06442 17.35816 4.06442
4.06311 17.44979 4.06311
4.06178 17.54144 4.06178
4.06046 17.63310 4.06046
4.05913 17.72477 4.05913
4.05781 17.81645 4.05781
4.05649 17.90814 4.05649
4.05519 17.99980 4.05519
4.05389 18.09147 4.05389
4.05260 18.18311 4.05260
4.05133 18.27475 4.05133
4.05007 18.36636 4.05007
4.04883 18.45796 4.04883
4.04760 18.54952 4.04760
4.04640 18.64106 4.04640
4.04521 18.73257 4.04521
4.04404 18.82406 4.04404
4.04289 18.91551 4.04289
4.04176 19.00693 4.04176
4.04065 19.09832 4.04065
4.03957 19.18968 4.03957
4.03850 19.28100 4.03850
4.03746 19.37229 4.03746
4.03643 19.46354 4.03643
4.03544 19.55476 4.03544
4.03446 19.64594 4.03446
4.03350 19.73709 4.03350
4.03257 19.82820 4.03257
4.03165 19.91928 4.03165
4.03076 20.01032 4.03076
4.02989 20.10133 4.02989
4.02904 20.19231 4.02904
4.02821 20.28325 4.02821
4.02741 20.37416 4.02741
4.02662 20.46504 4.02662
4.02585 20.55588 4.02585
4.02510 20.64669 4.02510
4.02437 20.73748 4.02437
4.02366 20.82823 4.02366
4.02297 20.91895 4.02297
4.02230 21.00965 4.02230
4.02164 21.10031 4.02164
4.02101 21.19095 4.02101
4.02039 21.28156 4.02039
4.01978 21.37214 4.01978
4.01920 21.46270 4.01920
4.01863 21.55323 4.01863
4.01807 21.64374 4.01807
4.01753 21.73423 4.01753
4.01701 21.82469 4.01701
4.01650 21.91513 4.01650
4.01600 22.00555 4.01600
4.01552 22.09594 4.01552
4.01505 22.18632 4.01505
4.01460 22.27667 4.01460
4.01416 22.36701 4.01416
4.01373 22.45732 4.01373
4.01331 22.54762 4.01331
4.01291 22.63790 4.01291
4.01252 22.72817 4.01252
4.01214 22.81841 4.01214
4.01176 22.90865 4.01177
4.01141 22.99886 4.01141
4.01106 23.08906 4.01106
4.01072 23.17925 4.01072
4.01039 23.26942 4.01040
4.01008 23.35958 4.01008
4.00977 23.44973 4.00977
4.00947 23.53986 4.00947
4.00918 23.62998 4.00918
4.00890 23.72009 4.00890
4.00862 23.81019 4.00862
4.00835 23.90028 4.00836
4.00810 23.99036 4.00810
4.00785 24.08043 4.00785
4.00760 24.17048 4.00761
4.00737 24.26053 4.00737
4.00714 24.35057 4.00714
4.00692 24.44061 4.00692
4.00671 24.53063 4.00671
4.00650 24.62065 4.00650
4.00630 24.71066 4.00630
4.00610 24.80066 4.00610
4.00591 24.89065 4.00592
4.00573 24.98064 4.00573
4.00555 25.07063 4.00555
4.00538 25.16060 4.00538
4.00521 25.25058 4.00521
4.00505 25.34054 4.00505
4.00489 25.43050 4.00489
4.00474 25.52046 4.00474
4.00459 25.61041 4.00459
4.00445 25.70036 4.00445
4.00431 25.79031 4.00431
4.00418 25.88025 4.00418
4.00405 25.97018 4.00405
4.00392 26.06012 4.00392
4.00380 26.15005 4.00380
4.00368 26.23997 4.00368
4.00357 26.32990 4.00357
4.00345 26.41982 4.00345
4.00335 26.50974 4.00335
4.00324 26.59966 4.00324
4.00314 26.68957 4.00314
4.00304 26.77949 4.00304
4.00295 26.86940 4.00295
4.00285 26.95931 4.00285
4.00276 27.04922 4.00277
4.00268 27.13913 4.00268
4.00259 27.22903 4.00259
4.00251 27.31894 4.00251
4.00243 27.40884 4.00243
4.00236 27.49875 4.00236
4.00228 27.58865 4.00228
4.00221 27.67855 4.00221
4.00214 27.76845 4.00214
4.00208 27.85836 4.00208
4.00201 27.94826 4.00201
4.00195 28.03816 4.00195
4.00189 28.12806 4.00189
4.00183 28.21796 4.00183
4.00177 28.30786 4.00177
4.00171 28.39777 4.00171
4.00166 28.48767 4.00166
4.00161 28.57757 4.00161
4.00156 28.66747 4.00156
4.00151 28.75738 4.00151
4.00146 28.84728 4.00146
4.00142 28.93719 4.00142
4.00137 29.02709 4.00137
4.00133 29.11700 4.00133
4.00129 29.20691 4.00129
4.00125 29.29682 4.00125
4.00121 29.38673 4.00121
4.00117 29.47664 4.00117
4.00113 29.56655 4.00113
4.00110 29.65646 4.00110
4.00106 29.74638 4.00106
4.00103 29.83629 4.00103
4.00100 29.92621 4.00100
4.00096 30.01613 4.00096
4.00093 30.10605 4.00093
4.00090 30.19597 4.00090
4.00088 30.28589 4.00088
4.00085 30.37581 4.00085
4.00082 30.46574 4.00082
4.00080 30.55566 4.00080
4.00077 30.64559 4.00077
4.00075 30.73552 4.00075
4.00072 30.82545 4.00072
4.00070 30.91539 4.00070
4.00068 31.00532 4.00068
4.00066 31.09526 4.00066
4.00064 31.18520 4.00064
4.00062 31.27514 4.00062
4.00060 31.36508 4.00060
4.00058 31.45502 4.00058
4.00056 31.54497 4.00056
4.00054 31.63492 4.00054
4.00052 31.72487 4.00052
4.00051 31.81482 4.00051
4.00049 31.90477 4.00049
4.00048 31.99472 4.00048
4.00046 32.08468 4.00046
4.00045 32.17464 4.00045
4.00043 32.26460 4.00043
4.00042 32.35456 4.00042
4.00041 32.44453 4.00041
4.00039 32.53449 4.00039
4.00038 32.62446 4.00038
4.00037 32.71443 4.00037
4.00036 32.80440 4.00036
4.00035 32.89438 4.00035
4.00033 32.98435 4.00033
4.00032 33.07433 4.00032
4.00031 33.16431 4.00031
4.00030 33.25429 4.00030
4.00029 33.34428 4.00029
4.00029 33.43427 4.00029
4.00028 33.52425 4.00028
4.00027 33.61424 4.00027
4.00026 33.70424 4.00026
4.00025 33.79423 4.00025
4.00024 33.88423 4.00024
4.00024 33.97422 4.00024
4.00023 34.06423 4.00023
4.00022 34.15423 4.00022
4.00021 34.24423 4.00021
4.00021 34.33424 4.00021
4.00020 34.42424 4.00020
4.00019 34.51425 4.00019
4.00019 34.60427 4.00019
4.00018 34.69428 4.00018
4.00018 34.78430 4.00018
4.00017 34.87431 4.00017
4.00017 34.96434 4.00017
4.00016 35.05436 4.00016

Angle 0.606326 3.838982

4.00000 7.03348 4.00000
4.00000 7.03348 4.00000
4.00000 7.03348 4.00000
4.00000 7.03348 4.00000
4.00000 7.03348 4.00000
4.00000 7.03348 4.00000
4.00000 7.03348 4.00000
4.00000 7.03348 4.00000
4.00000 7.03348 4.00000
4.00000 7.03348 4.00000
4.00000 7.03348 4.00000
4.00000 7.03348 4.00000
4.00000 7.03348 4.00000
4.00000 7.03348 4.00000
4.00000 7.03348 4.00000
4.00000 7.03348 4.00000
4.00000 7.03348 4.00000
4.00000 7.03348 4.00000
4.00000 7.03348 4.00000
4.00000 7.03348 4.00000
4.00000 7.03348 4.00000
4.00000 7.03348 4.00000
4.00000 7.03348 4.00000
4.00000 7.03348 4.00000
4.00000 7.03348 4.00000
4.00000 7.03348 4.00000
4.00000 7.03348 4.00000
4.00000 7.03348 4.00000
4.00000 7.03348 4.00000
4.00000 7.03348 4.00000
4.00000 7.03348 4.00000
4.00000 7.03348 4.00000
4.00000 7.03348 4.00000
4.00000 7.03348 4.00000
4.00000 7.03348 4.00000
4.00000 7.03348 4.00000
4.00000 7.03348 4.00000
4.00000 7.03348 4.00000
4.00000 7.03348 4.00000
4.00000 7.03348 4.00000
4.00000 7.03348 4.00000
4.00000 7.03348 4.00000
4.00000 7.03348 4.00000
4.00000 7.03348 4.00000
4.00000 7.03348 4.00000
4.00000 7.03348 4.00000
4.00000 7.03348 4.00000
4.00000 7.03348 4.00000
4.00000 7.03348 4.00000
4.00000 7.03348 4.00000
4.00000 7.03348 4.00000
4.00000 7.03348 4.00000
4.00000 7.03348 4.00000
4.00000 7.03348 4.00000
4.00000 7.03348 4.00000
4.00000 7.03348 4.00000
4.00000 7.03348 4.00000
4.00000 7.03348 4.00000
4.00000 7.03348 4.00000
4.00000 7.03348 4.00000
4.00000 7.03348 4.00000
4.00000 7.03348 4.00000
4.00000 7.03348 4.00000
4.00000 7.03348 4.00000
4.00000 7.03348 4.00000
4.00000 7.03348 4.00000
4.00000 7.03348 4.00000
4.00000 7.03348 4.00000
4.00000 7.03348 4.00000
4.00000 7.03348 4.00000
4.00000 7.03348 4.00000
4.00000 7.03348 4.00000
4.00000 7.03348 4.00000
4.00000 7.03348 4.00000
4.00000 7.03348 4.00000
4.00000 7.03348 4.00000
4.00000 7.03348 4.00000
4.00000 7.03348 4.00000
4.00000 7.03348 4.00000
4.00000 7.03348 4.00000
4.00000 7.03348 4.00000
4.00000 7.03348 4.00000
4.00000 7.03348 4.00000
4.00000 7.03348 4.00000
4.00000 7.03348 4.00000
4.00000 7.03348 4.00000
4.00000 7.03348 4.00000
4.00000 7.03348 4.00000
4.00000 7.03348 4.00000
4.00000 7.03348 4.00000
4.00000 7.03348 4.00000
4.00000 7.03348 4.00000
4.00000 7.03348 4.00000
4.00000 7.03348 4.00000
4.00000 7.03348 4.00000
4.00000 7.03348 4.00000
4.00000 7.03348 4.00000
4.00000 7.03348 4.00000
4.00000 7.03348 4.00000
4.00000 7.03348 4.00000
4.00000 7.03348 4.00000
4.00000 7.03348 4.00000
4.00000 7.03348 4.00000
4.00000 7.03348 4.00000
4.00000 7.03348 4.00000
4.00000 7.03348 4.00000
4.00000 7.03348 4.00000
4.00000 7.03348 4.00000
4.00000 7.03348 4.00000
4.00000 7.03348 4.00000
4.00000 7.03348 4.00000
4.00000 7.03348 4.00000
4.00000 7.03348 4.00000
4.00000 7.03348 4.00000
4.00000 7.03348 4.00000
4.00000 7.03348 4.00000
4.00000 7.03348 4.00000
4.00000 7.03348 4.00000
4.00000 7.03348 4.00000
4.00000 7.03348 4.00000
4.00000 7.03348 4.00000
4.00000 7.03348 4.00000
4.00000 7.03348 4.00000
4.00000 7.03348 4.00000
4.00000 7.03348 4.00000
4.00000 7.03348 4.00000
4.00000 7.03348 4.00000
4.00000 7.03348 4.00000
4.00000 7.03348 4.00000
4.00000 7.03348 4.00000
4.00000 7.03348 4.00000
4.00000 7.03348 4.00000
4.00000 7.03348 4.00000
4.00000 7.03348 4.00000
4.00000 7.03348 4.00000
4.00000 7.03348 4.00000
4.00000 7.03348 4.00000
4.00000 7.03348 4.00000
4.00000 7.03348 4.00000
4.00000 7.03348 4.00000
4.00000 7.03348 4.00000
4.00000 7.03348 4.00000
4.00000 7.03348 4.00000
4.00000 7.03348 4.00000
4.00000 7.03348 4.00000
4.00000 7.03348 4.00000
4.00000 7.03348 4.00000
4.00000 7.03348 4.00000
4.00000 7.03348 4.00000
4.00000 7.03348 4.00000
4.00000 7.03348 4.00000
4.00000 7.03348 4.00000
4.00000 7.03348 4.00000
4.00000 7.03348 4.00000
4.00000 7.03348 4.00000
4.00000 7.03348 4.00000
4.00000 7.03348 4.00000
4.00000 7.03348 4.00000
4.00000 7.03348 4.00000
4.00000 7.03348 4.00000
4.00000 7.03348 4.00000
4.00000 7.03348 4.00000
4.00000 7.03348 4.00000
4.00000 7.03347 4.00000
4.00000 7.03348 4.00000
4.00000 7.03348 4.00000
4.00000 7.03348 4.00000
4.00000 7.03348 4.00000
4.00000 7.03348 4.00000
4.00000 7.03348 4.00000
4.00000 7.03348 4.00000
4.00000 7.03348 4.00000
4.00000 7.03348 4.00000
4.00000 7.03348 4.00000
4.00000 7.03348 4.00000
4.00000 7.03348 4.00000
4.00000 7.03348 4.00000
4.00000 7.03348 4.00000
4.00000 7.03348 4.00000
4.00000 7.03348 4.00000
4.00000 7.03348 4.00000
4.00000 7.03348 4.00000
4.00000 7.03348 4.00000
4.00000 7.03348 4.00000
4.00000 7.03348 4.00000
4.00000 7.03348 4.00000
4.00000 7.03348 4.00000
4.00000 7.03348 4.00000
4.00000 7.03348 4.00000
4.00000 7.03348 4.00000
4.00000 7.03348 4.00000
4.00000 7.03348 4.00000
4.00000 7.03350 4.00000
4.00000 7.03350 4.00000
4.00000 7.03351 4.00000
4.00000 7.03348 4.00000
4.00000 7.03348 4.00000
4.00000 7.03348 4.00000
4.00000 7.03348 4.00000
4.00000 7.03348 4.00000
4.00000 7.03348 4.00000
4.00000 7.03348 4.00000
4.00000 7.03348 4.00000
4.00000 7.03348 4.00000
4.00000 7.03348 4.00000
4.00000 7.03348 4.00000
4.00000 7.03349 4.00000
4.00000 7.03349 4.00000
4.00000 7.03350 4.00000
4.00000 7.03348 4.00000
4.00000 7.03349 4.00000
4.00000 7.03348 4.00000
4.00000 7.03348 4.00000
4.00279 7.10172 4.00279
4.00586 7.17924 4.00586
4.00885 7.25701 4.00885
4.01178 7.33498 4.01178
4.01466 7.41312 4.01466
4.01750 7.49142 4.01750
4.02031 7.56985 4.02031
4.02311 7.64837 4.02311
4.02591 7.72697 4.02591
4.02873 7.80561 4.02872
4.03157 7.88426 4.03157
4.03445 7.96289 4.03445
4.03740 8.04146 4.03740
4.04043 8.11993 4.04043
4.04357 8.19825 4.04357
4.04684 8.27637 4.04684
4.05028 8.35423 4.05028
4.05392 8.43173 4.05392
4.05782 8.50878 4.05782
4.06203 8.58527 4.06203
4.06664 8.66102 4.06664
4.07167 8.73599 4.07167
4.07706 8.81028 4.07706
4.08285 8.88386 4.08285
4.08903 8.95669 4.08903
4.09561 9.02877 4.09561
4.10260 9.10011 4.10260
4.10996 9.17074 4.10996
4.11767 9.24073 4.11767
4.12567 9.31019 4.12567
4.13388 9.37929 4.13388
4.14218 9.44824 4.14218
4.15043 9.51735 4.15043
4.15845 9.58698 4.15845
4.16600 9.65760 4.16600
4.17279 9.72976 4.17279
4.17853 9.80409 4.17853
4.18287 9.88126 4.18287
4.18549 9.96191 4.18549
4.18616 10.04651 4.18616
4.18504 10.13473 4.18504
4.18328 10.22427 4.18328
4.18105 10.31480 4.18105
4.17835 10.40632 4.17835
4.17516 10.49885 4.17516
4.17146 10.59244 4.17146
4.16720 10.68721 4.16720
4.16229 10.78329 4.16229
4.15665 10.88089 4.15665
4.15010 10.98034 4.15010
4.14244 11.08206 4.14244
4.13331 11.18673 4.13331
4.12219 11.29545 4.12219
4.10810 11.41013 4.10810
4.08925 11.53437 4.08925
4.06164 11.67617 4.06164
4.00629 11.87349 4.00629
4.00000 13.19120 4.00000
4.00000 13.19120 4.00000
4.00000 13.19120 4.00000
4.00000 13.19120 4.00000
4.00000 13.19120 4.00000
4.00000 13.19120 4.00000
4.00000 13.19120 4.00000
4.00000 13.19120 4.00000
4.00000 13.19120 4.00000
4.00000 13.19120 4.00000
4.00000 13.19120 4.00000
4.00000 13.19120 4.00000
4.00000 13.19120 4.00000
4.00000 13.19120 4.00000
4.00000 13.19121 4.00000
4.01365 13.24904 4.01364
4.02524 13.31299 4.02524
4.03448 13.38171 4.03448
4.04140 13.45506 4.04140
4.04611 13.53288 4.04611
4.04874 13.61488 4.04874
4.05063 13.69838 4.05063
4.05247 13.78203 4.05247
4.05425 13.86581 4.05425
4.05599 13.94970 4.05599
4.05768 14.03370 4.05768
4.05934 14.11780 4.05934
4.06097 14.20200 4.06097
4.06256 14.28627 4.06256
4.06413 14.37062 4.06413
4.06568 14.45505 4.06568
4.06721 14.53954 4.06721
4.06871 14.62409 4.06871
4.07020 14.70871 4.07020
4.07166 14.79338 4.07166
4.07312 14.87811 4.07312
4.07456 14.96289 4.07456
4.07598 15.04771 4.07598
4.07736 15.13267 4.07736
4.07850 15.21811 4.07850
4.07941 15.30403 4.07941
4.08010 15.39042 4.08010
4.08058 15.47724 4.08058
4.08088 15.56445 4.08088
4.08100 15.65204 4.08100
4.08095 15.73998 4.08095
4.08076 15.82823 4.08076
4.08043 15.91678 4.08043
4.07998 16.00560 4.07998
4.07941 16.09466 4.07941
4.07873 16.18395 4.07873
4.07797 16.27345 4.07797
4.07712 16.36313 4.07712
4.07620 16.45298 4.07620
4.07521 16.54299 4.07521
4.07416 16.63312 4.07416
4.07306 16.72338 4.07306
4.07192 16.81375 4.07192
4.07073 16.90421 4.07073
4.06952 16.99475 4.06952
4.06827 17.08537 4.06827
4.06701 17.17604 4.06701
4.06573 17.26677 4.06573
4.06443 17.35754 4.06443
4.06313 17.44835 4.06313
4.06182 17.53918 4.06182
4.06050 17.63004 4.06050
4.05919 17.72091 4.05919
4.05788 17.81179 4.05788
4.05658 17.90268 4.05658
4.05528 17.99357 4.05528
4.05399 18.08445 4.05399
4.05271 18.17533 4.05271
4.05145 18.26620 4.05145
4.05020 18.35705 4.05020
4.04897 18.44789 4.04897
4.04775 18.53871 4.04775
4.04655 18.62951 4.04655
4.04537 18.72028 4.04537
4.04420 18.81104 4.04420
4.04306 18.90176 4.04306
4.04194 18.99246 4.04194
4.04083 19.08314 4.04083
4.03975 19.17379 4.03975
4.03869 19.26440 4.03869
4.03765 19.35499 4.03765
4.03663 19.44555 4.03663
4.03564 19.53608 4.03564
4.03466 19.62658 4.03466
4.03371 19.71705 4.03371
4.03278 19.80749 4.03278
4.03187 19.89790 4.03187
4.03098 19.98829 4.03098
4.03011 20.07864 4.03011
4.02926 20.16896 4.02926
4.02843 20.25925 4.02843
4.02762 20.34952 4.02762
4.02684 20.43976 4.02684
4.02607 20.52997 4.02607
4.02532 20.62015 4.02532
4.02459 20.71030 4.02459
4.02388 20.80044 4.02388
4.02319 20.89054 4.02319
4.02251 20.98062 4.02251
4.02186 21.07068 4.02186
4.02122 21.16071 4.02122
4.02060 21.25072 4.02060
4.01999 21.34070 4.01999
4.01940 21.43067 4.01940
4.01883 21.52061 4.01883
4.01827 21.61053 4.01827
4.01773 21.70044 4.01773
4.01720 21.79032 4.01720
4.01669 21.88018 4.01669
4.01620 21.97003 4.01620
4.01571 22.05986 4.01571
4.01524 22.14967 4.01524
4.01479 22.23946 4.01479
4.01434 22.32924 4.01434
4.01391 22.41900 4.01391
4.01349 22.50875 4.01349
4.01309 22.59848 4.01309
4.01269 22.68820 4.01269
4.01231 22.77791 4.01231
4.01193 22.86760 4.01193
4.01157 22.95728 4.01157
4.01122 23.04695 4.01122
4.01088 23.13661 4.01088
4.01055 23.22626 4.01055
4.01023 23.31590 4.01023

Angle 0.216271 5.943943

4.00000 7.03348 4.00000
4.00000 7.03348 4.00000
4.00000 7.03348 4.00000
4.00000 7.03348 4.00000
4.00000 7.03348 4.00000
4.00000 7.03348 4.00000
4.00000 7.03348 4.00000
4.00000 7.03348 4.00000
4.00000 7.03347 4.00000
4.00000 7.03347 4.00000
4.00000 7.03347 4.00000
4.00000 7.03348 4.00000
4.00000 7.03348 4.00000
4.00000 7.03348 4.00000
4.00000 7.03348 4.00000
4.00000 7.03348 4.00000
4.00000 7.03348 4.00000
4.00000 7.03348 4.00000
4.00000 7.03348 4.00000
4.00000 7.03348 4.00000
4.00000 7.03348 4.00000
4.00000 7.03348 4.00000
4.00000 7.03348 4.00000
4.00000 7.03348 4.00000
4.00000 7.03349 4.00000
4.00000 7.03349 4.00000
4.00000 7.03349 4.00000
4.00000 7.03349 4.00000
4.00000 7.03348 4.00000
4.00000 7.03348 4.00000
4.00000 7.03348 4.00000
4.00000 7.03348 4.00000
4.00000 7.03348 4.00000
4.00000 7.03348 4.00000
4.00000 7.03348 4.00000
4.00000 7.03348 4.00000
4.00000 7.03348 4.00000
4.00000 7.03348 4.00000
4.00000 7.03348 4.00000
4.00000 7.03348 4.00000
4.00000 7.03348 4.00000
4.00000 7.03348 4.00000
4.00000 7.03348 4.00000
4.00000 7.03348 4.00000
4.00000 7.03348 4.00000
4.00000 7.03348 4.00000
4.00000 7.03348 4.00000
4.00000 7.03348 4.00000
4.00000 7.03349 4.00000
4.00000 7.03348 4.00000
4.00000 7.03348 4.00000
4.00000 7.03348 4.00000
4.00000 7.03348 4.00000
4.00000 7.03348 4.00000
4.00000 7.03348 4.00000
4.00000 7.03348 4.00000
4.00000 7.03348 4.00000
4.00000 7.03348 4.00000
4.00000 7.03348 4.00000
4.00000 7.03348 4.00000
4.00000 7.03348 4.00000
4.00000 7.03348 4.00000
4.00000 7.03348 4.00000
4.00000 7.03348 4.00000
4.00000 7.03348 4.00000
4.00000 7.03348 4.00000
4.00000 7.03348 4.00000
4.00000 7.03348 4.00000
4.00000 7.03348 4.00000
4.00000 7.03348 4.00000
4.00000 7.03347 4.00000
4.00000 7.03347 4.00000
4.00000 7.03347 4.00000
4.00000 7.03347 4.00000
4.00000 7.03347 4.00000
4.00000 7.03347 4.00000
4.00000 7.03347 4.00000
4.00000 7.03347 4.00000
4.00000 7.03347 4.00000
4.00000 7.03347 4.00000
4.00000 7.03347 4.00000
4.00000 7.03347 4.00000
4.00000 7.03347 4.00000
4.00000 7.03348 4.00000
4.00000 7.03348 4.00000
4.00000 7.03348 4.00000
4.00000 7.03349 4.00000
4.00000 7.03349 4.00000
4.00000 7.03349 4.00000
4.00000 7.03349 4.00000
4.00000 7.03349 4.00000
4.00000 7.03349 4.00000
4.00000 7.03349 4.00000
4.00000 7.03349 4.00000
4.00000 7.03348 4.00000
4.00000 7.03350 4.00000
4.00000 7.03351 4.00000
4.00000 7.03353 4.00000
4.00000 7.03348 4.00000
4.00000 7.03348 4.00000
4.00000 7.03348 4.00000
4.00000 7.03348 4.00000
4.00000 7.03348 4.00000
4.00000 7.03348 4.00000
4.00000 7.03348 4.00000
4.00000 7.03348 4.00000
4.00000 7.03348 4.00000
4.00258 7.09639 4.00258
4.00562 7.17314 4.00562
4.00859 7.25014 4.00859
4.01150 7.32735 4.01150
4.01435 7.40475 4.01436
4.01717 7.48231 4.01717
4.01996 7.56001 4.01996
4.02274 7.63781 4.02273
4.02551 7.71570 4.02551
4.02829 7.79364 4.02829
4.03111 7.87161 4.03111
4.03396 7.94957 4.03396
4.03687 8.02748 4.03687
4.03986 8.10532 4.03986
4.04295 8.18302 4.04295
4.04617 8.26055 4.04617
4.04954 8.33783 4.04954
4.05311 8.41480 4.05311
4.05691 8.49135 4.05691
4.06101 8.56738 4.06101
4.06548 8.64274 4.06548
4.07038 8.71731 4.07038
4.07564 8.79122 4.07564
4.08128 8.86443 4.08128
4.08730 8.93692 4.08730
4.09373 9.00868 4.09373
4.10055 9.07971 4.10055
4.10776 9.15004 4.10776
4.11531 9.21971 4.11531
4.12318 9.28884 4.12318
4.13127 9.35755 4.13127
4.13951 9.42605 4.13951
4.14774 9.49460 4.14774
4.15580 9.56354 4.15580
4.16348 9.63330 4.16348
4.17053 9.70439 4.17053
4.17664 9.77741 4.17664
4.18148 9.85300 4.18148
4.18474 9.93181 4.18474
4.18615 10.01438 4.18615
4.18558 10.10096 4.18558
4.18402 10.18955 4.18402
4.18198 10.27915 4.18198
4.17948 10.36973 4.17948
4.17651 10.46130 4.17651
4.17304 10.55390 4.17304
4.16904 10.64761 4.16904
4.16445 10.74256 4.16445
4.15916 10.83894 4.15916
4.15306 10.93698 4.15306
4.14596 11.03708 4.14596
4.13758 11.13977 4.13758
4.12749 11.24591 4.12749
4.11498 11.35696 4.11498
4.09869 11.47559 4.09869
4.07608 11.60690 4.07608
4.03940 11.76641 4.03940
4.00000 13.19120 4.00000
4.00000 13.19120 4.00000
4.00000 13.19120 4.00000
4.00000 13.19120 4.00000
4.00000 13.19120 4.00000
4.00000 13.19120 4.00000
4.00000 13.19120 4.00000
4.00000 13.19120 4.00000
4.00000 13.19120 4.00000
4.00000 13.19120 4.00000
4.00000 13.19120 4.00000
4.00000 13.19120 4.00000
4.00000 13.19120 4.00000
4.00000 13.19120 4.00000
4.00000 13.19120 4.00000
4.00624 13.21591 4.00624
4.01910 13.27693 4.01910
4.02960 13.34270 4.02960
4.03778 13.41316 4.03778
4.04370 13.48814 4.04370
4.04747 13.56746 4.04747
4.04955 13.65020 4.04955
4.05141 13.73341 4.05141
4.05321 13.81675 4.05321
4.05497 13.90022 4.05497
4.05668 13.98381 4.05668
4.05835 14.06750 4.05835
4.05999 14.15129 4.05999
4.06160 14.23517 4.06160
4.06318 14.31914 4.06318
4.06473 14.40318 4.06473
4.06627 14.48729 4.06627
4.06778 14.57147 4.06778
4.06927 14.65572 4.06927
4.07074 14.74003 4.07074
4.07220 14.82440 4.07220
4.07364 14.90882 4.07364
4.07507 14.99329 4.07507
4.07649 15.07781 4.07649
4.07778 15.16260 4.07778
4.07884 15.24789 4.07884
4.07967 15.33366 4.07967
4.08028 15.41988 4.08028
4.08070 15.50652 4.08070
4.08093 15.59356 4.08093
4.08100 15.68095 4.08100
4.08091 15.76868 4.08091
4.08067 15.85672 4.08067
4.08030 15.94505 4.08030
4.07981 16.03364 4.07981
4.07921 16.12248 4.07921
4.07851 16.21153 4.07851
4.07772 16.30078 4.07772
4.07685 16.39021 4.07685
4.07591 16.47981 4.07591
4.07490 16.56956 4.07490
4.07384 16.65944 4.07384
4.07273 16.74944 4.07273
4.07158 16.83954 4.07158
4.07039 16.92973 4.07039
4.06917 17.02001 4.06917
4.06793 17.11036 4.06793
4.06666 17.20076 4.06666
4.06538 17.29122 4.06538
4.06409 17.38172 4.06409
4.06278 17.47226 4.06278
4.06148 17.56282 4.06148
4.06017 17.65341 4.06017
4.05886 17.74401 4.05886
4.05755 17.83462 4.05755
4.05625 17.92524 4.05625
4.05496 18.01586 4.05496
4.05368 18.10648 4.05368
4.05241 18.19709 4.05241
4.05115 18.28770 4.05115
4.04991 18.37829 4.04991
4.04868 18.46886 4.04868
4.04747 18.55942 4.04747
4.04628 18.64996 4.04628
4.04511 18.74048 4.04511
4.04395 18.83098 4.04395
4.04281 18.92145 4.04281
4.04170 19.01190 4.04170
4.04060 19.10233 4.04060
4.03953 19.19272 4.03953
4.03848 19.28309 4.03848
4.03744 19.37344 4.03744
4.03643 19.46375 4.03643
4.03544 19.55404 4.03544
4.03447 19.64430 4.03447
4.03353 19.73453 4.03353
4.03260 19.82473 4.03260
4.03170 19.91491 4.03170
4.03081 20.00506 4.03081
4.02995 20.09518 4.02995
4.02911 20.18527 4.02911
4.02829 20.27533 4.02829
4.02748 20.36537 4.02748
4.02670 20.45538 4.02670
4.02594 20.54537 4.02594
4.02519 20.63533 4.02519
4.02447 20.72527 4.02447
4.02376 20.81518 4.02376
4.02308 20.90506 4.02308
4.02241 20.99493 4.02241
4.02175 21.08477 4.02176
4.02112 21.17459 4.02112
4.02050 21.26439 4.02050
4.01990 21.35416 4.01990
4.01932 21.44392 4.01932
4.01875 21.53366 4.01875
4.01819 21.62337 4.01820
4.01766 21.71307 4.01766
4.01713 21.80275 4.01713
4.01662 21.89242 4.01662
4.01613 21.98206 4.01613
4.01565 22.07169 4.01565
4.01518 22.16131 4.01518
4.01473 22.25090 4.01473
4.01429 22.34049 4.01429
4.01386 22.43006 4.01386
4.01344 22.51961 4.01344
4.01304 22.60915 4.01304
4.01264 22.69869 4.01265
4.01226 22.78821 4.01226
4.01189 22.87771 4.01189
4.01153 22.96721 4.01153
4.01118 23.05669 4.01118
4.01085 23.14617 4.01084
4.01052 23.23563 4.01052
4.01020 23.32509 4.01020
4.00989 23.41453 4.00989
4.00959 23.50397 4.00959
4.00929 23.59340 4.00929
4.00901 23.68283 4.00901
4.00873 23.77224 4.00874
4.00847 23.86165 4.00847
4.00821 23.95105 4.00821
4.00796 24.04045 4.00796
4.00771 24.12984 4.00772
4.00748 24.21923 4.00748
4.00725 24.30861 4.00725
4.00703 24.39798 4.00703
4.00681 24.48736 4.00681
4.00660 24.57672 4.00660
4.00640 24.66609 4.00640
4.00620 24.75545 4.00620
4.00601 24.84481 4.00601
4.00582 24.93416 4.00583
4.00565 25.02351 4.00565
4.00547 25.11286 4.00547
4.00530 25.20221 4.00530
4.00514 25.29155 4.00514
4.00498 25.38090 4.00498
4.00483 25.47024 4.00483
4.00468 25.55958 4.00468
4.00453 25.64892 4.00453
4.00439 25.73826 4.00439
4.00426 25.82760 4.00426
4.00412 25.91694 4.00412
4.00400 26.00627 4.00400
4.00387 26.09561 4.00387
4.00375 26.18495 4.00375
4.00364 26.27429 4.00364
4.00352 26.36363 4.00352
4.00341 26.45297 4.00341
4.00331 26.54231 4.00331
4.00320 26.63165 4.00320
4.00311 26.72099 4.00311
4.00301 26.81034 4.00301
4.00291 26.89968 4.00291
4.00282 26.98903 4.00282
4.00274 27.07838 4.00274
4.00265 27.16773 4.00265
4.00257 27.25708 4.00257
4.00249 27.34643 4.00249
4.00241 27.43579 4.00241
4.00234 27.52514 4.00234
4.00226 27.61450 4.00226
4.00219 27.70386 4.00219
4.00212 27.79323 4.00212
4.00206 27.88260 4.00206
4.00199 27.97196 4.00199
4.00193 28.06134 4.00193
4.00187 28.15071 4.00187
4.00181 28.24009 4.00181
4.00176 28.32947 4.00176
4.00170 28.41885 4.00170
4.00165 28.50824 4.00165
4.00160 28.59763 4.00160
4.00155 28.68702 4.00155
4.00150 28.77641 4.00150
4.00145 28.86581 4.00145
4.00141 28.95521 4.00141
4.00136 29.04462 4.00136
4.00132 29.13402 4.00132
4.00128 29.22344 4.00128
4.00124 29.31285 4.00124
4.00120 29.40227 4.00120
4.00116 29.49169 4.00116
4.00113 29.58112 4.00113
4.00109 29.67054 4.00109
4.00106 29.75998 4.00106
4.00102 29.84941 4.00102
4.00099 29.93885 4.00099
4.00096 30.02829 4.00096
4.00093 30.11774 4.00093
4.00090 30.20719 4.00090
4.00087 30.29664 4.00087
4.00085 30.38610 4.00085
4.00082 30.47556 4.00082
4.00079 30.56503 4.00079
4.00077 30.65450 4.00077
4.00074 30.74397 4.00074
4.00072 30.83345 4.00072
4.00070 30.92293 4.00070
4.00068 31.01241 4.00068
4.00065 31.10190 4.00065
4.00063 31.19139 4.00063
4.00061 31.28088 4.00061
4.00060 31.37038 4.00060
4.00058 31.45988 4.00058
4.00056 31.54939 4.00056
4.00054 31.63890 4.00054
4.00052 31.72842 4.00052
4.00051 31.81793 4.00051
4.00049 31.90746 4.00049
4.00048 31.99698 4.00048
4.00046 32.08651 4.00046
4.00045 32.17604 4.00045
4.00043 32.26558 4.00043
4.00042 32.35512 4.00042
4.00041 32.44467 4.00041
4.00039 32.53421 4.00039
4.00038 32.62377 4.00038
4.00037 32.71332 4.00037

Angle 0.189147 5.645811

4.00000 7.03348 4.00000
4.00000 7.03348 4.00000
4.00000 7.03348 4.00000
4.00000 7.03348 4.00000
4.00000 7.03348 4.00000
4.00000 7.03348 4.00000
4.00000 7.03348 4.00000
4.00000 7.03348 4.00000
4.00000 7.03348 4.00000
4.00000 7.03348 4.00000
4.00000 7.03348 4.00000
4.00000 7.03348 4.00000
4.00000 7.03348 4.00000
4.00000 7.03348 4.00000
4.00000 7.03348 4.00000
4.00000 7.03348 4.00000
4.00000 7.03348 4.00000
4.00000 7.03348 4.00000
4.00000 7.03348 4.00000
4.00000 7.03348 4.00000
4.00000 7.03348 4.00000
4.00000 7.03348 4.00000
4.00000 7.03348 4.00000
4.00000 7.03348 4.00000
4.00000 7.03348 4.00000
4.00000 7.03348 4.00000
4.00000 7.03354 4.00000
4.00000 7.03351 4.00000
4.00235 7.09084 4.00235
4.00543 7.16834 4.00543
4.00844 7.24608 4.00844
4.01138 7.32403 4.01138
4.01426 7.40216 4.01426
4.01710 7.48045 4.01710
4.01992 7.55887 4.01992
4.02272 7.63739 4.02272
4.02552 7.71598 4.02552
4.02833 7.79462 4.02833
4.03117 7.87328 4.03117
4.03405 7.95192 4.03405
4.03699 8.03050 4.03699
4.04001 8.10900 4.04001
4.04313 8.18735 4.04313
4.04638 8.26551 4.04638
4.04979 8.34341 4.04979
4.05340 8.42097 4.05340
4.05726 8.49810 4.05726
4.06143 8.57468 4.06143
4.06597 8.65055 4.06597
4.07095 8.72563 4.07095
4.07629 8.80002 4.07629
4.08202 8.87370 4.08202
4.08815 8.94664 4.08815
4.09468 9.01883 4.09468
4.10161 9.09028 4.10161
4.10892 9.16100 4.10892
4.11658 9.23108 4.11658
4.12455 9.30062 4.12455
4.13273 9.36976 4.13273
4.14103 9.43872 4.14103
4.14930 9.50779 4.14930
4.15737 9.57732 4.15737
4.16499 9.64778 4.16499
4.17191 9.71969 4.17191
4.17781 9.79369 4.17781
4.18237 9.87043 4.18237
4.18524 9.95058 4.18524
4.18619 10.03462 4.18619
4.18524 10.12249 4.18524
4.18355 10.21190 4.18355
4.18138 10.30230 4.18138
4.17875 10.39369 4.17875
4.17563 10.48608 4.17563
4.17200 10.57953 4.17200
4.16782 10.67413 4.16782
4.16301 10.77002 4.16301
4.15747 10.86741 4.15747
4.15106 10.96658 4.15106
4.14356 11.06797 4.14356
4.13467 11.17219 4.13467
4.12386 11.28027 4.12386
4.11026 11.39397 4.11026
4.09221 11.51661 4.09221
4.06625 11.65512 4.06624
4.01845 11.83733 4.01845
4.00000 13.19120 4.00000
4.00000 13.19120 4.00000
4.00000 13.19120 4.00000
4.00000 13.19120 4.00000
4.00000 13.19120 4.00000
4.00000 13.19120 4.00000
4.00000 13.19120 4.00000
4.00000 13.19120 4.00000
4.00000 13.19120 4.00000
4.00000 13.19120 4.00000
4.00000 13.19121 4.00000
4.00000 13.19120 4.00000
4.00000 13.19120 4.00000
4.00000 13.19120 4.00000
4.00000 13.19121 4.00000
4.01188 13.24072 4.01188
4.02381 13.30402 4.02381
4.03336 13.37209 4.03336
4.04059 13.44483 4.04059
4.04560 13.52206 4.04560
4.04848 13.60356 4.04848
4.05038 13.68704 4.05038
4.05222 13.77067 4.05222
4.05401 13.85444 4.05401
4.05575 13.93832 4.05575
4.05745 14.02231 4.05745
4.05912 14.10640 4.05912
4.06075 14.19058 4.06075
4.06235 14.27485 4.06235
4.06392 14.35919 4.06392
4.06547 14.44361 4.06547
4.06700 14.52810 4.06700
4.06851 14.61265 4.06851
4.07000 14.69726 4.07000
4.07147 14.78193 4.07147
4.07292 14.86665 4.07292
4.07436 14.95143 4.07436
4.07579 15.03625 4.07579
4.07718 15.12117 4.07718
4.07836 15.20654 4.07836
4.07930 15.29240 4.07930
4.08002 15.37873 4.08002
4.08053 15.46550 4.08053
4.08085 15.55267 4.08085
4.08099 15.64021 4.08099
4.08097 15.72810 4.08097
4.08079 15.81632 4.08079
4.08048 15.90483 4.08048
4.08004 15.99362 4.08004
4.07949 16.08265 4.07949
4.07883 16.17192 4.07883
4.07808 16.26139 4.07808
4.07724 16.35105 4.07724
4.07633 16.44088 4.07633
4.07535 16.53087 4.07535
4.07430 16.62099 4.07430
4.07321 16.71124 4.07321
4.07207 16.80159 4.07207
4.07089 16.89204 4.07089
4.06968 16.98258 4.06968
4.06844 17.07319 4.06844
4.06718 17.16386 4.06718
4.06590 17.25458 4.06590
4.06461 17.34535 4.06461
4.06330 17.43615 4.06330
4.06199 17.52699 4.06199
4.06068 17.61785 4.06068
4.05937 17.70872 4.05937
4.05806 17.79960 4.05806
4.05675 17.89049 4.05675
4.05545 17.98138 4.05545
4.05416 18.07227 4.05416
4.05288 18.16315 4.05288
4.05162 18.25402 4.05162
4.05037 18.34488 4.05037
4.04913 18.43572 4.04913
4.04791 18.52655 4.04791
4.04671 18.61735 4.04671
4.04552 18.70813 4.04552
4.04436 18.79889 4.04436
4.04321 18.88962 4.04321
4.04209 18.98033 4.04209
4.04098 19.07101 4.04098
4.03990 19.16167 4.03990
4.03883 19.25229 4.03883
4.03779 19.34288 4.03779
4.03677 19.43345 4.03677
4.03577 19.52399 4.03577
4.03479 19.61449 4.03479
4.03384 19.70497 4.03384
4.03290 19.79542 4.03290
4.03199 19.88583 4.03199
4.03109 19.97622 4.03109
4.03022 20.06658 4.03022
4.02937 20.15691 4.02937
4.02854 20.24721 4.02854
4.02773 20.33748 4.02773
4.02694 20.42772 4.02694
4.02617 20.51794 4.02617
4.02542 20.60812 4.02542
4.02469 20.69829 4.02469
4.02397 20.78842 4.02397
4.02328 20.87853 4.02328
4.02260 20.96862 4.02260
4.02194 21.05868 4.02194
4.02130 21.14872 4.02130
4.02068 21.23873 4.02068
4.02007 21.32872 4.02007
4.01948 21.41869 4.01948
4.01891 21.50864 4.01891
4.01835 21.59857 4.01835
4.01780 21.68847 4.01780
4.01727 21.77836 4.01727
4.01676 21.86823 4.01676
4.01626 21.95808 4.01626
4.01577 22.04791 4.01578
4.01530 22.13772 4.01531
4.01484 22.22752 4.01485
4.01440 22.31731 4.01440
4.01397 22.40707 4.01397
4.01355 22.49682 4.01355
4.01314 22.58656 4.01314
4.01274 22.67628 4.01274
4.01236 22.76599 4.01236
4.01198 22.85569 4.01198
4.01162 22.94537 4.01162
4.01127 23.03505 4.01127
4.01093 23.12471 4.01093
4.01059 23.21436 4.01059
4.01027 23.30400 4.01027
4.00996 23.39363 4.00996
4.00966 23.48325 4.00965
4.00936 23.57286 4.00936
4.00907 23.66246 4.00907
4.00880 23.75206 4.00880
4.00853 23.84164 4.00853
4.00827 23.93122 4.00827
4.00801 24.02079 4.00801
4.00777 24.11036 4.00777
4.00753 24.19991 4.00753
4.00730 24.28947 4.00730
4.00707 24.37901 4.00707
4.00686 24.46855 4.00686
4.00664 24.55809 4.00664
4.00644 24.64762 4.00644
4.00624 24.73715 4.00624
4.00605 24.82667 4.00605
4.00586 24.91619 4.00586
4.00568 25.00570 4.00568
4.00551 25.09522 4.00551
4.00534 25.18472 4.00534
4.00517 25.27423 4.00517
4.00501 25.36373 4.00501
4.00486 25.45323 4.00486
4.00470 25.54273 4.00471
4.00456 25.63223 4.00456
4.00442 25.72173 4.00442
4.00428 25.81122 4.00428
4.00415 25.90071 4.00415
4.00402 25.99020 4.00402
4.00389 26.07969 4.00389
4.00377 26.16918 4.00377
4.00366 26.25867 4.00366
4.00354 26.34816 4.00354
4.00343 26.43765 4.00343
4.00333 26.52714 4.00333
4.00322 26.61663 4.00322
4.00312 26.70612 4.00312
4.00302 26.79561 4.00302
4.00293 26.88510 4.00293
4.00284 26.97459 4.00284
4.00275 27.06408 4.00275
4.00266 27.15357 4.00266
4.00258 27.24306 4.00258
4.00250 27.33256 4.00250
4.00242 27.42205 4.00242
4.00235 27.51155 4.00235
4.00227 27.60105 4.00227
4.00220 27.69055 4.00220
4.00213 27.78005 4.00213
4.00207 27.86955 4.00207
4.00200 27.95906 4.00200
4.00194 28.04857 4.00194
4.00188 28.13808 4.00188
4.00182 28.22759 4.00182
4.00176 28.31710 4.00176
4.00171 28.40662 4.00171
4.00166 28.49613 4.00166
4.00160 28.58565 4.00160
4.00155 28.67518 4.00155
4.00150 28.76470 4.00150
4.00146 28.85423 4.00146
4.00141 28.94376 4.00141
4.00137 29.03329 4.00137
4.00132 29.12283 4.00132
4.00128 29.21237 4.00128
4.00124 29.30191 4.00124
4.00120 29.39145 4.00120
4.00117 29.48099 4.00117
4.00113 29.57055 4.00113
4.00109 29.66010 4.00110
4.00106 29.74965 4.00106
4.00103 29.83921 4.00103
4.00099 29.92877 4.00099
4.00096 30.01834 4.00096
4.00093 30.10791 4.00093
4.00090 30.19747 4.00090
4.00088 30.28705 4.00088
4.00085 30.37663 4.00085
4.00082 30.46620 4.00082
4.00080 30.55579 4.00080
4.00077 30.64538 4.00077
4.00075 30.73496 4.00074
4.00072 30.82456 4.00072
4.00070 30.91415 4.00070
4.00068 31.00375 4.00068
4.00066 31.09335 4.00066
4.00064 31.18296 4.00064
4.00062 31.27257 4.00062
4.00060 31.36218 4.00060
4.00058 31.45179 4.00058
4.00056 31.54141 4.00056
4.00054 31.63104 4.00054
4.00053 31.72066 4.00053
4.00051 31.81029 4.00051
4.00049 31.89992 4.00049
4.00048 31.98956 4.00048
4.00047 32.07919 4.00046
4.00045 32.16884 4.00045
4.00043 32.25848 4.00043
4.00042 32.34813 4.00042
4.00041 32.43778 4.00041
4.00040 32.52744 4.00039
4.00038 32.61710 4.00038
4.00037 32.70676 4.00037
4.00036 32.79643 4.00036
4.00035 32.88610 4.00035
4.00033 32.97576 4.00034
4.00033 33.06544 4.00032
4.00032 33.15512 4.00032
4.00031 33.24480 4.00031
4.00030 33.33449 4.00030
4.00029 33.42417 4.00029
4.00028 33.51386 4.00028
4.00027 33.60356 4.00027
4.00026 33.69326 4.00026
4.00025 33.78296 4.00025
4.00024 33.87267 4.00024
4.00024 33.96238 4.00024
4.00023 34.05209 4.00023
4.00022 34.14180 4.00022
4.00021 34.23152 4.00021
4.00021 34.32125 4.00021
4.00020 34.41096 4.00020
4.00019 34.50069 4.00019
4.00019 34.59042 4.00019
4.00018 34.68016 4.00018
4.00018 34.76989 4.00018
4.00017 34.85963 4.00017
4.00017 34.94938 4.00017
4.00016 35.03912 4.00016
4.00016 35.12887 4.00016
4.00015 35.21862 4.00015
4.00015 35.30838 4.00015
4.00014 35.39814 4.00014
4.00014 35.48790 4.00014
4.00013 35.57767 4.00013
4.00013 35.66744 4.00013
4.00012 35.75721 4.00012
4.00012 35.84699 4.00012
4.00012 35.93676 4.00012
4.00011 36.02654 4.00011
4.00011 36.11633 4.00011
4.00011 36.20612 4.00011
4.00010 36.29591 4.00010
4.00010 36.38570 4.00010
4.00010 36.47550 4.00010
4.00009 36.56529 4.00009
4.00009 36.65510 4.00009
4.00009 36.74490 4.00009
4.00009 36.83471 4.00009
4.00008 36.92452 4.00008
4.00008 37.01433 4.00008
4.00008 37.10415 4.00008
4.00007 37.19397 4.00007
4.00007 37.28379 4.00007
4.00007 37.37361 4.00007
4.00007 37.46344 4.00007
4.00007 37.55327 4.00007
4.00006 37.64310 4.00006
4.00006 37.73294 4.00006
4.00006 37.82278 4.00006
4.00006 37.91262 4.00006
4.00006 38.00246 4.00006
4.00005 38.09231 4.00005
4.00005 38.18216 4.00005
4.00005 38.27201 4.00005
4.00005 38.36186 4.00005
4.00005 38.45172 4.00005
4.00005 38.54158 4.00005
4.00004 38.63144 4.00004
4.00004 38.72130 4.00004
4.00004 38.81117 4.00004
4.00004 38.90104 4.00004
4.00004 38.99091 4.00004
4.00004 39.08079 4.00004
4.00004 39.17066 4.00004
4.00004 39.26054 4.00004
4.00003 39.35043 4.00003
4.00003 39.44031 4.00003
4.00003 39.53020 4.00003
4.00003 39.62009 4.00003
4.00003 39.70998 4.00003
4.00003 39.79988 4.00003
4.00003 39.88977 4.00003

Angle 0.164589 5.016882

4.00000 7.03349 4.00000
4.00000 7.03348 4.00000
4.00000 7.03348 4.00000
4.00000 7.03348 4.00000
4.00000 7.03348 4.00000
4.00000 7.03348 4.00000
4.00000 7.03348 4.00000
4.00000 7.03348 4.00000
4.00000 7.03348 4.00000
4.00000 7.03348 4.00000
4.00000 7.03348 4.00000
4.00000 7.03348 4.00000
4.00000 7.03348 4.00000
4.00000 7.03348 4.00000
4.00000 7.03348 4.00000
4.00000 7.03349 4.00000
4.00000 7.03350 4.00000
4.00046 7.04460 4.00046
4.00187 7.07892 4.00187
4.00327 7.11369 4.00327
4.00467 7.14891 4.00467
4.00607 7.18458 4.00607
4.00747 7.22069 4.00747
4.00886 7.25724 4.00886
4.01026 7.29423 4.01026
4.01166 7.33165 4.01166
4.01306 7.36949 4.01306
4.01446 7.40774 4.01446
4.01587 7.44641 4.01587
4.01728 7.48549 4.01728
4.01871 7.52496 4.01870
4.02013 7.56484 4.02013
4.02157 7.60510 4.02157
4.02302 7.64574 4.02302
4.02448 7.68676 4.02448
4.02595 7.72815 4.02595
4.02744 7.76990 4.02744
4.02895 7.81200 4.02895
4.03048 7.85445 4.03048
4.03204 7.89723 4.03204
4.03362 7.94034 4.03362
4.03523 7.98377 4.03523
4.03687 8.02751 4.03687
4.03855 8.07155 4.03855
4.04028 8.11587 4.04028
4.04204 8.16046 4.04204
4.04386 8.20532 4.04386
4.04574 8.25041 4.04574
4.04768 8.29573 4.04768
4.04969 8.34126 4.04969
4.05179 8.38697 4.05179
4.05398 8.43284 4.05398
4.05627 8.47885 4.05627
4.05868 8.52496 4.05868
4.06122 8.57113 4.06122
4.06392 8.61733 4.06392
4.06680 8.66351 4.06680
4.06986 8.70965 4.06986
4.07307 8.75581 4.07307
4.07644 8.80197 4.07644
4.07998 8.84810 4.07998
4.08370 8.89420 4.08370
4.08759 8.94025 4.08759
4.09167 8.98624 4.09167
4.09594 9.03217 4.09594
4.10038 9.07803 4.10039
4.10502 9.12382 4.10502
4.10983 9.16956 4.10983
4.11482 9.21524 4.11482
4.11996 9.26090 4.11996
4.12524 9.30657 4.12524
4.13065 9.35228 4.13065
4.13614 9.39810 4.13614
4.14168 9.44410 4.14168
4.14723 9.49036 4.14723
4.15274 9.53698 4.15274
4.15813 9.58411 4.15813
4.16333 9.63188 4.16333
4.16826 9.68046 4.16826
4.17282 9.73006 4.17282
4.17689 9.78089 4.17689
4.18037 9.83317 4.18037
4.18313 9.88715 4.18313
4.18505 9.94304 4.18505
4.18606 10.00103 4.18606
4.18607 10.06125 4.18607
4.18523 10.12343 4.18523
4.18408 10.18646 4.18408
4.18269 10.25022 4.18269
4.18105 10.31472 4.18105
4.17917 10.37994 4.17917
4.17704 10.44589 4.17704
4.17465 10.51261 4.17465
4.17198 10.58011 4.17198
4.16901 10.64843 4.16901
4.16571 10.71764 4.16571
4.16205 10.78780 4.16205
4.15798 10.85900 4.15798
4.15343 10.93136 4.15343
4.14834 11.00505 4.14834
4.14258 11.08027 4.14258
4.13602 11.15732 4.13602
4.12845 11.23660 4.12845
4.11955 11.31874 4.11955
4.10883 11.40473 4.10883
4.09551 11.49613 4.09551
4.07826 11.59558 4.07826
4.05396 11.70933 4.05396
4.01019 11.86225 4.01019
4.00000 13.19120 4.00000
4.00000 13.19120 4.00000
4.00000 13.19120 4.00000
4.00000 13.19120 4.00000
4.00000 13.19120 4.00000
4.00000 13.19120 4.00000
4.00000 13.19120 4.00000
4.00000 13.19120 4.00000
4.00000 13.19120 4.00000
4.00000 13.19120 4.00000
4.00000 13.19120 4.00000
4.00000 13.19120 4.00000
4.00000 13.19120 4.00000
4.00000 13.19120 4.00000
4.00000 13.19120 4.00000
4.00000 13.19120 4.00000
4.00000 13.19120 4.00000
4.00000 13.19120 4.00000
4.00000 13.19120 4.00000
4.00629 13.21612 4.00629
4.01673 13.26436 4.01673
4.02567 13.31575 4.02567
4.03314 13.37025 4.03314
4.03914 13.42783 4.03914
4.04372 13.48842 4.04372
4.04691 13.55194 4.04691
4.04881 13.61819 4.04881
4.05034 13.68534 4.05034
4.05183 13.75271 4.05183
4.05329 13.82030 4.05329
4.05472 13.88809 4.05472
4.05612 13.95608 4.05612
4.05749 14.02427 4.05749
4.05885 14.09264 4.05885
4.06018 14.16119 4.06018
4.06150 14.22992 4.06150
4.06280 14.29882 4.06280
4.06408 14.36789 4.06408
4.06535 14.43713 4.06535
4.06661 14.50652 4.06661
4.06786 14.57607 4.06786
4.06909 14.64578 4.06909
4.07032 14.71564 4.07032
4.07153 14.78564 4.07153
4.07274 14.85580 4.07274
4.07393 14.92609 4.07393
4.07512 14.99653 4.07512
4.07631 15.06711 4.07631
4.07743 15.13792 4.07743
4.07839 15.20919 4.07839
4.07919 15.28091 4.07919
4.07983 15.35306 4.07983
4.08032 15.42563 4.08032
4.08067 15.49859 4.08067
4.08089 15.57193 4.08089
4.08099 15.64563 4.08099
4.08098 15.71967 4.08098
4.08085 15.79405 4.08085
4.08062 15.86875 4.08062
4.08030 15.94374 4.08030
4.07990 16.01902 4.07990
4.07941 16.09457 4.07941
4.07884 16.17038 4.07884
4.07821 16.24643 4.07821
4.07751 16.32272 4.07751
4.07676 16.39923 4.07676
4.07595 16.47595 4.07595
4.07510 16.55287 4.07510
4.07420 16.62998 4.07419
4.07326 16.70727 4.07326
4.07229 16.78473 4.07229
4.07128 16.86235 4.07128
4.07025 16.94012 4.07025
4.06920 17.01804 4.06920
4.06813 17.09610 4.06813
4.06703 17.17428 4.06703
4.06593 17.25260 4.06593
4.06481 17.33103 4.06481
4.06369 17.40957 4.06369
4.06255 17.48821 4.06255
4.06142 17.56696 4.06142
4.06028 17.64581 4.06028
4.05913 17.72475 4.05913
4.05800 17.80377 4.05800
4.05686 17.88288 4.05686
4.05573 17.96207 4.05573
4.05460 18.04133 4.05460
4.05348 18.12067 4.05348
4.05237 18.20007 4.05237
4.05126 18.27954 4.05126
4.05017 18.35908 4.05017
4.04909 18.43868 4.04909
4.04802 18.51834 4.04802
4.04696 18.59806 4.04696
4.04592 18.67783 4.04592
4.04488 18.75766 4.04489
4.04387 18.83753 4.04387
4.04286 18.91746 4.04286
4.04188 18.99744 4.04188
4.04090 19.07746 4.04090
4.03994 19.15753 4.03995
4.03900 19.23765 4.03900
4.03808 19.31781 4.03808
4.03717 19.39802 4.03717
4.03627 19.47826 4.03627
4.03539 19.55855 4.03539
4.03453 19.63888 4.03453
4.03369 19.71925 4.03369
4.03286 19.79966 4.03286
4.03204 19.88011 4.03204
4.03125 19.96060 4.03125
4.03046 20.04112 4.03047
4.02970 20.12169 4.02970
4.02895 20.20229 4.02895
4.02822 20.28293 4.02822
4.02750 20.36360 4.02750
4.02680 20.44431 4.02680
4.02611 20.52507 4.02611
4.02544 20.60585 4.02544
4.02478 20.68667 4.02478
4.02414 20.76753 4.02414
4.02351 20.84842 4.02351
4.02289 20.92935 4.02289
4.02229 21.01031 4.02229
4.02171 21.09131 4.02171
4.02114 21.17234 4.02114
4.02058 21.25341 4.02058
4.02003 21.33451 4.02003
4.01950 21.41565 4.01950
4.01898 21.49683 4.01898
4.01847 21.57804 4.01847
4.01798 21.65928 4.01798
4.01749 21.74056 4.01749
4.01702 21.82187 4.01702
4.01656 21.90322 4.01656
4.01612 21.98461 4.01612
4.01568 22.06603 4.01568
4.01525 22.14748 4.01525
4.01484 22.22897 4.01484
4.01443 22.31049 4.01443
4.01404 22.39205 4.01404
4.01365 22.47365 4.01365
4.01328 22.55527 4.01328
4.01291 22.63694 4.01291
4.01256 22.71864 4.01256
4.01221 22.80037 4.01221
4.01188 22.88214 4.01188
4.01155 22.96394 4.01155
4.01123 23.04578 4.01123
4.01092 23.12765 4.01092
4.01061 23.20956 4.01061
4.01032 23.29150 4.01032
4.01003 23.37348 4.01003
4.00975 23.45549 4.00975
4.00948 23.53754 4.00948
4.00921 23.61962 4.00921
4.00895 23.70174 4.00895
4.00870 23.78389 4.00870
4.00846 23.86607 4.00845
4.00822 23.94829 4.00822
4.00799 24.03055 4.00798
4.00776 24.11284 4.00776
4.00754 24.19517 4.00754
4.00733 24.27752 4.00733
4.00712 24.35991 4.00712
4.00692 24.44234 4.00692
4.00672 24.52480 4.00672
4.00653 24.60730 4.00653
4.00635 24.68983 4.00635
4.00617 24.77239 4.00616
4.00599 24.85499 4.00599
4.00582 24.93762 4.00582
4.00565 25.02029 4.00565
4.00549 25.10298 4.00549
4.00533 25.18572 4.00533
4.00518 25.26848 4.00518
4.00503 25.35128 4.00503
4.00488 25.43412 4.00489
4.00475 25.51699 4.00475
4.00461 25.59989 4.00461
4.00448 25.68282 4.00448
4.00435 25.76579 4.00435
4.00422 25.84878 4.00422
4.00410 25.93182 4.00410
4.00398 26.01488 4.00398
4.00387 26.09798 4.00387
4.00376 26.18111 4.00376
4.00365 26.26427 4.00365
4.00354 26.34747 4.00354
4.00344 26.43070 4.00344
4.00334 26.51396 4.00334
4.00324 26.59725 4.00324
4.00315 26.68057 4.00315
4.00306 26.76392 4.00306
4.00297 26.84731 4.00297
4.00288 26.93073 4.00288
4.00280 27.01418 4.00280
4.00272 27.09766 4.00272
4.00264 27.18117 4.00264
4.00256 27.26472 4.00256
4.00249 27.34829 4.00249
4.00241 27.43189 4.00242
4.00234 27.51553 4.00234
4.00228 27.59920 4.00228
4.00221 27.68289 4.00221
4.00215 27.76662 4.00215
4.00208 27.85037 4.00208
4.00202 27.93416 4.00202
4.00196 28.01798 4.00196
4.00190 28.10182 4.00190
4.00185 28.18570 4.00185
4.00179 28.26960 4.00179
4.00174 28.35354 4.00174
4.00169 28.43750 4.00169
4.00164 28.52150 4.00164
4.00159 28.60552 4.00159
4.00155 28.68957 4.00155
4.00150 28.77365 4.00150
4.00146 28.85776 4.00146
4.00141 28.94189 4.00141
4.00137 29.02606 4.00137
4.00133 29.11024 4.00133
4.00129 29.19447 4.00129
4.00125 29.27872 4.00125
4.00122 29.36299 4.00122
4.00118 29.44729 4.00118
4.00114 29.53162 4.00115
4.00111 29.61598 4.00111
4.00108 29.70037 4.00108
4.00105 29.78478 4.00105
4.00102 29.86922 4.00102
4.00099 29.95368 4.00099
4.00096 30.03818 4.00096
4.00093 30.12269 4.00093
4.00090 30.20724 4.00090
4.00087 30.29181 4.00087
4.00085 30.37641 4.00085
4.00082 30.46103 4.00082
4.00080 30.54568 4.00080
4.00077 30.63035 4.00077
4.00075 30.71505 4.00075
4.00073 30.79978 4.00073
4.00071 30.88453 4.00071
4.00069 30.96930 4.00069
4.00067 31.05410 4.00067
4.00065 31.13893 4.00065
4.00063 31.22378 4.00063
4.00061 31.30865 4.00061
4.00059 31.39355 4.00059
4.00057 31.47847 4.00057
4.00056 31.56342 4.00056
4.00054 31.64839 4.00054
4.00052 31.73338 4.00052
4.00051 31.81840 4.00051
4.00049 31.90344 4.00049
4.00048 31.98851 4.00048
4.00046 32.07360 4.00046
4.00045 32.15871 4.00045
4.00044 32.24384 4.00044
4.00042 32.32900 4.00042
4.00041 32.41418 4.00041
4.00040 32.49939 4.00040
4.00039 32.58461 4.00039
4.00037 32.66986 4.00037
4.00036 32.75513 4.00036
4.00035 32.84043 4.00035
4.00034 32.92574 4.00034
4.00033 33.01108 4.00033
4.00032 33.09644 4.00032
4.00031 33.18182 4.00031
4.00030 33.26722 4.00030
4.00029 33.35265 4.00029
4.00028 33.43809 4.00028
4.00028 33.52355 4.00028
4.00027 33.60904 4.00027
4.00026 33.69455 4.00026
4.00025 33.78008 4.00025
4.00024 33.86563 4.00024
4.00024 33.95120 4.00024
4.00023 34.03679 4.00023
4.00022 34.12240 4.00022
4.00022 34.20804 4.00022
4.00021 34.29369 4.00021
4.00020 34.37936 4.00020
4.00020 34.46506 4.00020
4.00019 34.55077 4.00019
4.00019 34.63651 4.00019
4.00018 34.72227 4.00018
4.00017 34.80802 4.00017
4.00017 34.89381 4.00017
4.00016 34.97962 4.00016

Angle 0.279631 5.887783

4.00000 7.03348 4.00000
4.00000 7.03348 4.00000
4.00000 7.03348 4.00000
4.00000 7.03348 4.00000
4.00000 7.03348 4.00000
4.00000 7.03348 4.00000
4.00000 7.03348 4.00000
4.00000 7.03348 4.00000
4.00000 7.03348 4.00000
4.00000 7.03348 4.00000
4.00000 7.03348 4.00000
4.00000 7.03348 4.00000
4.00000 7.03348 4.00000
4.00000 7.03348 4.00000
4.00000 7.03348 4.00000
4.00000 7.03348 4.00000
4.00000 7.03348 4.00000
4.00000 7.03350 4.00000
4.00000 7.03349 4.00000
4.00000 7.03348 4.00000
4.00000 7.03348 4.00000
4.00000 7.03348 4.00000
4.00000 7.03349 4.00000
4.00000 7.03348 4.00000
4.00000 7.03348 4.00000
4.00000 7.03348 4.00000
4.00000 7.03348 4.00000
4.00000 7.03348 4.00000
4.00000 7.03348 4.00000
4.00000 7.03348 4.00000
4.00000 7.03348 4.00000
4.00000 7.03348 4.00000
4.00000 7.03348 4.00000
4.00000 7.03349 4.00000
4.00000 7.03348 4.00000
4.00000 7.03347 4.00000
4.00000 7.03350 4.00000
4.00000 7.03348 4.00000
4.00084 7.05372 4.00084
4.00384 7.12786 4.00384
4.00676 7.20227 4.00676
4.00961 7.27693 4.00961
4.01241 7.35181 4.01241
4.01516 7.42690 4.01516
4.01788 7.50215 4.01789
4.02059 7.57756 4.02059
4.02328 7.65309 4.02328
4.02597 7.72872 4.02597
4.02868 7.80443 4.02868
4.03142 7.88018 4.03142
4.03420 7.95595 4.03420
4.03703 8.03171 4.03703
4.03994 8.10740 4.03994
4.04295 8.18301 4.04295
4.04608 8.25846 4.04608
4.04936 8.33371 4.04936
4.05281 8.40869 4.05281
4.05650 8.48331 4.05650
4.06046 8.55747 4.06046
4.06476 8.63103 4.06476
4.06946 8.70386 4.06946
4.07453 8.77607 4.07453
4.07994 8.84765 4.07994
4.08573 8.91857 4.08573
4.09190 8.98881 4.09190
4.09845 9.05837 4.09845
4.10538 9.12727 4.10538
4.11265 9.19554 4.11265
4.12023 9.26327 4.12023
4.12807 9.33056 4.12807
4.13608 9.39759 4.13608
4.14414 9.46457 4.14414
4.15213 9.53179 4.15213
4.15985 9.59961 4.15985
4.16709 9.66847 4.16709
4.17357 9.73890 4.17357
4.17902 9.81148 4.17902
4.18311 9.88683 4.18311
4.18556 9.96553 4.18556
4.18615 10.04803 4.18615
4.18505 10.13396 4.18505
4.18335 10.22116 4.18335
4.18120 10.30933 4.18120
4.17860 10.39846 4.17860
4.17554 10.48856 4.17554
4.17199 10.57970 4.17199
4.16792 10.67195 4.16792
4.16325 10.76545 4.16325
4.15789 10.86039 4.15789
4.15171 10.95703 4.15171
4.14452 11.05575 4.14452
4.13604 11.15711 4.13604
4.12582 11.26201 4.12582
4.11311 11.37193 4.11311
4.09652 11.48966 4.09652
4.07340 11.62051 4.07340
4.03521 11.78155 4.03521
4.00000 13.19120 4.00000
4.00000 13.19120 4.00000
4.00000 13.19120 4.00000
4.00000 13.19120 4.00000
4.00000 13.19120 4.00000
4.00000 13.19120 4.00000
4.00000 13.19120 4.00000
4.00000 13.19120 4.00000
4.00000 13.19120 4.00000
4.00000 13.19120 4.00000
4.00000 13.19120 4.00000
4.00000 13.19120 4.00000
4.00000 13.19120 4.00000
4.00000 13.19120 4.00000
4.00000 13.19120 4.00000
4.00375 13.20572 4.00375
4.01685 13.26499 4.01685
4.02765 13.32889 4.02765
4.03619 13.39736 4.03618
4.04252 13.47028 4.04252
4.04674 13.54748 4.04673
4.04905 13.62851 4.04905
4.05090 13.71051 4.05090
4.05270 13.79267 4.05270
4.05444 13.87497 4.05444
4.05614 13.95739 4.05614
4.05781 14.03992 4.05781
4.05943 14.12256 4.05943
4.06103 14.20530 4.06103
4.06260 14.28814 4.06260
4.06414 14.37106 4.06414
4.06566 14.45406 4.06566
4.06716 14.53714 4.06716
4.06864 14.62029 4.06864
4.07010 14.70351 4.07010
4.07155 14.78680 4.07155
4.07298 14.87015 4.07298
4.07440 14.95357 4.07440
4.07580 15.03704 4.07580
4.07717 15.12061 4.07717
4.07834 15.20463 4.07834
4.07927 15.28915 4.07927
4.07998 15.37412 4.07998
4.08050 15.45953 4.08050
4.08083 15.54534 4.08083
4.08098 15.63153 4.08098
4.08098 15.71808 4.08098
4.08082 15.80494 4.08082
4.08053 15.89211 4.08053
4.08012 15.97956 4.08012
4.07959 16.06726 4.07959
4.07896 16.15520 4.07896
4.07824 16.24336 4.07824
4.07743 16.33171 4.07743
4.07654 16.42024 4.07654
4.07559 16.50893 4.07559
4.07458 16.59777 4.07458
4.07351 16.68675 4.07351
4.07240 16.77584 4.07240
4.07125 16.86504 4.07125
4.07006 16.95433 4.07006
4.06885 17.04370 4.06885
4.06761 17.13315 4.06761
4.06635 17.22266 4.06635
4.06508 17.31223 4.06508
4.06380 17.40184 4.06380
4.06251 17.49149 4.06251
4.06121 17.58118 4.06121
4.05991 17.67089 4.05991
4.05862 17.76063 4.05862
4.05733 17.85038 4.05733
4.05604 17.94014 4.05604
4.05476 18.02990 4.05476
4.05349 18.11967 4.05349
4.05224 18.20944 4.05224
4.05099 18.29921 4.05099
4.04976 18.38897 4.04976
4.04855 18.47872 4.04855
4.04735 18.56846 4.04735
4.04617 18.65818 4.04617
4.04501 18.74790 4.04501
4.04387 18.83759 4.04387
4.04274 18.92727 4.04274
4.04164 19.01693 4.04164
4.04055 19.10657 4.04055
4.03949 19.19619 4.03949
4.03844 19.28578 4.03844
4.03742 19.37536 4.03742
4.03642 19.46491 4.03642
4.03544 19.55444 4.03544
4.03448 19.64395 4.03448
4.03354 19.73344 4.03354
4.03262 19.82290 4.03262
4.03172 19.91234 4.03172
4.03084 20.00176 4.03084
4.02999 20.09116 4.02999
4.02915 20.18053 4.02915
4.02833 20.26988 4.02833
4.02754 20.35921 4.02754
4.02676 20.44852 4.02676
4.02600 20.53781 4.02600
4.02526 20.62707 4.02526
4.02454 20.71632 4.02454
4.02384 20.80555 4.02384
4.02315 20.89476 4.02315
4.02249 20.98394 4.02249
4.02184 21.07312 4.02184
4.02121 21.16227 4.02121
4.02059 21.25141 4.02059
4.01999 21.34052 4.01999
4.01941 21.42963 4.01941
4.01884 21.51872 4.01884
4.01829 21.60779 4.01829
4.01775 21.69685 4.01775
4.01723 21.78589 4.01723
4.01672 21.87492 4.01672
4.01623 21.96394 4.01623
4.01575 22.05295 4.01575
4.01528 22.14194 4.01528
4.01483 22.23092 4.01483
4.01439 22.31989 4.01439
4.01396 22.40886 4.01396
4.01354 22.49781 4.01354
4.01314 22.58675 4.01314
4.01275 22.67568 4.01275
4.01236 22.76461 4.01236
4.01199 22.85352 4.01199
4.01163 22.94243 4.01163
4.01128 23.03133 4.01128
4.01094 23.12023 4.01094
4.01061 23.20912 4.01061
4.01029 23.29800 4.01029
4.00998 23.38688 4.00998
4.00968 23.47575 4.00968
4.00939 23.56462 4.00939
4.00910 23.65348 4.00910
4.00883 23.74234 4.00883
4.00856 23.83120 4.00856
4.00830 23.92005 4.00830
4.00805 24.00890 4.00805
4.00780 24.09775 4.00780
4.00756 24.18659 4.00756
4.00733 24.27544 4.00733
4.00711 24.36428 4.00711
4.00689 24.45312 4.00689
4.00668 24.54196 4.00668
4.00648 24.63079 4.00648
4.00628 24.71963 4.00628
4.00609 24.80847 4.00609
4.00590 24.89731 4.00590
4.00572 24.98614 4.00572
4.00554 25.07498 4.00554
4.00537 25.16382 4.00537
4.00521 25.25266 4.00521
4.00505 25.34150 4.00505
4.00489 25.43034 4.00490
4.00474 25.51919 4.00474
4.00460 25.60803 4.00460
4.00446 25.69687 4.00446
4.00432 25.78573 4.00432
4.00419 25.87458 4.00419
4.00405 25.96343 4.00406
4.00393 26.05228 4.00394
4.00381 26.14114 4.00381
4.00370 26.23000 4.00369
4.00358 26.31887 4.00358
4.00347 26.40774 4.00347
4.00336 26.49660 4.00336
4.00326 26.58548 4.00326
4.00316 26.67435 4.00316
4.00306 26.76324 4.00306
4.00296 26.85212 4.00296
4.00287 26.94101 4.00287
4.00278 27.02990 4.00278
4.00270 27.11880 4.00270
4.00261 27.20770 4.00261
4.00253 27.29660 4.00253
4.00245 27.38551 4.00245
4.00238 27.47442 4.00238
4.00230 27.56334 4.00230
4.00223 27.65226 4.00223
4.00216 27.74118 4.00217
4.00210 27.83012 4.00209
4.00203 27.91905 4.00203
4.00197 28.00799 4.00197
4.00191 28.09694 4.00191
4.00185 28.18589 4.00185
4.00179 28.27485 4.00179
4.00173 28.36380 4.00174
4.00168 28.45277 4.00168
4.00163 28.54174 4.00163
4.00158 28.63071 4.00158
4.00153 28.71969 4.00153
4.00148 28.80867 4.00148
4.00144 28.89766 4.00144
4.00139 28.98666 4.00139
4.00135 29.07566 4.00135
4.00130 29.16467 4.00130
4.00126 29.25368 4.00126
4.00122 29.34270 4.00123
4.00119 29.43172 4.00119
4.00115 29.52074 4.00115
4.00111 29.60978 4.00111
4.00108 29.69882 4.00108
4.00105 29.78786 4.00104
4.00101 29.87691 4.00101
4.00098 29.96596 4.00098
4.00095 30.05502 4.00095
4.00092 30.14409 4.00092
4.00089 30.23316 4.00089
4.00086 30.32223 4.00086
4.00084 30.41132 4.00083
4.00081 30.50040 4.00081
4.00079 30.58950 4.00079
4.00076 30.67859 4.00076
4.00074 30.76770 4.00074
4.00071 30.85681 4.00071
4.00069 30.94592 4.00069
4.00067 31.03504 4.00067
4.00065 31.12417 4.00065
4.00063 31.21330 4.00063
4.00061 31.30243 4.00061
4.00059 31.39158 4.00059
4.00057 31.48073 4.00057
4.00055 31.56988 4.00055
4.00054 31.65903 4.00053
4.00052 31.74820 4.00052
4.00050 31.83736 4.00051
4.00049 31.92654 4.00049
4.00047 32.01572 4.00048
4.00046 32.10491 4.00046
4.00044 32.19410 4.00044
4.00043 32.28329 4.00043
4.00042 32.37249 4.00042
4.00040 32.46170 4.00040
4.00039 32.55091 4.00039
4.00038 32.64013 4.00038
4.00037 32.72935 4.00037
4.00036 32.81858 4.00036
4.00034 32.90781 4.00034
4.00033 32.99705 4.00033
4.00032 33.08629 4.00032
4.00031 33.17554 4.00031
4.00030 33.26479 4.00031
4.00029 33.35405 4.00029
4.00028 33.44332 4.00028
4.00027 33.53259 4.00027
4.00027 33.62186 4.00027
4.00026 33.71114 4.00026
4.00025 33.80043 4.00025
4.00024 33.88972 4.00024
4.00023 33.97901 4.00023
4.00023 34.06831 4.00023
4.00022 34.15762 4.00022
4.00021 34.24693 4.00021
4.00021 34.33624 4.00021
4.00020 34.42556 4.00020
4.00019 34.51488 4.00019
4.00019 34.60421 4.00019
4.00018 34.69354 4.00018
4.00018 34.78288 4.00018
4.00017 34.87223 4.00017
4.00017 34.96157 4.00017
4.00016 35.05093 4.00016
4.00016 35.14029 4.00016
4.00015 35.22965 4.00015
4.00015 35.31902 4.00015
4.00014 35.40839 4.00014
4.00014 35.49777 4.00014
4.00013 35.58715 4.00013
4.00013 35.67654 4.00013
4.00012 35.76593 4.00012
4.00012 35.85532 4.00012
4.00012 35.94473 4.00012
4.00011 36.03413 4.00011
4.00011 36.12354 4.00011
4.00011 36.21296 4.00011
4.00010 36.30238 4.00010
4.00010 36.39179 4.00010
4.00010 36.48121 4.00010
4.00009 36.57064 4.00009
4.00009 36.66008 4.00009
4.00009 36.74952 4.00009
4.00008 36.83897 4.00008
4.00008 36.92842 4.00008
4.00008 37.01787 4.00008
4.00008 37.10733 4.00008
4.00007 37.19679 4.00007
4.00007 37.28625 4.00007
4.00007 37.37572 4.00007
4.00007 37.46519 4.00007
4.00007 37.55467 4.00007
4.00006 37.64416 4.00006
4.00006 37.73364 4.00006
4.00006 37.82313 4.00006
4.00006 37.91263 4.00006
4.00006 38.00213 4.00006
4.00005 38.09163 4.00005
4.00005 38.18114 4.00005
4.00005 38.27065 4.00005
4.00005 38.36016 4.00005
4.00005 38.44968 4.00005
4.00005 38.53920 4.00005

