Angle 0.569545 5.191001

4.00000 7.03348 4.00000
4.00000 7.03348 4.00000
4.00000 7.03348 4.00000
4.00000 7.03348 4.00000
4.00000 7.03348 4.00000
4.00000 7.03347 4.00000
4.00000 7.03346 4.00000
4.00000 7.03348 4.00000
4.00000 7.03348 4.00000
4.00000 7.03348 4.00000
4.00000 7.03348 4.00000
4.00000 7.03348 4.00000
4.00000 7.03348 4.00000
4.00000 7.03348 4.00000
4.00000 7.03348 4.00000
4.00000 7.03348 4.00000
4.00000 7.03348 4.00000
4.00000 7.03348 4.00000
4.00000 7.03347 4.00000
4.00000 7.03347 4.00000
4.00000 7.03348 4.00000
4.00000 7.03348 4.00000
4.00000 7.03348 4.00000
4.00000 7.03348 4.00000
4.00000 7.03348 4.00000
4.00000 7.03348 4.00000
4.00000 7.03348 4.00000
4.00000 7.03348 4.00000
4.00000 7.03348 4.00000
4.00000 7.03348 4.00000
4.00000 7.03348 4.00000
4.00000 7.03348 4.00000
4.00000 7.03348 4.00000
4.00000 7.03348 4.00000
4.00000 7.03348 4.00000
4.00000 7.03348 4.00000
4.00000 7.03348 4.00000
4.00000 7.03348 4.00000
4.00000 7.03348 4.00000
4.00000 7.03348 4.00000
4.00000 7.03348 4.00000
4.00000 7.03348 4.00000
4.00000 7.03348 4.00000
4.00000 7.03348 4.00000
4.00000 7.03348 4.00000
4.00000 7.03348 4.00000
4.00000 7.03348 4.00000
4.00000 7.03348 4.00000
4.00000 7.03348 4.00000
4.00000 7.03348 4.00000
4.00000 7.03348 4.00000
4.00000 7.03348 4.00000
4.00000 7.03348 4.00000
4.00000 7.03348 4.00000
4.00000 7.03348 4.00000
4.00000 7.03348 4.00000
4.00000 7.03348 4.00000
4.00000 7.03348 4.00000
4.00000 7.03348 4.00000
4.00000 7.03348 4.00000
4.00000 7.03348 4.00000
4.00000 7.03348 4.00000
4.00000 7.03348 4.00000
4.00000 7.03348 4.00000
4.00000 7.03348 4.00000
4.00000 7.03348 4.00000
4.00000 7.03348 4.00000
4.00000 7.03348 4.00000
4.00000 7.03348 4.00000
4.00000 7.03348 4.00000
4.00000 7.03348 4.00000
4.00000 7.03348 4.00000
4.00000 7.03348 4.00000
4.00000 7.03348 4.00000
4.00000 7.03348 4.00000
4.00000 7.03348 4.00000
4.00000 7.03348 4.00000
4.00000 7.03348 4.00000
4.00000 7.03348 4.00000
4.00000 7.03348 4.00000
4.00000 7.03348 4.00000
4.00000 7.03348 4.00000
4.00000 7.03348 4.00000
4.00000 7.03348 4.00000
4.00000 7.03348 4.00000
4.00000 7.03348 4.00000
4.00000 7.03348 4.00000
4.00000 7.03348 4.00000
4.00000 7.03348 4.00000
4.00000 7.03348 4.00000
4.00000 7.03348 4.00000
4.00000 7.03348 4.00000
4.00000 7.03348 4.00000
4.00000 7.03348 4.00000
4.00000 7.03347 4.00000
4.00000 7.03348 4.00000
4.00000 7.03348 4.00000
4.00000 7.03348 4.00000
4.00000 7.03348 4.00000
4.00000 7.03348 4.00000
4.00000 7.03348 4.00000
4.00000 7.03348 4.00000
4.00000 7.03348 4.00000
4.00000 7.03348 4.00000
4.00000 7.03348 4.00000
4.00000 7.03348 4.00000
4.00000 7.03348 4.00000
4.00000 7.03348 4.00000
4.00000 7.03348 4.00000
4.00000 7.03348 4.00000
4.00000 7.03348 4.00000
4.00000 7.03348 4.00000
4.00000 7.03348 4.00000
4.00000 7.03348 4.00000
4.00000 7.03348 4.00000
4.00000 7.03348 4.00000
4.00000 7.03348 4.00000
4.00000 7.03348 4.00000
4.00000 7.03348 4.00000
4.00000 7.03348 4.00000
4.00000 7.03348 4.00000
4.00000 7.03348 4.00000
4.00000 7.03348 4.00000
4.00000 7.03348 4.00000
4.00000 7.03348 4.00000
4.00000 7.03348 4.00000
4.00000 7.03348 4.00000
4.00000 7.03349 4.00000
4.00000 7.03348 4.00000
4.00000 7.03348 4.00000
4.00000 7.03348 4.00000
4.00000 7.03348 4.00000
4.00000 7.03348 4.00000
4.00000 7.03348 4.00000
4.00000 7.03348 4.00000
4.00000 7.03348 4.00000
4.00000 7.03348 4.00000
4.00000 7.03348 4.00000
4.00000 7.03348 4.00000
4.00000 7.03348 4.00000
4.00000 7.03348 4.00000
4.00000 7.03348 4.00000
4.00000 7.03348 4.00000
4.00000 7.03348 4.00000
4.00000 7.03348 4.00000
4.00000 7.03348 4.00000
4.00000 7.03348 4.00000
4.00000 7.03348 4.00000
4.00000 7.03348 4.00000
4.00000 7.03348 4.00000
4.00000 7.03348 4.00000
4.00000 7.03348 4.00000
4.00000 7.03348 4.00000
4.00000 7.03348 4.00000
4.00000 7.03348 4.00000
4.00000 7.03348 4.00000
4.00000 7.03348 4.00000
4.00000 7.03348 4.00000
4.00000 7.03348 4.00000
4.00000 7.03348 4.00000
4.00000 7.03348 4.00000
4.00000 7.03348 4.00000
4.00000 7.03348 4.00000
4.00000 7.03348 4.00000
4.00000 7.03348 4.00000
4.00000 7.03348 4.00000
4.00000 7.03348 4.00000
4.00000 7.03348 4.00000
4.00000 7.03349 4.00000
4.00000 7.03351 4.00000
4.00000 7.03348 4.00000
4.00236 7.09109 4.00236
4.00553 7.17064 4.00553
4.00860 7.25042 4.00860
4.01161 7.33040 4.01161
4.01457 7.41054 4.01457
4.01748 7.49081 4.01748
4.02036 7.57120 4.02036
4.02323 7.65165 4.02323
4.02610 7.73216 4.02610
4.02898 7.81269 4.02898
4.03189 7.89321 4.03189
4.03485 7.97367 4.03485
4.03788 8.05405 4.03788
4.04100 8.13429 4.04100
4.04423 8.21434 4.04423
4.04761 8.29416 4.04761
4.05117 8.37365 4.05117
4.05496 8.45273 4.05496
4.05902 8.53129 4.05902
4.06344 8.60919 4.06344
4.06829 8.68626 4.06829
4.07355 8.76256 4.07355
4.07920 8.83811 4.07920
4.08525 8.91289 4.08526
4.09173 8.98687 4.09173
4.09862 9.06006 4.09862
4.10592 9.13247 4.10592
4.11359 9.20416 4.11359
4.12160 9.27521 4.12160
4.12987 9.34578 4.12987
4.13830 9.41607 4.13830
4.14675 9.48635 4.14675
4.15505 9.55697 4.15505
4.16296 9.62838 4.16296
4.17023 9.70114 4.17023
4.17652 9.77586 4.17652
4.18150 9.85325 4.18150
4.18481 9.93401 4.18481
4.18617 10.01870 4.18617
4.18548 10.10751 4.18548
4.18384 10.19825 4.18384
4.18171 10.29001 4.18171
4.17908 10.38278 4.17908
4.17597 10.47656 4.17597
4.17233 10.57141 4.17233
4.16813 10.66743 4.16813
4.16329 10.76475 4.16329
4.15770 10.86359 4.15770
4.15122 10.96424 4.15122
4.14363 11.06714 4.14363
4.13460 11.17295 4.13460
4.12359 11.28273 4.12359
4.10968 11.39834 4.10968
4.09110 11.52332 4.09110
4.06405 11.66528 4.06405
4.01165 11.85793 4.01165
4.00000 13.19120 4.00000
4.00000 13.19120 4.00000
4.00000 13.19120 4.00000
4.00000 13.19120 4.00000
4.00000 13.19120 4.00000
4.00000 13.19120 4.00000
4.00000 13.19120 4.00000
4.00000 13.19120 4.00000
4.00000 13.19120 4.00000
4.00000 13.19120 4.00000
4.00000 13.19120 4.00000
4.00000 13.19120 4.00000
4.00000 13.19120 4.00000
4.00000 13.19120 4.00000
4.00186 13.19828 4.00186
4.01565 13.25891 4.01565
4.02699 13.32446 4.02699
4.03592 13.39486 4.03592
4.04250 13.46999 4.04250
4.04682 13.54964 4.04682
4.04916 13.63327 4.04916
4.05106 13.71780 4.05106
4.05291 13.80246 4.05291
4.05470 13.88725 4.05470
4.05644 13.97214 4.05644
4.05815 14.05714 4.05815
4.05982 14.14222 4.05982
4.06145 14.22739 4.06145
4.06306 14.31263 4.06306
4.06464 14.39795 4.06464
4.06619 14.48332 4.06619
4.06773 14.56876 4.06773
4.06924 14.65425 4.06924
4.07074 14.73980 4.07074
4.07222 14.82540 4.07221
4.07368 14.91104 4.07368
4.07513 14.99673 4.07513
4.07656 15.08245 4.07656
4.07786 15.16846 4.07786
4.07892 15.25499 4.07892
4.07974 15.34199 4.07974
4.08034 15.42945 4.08034
4.08074 15.51732 4.08074
4.08095 15.60558 4.08095
4.08099 15.69420 4.08099
4.08088 15.78315 4.08088
4.08061 15.87241 4.08061
4.08021 15.96195 4.08021
4.07969 16.05174 4.07969
4.07906 16.14177 4.07906
4.07834 16.23201 4.07834
4.07752 16.32245 4.07752
4.07662 16.41305 4.07662
4.07565 16.50381 4.07565
4.07461 16.59472 4.07461
4.07352 16.68574 4.07352
4.07239 16.77687 4.07239
4.07121 16.86810 4.07121
4.06999 16.95941 4.06999
4.06875 17.05079 4.06875
4.06748 17.14224 4.06748
4.06620 17.23373 4.06620
4.06489 17.32526 4.06489
4.06358 17.41683 4.06358
4.06226 17.50842 4.06226
4.06094 17.60004 4.06094
4.05961 17.69166 4.05961
4.05829 17.78329 4.05829
4.05698 17.87492 4.05697
4.05566 17.96655 4.05566
4.05437 18.05817 4.05436
4.05307 18.14978 4.05307
4.05180 18.24137 4.05180
4.05053 18.33295 4.05053
4.04929 18.42451 4.04928
4.04805 18.51604 4.04805
4.04684 18.60755 4.04684
4.04564 18.69903 4.04564
4.04446 18.79048 4.04447
4.04331 18.88190 4.04331
4.04218 18.97330 4.04217
4.04106 19.06465 4.04106
4.03996 19.15598 4.03996
4.03889 19.24727 4.03889
4.03784 19.33854 4.03784
4.03681 19.42976 4.03681
4.03580 19.52095 4.03580
4.03482 19.61210 4.03482
4.03385 19.70323 4.03386
4.03291 19.79431 4.03291
4.03199 19.88537 4.03199
4.03109 19.97638 4.03109
4.03022 20.06737 4.03022
4.02936 20.15832 4.02936
4.02852 20.24923 4.02852
4.02771 20.34012 4.02771
4.02691 20.43097 4.02691
4.02614 20.52179 4.02614
4.02538 20.61258 4.02538
4.02465 20.70333 4.02465
4.02393 20.79406 4.02393
4.02323 20.88476 4.02323
4.02255 20.97543 4.02255
4.02189 21.06607 4.02189
4.02125 21.15668 4.02125
4.02062 21.24727 4.02062
4.02001 21.33783 4.02001
4.01942 21.42836 4.01942
4.01884 21.51887 4.01884
4.01828 21.60935 4.01828
4.01774 21.69981 4.01774
4.01721 21.79025 4.01721
4.01669 21.88066 4.01669
4.01619 21.97105 4.01619
4.01570 22.06143 4.01570
4.01524 22.15177 4.01523
4.01477 22.24211 4.01477
4.01433 22.33241 4.01433
4.01389 22.42271 4.01389
4.01347 22.51298 4.01347
4.01306 22.60324 4.01306
4.01267 22.69347 4.01267
4.01228 22.78370 4.01228
4.01191 22.87390 4.01191
4.01155 22.96409 4.01155
4.01119 23.05427 4.01120
4.01086 23.14442 4.01086
4.01052 23.23457 4.01052
4.01020 23.32471 4.01020
4.00989 23.41483 4.00989
4.00958 23.50494 4.00958
4.00929 23.59503 4.00929
4.00900 23.68512 4.00900
4.00873 23.77518 4.00873
4.00846 23.86525 4.00846
4.00820 23.95531 4.00820
4.00794 24.04535 4.00795
4.00770 24.13538 4.00770
4.00746 24.22541 4.00746
4.00723 24.31542 4.00723
4.00701 24.40543 4.00701
4.00679 24.49543 4.00679
4.00658 24.58542 4.00658
4.00638 24.67540 4.00638
4.00618 24.76538 4.00618
4.00599 24.85535 4.00599
4.00580 24.94532 4.00580
4.00562 25.03527 4.00562
4.00545 25.12523 4.00545
4.00528 25.21517 4.00528
4.00511 25.30512 4.00512
4.00496 25.39505 4.00496
4.00480 25.48498 4.00480
4.00465 25.57491 4.00465
4.00451 25.66483 4.00451
4.00437 25.75476 4.00437
4.00423 25.84467 4.00423
4.00410 25.93458 4.00410
4.00397 26.02449 4.00397
4.00385 26.11440 4.00385
4.00373 26.20430 4.00373
4.00361 26.29420 4.00361
4.00350 26.38410 4.00350
4.00339 26.47400 4.00339
4.00328 26.56389 4.00328
4.00318 26.65378 4.00318
4.00308 26.74367 4.00308
4.00298 26.83356 4.00298
4.00289 26.92344 4.00289
4.00280 27.01333 4.00280
4.00271 27.10321 4.00271
4.00263 27.19310 4.00263
4.00255 27.28298 4.00255

Angle 0.092399 6.013795

4.00000 7.03347 4.00000
4.00000 7.03348 4.00000
4.00000 7.03346 4.00000
4.00000 7.03346 4.00000
4.00000 7.03346 4.00000
4.00000 7.03348 4.00000
4.00000 7.03348 4.00000
4.00000 7.03348 4.00000
4.00000 7.03348 4.00000
4.00000 7.03348 4.00000
4.00000 7.03348 4.00000
4.00000 7.03348 4.00000
4.00000 7.03348 4.00000
4.00000 7.03348 4.00000
4.00000 7.03348 4.00000
4.00000 7.03348 4.00000
4.00000 7.03348 4.00000
4.00000 7.03348 4.00000
4.00000 7.03348 4.00000
4.00000 7.03348 4.00000
4.00000 7.03348 4.00000
4.00000 7.03348 4.00000
4.00000 7.03348 4.00000
4.00000 7.03348 4.00000
4.00000 7.03348 4.00000
4.00000 7.03348 4.00000
4.00000 7.03348 4.00000
4.00000 7.03348 4.00000
4.00000 7.03348 4.00000
4.00000 7.03348 4.00000
4.00000 7.03348 4.00000
4.00000 7.03348 4.00000
4.00000 7.03348 4.00000
4.00000 7.03348 4.00000
4.00000 7.03348 4.00000
4.00000 7.03348 4.00000
4.00000 7.03348 4.00000
4.00000 7.03348 4.00000
4.00000 7.03348 4.00000
4.00000 7.03348 4.00000
4.00000 7.03348 4.00000
4.00000 7.03348 4.00000
4.00000 7.03348 4.00000
4.00000 7.03348 4.00000
4.00000 7.03348 4.00000
4.00000 7.03348 4.00000
4.00000 7.03348 4.00000
4.00000 7.03348 4.00000
4.00000 7.03348 4.00000
4.00000 7.03348 4.00000
4.00000 7.03348 4.00000
4.00000 7.03348 4.00000
4.00000 7.03348 4.00000
4.00000 7.03348 4.00000
4.00000 7.03348 4.00000
4.00000 7.03348 4.00000
4.00000 7.03348 4.00000
4.00000 7.03348 4.00000
4.00000 7.03348 4.00000
4.00000 7.03348 4.00000
4.00000 7.03348 4.00000
4.00000 7.03348 4.00000
4.00000 7.03348 4.00000
4.00000 7.03348 4.00000
4.00000 7.03348 4.00000
4.00000 7.03348 4.00000
4.00000 7.03348 4.00000
4.00000 7.03348 4.00000
4.00000 7.03348 4.00000
4.00000 7.03348 4.00000
4.00000 7.03348 4.00000
4.00000 7.03348 4.00000
4.00000 7.03348 4.00000
4.00000 7.03348 4.00000
4.00000 7.03348 4.00000
4.00000 7.03348 4.00000
4.00000 7.03348 4.00000
4.00000 7.03348 4.00000
4.00000 7.03348 4.00000
4.00000 7.03348 4.00000
4.00000 7.03348 4.00000
4.00000 7.03348 4.00000
4.00000 7.03348 4.00000
4.00000 7.03348 4.00000
4.00000 7.03348 4.00000
4.00000 7.03348 4.00000
4.00000 7.03348 4.00000
4.00000 7.03348 4.00000
4.00000 7.03348 4.00000
4.00000 7.03348 4.00000
4.00000 7.03348 4.00000
4.00000 7.03348 4.00000
4.00000 7.03348 4.00000
4.00000 7.03348 4.00000
4.00000 7.03348 4.00000
4.00000 7.03348 4.00000
4.00000 7.03348 4.00000
4.00000 7.03348 4.00000
4.00000 7.03348 4.00000
4.00000 7.03348 4.00000
4.00000 7.03348 4.00000
4.00000 7.03348 4.00000
4.00000 7.03348 4.00000
4.00000 7.03348 4.00000
4.00000 7.03348 4.00000
4.00000 7.03348 4.00000
4.00000 7.03348 4.00000
4.00000 7.03348 4.00000
4.00000 7.03348 4.00000
4.00000 7.03348 4.00000
4.00000 7.03348 4.00000
4.00000 7.03348 4.00000
4.00000 7.03348 4.00000
4.00000 7.03348 4.00000
4.00000 7.03348 4.00000
4.00000 7.03348 4.00000
4.00000 7.03348 4.00000
4.00000 7.03348 4.00000
4.00000 7.03348 4.00000
4.00000 7.03348 4.00000
4.00000 7.03348 4.00000
4.00000 7.03348 4.00000
4.00000 7.03348 4.00000
4.00000 7.03348 4.00000
4.00000 7.03348 4.00000
4.00000 7.03348 4.00000
4.00000 7.03348 4.00000
4.00000 7.03348 4.00000
4.00000 7.03348 4.00000
4.00000 7.03348 4.00000
4.00000 7.03348 4.00000
4.00000 7.03353 4.00000
4.00000 7.03348 4.00000
4.00308 7.10901 4.00308
4.00620 7.18794 4.00620
4.00924 7.26709 4.00924
4.01221 7.34644 4.01221
4.01513 7.42595 4.01513
4.01801 7.50560 4.01801
4.02086 7.58535 4.02086
4.02371 7.66519 4.02371
4.02656 7.74507 4.02656
4.02942 7.82498 4.02942
4.03232 7.90487 4.03232
4.03527 7.98472 4.03527
4.03828 8.06448 4.03828
4.04139 8.14411 4.04139
4.04462 8.22356 4.04462
4.04799 8.30277 4.04799
4.05154 8.38165 4.05154
4.05532 8.46013 4.05532
4.05939 8.53810 4.05939
4.06381 8.61540 4.06381
4.06866 8.69188 4.06866
4.07391 8.76762 4.07391
4.07955 8.84262 4.07955
4.08559 8.91686 4.08559
4.09204 8.99032 4.09204
4.09891 9.06300 4.09891
4.10617 9.13492 4.10617
4.11381 9.20614 4.11381
4.12178 9.27674 4.12178
4.13000 9.34687 4.13000
4.13838 9.41672 4.13838
4.14678 9.48658 4.14678
4.15503 9.55678 4.15503
4.16290 9.62777 4.16290
4.17013 9.70008 4.17013
4.17641 9.77433 4.17641
4.18139 9.85121 4.18139
4.18473 9.93140 4.18473
4.18615 10.01547 4.18615
4.18554 10.10365 4.18554
4.18393 10.19384 4.18393
4.18183 10.28506 4.18183
4.17925 10.37727 4.17925
4.17619 10.47049 4.17619
4.17261 10.56477 4.17261
4.16847 10.66019 4.16847
4.16370 10.75691 4.16370
4.15821 10.85510 4.15821
4.15185 10.95507 4.15185
4.14441 11.05722 4.14441
4.13558 11.16218 4.13558
4.12487 11.27094 4.12487
4.11140 11.38524 4.11140
4.09356 11.50831 4.09356
4.06800 11.64685 4.06800
4.02184 11.82662 4.02184
4.00000 13.19120 4.00000
4.00000 13.19120 4.00000
4.00000 13.19120 4.00000
4.00000 13.19121 4.00000
4.00000 13.19120 4.00000
4.00000 13.19120 4.00000
4.00000 13.19120 4.00000
4.00000 13.19120 4.00000
4.00000 13.19120 4.00000
4.00000 13.19120 4.00000
4.00000 13.19120 4.00000
4.00000 13.19120 4.00000
4.00000 13.19121 4.00000
4.00000 13.19120 4.00000
4.00000 13.19120 4.00000
4.01316 13.24671 4.01316
4.02493 13.31103 4.02493
4.03430 13.38019 4.03430
4.04132 13.45406 4.04132
4.04609 13.53247 4.04609
4.04874 13.61513 4.04874
4.05065 13.69930 4.05065
4.05250 13.78360 4.05250
4.05430 13.86804 4.05430
4.05605 13.95259 4.05605
4.05775 14.03724 4.05776
4.05942 14.12199 4.05942
4.06106 14.20682 4.06106
4.06267 14.29173 4.06267
4.06425 14.37672 4.06425
4.06580 14.46177 4.06580
4.06734 14.54689 4.06734
4.06885 14.63206 4.06885
4.07034 14.71729 4.07034
4.07182 14.80258 4.07182
4.07328 14.88791 4.07328
4.07473 14.97329 4.07473
4.07617 15.05871 4.07617
4.07753 15.14430 4.07753
4.07864 15.23039 4.07864
4.07952 15.31698 4.07953
4.08019 15.40401 4.08019
4.08064 15.49148 4.08064
4.08091 15.57934 4.08091
4.08100 15.66757 4.08100
4.08093 15.75614 4.08093
4.08071 15.84502 4.08071
4.08035 15.93419 4.08035
4.07987 16.02363 4.07987
4.07927 16.11331 4.07927
4.07858 16.20320 4.07858
4.07779 16.29330 4.07779
4.07692 16.38358 4.07692
4.07597 16.47402 4.07597
4.07496 16.56460 4.07496
4.07389 16.65532 4.07389
4.07278 16.74615 4.07278
4.07161 16.83708 4.07161
4.07041 16.92809 4.07041
4.06918 17.01919 4.06918
4.06793 17.11035 4.06793
4.06665 17.20157 4.06665
4.06536 17.29283 4.06536
4.06405 17.38413 4.06405
4.06274 17.47546 4.06274
4.06142 17.56681 4.06142
4.06010 17.65818 4.06010
4.05878 17.74956 4.05878
4.05746 17.84094 4.05746
4.05615 17.93233 4.05615
4.05485 18.02371 4.05485
4.05356 18.11508 4.05356
4.05228 18.20644 4.05228
4.05101 18.29778 4.05101
4.04976 18.38911 4.04976
4.04853 18.48042 4.04853
4.04731 18.57170 4.04731
4.04611 18.66296 4.04611
4.04493 18.75419 4.04493
4.04377 18.84540 4.04377
4.04263 18.93657 4.04263
4.04151 19.02772 4.04151
4.04041 19.11884 4.04041
4.03933 19.20992 4.03933
4.03827 19.30097 4.03827
4.03723 19.39199 4.03723
4.03622 19.48298 4.03622
4.03523 19.57393 4.03523
4.03426 19.66485 4.03426
4.03331 19.75574 4.03331
4.03238 19.84660 4.03238
4.03147 19.93742 4.03147
4.03059 20.02821 4.03059
4.02972 20.11896 4.02973
4.02888 20.20969 4.02888
4.02806 20.30038 4.02806
4.02726 20.39104 4.02726
4.02648 20.48167 4.02648
4.02571 20.57228 4.02571
4.02497 20.66285 4.02497
4.02425 20.75339 4.02425
4.02354 20.84390 4.02354
4.02286 20.93439 4.02286
4.02219 21.02485 4.02219
4.02154 21.11528 4.02154
4.02090 21.20569 4.02090
4.02029 21.29607 4.02029
4.01969 21.38643 4.01969
4.01911 21.47676 4.01911
4.01854 21.56707 4.01854
4.01799 21.65735 4.01799
4.01745 21.74761 4.01745
4.01693 21.83785 4.01693
4.01643 21.92807 4.01642
4.01593 22.01827 4.01593
4.01546 22.10845 4.01545
4.01499 22.19862 4.01499
4.01454 22.28876 4.01454
4.01410 22.37888 4.01410
4.01368 22.46899 4.01368
4.01326 22.55908 4.01326
4.01286 22.64915 4.01286
4.01247 22.73921 4.01247
4.01209 22.82925 4.01209
4.01172 22.91928 4.01173
4.01137 23.00929 4.01137
4.01102 23.09930 4.01102
4.01069 23.18928 4.01069
4.01036 23.27926 4.01036
4.01004 23.36922 4.01004
4.00974 23.45917 4.00973
4.00944 23.54911 4.00944
4.00915 23.63904 4.00915
4.00887 23.72895 4.00887
4.00860 23.81886 4.00860
4.00833 23.90876 4.00833
4.00807 23.99865 4.00808
4.00783 24.08853 4.00783
4.00759 24.17841 4.00759
4.00735 24.26827 4.00735
4.00713 24.35813 4.00713
4.00691 24.44798 4.00691
4.00669 24.53782 4.00669
4.00648 24.62766 4.00648
4.00628 24.71749 4.00628
4.00609 24.80731 4.00609
4.00590 24.89713 4.00590
4.00572 24.98694 4.00572
4.00554 25.07675 4.00554
4.00537 25.16655 4.00537
4.00520 25.25635 4.00520
4.00504 25.34614 4.00504
4.00489 25.43594 4.00488
4.00473 25.52572 4.00473
4.00459 25.61550 4.00459
4.00444 25.70528 4.00444
4.00431 25.79506 4.00431
4.00417 25.88483 4.00417
4.00404 25.97461 4.00404
4.00392 26.06437 4.00392
4.00379 26.15414 4.00379
4.00368 26.24391 4.00368
4.00356 26.33367 4.00356
4.00345 26.42343 4.00345
4.00334 26.51319 4.00334
4.00324 26.60295 4.00324
4.00314 26.69270 4.00314
4.00304 26.78246 4.00304
4.00294 26.87221 4.00294
4.00285 26.96197 4.00285
4.00276 27.05172 4.00276
4.00268 27.14147 4.00268
4.00259 27.23123 4.00259
4.00251 27.32098 4.00251
4.00243 27.41073 4.00243
4.00236 27.50048 4.00236
4.00228 27.59024 4.00228
4.00221 27.67999 4.00221
4.00214 27.76974 4.00214
4.00207 27.85950 4.00207
4.00201 27.94925 4.00201
4.00195 28.03901 4.00195
4.00189 28.12876 4.00189
4.00183 28.21852 4.00183
4.00177 28.30827 4.00177
4.00171 28.39803 4.00171
4.00166 28.48779 4.00166
4.00161 28.57755 4.00161
4.00156 28.66731 4.00156
4.00151 28.75708 4.00151
4.00146 28.84684 4.00146
4.00142 28.93661 4.00142
4.00137 29.02637 4.00137
4.00133 29.11614 4.00133
4.00129 29.20591 4.00129
4.00125 29.29568 4.00125
4.00121 29.38546 4.00121
4.00117 29.47523 4.00117
4.00113 29.56501 4.00113
4.00110 29.65479 4.00110
4.00106 29.74457 4.00106
4.00103 29.83435 4.00103
4.00100 29.92413 4.00100
4.00096 30.01392 4.00097
4.00093 30.10371 4.00093
4.00091 30.19350 4.00091
4.00088 30.28329 4.00088
4.00085 30.37309 4.00085
4.00082 30.46288 4.00082
4.00080 30.55268 4.00080
4.00077 30.64248 4.00077

Angle 0.047893 5.764823

4.00000 7.03348 4.00000
4.00000 7.03348 4.00000
4.00000 7.03348 4.00000
4.00000 7.03348 4.00000
4.00000 7.03348 4.00000
4.00000 7.03348 4.00000
4.00000 7.03348 4.00000
4.00000 7.03348 4.00000
4.00000 7.03348 4.00000
4.00000 7.03348 4.00000
4.00000 7.03348 4.00000
4.00000 7.03348 4.00000
4.00000 7.03348 4.00000
4.00000 7.03348 4.00000
4.00000 7.03348 4.00000
4.00000 7.03348 4.00000
4.00000 7.03348 4.00000
4.00000 7.03348 4.00000
4.00000 7.03348 4.00000
4.00000 7.03348 4.00000
4.00000 7.03349 4.00000
4.00000 7.03349 4.00000
4.00000 7.03348 4.00000
4.00000 7.03348 4.00000
4.00000 7.03348 4.00000
4.00000 7.03348 4.00000
4.00000 7.03348 4.00000
4.00000 7.03349 4.00000
4.00000 7.03347 4.00000
4.00000 7.03348 4.00000
4.00000 7.03348 4.00000
4.00000 7.03348 4.00000
4.00000 7.03348 4.00000
4.00000 7.03348 4.00000
4.00000 7.03348 4.00000
4.00000 7.03348 4.00000
4.00000 7.03348 4.00000
4.00000 7.03348 4.00000
4.00000 7.03348 4.00000
4.00000 7.03348 4.00000
4.00000 7.03348 4.00000
4.00000 7.03348 4.00000
4.00000 7.03348 4.00000
4.00000 7.03348 4.00000
4.00000 7.03348 4.00000
4.00000 7.03349 4.00000
4.00000 7.03348 4.00000
4.00000 7.03348 4.00000
4.00000 7.03348 4.00000
4.00000 7.03349 4.00000
4.00200 7.08220 4.00200
4.00460 7.14703 4.00460
4.00714 7.21219 4.00714
4.00964 7.27765 4.00964
4.01210 7.34340 4.01210
4.01453 7.40941 4.01452
4.01693 7.47568 4.01693
4.01932 7.54218 4.01932
4.02171 7.60889 4.02171
4.02409 7.67580 4.02409
4.02648 7.74289 4.02648
4.02889 7.81014 4.02889
4.03132 7.87752 4.03132
4.03379 7.94501 4.03379
4.03631 8.01260 4.03631
4.03889 8.08024 4.03889
4.04154 8.14792 4.04154
4.04429 8.21559 4.04429
4.04714 8.28322 4.04714
4.05012 8.35075 4.05012
4.05326 8.41813 4.05327
4.05660 8.48531 4.05660
4.06016 8.55218 4.06016
4.06401 8.61867 4.06400
4.06818 8.68464 4.06818
4.07266 8.75016 4.07266
4.07744 8.81525 4.07744
4.08252 8.87988 4.08252
4.08792 8.94404 4.08792
4.09364 9.00770 4.09364
4.09968 9.07087 4.09968
4.10603 9.13356 4.10603
4.11268 9.19580 4.11268
4.11959 9.25766 4.11959
4.12673 9.31920 4.12673
4.13403 9.38056 4.13403
4.14141 9.44189 4.14141
4.14878 9.50339 4.14878
4.15600 9.56531 4.15600
4.16292 9.62798 4.16292
4.16935 9.69175 4.16935
4.17507 9.75707 4.17507
4.17984 9.82441 4.17984
4.18342 9.89425 4.18342
4.18559 9.96705 4.18559
4.18617 10.04315 4.18617
4.18524 10.12238 4.18524
4.18374 10.20287 4.18374
4.18185 10.28427 4.18185
4.17958 10.36656 4.17958
4.17691 10.44974 4.17691
4.17383 10.53384 4.17383
4.17032 10.61894 4.17032
4.16633 10.70511 4.16633
4.16179 10.79247 4.16179
4.15663 10.88120 4.15663
4.15072 10.97152 4.15072
4.14390 11.06378 4.14389
4.13592 11.15844 4.13592
4.12642 11.25626 4.12642
4.11480 11.35842 4.11480
4.09998 11.46709 4.09998
4.08006 11.58604 4.08006
4.05011 11.72516 4.05011
4.00000 13.19120 4.00000
4.00000 13.19120 4.00000
4.00000 13.19120 4.00000
4.00000 13.19120 4.00000
4.00000 13.19120 4.00000
4.00000 13.19120 4.00000
4.00000 13.19120 4.00000
4.00000 13.19120 4.00000
4.00000 13.19120 4.00000
4.00000 13.19120 4.00000
4.00000 13.19120 4.00000
4.00001 13.19122 4.00000
4.00000 13.19120 4.00000
4.00000 13.19120 4.00000
4.00000 13.19121 4.00000
4.00000 13.19120 4.00000
4.00000 13.19120 4.00000
4.01222 13.24231 4.01222
4.02331 13.30101 4.02331
4.03236 13.36387 4.03236
4.03941 13.43080 4.03941
4.04451 13.50169 4.04451
4.04776 13.57638 4.04776
4.04963 13.65388 4.04963
4.05137 13.73173 4.05137
4.05306 13.80974 4.05306
4.05471 13.88791 4.05471
4.05632 13.96623 4.05632
4.05790 14.04469 4.05790
4.05945 14.12327 4.05945
4.06097 14.20198 4.06097
4.06246 14.28081 4.06246
4.06393 14.35975 4.06393
4.06539 14.43879 4.06539
4.06682 14.51794 4.06682
4.06823 14.59719 4.06823
4.06963 14.67654 4.06963
4.07102 14.75598 4.07102
4.07239 14.83550 4.07239
4.07375 14.91512 4.07375
4.07510 14.99482 4.07510
4.07643 15.07460 4.07643
4.07767 15.15463 4.07767
4.07870 15.23516 4.07870
4.07952 15.31615 4.07952
4.08014 15.39759 4.08014
4.08059 15.47944 4.08059
4.08087 15.56169 4.08087
4.08099 15.64431 4.08099
4.08097 15.72728 4.08097
4.08081 15.81057 4.08081
4.08053 15.89417 4.08053
4.08013 15.97804 4.08013
4.07963 16.06218 4.07963
4.07903 16.14657 4.07903
4.07834 16.23118 4.07834
4.07758 16.31601 4.07758
4.07674 16.40103 4.07674
4.07584 16.48623 4.07584
4.07488 16.57159 4.07488
4.07387 16.65711 4.07387
4.07282 16.74276 4.07282
4.07172 16.82854 4.07172
4.07060 16.91444 4.07060
4.06944 17.00045 4.06944
4.06826 17.08655 4.06826
4.06706 17.17274 4.06706
4.06584 17.25901 4.06584
4.06461 17.34535 4.06461
4.06337 17.43175 4.06337
4.06212 17.51822 4.06212
4.06087 17.60473 4.06087
4.05962 17.69129 4.05962
4.05837 17.77789 4.05837
4.05712 17.86453 4.05712
4.05588 17.95120 4.05588
4.05465 18.03790 4.05465
4.05342 18.12462 4.05342
4.05221 18.21136 4.05221
4.05101 18.29812 4.05101
4.04982 18.38490 4.04982
4.04865 18.47169 4.04865
4.04749 18.55849 4.04749
4.04634 18.64529 4.04634
4.04521 18.73210 4.04521
4.04410 18.81892 4.04410
4.04301 18.90574 4.04301
4.04194 18.99257 4.04194
4.04088 19.07939 4.04088
4.03984 19.16621 4.03984
4.03882 19.25304 4.03882
4.03782 19.33986 4.03782
4.03685 19.42668 4.03685
4.03588 19.51350 4.03588
4.03494 19.60031 4.03494
4.03402 19.68712 4.03402
4.03312 19.77393 4.03312
4.03224 19.86073 4.03224
4.03137 19.94753 4.03137
4.03053 20.03433 4.03053
4.02971 20.12112 4.02971
4.02890 20.20791 4.02890
4.02811 20.29469 4.02811
4.02734 20.38147 4.02734
4.02659 20.46825 4.02659
4.02586 20.55502 4.02586
4.02514 20.64179 4.02514
4.02444 20.72856 4.02444
4.02376 20.81532 4.02376
4.02310 20.90208 4.02310
4.02245 20.98884 4.02245
4.02182 21.07560 4.02182
4.02121 21.16236 4.02121
4.02061 21.24911 4.02061
4.02002 21.33586 4.02002
4.01945 21.42262 4.01946
4.01890 21.50937 4.01890
4.01836 21.59613 4.01836
4.01784 21.68288 4.01784
4.01733 21.76963 4.01732
4.01683 21.85639 4.01683
4.01634 21.94315 4.01634
4.01587 22.02991 4.01587
4.01541 22.11667 4.01541
4.01497 22.20344 4.01497
4.01453 22.29020 4.01453
4.01411 22.37698 4.01411
4.01370 22.46375 4.01370
4.01330 22.55053 4.01330
4.01291 22.63731 4.01291
4.01254 22.72410 4.01254
4.01217 22.81089 4.01217
4.01181 22.89769 4.01181
4.01147 22.98449 4.01147
4.01113 23.07130 4.01113
4.01080 23.15812 4.01080
4.01048 23.24494 4.01048
4.01017 23.33177 4.01017
4.00987 23.41860 4.00987
4.00958 23.50545 4.00958
4.00930 23.59230 4.00930
4.00902 23.67915 4.00902
4.00876 23.76602 4.00875
4.00850 23.85289 4.00850
4.00824 23.93978 4.00824
4.00800 24.02667 4.00800
4.00776 24.11357 4.00776
4.00753 24.20047 4.00753
4.00730 24.28739 4.00730
4.00708 24.37432 4.00708
4.00687 24.46125 4.00687
4.00667 24.54820 4.00667
4.00647 24.63516 4.00647
4.00628 24.72212 4.00627
4.00609 24.80910 4.00609
4.00590 24.89609 4.00590
4.00573 24.98308 4.00573
4.00556 25.07009 4.00556
4.00539 25.15711 4.00539
4.00523 25.24414 4.00522
4.00507 25.33118 4.00507
4.00492 25.41823 4.00492
4.00477 25.50529 4.00477
4.00463 25.59236 4.00463
4.00448 25.67946 4.00448
4.00435 25.76655 4.00435
4.00422 25.85366 4.00422
4.00409 25.94078 4.00409
4.00396 26.02791 4.00396
4.00384 26.11505 4.00385
4.00373 26.20220 4.00373
4.00361 26.28938 4.00362
4.00351 26.37655 4.00351
4.00340 26.46374 4.00340
4.00330 26.55094 4.00330
4.00320 26.63816 4.00320
4.00310 26.72539 4.00310
4.00301 26.81262 4.00301
4.00291 26.89988 4.00292
4.00283 26.98714 4.00282
4.00274 27.07442 4.00274
4.00266 27.16171 4.00266
4.00257 27.24901 4.00258
4.00250 27.33632 4.00250
4.00242 27.42364 4.00242
4.00235 27.51099 4.00235
4.00228 27.59833 4.00228
4.00221 27.68570 4.00221
4.00214 27.77307 4.00214
4.00208 27.86046 4.00207
4.00201 27.94786 4.00201
4.00195 28.03527 4.00195
4.00189 28.12269 4.00189
4.00183 28.21013 4.00183
4.00177 28.29758 4.00178
4.00172 28.38504 4.00172
4.00167 28.47252 4.00167
4.00162 28.56000 4.00162
4.00157 28.64750 4.00157
4.00152 28.73501 4.00152
4.00147 28.82254 4.00147
4.00143 28.91007 4.00143
4.00138 28.99762 4.00138
4.00134 29.08518 4.00134
4.00130 29.17275 4.00130
4.00126 29.26034 4.00126
4.00122 29.34794 4.00122
4.00118 29.43554 4.00119
4.00115 29.52316 4.00115
4.00111 29.61080 4.00111
4.00108 29.69844 4.00108
4.00105 29.78610 4.00105
4.00101 29.87377 4.00102
4.00098 29.96145 4.00098
4.00095 30.04914 4.00095
4.00092 30.13685 4.00092
4.00089 30.22456 4.00090
4.00087 30.31229 4.00087
4.00084 30.40003 4.00084
4.00082 30.48778 4.00082
4.00079 30.57555 4.00079
4.00077 30.66332 4.00077
4.00074 30.75111 4.00074
4.00072 30.83891 4.00072
4.00070 30.92671 4.00070
4.00068 31.01454 4.00068
4.00066 31.10237 4.00065
4.00063 31.19021 4.00063
4.00061 31.27807 4.00062
4.00060 31.36593 4.00060
4.00058 31.45381 4.00058
4.00056 31.54170 4.00056
4.00054 31.62960 4.00054
4.00053 31.71751 4.00053
4.00051 31.80543 4.00051
4.00049 31.89336 4.00049
4.00048 31.98130 4.00048
4.00046 32.06926 4.00046
4.00045 32.15722 4.00045
4.00044 32.24520 4.00044
4.00042 32.33319 4.00042
4.00041 32.42118 4.00041
4.00040 32.50919 4.00040
4.00038 32.59721 4.00038
4.00037 32.68524 4.00037
4.00036 32.77328 4.00036
4.00035 32.86133 4.00035
4.00034 32.94939 4.00034
4.00033 33.03746 4.00033
4.00032 33.12554 4.00032
4.00031 33.21363 4.00031
4.00030 33.30173 4.00030
4.00029 33.38984 4.00029
4.00028 33.47796 4.00028
4.00027 33.56609 4.00027
4.00026 33.65424 4.00026
4.00026 33.74239 4.00026
4.00025 33.83055 4.00025
4.00024 33.91872 4.00024
4.00023 34.00690 4.00023
4.00023 34.09509 4.00023
4.00022 34.18329 4.00022
4.00021 34.27150 4.00021
4.00020 34.35972 4.00020
4.00020 34.44795 4.00020
4.00019 34.53619 4.00019
4.00019 34.62444 4.00019
4.00018 34.71269 4.00018
4.00018 34.80096 4.00018
4.00017 34.88923 4.00017
4.00016 34.97752 4.00016
4.00016 35.06581 4.00016
4.00015 35.15411 4.00015
4.00015 35.24243 4.00015
4.00014 35.33075 4.00014
4.00014 35.41908 4.00014
4.00014 35.50742 4.00014
4.00013 35.59577 4.00013
4.00013 35.68413 4.00013
4.00012 35.77250 4.00012
4.00012 35.86087 4.00012
4.00012 35.94926 4.00012
4.00011 36.03765 4.00011
4.00011 36.12606 4.00011
4.00011 36.21447 4.00011
4.00010 36.30289 4.00010

Angle 0.199294 5.083198

4.00000 7.03348 4.00000
4.00000 7.03348 4.00000
4.00000 7.03348 4.00000
4.00000 7.03348 4.00000
4.00000 7.03348 4.00000
4.00000 7.03348 4.00000
4.00000 7.03348 4.00000
4.00000 7.03348 4.00000
4.00000 7.03348 4.00000
4.00000 7.03348 4.00000
4.00000 7.03348 4.00000
4.00000 7.03348 4.00000
4.00000 7.03348 4.00000
4.00000 7.03348 4.00000
4.00000 7.03348 4.00000
4.00000 7.03348 4.00000
4.00000 7.03348 4.00000
4.00000 7.03348 4.00000
4.00000 7.03348 4.00000
4.00000 7.03348 4.00000
4.00000 7.03348 4.00000
4.00000 7.03348 4.00000
4.00000 7.03348 4.00000
4.00000 7.03348 4.00000
4.00000 7.03348 4.00000
4.00000 7.03348 4.00000
4.00000 7.03348 4.00000
4.00000 7.03348 4.00000
4.00000 7.03348 4.00000
4.00000 7.03348 4.00000
4.00000 7.03348 4.00000
4.00000 7.03348 4.00000
4.00000 7.03348 4.00000
4.00000 7.03348 4.00000
4.00000 7.03348 4.00000
4.00000 7.03348 4.00000
4.00000 7.03348 4.00000
4.00000 7.03348 4.00000
4.00000 7.03348 4.00000
4.00000 7.03348 4.00000
4.00000 7.03348 4.00000
4.00000 7.03348 4.00000
4.00000 7.03348 4.00000
4.00000 7.03348 4.00000
4.00000 7.03348 4.00000
4.00000 7.03348 4.00000
4.00000 7.03348 4.00000
4.00000 7.03348 4.00000
4.00000 7.03348 4.00000
4.00000 7.03348 4.00000
4.00000 7.03348 4.00000
4.00000 7.03348 4.00000
4.00000 7.03348 4.00000
4.00000 7.03348 4.00000
4.00000 7.03347 4.00000
4.00000 7.03347 4.00000
4.00000 7.03347 4.00000
4.00000 7.03347 4.00000
4.00000 7.03347 4.00000
4.00000 7.03347 4.00000
4.00000 7.03348 4.00000
4.00000 7.03348 4.00000
4.00000 7.03348 4.00000
4.00000 7.03348 4.00000
4.00000 7.03348 4.00000
4.00000 7.03347 4.00000
4.00000 7.03348 4.00000
4.00000 7.03348 4.00000
4.00000 7.03348 4.00000
4.00000 7.03348 4.00000
4.00000 7.03348 4.00000
4.00000 7.03348 4.00000
4.00000 7.03348 4.00000
4.00000 7.03348 4.00000
4.00000 7.03348 4.00000
4.00000 7.03348 4.00000
4.00000 7.03348 4.00000
4.00000 7.03348 4.00000
4.00000 7.03348 4.00000
4.00000 7.03348 4.00000
4.00000 7.03348 4.00000
4.00000 7.03348 4.00000
4.00000 7.03348 4.00000
4.00000 7.03348 4.00000
4.00000 7.03348 4.00000
4.00000 7.03348 4.00000
4.00000 7.03348 4.00000
4.00000 7.03348 4.00000
4.00000 7.03348 4.00000
4.00000 7.03348 4.00000
4.00000 7.03348 4.00000
4.00000 7.03348 4.00000
4.00000 7.03348 4.00000
4.00000 7.03348 4.00000
4.00000 7.03348 4.00000
4.00000 7.03348 4.00000
4.00000 7.03348 4.00000
4.00000 7.03348 4.00000
4.00000 7.03348 4.00000
4.00000 7.03348 4.00000
4.00000 7.03348 4.00000
4.00000 7.03348 4.00000
4.00000 7.03348 4.00000
4.00000 7.03348 4.00000
4.00000 7.03348 4.00000
4.00000 7.03348 4.00000
4.00000 7.03348 4.00000
4.00000 7.03348 4.00000
4.00000 7.03348 4.00000
4.00000 7.03348 4.00000
4.00000 7.03348 4.00000
4.00000 7.03348 4.00000
4.00000 7.03348 4.00000
4.00000 7.03348 4.00000
4.00000 7.03350 4.00000
4.00000 7.03349 4.00000
4.00000 7.03348 4.00000
4.00000 7.03348 4.00000
4.00000 7.03348 4.00000
4.00000 7.03349 4.00000
4.00000 7.03348 4.00000
4.00000 7.03348 4.00000
4.00000 7.03348 4.00000
4.00000 7.03348 4.00000
4.00000 7.03348 4.00000
4.00000 7.03348 4.00000
4.00000 7.03348 4.00000
4.00000 7.03348 4.00000
4.00000 7.03348 4.00000
4.00000 7.03348 4.00000
4.00000 7.03348 4.00000
4.00000 7.03348 4.00000
4.00000 7.03349 4.00000
4.00000 7.03348 4.00000
4.00000 7.03348 4.00000
4.00000 7.03349 4.00000
4.00000 7.03348 4.00000
4.00041 7.04353 4.00041
4.00346 7.11847 4.00346
4.00642 7.19368 4.00642
4.00931 7.26914 4.00931
4.01215 7.34482 4.01215
4.01494 7.42070 4.01494
4.01769 7.49674 4.01769
4.02042 7.57293 4.02042
4.02314 7.64924 4.02314
4.02586 7.72564 4.02586
4.02860 7.80211 4.02860
4.03136 7.87862 4.03136
4.03417 7.95514 4.03417
4.03703 8.03162 4.03703
4.03997 8.10805 4.03997
4.04301 8.18437 4.04301
4.04617 8.26053 4.04617
4.04948 8.33647 4.04948
4.05298 8.41212 4.05298
4.05671 8.48739 4.05671
4.06072 8.56218 4.06072
4.06509 8.63634 4.06509
4.06986 8.70975 4.06986
4.07500 8.78253 4.07500
4.08050 8.85466 4.08050
4.08638 8.92610 4.08638
4.09264 8.99685 4.09264
4.09929 9.06690 4.09929
4.10631 9.13627 4.10631
4.11369 9.20501 4.11369
4.12137 9.27321 4.12137
4.12930 9.34098 4.12930
4.13739 9.40850 4.13739
4.14552 9.47602 4.14552
4.15353 9.54382 4.15353
4.16124 9.61231 4.16124
4.16841 9.68193 4.16841
4.17476 9.75326 4.17476
4.17999 9.82688 4.17999
4.18379 9.90344 4.18379
4.18586 9.98351 4.18586
4.18601 10.06747 4.18601
4.18469 10.15445 4.18469
4.18287 10.24249 4.18287
4.18059 10.33149 4.18059
4.17786 10.42147 4.17786
4.17465 10.51244 4.17465
4.17095 10.60446 4.17095
4.16669 10.69765 4.16669
4.16181 10.79214 4.16181
4.15620 10.88814 4.15620
4.14971 10.98596 4.14971
4.14212 11.08602 4.14212
4.13310 11.18898 4.13310
4.12214 11.29589 4.12214
4.10831 11.40859 4.10831
4.08991 11.53048 4.08991
4.06325 11.66893 4.06325
4.01231 11.85598 4.01231
4.00000 13.19120 4.00000
4.00000 13.19121 4.00000
4.00000 13.19121 4.00000
4.00000 13.19121 4.00000
4.00000 13.19120 4.00000
4.00000 13.19120 4.00000
4.00000 13.19120 4.00000
4.00000 13.19119 4.00000
4.00000 13.19120 4.00000
4.00000 13.19120 4.00000
4.00000 13.19120 4.00000
4.00000 13.19120 4.00000
4.00000 13.19120 4.00000
4.00000 13.19120 4.00000
4.00001 13.19123 4.00001
4.00960 13.23036 4.00960
4.02178 13.29192 4.02178
4.03164 13.35814 4.03164
4.03924 13.42892 4.03924
4.04465 13.50413 4.04465
4.04797 13.58355 4.04797
4.04990 13.66578 4.04990
4.05173 13.74825 4.05173
4.05351 13.83086 4.05351
4.05524 13.91360 4.05524
4.05694 13.99646 4.05694
4.05859 14.07943 4.05859
4.06021 14.16250 4.06021
4.06180 14.24566 4.06180
4.06336 14.32891 4.06336
4.06490 14.41224 4.06490
4.06642 14.49565 4.06642
4.06791 14.57913 4.06791
4.06939 14.66268 4.06939
4.07085 14.74629 4.07085
4.07229 14.82997 4.07229
4.07372 14.91371 4.07372
4.07514 14.99750 4.07514
4.07654 15.08135 4.07654
4.07782 15.16548 4.07782
4.07886 15.25011 4.07886
4.07968 15.33522 4.07968
4.08029 15.42078 4.08029
4.08070 15.50676 4.08070
4.08093 15.59312 4.08093
4.08100 15.67985 4.08100
4.08091 15.76692 4.08091
4.08068 15.85430 4.08068
4.08031 15.94196 4.08031
4.07983 16.02989 4.07983
4.07924 16.11807 4.07924
4.07855 16.20647 4.07855
4.07777 16.29507 4.07777
4.07691 16.38385 4.07691
4.07599 16.47281 4.07599
4.07499 16.56191 4.07499
4.07394 16.65115 4.07394
4.07285 16.74052 4.07285
4.07171 16.82999 4.07171
4.07053 16.91956 4.07053
4.06932 17.00922 4.06932
4.06809 17.09895 4.06809
4.06683 17.18875 4.06683
4.06556 17.27860 4.06556
4.06428 17.36851 4.06428
4.06298 17.45845 4.06298
4.06168 17.54842 4.06168
4.06038 17.63842 4.06038
4.05908 17.72845 4.05908
4.05778 17.81848 4.05778
4.05649 17.90853 4.05649
4.05521 17.99859 4.05521
4.05393 18.08865 4.05393
4.05267 18.17870 4.05267
4.05141 18.26875 4.05141
4.05018 18.35880 4.05018
4.04895 18.44883 4.04895
4.04775 18.53885 4.04775
4.04656 18.62886 4.04656
4.04538 18.71885 4.04539
4.04423 18.80882 4.04423
4.04310 18.89878 4.04310
4.04198 18.98871 4.04198
4.04089 19.07862 4.04089
4.03982 19.16851 4.03982
4.03876 19.25838 4.03876
4.03773 19.34822 4.03773
4.03672 19.43804 4.03672
4.03573 19.52783 4.03573
4.03476 19.61760 4.03476
4.03381 19.70735 4.03381
4.03288 19.79707 4.03288
4.03198 19.88677 4.03198
4.03109 19.97644 4.03109
4.03023 20.06609 4.03023
4.02938 20.15571 4.02938
4.02856 20.24531 4.02856
4.02775 20.33489 4.02775
4.02697 20.42444 4.02697
4.02620 20.51397 4.02620
4.02546 20.60348 4.02546
4.02473 20.69297 4.02473
4.02402 20.78243 4.02402
4.02333 20.87188 4.02333
4.02266 20.96130 4.02266
4.02200 21.05071 4.02200
4.02136 21.14009 4.02136
4.02074 21.22946 4.02074
4.02014 21.31880 4.02014
4.01955 21.40813 4.01955
4.01898 21.49745 4.01898
4.01842 21.58674 4.01842
4.01788 21.67602 4.01788
4.01735 21.76529 4.01735
4.01684 21.85454 4.01684
4.01634 21.94377 4.01634
4.01586 22.03299 4.01586
4.01538 22.12220 4.01538
4.01493 22.21140 4.01493
4.01448 22.30058 4.01448
4.01405 22.38975 4.01405
4.01363 22.47891 4.01363
4.01322 22.56806 4.01322
4.01283 22.65720 4.01283
4.01244 22.74632 4.01244
4.01207 22.83544 4.01207
4.01170 22.92456 4.01170
4.01135 23.01366 4.01135
4.01101 23.10275 4.01101
4.01068 23.19184 4.01068
4.01035 23.28092 4.01035
4.01004 23.36999 4.01004
4.00974 23.45905 4.00974
4.00944 23.54811 4.00944
4.00915 23.63717 4.00915
4.00888 23.72622 4.00888
4.00861 23.81526 4.00861
4.00834 23.90431 4.00834
4.00809 23.99334 4.00809
4.00784 24.08237 4.00784
4.00760 24.17140 4.00760
4.00737 24.26043 4.00737
4.00715 24.34945 4.00715
4.00693 24.43847 4.00693
4.00672 24.52749 4.00672
4.00651 24.61651 4.00651
4.00631 24.70552 4.00631
4.00612 24.79454 4.00612
4.00593 24.88355 4.00593
4.00575 24.97256 4.00575
4.00557 25.06158 4.00557
4.00540 25.15059 4.00540
4.00523 25.23960 4.00523
4.00507 25.32861 4.00507
4.00492 25.41762 4.00492
4.00477 25.50663 4.00477
4.00462 25.59564 4.00462
4.00448 25.68466 4.00448
4.00434 25.77367 4.00434
4.00420 25.86269 4.00420
4.00407 25.95170 4.00407
4.00395 26.04072 4.00395
4.00382 26.12975 4.00383
4.00371 26.21877 4.00371
4.00360 26.30779 4.00359
4.00348 26.39682 4.00348
4.00337 26.48584 4.00338
4.00327 26.57488 4.00327
4.00317 26.66391 4.00317
4.00307 26.75295 4.00307
4.00297 26.84199 4.00298
4.00288 26.93103 4.00288
4.00279 27.02008 4.00279
4.00270 27.10913 4.00271
4.00262 27.19818 4.00262
4.00254 27.28723 4.00254
4.00246 27.37630 4.00246
4.00239 27.46535 4.00239
4.00231 27.55442 4.00231
4.00224 27.64349 4.00224
4.00217 27.73256 4.00217
4.00210 27.82164 4.00210
4.00203 27.91073 4.00204
4.00197 27.99981 4.00197
4.00191 28.08890 4.00191
4.00185 28.17799 4.00185
4.00180 28.26709 4.00180
4.00174 28.35619 4.00174
4.00169 28.44530 4.00169
4.00163 28.53441 4.00163
4.00158 28.62352 4.00158
4.00153 28.71264 4.00153
4.00148 28.80177 4.00149
4.00144 28.89089 4.00144
4.00139 28.98003 4.00139
4.00135 29.06917 4.00135
4.00131 29.15831 4.00131
4.00127 29.24745 4.00127
4.00122 29.33661 4.00123
4.00119 29.42576 4.00119
4.00115 29.51492 4.00115
4.00112 29.60409 4.00112
4.00108 29.69326 4.00108
4.00105 29.78243 4.00105

Angle 0.265615 2.230358

4.00000 7.03348 4.00000
4.00000 7.03348 4.00000
4.00000 7.03348 4.00000
4.00000 7.03348 4.00000
4.00000 7.03348 4.00000
4.00000 7.03348 4.00000
4.00000 7.03348 4.00000
4.00000 7.03348 4.00000
4.00000 7.03348 4.00000
4.00000 7.03348 4.00000
4.00000 7.03348 4.00000
4.00000 7.03348 4.00000
4.00000 7.03348 4.00000
4.00000 7.03348 4.00000
4.00000 7.03348 4.00000
4.00000 7.03348 4.00000
4.00000 7.03348 4.00000
4.00000 7.03348 4.00000
4.00000 7.03348 4.00000
4.00000 7.03348 4.00000
4.00000 7.03348 4.00000
4.00000 7.03348 4.00000
4.00000 7.03348 4.00000
4.00000 7.03348 4.00000
4.00000 7.03348 4.00000
4.00000 7.03348 4.00000
4.00000 7.03348 4.00000
4.00000 7.03348 4.00000
4.00000 7.03348 4.00000
4.00000 7.03348 4.00000
4.00000 7.03348 4.00000
4.00000 7.03348 4.00000
4.00000 7.03348 4.00000
4.00000 7.03348 4.00000
4.00000 7.03348 4.00000
4.00000 7.03348 4.00000
4.00000 7.03348 4.00000
4.00000 7.03348 4.00000
4.00000 7.03348 4.00000
4.00000 7.03348 4.00000
4.00000 7.03348 4.00000
4.00000 7.03348 4.00000
4.00000 7.03348 4.00000
4.00000 7.03348 4.00000
4.00000 7.03348 4.00000
4.00000 7.03348 4.00000
4.00000 7.03348 4.00000
4.00000 7.03348 4.00000
4.00000 7.03348 4.00000
4.00000 7.03348 4.00000
4.00000 7.03348 4.00000
4.00000 7.03348 4.00000
4.00000 7.03348 4.00000
4.00000 7.03348 4.00000
4.00000 7.03348 4.00000
4.00000 7.03348 4.00000
4.00000 7.03348 4.00000
4.00000 7.03348 4.00000
4.00000 7.03348 4.00000
4.00000 7.03348 4.00000
4.00000 7.03348 4.00000
4.00000 7.03348 4.00000
4.00000 7.03348 4.00000
4.00000 7.03348 4.00000
4.00000 7.03348 4.00000
4.00000 7.03348 4.00000
4.00000 7.03348 4.00000
4.00000 7.03348 4.00000
4.00000 7.03348 4.00000
4.00000 7.03348 4.00000
4.00000 7.03348 4.00000
4.00000 7.03348 4.00000
4.00000 7.03348 4.00000
4.00000 7.03348 4.00000
4.00000 7.03348 4.00000
4.00000 7.03348 4.00000
4.00000 7.03348 4.00000
4.00000 7.03348 4.00000
4.00000 7.03348 4.00000
4.00000 7.03348 4.00000
4.00000 7.03348 4.00000
4.00000 7.03348 4.00000
4.00000 7.03348 4.00000
4.00000 7.03351 4.00000
4.00000 7.03348 4.00000
4.00000 7.03348 4.00000
4.00000 7.03346 4.00000
4.00000 7.03347 4.00000
4.00000 7.03347 4.00000
4.00000 7.03348 4.00000
4.00000 7.03348 4.00000
4.00000 7.03348 4.00000
4.00000 7.03348 4.00000
4.00000 7.03348 4.00000
4.00000 7.03348 4.00000
4.00000 7.03347 4.00000
4.00000 7.03347 4.00000
4.00000 7.03347 4.00000
4.00000 7.03347 4.00000
4.00000 7.03348 4.00000
4.00000 7.03348 4.00000
4.00000 7.03348 4.00000
4.00000 7.03348 4.00000
4.00000 7.03348 4.00000
4.00000 7.03348 4.00000
4.00000 7.03348 4.00000
4.00000 7.03348 4.00000
4.00000 7.03348 4.00000
4.00000 7.03348 4.00000
4.00000 7.03348 4.00000
4.00000 7.03348 4.00000
4.00000 7.03348 4.00000
4.00000 7.03348 4.00000
4.00000 7.03348 4.00000
4.00000 7.03348 4.00000
4.00000 7.03348 4.00000
4.00000 7.03348 4.00000
4.00000 7.03348 4.00000
4.00000 7.03348 4.00000
4.00000 7.03348 4.00000
4.00000 7.03348 4.00000
4.00000 7.03348 4.00000
4.00000 7.03348 4.00000
4.00000 7.03348 4.00000
4.00000 7.03348 4.00000
4.00000 7.03348 4.00000
4.00000 7.03348 4.00000
4.00000 7.03348 4.00000
4.00000 7.03348 4.00000
4.00000 7.03348 4.00000
4.00000 7.03348 4.00000
4.00000 7.03348 4.00000
4.00000 7.03348 4.00000
4.00000 7.03348 4.00000
4.00000 7.03348 4.00000
4.00000 7.03348 4.00000
4.00000 7.03348 4.00000
4.00000 7.03348 4.00000
4.00000 7.03348 4.00000
4.00000 7.03348 4.00000
4.00000 7.03348 4.00000
4.00000 7.03348 4.00000
4.00000 7.03348 4.00000
4.00000 7.03348 4.00000
4.00000 7.03348 4.00000
4.00000 7.03348 4.00000
4.00000 7.03348 4.00000
4.00000 7.03348 4.00000
4.00000 7.03348 4.00000
4.00000 7.03348 4.00000
4.00000 7.03348 4.00000
4.00000 7.03348 4.00000
4.00000 7.03348 4.00000
4.00000 7.03348 4.00000
4.00000 7.03348 4.00000
4.00000 7.03348 4.00000
4.00000 7.03348 4.00000
4.00000 7.03348 4.00000
4.00000 7.03348 4.00000
4.00000 7.03348 4.00000
4.00000 7.03348 4.00000
4.00000 7.03348 4.00000
4.00000 7.03348 4.00000
4.00000 7.03348 4.00000
4.00000 7.03348 4.00000
4.00000 7.03348 4.00000
4.00000 7.03348 4.00000
4.00000 7.03348 4.00000
4.00000 7.03348 4.00000
4.00000 7.03348 4.00000
4.00000 7.03348 4.00000
4.00000 7.03348 4.00000
4.00000 7.03348 4.00000
4.00000 7.03348 4.00000
4.00000 7.03348 4.00000
4.00000 7.03348 4.00000
4.00000 7.03348 4.00000
4.00000 7.03348 4.00000
4.00000 7.03348 4.00000
4.00000 7.03348 4.00000
4.00000 7.03348 4.00000
4.00000 7.03348 4.00000
4.00000 7.03348 4.00000
4.00000 7.03348 4.00000
4.00000 7.03348 4.00000
4.00000 7.03347 4.00000
4.00000 7.03348 4.00000
4.00000 7.03348 4.00000
4.00000 7.03348 4.00000
4.00000 7.03348 4.00000
4.00000 7.03348 4.00000
4.00000 7.03348 4.00000
4.00000 7.03348 4.00000
4.00000 7.03348 4.00000
4.00000 7.03348 4.00000
4.00000 7.03348 4.00000
4.00000 7.03348 4.00000
4.00000 7.03348 4.00000
4.00000 7.03348 4.00000
4.00000 7.03348 4.00000
4.00000 7.03348 4.00000
4.00000 7.03348 4.00000
4.00000 7.03348 4.00000
4.00000 7.03348 4.00000
4.00000 7.03348 4.00000
4.00000 7.03348 4.00000
4.00000 7.03348 4.00000
4.00000 7.03348 4.00000
4.00000 7.03348 4.00000
4.00000 7.03347 4.00000
4.00000 7.03348 4.00000
4.00000 7.03348 4.00000
4.00000 7.03348 4.00000
4.00000 7.03348 4.00000
4.00000 7.03348 4.00000
4.00000 7.03348 4.00000
4.00000 7.03348 4.00000
4.00000 7.03348 4.00000
4.00000 7.03348 4.00000
4.00000 7.03347 4.00000
4.00000 7.03348 4.00000
4.00000 7.03348 4.00000
4.00000 7.03349 4.00000
4.00000 7.03349 4.00000
4.00000 7.03350 4.00000
4.00000 7.03348 4.00000
4.00000 7.03348 4.00000
4.00000 7.03348 4.00000
4.00000 7.03348 4.00000
4.00000 7.03348 4.00000
4.00000 7.03348 4.00000
4.00000 7.03348 4.00000
4.00000 7.03348 4.00000
4.00000 7.03348 4.00000
4.00000 7.03348 4.00000
4.00000 7.03348 4.00000
4.00000 7.03348 4.00000
4.00000 7.03348 4.00000
4.00000 7.03348 4.00000
4.00000 7.03349 4.00000
4.00000 7.03348 4.00000
4.00035 7.04195 4.00035
4.00358 7.12150 4.00358
4.00672 7.20130 4.00672
4.00977 7.28131 4.00977
4.01277 7.36150 4.01277
4.01571 7.44184 4.01571
4.01861 7.52230 4.01861
4.02149 7.60286 4.02149
4.02436 7.68349 4.02436
4.02724 7.76415 4.02724
4.03014 7.84481 4.03014
4.03307 7.92544 4.03307
4.03606 8.00601 4.03606
4.03913 8.08647 4.03913
4.04230 8.16678 4.04230
4.04559 8.24687 4.04559
4.04904 8.32669 4.04904
4.05269 8.40615 4.05269
4.05659 8.48515 4.05659
4.06080 8.56358 4.06080
4.06539 8.64128 4.06539
4.07043 8.71812 4.07043
4.07586 8.79422 4.07586
4.08169 8.86957 4.08169
4.08793 8.94412 4.08793
4.09459 9.01787 4.09459
4.10166 9.09083 4.10166
4.10914 9.16303 4.10914
4.11697 9.23453 4.11697
4.12511 9.30546 4.12511
4.13348 9.37597 4.13348
4.14195 9.44631 4.14195
4.15037 9.51678 4.15037
4.15854 9.58778 4.15854
4.16622 9.65980 4.16622
4.17311 9.73342 4.17311
4.17888 9.80932 4.17888
4.18317 9.88820 4.18317
4.18566 9.97073 4.18566
4.18610 10.05737 4.18610
4.18482 10.14749 4.18482
4.18295 10.23880 4.18295
4.18060 10.33112 4.18060
4.17776 10.42445 4.17776
4.17441 10.51881 4.17441
4.17052 10.61428 4.17052
4.16604 10.71098 4.16604
4.16087 10.80906 4.16087
4.15490 10.90879 4.15490
4.14794 11.01050 4.14794
4.13974 11.11474 4.13974
4.12988 11.22230 4.12988
4.11769 11.33455 4.11769
4.10191 11.45401 4.10191
4.08018 11.58541 4.08018
4.04585 11.74201 4.04585
4.00000 13.19120 4.00000
4.00000 13.19120 4.00000
4.00000 13.19120 4.00000
4.00000 13.19120 4.00000
4.00000 13.19120 4.00000
4.00000 13.19120 4.00000
4.00000 13.19120 4.00000
4.00000 13.19120 4.00000
4.00000 13.19120 4.00000
4.00000 13.19120 4.00000
4.00000 13.19120 4.00000
4.00000 13.19120 4.00000
4.00000 13.19120 4.00000
4.00000 13.19120 4.00000
4.00000 13.19121 4.00000
4.00871 13.22645 4.00871
4.02135 13.28948 4.02135
4.03155 13.35742 4.03155
4.03935 13.43016 4.03935
4.04484 13.50754 4.04484
4.04813 13.58935 4.04813
4.05008 13.67384 4.05008
4.05196 13.75850 4.05196
4.05378 13.84330 4.05378
4.05555 13.92822 4.05555
4.05727 14.01323 4.05727
4.05896 14.09834 4.05896
4.06061 14.18354 4.06061
4.06224 14.26881 4.06224
4.06383 14.35416 4.06383
4.06540 14.43957 4.06540
4.06695 14.52505 4.06695
4.06847 14.61058 4.06847
4.06998 14.69617 4.06998
4.07146 14.78181 4.07146
4.07294 14.86749 4.07294
4.07439 14.95322 4.07439
4.07584 15.03900 4.07584
4.07724 15.12487 4.07724
4.07842 15.21120 4.07842
4.07935 15.29803 4.07935
4.08006 15.38533 4.08006
4.08056 15.47305 4.08056
4.08087 15.56119 4.08087
4.08099 15.64970 4.08099
4.08095 15.73855 4.08095
4.08076 15.82772 4.08076
4.08043 15.91718 4.08043
4.07997 16.00692 4.07997
4.07939 16.09689 4.07939
4.07871 16.18709 4.07871
4.07793 16.27750 4.07793
4.07707 16.36808 4.07707
4.07614 16.45883 4.07614
4.07513 16.54972 4.07513
4.07407 16.64075 4.07407
4.07295 16.73189 4.07295
4.07179 16.82313 4.07179
4.07060 16.91446 4.07060
4.06937 17.00587 4.06937
4.06811 17.09734 4.06811
4.06683 17.18887 4.06683
4.06553 17.28044 4.06553
4.06422 17.37205 4.06422
4.06291 17.46369 4.06291
4.06159 17.55534 4.06158
4.06026 17.64703 4.06026
4.05894 17.73870 4.05893
4.05762 17.83039 4.05761
4.05630 17.92208 4.05630
4.05500 18.01376 4.05499
4.05370 18.10543 4.05370
4.05242 18.19708 4.05241
4.05114 18.28872 4.05114
4.04989 18.38034 4.04988
4.04865 18.47194 4.04864
4.04742 18.56351 4.04742
4.04622 18.65506 4.04621
4.04503 18.74657 4.04503
4.04387 18.83806 4.04386
4.04272 18.92952 4.04272
4.04159 19.02095 4.04159
4.04049 19.11234 4.04048
4.03940 19.20370 4.03940
4.03834 19.29502 4.03834
4.03730 19.38631 4.03730
4.03628 19.47757 4.03628
4.03529 19.56879 4.03528
4.03431 19.65997 4.03431
4.03336 19.75112 4.03336
4.03243 19.84224 4.03242
4.03152 19.93332 4.03152
4.03063 20.02437 4.03063
4.02976 20.11538 4.02976
4.02892 20.20636 4.02891
4.02809 20.29730 4.02809
4.02729 20.38822 4.02728
4.02650 20.47910 4.02650
4.02574 20.56994 4.02573
4.02499 20.66076 4.02499
4.02426 20.75155 4.02426
4.02356 20.84230 4.02356
4.02287 20.93303 4.02287

Angle 0.495543 1.350469

4.00000 7.03346 4.00000
4.00000 7.03348 4.00000
4.00000 7.03348 4.00000
4.00000 7.03348 4.00000
4.00000 7.03348 4.00000
4.00000 7.03348 4.00000
4.00000 7.03348 4.00000
4.00000 7.03348 4.00000
4.00000 7.03348 4.00000
4.00000 7.03348 4.00000
4.00000 7.03348 4.00000
4.00000 7.03348 4.00000
4.00000 7.03348 4.00000
4.00000 7.03348 4.00000
4.00000 7.03348 4.00000
4.00000 7.03348 4.00000
4.00000 7.03348 4.00000
4.00000 7.03348 4.00000
4.00000 7.03348 4.00000
4.00000 7.03348 4.00000
4.00000 7.03348 4.00000
4.00000 7.03348 4.00000
4.00000 7.03348 4.00000
4.00000 7.03348 4.00000
4.00000 7.03348 4.00000
4.00000 7.03348 4.00000
4.00000 7.03348 4.00000
4.00000 7.03348 4.00000
4.00000 7.03348 4.00000
4.00000 7.03348 4.00000
4.00000 7.03348 4.00000
4.00000 7.03348 4.00000
4.00000 7.03348 4.00000
4.00000 7.03348 4.00000
4.00000 7.03348 4.00000
4.00000 7.03348 4.00000
4.00000 7.03348 4.00000
4.00000 7.03348 4.00000
4.00000 7.03348 4.00000
4.00000 7.03347 4.00000
4.00000 7.03347 4.00000
4.00000 7.03347 4.00000
4.00000 7.03347 4.00000
4.00000 7.03347 4.00000
4.00000 7.03347 4.00000
4.00000 7.03347 4.00000
4.00000 7.03347 4.00000
4.00000 7.03347 4.00000
4.00000 7.03347 4.00000
4.00000 7.03347 4.00000
4.00000 7.03347 4.00000
4.00000 7.03347 4.00000
4.00000 7.03347 4.00000
4.00000 7.03347 4.00000
4.00000 7.03347 4.00000
4.00000 7.03347 4.00000
4.00000 7.03347 4.00000
4.00000 7.03347 4.00000
4.00000 7.03347 4.00000
4.00000 7.03347 4.00000
4.00000 7.03347 4.00000
4.00000 7.03347 4.00000
4.00000 7.03347 4.00000
4.00000 7.03347 4.00000
4.00000 7.03347 4.00000
4.00000 7.03347 4.00000
4.00000 7.03347 4.00000
4.00000 7.03347 4.00000
4.00000 7.03347 4.00000
4.00000 7.03347 4.00000
4.00000 7.03347 4.00000
4.00000 7.03347 4.00000
4.00000 7.03347 4.00000
4.00000 7.03347 4.00000
4.00000 7.03347 4.00000
4.00000 7.03347 4.00000
4.00000 7.03347 4.00000
4.00000 7.03347 4.00000
4.00000 7.03347 4.00000
4.00000 7.03347 4.00000
4.00000 7.03347 4.00000
4.00000 7.03347 4.00000
4.00000 7.03347 4.00000
4.00000 7.03347 4.00000
4.00000 7.03347 4.00000
4.00000 7.03347 4.00000
4.00000 7.03348 4.00000
4.00000 7.03348 4.00000
4.00000 7.03348 4.00000
4.00000 7.03348 4.00000
4.00000 7.03348 4.00000
4.00000 7.03348 4.00000
4.00000 7.03348 4.00000
4.00000 7.03349 4.00000
4.00000 7.03349 4.00000
4.00000 7.03349 4.00000
4.00000 7.03349 4.00000
4.00000 7.03349 4.00000
4.00000 7.03349 4.00000
4.00000 7.03349 4.00000
4.00000 7.03349 4.00000
4.00000 7.03349 4.00000
4.00000 7.03350 4.00000
4.00000 7.03350 4.00000
4.00000 7.03348 4.00000
4.00000 7.03348 4.00000
4.00000 7.03348 4.00000
4.00000 7.03348 4.00000
4.00000 7.03348 4.00000
4.00000 7.03348 4.00000
4.00000 7.03348 4.00000
4.00000 7.03348 4.00000
4.00000 7.03348 4.00000
4.00000 7.03348 4.00000
4.00000 7.03348 4.00000
4.00000 7.03348 4.00000
4.00000 7.03348 4.00000
4.00000 7.03348 4.00000
4.00000 7.03348 4.00000
4.00000 7.03348 4.00000
4.00000 7.03348 4.00000
4.00000 7.03348 4.00000
4.00000 7.03348 4.00000
4.00000 7.03348 4.00000
4.00000 7.03348 4.00000
4.00000 7.03348 4.00000
4.00000 7.03354 4.00000
4.00000 7.03348 4.00000
4.00000 7.03348 4.00000
4.00000 7.03348 4.00000
4.00000 7.03348 4.00000
4.00000 7.03349 4.00000
4.00000 7.03348 4.00000
4.00000 7.03351 4.00000
4.00016 7.03731 4.00016
4.00239 7.09166 4.00238
4.00457 7.14640 4.00457
4.00673 7.20151 4.00673
4.00885 7.25699 4.00885
4.01096 7.31282 4.01096
4.01304 7.36898 4.01304
4.01511 7.42547 4.01511
4.01717 7.48227 4.01717
4.01922 7.53937 4.01922
4.02127 7.59676 4.02127
4.02333 7.65443 4.02333
4.02539 7.71235 4.02539
4.02747 7.77052 4.02747
4.02956 7.82893 4.02956
4.03169 7.88755 4.03169
4.03384 7.94637 4.03384
4.03604 8.00537 4.03604
4.03828 8.06453 4.03828
4.04059 8.12383 4.04059
4.04296 8.18325 4.04296
4.04542 8.24275 4.04542
4.04797 8.30231 4.04797
4.05063 8.36189 4.05063
4.05343 8.42144 4.05343
4.05638 8.48092 4.05638
4.05951 8.54028 4.05951
4.06286 8.59943 4.06286
4.06647 8.65830 4.06647
4.07035 8.71685 4.07035
4.07446 8.77516 4.07446
4.07882 8.83320 4.07882
4.08343 8.89095 4.08343
4.08830 8.94840 4.08830
4.09344 9.00553 4.09344
4.09884 9.06234 4.09884
4.10451 9.11884 4.10451
4.11042 9.17505 4.11042
4.11657 9.23099 4.11657
4.12293 9.28671 4.12293
4.12946 9.34230 4.12946
4.13611 9.39785 4.13611
4.14281 9.45347 4.14281
4.14949 9.50934 4.14949
4.15604 9.56565 4.15604
4.16235 9.62264 4.16235
4.16828 9.68059 4.16828
4.17365 9.73982 4.17365
4.17830 9.80068 4.17830
4.18203 9.86356 4.18203
4.18466 9.92883 4.18465
4.18602 9.99680 4.18602
4.18601 10.06767 4.18601
4.18493 10.14087 4.18493
4.18349 10.21497 4.18349
4.18171 10.28990 4.18171
4.17960 10.36566 4.17960
4.17716 10.44224 4.17716
4.17438 10.51968 4.17438
4.17122 10.59802 4.17122
4.16767 10.67732 4.16767
4.16366 10.75767 4.16366
4.15915 10.83920 4.15915
4.15404 10.92207 4.15404
4.14823 11.00649 4.14823
4.14157 11.09277 4.14156
4.13382 11.18137 4.13382
4.12465 11.27295 4.12465
4.11353 11.36859 4.11353
4.09951 11.47015 4.09951
4.08103 11.58079 4.08104
4.05423 11.70821 4.05423
4.00045 11.88974 4.00045
4.00000 13.19120 4.00000
4.00000 13.19120 4.00000
4.00000 13.19120 4.00000
4.00000 13.19120 4.00000
4.00000 13.19120 4.00000
4.00000 13.19120 4.00000
4.00000 13.19120 4.00000
4.00000 13.19120 4.00000
4.00000 13.19120 4.00000
4.00000 13.19120 4.00000
4.00000 13.19120 4.00000
4.00000 13.19120 4.00000
4.00000 13.19120 4.00000
4.00000 13.19120 4.00000
4.00000 13.19120 4.00000
4.00000 13.19120 4.00000
4.00000 13.19120 4.00000
4.00871 13.22642 4.00871
4.01977 13.28059 4.01977
4.02902 13.33852 4.02902
4.03648 13.40015 4.03648
4.04217 13.46540 4.04217
4.04617 13.53416 4.04617
4.04854 13.60628 4.04854
4.05022 13.67988 4.05022
4.05185 13.75368 4.05185
4.05344 13.82767 4.05344
4.05500 13.90183 4.05500
4.05652 13.97615 4.05652
4.05802 14.05064 4.05802
4.05949 14.12527 4.05949
4.06093 14.20006 4.06093
4.06235 14.27498 4.06235
4.06375 14.35004 4.06375
4.06514 14.42523 4.06514
4.06650 14.50055 4.06650
4.06786 14.57599 4.06786
4.06919 14.65155 4.06919
4.07052 14.72723 4.07052
4.07183 14.80302 4.07183
4.07313 14.87892 4.07313
4.07442 14.95494 4.07442
4.07570 15.03105 4.07570
4.07697 15.10730 4.07697
4.07807 15.18394 4.07807
4.07898 15.26106 4.07898
4.07971 15.33862 4.07971
4.08026 15.41662 4.08026
4.08066 15.49502 4.08066
4.08090 15.57381 4.08089
4.08100 15.65296 4.08100
4.08096 15.73246 4.08096
4.08080 15.81228 4.08080
4.08053 15.89241 4.08053
4.08016 15.97283 4.08016
4.07968 16.05352 4.07968
4.07912 16.13446 4.07912
4.07847 16.21564 4.07847
4.07775 16.29705 4.07775
4.07697 16.37866 4.07697
4.07612 16.46047 4.07612
4.07521 16.54246 4.07521
4.07426 16.62463 4.07426
4.07326 16.70695 4.07326
4.07223 16.78942 4.07223
4.07116 16.87202 4.07116
4.07006 16.95476 4.07006
4.06893 17.03761 4.06893
4.06779 17.12058 4.06779
4.06662 17.20364 4.06662
4.06544 17.28680 4.06544
4.06425 17.37005 4.06425
4.06306 17.45338 4.06305
4.06185 17.53679 4.06185
4.06064 17.62026 4.06064
4.05944 17.70381 4.05944
4.05823 17.78741 4.05823
4.05703 17.87106 4.05703
4.05583 17.95477 4.05583
4.05464 18.03852 4.05464
4.05346 18.12232 4.05346
4.05228 18.20616 4.05228
4.05112 18.29004 4.05112
4.04997 18.37395 4.04997
4.04883 18.45789 4.04883
4.04771 18.54187 4.04771
4.04660 18.62587 4.04660
4.04550 18.70990 4.04550
4.04442 18.79396 4.04442
4.04336 18.87803 4.04336
4.04231 18.96213 4.04231
4.04128 19.04625 4.04128
4.04027 19.13039 4.04027
4.03927 19.21455 4.03927
4.03830 19.29872 4.03830
4.03734 19.38291 4.03734
4.03640 19.46712 4.03640
4.03547 19.55134 4.03547
4.03457 19.63558 4.03457
4.03368 19.71983 4.03368
4.03281 19.80410 4.03281
4.03196 19.88838 4.03196
4.03113 19.97267 4.03113
4.03031 20.05697 4.03031
4.02952 20.14129 4.02952
4.02874 20.22562 4.02874
4.02797 20.30997 4.02797
4.02723 20.39433 4.02723
4.02650 20.47869 4.02650
4.02579 20.56308 4.02579
4.02510 20.64747 4.02510
4.02442 20.73188 4.02442
4.02376 20.81630 4.02376
4.02311 20.90074 4.02311
4.02248 20.98518 4.02248
4.02186 21.06964 4.02186
4.02126 21.15412 4.02126
4.02068 21.23860 4.02068
4.02011 21.32311 4.02011
4.01955 21.40762 4.01955
4.01901 21.49215 4.01901
4.01848 21.57669 4.01848
4.01797 21.66125 4.01796
4.01746 21.74583 4.01746
4.01697 21.83041 4.01697
4.01650 21.91502 4.01650
4.01603 21.99963 4.01603
4.01558 22.08427 4.01558
4.01514 22.16892 4.01514
4.01471 22.25358 4.01471
4.01430 22.33826 4.01430
4.01389 22.42296 4.01389
4.01350 22.50768 4.01350
4.01311 22.59240 4.01311
4.01274 22.67715 4.01274
4.01237 22.76192 4.01237
4.01202 22.84670 4.01202
4.01168 22.93150 4.01168
4.01134 23.01631 4.01134
4.01102 23.10115 4.01101
4.01070 23.18600 4.01070
4.01039 23.27087 4.01039
4.01009 23.35576 4.01009
4.00980 23.44067 4.00980
4.00951 23.52559 4.00952
4.00924 23.61054 4.00924
4.00897 23.69550 4.00897
4.00871 23.78048 4.00871
4.00846 23.86548 4.00846
4.00821 23.95050 4.00821
4.00797 24.03554 4.00797
4.00774 24.12060 4.00774
4.00751 24.20567 4.00751
4.00729 24.29077 4.00729
4.00708 24.37588 4.00708
4.00687 24.46102 4.00687
4.00667 24.54618 4.00667
4.00648 24.63135 4.00648
4.00629 24.71654 4.00629
4.00610 24.80176 4.00610
4.00592 24.88699 4.00592
4.00575 24.97225 4.00575
4.00558 25.05752 4.00558
4.00541 25.14282 4.00541
4.00526 25.22813 4.00526
4.00510 25.31347 4.00510
4.00495 25.39882 4.00495
4.00480 25.48420 4.00480
4.00466 25.56960 4.00466
4.00452 25.65501 4.00452
4.00439 25.74044 4.00439
4.00426 25.82590 4.00426
4.00413 25.91137 4.00413
4.00401 25.99688 4.00401
4.00389 26.08239 4.00389
4.00377 26.16793 4.00378
4.00366 26.25348 4.00366
4.00355 26.33906 4.00355
4.00345 26.42466 4.00345
4.00334 26.51028 4.00335
4.00325 26.59591 4.00325
4.00315 26.68158 4.00315
4.00305 26.76725 4.00306
4.00297 26.85294 4.00297
4.00288 26.93867 4.00288
4.00278 27.02442 4.00279
4.00270 27.11017 4.00270
4.00263 27.19594 4.00263
4.00255 27.28175 4.00255
4.00247 27.36757 4.00247
4.00240 27.45340 4.00240
4.00233 27.53926 4.00232
4.00226 27.62514 4.00226

Angle 0.062696 3.555713

4.00000 7.03348 4.00000
4.00000 7.03348 4.00000
4.00000 7.03348 4.00000
4.00000 7.03348 4.00000
4.00000 7.03348 4.00000
4.00000 7.03348 4.00000
4.00000 7.03348 4.00000
4.00000 7.03348 4.00000
4.00000 7.03348 4.00000
4.00000 7.03348 4.00000
4.00000 7.03348 4.00000
4.00000 7.03348 4.00000
4.00000 7.03348 4.00000
4.00000 7.03348 4.00000
4.00000 7.03348 4.00000
4.00000 7.03348 4.00000
4.00000 7.03348 4.00000
4.00000 7.03348 4.00000
4.00000 7.03348 4.00000
4.00000 7.03348 4.00000
4.00000 7.03348 4.00000
4.00000 7.03348 4.00000
4.00000 7.03348 4.00000
4.00000 7.03348 4.00000
4.00000 7.03348 4.00000
4.00000 7.03348 4.00000
4.00000 7.03348 4.00000
4.00000 7.03348 4.00000
4.00000 7.03348 4.00000
4.00000 7.03348 4.00000
4.00000 7.03348 4.00000
4.00000 7.03348 4.00000
4.00000 7.03348 4.00000
4.00000 7.03348 4.00000
4.00000 7.03348 4.00000
4.00000 7.03348 4.00000
4.00000 7.03348 4.00000
4.00000 7.03348 4.00000
4.00000 7.03348 4.00000
4.00000 7.03348 4.00000
4.00000 7.03348 4.00000
4.00000 7.03348 4.00000
4.00000 7.03348 4.00000
4.00000 7.03348 4.00000
4.00000 7.03348 4.00000
4.00000 7.03348 4.00000
4.00000 7.03348 4.00000
4.00000 7.03348 4.00000
4.00000 7.03348 4.00000
4.00000 7.03348 4.00000
4.00000 7.03348 4.00000
4.00000 7.03348 4.00000
4.00000 7.03348 4.00000
4.00000 7.03348 4.00000
4.00000 7.03348 4.00000
4.00000 7.03348 4.00000
4.00000 7.03348 4.00000
4.00000 7.03348 4.00000
4.00000 7.03348 4.00000
4.00000 7.03348 4.00000
4.00000 7.03348 4.00000
4.00000 7.03348 4.00000
4.00000 7.03348 4.00000
4.00000 7.03348 4.00000
4.00000 7.03348 4.00000
4.00000 7.03348 4.00000
4.00000 7.03348 4.00000
4.00000 7.03348 4.00000
4.00000 7.03348 4.00000
4.00000 7.03348 4.00000
4.00000 7.03348 4.00000
4.00000 7.03348 4.00000
4.00000 7.03348 4.00000
4.00000 7.03348 4.00000
4.00000 7.03348 4.00000
4.00000 7.03348 4.00000
4.00000 7.03348 4.00000
4.00000 7.03348 4.00000
4.00000 7.03348 4.00000
4.00000 7.03348 4.00000
4.00000 7.03348 4.00000
4.00000 7.03348 4.00000
4.00000 7.03348 4.00000
4.00000 7.03348 4.00000
4.00000 7.03348 4.00000
4.00000 7.03348 4.00000
4.00000 7.03348 4.00000
4.00000 7.03348 4.00000
4.00000 7.03348 4.00000
4.00000 7.03348 4.00000
4.00000 7.03348 4.00000
4.00000 7.03348 4.00000
4.00000 7.03348 4.00000
4.00000 7.03348 4.00000
4.00000 7.03348 4.00000
4.00000 7.03348 4.00000
4.00000 7.03348 4.00000
4.00000 7.03348 4.00000
4.00000 7.03348 4.00000
4.00000 7.03348 4.00000
4.00000 7.03348 4.00000
4.00000 7.03348 4.00000
4.00000 7.03348 4.00000
4.00000 7.03348 4.00000
4.00000 7.03348 4.00000
4.00000 7.03348 4.00000
4.00000 7.03348 4.00000
4.00000 7.03348 4.00000
4.00000 7.03348 4.00000
4.00000 7.03348 4.00000
4.00000 7.03348 4.00000
4.00000 7.03348 4.00000
4.00000 7.03348 4.00000
4.00000 7.03348 4.00000
4.00000 7.03348 4.00000
4.00000 7.03348 4.00000
4.00000 7.03348 4.00000
4.00000 7.03348 4.00000
4.00000 7.03348 4.00000
4.00000 7.03348 4.00000
4.00000 7.03348 4.00000
4.00000 7.03348 4.00000
4.00000 7.03348 4.00000
4.00000 7.03348 4.00000
4.00000 7.03348 4.00000
4.00000 7.03348 4.00000
4.00000 7.03348 4.00000
4.00000 7.03348 4.00000
4.00000 7.03348 4.00000
4.00000 7.03348 4.00000
4.00000 7.03348 4.00000
4.00000 7.03348 4.00000
4.00000 7.03348 4.00000
4.00000 7.03348 4.00000
4.00000 7.03348 4.00000
4.00000 7.03348 4.00000
4.00000 7.03348 4.00000
4.00000 7.03348 4.00000
4.00000 7.03348 4.00000
4.00000 7.03348 4.00000
4.00000 7.03348 4.00000
4.00000 7.03348 4.00000
4.00000 7.03348 4.00000
4.00000 7.03348 4.00000
4.00000 7.03348 4.00000
4.00000 7.03348 4.00000
4.00000 7.03348 4.00000
4.00000 7.03348 4.00000
4.00000 7.03348 4.00000
4.00000 7.03348 4.00000
4.00000 7.03348 4.00000
4.00000 7.03348 4.00000
4.00000 7.03348 4.00000
4.00000 7.03348 4.00000
4.00000 7.03348 4.00000
4.00000 7.03348 4.00000
4.00000 7.03348 4.00000
4.00000 7.03348 4.00000
4.00000 7.03348 4.00000
4.00000 7.03348 4.00000
4.00000 7.03347 4.00000
4.00000 7.03348 4.00000
4.00000 7.03348 4.00000
4.00000 7.03348 4.00000
4.00000 7.03348 4.00000
4.00000 7.03348 4.00000
4.00000 7.03348 4.00000
4.00000 7.03348 4.00000
4.00000 7.03348 4.00000
4.00000 7.03348 4.00000
4.00000 7.03348 4.00000
4.00000 7.03348 4.00000
4.00000 7.03348 4.00000
4.00000 7.03348 4.00000
4.00000 7.03348 4.00000
4.00000 7.03348 4.00000
4.00000 7.03348 4.00000
4.00000 7.03348 4.00000
4.00000 7.03348 4.00000
4.00000 7.03348 4.00000
4.00000 7.03348 4.00000
4.00000 7.03351 4.00000
4.00000 7.03349 4.00000
4.00060 7.04803 4.00060
4.00355 7.12060 4.00355
4.00641 7.19345 4.00641
4.00922 7.26657 4.00922
4.01197 7.33992 4.01197
4.01467 7.41349 4.01467
4.01735 7.48725 4.01735
4.02000 7.56118 4.02000
4.02264 7.63525 4.02264
4.02529 7.70945 4.02529
4.02794 7.78374 4.02794
4.03062 7.85809 4.03062
4.03333 7.93250 4.03333
4.03610 8.00691 4.03610
4.03893 8.08130 4.03893
4.04185 8.15562 4.04185
4.04488 8.22984 4.04488
4.04804 8.30390 4.04804
4.05136 8.37774 4.05136
4.05488 8.45129 4.05488
4.05865 8.52444 4.05865
4.06272 8.59710 4.06272
4.06716 8.66911 4.06716
4.07198 8.74047 4.07198
4.07714 8.81124 4.07714
4.08265 8.88141 4.08265
4.08852 8.95093 4.08852
4.09477 9.01981 4.09477
4.10138 9.08805 4.10138
4.10835 9.15566 4.10835
4.11565 9.22271 4.11565
4.12323 9.28928 4.12323
4.13103 9.35549 4.13103
4.13896 9.42153 4.13896
4.14691 9.48762 4.14691
4.15472 9.55407 4.15472
4.16220 9.62125 4.16220
4.16914 9.68960 4.16914
4.17527 9.75965 4.17527
4.18030 9.83198 4.18030
4.18393 9.90719 4.18393
4.18589 9.98580 4.18589
4.18601 10.06819 4.18601
4.18471 10.15347 4.18471
4.18293 10.23979 4.18293
4.18071 10.32706 4.18071
4.17806 10.41528 4.17806
4.17495 10.50448 4.17495
4.17136 10.59470 4.17136
4.16725 10.68604 4.16725
4.16255 10.77863 4.16255
4.15715 10.87268 4.15715
4.15093 10.96843 4.15093
4.14370 11.06628 4.14370
4.13516 11.16680 4.13516
4.12487 11.27089 4.12487
4.11207 11.38006 4.11207
4.09535 11.49715 4.09535
4.07198 11.62757 4.07198
4.03304 11.78921 4.03304
4.00000 13.19120 4.00000
4.00000 13.19120 4.00000
4.00000 13.19120 4.00000
4.00000 13.19120 4.00000
4.00000 13.19120 4.00000
4.00000 13.19120 4.00000
4.00000 13.19120 4.00000
4.00000 13.19120 4.00000
4.00000 13.19120 4.00000
4.00000 13.19120 4.00000
4.00000 13.19120 4.00000
4.00000 13.19120 4.00000
4.00000 13.19120 4.00000
4.00000 13.19120 4.00000
4.00000 13.19120 4.00000
4.00202 13.19894 4.00202
4.01529 13.25708 4.01529
4.02629 13.31979 4.02629
4.03507 13.38701 4.03507
4.04167 13.45862 4.04167
4.04618 13.53446 4.04618
4.04872 13.61428 4.04872
4.05057 13.69555 4.05057
4.05236 13.77697 4.05236
4.05410 13.85854 4.05410
4.05579 13.94023 4.05579
4.05745 14.02205 4.05745
4.05907 14.10398 4.05907
4.06066 14.18602 4.06066
4.06222 14.26815 4.06222
4.06376 14.35038 4.06376
4.06527 14.43269 4.06527
4.06677 14.51509 4.06677
4.06824 14.59756 4.06824
4.06970 14.68011 4.06970
4.07113 14.76273 4.07113
4.07256 14.84542 4.07256
4.07397 14.92818 4.07397
4.07537 15.01100 4.07537
4.07675 15.09388 4.07675
4.07798 15.17711 4.07798
4.07898 15.26084 4.07898
4.07976 15.34504 4.07976
4.08034 15.42968 4.08034
4.08073 15.51473 4.08073
4.08095 15.60018 4.08095
4.08100 15.68598 4.08100
4.08090 15.77211 4.08090
4.08066 15.85856 4.08066
4.08030 15.94529 4.08030
4.07982 16.03229 4.07982
4.07923 16.11954 4.07923
4.07855 16.20701 4.07855
4.07778 16.29469 4.07778
4.07693 16.38255 4.07693
4.07601 16.47059 4.07601
4.07503 16.55878 4.07503
4.07399 16.64712 4.07399
4.07291 16.73558 4.07291
4.07178 16.82415 4.07178
4.07062 16.91283 4.07062
4.06942 17.00160 4.06942
4.06820 17.09046 4.06820
4.06696 17.17938 4.06696
4.06571 17.26836 4.06571
4.06443 17.35740 4.06443
4.06315 17.44649 4.06315
4.06187 17.53562 4.06187
4.06058 17.62478 4.06058
4.05929 17.71396 4.05929
4.05800 17.80317 4.05800
4.05672 17.89240 4.05672
4.05545 17.98164 4.05545
4.05418 18.07088 4.05418
4.05293 18.16014 4.05293
4.05168 18.24939 4.05168
4.05045 18.33864 4.05045
4.04924 18.42789 4.04924
4.04804 18.51713 4.04804
4.04685 18.60637 4.04685
4.04569 18.69559 4.04569
4.04454 18.78481 4.04454
4.04341 18.87401 4.04341
4.04230 18.96319 4.04230
4.04121 19.05236 4.04121
4.04014 19.14151 4.04014
4.03908 19.23065 4.03908
4.03805 19.31977 4.03805
4.03704 19.40886 4.03704
4.03606 19.49794 4.03606
4.03509 19.58701 4.03509
4.03414 19.67605 4.03414
4.03321 19.76507 4.03321
4.03230 19.85407 4.03230
4.03142 19.94306 4.03142
4.03055 20.03202 4.03055
4.02971 20.12096 4.02971
4.02888 20.20989 4.02888
4.02807 20.29880 4.02807
4.02729 20.38769 4.02729
4.02652 20.47656 4.02652
4.02577 20.56541 4.02577
4.02504 20.65424 4.02504
4.02433 20.74306 4.02433
4.02364 20.83186 4.02364
4.02296 20.92065 4.02296
4.02230 21.00942 4.02230
4.02166 21.09817 4.02166
4.02103 21.18691 4.02103
4.02043 21.27564 4.02043
4.01983 21.36435 4.01983
4.01926 21.45305 4.01926
4.01870 21.54174 4.01870
4.01815 21.63041 4.01815
4.01762 21.71907 4.01762
4.01710 21.80772 4.01710
4.01660 21.89636 4.01660
4.01611 21.98499 4.01611
4.01564 22.07361 4.01564
4.01518 22.16222 4.01518
4.01473 22.25082 4.01473
4.01429 22.33941 4.01429
4.01387 22.42800 4.01387
4.01346 22.51658 4.01346
4.01306 22.60515 4.01306
4.01267 22.69371 4.01267
4.01229 22.78227 4.01229
4.01192 22.87082 4.01192
4.01156 22.95937 4.01156
4.01122 23.04791 4.01122
4.01088 23.13645 4.01088
4.01055 23.22499 4.01055
4.01024 23.31352 4.01024
4.00993 23.40204 4.00993
4.00963 23.49057 4.00963
4.00934 23.57909 4.00934
4.00906 23.66761 4.00906
4.00878 23.75613 4.00878
4.00852 23.84464 4.00852
4.00826 23.93316 4.00826
4.00801 24.02167 4.00801
4.00777 24.11019 4.00777
4.00753 24.19870 4.00753
4.00730 24.28721 4.00730
4.00708 24.37573 4.00708
4.00687 24.46424 4.00687
4.00666 24.55275 4.00666
4.00645 24.64127 4.00645
4.00626 24.72979 4.00626
4.00607 24.81831 4.00607
4.00588 24.90682 4.00588
4.00570 24.99535 4.00570
4.00553 25.08387 4.00553
4.00536 25.17240 4.00536
4.00520 25.26093 4.00519
4.00504 25.34946 4.00504
4.00488 25.43800 4.00488

Angle 0.629829 1.798426

4.00000 7.03348 4.00000
4.00000 7.03348 4.00000
4.00000 7.03348 4.00000
4.00000 7.03348 4.00000
4.00000 7.03348 4.00000
4.00000 7.03348 4.00000
4.00000 7.03348 4.00000
4.00000 7.03348 4.00000
4.00000 7.03348 4.00000
4.00000 7.03348 4.00000
4.00000 7.03348 4.00000
4.00000 7.03348 4.00000
4.00000 7.03348 4.00000
4.00000 7.03348 4.00000
4.00000 7.03348 4.00000
4.00000 7.03348 4.00000
4.00000 7.03348 4.00000
4.00000 7.03348 4.00000
4.00000 7.03348 4.00000
4.00000 7.03348 4.00000
4.00000 7.03348 4.00000
4.00000 7.03348 4.00000
4.00000 7.03348 4.00000
4.00000 7.03348 4.00000
4.00000 7.03348 4.00000
4.00000 7.03348 4.00000
4.00000 7.03348 4.00000
4.00000 7.03348 4.00000
4.00000 7.03348 4.00000
4.00000 7.03348 4.00000
4.00000 7.03348 4.00000
4.00000 7.03348 4.00000
4.00000 7.03348 4.00000
4.00000 7.03348 4.00000
4.00000 7.03348 4.00000
4.00000 7.03348 4.00000
4.00000 7.03348 4.00000
4.00000 7.03348 4.00000
4.00000 7.03348 4.00000
4.00000 7.03348 4.00000
4.00000 7.03348 4.00000
4.00000 7.03348 4.00000
4.00000 7.03348 4.00000
4.00000 7.03348 4.00000
4.00000 7.03348 4.00000
4.00000 7.03348 4.00000
4.00000 7.03348 4.00000
4.00000 7.03348 4.00000
4.00000 7.03348 4.00000
4.00000 7.03348 4.00000
4.00000 7.03348 4.00000
4.00000 7.03347 4.00000
4.00000 7.03348 4.00000
4.00000 7.03348 4.00000
4.00000 7.03348 4.00000
4.00000 7.03348 4.00000
4.00000 7.03348 4.00000
4.00000 7.03348 4.00000
4.00000 7.03348 4.00000
4.00000 7.03348 4.00000
4.00000 7.03348 4.00000
4.00000 7.03348 4.00000
4.00000 7.03348 4.00000
4.00000 7.03346 4.00000
4.00000 7.03348 4.00000
4.00000 7.03348 4.00000
4.00000 7.03348 4.00000
4.00000 7.03348 4.00000
4.00000 7.03348 4.00000
4.00000 7.03348 4.00000
4.00000 7.03348 4.00000
4.00000 7.03347 4.00000
4.00000 7.03347 4.00000
4.00000 7.03348 4.00000
4.00000 7.03348 4.00000
4.00000 7.03348 4.00000
4.00000 7.03348 4.00000
4.00000 7.03348 4.00000
4.00000 7.03348 4.00000
4.00000 7.03348 4.00000
4.00000 7.03348 4.00000
4.00000 7.03348 4.00000
4.00000 7.03348 4.00000
4.00000 7.03348 4.00000
4.00000 7.03348 4.00000
4.00000 7.03348 4.00000
4.00000 7.03348 4.00000
4.00000 7.03348 4.00000
4.00000 7.03348 4.00000
4.00000 7.03348 4.00000
4.00000 7.03348 4.00000
4.00000 7.03348 4.00000
4.00000 7.03348 4.00000
4.00000 7.03348 4.00000
4.00000 7.03348 4.00000
4.00000 7.03348 4.00000
4.00000 7.03347 4.00000
4.00000 7.03348 4.00000
4.00000 7.03348 4.00000
4.00000 7.03348 4.00000
4.00000 7.03348 4.00000
4.00000 7.03348 4.00000
4.00000 7.03348 4.00000
4.00000 7.03348 4.00000
4.00000 7.03348 4.00000
4.00000 7.03348 4.00000
4.00000 7.03348 4.00000
4.00000 7.03348 4.00000
4.00000 7.03348 4.00000
4.00000 7.03345 4.00000
4.00000 7.03348 4.00000
4.00000 7.03348 4.00000
4.00000 7.03348 4.00000
4.00000 7.03348 4.00000
4.00000 7.03348 4.00000
4.00000 7.03348 4.00000
4.00000 7.03348 4.00000
4.00000 7.03345 4.00000
4.00000 7.03345 4.00000
4.00000 7.03345 4.00000
4.00000 7.03345 4.00000
4.00000 7.03345 4.00000
4.00000 7.03345 4.00000
4.00000 7.03347 4.00000
4.00000 7.03345 4.00000
4.00000 7.03345 4.00000
4.00000 7.03345 4.00000
4.00000 7.03346 4.00000
4.00000 7.03346 4.00000
4.00000 7.03346 4.00000
4.00000 7.03348 4.00000
4.00000 7.03348 4.00000
4.00000 7.03348 4.00000
4.00000 7.03348 4.00000
4.00000 7.03348 4.00000
4.00000 7.03348 4.00000
4.00000 7.03348 4.00000
4.00000 7.03348 4.00000
4.00000 7.03348 4.00000
4.00000 7.03348 4.00000
4.00000 7.03348 4.00000
4.00000 7.03348 4.00000
4.00000 7.03348 4.00000
4.00000 7.03348 4.00000
4.00000 7.03348 4.00000
4.00000 7.03348 4.00000
4.00000 7.03348 4.00000
4.00000 7.03348 4.00000
4.00000 7.03347 4.00000
4.00000 7.03347 4.00000
4.00000 7.03348 4.00000
4.00000 7.03348 4.00000
4.00000 7.03348 4.00000
4.00000 7.03348 4.00000
4.00000 7.03348 4.00000
4.00000 7.03348 4.00000
4.00000 7.03348 4.00000
4.00000 7.03348 4.00000
4.00000 7.03348 4.00000
4.00000 7.03348 4.00000
4.00000 7.03348 4.00000
4.00000 7.03348 4.00000
4.00000 7.03348 4.00000
4.00000 7.03348 4.00000
4.00000 7.03348 4.00000
4.00000 7.03348 4.00000
4.00000 7.03348 4.00000
4.00000 7.03348 4.00000
4.00000 7.03348 4.00000
4.00000 7.03348 4.00000
4.00000 7.03347 4.00000
4.00000 7.03348 4.00000
4.00000 7.03348 4.00000
4.00000 7.03348 4.00000
4.00000 7.03348 4.00000
4.00000 7.03348 4.00000
4.00000 7.03348 4.00000
4.00000 7.03348 4.00000
4.00000 7.03348 4.00000
4.00000 7.03346 4.00000
4.00000 7.03346 4.00000
4.00000 7.03348 4.00000
4.00000 7.03348 4.00000
4.00000 7.03348 4.00000
4.00000 7.03348 4.00000
4.00000 7.03348 4.00000
4.00000 7.03348 4.00000
4.00000 7.03348 4.00000
4.00000 7.03348 4.00000
4.00000 7.03348 4.00000
4.00000 7.03348 4.00000
4.00000 7.03348 4.00000
4.00000 7.03348 4.00000
4.00000 7.03348 4.00000
4.00000 7.03348 4.00000
4.00000 7.03348 4.00000
4.00000 7.03348 4.00000
4.00000 7.03348 4.00000
4.00000 7.03348 4.00000
4.00000 7.03347 4.00000
4.00000 7.03347 4.00000
4.00000 7.03347 4.00000
4.00000 7.03347 4.00000
4.00000 7.03347 4.00000
4.00000 7.03348 4.00000
4.00000 7.03348 4.00000
4.00000 7.03348 4.00000
4.00000 7.03348 4.00000
4.00000 7.03350 4.00000
4.00000 7.03350 4.00000
4.00000 7.03348 4.00000
4.00000 7.03348 4.00000
4.00000 7.03348 4.00000
4.00000 7.03348 4.00000
4.00000 7.03348 4.00000
4.00000 7.03348 4.00000
4.00000 7.03350 4.00000
4.00000 7.03351 4.00000
4.00000 7.03353 4.00000
4.00000 7.03348 4.00000
4.00000 7.03348 4.00000
4.00000 7.03348 4.00000
4.00000 7.03349 4.00000
4.00000 7.03356 4.00000
4.00000 7.03348 4.00000
4.00253 7.09534 4.00253
4.00570 7.17507 4.00570
4.00878 7.25503 4.00878
4.01179 7.33518 4.01179
4.01475 7.41549 4.01475
4.01766 7.49593 4.01766
4.02055 7.57648 4.02055
4.02342 7.65710 4.02342
4.02630 7.73777 4.02630
4.02919 7.81845 4.02919
4.03211 7.89911 4.03211
4.03508 7.97972 4.03508
4.03812 8.06023 4.03812
4.04125 8.14061 4.04125
4.04450 8.22079 4.04450
4.04790 8.30072 4.04790
4.05148 8.38032 4.05148
4.05529 8.45950 4.05529
4.05939 8.53814 4.05939
4.06385 8.61611 4.06385
4.06875 8.69323 4.06875
4.07405 8.76959 4.07405
4.07975 8.84519 4.07975
4.08586 8.92001 4.08586
4.09238 8.99404 4.09238
4.09932 9.06726 4.09932
4.10667 9.13971 4.10667
4.11440 9.21144 4.11440
4.12245 9.28255 4.12245
4.13075 9.35318 4.13075
4.13921 9.42356 4.13921
4.14766 9.49396 4.14766
4.15594 9.56475 4.15594
4.16381 9.63639 4.16381
4.17099 9.70943 4.17099
4.17716 9.78453 4.17716
4.18197 9.86238 4.18197
4.18507 9.94368 4.18507
4.18619 10.02898 4.18619
4.18531 10.11829 4.18531
4.18361 10.20928 4.18361
4.18141 10.30129 4.18141
4.17873 10.39430 4.17873
4.17555 10.48834 4.17555
4.17184 10.58345 4.17184
4.16755 10.67975 4.16755
4.16261 10.77738 4.16261
4.15691 10.87655 4.15691
4.15029 10.97760 4.15029
4.14253 11.08096 4.14253
4.13326 11.18735 4.13326
4.12192 11.29791 4.12192
4.10748 11.41469 4.10748
4.08803 11.54151 4.08803
4.05913 11.68727 4.05913
4.00000 13.19120 4.00000
4.00000 13.19120 4.00000
4.00000 13.19121 4.00000
4.00000 13.19120 4.00000
4.00000 13.19120 4.00000
4.00000 13.19120 4.00000
4.00000 13.19120 4.00000
4.00000 13.19120 4.00000
4.00000 13.19120 4.00000
4.00000 13.19120 4.00000
4.00000 13.19120 4.00000
4.00000 13.19120 4.00000
4.00000 13.19121 4.00000
4.00000 13.19120 4.00000
4.00000 13.19120 4.00000
4.00417 13.20740 4.00417
4.01759 13.26886 4.01759
4.02856 13.33525 4.02856
4.03712 13.40648 4.03712
4.04334 13.48241 4.04334
4.04731 13.56285 4.04731
4.04947 13.64693 4.04947
4.05137 13.73156 4.05137
4.05320 13.81632 4.05320
4.05499 13.90121 4.05499
4.05673 13.98620 4.05673
4.05843 14.07129 4.05843
4.06009 14.15647 4.06009
4.06172 14.24173 4.06172
4.06333 14.32706 4.06333
4.06490 14.41246 4.06490
4.06646 14.49792 4.06646
4.06799 14.58345 4.06799
4.06950 14.66902 4.06950
4.07099 14.75465 4.07099
4.07247 14.84033 4.07247
4.07393 14.92605 4.07393
4.07538 15.01182 4.07538
4.07681 15.09763 4.07681
4.07807 15.18381 4.07807
4.07908 15.27049 4.07908
4.07986 15.35765 4.07986
4.08043 15.44525 4.08043
4.08079 15.53327 4.08079
4.08097 15.62167 4.08097
4.08098 15.71042 4.08098
4.08084 15.79950 4.08084
4.08055 15.88888 4.08055
4.08013 15.97854 4.08013
4.07959 16.06845 4.07959
4.07894 16.15859 4.07894
4.07819 16.24893 4.07819
4.07735 16.33947 4.07735
4.07644 16.43017 4.07644
4.07546 16.52103 4.07546
4.07441 16.61202 4.07441
4.07331 16.70314 4.07331
4.07216 16.79435 4.07216
4.07098 16.88567 4.07098
4.06976 16.97706 4.06976
4.06851 17.06851 4.06851
4.06723 17.16003 4.06723
4.06594 17.25160 4.06594
4.06464 17.34320 4.06464
4.06332 17.43484 4.06332
4.06200 17.52649 4.06201
4.06068 17.61817 4.06068
4.05935 17.70986 4.05936
4.05803 17.80155 4.05803
4.05671 17.89324 4.05672
4.05540 17.98493 4.05541
4.05410 18.07661 4.05411
4.05281 18.16828 4.05282
4.05154 18.25993 4.05154
4.05028 18.35156 4.05028
4.04903 18.44317 4.04903
4.04780 18.53476 4.04781
4.04659 18.62632 4.04660
4.04540 18.71785 4.04540
4.04423 18.80935 4.04423
4.04307 18.90082 4.04308
4.04194 18.99227 4.04194
4.04083 19.08367 4.04083
4.03974 19.17505 4.03974
4.03867 19.26639 4.03867
4.03762 19.35770 4.03763
4.03660 19.44897 4.03660
4.03559 19.54020 4.03560
4.03461 19.63141 4.03462
4.03365 19.72257 4.03366
4.03271 19.81370 4.03272
4.03180 19.90480 4.03180
4.03090 19.99586 4.03091
4.03003 20.08689 4.03003
4.02918 20.17789 4.02918
4.02834 20.26885 4.02835
4.02753 20.35977 4.02754
4.02674 20.45067 4.02674
4.02597 20.54153 4.02597
4.02522 20.63236 4.02522
4.02449 20.72316 4.02449
4.02377 20.81393 4.02378
4.02308 20.90467 4.02308
4.02240 20.99538 4.02241
4.02175 21.08606 4.02175
4.02111 21.17672 4.02111
4.02048 21.26734 4.02049
4.01988 21.35795 4.01988
4.01929 21.44852 4.01929
4.01871 21.53907 4.01871
4.01816 21.62959 4.01816
4.01762 21.72009 4.01762
4.01709 21.81057 4.01709
4.01658 21.90102 4.01658
4.01608 21.99145 4.01608
4.01560 22.08186 4.01560
4.01513 22.17225 4.01512
4.01467 22.26262 4.01467
4.01423 22.35297 4.01423
4.01380 22.44330 4.01380

