Angle 0.128551 4.172990

4.00000 7.03348 4.00000
4.00000 7.03347 4.00000
4.00000 7.03347 4.00000
4.00000 7.03347 4.00000
4.00000 7.03346 4.00000
4.00000 7.03348 4.00000
4.00000 7.03348 4.00000
4.00000 7.03348 4.00000
4.00000 7.03348 4.00000
4.00000 7.03348 4.00000
4.00000 7.03348 4.00000
4.00000 7.03348 4.00000
4.00000 7.03348 4.00000
4.00000 7.03348 4.00000
4.00000 7.03348 4.00000
4.00000 7.03348 4.00000
4.00000 7.03348 4.00000
4.00000 7.03348 4.00000
4.00000 7.03348 4.00000
4.00000 7.03348 4.00000
4.00000 7.03348 4.00000
4.00000 7.03348 4.00000
4.00000 7.03348 4.00000
4.00000 7.03348 4.00000
4.00000 7.03348 4.00000
4.00000 7.03348 4.00000
4.00000 7.03348 4.00000
4.00000 7.03348 4.00000
4.00000 7.03348 4.00000
4.00000 7.03348 4.00000
4.00000 7.03348 4.00000
4.00000 7.03348 4.00000
4.00000 7.03348 4.00000
4.00000 7.03348 4.00000
4.00000 7.03348 4.00000
4.00000 7.03348 4.00000
4.00000 7.03348 4.00000
4.00000 7.03348 4.00000
4.00000 7.03348 4.00000
4.00000 7.03348 4.00000
4.00000 7.03348 4.00000
4.00000 7.03348 4.00000
4.00000 7.03348 4.00000
4.00000 7.03348 4.00000
4.00000 7.03348 4.00000
4.00000 7.03348 4.00000
4.00000 7.03348 4.00000
4.00000 7.03348 4.00000
4.00000 7.03348 4.00000
4.00000 7.03348 4.00000
4.00000 7.03348 4.00000
4.00000 7.03348 4.00000
4.00000 7.03348 4.00000
4.00000 7.03348 4.00000
4.00000 7.03348 4.00000
4.00000 7.03348 4.00000
4.00000 7.03348 4.00000
4.00000 7.03348 4.00000
4.00000 7.03348 4.00000
4.00000 7.03348 4.00000
4.00000 7.03348 4.00000
4.00000 7.03348 4.00000
4.00000 7.03348 4.00000
4.00000 7.03348 4.00000
4.00000 7.03348 4.00000
4.00000 7.03348 4.00000
4.00000 7.03348 4.00000
4.00000 7.03348 4.00000
4.00000 7.03348 4.00000
4.00000 7.03348 4.00000
4.00000 7.03348 4.00000
4.00000 7.03348 4.00000
4.00000 7.03348 4.00000
4.00000 7.03348 4.00000
4.00000 7.03348 4.00000
4.00000 7.03348 4.00000
4.00000 7.03348 4.00000
4.00000 7.03348 4.00000
4.00000 7.03348 4.00000
4.00000 7.03348 4.00000
4.00000 7.03348 4.00000
4.00000 7.03348 4.00000
4.00000 7.03348 4.00000
4.00000 7.03348 4.00000
4.00000 7.03348 4.00000
4.00000 7.03348 4.00000
4.00000 7.03348 4.00000
4.00000 7.03348 4.00000
4.00000 7.03348 4.00000
4.00000 7.03348 4.00000
4.00000 7.03348 4.00000
4.00000 7.03348 4.00000
4.00000 7.03348 4.00000
4.00000 7.03348 4.00000
4.00000 7.03348 4.00000
4.00000 7.03348 4.00000
4.00000 7.03348 4.00000
4.00000 7.03348 4.00000
4.00000 7.03348 4.00000
4.00000 7.03348 4.00000
4.00000 7.03348 4.00000
4.00000 7.03348 4.00000
4.00000 7.03348 4.00000
4.00000 7.03348 4.00000
4.00000 7.03348 4.00000
4.00000 7.03348 4.00000
4.00000 7.03348 4.00000
4.00000 7.03348 4.00000
4.00000 7.03348 4.00000
4.00000 7.03348 4.00000
4.00000 7.03348 4.00000
4.00000 7.03348 4.00000
4.00000 7.03348 4.00000
4.00000 7.03348 4.00000
4.00000 7.03348 4.00000
4.00000 7.03348 4.00000
4.00000 7.03348 4.00000
4.00000 7.03348 4.00000
4.00000 7.03348 4.00000
4.00000 7.03348 4.00000
4.00000 7.03348 4.00000
4.00000 7.03348 4.00000
4.00000 7.03348 4.00000
4.00000 7.03348 4.00000
4.00000 7.03348 4.00000
4.00000 7.03348 4.00000
4.00000 7.03348 4.00000
4.00000 7.03348 4.00000
4.00000 7.03348 4.00000
4.00000 7.03348 4.00000
4.00000 7.03348 4.00000
4.00000 7.03348 4.00000
4.00000 7.03348 4.00000
4.00000 7.03348 4.00000
4.00000 7.03348 4.00000
4.00000 7.03348 4.00000
4.00000 7.03348 4.00000
4.00000 7.03348 4.00000
4.00000 7.03348 4.00000
4.00000 7.03348 4.00000
4.00000 7.03348 4.00000
4.00000 7.03348 4.00000
4.00000 7.03348 4.00000
4.00000 7.03348 4.00000
4.00000 7.03348 4.00000
4.00000 7.03348 4.00000
4.00000 7.03348 4.00000
4.00000 7.03348 4.00000
4.00000 7.03348 4.00000
4.00000 7.03348 4.00000
4.00000 7.03348 4.00000
4.00000 7.03348 4.00000
4.00000 7.03348 4.00000
4.00000 7.03348 4.00000
4.00000 7.03348 4.00000
4.00000 7.03348 4.00000
4.00000 7.03348 4.00000
4.00000 7.03348 4.00000
4.00000 7.03348 4.00000
4.00000 7.03348 4.00000
4.00000 7.03348 4.00000
4.00000 7.03348 4.00000
4.00000 7.03348 4.00000
4.00000 7.03348 4.00000
4.00000 7.03348 4.00000
4.00000 7.03348 4.00000
4.00000 7.03348 4.00000
4.00000 7.03348 4.00000
4.00000 7.03348 4.00000
4.00000 7.03348 4.00000
4.00000 7.03348 4.00000
4.00000 7.03348 4.00000
4.00000 7.03348 4.00000
4.00000 7.03348 4.00000
4.00000 7.03348 4.00000
4.00000 7.03348 4.00000
4.00000 7.03348 4.00000
4.00000 7.03348 4.00000
4.00000 7.03348 4.00000
4.00000 7.03349 4.00000
4.00000 7.03349 4.00000
4.00000 7.03350 4.00000
4.00000 7.03348 4.00000
4.00000 7.03348 4.00000
4.00000 7.03348 4.00000
4.00000 7.03348 4.00000
4.00000 7.03348 4.00000
4.00000 7.03348 4.00000
4.00133 7.06583 4.00134
4.00411 7.13486 4.00411
4.00683 7.20418 4.00683
4.00949 7.27379 4.00949
4.01211 7.34366 4.01211
4.01468 7.41377 4.01468
4.01723 7.48409 4.01723
4.01977 7.55462 4.01977
4.02229 7.62532 4.02229
4.02481 7.69618 4.02481
4.02735 7.76717 4.02735
4.02990 7.83827 4.02990
4.03249 7.90946 4.03249
4.03512 7.98071 4.03512
4.03780 8.05198 4.03780
4.04057 8.12326 4.04057
4.04342 8.19449 4.04342
4.04638 8.26564 4.04638
4.04949 8.33665 4.04949
4.05276 8.40746 4.05275
4.05623 8.47800 4.05623
4.05994 8.54819 4.05994
4.06396 8.61790 4.06396
4.06834 8.68702 4.06834
4.07305 8.75560 4.07305
4.07808 8.82366 4.07808
4.08345 8.89118 4.08345
4.08916 8.95813 4.08916
4.09521 9.02451 4.09521
4.10161 9.09032 4.10161
4.10834 9.15558 4.10834
4.11538 9.22033 4.11538
4.12269 9.28467 4.12269
4.13022 9.34868 4.13022
4.13788 9.41254 4.13788
4.14557 9.47644 4.14557
4.15316 9.54064 4.15316
4.16049 9.60547 4.16049
4.16737 9.67132 4.16737
4.17355 9.73866 4.17355
4.17879 9.80799 4.17879
4.18281 9.87987 4.18281
4.18534 9.95481 4.18534
4.18619 10.03321 4.18619
4.18536 10.11506 4.18536
4.18384 10.19840 4.18384
4.18189 10.28268 4.18189
4.17954 10.36788 4.17954
4.17676 10.45400 4.17676
4.17355 10.54109 4.17355
4.16987 10.62920 4.16987
4.16567 10.71845 4.16567
4.16088 10.80896 4.16088
4.15540 10.90094 4.15540
4.14909 10.99465 4.14909
4.14175 11.09051 4.14175
4.13309 11.18909 4.13309
4.12265 11.29133 4.12265
4.10962 11.39882 4.10962
4.09257 11.51443 4.09257
4.06862 11.64392 4.06862
4.02774 11.80734 4.02774
4.00000 13.19120 4.00000
4.00000 13.19120 4.00000
4.00000 13.19120 4.00000
4.00000 13.19120 4.00000
4.00000 13.19120 4.00000
4.00000 13.19120 4.00000
4.00000 13.19120 4.00000
4.00000 13.19120 4.00000
4.00000 13.19119 4.00000
4.00000 13.19120 4.00000
4.00000 13.19120 4.00000
4.00000 13.19120 4.00000
4.00000 13.19120 4.00000
4.00000 13.19120 4.00000
4.00000 13.19120 4.00000
4.00000 13.19121 4.00000
4.01153 13.23909 4.01153
4.02299 13.29908 4.02299
4.03230 13.36343 4.03230
4.03951 13.43205 4.03951
4.04469 13.50480 4.04469
4.04791 13.58151 4.04791
4.04979 13.66097 4.04979
4.05157 13.74069 4.05157
4.05329 13.82057 4.05329
4.05498 13.90060 4.05498
4.05662 13.98076 4.05662
4.05823 14.06105 4.05823
4.05980 14.14146 4.05980
4.06135 14.22198 4.06135
4.06287 14.30260 4.06287
4.06437 14.38332 4.06437
4.06585 14.46414 4.06585
4.06730 14.54505 4.06730
4.06874 14.62605 4.06874
4.07017 14.70713 4.07017
4.07158 14.78829 4.07158
4.07297 14.86953 4.07297
4.07435 14.95084 4.07435
4.07572 15.03223 4.07572
4.07707 15.11371 4.07707
4.07822 15.19563 4.07822
4.07916 15.27803 4.07916
4.07989 15.36089 4.07989
4.08042 15.44418 4.08042
4.08078 15.52788 4.08078
4.08096 15.61196 4.08096
4.08099 15.69639 4.08099
4.08088 15.78116 4.08088
4.08063 15.86624 4.08063
4.08027 15.95161 4.08027
4.07979 16.03724 4.07979
4.07920 16.12312 4.07920
4.07853 16.20923 4.07853
4.07777 16.29555 4.07777
4.07693 16.38206 4.07693
4.07603 16.46875 4.07603
4.07506 16.55560 4.07506
4.07405 16.64260 4.07405
4.07298 16.72973 4.07298
4.07187 16.81699 4.07187
4.07073 16.90435 4.07073
4.06956 16.99181 4.06956
4.06836 17.07937 4.06836
4.06714 17.16700 4.06714
4.06590 17.25471 4.06590
4.06465 17.34248 4.06465
4.06339 17.43030 4.06339
4.06212 17.51817 4.06212
4.06085 17.60609 4.06085
4.05958 17.69404 4.05958
4.05831 17.78203 4.05831
4.05704 17.87004 4.05704
4.05578 17.95807 4.05578
4.05453 18.04612 4.05453
4.05329 18.13419 4.05329
4.05206 18.22227 4.05206
4.05084 18.31035 4.05084
4.04964 18.39844 4.04964
4.04845 18.48654 4.04845
4.04727 18.57463 4.04727
4.04611 18.66272 4.04611
4.04497 18.75081 4.04497
4.04385 18.83890 4.04385
4.04275 18.92698 4.04275
4.04166 19.01505 4.04166
4.04059 19.10311 4.04059
4.03955 19.19116 4.03955
4.03852 19.27921 4.03852
4.03751 19.36724 4.03751
4.03653 19.45527 4.03653
4.03556 19.54328 4.03556
4.03461 19.63128 4.03461
4.03369 19.71927 4.03369
4.03278 19.80724 4.03278
4.03189 19.89521 4.03189
4.03103 19.98316 4.03103
4.03018 20.07110 4.03018
4.02935 20.15903 4.02935
4.02854 20.24695 4.02854
4.02775 20.33485 4.02775
4.02698 20.42275 4.02698
4.02623 20.51063 4.02623
4.02549 20.59850 4.02550
4.02478 20.68636 4.02478
4.02408 20.77421 4.02408
4.02340 20.86205 4.02340
4.02274 20.94988 4.02274
4.02209 21.03771 4.02209
4.02147 21.12552 4.02147
4.02085 21.21333 4.02085
4.02025 21.30112 4.02026
4.01967 21.38891 4.01967
4.01911 21.47670 4.01911
4.01856 21.56447 4.01855
4.01802 21.65224 4.01802
4.01750 21.74000 4.01750
4.01699 21.82776 4.01699
4.01650 21.91552 4.01650
4.01602 22.00326 4.01602
4.01555 22.09101 4.01555
4.01509 22.17875 4.01509
4.01465 22.26649 4.01465
4.01422 22.35423 4.01422
4.01380 22.44196 4.01380
4.01340 22.52969 4.01340
4.01300 22.61742 4.01300
4.01262 22.70515 4.01262
4.01224 22.79287 4.01224
4.01188 22.88060 4.01188
4.01153 22.96833 4.01153
4.01119 23.05606 4.01118
4.01086 23.14378 4.01086
4.01053 23.23151 4.01053
4.01022 23.31924 4.01022
4.00991 23.40697 4.00991
4.00962 23.49470 4.00962
4.00933 23.58244 4.00933
4.00905 23.67018 4.00905
4.00878 23.75792 4.00878
4.00852 23.84566 4.00852
4.00826 23.93341 4.00826
4.00801 24.02116 4.00801
4.00777 24.10891 4.00777
4.00754 24.19667 4.00754
4.00731 24.28443 4.00731
4.00709 24.37220 4.00709
4.00688 24.45997 4.00688
4.00667 24.54775 4.00667
4.00647 24.63553 4.00647

Angle 0.603365 0.974374

4.00000 7.03348 4.00000
4.00000 7.03348 4.00000
4.00000 7.03348 4.00000
4.00000 7.03348 4.00000
4.00000 7.03348 4.00000
4.00000 7.03348 4.00000
4.00000 7.03348 4.00000
4.00000 7.03348 4.00000
4.00000 7.03348 4.00000
4.00000 7.03348 4.00000
4.00000 7.03348 4.00000
4.00000 7.03348 4.00000
4.00000 7.03348 4.00000
4.00000 7.03348 4.00000
4.00000 7.03348 4.00000
4.00000 7.03348 4.00000
4.00000 7.03348 4.00000
4.00000 7.03348 4.00000
4.00000 7.03348 4.00000
4.00000 7.03348 4.00000
4.00000 7.03348 4.00000
4.00000 7.03348 4.00000
4.00000 7.03348 4.00000
4.00000 7.03348 4.00000
4.00000 7.03348 4.00000
4.00000 7.03348 4.00000
4.00000 7.03348 4.00000
4.00000 7.03348 4.00000
4.00000 7.03348 4.00000
4.00000 7.03348 4.00000
4.00000 7.03348 4.00000
4.00000 7.03348 4.00000
4.00000 7.03348 4.00000
4.00000 7.03348 4.00000
4.00000 7.03348 4.00000
4.00000 7.03347 4.00000
4.00000 7.03347 4.00000
4.00000 7.03347 4.00000
4.00000 7.03347 4.00000
4.00000 7.03347 4.00000
4.00000 7.03347 4.00000
4.00000 7.03347 4.00000
4.00000 7.03347 4.00000
4.00000 7.03347 4.00000
4.00000 7.03347 4.00000
4.00000 7.03347 4.00000
4.00000 7.03347 4.00000
4.00000 7.03347 4.00000
4.00000 7.03347 4.00000
4.00000 7.03347 4.00000
4.00000 7.03347 4.00000
4.00000 7.03347 4.00000
4.00000 7.03347 4.00000
4.00000 7.03347 4.00000
4.00000 7.03347 4.00000
4.00000 7.03347 4.00000
4.00000 7.03347 4.00000
4.00000 7.03347 4.00000
4.00000 7.03347 4.00000
4.00000 7.03347 4.00000
4.00000 7.03347 4.00000
4.00000 7.03347 4.00000
4.00000 7.03347 4.00000
4.00000 7.03347 4.00000
4.00000 7.03347 4.00000
4.00000 7.03347 4.00000
4.00000 7.03347 4.00000
4.00000 7.03347 4.00000
4.00000 7.03347 4.00000
4.00000 7.03347 4.00000
4.00000 7.03347 4.00000
4.00000 7.03348 4.00000
4.00000 7.03348 4.00000
4.00000 7.03348 4.00000
4.00000 7.03348 4.00000
4.00000 7.03348 4.00000
4.00000 7.03348 4.00000
4.00000 7.03348 4.00000
4.00000 7.03348 4.00000
4.00000 7.03348 4.00000
4.00000 7.03348 4.00000
4.00000 7.03348 4.00000
4.00000 7.03348 4.00000
4.00000 7.03348 4.00000
4.00000 7.03348 4.00000
4.00000 7.03348 4.00000
4.00000 7.03348 4.00000
4.00000 7.03348 4.00000
4.00000 7.03348 4.00000
4.00000 7.03348 4.00000
4.00000 7.03348 4.00000
4.00000 7.03348 4.00000
4.00000 7.03348 4.00000
4.00000 7.03348 4.00000
4.00000 7.03348 4.00000
4.00000 7.03348 4.00000
4.00000 7.03348 4.00000
4.00000 7.03347 4.00000
4.00000 7.03347 4.00000
4.00000 7.03347 4.00000
4.00000 7.03347 4.00000
4.00000 7.03347 4.00000
4.00000 7.03347 4.00000
4.00000 7.03348 4.00000
4.00000 7.03348 4.00000
4.00000 7.03348 4.00000
4.00000 7.03348 4.00000
4.00000 7.03348 4.00000
4.00000 7.03348 4.00000
4.00000 7.03348 4.00000
4.00000 7.03348 4.00000
4.00000 7.03348 4.00000
4.00000 7.03348 4.00000
4.00000 7.03348 4.00000
4.00000 7.03348 4.00000
4.00000 7.03348 4.00000
4.00000 7.03348 4.00000
4.00000 7.03348 4.00000
4.00000 7.03348 4.00000
4.00000 7.03348 4.00000
4.00000 7.03348 4.00000
4.00000 7.03348 4.00000
4.00000 7.03348 4.00000
4.00000 7.03348 4.00000
4.00000 7.03348 4.00000
4.00000 7.03348 4.00000
4.00000 7.03348 4.00000
4.00000 7.03348 4.00000
4.00000 7.03348 4.00000
4.00000 7.03348 4.00000
4.00000 7.03348 4.00000
4.00000 7.03348 4.00000
4.00000 7.03348 4.00000
4.00000 7.03348 4.00000
4.00000 7.03348 4.00000
4.00000 7.03348 4.00000
4.00000 7.03348 4.00000
4.00000 7.03348 4.00000
4.00000 7.03348 4.00000
4.00000 7.03348 4.00000
4.00000 7.03348 4.00000
4.00000 7.03348 4.00000
4.00000 7.03348 4.00000
4.00000 7.03348 4.00000
4.00000 7.03348 4.00000
4.00000 7.03348 4.00000
4.00000 7.03348 4.00000
4.00000 7.03348 4.00000
4.00000 7.03349 4.00000
4.00000 7.03348 4.00000
4.00000 7.03348 4.00000
4.00000 7.03348 4.00000
4.00000 7.03348 4.00000
4.00000 7.03348 4.00000
4.00000 7.03348 4.00000
4.00000 7.03348 4.00000
4.00000 7.03348 4.00000
4.00000 7.03348 4.00000
4.00000 7.03348 4.00000
4.00000 7.03352 4.00000
4.00000 7.03349 4.00000
4.00229 7.08932 4.00229
4.00534 7.16598 4.00534
4.00832 7.24289 4.00832
4.01123 7.32002 4.01123
4.01408 7.39734 4.01408
4.01690 7.47482 4.01690
4.01969 7.55244 4.01969
4.02246 7.63017 4.02246
4.02523 7.70799 4.02523
4.02802 7.78586 4.02802
4.03082 7.86376 4.03082
4.03367 7.94166 4.03367
4.03657 8.01953 4.03657
4.03955 8.09731 4.03955
4.04263 8.17498 4.04263
4.04583 8.25247 4.04583
4.04918 8.32972 4.04918
4.05272 8.40667 4.05272
4.05649 8.48322 4.05649
4.06055 8.55926 4.06055
4.06498 8.63464 4.06498
4.06983 8.70924 4.06983
4.07504 8.78317 4.07504
4.08064 8.85641 4.08064
4.08662 8.92893 4.08662
4.09300 9.00073 4.09300
4.09977 9.07179 4.09977
4.10693 9.14215 4.10693
4.11444 9.21185 4.11444
4.12227 9.28099 4.12227
4.13034 9.34969 4.13034
4.13855 9.41816 4.13855
4.14679 9.48665 4.14679
4.15488 9.55549 4.15488
4.16261 9.62509 4.16261
4.16974 9.69595 4.16974
4.17597 9.76866 4.17597
4.18098 9.84387 4.18098
4.18445 9.92222 4.18445
4.18608 10.00427 4.18608
4.18573 10.09036 4.18573
4.18423 10.17878 4.18423
4.18225 10.26821 4.18225
4.17981 10.35862 4.17981
4.17690 10.45002 4.17690
4.17350 10.54244 4.17350
4.16957 10.63596 4.16957
4.16505 10.73070 4.16505
4.15986 10.82684 4.15986
4.15387 10.92461 4.15388
4.14691 11.02437 4.14691
4.13872 11.12664 4.13872
4.12889 11.23223 4.12889
4.11674 11.34248 4.11674
4.10105 11.45989 4.10105
4.07950 11.58904 4.07950
4.04563 11.74286 4.04563
4.00000 13.19120 4.00000
4.00000 13.19120 4.00000
4.00000 13.19120 4.00000
4.00000 13.19120 4.00000
4.00000 13.19120 4.00000
4.00000 13.19120 4.00000
4.00000 13.19120 4.00000
4.00000 13.19120 4.00000
4.00000 13.19120 4.00000
4.00000 13.19120 4.00000
4.00000 13.19120 4.00000
4.00000 13.19120 4.00000
4.00000 13.19120 4.00000
4.00000 13.19120 4.00000
4.00000 13.19120 4.00000
4.00431 13.20800 4.00431
4.01749 13.26834 4.01749
4.02831 13.33345 4.02831
4.03679 13.40324 4.03679
4.04302 13.47758 4.04302
4.04708 13.55629 4.04708
4.04929 13.63873 4.04929
4.05115 13.72188 4.05115
4.05296 13.80517 4.05296
4.05473 13.88859 4.05473
4.05644 13.97213 4.05644
4.05812 14.05578 4.05812
4.05976 14.13953 4.05976
4.06137 14.22336 4.06137
4.06296 14.30729 4.06296
4.06452 14.39128 4.06452
4.06605 14.47536 4.06605
4.06756 14.55950 4.06756
4.06906 14.64371 4.06906
4.07053 14.72798 4.07053
4.07199 14.81231 4.07199
4.07343 14.89669 4.07343
4.07486 14.98113 4.07486
4.07628 15.06562 4.07628
4.07761 15.15031 4.07761
4.07870 15.23550 4.07870
4.07956 15.32117 4.07956
4.08021 15.40730 4.08021
4.08065 15.49386 4.08065
4.08091 15.58081 4.08091
4.08100 15.66812 4.08100
4.08093 15.75578 4.08093
4.08071 15.84375 4.08071
4.08036 15.93200 4.08036
4.07989 16.02053 4.07989
4.07930 16.10930 4.07930
4.07862 16.19830 4.07862
4.07784 16.28749 4.07784
4.07698 16.37688 4.07698
4.07605 16.46642 4.07605
4.07506 16.55612 4.07506
4.07401 16.64596 4.07401
4.07290 16.73591 4.07290
4.07176 16.82597 4.07176
4.07057 16.91613 4.07057
4.06936 17.00637 4.06936
4.06812 17.09668 4.06812
4.06686 17.18705 4.06686
4.06558 17.27748 4.06558
4.06428 17.36795 4.06428
4.06298 17.45845 4.06298
4.06168 17.54899 4.06168
4.06037 17.63955 4.06037
4.05906 17.73012 4.05906
4.05775 17.82071 4.05775
4.05645 17.91130 4.05645
4.05516 18.00190 4.05516
4.05388 18.09250 4.05388
4.05260 18.18309 4.05261
4.05135 18.27367 4.05135
4.05010 18.36424 4.05010
4.04887 18.45479 4.04887
4.04766 18.54533 4.04766
4.04646 18.63585 4.04646
4.04529 18.72635 4.04529
4.04413 18.81683 4.04413
4.04299 18.90729 4.04299
4.04187 18.99772 4.04187
4.04077 19.08812 4.04077
4.03970 19.17850 4.03970
4.03864 19.26886 4.03864
4.03760 19.35918 4.03761
4.03659 19.44948 4.03659
4.03560 19.53975 4.03560
4.03463 19.62999 4.03463
4.03368 19.72021 4.03368
4.03275 19.81040 4.03275
4.03184 19.90055 4.03184
4.03095 19.99069 4.03095
4.03009 20.08079 4.03009
4.02924 20.17087 4.02924
4.02842 20.26091 4.02842
4.02761 20.35094 4.02761
4.02683 20.44093 4.02683
4.02606 20.53090 4.02606
4.02531 20.62085 4.02531
4.02459 20.71077 4.02459
4.02388 20.80067 4.02388
4.02319 20.89054 4.02319
4.02251 20.98039 4.02251
4.02186 21.07021 4.02186
4.02122 21.16002 4.02122
4.02060 21.24980 4.02060
4.02000 21.33956 4.02000
4.01941 21.42930 4.01941
4.01884 21.51903 4.01884
4.01828 21.60873 4.01828
4.01774 21.69841 4.01774
4.01722 21.78808 4.01722
4.01671 21.87772 4.01671
4.01621 21.96735 4.01621
4.01573 22.05697 4.01573
4.01526 22.14657 4.01526
4.01480 22.23615 4.01480
4.01436 22.32572 4.01436
4.01393 22.41528 4.01393
4.01351 22.50482 4.01351
4.01310 22.59435 4.01310
4.01271 22.68386 4.01271
4.01233 22.77336 4.01233
4.01195 22.86286 4.01195
4.01159 22.95234 4.01159
4.01124 23.04181 4.01124
4.01090 23.13127 4.01090
4.01057 23.22072 4.01057
4.01025 23.31016 4.01025
4.00994 23.39959 4.00994
4.00964 23.48902 4.00964
4.00934 23.57843 4.00934
4.00906 23.66784 4.00906
4.00878 23.75724 4.00878
4.00851 23.84664 4.00851
4.00825 23.93602 4.00825
4.00800 24.02541 4.00800
4.00776 24.11478 4.00776
4.00752 24.20416 4.00752
4.00729 24.29352 4.00729
4.00706 24.38288 4.00706
4.00685 24.47224 4.00685
4.00664 24.56160 4.00664
4.00643 24.65095 4.00643
4.00623 24.74029 4.00623
4.00604 24.82964 4.00604
4.00586 24.91898 4.00586
4.00568 25.00831 4.00568
4.00550 25.09765 4.00550
4.00533 25.18699 4.00533
4.00517 25.27631 4.00517
4.00501 25.36564 4.00501
4.00485 25.45497 4.00485
4.00470 25.54430 4.00470
4.00456 25.63363 4.00456
4.00442 25.72295 4.00441
4.00428 25.81228 4.00428
4.00415 25.90160 4.00415
4.00402 25.99092 4.00402
4.00389 26.08025 4.00389
4.00377 26.16957 4.00377
4.00365 26.25890 4.00366
4.00354 26.34823 4.00354
4.00343 26.43755 4.00343
4.00333 26.52688 4.00333
4.00322 26.61621 4.00322
4.00312 26.70554 4.00312
4.00302 26.79487 4.00303
4.00293 26.88420 4.00293
4.00284 26.97353 4.00284
4.00275 27.06287 4.00275
4.00266 27.15220 4.00267
4.00258 27.24154 4.00258
4.00250 27.33088 4.00250
4.00243 27.42022 4.00242
4.00235 27.50957 4.00235
4.00228 27.59892 4.00228
4.00220 27.68827 4.00221
4.00214 27.77762 4.00213
4.00207 27.86697 4.00207

Angle 0.539500 1.537238

4.00000 7.03348 4.00000
4.00000 7.03348 4.00000
4.00000 7.03348 4.00000
4.00000 7.03348 4.00000
4.00000 7.03348 4.00000
4.00000 7.03348 4.00000
4.00000 7.03348 4.00000
4.00000 7.03348 4.00000
4.00000 7.03348 4.00000
4.00000 7.03348 4.00000
4.00000 7.03348 4.00000
4.00000 7.03348 4.00000
4.00000 7.03348 4.00000
4.00000 7.03348 4.00000
4.00000 7.03348 4.00000
4.00000 7.03348 4.00000
4.00000 7.03348 4.00000
4.00000 7.03348 4.00000
4.00000 7.03348 4.00000
4.00000 7.03348 4.00000
4.00000 7.03348 4.00000
4.00000 7.03348 4.00000
4.00000 7.03348 4.00000
4.00000 7.03348 4.00000
4.00000 7.03348 4.00000
4.00000 7.03348 4.00000
4.00000 7.03348 4.00000
4.00000 7.03348 4.00000
4.00000 7.03348 4.00000
4.00000 7.03348 4.00000
4.00000 7.03348 4.00000
4.00000 7.03348 4.00000
4.00000 7.03348 4.00000
4.00000 7.03348 4.00000
4.00000 7.03348 4.00000
4.00000 7.03348 4.00000
4.00000 7.03348 4.00000
4.00000 7.03348 4.00000
4.00000 7.03348 4.00000
4.00000 7.03348 4.00000
4.00000 7.03348 4.00000
4.00000 7.03348 4.00000
4.00000 7.03348 4.00000
4.00000 7.03348 4.00000
4.00000 7.03348 4.00000
4.00000 7.03348 4.00000
4.00000 7.03348 4.00000
4.00000 7.03348 4.00000
4.00000 7.03348 4.00000
4.00000 7.03348 4.00000
4.00000 7.03348 4.00000
4.00000 7.03348 4.00000
4.00000 7.03348 4.00000
4.00000 7.03348 4.00000
4.00000 7.03348 4.00000
4.00000 7.03348 4.00000
4.00000 7.03348 4.00000
4.00000 7.03348 4.00000
4.00000 7.03348 4.00000
4.00000 7.03348 4.00000
4.00000 7.03348 4.00000
4.00000 7.03348 4.00000
4.00000 7.03348 4.00000
4.00000 7.03348 4.00000
4.00000 7.03348 4.00000
4.00000 7.03348 4.00000
4.00000 7.03348 4.00000
4.00000 7.03348 4.00000
4.00000 7.03348 4.00000
4.00000 7.03348 4.00000
4.00000 7.03348 4.00000
4.00000 7.03348 4.00000
4.00000 7.03348 4.00000
4.00000 7.03348 4.00000
4.00000 7.03348 4.00000
4.00000 7.03348 4.00000
4.00000 7.03348 4.00000
4.00000 7.03348 4.00000
4.00000 7.03348 4.00000
4.00000 7.03348 4.00000
4.00000 7.03348 4.00000
4.00000 7.03348 4.00000
4.00000 7.03348 4.00000
4.00000 7.03348 4.00000
4.00000 7.03348 4.00000
4.00000 7.03348 4.00000
4.00000 7.03348 4.00000
4.00000 7.03348 4.00000
4.00000 7.03348 4.00000
4.00000 7.03348 4.00000
4.00000 7.03348 4.00000
4.00000 7.03348 4.00000
4.00000 7.03348 4.00000
4.00000 7.03348 4.00000
4.00000 7.03348 4.00000
4.00000 7.03349 4.00000
4.00000 7.03348 4.00000
4.00000 7.03348 4.00000
4.00000 7.03348 4.00000
4.00000 7.03348 4.00000
4.00000 7.03348 4.00000
4.00000 7.03348 4.00000
4.00000 7.03348 4.00000
4.00000 7.03348 4.00000
4.00000 7.03348 4.00000
4.00000 7.03348 4.00000
4.00000 7.03348 4.00000
4.00000 7.03348 4.00000
4.00000 7.03348 4.00000
4.00000 7.03348 4.00000
4.00000 7.03348 4.00000
4.00000 7.03348 4.00000
4.00000 7.03348 4.00000
4.00000 7.03348 4.00000
4.00000 7.03348 4.00000
4.00000 7.03348 4.00000
4.00000 7.03348 4.00000
4.00000 7.03348 4.00000
4.00000 7.03348 4.00000
4.00000 7.03348 4.00000
4.00000 7.03348 4.00000
4.00000 7.03348 4.00000
4.00000 7.03348 4.00000
4.00000 7.03348 4.00000
4.00000 7.03348 4.00000
4.00000 7.03348 4.00000
4.00000 7.03348 4.00000
4.00000 7.03348 4.00000
4.00000 7.03348 4.00000
4.00000 7.03348 4.00000
4.00000 7.03348 4.00000
4.00000 7.03348 4.00000
4.00000 7.03348 4.00000
4.00000 7.03348 4.00000
4.00000 7.03348 4.00000
4.00000 7.03348 4.00000
4.00000 7.03348 4.00000
4.00000 7.03348 4.00000
4.00000 7.03348 4.00000
4.00000 7.03348 4.00000
4.00000 7.03348 4.00000
4.00000 7.03348 4.00000
4.00000 7.03346 4.00000
4.00000 7.03346 4.00000
4.00000 7.03346 4.00000
4.00000 7.03346 4.00000
4.00000 7.03346 4.00000
4.00000 7.03346 4.00000
4.00000 7.03346 4.00000
4.00000 7.03346 4.00000
4.00000 7.03346 4.00000
4.00000 7.03348 4.00000
4.00000 7.03348 4.00000
4.00000 7.03348 4.00000
4.00000 7.03348 4.00000
4.00000 7.03348 4.00000
4.00000 7.03348 4.00000
4.00000 7.03348 4.00000
4.00000 7.03348 4.00000
4.00000 7.03348 4.00000
4.00000 7.03348 4.00000
4.00000 7.03348 4.00000
4.00000 7.03348 4.00000
4.00000 7.03348 4.00000
4.00000 7.03348 4.00000
4.00000 7.03348 4.00000
4.00000 7.03348 4.00000
4.00000 7.03348 4.00000
4.00000 7.03348 4.00000
4.00000 7.03348 4.00000
4.00000 7.03348 4.00000
4.00000 7.03348 4.00000
4.00000 7.03348 4.00000
4.00000 7.03348 4.00000
4.00000 7.03348 4.00000
4.00000 7.03348 4.00000
4.00000 7.03348 4.00000
4.00000 7.03347 4.00000
4.00000 7.03347 4.00000
4.00000 7.03347 4.00000
4.00000 7.03347 4.00000
4.00000 7.03347 4.00000
4.00000 7.03347 4.00000
4.00000 7.03347 4.00000
4.00000 7.03347 4.00000
4.00000 7.03347 4.00000
4.00000 7.03347 4.00000
4.00000 7.03346 4.00000
4.00000 7.03346 4.00000
4.00000 7.03348 4.00000
4.00000 7.03348 4.00000
4.00000 7.03348 4.00000
4.00000 7.03348 4.00000
4.00000 7.03348 4.00000
4.00000 7.03348 4.00000
4.00000 7.03348 4.00000
4.00000 7.03348 4.00000
4.00000 7.03348 4.00000
4.00000 7.03348 4.00000
4.00000 7.03348 4.00000
4.00000 7.03348 4.00000
4.00000 7.03348 4.00000
4.00000 7.03348 4.00000
4.00000 7.03348 4.00000
4.00000 7.03348 4.00000
4.00000 7.03348 4.00000
4.00000 7.03348 4.00000
4.00000 7.03348 4.00000
4.00000 7.03349 4.00000
4.00000 7.03349 4.00000
4.00000 7.03348 4.00000
4.00000 7.03348 4.00000
4.00000 7.03348 4.00000
4.00000 7.03348 4.00000
4.00000 7.03353 4.00000
4.00236 7.09114 4.00236
4.00524 7.16333 4.00524
4.00805 7.23580 4.00805
4.01080 7.30852 4.01080
4.01350 7.38146 4.01350
4.01617 7.45461 4.01617
4.01881 7.52795 4.01881
4.02144 7.60144 4.02144
4.02406 7.67507 4.02406
4.02669 7.74881 4.02669
4.02934 7.82264 4.02934
4.03201 7.89653 4.03201
4.03473 7.97046 4.03473
4.03751 8.04438 4.03751
4.04037 8.11827 4.04037
4.04332 8.19208 4.04332
4.04639 8.26577 4.04639
4.04960 8.33928 4.04960
4.05300 8.41254 4.05300
4.05661 8.48547 4.05661
4.06049 8.55798 4.06049
4.06469 8.62994 4.06469
4.06929 8.70122 4.06929
4.07422 8.77192 4.07422
4.07950 8.84203 4.07950
4.08514 8.91153 4.08514
4.09114 8.98040 4.09114
4.09751 9.04863 4.09751
4.10424 9.11623 4.10424
4.11131 9.18325 4.11131
4.11869 9.24974 4.11869
4.12633 9.31580 4.12633
4.13415 9.38158 4.13415
4.14206 9.44727 4.14206
4.14994 9.51313 4.14994
4.15761 9.57948 4.15761
4.16488 9.64671 4.16488
4.17152 9.71529 4.17152
4.17725 9.78577 4.17725
4.18178 9.85873 4.18178
4.18483 9.93474 4.18483
4.18615 10.01429 4.18615
4.18563 10.09759 4.18563
4.18415 10.18288 4.18415
4.18223 10.26914 4.18223
4.17988 10.35633 4.17988
4.17709 10.44448 4.17709
4.17384 10.53361 4.17384
4.17011 10.62379 4.17011
4.16583 10.71512 4.16583
4.16094 10.80775 4.16094
4.15533 10.90190 4.15533
4.14886 10.99784 4.14886
4.14130 11.09602 4.14130
4.13234 11.19707 4.13234
4.12146 11.30202 4.12146
4.10775 11.41268 4.10775
4.08960 11.53232 4.08960
4.06345 11.66799 4.06345
4.01458 11.84919 4.01458
4.00000 13.19120 4.00000
4.00000 13.19120 4.00000
4.00000 13.19120 4.00000
4.00000 13.19120 4.00000
4.00000 13.19120 4.00000
4.00000 13.19120 4.00000
4.00000 13.19120 4.00000
4.00000 13.19120 4.00000
4.00000 13.19121 4.00000
4.00000 13.19120 4.00000
4.00000 13.19120 4.00000
4.00000 13.19120 4.00000
4.00000 13.19120 4.00000
4.00000 13.19120 4.00000
4.00000 13.19120 4.00000
4.00511 13.21123 4.00511
4.01784 13.27017 4.01784
4.02833 13.33364 4.02833
4.03662 13.40157 4.03662
4.04276 13.47384 4.04276
4.04685 13.55028 4.04685
4.04910 13.63043 4.04910
4.05092 13.71147 4.05092
4.05270 13.79267 4.05270
4.05442 13.87401 4.05442
4.05610 13.95549 4.05610
4.05775 14.03708 4.05775
4.05936 14.11878 4.05936
4.06094 14.20059 4.06094
4.06249 14.28250 4.06249
4.06402 14.36451 4.06402
4.06553 14.44660 4.06553
4.06701 14.52877 4.06701
4.06848 14.61103 4.06848
4.06993 14.69335 4.06993
4.07136 14.77576 4.07136
4.07278 14.85823 4.07278
4.07418 14.94077 4.07418
4.07557 15.02337 4.07557
4.07695 15.10606 4.07695
4.07814 15.18914 4.07814
4.07910 15.27271 4.07910
4.07985 15.35676 4.07985
4.08040 15.44123 4.08040
4.08077 15.52612 4.08077
4.08096 15.61139 4.08096
4.08099 15.69702 4.08099
4.08088 15.78297 4.08088
4.08062 15.86924 4.08062
4.08024 15.95579 4.08024
4.07975 16.04261 4.07975
4.07915 16.12967 4.07915
4.07846 16.21695 4.07846
4.07769 16.30444 4.07769
4.07683 16.39211 4.07683
4.07591 16.47996 4.07591
4.07492 16.56796 4.07492
4.07388 16.65610 4.07388
4.07280 16.74437 4.07280
4.07167 16.83275 4.07167
4.07051 16.92124 4.07051
4.06931 17.00982 4.06931
4.06809 17.09848 4.06809
4.06685 17.18721 4.06685
4.06560 17.27600 4.06560
4.06433 17.36485 4.06433
4.06305 17.45374 4.06305
4.06177 17.54268 4.06177
4.06048 17.63165 4.06048
4.05919 17.72065 4.05919
4.05791 17.80967 4.05791
4.05663 17.89871 4.05663
4.05536 17.98776 4.05536
4.05410 18.07682 4.05410
4.05285 18.16589 4.05285
4.05161 18.25496 4.05161
4.05038 18.34404 4.05038
4.04917 18.43310 4.04917
4.04797 18.52217 4.04797
4.04679 18.61122 4.04679
4.04563 18.70027 4.04563
4.04448 18.78931 4.04448
4.04335 18.87833 4.04335
4.04225 18.96735 4.04225
4.04116 19.05634 4.04116
4.04009 19.14533 4.04009
4.03904 19.23429 4.03904
4.03801 19.32324 4.03801
4.03701 19.41217 4.03701
4.03602 19.50109 4.03602
4.03505 19.58998 4.03505
4.03411 19.67886 4.03411
4.03318 19.76772 4.03318
4.03228 19.85656 4.03228
4.03140 19.94539 4.03140
4.03053 20.03419 4.03053
4.02969 20.12298 4.02969
4.02886 20.21175 4.02886
4.02806 20.30050 4.02806
4.02727 20.38923 4.02727
4.02651 20.47795 4.02651
4.02576 20.56665 4.02576
4.02503 20.65534 4.02503
4.02432 20.74400 4.02432
4.02363 20.83266 4.02363
4.02296 20.92129 4.02296
4.02230 21.00992 4.02230
4.02166 21.09852 4.02166
4.02103 21.18712 4.02103
4.02043 21.27570 4.02043
4.01984 21.36427 4.01984
4.01926 21.45283 4.01926
4.01870 21.54137 4.01870
4.01815 21.62990 4.01815
4.01762 21.71843 4.01762
4.01711 21.80694 4.01711
4.01661 21.89544 4.01661
4.01612 21.98393 4.01612
4.01564 22.07242 4.01565
4.01518 22.16089 4.01518
4.01474 22.24936 4.01474
4.01430 22.33782 4.01430
4.01388 22.42627 4.01388
4.01347 22.51472 4.01347
4.01306 22.60316 4.01306

Angle 0.330442 0.295538

4.00000 7.03348 4.00000
4.00000 7.03348 4.00000
4.00000 7.03348 4.00000
4.00000 7.03348 4.00000
4.00000 7.03348 4.00000
4.00000 7.03348 4.00000
4.00000 7.03348 4.00000
4.00000 7.03348 4.00000
4.00000 7.03348 4.00000
4.00000 7.03348 4.00000
4.00000 7.03348 4.00000
4.00000 7.03348 4.00000
4.00000 7.03348 4.00000
4.00000 7.03348 4.00000
4.00000 7.03348 4.00000
4.00000 7.03348 4.00000
4.00000 7.03348 4.00000
4.00000 7.03348 4.00000
4.00000 7.03348 4.00000
4.00000 7.03348 4.00000
4.00000 7.03348 4.00000
4.00000 7.03348 4.00000
4.00000 7.03348 4.00000
4.00000 7.03348 4.00000
4.00000 7.03348 4.00000
4.00000 7.03348 4.00000
4.00000 7.03348 4.00000
4.00000 7.03348 4.00000
4.00000 7.03348 4.00000
4.00000 7.03348 4.00000
4.00000 7.03348 4.00000
4.00000 7.03348 4.00000
4.00000 7.03348 4.00000
4.00000 7.03348 4.00000
4.00000 7.03348 4.00000
4.00000 7.03348 4.00000
4.00000 7.03348 4.00000
4.00000 7.03348 4.00000
4.00000 7.03348 4.00000
4.00000 7.03348 4.00000
4.00000 7.03348 4.00000
4.00000 7.03348 4.00000
4.00000 7.03348 4.00000
4.00000 7.03348 4.00000
4.00000 7.03348 4.00000
4.00000 7.03348 4.00000
4.00000 7.03348 4.00000
4.00000 7.03348 4.00000
4.00000 7.03348 4.00000
4.00000 7.03348 4.00000
4.00000 7.03348 4.00000
4.00000 7.03348 4.00000
4.00000 7.03348 4.00000
4.00000 7.03348 4.00000
4.00000 7.03348 4.00000
4.00000 7.03348 4.00000
4.00000 7.03348 4.00000
4.00000 7.03348 4.00000
4.00000 7.03348 4.00000
4.00000 7.03348 4.00000
4.00000 7.03348 4.00000
4.00000 7.03348 4.00000
4.00000 7.03348 4.00000
4.00000 7.03348 4.00000
4.00000 7.03348 4.00000
4.00000 7.03348 4.00000
4.00000 7.03348 4.00000
4.00000 7.03348 4.00000
4.00000 7.03348 4.00000
4.00000 7.03348 4.00000
4.00000 7.03348 4.00000
4.00000 7.03348 4.00000
4.00000 7.03348 4.00000
4.00000 7.03348 4.00000
4.00000 7.03348 4.00000
4.00000 7.03348 4.00000
4.00000 7.03348 4.00000
4.00000 7.03348 4.00000
4.00000 7.03348 4.00000
4.00000 7.03348 4.00000
4.00000 7.03348 4.00000
4.00000 7.03348 4.00000
4.00000 7.03348 4.00000
4.00000 7.03348 4.00000
4.00000 7.03348 4.00000
4.00000 7.03348 4.00000
4.00000 7.03348 4.00000
4.00000 7.03348 4.00000
4.00000 7.03348 4.00000
4.00000 7.03348 4.00000
4.00000 7.03348 4.00000
4.00000 7.03348 4.00000
4.00000 7.03348 4.00000
4.00000 7.03348 4.00000
4.00000 7.03348 4.00000
4.00000 7.03348 4.00000
4.00000 7.03348 4.00000
4.00000 7.03348 4.00000
4.00000 7.03348 4.00000
4.00000 7.03348 4.00000
4.00000 7.03348 4.00000
4.00000 7.03348 4.00000
4.00000 7.03348 4.00000
4.00000 7.03348 4.00000
4.00000 7.03348 4.00000
4.00000 7.03348 4.00000
4.00000 7.03348 4.00000
4.00000 7.03348 4.00000
4.00000 7.03348 4.00000
4.00000 7.03348 4.00000
4.00000 7.03348 4.00000
4.00000 7.03350 4.00000
4.00000 7.03349 4.00000
4.00147 7.06918 4.00147
4.00467 7.14881 4.00467
4.00777 7.22867 4.00777
4.01080 7.30873 4.01080
4.01378 7.38896 4.01378
4.01670 7.46933 4.01670
4.01959 7.54981 4.01959
4.02247 7.63038 4.02247
4.02534 7.71101 4.02534
4.02822 7.79166 4.02822
4.03113 7.87231 4.03113
4.03408 7.95291 4.03408
4.03710 8.03343 4.03710
4.04020 8.11383 4.04020
4.04340 8.19406 4.04340
4.04674 8.27406 4.04674
4.05026 8.35375 4.05026
4.05399 8.43306 4.05399
4.05798 8.51187 4.05798
4.06231 8.59006 4.06231
4.06706 8.66745 4.06706
4.07223 8.74403 4.07223
4.07779 8.81986 4.07779
4.08376 8.89493 4.08376
4.09014 8.96920 4.09014
4.09694 9.04268 4.09694
4.10415 9.11536 4.10415
4.11175 9.18730 4.11175
4.11970 9.25859 4.11970
4.12792 9.32934 4.12792
4.13634 9.39976 4.13634
4.14481 9.47009 4.14481
4.15317 9.54069 4.15317
4.16120 9.61196 4.16120
4.16865 9.68444 4.16865
4.17520 9.75875 4.17520
4.18051 9.83556 4.18051
4.18423 9.91560 4.18423
4.18604 9.99946 4.18604
4.18577 10.08753 4.18577
4.18425 10.17814 4.18425
4.18222 10.26978 4.18222
4.17970 10.36243 4.17970
4.17669 10.45609 4.17669
4.17317 10.55080 4.17317
4.16909 10.64666 4.16909
4.16438 10.74379 4.16438
4.15896 10.84238 4.15896
4.15268 10.94272 4.15268
4.14534 11.04520 4.14534
4.13663 11.15043 4.13664
4.12610 11.25937 4.12610
4.11289 11.37366 4.11289
4.09546 11.49641 4.09546
4.07070 11.63386 4.07070
4.02744 11.80831 4.02745
4.00000 13.19120 4.00000
4.00000 13.19120 4.00000
4.00000 13.19120 4.00000
4.00000 13.19120 4.00000
4.00000 13.19120 4.00000
4.00000 13.19120 4.00000
4.00000 13.19120 4.00000
4.00000 13.19120 4.00000
4.00000 13.19120 4.00000
4.00000 13.19120 4.00000
4.00000 13.19120 4.00000
4.00000 13.19120 4.00000
4.00000 13.19120 4.00000
4.00000 13.19120 4.00000
4.00000 13.19120 4.00000
4.01321 13.24694 4.01321
4.02502 13.31161 4.02502
4.03441 13.38116 4.03441
4.04143 13.45546 4.04143
4.04617 13.53434 4.04617
4.04880 13.61748 4.04880
4.05071 13.70204 4.05071
4.05257 13.78675 4.05257
4.05437 13.87158 4.05437
4.05613 13.95652 4.05613
4.05784 14.04156 4.05784
4.05951 14.12669 4.05951
4.06116 14.21191 4.06116
4.06277 14.29720 4.06277
4.06435 14.38257 4.06435
4.06592 14.46800 4.06592
4.06745 14.55348 4.06745
4.06897 14.63903 4.06897
4.07047 14.72463 4.07047
4.07196 14.81027 4.07196
4.07342 14.89597 4.07342
4.07487 14.98171 4.07487
4.07631 15.06749 4.07631
4.07766 15.15347 4.07766
4.07875 15.23997 4.07875
4.07961 15.32695 4.07961
4.08025 15.41439 4.08025
4.08068 15.50225 4.08069
4.08093 15.59050 4.08093
4.08100 15.67912 4.08100
4.08091 15.76808 4.08091
4.08067 15.85734 4.08067
4.08029 15.94689 4.08029
4.07979 16.03670 4.07979
4.07918 16.12675 4.07918
4.07846 16.21701 4.07846
4.07766 16.30747 4.07766
4.07677 16.39811 4.07677
4.07581 16.48890 4.07581
4.07479 16.57983 4.07479
4.07371 16.67089 4.07371
4.07257 16.76206 4.07257
4.07140 16.85333 4.07140
4.07019 16.94468 4.07019
4.06895 17.03611 4.06895
4.06769 17.12759 4.06769
4.06640 17.21913 4.06640
4.06510 17.31071 4.06510
4.06379 17.40233 4.06379
4.06247 17.49397 4.06247
4.06115 17.58563 4.06115
4.05982 17.67730 4.05982
4.05850 17.76898 4.05850
4.05718 17.86066 4.05718
4.05587 17.95234 4.05587
4.05456 18.04401 4.05456
4.05327 18.13567 4.05327
4.05199 18.22732 4.05199
4.05072 18.31895 4.05072
4.04947 18.41056 4.04947
4.04824 18.50214 4.04824
4.04702 18.59370 4.04702
4.04582 18.68523 4.04582
4.04464 18.77673 4.04464
4.04348 18.86821 4.04348
4.04234 18.95964 4.04235
4.04122 19.05105 4.04123
4.04013 19.14243 4.04013
4.03905 19.23377 4.03905
4.03799 19.32508 4.03800
4.03696 19.41636 4.03696
4.03595 19.50760 4.03595
4.03496 19.59880 4.03496
4.03399 19.68997 4.03400
4.03305 19.78111 4.03305
4.03212 19.87221 4.03213
4.03122 19.96327 4.03122
4.03034 20.05430 4.03034
4.02948 20.14530 4.02948
4.02864 20.23626 4.02864
4.02782 20.32719 4.02782
4.02702 20.41809 4.02702
4.02625 20.50895 4.02625
4.02549 20.59979 4.02549
4.02475 20.69059 4.02475
4.02403 20.78136 4.02403
4.02333 20.87210 4.02333
4.02265 20.96281 4.02265
4.02198 21.05350 4.02198
4.02133 21.14415 4.02134
4.02071 21.23478 4.02071
4.02009 21.32538 4.02009
4.01950 21.41596 4.01950
4.01892 21.50650 4.01892
4.01836 21.59703 4.01836
4.01781 21.68753 4.01781
4.01728 21.77801 4.01728
4.01676 21.86846 4.01676
4.01626 21.95889 4.01626
4.01577 22.04930 4.01577
4.01529 22.13969 4.01529
4.01483 22.23006 4.01484
4.01439 22.32041 4.01438
4.01395 22.41074 4.01395
4.01353 22.50105 4.01353
4.01312 22.59134 4.01312
4.01272 22.68162 4.01272
4.01233 22.77188 4.01233
4.01196 22.86212 4.01196
4.01159 22.95234 4.01159
4.01124 23.04256 4.01124
4.01090 23.13275 4.01089
4.01056 23.22293 4.01057
4.01024 23.31310 4.01024
4.00993 23.40326 4.00992
4.00962 23.49340 4.00962
4.00933 23.58353 4.00933
4.00904 23.67365 4.00904
4.00876 23.76376 4.00876
4.00849 23.85385 4.00849
4.00823 23.94394 4.00823
4.00798 24.03402 4.00798
4.00773 24.12408 4.00773
4.00749 24.21414 4.00749
4.00726 24.30419 4.00726
4.00704 24.39423 4.00704
4.00682 24.48426 4.00682
4.00661 24.57428 4.00661
4.00640 24.66429 4.00640
4.00620 24.75430 4.00620
4.00601 24.84431 4.00601
4.00583 24.93430 4.00583
4.00564 25.02429 4.00564
4.00547 25.11427 4.00547
4.00530 25.20425 4.00530
4.00513 25.29422 4.00513
4.00497 25.38419 4.00497
4.00482 25.47415 4.00482
4.00467 25.56411 4.00467
4.00452 25.65406 4.00452
4.00438 25.74401 4.00438
4.00425 25.83395 4.00425
4.00411 25.92389 4.00411
4.00399 26.01383 4.00399
4.00386 26.10376 4.00386
4.00374 26.19370 4.00374
4.00362 26.28362 4.00362
4.00351 26.37355 4.00351
4.00340 26.46347 4.00340
4.00329 26.55339 4.00330
4.00319 26.64331 4.00319
4.00309 26.73323 4.00309
4.00300 26.82315 4.00300
4.00290 26.91306 4.00290
4.00281 27.00297 4.00281
4.00272 27.09288 4.00272
4.00264 27.18279 4.00264
4.00255 27.27270 4.00255
4.00247 27.36261 4.00247
4.00240 27.45251 4.00240
4.00232 27.54242 4.00232
4.00225 27.63232 4.00225
4.00218 27.72223 4.00218
4.00211 27.81213 4.00211
4.00204 27.90203 4.00204
4.00198 27.99194 4.00198
4.00192 28.08184 4.00192
4.00186 28.17175 4.00186
4.00180 28.26165 4.00180
4.00174 28.35155 4.00174
4.00169 28.44146 4.00169
4.00163 28.53136 4.00163
4.00158 28.62127 4.00158
4.00153 28.71117 4.00153
4.00149 28.80108 4.00149
4.00144 28.89098 4.00144
4.00139 28.98089 4.00139
4.00135 29.07080 4.00135
4.00131 29.16071 4.00131
4.00127 29.25062 4.00127
4.00123 29.34053 4.00123
4.00119 29.43044 4.00119
4.00115 29.52036 4.00115
4.00111 29.61027 4.00111
4.00108 29.70019 4.00108
4.00104 29.79010 4.00104
4.00101 29.88002 4.00101
4.00098 29.96994 4.00098
4.00095 30.05986 4.00095
4.00092 30.14978 4.00092
4.00089 30.23971 4.00089
4.00086 30.32963 4.00086
4.00084 30.41956 4.00084
4.00081 30.50948 4.00081
4.00078 30.59941 4.00078
4.00076 30.68934 4.00076
4.00073 30.77928 4.00073
4.00071 30.86921 4.00071
4.00069 30.95915 4.00069
4.00067 31.04908 4.00067
4.00065 31.13902 4.00065
4.00063 31.22896 4.00063
4.00061 31.31891 4.00061
4.00059 31.40885 4.00059
4.00057 31.49880 4.00057
4.00055 31.58875 4.00055
4.00053 31.67870 4.00053
4.00052 31.76865 4.00052
4.00050 31.85860 4.00050
4.00048 31.94856 4.00048
4.00047 32.03852 4.00047
4.00045 32.12847 4.00045
4.00044 32.21844 4.00044
4.00043 32.30840 4.00043
4.00041 32.39836 4.00041
4.00040 32.48833 4.00040

Angle 0.617739 1.095299

4.00000 7.03348 4.00000
4.00000 7.03348 4.00000
4.00000 7.03348 4.00000
4.00000 7.03348 4.00000
4.00000 7.03348 4.00000
4.00000 7.03348 4.00000
4.00000 7.03348 4.00000
4.00000 7.03348 4.00000
4.00000 7.03348 4.00000
4.00000 7.03348 4.00000
4.00000 7.03348 4.00000
4.00000 7.03348 4.00000
4.00000 7.03348 4.00000
4.00000 7.03348 4.00000
4.00000 7.03348 4.00000
4.00000 7.03348 4.00000
4.00000 7.03348 4.00000
4.00000 7.03348 4.00000
4.00000 7.03348 4.00000
4.00000 7.03348 4.00000
4.00000 7.03348 4.00000
4.00000 7.03348 4.00000
4.00000 7.03348 4.00000
4.00000 7.03348 4.00000
4.00000 7.03348 4.00000
4.00000 7.03348 4.00000
4.00000 7.03348 4.00000
4.00000 7.03348 4.00000
4.00000 7.03348 4.00000
4.00000 7.03348 4.00000
4.00000 7.03348 4.00000
4.00000 7.03348 4.00000
4.00000 7.03348 4.00000
4.00000 7.03348 4.00000
4.00000 7.03348 4.00000
4.00000 7.03348 4.00000
4.00000 7.03348 4.00000
4.00000 7.03348 4.00000
4.00000 7.03356 4.00000
4.00047 7.04473 4.00047
4.00311 7.10964 4.00311
4.00569 7.17489 4.00569
4.00822 7.24045 4.00822
4.01071 7.30630 4.01071
4.01317 7.37243 4.01317
4.01560 7.43882 4.01560
4.01800 7.50545 4.01800
4.02040 7.57231 4.02040
4.02279 7.63936 4.02279
4.02518 7.70661 4.02519
4.02759 7.77402 4.02759
4.03002 7.84157 4.03002
4.03248 7.90925 4.03248
4.03498 7.97703 4.03498
4.03753 8.04488 4.03753
4.04015 8.11277 4.04015
4.04286 8.18068 4.04286
4.04566 8.24856 4.04566
4.04858 8.31636 4.04858
4.05165 8.38405 4.05165
4.05490 8.45155 4.05490
4.05835 8.51880 4.05835
4.06206 8.58570 4.06206
4.06607 8.65214 4.06608
4.07043 8.71807 4.07043
4.07507 8.78357 4.07507
4.08002 8.84862 4.08002
4.08528 8.91319 4.08528
4.09086 8.97727 4.09086
4.09676 9.04085 4.09676
4.10299 9.10395 4.10299
4.10951 9.16657 4.10951
4.11632 9.22877 4.11632
4.12338 9.29061 4.12338
4.13064 9.35220 4.13064
4.13801 9.41368 4.13801
4.14542 9.47523 4.14542
4.15275 9.53708 4.15275
4.15984 9.59953 4.15984
4.16653 9.66291 4.16653
4.17261 9.72764 4.17261
4.17785 9.79418 4.17785
4.18200 9.86302 4.18200
4.18483 9.93464 4.18483
4.18612 10.00943 4.18612
4.18577 10.08764 4.18577
4.18444 10.16791 4.18444
4.18272 10.24911 4.18272
4.18060 10.33120 4.18060
4.17809 10.41418 4.17809
4.17519 10.49807 4.17519
4.17186 10.58292 4.17186
4.16807 10.66881 4.16807
4.16376 10.75584 4.16376
4.15886 10.84416 4.15886
4.15326 10.93398 4.15326
4.14682 11.02558 4.14682
4.13934 11.11938 4.13934
4.13050 11.21599 4.13050
4.11982 11.31640 4.11982
4.10643 11.42230 4.10643
4.08886 11.53669 4.08886
4.06391 11.66592 4.06391
4.01939 11.83438 4.01939
4.00000 13.19120 4.00000
4.00000 13.19120 4.00000
4.00000 13.19120 4.00000
4.00000 13.19120 4.00000
4.00000 13.19120 4.00000
4.00000 13.19120 4.00000
4.00000 13.19120 4.00000
4.00000 13.19120 4.00000
4.00000 13.19120 4.00000
4.00000 13.19120 4.00000
4.00000 13.19120 4.00000
4.00000 13.19120 4.00000
4.00000 13.19120 4.00000
4.00000 13.19120 4.00000
4.00000 13.19120 4.00000
4.00000 13.19121 4.00000
4.00763 13.22178 4.00763
4.01949 13.27904 4.01949
4.02930 13.34048 4.02930
4.03708 13.40605 4.03708
4.04289 13.47563 4.04289
4.04680 13.54908 4.04680
4.04900 13.62604 4.04899
4.05076 13.70394 4.05076
4.05247 13.78201 4.05247
4.05413 13.86025 4.05413
4.05576 13.93863 4.05576
4.05735 14.01715 4.05735
4.05891 14.09580 4.05891
4.06044 14.17458 4.06044
4.06195 14.25348 4.06195
4.06343 14.33249 4.06343
4.06489 14.41161 4.06489
4.06633 14.49084 4.06633
4.06775 14.57016 4.06775
4.06916 14.64958 4.06916
4.07055 14.72910 4.07055
4.07193 14.80870 4.07193
4.07329 14.88839 4.07329
4.07465 14.96817 4.07465
4.07599 15.04802 4.07599
4.07729 15.12803 4.07729
4.07838 15.20850 4.07838
4.07927 15.28944 4.07927
4.07996 15.37084 4.07996
4.08046 15.45266 4.08046
4.08080 15.53489 4.08080
4.08097 15.61749 4.08097
4.08099 15.70045 4.08099
4.08087 15.78374 4.08087
4.08063 15.86734 4.08063
4.08027 15.95122 4.08027
4.07980 16.03538 4.07980
4.07923 16.11979 4.07923
4.07857 16.20443 4.07857
4.07783 16.28929 4.07783
4.07701 16.37435 4.07701
4.07613 16.45959 4.07613
4.07519 16.54499 4.07519
4.07419 16.63056 4.07419
4.07315 16.71627 4.07315
4.07206 16.80210 4.07206
4.07095 16.88806 4.07095
4.06980 16.97413 4.06980
4.06862 17.06029 4.06862
4.06742 17.14655 4.06742
4.06621 17.23289 4.06621
4.06498 17.31930 4.06498
4.06374 17.40577 4.06374
4.06249 17.49231 4.06249
4.06124 17.57889 4.06124
4.05999 17.66553 4.05999
4.05874 17.75221 4.05874
4.05749 17.83892 4.05749
4.05625 17.92567 4.05624
4.05501 18.01244 4.05501
4.05378 18.09924 4.05378
4.05256 18.18606 4.05256
4.05136 18.27290 4.05136
4.05016 18.35976 4.05016
4.04898 18.44662 4.04898
4.04782 18.53350 4.04782
4.04667 18.62038 4.04667
4.04553 18.70727 4.04554
4.04442 18.79417 4.04442
4.04332 18.88107 4.04332
4.04224 18.96797 4.04224
4.04118 19.05487 4.04118
4.04013 19.14178 4.04013
4.03911 19.22868 4.03911
4.03810 19.31558 4.03810
4.03712 19.40247 4.03712
4.03615 19.48937 4.03615
4.03520 19.57626 4.03520
4.03427 19.66314 4.03428
4.03337 19.75002 4.03337
4.03248 19.83690 4.03248
4.03161 19.92377 4.03161
4.03076 20.01064 4.03076
4.02993 20.09751 4.02993
4.02912 20.18437 4.02912
4.02832 20.27122 4.02832
4.02755 20.35807 4.02755
4.02679 20.44492 4.02679
4.02605 20.53177 4.02605
4.02533 20.61860 4.02533
4.02463 20.70544 4.02463
4.02394 20.79227 4.02394
4.02327 20.87910 4.02327
4.02262 20.96593 4.02262
4.02199 21.05276 4.02199
4.02137 21.13958 4.02137
4.02076 21.22640 4.02076
4.02017 21.31322 4.02017
4.01960 21.40004 4.01960
4.01904 21.48686 4.01904
4.01850 21.57367 4.01850
4.01797 21.66049 4.01797
4.01745 21.74731 4.01746
4.01695 21.83413 4.01695
4.01647 21.92095 4.01647
4.01599 22.00777 4.01599
4.01553 22.09459 4.01553
4.01508 22.18142 4.01508
4.01464 22.26824 4.01464
4.01422 22.35508 4.01422
4.01380 22.44191 4.01380
4.01340 22.52875 4.01340
4.01301 22.61559 4.01301
4.01263 22.70244 4.01263
4.01226 22.78928 4.01226
4.01190 22.87614 4.01190
4.01155 22.96300 4.01155
4.01121 23.04987 4.01121
4.01088 23.13674 4.01088
4.01056 23.22361 4.01056
4.01025 23.31050 4.01025
4.00995 23.39739 4.00995
4.00965 23.48428 4.00965
4.00937 23.57119 4.00937
4.00909 23.65810 4.00909
4.00882 23.74502 4.00882
4.00856 23.83194 4.00856
4.00830 23.91888 4.00830
4.00806 24.00582 4.00806
4.00781 24.09277 4.00782
4.00758 24.17973 4.00758
4.00735 24.26670 4.00735
4.00714 24.35368 4.00714
4.00692 24.44066 4.00692
4.00672 24.52766 4.00672
4.00652 24.61466 4.00652
4.00632 24.70168 4.00632
4.00613 24.78871 4.00613
4.00595 24.87574 4.00595
4.00576 24.96279 4.00577
4.00559 25.04984 4.00559
4.00543 25.13691 4.00543
4.00526 25.22398 4.00526
4.00510 25.31107 4.00510
4.00495 25.39817 4.00495
4.00480 25.48528 4.00480
4.00466 25.57240 4.00466
4.00452 25.65953 4.00452
4.00438 25.74667 4.00438
4.00425 25.83382 4.00425
4.00412 25.92099 4.00412
4.00399 26.00816 4.00399
4.00387 26.09535 4.00387
4.00376 26.18255 4.00376
4.00364 26.26976 4.00364
4.00353 26.35698 4.00353
4.00342 26.44422 4.00342
4.00332 26.53146 4.00332
4.00322 26.61872 4.00322
4.00312 26.70599 4.00312
4.00303 26.79327 4.00303
4.00293 26.88057 4.00293
4.00285 26.96787 4.00285
4.00276 27.05519 4.00276
4.00267 27.14252 4.00267
4.00259 27.22986 4.00259
4.00251 27.31722 4.00252
4.00244 27.40458 4.00244
4.00236 27.49196 4.00236
4.00229 27.57935 4.00229
4.00222 27.66676 4.00223
4.00215 27.75417 4.00215
4.00209 27.84160 4.00209
4.00202 27.92904 4.00202
4.00196 28.01649 4.00196
4.00191 28.10395 4.00190
4.00184 28.19143 4.00184
4.00179 28.27891 4.00179
4.00173 28.36642 4.00173
4.00168 28.45393 4.00168
4.00163 28.54145 4.00163
4.00158 28.62899 4.00158
4.00153 28.71654 4.00153
4.00148 28.80410 4.00148
4.00144 28.89168 4.00143
4.00139 28.97926 4.00139
4.00135 29.06686 4.00135
4.00131 29.15446 4.00131
4.00127 29.24209 4.00127
4.00123 29.32972 4.00123
4.00119 29.41737 4.00119
4.00115 29.50502 4.00116
4.00112 29.59269 4.00112
4.00108 29.68037 4.00109
4.00105 29.76807 4.00105
4.00102 29.85577 4.00102
4.00099 29.94349 4.00099
4.00096 30.03121 4.00096
4.00093 30.11895 4.00093
4.00090 30.20670 4.00090
4.00088 30.29446 4.00087
4.00085 30.38224 4.00085
4.00082 30.47003 4.00082
4.00080 30.55782 4.00080
4.00077 30.64563 4.00077
4.00075 30.73345 4.00075
4.00072 30.82128 4.00072
4.00070 30.90912 4.00070
4.00068 30.99698 4.00068
4.00066 31.08484 4.00066
4.00064 31.17272 4.00064
4.00062 31.26061 4.00062
4.00060 31.34851 4.00060
4.00058 31.43641 4.00058
4.00056 31.52434 4.00056
4.00055 31.61227 4.00055
4.00053 31.70021 4.00053
4.00051 31.78817 4.00051
4.00050 31.87613 4.00050
4.00048 31.96411 4.00048
4.00047 32.05209 4.00047
4.00045 32.14009 4.00045
4.00044 32.22810 4.00044
4.00042 32.31612 4.00042
4.00041 32.40414 4.00041
4.00040 32.49218 4.00040
4.00039 32.58023 4.00038
4.00037 32.66829 4.00037
4.00036 32.75636 4.00036
4.00035 32.84444 4.00035
4.00034 32.93253 4.00034
4.00033 33.02063 4.00033
4.00032 33.10874 4.00032
4.00031 33.19686 4.00031
4.00030 33.28499 4.00030
4.00029 33.37313 4.00029
4.00028 33.46128 4.00028
4.00027 33.54944 4.00027
4.00027 33.63761 4.00027
4.00026 33.72579 4.00026
4.00025 33.81399 4.00025
4.00024 33.90219 4.00024
4.00023 33.99039 4.00023
4.00023 34.07861 4.00023
4.00022 34.16684 4.00022
4.00021 34.25508 4.00021
4.00021 34.34333 4.00021
4.00020 34.43159 4.00020
4.00019 34.51985 4.00019
4.00019 34.60812 4.00019
4.00018 34.69641 4.00018
4.00018 34.78470 4.00018
4.00017 34.87301 4.00017
4.00017 34.96132 4.00017
4.00016 35.04964 4.00016
4.00016 35.13797 4.00016
4.00015 35.22631 4.00015
4.00015 35.31466 4.00015
4.00014 35.40302 4.00014
4.00014 35.49139 4.00014
4.00013 35.57977 4.00013
4.00013 35.66816 4.00013
4.00012 35.75656 4.00012
4.00012 35.84496 4.00012
4.00012 35.93334 4.00012
4.00011 36.02176 4.00011
4.00011 36.11019 4.00011
4.00011 36.19862 4.00011
4.00010 36.28707 4.00010
4.00010 36.37552 4.00010
4.00010 36.46399 4.00010
4.00009 36.55246 4.00009
4.00009 36.64092 4.00009
4.00009 36.72941 4.00009
4.00009 36.81790 4.00009
4.00008 36.90640 4.00008
4.00008 36.99491 4.00008
4.00008 37.08343 4.00008
4.00008 37.17195 4.00008
4.00007 37.26048 4.00007

Angle 0.168878 3.047024

4.00000 7.03348 4.00000
4.00000 7.03348 4.00000
4.00000 7.03348 4.00000
4.00000 7.03348 4.00000
4.00000 7.03348 4.00000
4.00000 7.03347 4.00000
4.00000 7.03348 4.00000
4.00000 7.03348 4.00000
4.00000 7.03348 4.00000
4.00000 7.03348 4.00000
4.00000 7.03348 4.00000
4.00000 7.03348 4.00000
4.00000 7.03348 4.00000
4.00000 7.03348 4.00000
4.00000 7.03348 4.00000
4.00000 7.03348 4.00000
4.00000 7.03348 4.00000
4.00000 7.03348 4.00000
4.00000 7.03348 4.00000
4.00000 7.03348 4.00000
4.00000 7.03348 4.00000
4.00000 7.03348 4.00000
4.00000 7.03348 4.00000
4.00000 7.03348 4.00000
4.00000 7.03348 4.00000
4.00000 7.03348 4.00000
4.00000 7.03348 4.00000
4.00000 7.03348 4.00000
4.00000 7.03348 4.00000
4.00000 7.03349 4.00000
4.00000 7.03348 4.00000
4.00000 7.03348 4.00000
4.00000 7.03347 4.00000
4.00000 7.03347 4.00000
4.00000 7.03347 4.00000
4.00000 7.03348 4.00000
4.00000 7.03348 4.00000
4.00000 7.03348 4.00000
4.00000 7.03348 4.00000
4.00000 7.03348 4.00000
4.00000 7.03348 4.00000
4.00000 7.03348 4.00000
4.00000 7.03348 4.00000
4.00000 7.03348 4.00000
4.00000 7.03348 4.00000
4.00000 7.03348 4.00000
4.00000 7.03348 4.00000
4.00000 7.03348 4.00000
4.00000 7.03348 4.00000
4.00000 7.03348 4.00000
4.00000 7.03348 4.00000
4.00000 7.03348 4.00000
4.00000 7.03348 4.00000
4.00000 7.03348 4.00000
4.00000 7.03348 4.00000
4.00000 7.03348 4.00000
4.00000 7.03348 4.00000
4.00000 7.03348 4.00000
4.00000 7.03348 4.00000
4.00000 7.03348 4.00000
4.00000 7.03348 4.00000
4.00000 7.03348 4.00000
4.00000 7.03348 4.00000
4.00000 7.03348 4.00000
4.00000 7.03348 4.00000
4.00000 7.03348 4.00000
4.00000 7.03348 4.00000
4.00000 7.03348 4.00000
4.00000 7.03348 4.00000
4.00000 7.03348 4.00000
4.00000 7.03348 4.00000
4.00000 7.03348 4.00000
4.00000 7.03348 4.00000
4.00000 7.03348 4.00000
4.00000 7.03348 4.00000
4.00000 7.03348 4.00000
4.00000 7.03348 4.00000
4.00000 7.03348 4.00000
4.00000 7.03348 4.00000
4.00000 7.03348 4.00000
4.00000 7.03348 4.00000
4.00000 7.03348 4.00000
4.00000 7.03348 4.00000
4.00000 7.03348 4.00000
4.00000 7.03348 4.00000
4.00000 7.03348 4.00000
4.00000 7.03348 4.00000
4.00000 7.03348 4.00000
4.00000 7.03348 4.00000
4.00000 7.03348 4.00000
4.00000 7.03348 4.00000
4.00000 7.03348 4.00000
4.00000 7.03348 4.00000
4.00000 7.03348 4.00000
4.00000 7.03348 4.00000
4.00000 7.03348 4.00000
4.00000 7.03348 4.00000
4.00000 7.03348 4.00000
4.00000 7.03348 4.00000
4.00000 7.03348 4.00000
4.00000 7.03348 4.00000
4.00000 7.03348 4.00000
4.00000 7.03348 4.00000
4.00000 7.03348 4.00000
4.00000 7.03348 4.00000
4.00000 7.03348 4.00000
4.00000 7.03348 4.00000
4.00000 7.03348 4.00000
4.00000 7.03348 4.00000
4.00000 7.03348 4.00000
4.00000 7.03348 4.00000
4.00000 7.03348 4.00000
4.00000 7.03348 4.00000
4.00000 7.03348 4.00000
4.00000 7.03348 4.00000
4.00000 7.03348 4.00000
4.00000 7.03348 4.00000
4.00000 7.03348 4.00000
4.00000 7.03348 4.00000
4.00000 7.03348 4.00000
4.00000 7.03348 4.00000
4.00000 7.03348 4.00000
4.00000 7.03348 4.00000
4.00000 7.03348 4.00000
4.00000 7.03348 4.00000
4.00000 7.03348 4.00000
4.00000 7.03348 4.00000
4.00000 7.03348 4.00000
4.00000 7.03348 4.00000
4.00000 7.03348 4.00000
4.00000 7.03348 4.00000
4.00000 7.03348 4.00000
4.00000 7.03348 4.00000
4.00000 7.03348 4.00000
4.00000 7.03348 4.00000
4.00000 7.03348 4.00000
4.00000 7.03348 4.00000
4.00000 7.03348 4.00000
4.00000 7.03348 4.00000
4.00000 7.03348 4.00000
4.00000 7.03348 4.00000
4.00000 7.03348 4.00000
4.00000 7.03348 4.00000
4.00000 7.03348 4.00000
4.00000 7.03348 4.00000
4.00000 7.03348 4.00000
4.00000 7.03348 4.00000
4.00000 7.03348 4.00000
4.00000 7.03348 4.00000
4.00000 7.03348 4.00000
4.00000 7.03348 4.00000
4.00000 7.03348 4.00000
4.00000 7.03348 4.00000
4.00000 7.03348 4.00000
4.00000 7.03348 4.00000
4.00000 7.03348 4.00000
4.00000 7.03348 4.00000
4.00000 7.03348 4.00000
4.00000 7.03348 4.00000
4.00000 7.03348 4.00000
4.00000 7.03348 4.00000
4.00000 7.03348 4.00000
4.00000 7.03348 4.00000
4.00000 7.03348 4.00000
4.00000 7.03348 4.00000
4.00000 7.03348 4.00000
4.00000 7.03348 4.00000
4.00000 7.03348 4.00000
4.00000 7.03348 4.00000
4.00000 7.03348 4.00000
4.00000 7.03348 4.00000
4.00000 7.03348 4.00000
4.00000 7.03348 4.00000
4.00000 7.03348 4.00000
4.00000 7.03348 4.00000
4.00000 7.03348 4.00000
4.00000 7.03347 4.00000
4.00000 7.03348 4.00000
4.00000 7.03348 4.00000
4.00000 7.03348 4.00000
4.00000 7.03348 4.00000
4.00000 7.03348 4.00000
4.00000 7.03348 4.00000
4.00000 7.03348 4.00000
4.00000 7.03348 4.00000
4.00000 7.03348 4.00000
4.00000 7.03348 4.00000
4.00000 7.03348 4.00000
4.00000 7.03348 4.00000
4.00000 7.03348 4.00000
4.00000 7.03348 4.00000
4.00000 7.03348 4.00000
4.00000 7.03348 4.00000
4.00000 7.03348 4.00000
4.00000 7.03348 4.00000
4.00000 7.03348 4.00000
4.00000 7.03348 4.00000
4.00000 7.03348 4.00000
4.00000 7.03348 4.00000
4.00000 7.03348 4.00000
4.00000 7.03348 4.00000
4.00000 7.03348 4.00000
4.00000 7.03348 4.00000
4.00000 7.03348 4.00000
4.00000 7.03348 4.00000
4.00000 7.03348 4.00000
4.00000 7.03348 4.00000
4.00000 7.03348 4.00000
4.00000 7.03348 4.00000
4.00000 7.03348 4.00000
4.00000 7.03348 4.00000
4.00000 7.03348 4.00000
4.00000 7.03348 4.00000
4.00000 7.03348 4.00000
4.00000 7.03348 4.00000
4.00000 7.03348 4.00000
4.00000 7.03348 4.00000
4.00000 7.03348 4.00000
4.00000 7.03346 4.00000
4.00000 7.03348 4.00000
4.00000 7.03348 4.00000
4.00000 7.03348 4.00000
4.00000 7.03348 4.00000
4.00000 7.03348 4.00000
4.00000 7.03348 4.00000
4.00000 7.03348 4.00000
4.00000 7.03348 4.00000
4.00000 7.03348 4.00000
4.00000 7.03348 4.00000
4.00000 7.03348 4.00000
4.00000 7.03348 4.00000
4.00000 7.03348 4.00000
4.00000 7.03349 4.00000
4.00000 7.03349 4.00000
4.00000 7.03348 4.00000
4.00000 7.03348 4.00000
4.00000 7.03348 4.00000
4.00017 7.03755 4.00017
4.00341 7.11708 4.00341
4.00655 7.19686 4.00655
4.00961 7.27685 4.00961
4.01260 7.35702 4.01260
4.01554 7.43735 4.01554
4.01845 7.51780 4.01845
4.02133 7.59835 4.02133
4.02420 7.67896 4.02420
4.02708 7.75962 4.02708
4.02997 7.84027 4.02997
4.03291 7.92091 4.03291
4.03589 8.00147 4.03589
4.03895 8.08193 4.03895
4.04211 8.16224 4.04211
4.04540 8.24234 4.04540
4.04884 8.32217 4.04884
4.05248 8.40165 4.05248
4.05636 8.48068 4.05636
4.06055 8.55914 4.06055
4.06512 8.63688 4.06512
4.07013 8.71376 4.07013
4.07554 8.78990 4.07554
4.08134 8.86528 4.08134
4.08756 8.93988 4.08756
4.09419 9.01367 4.09419
4.10125 9.08667 4.10125
4.10870 9.15890 4.10870
4.11651 9.23044 4.11651
4.12464 9.30139 4.12464
4.13299 9.37192 4.13299
4.14146 9.44226 4.14146
4.14989 9.51270 4.14989
4.15808 9.58366 4.15808
4.16579 9.65560 4.16579
4.17274 9.72911 4.17274
4.17858 9.80485 4.17858
4.18297 9.88353 4.18297
4.18557 9.96583 4.18557
4.18613 10.05222 4.18613
4.18491 10.14221 4.18491
4.18308 10.23346 4.18308
4.18075 10.32572 4.18075
4.17794 10.41898 4.17794
4.17462 10.51327 4.17462
4.17077 10.60867 4.17077
4.16632 10.70528 4.16632
4.16119 10.80328 4.16119
4.15527 10.90289 4.15527
4.14838 11.00448 4.14838
4.14026 11.10854 4.14026
4.13052 11.21587 4.13052
4.11849 11.32778 4.11849
4.10298 11.44671 4.10298
4.08170 11.57719 4.08170
4.04854 11.73146 4.04854
4.00000 13.19120 4.00000
4.00000 13.19120 4.00000
4.00000 13.19120 4.00000
4.00000 13.19120 4.00000
4.00000 13.19120 4.00000
4.00000 13.19120 4.00000
4.00000 13.19120 4.00000
4.00000 13.19120 4.00000
4.00000 13.19120 4.00000
4.00000 13.19120 4.00000
4.00000 13.19120 4.00000
4.00000 13.19120 4.00000
4.00000 13.19120 4.00000
4.00000 13.19120 4.00000
4.00000 13.19121 4.00000
4.00788 13.22285 4.00788
4.02067 13.28558 4.02067
4.03101 13.35322 4.03101
4.03895 13.42568 4.03895
4.04457 13.50279 4.04457
4.04799 13.58433 4.04799
4.04997 13.66877 4.04997
4.05185 13.75343 4.05185
4.05367 13.83822 4.05367
4.05544 13.92312 4.05544
4.05717 14.00813 4.05717
4.05886 14.09323 4.05886
4.06051 14.17842 4.06051
4.06214 14.26368 4.06214
4.06374 14.34902 4.06374
4.06531 14.43443 4.06531
4.06685 14.51990 4.06685
4.06838 14.60543 4.06838
4.06989 14.69101 4.06989
4.07137 14.77664 4.07137
4.07285 14.86232 4.07285
4.07431 14.94804 4.07431
4.07575 15.03381 4.07575
4.07716 15.11966 4.07716
4.07835 15.20596 4.07835
4.07930 15.29276 4.07930
4.08003 15.38002 4.08003
4.08054 15.46773 4.08054
4.08086 15.55583 4.08086
4.08099 15.64431 4.08099
4.08096 15.73314 4.08097
4.08078 15.82229 4.08078
4.08045 15.91174 4.08046
4.08000 16.00145 4.08000
4.07943 16.09141 4.07943
4.07875 16.18160 4.07876
4.07798 16.27198 4.07799
4.07713 16.36255 4.07713
4.07619 16.45329 4.07620
4.07519 16.54418 4.07519
4.07414 16.63519 4.07414
4.07302 16.72632 4.07302
4.07187 16.81756 4.07187
4.07067 16.90888 4.07067
4.06944 17.00028 4.06944
4.06819 17.09175 4.06819
4.06691 17.18327 4.06691
4.06561 17.27483 4.06561
4.06430 17.36644 4.06430
4.06299 17.45807 4.06299
4.06166 17.54973 4.06166
4.06034 17.64140 4.06034
4.05901 17.73308 4.05901
4.05769 17.82477 4.05769
4.05638 17.91645 4.05638
4.05507 18.00813 4.05507
4.05377 18.09980 4.05377
4.05249 18.19145 4.05249
4.05122 18.28309 4.05122
4.04996 18.37471 4.04996
4.04872 18.46631 4.04872
4.04749 18.55788 4.04749
4.04629 18.64942 4.04629
4.04510 18.74094 4.04510
4.04393 18.83243 4.04393
4.04278 18.92388 4.04278
4.04166 19.01531 4.04166
4.04055 19.10670 4.04055
4.03947 19.19806 4.03947
4.03840 19.28939 4.03840
4.03736 19.38068 4.03736
4.03634 19.47193 4.03634
4.03534 19.56315 4.03534
4.03437 19.65434 4.03437
4.03341 19.74549 4.03341
4.03248 19.83660 4.03248
4.03157 19.92768 4.03157
4.03068 20.01873 4.03068
4.02981 20.10974 4.02981
4.02896 20.20072 4.02896
4.02814 20.29167 4.02814
4.02733 20.38258 4.02733
4.02655 20.47346 4.02655
4.02578 20.56431 4.02578
4.02503 20.65512 4.02503
4.02431 20.74591 4.02431
4.02360 20.83666 4.02360
4.02291 20.92739 4.02291
4.02224 21.01808 4.02224
4.02158 21.10875 4.02158
4.02095 21.19939 4.02095
4.02033 21.29001 4.02033

Angle 0.222347 4.072992

4.00000 7.03348 4.00000
4.00000 7.03348 4.00000
4.00000 7.03348 4.00000
4.00000 7.03348 4.00000
4.00000 7.03348 4.00000
4.00000 7.03348 4.00000
4.00000 7.03348 4.00000
4.00000 7.03348 4.00000
4.00000 7.03348 4.00000
4.00000 7.03348 4.00000
4.00000 7.03348 4.00000
4.00000 7.03348 4.00000
4.00000 7.03348 4.00000
4.00000 7.03348 4.00000
4.00000 7.03348 4.00000
4.00000 7.03348 4.00000
4.00000 7.03348 4.00000
4.00000 7.03348 4.00000
4.00000 7.03348 4.00000
4.00000 7.03348 4.00000
4.00000 7.03348 4.00000
4.00000 7.03348 4.00000
4.00000 7.03348 4.00000
4.00000 7.03348 4.00000
4.00000 7.03348 4.00000
4.00000 7.03348 4.00000
4.00000 7.03348 4.00000
4.00000 7.03348 4.00000
4.00000 7.03348 4.00000
4.00000 7.03348 4.00000
4.00000 7.03348 4.00000
4.00000 7.03348 4.00000
4.00000 7.03348 4.00000
4.00000 7.03348 4.00000
4.00000 7.03348 4.00000
4.00000 7.03348 4.00000
4.00000 7.03348 4.00000
4.00000 7.03348 4.00000
4.00000 7.03348 4.00000
4.00000 7.03348 4.00000
4.00000 7.03348 4.00000
4.00000 7.03348 4.00000
4.00000 7.03348 4.00000
4.00000 7.03348 4.00000
4.00000 7.03348 4.00000
4.00000 7.03348 4.00000
4.00000 7.03347 4.00000
4.00000 7.03347 4.00000
4.00000 7.03347 4.00000
4.00000 7.03348 4.00000
4.00000 7.03348 4.00000
4.00000 7.03348 4.00000
4.00000 7.03348 4.00000
4.00000 7.03348 4.00000
4.00000 7.03348 4.00000
4.00000 7.03348 4.00000
4.00000 7.03348 4.00000
4.00000 7.03348 4.00000
4.00000 7.03348 4.00000
4.00000 7.03348 4.00000
4.00000 7.03348 4.00000
4.00000 7.03348 4.00000
4.00000 7.03348 4.00000
4.00000 7.03348 4.00000
4.00000 7.03348 4.00000
4.00000 7.03348 4.00000
4.00000 7.03348 4.00000
4.00000 7.03348 4.00000
4.00000 7.03348 4.00000
4.00000 7.03348 4.00000
4.00000 7.03347 4.00000
4.00000 7.03347 4.00000
4.00000 7.03348 4.00000
4.00000 7.03348 4.00000
4.00000 7.03348 4.00000
4.00000 7.03348 4.00000
4.00000 7.03348 4.00000
4.00000 7.03348 4.00000
4.00000 7.03348 4.00000
4.00000 7.03348 4.00000
4.00000 7.03348 4.00000
4.00000 7.03348 4.00000
4.00000 7.03348 4.00000
4.00000 7.03348 4.00000
4.00000 7.03348 4.00000
4.00000 7.03348 4.00000
4.00000 7.03348 4.00000
4.00000 7.03348 4.00000
4.00000 7.03348 4.00000
4.00000 7.03348 4.00000
4.00000 7.03348 4.00000
4.00000 7.03348 4.00000
4.00000 7.03348 4.00000
4.00000 7.03348 4.00000
4.00000 7.03348 4.00000
4.00000 7.03348 4.00000
4.00000 7.03348 4.00000
4.00000 7.03348 4.00000
4.00000 7.03348 4.00000
4.00000 7.03348 4.00000
4.00000 7.03348 4.00000
4.00000 7.03348 4.00000
4.00000 7.03348 4.00000
4.00000 7.03348 4.00000
4.00000 7.03348 4.00000
4.00000 7.03348 4.00000
4.00000 7.03348 4.00000
4.00000 7.03348 4.00000
4.00000 7.03348 4.00000
4.00000 7.03348 4.00000
4.00000 7.03348 4.00000
4.00000 7.03348 4.00000
4.00000 7.03348 4.00000
4.00000 7.03348 4.00000
4.00000 7.03348 4.00000
4.00000 7.03348 4.00000
4.00000 7.03348 4.00000
4.00000 7.03348 4.00000
4.00000 7.03348 4.00000
4.00000 7.03348 4.00000
4.00000 7.03348 4.00000
4.00000 7.03348 4.00000
4.00000 7.03348 4.00000
4.00000 7.03348 4.00000
4.00000 7.03348 4.00000
4.00000 7.03348 4.00000
4.00000 7.03348 4.00000
4.00000 7.03350 4.00000
4.00000 7.03348 4.00000
4.00000 7.03348 4.00000
4.00001 7.03356 4.00000
4.00000 7.03349 4.00000
4.00175 7.07609 4.00175
4.00463 7.14787 4.00463
4.00744 7.21994 4.00744
4.01019 7.29226 4.01019
4.01289 7.36482 4.01289
4.01555 7.43759 4.01555
4.01819 7.51056 4.01819
4.02081 7.58369 4.02081
4.02342 7.65696 4.02342
4.02603 7.73036 4.02603
4.02866 7.80386 4.02866
4.03132 7.87742 4.03132
4.03401 7.95103 4.03401
4.03677 8.02466 4.03677
4.03959 8.09826 4.03959
4.04250 8.17180 4.04250
4.04552 8.24524 4.04552
4.04868 8.31851 4.04868
4.05201 8.39157 4.05200
4.05553 8.46433 4.05554
4.05931 8.53670 4.05931
4.06340 8.60857 4.06340
4.06786 8.67979 4.06786
4.07268 8.75040 4.07268
4.07784 8.82045 4.07784
4.08334 8.88989 4.08334
4.08921 8.95872 4.08921
4.09544 9.02691 4.09544
4.10203 9.09448 4.10203
4.10897 9.16146 4.10897
4.11623 9.22789 4.11623
4.12376 9.29386 4.12376
4.13151 9.35950 4.13151
4.13938 9.42498 4.13938
4.14725 9.49054 4.14725
4.15499 9.55647 4.15499
4.16241 9.62314 4.16240
4.16927 9.69098 4.16927
4.17534 9.76051 4.17534
4.18032 9.83230 4.18032
4.18392 9.90693 4.18392
4.18588 9.98492 4.18588
4.18602 10.06663 4.18602
4.18475 10.15124 4.18475
4.18300 10.23690 4.18300
4.18081 10.32350 4.18081
4.17820 10.41104 4.17820
4.17513 10.49955 4.17513
4.17160 10.58907 4.17160
4.16755 10.67970 4.16755
4.16293 10.77156 4.16293
4.15763 10.86483 4.15763
4.15153 10.95978 4.15152
4.14444 11.05676 4.14444
4.13611 11.15631 4.13611
4.12611 11.25927 4.12610
4.11372 11.36706 4.11372
4.09767 11.48225 4.09767
4.07555 11.60965 4.07555
4.04013 11.76370 4.04013
4.00000 13.19120 4.00000
4.00000 13.19120 4.00000
4.00000 13.19120 4.00000
4.00000 13.19120 4.00000
4.00000 13.19120 4.00000
4.00000 13.19120 4.00000
4.00000 13.19120 4.00000
4.00000 13.19120 4.00000
4.00000 13.19120 4.00000
4.00000 13.19120 4.00000
4.00000 13.19120 4.00000
4.00000 13.19120 4.00000
4.00000 13.19120 4.00000
4.00000 13.19120 4.00000
4.00000 13.19120 4.00000
4.00001 13.19125 4.00001
4.01239 13.24308 4.01239
4.02387 13.30438 4.02387
4.03313 13.37017 4.03313
4.04022 13.44034 4.04022
4.04522 13.51474 4.04522
4.04823 13.59320 4.04823
4.05009 13.67399 4.05009
4.05188 13.75496 4.05188
4.05362 13.83608 4.05362
4.05532 13.91734 4.05532
4.05698 13.99872 4.05698
4.05860 14.08022 4.05860
4.06020 14.16183 4.06020
4.06176 14.24354 4.06176
4.06330 14.32535 4.06330
4.06481 14.40725 4.06481
4.06630 14.48923 4.06630
4.06777 14.57130 4.06777
4.06923 14.65345 4.06923
4.07066 14.73567 4.07066
4.07209 14.81796 4.07209
4.07350 14.90033 4.07350
4.07489 14.98276 4.07489
4.07628 15.06525 4.07628
4.07758 15.14795 4.07758
4.07865 15.23114 4.07865
4.07951 15.31482 4.07951
4.08015 15.39894 4.08015
4.08061 15.48349 4.08061
4.08089 15.56843 4.08089
4.08100 15.65374 4.08100
4.08095 15.73940 4.08095
4.08077 15.82538 4.08077
4.08045 15.91165 4.08045
4.08002 15.99820 4.08002
4.07947 16.08500 4.07947
4.07883 16.17204 4.07883
4.07810 16.25929 4.07810
4.07728 16.34674 4.07728
4.07640 16.43437 4.07640
4.07544 16.52216 4.07544
4.07443 16.61010 4.07443
4.07337 16.69817 4.07337
4.07227 16.78637 4.07227
4.07112 16.87468 4.07112
4.06995 16.96308 4.06995
4.06874 17.05157 4.06874
4.06751 17.14014 4.06751
4.06627 17.22877 4.06627
4.06501 17.31747 4.06501
4.06373 17.40622 4.06373
4.06245 17.49501 4.06245
4.06117 17.58384 4.06117
4.05989 17.67271 4.05989
4.05860 17.76160 4.05860
4.05732 17.85051 4.05732
4.05605 17.93944 4.05605
4.05478 18.02838 4.05478
4.05353 18.11733 4.05353
4.05228 18.20628 4.05228
4.05105 18.29524 4.05105
4.04983 18.38420 4.04983
4.04863 18.47315 4.04863
4.04744 18.56210 4.04744
4.04627 18.65105 4.04627
4.04511 18.73998 4.04511
4.04398 18.82890 4.04398
4.04286 18.91781 4.04286
4.04176 19.00671 4.04176
4.04068 19.09559 4.04068
4.03963 19.18446 4.03963
4.03859 19.27331 4.03859
4.03757 19.36215 4.03757
4.03657 19.45097 4.03657
4.03560 19.53978 4.03560
4.03464 19.62856 4.03464
4.03371 19.71733 4.03371
4.03279 19.80608 4.03279
4.03190 19.89481 4.03190
4.03102 19.98353 4.03102
4.03017 20.07223 4.03017
4.02933 20.16091 4.02933
4.02852 20.24957 4.02852
4.02772 20.33822 4.02772
4.02695 20.42685 4.02695
4.02619 20.51546 4.02619
4.02545 20.60406 4.02545
4.02473 20.69264 4.02473
4.02403 20.78121 4.02403
4.02334 20.86977 4.02334
4.02268 20.95830 4.02268
4.02203 21.04683 4.02203
4.02140 21.13534 4.02140
4.02078 21.22384 4.02078
4.02018 21.31232 4.02018
4.01960 21.40080 4.01960
4.01903 21.48926 4.01903
4.01847 21.57771 4.01847
4.01794 21.66615 4.01794
4.01741 21.75458 4.01741
4.01690 21.84300 4.01690
4.01641 21.93142 4.01641
4.01593 22.01982 4.01593
4.01546 22.10821 4.01546
4.01500 22.19660 4.01500
4.01456 22.28498 4.01456
4.01413 22.37335 4.01413
4.01371 22.46172 4.01371
4.01330 22.55008 4.01330
4.01291 22.63844 4.01291
4.01252 22.72679 4.01252
4.01215 22.81514 4.01215
4.01179 22.90348 4.01179
4.01144 22.99181 4.01144
4.01109 23.08015 4.01110
4.01076 23.16848 4.01076
4.01044 23.25681 4.01044
4.01013 23.34514 4.01013
4.00982 23.43346 4.00982
4.00953 23.52179 4.00953
4.00924 23.61011 4.00924
4.00896 23.69843 4.00896
4.00869 23.78675 4.00869
4.00843 23.87507 4.00843
4.00817 23.96339 4.00817
4.00793 24.05171 4.00793
4.00769 24.14003 4.00769
4.00745 24.22835 4.00745
4.00723 24.31668 4.00723
4.00701 24.40500 4.00701
4.00680 24.49333 4.00680
4.00659 24.58166 4.00659
4.00639 24.66999 4.00639
4.00620 24.75832 4.00620
4.00601 24.84666 4.00601
4.00582 24.93499 4.00582
4.00565 25.02334 4.00565
4.00547 25.11168 4.00547
4.00531 25.20003 4.00531
4.00514 25.28838 4.00514
4.00499 25.37674 4.00499
4.00483 25.46510 4.00484
4.00469 25.55346 4.00469
4.00454 25.64183 4.00454
4.00440 25.73020 4.00440
4.00427 25.81858 4.00427
4.00414 25.90696 4.00414
4.00401 25.99535 4.00401
4.00389 26.08374 4.00389
4.00377 26.17214 4.00377
4.00365 26.26054 4.00365
4.00354 26.34895 4.00354
4.00343 26.43737 4.00343
4.00333 26.52578 4.00333
4.00322 26.61421 4.00322
4.00312 26.70264 4.00312
4.00303 26.79108 4.00303
4.00294 26.87952 4.00294
4.00285 26.96797 4.00285
4.00276 27.05643 4.00276
4.00267 27.14489 4.00267
4.00259 27.23335 4.00259
4.00251 27.32183 4.00251
4.00243 27.41031 4.00243
4.00236 27.49879 4.00236
4.00228 27.58729 4.00229
4.00222 27.67579 4.00221
4.00215 27.76430 4.00215
4.00208 27.85281 4.00208
4.00201 27.94133 4.00202
4.00195 28.02986 4.00195
4.00189 28.11839 4.00189
4.00183 28.20693 4.00183
4.00178 28.29548 4.00178
4.00172 28.38403 4.00173
4.00167 28.47260 4.00167
4.00162 28.56117 4.00162
4.00157 28.64975 4.00157
4.00152 28.73833 4.00152
4.00147 28.82692 4.00147
4.00142 28.91552 4.00143
4.00138 29.00412 4.00138
4.00134 29.09273 4.00134
4.00130 29.18135 4.00130
4.00126 29.26998 4.00126
4.00122 29.35861 4.00122
4.00118 29.44725 4.00118
4.00114 29.53590 4.00114
4.00111 29.62455 4.00111
4.00108 29.71322 4.00107
4.00104 29.80189 4.00104
4.00101 29.89056 4.00101

Angle 0.266267 6.173129

4.00000 7.03348 4.00000
4.00000 7.03348 4.00000
4.00000 7.03348 4.00000
4.00000 7.03348 4.00000
4.00000 7.03348 4.00000
4.00000 7.03353 4.00000
4.00297 7.10629 4.00297
4.00600 7.18289 4.00600
4.00896 7.25974 4.00896
4.01185 7.33679 4.01185
4.01469 7.41404 4.01469
4.01750 7.49144 4.01750
4.02028 7.56898 4.02028
4.02305 7.64662 4.02305
4.02582 7.72434 4.02582
4.02860 7.80212 4.02860
4.03141 7.87992 4.03141
4.03426 7.95771 4.03426
4.03718 8.03546 4.03718
4.04017 8.11312 4.04017
4.04326 8.19066 4.04326
4.04649 8.26801 4.04649
4.04987 8.34511 4.04987
4.05345 8.42189 4.05345
4.05727 8.49826 4.05727
4.06139 8.57408 4.06139
4.06589 8.64923 4.06589
4.07081 8.72361 4.07081
4.07609 8.79732 4.07609
4.08175 8.87034 4.08175
4.08780 8.94265 4.08780
4.09425 9.01422 4.09425
4.10109 9.08507 4.10109
4.10830 9.15522 4.10831
4.11587 9.22473 4.11587
4.12374 9.29370 4.12374
4.13184 9.36228 4.13184
4.14006 9.43066 4.14006
4.14827 9.49911 4.14827
4.15631 9.56798 4.15631
4.16395 9.63769 4.16395
4.17093 9.70877 4.17093
4.17696 9.78181 4.17696
4.18172 9.85745 4.18172
4.18487 9.93634 4.18487
4.18617 10.01901 4.18617
4.18551 10.10563 4.18551
4.18393 10.19415 4.18393
4.18187 10.28367 4.18187
4.17935 10.37416 4.17935
4.17636 10.46564 4.17636
4.17287 10.55816 4.17287
4.16885 10.65179 4.16885
4.16423 10.74667 4.16423
4.15893 10.84297 4.15893
4.15280 10.94095 4.15280
4.14566 11.04100 4.14566
4.13724 11.14367 4.13724
4.12709 11.24982 4.12709
4.11449 11.36093 4.11449
4.09806 11.47973 4.09806
4.07520 11.61144 4.07520
4.03780 11.77226 4.03780
4.00000 13.19120 4.00000
4.00000 13.19120 4.00000
4.00000 13.19120 4.00000
4.00000 13.19120 4.00000
4.00000 13.19120 4.00000
4.00000 13.19120 4.00000
4.00000 13.19120 4.00000
4.00000 13.19120 4.00000
4.00000 13.19120 4.00000
4.00000 13.19120 4.00000
4.00000 13.19120 4.00000
4.00000 13.19120 4.00000
4.00000 13.19120 4.00000
4.00000 13.19120 4.00000
4.00000 13.19120 4.00000
4.00641 13.21659 4.00641
4.01923 13.27760 4.01923
4.02969 13.34335 4.02969
4.03784 13.41376 4.03784
4.04374 13.48870 4.04374
4.04749 13.56797 4.04749
4.04956 13.65063 4.04956
4.05142 13.73375 4.05142
4.05322 13.81701 4.05322
4.05497 13.90040 4.05497
4.05668 13.98390 4.05668
4.05835 14.06751 4.05835
4.05999 14.15121 4.05999
4.06160 14.23501 4.06160
4.06317 14.31889 4.06318
4.06473 14.40285 4.06473
4.06626 14.48688 4.06626
4.06777 14.57098 4.06777
4.06926 14.65515 4.06926
4.07073 14.73938 4.07073
4.07219 14.82366 4.07219
4.07363 14.90800 4.07363
4.07505 14.99240 4.07505
4.07647 15.07684 4.07647
4.07777 15.16154 4.07777
4.07883 15.24675 4.07883
4.07966 15.33245 4.07966
4.08028 15.41858 4.08027
4.08070 15.50514 4.08070
4.08093 15.59209 4.08093
4.08100 15.67940 4.08100
4.08091 15.76705 4.08091
4.08067 15.85501 4.08067
4.08031 15.94326 4.08031
4.07982 16.03177 4.07982
4.07922 16.12053 4.07922
4.07852 16.20950 4.07853
4.07774 16.29867 4.07774
4.07687 16.38803 4.07687
4.07593 16.47755 4.07593
4.07493 16.56722 4.07493
4.07387 16.65703 4.07387
4.07276 16.74695 4.07277
4.07161 16.83698 4.07161
4.07043 16.92710 4.07043
4.06921 17.01731 4.06921
4.06797 17.10758 4.06797
4.06670 17.19792 4.06670
4.06542 17.28831 4.06542
4.06413 17.37874 4.06413
4.06283 17.46921 4.06283
4.06152 17.55970 4.06152
4.06021 17.65022 4.06021
4.05890 17.74076 4.05890
4.05760 17.83131 4.05760
4.05630 17.92186 4.05630
4.05501 18.01242 4.05501
4.05373 18.10297 4.05373
4.05246 18.19352 4.05246
4.05120 18.28406 4.05120
4.04996 18.37459 4.04996
4.04873 18.46510 4.04873
4.04752 18.55560 4.04752
4.04633 18.64608 4.04633
4.04516 18.73654 4.04516
4.04400 18.82698 4.04400
4.04287 18.91739 4.04287
4.04175 19.00778 4.04175
4.04065 19.09815 4.04065
4.03958 19.18849 4.03958
4.03852 19.27880 4.03852
4.03749 19.36909 4.03749
4.03648 19.45935 4.03648
4.03549 19.54958 4.03549
4.03452 19.63978 4.03452
4.03357 19.72996 4.03357
4.03265 19.82011 4.03265
4.03174 19.91023 4.03174
4.03086 20.00032 4.03086
4.02999 20.09039 4.03000
4.02915 20.18042 4.02915
4.02833 20.27044 4.02833
4.02753 20.36042 4.02753
4.02674 20.45038 4.02674
4.02598 20.54032 4.02598
4.02524 20.63023 4.02524
4.02451 20.72011 4.02451
4.02380 20.80997 4.02381
4.02312 20.89981 4.02312
4.02245 20.98962 4.02245
4.02179 21.07942 4.02179
4.02116 21.16919 4.02116
4.02054 21.25894 4.02054
4.01994 21.34866 4.01994
4.01935 21.43837 4.01935
4.01878 21.52806 4.01878
4.01823 21.61773 4.01823
4.01769 21.70738 4.01769
4.01717 21.79701 4.01717
4.01666 21.88663 4.01666
4.01616 21.97623 4.01616
4.01568 22.06581 4.01568
4.01521 22.15538 4.01521
4.01476 22.24493 4.01476
4.01432 22.33447 4.01432
4.01389 22.42399 4.01389
4.01347 22.51351 4.01347
4.01307 22.60300 4.01307
4.01267 22.69249 4.01267
4.01229 22.78196 4.01229
4.01192 22.87143 4.01192
4.01156 22.96088 4.01156
4.01121 23.05032 4.01121
4.01087 23.13975 4.01087
4.01054 23.22917 4.01054
4.01022 23.31858 4.01022
4.00991 23.40799 4.00991
4.00961 23.49738 4.00961
4.00932 23.58677 4.00932
4.00903 23.67615 4.00903
4.00876 23.76553 4.00876
4.00849 23.85490 4.00849
4.00823 23.94426 4.00823
4.00798 24.03361 4.00798
4.00773 24.12296 4.00773
4.00750 24.21231 4.00750
4.00727 24.30165 4.00727
4.00704 24.39098 4.00704
4.00683 24.48032 4.00683
4.00662 24.56964 4.00662
4.00641 24.65897 4.00641
4.00622 24.74829 4.00622
4.00603 24.83761 4.00603
4.00584 24.92692 4.00584
4.00566 25.01624 4.00566
4.00549 25.10555 4.00549
4.00532 25.19486 4.00532
4.00515 25.28416 4.00515
4.00499 25.37347 4.00499
4.00484 25.46277 4.00484
4.00469 25.55208 4.00469
4.00454 25.64138 4.00454
4.00440 25.73068 4.00440
4.00427 25.81998 4.00427
4.00414 25.90929 4.00414
4.00401 25.99859 4.00401
4.00388 26.08789 4.00388
4.00376 26.17719 4.00376
4.00365 26.26649 4.00365
4.00353 26.35580 4.00353
4.00342 26.44510 4.00342
4.00332 26.53441 4.00332
4.00321 26.62371 4.00321
4.00311 26.71302 4.00311
4.00302 26.80233 4.00302
4.00292 26.89164 4.00292
4.00283 26.98095 4.00283
4.00274 27.07026 4.00274
4.00266 27.15958 4.00266
4.00258 27.24889 4.00258
4.00250 27.33821 4.00250
4.00242 27.42754 4.00242
4.00234 27.51686 4.00234
4.00227 27.60619 4.00227
4.00220 27.69551 4.00220
4.00213 27.78484 4.00213
4.00206 27.87418 4.00206
4.00200 27.96351 4.00200
4.00194 28.05285 4.00194
4.00188 28.14220 4.00188
4.00182 28.23154 4.00182
4.00176 28.32089 4.00176
4.00171 28.41024 4.00171
4.00165 28.49959 4.00165
4.00160 28.58895 4.00160
4.00155 28.67831 4.00155
4.00150 28.76767 4.00150
4.00146 28.85704 4.00146
4.00141 28.94641 4.00141
4.00137 29.03578 4.00137
4.00132 29.12516 4.00132
4.00128 29.21454 4.00128
4.00124 29.30392 4.00124
4.00120 29.39331 4.00120
4.00117 29.48270 4.00117
4.00113 29.57210 4.00113
4.00109 29.66150 4.00109
4.00106 29.75090 4.00106
4.00102 29.84031 4.00103
4.00099 29.92971 4.00099
4.00096 30.01913 4.00096
4.00093 30.10854 4.00093
4.00090 30.19796 4.00090
4.00088 30.28739 4.00088
4.00085 30.37682 4.00085
4.00082 30.46625 4.00082
4.00080 30.55568 4.00080
4.00077 30.64513 4.00077
4.00075 30.73457 4.00075
4.00072 30.82402 4.00072
4.00070 30.91347 4.00070
4.00068 31.00293 4.00068
4.00066 31.09239 4.00066
4.00064 31.18185 4.00064
4.00062 31.27132 4.00062
4.00060 31.36079 4.00060
4.00058 31.45026 4.00058
4.00056 31.53974 4.00056
4.00054 31.62923 4.00054
4.00053 31.71871 4.00053
4.00051 31.80820 4.00051
4.00049 31.89770 4.00049
4.00048 31.98720 4.00048
4.00046 32.07670 4.00046
4.00045 32.16621 4.00045
4.00043 32.25572 4.00043
4.00042 32.34523 4.00042
4.00041 32.43475 4.00041
4.00039 32.52427 4.00039
4.00038 32.61380 4.00038
4.00037 32.70333 4.00037
4.00036 32.79287 4.00036
4.00035 32.88240 4.00035
4.00034 32.97194 4.00034
4.00033 33.06149 4.00033
4.00032 33.15104 4.00032
4.00031 33.24059 4.00031
4.00030 33.33015 4.00030
4.00029 33.41971 4.00029
4.00028 33.50928 4.00028
4.00027 33.59885 4.00027
4.00026 33.68842 4.00026
4.00025 33.77800 4.00025
4.00024 33.86758 4.00024
4.00024 33.95716 4.00024
4.00023 34.04675 4.00023
4.00022 34.13635 4.00022
4.00022 34.22594 4.00022
4.00021 34.31554 4.00021
4.00020 34.40514 4.00020
4.00020 34.49475 4.00020
4.00019 34.58436 4.00019
4.00018 34.67397 4.00018
4.00018 34.76359 4.00018
4.00017 34.85321 4.00017
4.00017 34.94284 4.00017
4.00016 35.03246 4.00016
4.00016 35.12210 4.00016
4.00015 35.21173 4.00015
4.00015 35.30137 4.00015
4.00014 35.39102 4.00014
4.00014 35.48066 4.00014
4.00013 35.57031 4.00013
4.00013 35.65997 4.00013
4.00012 35.74963 4.00012
4.00012 35.83929 4.00012
4.00012 35.92895 4.00012
4.00011 36.01862 4.00011
4.00011 36.10829 4.00011
4.00011 36.19797 4.00011
4.00010 36.28765 4.00010
4.00010 36.37733 4.00010
4.00010 36.46701 4.00010
4.00009 36.55670 4.00009
4.00009 36.64639 4.00009
4.00009 36.73609 4.00009
4.00008 36.82579 4.00008
4.00008 36.91549 4.00008
4.00008 37.00520 4.00008
4.00008 37.09490 4.00008
4.00007 37.18462 4.00007
4.00007 37.27433 4.00007
4.00007 37.36404 4.00007
4.00007 37.45376 4.00007
4.00007 37.54348 4.00007
4.00006 37.63321 4.00006
4.00006 37.72294 4.00006
4.00006 37.81267 4.00006
4.00006 37.90241 4.00006
4.00006 37.99215 4.00006
4.00005 38.08189 4.00005
4.00005 38.17164 4.00005
4.00005 38.26139 4.00005
4.00005 38.35114 4.00005
4.00005 38.44090 4.00005
4.00005 38.53065 4.00005
4.00004 38.62042 4.00004
4.00004 38.71018 4.00004
4.00004 38.79995 4.00004
4.00004 38.88972 4.00004
4.00004 38.97949 4.00004
4.00004 39.06927 4.00004
4.00004 39.15905 4.00004
4.00004 39.24883 4.00004
4.00003 39.33862 4.00003
4.00003 39.42840 4.00003
4.00003 39.51819 4.00003
4.00003 39.60799 4.00003
4.00003 39.69779 4.00003
4.00003 39.78758 4.00003
4.00003 39.87739 4.00003
4.00003 39.96719 4.00003
4.00003 40.05700 4.00003
4.00003 40.14681 4.00003
4.00003 40.23663 4.00003
4.00002 40.32644 4.00002
4.00002 40.41626 4.00002
4.00002 40.50608 4.00002
4.00002 40.59590 4.00002
4.00002 40.68573 4.00002
4.00002 40.77556 4.00002
4.00002 40.86539 4.00002
4.00002 40.95523 4.00002
4.00002 41.04507 4.00002
4.00002 41.13491 4.00002
4.00002 41.22475 4.00002
4.00002 41.31460 4.00002
4.00002 41.40444 4.00002
4.00002 41.49429 4.00002
4.00002 41.58415 4.00002
4.00002 41.67400 4.00002
4.00001 41.76386 4.00001

