Angle 0.020520 2.277210

4.00000 7.03348 4.00000
4.00000 7.03348 4.00000
4.00000 7.03348 4.00000
4.00000 7.03348 4.00000
4.00000 7.03348 4.00000
4.00000 7.03348 4.00000
4.00000 7.03348 4.00000
4.00000 7.03348 4.00000
4.00000 7.03348 4.00000
4.00000 7.03348 4.00000
4.00000 7.03348 4.00000
4.00000 7.03348 4.00000
4.00000 7.03348 4.00000
4.00000 7.03348 4.00000
4.00000 7.03348 4.00000
4.00000 7.03348 4.00000
4.00000 7.03348 4.00000
4.00000 7.03348 4.00000
4.00000 7.03348 4.00000
4.00000 7.03348 4.00000
4.00000 7.03348 4.00000
4.00000 7.03348 4.00000
4.00000 7.03348 4.00000
4.00000 7.03348 4.00000
4.00000 7.03348 4.00000
4.00000 7.03348 4.00000
4.00000 7.03348 4.00000
4.00000 7.03348 4.00000
4.00000 7.03348 4.00000
4.00000 7.03348 4.00000
4.00000 7.03348 4.00000
4.00000 7.03348 4.00000
4.00000 7.03348 4.00000
4.00000 7.03348 4.00000
4.00000 7.03348 4.00000
4.00000 7.03348 4.00000
4.00000 7.03348 4.00000
4.00000 7.03348 4.00000
4.00000 7.03348 4.00000
4.00000 7.03348 4.00000
4.00000 7.03348 4.00000
4.00000 7.03348 4.00000
4.00000 7.03347 4.00000
4.00000 7.03347 4.00000
4.00000 7.03347 4.00000
4.00000 7.03347 4.00000
4.00000 7.03347 4.00000
4.00000 7.03347 4.00000
4.00000 7.03347 4.00000
4.00000 7.03347 4.00000
4.00000 7.03347 4.00000
4.00000 7.03347 4.00000
4.00000 7.03347 4.00000
4.00000 7.03347 4.00000
4.00000 7.03347 4.00000
4.00000 7.03347 4.00000
4.00000 7.03347 4.00000
4.00000 7.03347 4.00000
4.00000 7.03347 4.00000
4.00000 7.03347 4.00000
4.00000 7.03347 4.00000
4.00000 7.03347 4.00000
4.00000 7.03347 4.00000
4.00000 7.03347 4.00000
4.00000 7.03348 4.00000
4.00000 7.03348 4.00000
4.00000 7.03348 4.00000
4.00000 7.03348 4.00000
4.00000 7.03348 4.00000
4.00000 7.03348 4.00000
4.00000 7.03348 4.00000
4.00000 7.03348 4.00000
4.00000 7.03348 4.00000
4.00000 7.03348 4.00000
4.00000 7.03348 4.00000
4.00000 7.03348 4.00000
4.00000 7.03348 4.00000
4.00000 7.03348 4.00000
4.00000 7.03348 4.00000
4.00000 7.03348 4.00000
4.00000 7.03348 4.00000
4.00000 7.03348 4.00000
4.00000 7.03348 4.00000
4.00000 7.03348 4.00000
4.00000 7.03348 4.00000
4.00000 7.03348 4.00000
4.00000 7.03348 4.00000
4.00000 7.03348 4.00000
4.00000 7.03348 4.00000
4.00000 7.03348 4.00000
4.00000 7.03348 4.00000
4.00000 7.03348 4.00000
4.00000 7.03348 4.00000
4.00000 7.03348 4.00000
4.00000 7.03348 4.00000
4.00000 7.03348 4.00000
4.00000 7.03348 4.00000
4.00000 7.03348 4.00000
4.00000 7.03348 4.00000
4.00000 7.03348 4.00000
4.00000 7.03348 4.00000
4.00000 7.03348 4.00000
4.00000 7.03348 4.00000
4.00000 7.03348 4.00000
4.00000 7.03348 4.00000
4.00000 7.03348 4.00000
4.00000 7.03348 4.00000
4.00000 7.03348 4.00000
4.00000 7.03348 4.00000
4.00000 7.03348 4.00000
4.00000 7.03348 4.00000
4.00000 7.03348 4.00000
4.00000 7.03348 4.00000
4.00000 7.03348 4.00000
4.00000 7.03348 4.00000
4.00000 7.03348 4.00000
4.00000 7.03348 4.00000
4.00000 7.03348 4.00000
4.00000 7.03348 4.00000
4.00000 7.03348 4.00000
4.00000 7.03348 4.00000
4.00000 7.03348 4.00000
4.00000 7.03348 4.00000
4.00000 7.03348 4.00000
4.00000 7.03348 4.00000
4.00000 7.03348 4.00000
4.00000 7.03348 4.00000
4.00000 7.03348 4.00000
4.00000 7.03348 4.00000
4.00000 7.03348 4.00000
4.00000 7.03348 4.00000
4.00000 7.03348 4.00000
4.00000 7.03348 4.00000
4.00000 7.03348 4.00000
4.00000 7.03348 4.00000
4.00000 7.03348 4.00000
4.00000 7.03348 4.00000
4.00000 7.03348 4.00000
4.00000 7.03348 4.00000
4.00000 7.03348 4.00000
4.00000 7.03348 4.00000
4.00000 7.03348 4.00000
4.00000 7.03348 4.00000
4.00000 7.03348 4.00000
4.00000 7.03348 4.00000
4.00000 7.03348 4.00000
4.00000 7.03348 4.00000
4.00000 7.03348 4.00000
4.00000 7.03348 4.00000
4.00000 7.03348 4.00000
4.00000 7.03348 4.00000
4.00000 7.03348 4.00000
4.00000 7.03348 4.00000
4.00000 7.03348 4.00000
4.00000 7.03348 4.00000
4.00000 7.03348 4.00000
4.00000 7.03348 4.00000
4.00000 7.03348 4.00000
4.00000 7.03348 4.00000
4.00000 7.03348 4.00000
4.00000 7.03348 4.00000
4.00000 7.03348 4.00000
4.00000 7.03348 4.00000
4.00000 7.03348 4.00000
4.00000 7.03348 4.00000
4.00000 7.03348 4.00000
4.00000 7.03348 4.00000
4.00000 7.03348 4.00000
4.00000 7.03348 4.00000
4.00000 7.03348 4.00000
4.00000 7.03348 4.00000
4.00000 7.03348 4.00000
4.00000 7.03348 4.00000
4.00000 7.03348 4.00000
4.00000 7.03348 4.00000
4.00000 7.03348 4.00000
4.00000 7.03348 4.00000
4.00000 7.03348 4.00000
4.00000 7.03348 4.00000
4.00000 7.03348 4.00000
4.00000 7.03348 4.00000
4.00000 7.03348 4.00000
4.00000 7.03348 4.00000
4.00000 7.03348 4.00000
4.00000 7.03348 4.00000
4.00000 7.03348 4.00000
4.00000 7.03348 4.00000
4.00000 7.03348 4.00000
4.00000 7.03348 4.00000
4.00000 7.03348 4.00000
4.00000 7.03348 4.00000
4.00000 7.03348 4.00000
4.00000 7.03348 4.00000
4.00000 7.03348 4.00000
4.00000 7.03348 4.00000
4.00000 7.03349 4.00000
4.00000 7.03349 4.00000
4.00000 7.03350 4.00000
4.00000 7.03348 4.00000
4.00000 7.03348 4.00000
4.00000 7.03348 4.00000
4.00000 7.03348 4.00000
4.00000 7.03348 4.00000
4.00000 7.03348 4.00000
4.00000 7.03349 4.00000
4.00000 7.03348 4.00000
4.00049 7.04532 4.00049
4.00371 7.12464 4.00371
4.00683 7.20420 4.00683
4.00987 7.28397 4.00987
4.01285 7.36392 4.01286
4.01579 7.44403 4.01579
4.01868 7.52426 4.01868
4.02155 7.60459 4.02155
4.02441 7.68498 4.02441
4.02728 7.76541 4.02728
4.03017 7.84585 4.03017
4.03310 7.92627 4.03310
4.03609 8.00661 4.03609
4.03915 8.08685 4.03915
4.04230 8.16694 4.04230
4.04559 8.24683 4.04559
4.04903 8.32644 4.04903
4.05267 8.40570 4.05267
4.05656 8.48450 4.05656
4.06075 8.56274 4.06075
4.06533 8.64026 4.06533
4.07035 8.71692 4.07035
4.07576 8.79285 4.07576
4.08157 8.86803 4.08157
4.08778 8.94242 4.08778
4.09442 9.01602 4.09442
4.10146 9.08883 4.10146
4.10891 9.16088 4.10891
4.11672 9.23224 4.11671
4.12483 9.30303 4.12483
4.13317 9.37340 4.13317
4.14162 9.44358 4.14162
4.15003 9.51389 4.15003
4.15820 9.58470 4.15820
4.16589 9.65651 4.16589
4.17281 9.72989 4.17281
4.17863 9.80550 4.17863
4.18299 9.88405 4.18299
4.18557 9.96621 4.18557
4.18613 10.05245 4.18613
4.18491 10.14227 4.18491
4.18308 10.23333 4.18308
4.18076 10.32541 4.18076
4.17796 10.41849 4.17795
4.17465 10.51261 4.17465
4.17080 10.60782 4.17080
4.16637 10.70424 4.16637
4.16126 10.80204 4.16126
4.15536 10.90145 4.15536
4.14850 11.00282 4.14850
4.14042 11.10665 4.14041
4.13073 11.21372 4.13072
4.11878 11.32533 4.11878
4.10339 11.44386 4.10339
4.08233 11.57375 4.08233
4.04970 11.72681 4.04970
4.00000 13.19120 4.00000
4.00000 13.19120 4.00000
4.00000 13.19120 4.00000
4.00000 13.19120 4.00000
4.00000 13.19120 4.00000
4.00000 13.19120 4.00000
4.00000 13.19120 4.00000
4.00000 13.19121 4.00000
4.00000 13.19120 4.00000
4.00000 13.19120 4.00000
4.00000 13.19120 4.00000
4.00000 13.19120 4.00000
4.00000 13.19120 4.00000
4.00000 13.19120 4.00000
4.00000 13.19120 4.00000
4.00716 13.21976 4.00716
4.02005 13.28214 4.02005
4.03051 13.34943 4.03051
4.03857 13.42152 4.03857
4.04431 13.49826 4.04431
4.04785 13.57944 4.04785
4.04985 13.66371 4.04985
4.05173 13.74824 4.05173
4.05356 13.83290 4.05356
4.05533 13.91769 4.05533
4.05706 14.00257 4.05706
4.05875 14.08755 4.05875
4.06040 14.17263 4.06040
4.06203 14.25778 4.06203
4.06362 14.34300 4.06362
4.06519 14.42829 4.06519
4.06674 14.51365 4.06674
4.06827 14.59906 4.06827
4.06977 14.68453 4.06977
4.07126 14.77006 4.07126
4.07273 14.85563 4.07273
4.07419 14.94124 4.07419
4.07563 15.02690 4.07563
4.07705 15.11263 4.07705
4.07826 15.19879 4.07826
4.07923 15.28544 4.07923
4.07997 15.37257 4.07997
4.08050 15.46013 4.08050
4.08084 15.54810 4.08084
4.08099 15.63645 4.08099
4.08097 15.72515 4.08097
4.08080 15.81417 4.08080
4.08049 15.90349 4.08049
4.08005 15.99308 4.08005
4.07949 16.08291 4.07949
4.07882 16.17298 4.07882
4.07806 16.26325 4.07806
4.07722 16.35371 4.07721
4.07629 16.44433 4.07629
4.07530 16.53511 4.07530
4.07424 16.62601 4.07424
4.07314 16.71704 4.07314
4.07199 16.80817 4.07199
4.07080 16.89939 4.07080
4.06957 16.99069 4.06957
4.06832 17.08205 4.06832
4.06705 17.17348 4.06705
4.06575 17.26495 4.06575
4.06445 17.35646 4.06445
4.06313 17.44800 4.06313
4.06181 17.53957 4.06181
4.06049 17.63115 4.06049
4.05916 17.72274 4.05916
4.05784 17.81434 4.05784
4.05653 17.90593 4.05653
4.05522 17.99752 4.05522
4.05392 18.08911 4.05392
4.05264 18.18068 4.05264
4.05137 18.27223 4.05137
4.05011 18.36377 4.05011
4.04887 18.45528 4.04887
4.04764 18.54678 4.04764
4.04644 18.63824 4.04643
4.04525 18.72968 4.04524
4.04408 18.82109 4.04408
4.04293 18.91247 4.04293
4.04180 19.00382 4.04180
4.04069 19.09514 4.04069
4.03961 19.18642 4.03960
4.03854 19.27767 4.03854
4.03750 19.36889 4.03749
4.03647 19.46007 4.03647
4.03547 19.55122 4.03547
4.03450 19.64233 4.03449
4.03354 19.73341 4.03354
4.03261 19.82446 4.03260
4.03169 19.91547 4.03169
4.03080 20.00645 4.03080
4.02993 20.09739 4.02993
4.02908 20.18830 4.02908
4.02825 20.27918 4.02825
4.02744 20.37002 4.02744
4.02666 20.46083 4.02665
4.02589 20.55161 4.02589
4.02514 20.64236 4.02514
4.02441 20.73308 4.02441
4.02370 20.82377 4.02370
4.02301 20.91443 4.02301
4.02233 21.00507 4.02233
4.02168 21.09567 4.02168
4.02104 21.18625 4.02104
4.02042 21.27680 4.02042
4.01982 21.36732 4.01982
4.01923 21.45782 4.01923
4.01866 21.54829 4.01866
4.01810 21.63874 4.01810
4.01756 21.72917 4.01756
4.01704 21.81957 4.01704
4.01653 21.90995 4.01653
4.01603 22.00031 4.01603
4.01555 22.09065 4.01555
4.01508 22.18097 4.01508
4.01463 22.27127 4.01463
4.01418 22.36155 4.01419
4.01376 22.45181 4.01376
4.01334 22.54205 4.01334
4.01294 22.63227 4.01294
4.01254 22.72248 4.01254
4.01216 22.81268 4.01216
4.01179 22.90285 4.01179
4.01143 22.99301 4.01143
4.01108 23.08316 4.01108
4.01074 23.17329 4.01074
4.01042 23.26341 4.01042
4.01010 23.35352 4.01010
4.00979 23.44361 4.00979
4.00949 23.53369 4.00949
4.00920 23.62376 4.00920
4.00891 23.71382 4.00892
4.00864 23.80387 4.00864
4.00837 23.89391 4.00838
4.00812 23.98393 4.00812
4.00787 24.07395 4.00787

Angle 0.632215 5.032129

4.00000 7.03348 4.00000
4.00000 7.03348 4.00000
4.00000 7.03348 4.00000
4.00000 7.03348 4.00000
4.00000 7.03348 4.00000
4.00000 7.03348 4.00000
4.00000 7.03348 4.00000
4.00000 7.03348 4.00000
4.00000 7.03348 4.00000
4.00000 7.03348 4.00000
4.00000 7.03348 4.00000
4.00000 7.03348 4.00000
4.00000 7.03348 4.00000
4.00000 7.03348 4.00000
4.00000 7.03348 4.00000
4.00000 7.03348 4.00000
4.00000 7.03348 4.00000
4.00000 7.03348 4.00000
4.00000 7.03348 4.00000
4.00000 7.03348 4.00000
4.00000 7.03348 4.00000
4.00000 7.03348 4.00000
4.00000 7.03348 4.00000
4.00000 7.03348 4.00000
4.00000 7.03348 4.00000
4.00000 7.03348 4.00000
4.00000 7.03348 4.00000
4.00000 7.03348 4.00000
4.00000 7.03348 4.00000
4.00000 7.03348 4.00000
4.00000 7.03348 4.00000
4.00000 7.03348 4.00000
4.00000 7.03348 4.00000
4.00000 7.03348 4.00000
4.00000 7.03348 4.00000
4.00000 7.03348 4.00000
4.00000 7.03348 4.00000
4.00000 7.03348 4.00000
4.00000 7.03348 4.00000
4.00000 7.03348 4.00000
4.00000 7.03348 4.00000
4.00000 7.03348 4.00000
4.00000 7.03348 4.00000
4.00000 7.03348 4.00000
4.00000 7.03348 4.00000
4.00000 7.03348 4.00000
4.00000 7.03348 4.00000
4.00000 7.03348 4.00000
4.00000 7.03348 4.00000
4.00000 7.03348 4.00000
4.00000 7.03348 4.00000
4.00000 7.03348 4.00000
4.00000 7.03348 4.00000
4.00000 7.03348 4.00000
4.00000 7.03348 4.00000
4.00000 7.03348 4.00000
4.00000 7.03348 4.00000
4.00000 7.03348 4.00000
4.00000 7.03348 4.00000
4.00000 7.03348 4.00000
4.00000 7.03348 4.00000
4.00000 7.03348 4.00000
4.00000 7.03348 4.00000
4.00000 7.03348 4.00000
4.00000 7.03348 4.00000
4.00000 7.03348 4.00000
4.00000 7.03348 4.00000
4.00000 7.03348 4.00000
4.00000 7.03348 4.00000
4.00000 7.03348 4.00000
4.00000 7.03348 4.00000
4.00000 7.03348 4.00000
4.00000 7.03348 4.00000
4.00000 7.03348 4.00000
4.00000 7.03348 4.00000
4.00000 7.03348 4.00000
4.00000 7.03348 4.00000
4.00000 7.03348 4.00000
4.00000 7.03348 4.00000
4.00000 7.03348 4.00000
4.00000 7.03348 4.00000
4.00000 7.03348 4.00000
4.00000 7.03348 4.00000
4.00000 7.03348 4.00000
4.00000 7.03348 4.00000
4.00000 7.03348 4.00000
4.00000 7.03348 4.00000
4.00000 7.03348 4.00000
4.00000 7.03348 4.00000
4.00000 7.03348 4.00000
4.00000 7.03348 4.00000
4.00000 7.03348 4.00000
4.00000 7.03348 4.00000
4.00000 7.03348 4.00000
4.00000 7.03348 4.00000
4.00000 7.03348 4.00000
4.00000 7.03348 4.00000
4.00000 7.03348 4.00000
4.00000 7.03348 4.00000
4.00000 7.03348 4.00000
4.00000 7.03348 4.00000
4.00000 7.03348 4.00000
4.00000 7.03348 4.00000
4.00000 7.03347 4.00000
4.00000 7.03347 4.00000
4.00000 7.03347 4.00000
4.00000 7.03347 4.00000
4.00000 7.03347 4.00000
4.00000 7.03347 4.00000
4.00000 7.03347 4.00000
4.00000 7.03346 4.00000
4.00000 7.03348 4.00000
4.00000 7.03348 4.00000
4.00000 7.03348 4.00000
4.00000 7.03348 4.00000
4.00000 7.03348 4.00000
4.00000 7.03348 4.00000
4.00000 7.03348 4.00000
4.00000 7.03348 4.00000
4.00000 7.03348 4.00000
4.00000 7.03348 4.00000
4.00000 7.03348 4.00000
4.00000 7.03348 4.00000
4.00000 7.03348 4.00000
4.00000 7.03348 4.00000
4.00000 7.03348 4.00000
4.00000 7.03348 4.00000
4.00000 7.03348 4.00000
4.00000 7.03348 4.00000
4.00000 7.03348 4.00000
4.00000 7.03348 4.00000
4.00000 7.03348 4.00000
4.00000 7.03348 4.00000
4.00000 7.03348 4.00000
4.00000 7.03348 4.00000
4.00000 7.03348 4.00000
4.00000 7.03348 4.00000
4.00000 7.03348 4.00000
4.00000 7.03348 4.00000
4.00000 7.03348 4.00000
4.00000 7.03348 4.00000
4.00000 7.03348 4.00000
4.00000 7.03348 4.00000
4.00000 7.03348 4.00000
4.00000 7.03348 4.00000
4.00000 7.03348 4.00000
4.00000 7.03348 4.00000
4.00000 7.03348 4.00000
4.00000 7.03348 4.00000
4.00000 7.03348 4.00000
4.00000 7.03348 4.00000
4.00000 7.03348 4.00000
4.00000 7.03348 4.00000
4.00000 7.03348 4.00000
4.00000 7.03348 4.00000
4.00000 7.03348 4.00000
4.00000 7.03348 4.00000
4.00000 7.03348 4.00000
4.00000 7.03348 4.00000
4.00000 7.03348 4.00000
4.00000 7.03348 4.00000
4.00000 7.03348 4.00000
4.00000 7.03348 4.00000
4.00000 7.03348 4.00000
4.00000 7.03348 4.00000
4.00000 7.03348 4.00000
4.00000 7.03348 4.00000
4.00000 7.03348 4.00000
4.00000 7.03349 4.00000
4.00000 7.03348 4.00000
4.00000 7.03348 4.00000
4.00000 7.03349 4.00000
4.00000 7.03348 4.00000
4.00101 7.05801 4.00101
4.00401 7.13233 4.00401
4.00694 7.20694 4.00694
4.00979 7.28180 4.00979
4.01259 7.35688 4.01260
4.01535 7.43215 4.01535
4.01808 7.50759 4.01808
4.02079 7.58318 4.02079
4.02349 7.65889 4.02349
4.02619 7.73469 4.02619
4.02890 7.81057 4.02890
4.03165 7.88649 4.03165
4.03444 7.96243 4.03444
4.03728 8.03834 4.03728
4.04021 8.11418 4.04021
4.04323 8.18993 4.04323
4.04638 8.26553 4.04638
4.04968 8.34091 4.04968
4.05316 8.41600 4.05316
4.05688 8.49073 4.05688
4.06088 8.56497 4.06088
4.06523 8.63861 4.06523
4.06998 8.71151 4.06998
4.07509 8.78379 4.07509
4.08056 8.85543 4.08056
4.08640 8.92640 4.08640
4.09262 8.99669 4.09262
4.09923 9.06630 4.09923
4.10620 9.13524 4.10620
4.11353 9.20357 4.11353
4.12116 9.27135 4.12116
4.12903 9.33872 4.12903
4.13707 9.40584 4.13707
4.14515 9.47295 4.14515
4.15313 9.54033 4.15313
4.16081 9.60837 4.16081
4.16798 9.67751 4.16798
4.17436 9.74830 4.17436
4.17965 9.82132 4.17965
4.18354 9.89721 4.18354
4.18576 9.97653 4.18575
4.18608 10.05969 4.18608
4.18484 10.14603 4.18484
4.18308 10.23350 4.18308
4.18086 10.32194 4.18086
4.17819 10.41133 4.17819
4.17506 10.50171 4.17505
4.17143 10.59314 4.17143
4.16727 10.68570 4.16727
4.16250 10.77953 4.16250
4.15702 10.87484 4.15702
4.15069 10.97190 4.15069
4.14331 11.07112 4.14331
4.13458 11.17309 4.13458
4.12402 11.27879 4.12402
4.11080 11.38986 4.11080
4.09339 11.50935 4.09339
4.06872 11.64342 4.06872
4.02559 11.81447 4.02559
4.00000 13.19120 4.00000
4.00000 13.19120 4.00000
4.00000 13.19120 4.00000
4.00000 13.19120 4.00000
4.00000 13.19120 4.00000
4.00000 13.19120 4.00000
4.00000 13.19120 4.00000
4.00000 13.19120 4.00000
4.00000 13.19120 4.00000
4.00000 13.19120 4.00000
4.00000 13.19120 4.00000
4.00000 13.19120 4.00000
4.00000 13.19120 4.00000
4.00000 13.19120 4.00000
4.00000 13.19120 4.00000
4.00628 13.21607 4.00628
4.01898 13.27624 4.01898
4.02937 13.34105 4.02937
4.03751 13.41043 4.03751
4.04345 13.48423 4.04345
4.04729 13.56227 4.04729
4.04940 13.64382 4.04940
4.05124 13.72594 4.05124
4.05303 13.80821 4.05303
4.05477 13.89061 4.05477
4.05646 13.97313 4.05646
4.05812 14.05577 4.05812
4.05974 14.13852 4.05974
4.06134 14.22136 4.06134
4.06290 14.30429 4.06290
4.06444 14.38731 4.06444
4.06596 14.47040 4.06596
4.06746 14.55358 4.06746
4.06893 14.63682 4.06893
4.07039 14.72014 4.07039
4.07184 14.80352 4.07184
4.07327 14.88696 4.07327
4.07468 14.97046 4.07468
4.07609 15.05402 4.07609
4.07743 15.13773 4.07743
4.07854 15.22193 4.07854
4.07943 15.30662 4.07943
4.08011 15.39176 4.08011
4.08058 15.47733 4.08058
4.08087 15.56330 4.08087
4.08099 15.64964 4.08099
4.08096 15.73632 4.08096
4.08077 15.82333 4.08077
4.08046 15.91063 4.08046
4.08002 15.99821 4.08002
4.07947 16.08604 4.07947
4.07881 16.17410 4.07881
4.07807 16.26237 4.07807
4.07724 16.35083 4.07724
4.07634 16.43947 4.07634
4.07537 16.52826 4.07537
4.07435 16.61720 4.07435
4.07327 16.70627 4.07327
4.07215 16.79546 4.07215
4.07099 16.88475 4.07099
4.06980 16.97412 4.06980
4.06857 17.06358 4.06857
4.06733 17.15311 4.06733
4.06607 17.24271 4.06607
4.06479 17.33235 4.06479
4.06351 17.42204 4.06351
4.06221 17.51176 4.06221
4.06092 17.60152 4.06092
4.05962 17.69130 4.05962
4.05832 17.78111 4.05832
4.05703 17.87092 4.05703
4.05575 17.96075 4.05575
4.05447 18.05058 4.05447
4.05320 18.14041 4.05320
4.05195 18.23024 4.05195
4.05071 18.32007 4.05071
4.04948 18.40989 4.04948
4.04827 18.49970 4.04827
4.04708 18.58949 4.04707
4.04590 18.67928 4.04590
4.04474 18.76904 4.04474
4.04360 18.85879 4.04360
4.04248 18.94852 4.04248
4.04138 19.03824 4.04138
4.04030 19.12793 4.04030
4.03924 19.21760 4.03924
4.03820 19.30725 4.03820
4.03718 19.39688 4.03718
4.03618 19.48648 4.03618
4.03521 19.57606 4.03520
4.03425 19.66562 4.03425
4.03331 19.75516 4.03331
4.03240 19.84467 4.03240
4.03151 19.93416 4.03151
4.03063 20.02362 4.03063
4.02978 20.11307 4.02978
4.02895 20.20249 4.02895
4.02814 20.29188 4.02814
4.02734 20.38126 4.02734
4.02657 20.47062 4.02657
4.02582 20.55995 4.02582
4.02508 20.64926 4.02508
4.02437 20.73855 4.02437
4.02367 20.82783 4.02367
4.02299 20.91708 4.02299
4.02232 21.00632 4.02232
4.02168 21.09553 4.02168
4.02105 21.18473 4.02105
4.02044 21.27391 4.02044
4.01984 21.36308 4.01984
4.01926 21.45222 4.01926
4.01870 21.54136 4.01870
4.01815 21.63047 4.01815
4.01762 21.71957 4.01762
4.01710 21.80866 4.01710
4.01660 21.89773 4.01660
4.01610 21.98680 4.01610
4.01563 22.07585 4.01563
4.01516 22.16488 4.01516
4.01471 22.25391 4.01471
4.01427 22.34292 4.01428
4.01385 22.43193 4.01385
4.01344 22.52092 4.01344
4.01303 22.60990 4.01304
4.01264 22.69888 4.01264
4.01227 22.78784 4.01227
4.01190 22.87680 4.01190
4.01154 22.96575 4.01154
4.01119 23.05469 4.01119
4.01085 23.14363 4.01086
4.01053 23.23256 4.01053
4.01021 23.32149 4.01021
4.00990 23.41040 4.00990
4.00960 23.49932 4.00960
4.00931 23.58822 4.00931
4.00903 23.67713 4.00903
4.00875 23.76603 4.00876
4.00849 23.85492 4.00849
4.00823 23.94382 4.00823
4.00798 24.03271 4.00798
4.00774 24.12159 4.00774
4.00750 24.21048 4.00750
4.00727 24.29936 4.00727
4.00705 24.38824 4.00705
4.00684 24.47712 4.00684
4.00663 24.56600 4.00663
4.00642 24.65488 4.00642
4.00623 24.74375 4.00623
4.00604 24.83262 4.00604
4.00585 24.92150 4.00585
4.00567 25.01037 4.00567
4.00550 25.09925 4.00550
4.00533 25.18813 4.00533
4.00517 25.27700 4.00517
4.00501 25.36588 4.00501
4.00485 25.45476 4.00485
4.00470 25.54364 4.00470
4.00456 25.63252 4.00456
4.00442 25.72140 4.00442
4.00428 25.81029 4.00428
4.00415 25.89918 4.00415
4.00402 25.98807 4.00402
4.00390 26.07696 4.00390
4.00378 26.16585 4.00378
4.00366 26.25475 4.00366
4.00355 26.34365 4.00355
4.00344 26.43255 4.00344
4.00333 26.52146 4.00333

Angle 0.125701 1.207029

4.00000 7.03348 4.00000
4.00000 7.03348 4.00000
4.00000 7.03348 4.00000
4.00000 7.03348 4.00000
4.00000 7.03348 4.00000
4.00000 7.03348 4.00000
4.00000 7.03348 4.00000
4.00000 7.03348 4.00000
4.00000 7.03348 4.00000
4.00000 7.03348 4.00000
4.00000 7.03348 4.00000
4.00000 7.03348 4.00000
4.00000 7.03348 4.00000
4.00000 7.03348 4.00000
4.00000 7.03348 4.00000
4.00000 7.03348 4.00000
4.00000 7.03348 4.00000
4.00000 7.03348 4.00000
4.00000 7.03348 4.00000
4.00000 7.03348 4.00000
4.00000 7.03348 4.00000
4.00000 7.03348 4.00000
4.00000 7.03348 4.00000
4.00000 7.03348 4.00000
4.00000 7.03348 4.00000
4.00000 7.03348 4.00000
4.00000 7.03348 4.00000
4.00000 7.03348 4.00000
4.00000 7.03348 4.00000
4.00000 7.03348 4.00000
4.00000 7.03348 4.00000
4.00000 7.03348 4.00000
4.00000 7.03348 4.00000
4.00000 7.03348 4.00000
4.00000 7.03348 4.00000
4.00000 7.03348 4.00000
4.00000 7.03348 4.00000
4.00000 7.03348 4.00000
4.00000 7.03348 4.00000
4.00000 7.03348 4.00000
4.00000 7.03348 4.00000
4.00000 7.03348 4.00000
4.00000 7.03348 4.00000
4.00000 7.03348 4.00000
4.00000 7.03348 4.00000
4.00000 7.03347 4.00000
4.00000 7.03347 4.00000
4.00000 7.03348 4.00000
4.00000 7.03348 4.00000
4.00000 7.03348 4.00000
4.00000 7.03348 4.00000
4.00000 7.03349 4.00000
4.00000 7.03350 4.00000
4.00000 7.03350 4.00000
4.00000 7.03348 4.00000
4.00000 7.03348 4.00000
4.00000 7.03348 4.00000
4.00000 7.03348 4.00000
4.00000 7.03348 4.00000
4.00000 7.03348 4.00000
4.00000 7.03348 4.00000
4.00000 7.03348 4.00000
4.00000 7.03348 4.00000
4.00000 7.03348 4.00000
4.00000 7.03348 4.00000
4.00000 7.03348 4.00000
4.00000 7.03348 4.00000
4.00000 7.03348 4.00000
4.00000 7.03348 4.00000
4.00000 7.03348 4.00000
4.00000 7.03348 4.00000
4.00000 7.03349 4.00000
4.00000 7.03349 4.00000
4.00000 7.03348 4.00000
4.00005 7.03465 4.00005
4.00310 7.10953 4.00310
4.00608 7.18476 4.00608
4.00898 7.26024 4.00898
4.01182 7.33594 4.01182
4.01461 7.41184 4.01461
4.01737 7.48791 4.01737
4.02011 7.56413 4.02011
4.02283 7.64046 4.02283
4.02555 7.71690 4.02555
4.02829 7.79340 4.02829
4.03105 7.86995 4.03105
4.03385 7.94651 4.03385
4.03670 8.02304 4.03670
4.03964 8.09951 4.03964
4.04266 8.17588 4.04266
4.04581 8.25210 4.04581
4.04911 8.32811 4.04911
4.05258 8.40383 4.05258
4.05629 8.47919 4.05629
4.06027 8.55407 4.06027
4.06459 8.62834 4.06459
4.06933 8.70187 4.06933
4.07443 8.77475 4.07443
4.07989 8.84698 4.07989
4.08573 8.91853 4.08573
4.09196 8.98938 4.09196
4.09857 9.05954 4.09857
4.10556 9.12901 4.10556
4.11290 9.19785 4.11290
4.12056 9.26612 4.12056
4.12847 9.33396 4.12847
4.13655 9.40153 4.13655
4.14468 9.46905 4.14468
4.15272 9.53684 4.15272
4.16047 9.60526 4.16047
4.16771 9.67478 4.16771
4.17416 9.74593 4.17416
4.17952 9.81932 4.17952
4.18348 9.89559 4.18348
4.18574 9.97532 4.18574
4.18609 10.05891 4.18609
4.18485 10.14575 4.18485
4.18307 10.23372 4.18307
4.18084 10.32266 4.18084
4.17815 10.41257 4.17815
4.17499 10.50348 4.17499
4.17133 10.59543 4.17133
4.16713 10.68853 4.16713
4.16231 10.78291 4.16231
4.15678 10.87879 4.15678
4.15037 10.97645 4.15037
4.14290 11.07631 4.14290
4.13404 11.17899 4.13404
4.12329 11.28549 4.12329
4.10979 11.39756 4.10979
4.09191 11.51841 4.09191
4.06632 11.65475 4.06632
4.01988 11.83285 4.01988
4.00000 13.19120 4.00000
4.00000 13.19120 4.00000
4.00000 13.19120 4.00000
4.00000 13.19120 4.00000
4.00000 13.19120 4.00000
4.00000 13.19120 4.00000
4.00000 13.19120 4.00000
4.00000 13.19120 4.00000
4.00000 13.19120 4.00000
4.00000 13.19120 4.00000
4.00000 13.19120 4.00000
4.00000 13.19120 4.00000
4.00000 13.19120 4.00000
4.00000 13.19120 4.00000
4.00000 13.19122 4.00000
4.00840 13.22509 4.00840
4.02079 13.28625 4.02079
4.03086 13.35208 4.03086
4.03866 13.42249 4.03866
4.04426 13.49733 4.04426
4.04776 13.57641 4.04776
4.04974 13.65857 4.04974
4.05158 13.74104 4.05158
4.05336 13.82366 4.05336
4.05510 13.90641 4.05510
4.05679 13.98928 4.05679
4.05845 14.07226 4.05845
4.06007 14.15534 4.06007
4.06166 14.23852 4.06166
4.06323 14.32178 4.06323
4.06477 14.40512 4.06477
4.06629 14.48854 4.06629
4.06779 14.57204 4.06779
4.06926 14.65560 4.06926
4.07073 14.73923 4.07073
4.07217 14.82292 4.07217
4.07360 14.90667 4.07360
4.07502 14.99048 4.07502
4.07643 15.07435 4.07643
4.07773 15.15845 4.07773
4.07879 15.24306 4.07879
4.07962 15.32816 4.07962
4.08025 15.41370 4.08025
4.08068 15.49966 4.08068
4.08092 15.58601 4.08092
4.08100 15.67273 4.08100
4.08092 15.75979 4.08092
4.08070 15.84716 4.08070
4.08035 15.93482 4.08035
4.07987 16.02275 4.07987
4.07929 16.11093 4.07929
4.07861 16.19932 4.07861
4.07784 16.28793 4.07784
4.07699 16.37672 4.07699
4.07606 16.46567 4.07606
4.07507 16.55478 4.07508
4.07403 16.64404 4.07403
4.07294 16.73341 4.07293
4.07180 16.82289 4.07180
4.07062 16.91247 4.07062
4.06942 17.00214 4.06942
4.06818 17.09188 4.06818
4.06693 17.18169 4.06693
4.06566 17.27156 4.06566
4.06438 17.36147 4.06438
4.06308 17.45143 4.06308
4.06178 17.54142 4.06178
4.06048 17.63143 4.06048
4.05918 17.72147 4.05918
4.05788 17.81153 4.05788
4.05659 17.90159 4.05659
4.05530 17.99166 4.05530
4.05403 18.08173 4.05403
4.05276 18.17181 4.05276
4.05151 18.26187 4.05151
4.05027 18.35193 4.05027
4.04905 18.44198 4.04905
4.04784 18.53202 4.04784
4.04665 18.62204 4.04665
4.04547 18.71205 4.04547
4.04432 18.80204 4.04432
4.04318 18.89201 4.04318
4.04207 18.98196 4.04207
4.04097 19.07188 4.04097
4.03989 19.16179 4.03989
4.03884 19.25167 4.03884
4.03781 19.34153 4.03781
4.03679 19.43137 4.03679
4.03580 19.52118 4.03580
4.03483 19.61096 4.03483
4.03388 19.70073 4.03388
4.03295 19.79046 4.03295
4.03204 19.88017 4.03204
4.03116 19.96986 4.03116
4.03029 20.05952 4.03029
4.02944 20.14916 4.02944
4.02862 20.23878 4.02862
4.02781 20.32837 4.02781
4.02702 20.41794 4.02702
4.02626 20.50748 4.02626
4.02551 20.59701 4.02551
4.02478 20.68651 4.02478
4.02407 20.77599 4.02407
4.02338 20.86545 4.02338
4.02270 20.95488 4.02270
4.02205 21.04430 4.02205
4.02141 21.13370 4.02141
4.02078 21.22308 4.02078
4.02018 21.31244 4.02018
4.01959 21.40179 4.01959
4.01902 21.49111 4.01902
4.01846 21.58042 4.01846
4.01791 21.66971 4.01792
4.01739 21.75899 4.01739
4.01687 21.84825 4.01687
4.01637 21.93750 4.01637
4.01589 22.02673 4.01589
4.01542 22.11595 4.01542
4.01496 22.20516 4.01496
4.01451 22.29436 4.01451
4.01408 22.38354 4.01408
4.01366 22.47271 4.01366
4.01325 22.56187 4.01325
4.01285 22.65102 4.01285
4.01247 22.74016 4.01247
4.01209 22.82929 4.01209
4.01173 22.91842 4.01173
4.01137 23.00753 4.01138
4.01103 23.09663 4.01103
4.01070 23.18573 4.01070
4.01038 23.27482 4.01038
4.01006 23.36390 4.01006
4.00976 23.45299 4.00976
4.00946 23.54205 4.00946
4.00917 23.63112 4.00917
4.00889 23.72018 4.00890
4.00862 23.80924 4.00862
4.00836 23.89829 4.00836
4.00811 23.98733 4.00811
4.00786 24.07638 4.00786
4.00762 24.16542 4.00762
4.00739 24.25445 4.00739
4.00716 24.34349 4.00716
4.00694 24.43252 4.00694
4.00673 24.52155 4.00673
4.00652 24.61057 4.00652
4.00632 24.69960 4.00632
4.00613 24.78862 4.00613
4.00594 24.87764 4.00594
4.00576 24.96667 4.00576
4.00558 25.05569 4.00558
4.00541 25.14471 4.00541
4.00524 25.23373 4.00524
4.00508 25.32275 4.00508
4.00493 25.41177 4.00493
4.00477 25.50079 4.00477
4.00463 25.58981 4.00463
4.00449 25.67883 4.00449
4.00435 25.76786 4.00435
4.00421 25.85688 4.00421
4.00408 25.94591 4.00408
4.00396 26.03494 4.00396
4.00383 26.12396 4.00383
4.00372 26.21300 4.00371
4.00360 26.30203 4.00360
4.00349 26.39106 4.00349
4.00338 26.48010 4.00338
4.00328 26.56914 4.00328
4.00317 26.65818 4.00318
4.00308 26.74723 4.00308
4.00298 26.83628 4.00298
4.00289 26.92533 4.00289
4.00280 27.01438 4.00280
4.00271 27.10344 4.00271
4.00263 27.19250 4.00263
4.00255 27.28156 4.00255
4.00247 27.37063 4.00247
4.00239 27.45970 4.00239
4.00232 27.54878 4.00232
4.00224 27.63785 4.00224
4.00217 27.72694 4.00217
4.00211 27.81602 4.00211
4.00204 27.90511 4.00204
4.00198 27.99420 4.00198
4.00192 28.08330 4.00192
4.00186 28.17240 4.00186
4.00180 28.26150 4.00180
4.00174 28.35061 4.00174
4.00169 28.43973 4.00169
4.00164 28.52885 4.00164
4.00158 28.61797 4.00159
4.00154 28.70709 4.00154
4.00149 28.79623 4.00149
4.00144 28.88536 4.00144
4.00140 28.97450 4.00140
4.00135 29.06365 4.00135
4.00131 29.15280 4.00131
4.00127 29.24195 4.00127
4.00123 29.33111 4.00123
4.00119 29.42027 4.00119
4.00115 29.50944 4.00115
4.00112 29.59861 4.00112
4.00108 29.68779 4.00108
4.00105 29.77697 4.00105
4.00102 29.86616 4.00102
4.00098 29.95535 4.00098
4.00096 30.04454 4.00096
4.00092 30.13375 4.00092
4.00090 30.22295 4.00090
4.00087 30.31216 4.00087
4.00084 30.40138 4.00084
4.00081 30.49060 4.00081
4.00079 30.57982 4.00079
4.00076 30.66906 4.00076
4.00074 30.75829 4.00074
4.00072 30.84753 4.00072
4.00069 30.93677 4.00069
4.00067 31.02602 4.00067
4.00065 31.11528 4.00065
4.00063 31.20454 4.00063
4.00061 31.29381 4.00061
4.00059 31.38307 4.00059
4.00057 31.47234 4.00057
4.00056 31.56162 4.00056
4.00054 31.65091 4.00054
4.00052 31.74020 4.00052
4.00051 31.82949 4.00050
4.00049 31.91879 4.00049
4.00047 32.00809 4.00047
4.00046 32.09740 4.00046
4.00044 32.18671 4.00044
4.00043 32.27603 4.00043
4.00042 32.36535 4.00042
4.00041 32.45468 4.00040
4.00039 32.54401 4.00039
4.00038 32.63335 4.00038
4.00037 32.72269 4.00037
4.00036 32.81204 4.00036
4.00034 32.90139 4.00034
4.00033 32.99074 4.00034
4.00032 33.08010 4.00032
4.00031 33.16947 4.00031
4.00030 33.25884 4.00030
4.00029 33.34821 4.00029
4.00028 33.43759 4.00028
4.00028 33.52697 4.00028
4.00027 33.61636 4.00027
4.00026 33.70575 4.00026
4.00025 33.79515 4.00025
4.00024 33.88455 4.00024
4.00024 33.97396 4.00024
4.00023 34.06337 4.00023
4.00022 34.15279 4.00022
4.00021 34.24221 4.00021
4.00021 34.33164 4.00021
4.00020 34.42107 4.00020
4.00019 34.51049 4.00019
4.00019 34.59993 4.00019
4.00018 34.68938 4.00018
4.00018 34.77882 4.00018
4.00017 34.86827 4.00017
4.00017 34.95773 4.00017
4.00016 35.04719 4.00016
4.00016 35.13665 4.00016
4.00015 35.22612 4.00015
4.00015 35.31559 4.00015
4.00014 35.40507 4.00014

Angle 0.243107 0.038342

4.00000 7.03348 4.00000
4.00000 7.03348 4.00000
4.00000 7.03348 4.00000
4.00000 7.03348 4.00000
4.00000 7.03348 4.00000
4.00000 7.03348 4.00000
4.00000 7.03348 4.00000
4.00000 7.03348 4.00000
4.00000 7.03348 4.00000
4.00000 7.03348 4.00000
4.00000 7.03348 4.00000
4.00000 7.03348 4.00000
4.00000 7.03348 4.00000
4.00000 7.03348 4.00000
4.00000 7.03348 4.00000
4.00000 7.03348 4.00000
4.00000 7.03348 4.00000
4.00000 7.03348 4.00000
4.00000 7.03348 4.00000
4.00000 7.03348 4.00000
4.00000 7.03348 4.00000
4.00000 7.03348 4.00000
4.00000 7.03348 4.00000
4.00000 7.03348 4.00000
4.00000 7.03348 4.00000
4.00000 7.03348 4.00000
4.00000 7.03348 4.00000
4.00000 7.03348 4.00000
4.00000 7.03348 4.00000
4.00000 7.03348 4.00000
4.00000 7.03348 4.00000
4.00000 7.03348 4.00000
4.00000 7.03348 4.00000
4.00000 7.03348 4.00000
4.00000 7.03348 4.00000
4.00000 7.03348 4.00000
4.00000 7.03348 4.00000
4.00000 7.03348 4.00000
4.00000 7.03348 4.00000
4.00000 7.03348 4.00000
4.00000 7.03348 4.00000
4.00000 7.03348 4.00000
4.00000 7.03348 4.00000
4.00000 7.03348 4.00000
4.00000 7.03348 4.00000
4.00000 7.03348 4.00000
4.00000 7.03348 4.00000
4.00000 7.03348 4.00000
4.00000 7.03348 4.00000
4.00000 7.03348 4.00000
4.00000 7.03348 4.00000
4.00000 7.03348 4.00000
4.00000 7.03348 4.00000
4.00000 7.03348 4.00000
4.00000 7.03348 4.00000
4.00000 7.03348 4.00000
4.00000 7.03348 4.00000
4.00000 7.03348 4.00000
4.00000 7.03348 4.00000
4.00000 7.03348 4.00000
4.00000 7.03348 4.00000
4.00000 7.03348 4.00000
4.00000 7.03348 4.00000
4.00000 7.03348 4.00000
4.00000 7.03348 4.00000
4.00000 7.03348 4.00000
4.00000 7.03348 4.00000
4.00000 7.03348 4.00000
4.00000 7.03348 4.00000
4.00000 7.03348 4.00000
4.00000 7.03348 4.00000
4.00000 7.03348 4.00000
4.00000 7.03348 4.00000
4.00000 7.03348 4.00000
4.00000 7.03348 4.00000
4.00000 7.03348 4.00000
4.00000 7.03348 4.00000
4.00000 7.03348 4.00000
4.00000 7.03348 4.00000
4.00000 7.03348 4.00000
4.00000 7.03348 4.00000
4.00000 7.03348 4.00000
4.00000 7.03348 4.00000
4.00000 7.03348 4.00000
4.00000 7.03348 4.00000
4.00000 7.03348 4.00000
4.00000 7.03348 4.00000
4.00000 7.03348 4.00000
4.00000 7.03348 4.00000
4.00000 7.03348 4.00000
4.00000 7.03348 4.00000
4.00000 7.03348 4.00000
4.00000 7.03348 4.00000
4.00000 7.03348 4.00000
4.00000 7.03348 4.00000
4.00000 7.03348 4.00000
4.00000 7.03348 4.00000
4.00000 7.03348 4.00000
4.00000 7.03348 4.00000
4.00000 7.03348 4.00000
4.00000 7.03348 4.00000
4.00000 7.03348 4.00000
4.00000 7.03348 4.00000
4.00000 7.03348 4.00000
4.00000 7.03348 4.00000
4.00000 7.03348 4.00000
4.00000 7.03348 4.00000
4.00000 7.03348 4.00000
4.00000 7.03348 4.00000
4.00000 7.03348 4.00000
4.00000 7.03348 4.00000
4.00000 7.03348 4.00000
4.00000 7.03348 4.00000
4.00000 7.03348 4.00000
4.00000 7.03348 4.00000
4.00000 7.03348 4.00000
4.00000 7.03348 4.00000
4.00000 7.03348 4.00000
4.00000 7.03348 4.00000
4.00000 7.03348 4.00000
4.00000 7.03348 4.00000
4.00000 7.03351 4.00000
4.00000 7.03346 4.00000
4.00307 7.10881 4.00308
4.00621 7.18812 4.00620
4.00926 7.26764 4.00926
4.01224 7.34736 4.01224
4.01517 7.42723 4.01517
4.01807 7.50724 4.01807
4.02094 7.58735 4.02094
4.02379 7.66754 4.02379
4.02665 7.74777 4.02665
4.02953 7.82802 4.02953
4.03244 7.90826 4.03244
4.03540 7.98844 4.03540
4.03844 8.06852 4.03844
4.04156 8.14847 4.04156
4.04481 8.22823 4.04481
4.04820 8.30773 4.04820
4.05179 8.38691 4.05179
4.05560 8.46567 4.05560
4.05971 8.54389 4.05971
4.06417 8.62143 4.06417
4.06908 8.69813 4.06908
4.07438 8.77409 4.07438
4.08007 8.84930 4.08007
4.08617 8.92374 4.08617
4.09269 8.99740 4.09269
4.09962 9.07026 4.09962
4.10695 9.14236 4.10695
4.11465 9.21375 4.11465
4.12268 9.28454 4.12268
4.13095 9.35486 4.13095
4.13937 9.42494 4.13937
4.14779 9.49505 4.14779
4.15603 9.56555 4.15603
4.16386 9.63691 4.16386
4.17101 9.70967 4.17101
4.17716 9.78447 4.17716
4.18195 9.86200 4.18195
4.18505 9.94296 4.18505
4.18619 10.02788 4.18619
4.18533 10.11681 4.18533
4.18365 10.20743 4.18365
4.18147 10.29907 4.18147
4.17881 10.39171 4.17881
4.17565 10.48537 4.17565
4.17198 10.58010 4.17198
4.16773 10.67600 4.16773
4.16284 10.77322 4.16284
4.15719 10.87198 4.15719
4.15064 10.97257 4.15064
4.14297 11.07544 4.14297
4.13383 11.18128 4.13383
4.12267 11.29117 4.12267
4.10851 11.40709 4.10851
4.08954 11.53266 4.08954
4.06166 11.67608 4.06166
4.00506 11.87697 4.00506
4.00000 13.19120 4.00000
4.00000 13.19120 4.00000
4.00000 13.19120 4.00000
4.00000 13.19120 4.00000
4.00000 13.19120 4.00000
4.00000 13.19120 4.00000
4.00000 13.19120 4.00000
4.00000 13.19120 4.00000
4.00000 13.19120 4.00000
4.00000 13.19120 4.00000
4.00000 13.19120 4.00000
4.00000 13.19120 4.00000
4.00000 13.19120 4.00000
4.00000 13.19120 4.00000
4.00241 13.20043 4.00241
4.01609 13.26112 4.01609
4.02733 13.32672 4.02733
4.03616 13.39715 4.03616
4.04266 13.47228 4.04266
4.04691 13.55192 4.04691
4.04921 13.63547 4.04921
4.05111 13.71985 4.05111
4.05295 13.80438 4.05295
4.05473 13.88902 4.05473
4.05648 13.97377 4.05648
4.05818 14.05863 4.05818
4.05984 14.14357 4.05984
4.06147 14.22860 4.06147
4.06308 14.31370 4.06308
4.06465 14.39888 4.06465
4.06621 14.48412 4.06621
4.06774 14.56942 4.06774
4.06925 14.65478 4.06925
4.07074 14.74019 4.07074
4.07222 14.82565 4.07222
4.07368 14.91116 4.07368
4.07513 14.99671 4.07513
4.07656 15.08231 4.07656
4.07786 15.16819 4.07786
4.07891 15.25458 4.07891
4.07973 15.34145 4.07973
4.08034 15.42877 4.08034
4.08074 15.51651 4.08074
4.08095 15.60464 4.08095
4.08099 15.69313 4.08099
4.08088 15.78195 4.08088
4.08062 15.87108 4.08062
4.08022 15.96048 4.08022
4.07970 16.05015 4.07970
4.07908 16.14005 4.07908
4.07835 16.23016 4.07835
4.07753 16.32047 4.07753
4.07664 16.41095 4.07664
4.07567 16.50158 4.07567
4.07464 16.59236 4.07464
4.07355 16.68326 4.07355
4.07242 16.77427 4.07242
4.07124 16.86537 4.07124
4.07003 16.95656 4.07003
4.06879 17.04783 4.06879
4.06753 17.13915 4.06753
4.06624 17.23052 4.06624
4.06494 17.32194 4.06494
4.06363 17.41339 4.06363
4.06231 17.50487 4.06231
4.06099 17.59637 4.06099
4.05967 17.68788 4.05967
4.05835 17.77940 4.05835
4.05703 17.87092 4.05703
4.05572 17.96244 4.05572
4.05442 18.05395 4.05442
4.05313 18.14545 4.05313
4.05186 18.23694 4.05185
4.05059 18.32841 4.05059
4.04934 18.41986 4.04935
4.04811 18.51129 4.04811
4.04690 18.60270 4.04690
4.04571 18.69408 4.04571
4.04453 18.78543 4.04453
4.04337 18.87675 4.04337
4.04224 18.96804 4.04224
4.04112 19.05930 4.04112
4.04003 19.15053 4.04003
4.03896 19.24172 4.03896
4.03790 19.33289 4.03790
4.03687 19.42401 4.03687
4.03587 19.51511 4.03587
4.03488 19.60617 4.03488
4.03392 19.69720 4.03392
4.03297 19.78819 4.03297
4.03205 19.87915 4.03205
4.03115 19.97008 4.03115
4.03028 20.06097 4.03027
4.02942 20.15183 4.02942
4.02858 20.24266 4.02858
4.02777 20.33345 4.02776
4.02697 20.42421 4.02697
4.02620 20.51494 4.02619
4.02544 20.60565 4.02544
4.02470 20.69632 4.02470
4.02399 20.78696 4.02398
4.02329 20.87757 4.02328
4.02261 20.96815 4.02260
4.02194 21.05871 4.02194
4.02130 21.14924 4.02130
4.02067 21.23974 4.02067
4.02006 21.33022 4.02006
4.01947 21.42067 4.01947
4.01889 21.51109 4.01889
4.01833 21.60149 4.01833
4.01778 21.69188 4.01778
4.01725 21.78223 4.01725
4.01674 21.87256 4.01673
4.01624 21.96287 4.01623
4.01575 22.05317 4.01575
4.01528 22.14344 4.01527
4.01481 22.23369 4.01481
4.01437 22.32392 4.01437
4.01393 22.41414 4.01393
4.01351 22.50433 4.01351
4.01310 22.59451 4.01310
4.01271 22.68468 4.01270
4.01232 22.77482 4.01232
4.01195 22.86495 4.01195
4.01158 22.95507 4.01158
4.01123 23.04517 4.01123
4.01089 23.13526 4.01089
4.01055 23.22533 4.01055
4.01023 23.31539 4.01023
4.00992 23.40544 4.00992
4.00962 23.49548 4.00961
4.00932 23.58550 4.00932
4.00903 23.67552 4.00903
4.00876 23.76552 4.00876
4.00849 23.85551 4.00849
4.00823 23.94549 4.00823
4.00797 24.03547 4.00797
4.00773 24.12543 4.00773
4.00749 24.21538 4.00749
4.00726 24.30533 4.00726
4.00703 24.39527 4.00703
4.00682 24.48520 4.00682
4.00661 24.57512 4.00661
4.00640 24.66504 4.00640
4.00620 24.75495 4.00620
4.00601 24.84486 4.00601
4.00582 24.93476 4.00582
4.00564 25.02465 4.00564
4.00547 25.11454 4.00547
4.00530 25.20442 4.00530
4.00513 25.29430 4.00513
4.00497 25.38417 4.00497
4.00482 25.47404 4.00482
4.00467 25.56390 4.00467
4.00453 25.65376 4.00452
4.00438 25.74362 4.00438
4.00425 25.83347 4.00425
4.00411 25.92332 4.00412
4.00399 26.01317 4.00399
4.00386 26.10301 4.00386
4.00374 26.19285 4.00374
4.00363 26.28269 4.00363
4.00351 26.37253 4.00351
4.00340 26.46236 4.00340
4.00330 26.55220 4.00330
4.00319 26.64203 4.00319
4.00309 26.73186 4.00309
4.00300 26.82169 4.00300
4.00290 26.91151 4.00290
4.00281 27.00134 4.00281
4.00272 27.09117 4.00272
4.00264 27.18099 4.00264
4.00256 27.27081 4.00256
4.00248 27.36064 4.00248
4.00240 27.45046 4.00240
4.00232 27.54028 4.00232
4.00225 27.63011 4.00225
4.00218 27.71993 4.00218
4.00211 27.80975 4.00211
4.00205 27.89957 4.00205
4.00198 27.98940 4.00198
4.00192 28.07922 4.00192
4.00186 28.16904 4.00186
4.00180 28.25887 4.00180
4.00174 28.34869 4.00174
4.00169 28.43852 4.00169
4.00164 28.52834 4.00164
4.00159 28.61817 4.00158
4.00154 28.70800 4.00154
4.00149 28.79783 4.00149
4.00144 28.88766 4.00144
4.00140 28.97749 4.00140
4.00135 29.06732 4.00135
4.00131 29.15715 4.00131
4.00127 29.24699 4.00127
4.00123 29.33683 4.00123
4.00119 29.42666 4.00119
4.00115 29.51650 4.00115
4.00112 29.60634 4.00112
4.00108 29.69618 4.00108
4.00105 29.78603 4.00105
4.00101 29.87587 4.00101
4.00098 29.96572 4.00098
4.00095 30.05557 4.00095
4.00092 30.14542 4.00092
4.00089 30.23527 4.00089
4.00086 30.32512 4.00086
4.00084 30.41498 4.00084
4.00081 30.50483 4.00081
4.00079 30.59469 4.00078
4.00076 30.68456 4.00076
4.00074 30.77442 4.00074
4.00071 30.86428 4.00071
4.00069 30.95415 4.00069
4.00067 31.04402 4.00067
4.00065 31.13389 4.00065
4.00063 31.22376 4.00063
4.00061 31.31364 4.00061
4.00059 31.40352 4.00059
4.00057 31.49340 4.00057
4.00055 31.58328 4.00055

Angle 0.105632 1.303937

4.00000 7.03348 4.00000
4.00000 7.03348 4.00000
4.00000 7.03348 4.00000
4.00000 7.03348 4.00000
4.00000 7.03348 4.00000
4.00000 7.03348 4.00000
4.00000 7.03348 4.00000
4.00000 7.03348 4.00000
4.00000 7.03348 4.00000
4.00000 7.03348 4.00000
4.00000 7.03348 4.00000
4.00000 7.03348 4.00000
4.00000 7.03348 4.00000
4.00000 7.03348 4.00000
4.00000 7.03348 4.00000
4.00000 7.03348 4.00000
4.00000 7.03346 4.00000
4.00000 7.03347 4.00000
4.00000 7.03347 4.00000
4.00000 7.03347 4.00000
4.00000 7.03347 4.00000
4.00000 7.03348 4.00000
4.00000 7.03348 4.00000
4.00000 7.03348 4.00000
4.00000 7.03348 4.00000
4.00000 7.03348 4.00000
4.00000 7.03348 4.00000
4.00000 7.03348 4.00000
4.00000 7.03348 4.00000
4.00000 7.03348 4.00000
4.00000 7.03348 4.00000
4.00000 7.03348 4.00000
4.00000 7.03348 4.00000
4.00000 7.03347 4.00000
4.00000 7.03347 4.00000
4.00000 7.03347 4.00000
4.00000 7.03348 4.00000
4.00000 7.03348 4.00000
4.00000 7.03348 4.00000
4.00000 7.03348 4.00000
4.00000 7.03348 4.00000
4.00000 7.03348 4.00000
4.00000 7.03348 4.00000
4.00000 7.03348 4.00000
4.00000 7.03348 4.00000
4.00000 7.03348 4.00000
4.00000 7.03348 4.00000
4.00000 7.03348 4.00000
4.00000 7.03348 4.00000
4.00000 7.03348 4.00000
4.00000 7.03348 4.00000
4.00000 7.03348 4.00000
4.00000 7.03348 4.00000
4.00000 7.03348 4.00000
4.00000 7.03348 4.00000
4.00000 7.03348 4.00000
4.00000 7.03348 4.00000
4.00000 7.03348 4.00000
4.00000 7.03348 4.00000
4.00000 7.03348 4.00000
4.00000 7.03348 4.00000
4.00000 7.03348 4.00000
4.00000 7.03348 4.00000
4.00000 7.03348 4.00000
4.00000 7.03348 4.00000
4.00000 7.03348 4.00000
4.00000 7.03348 4.00000
4.00000 7.03348 4.00000
4.00000 7.03348 4.00000
4.00000 7.03348 4.00000
4.00000 7.03348 4.00000
4.00000 7.03348 4.00000
4.00000 7.03348 4.00000
4.00000 7.03348 4.00000
4.00000 7.03348 4.00000
4.00000 7.03348 4.00000
4.00000 7.03348 4.00000
4.00000 7.03348 4.00000
4.00000 7.03349 4.00000
4.00000 7.03349 4.00000
4.00000 7.03348 4.00000
4.00000 7.03348 4.00000
4.00000 7.03348 4.00000
4.00000 7.03350 4.00000
4.00000 7.03348 4.00000
4.00178 7.07670 4.00178
4.00438 7.14166 4.00438
4.00694 7.20695 4.00694
4.00944 7.27254 4.00944
4.01191 7.33842 4.01191
4.01435 7.40457 4.01435
4.01676 7.47097 4.01676
4.01916 7.53760 4.01916
4.02155 7.60445 4.02155
4.02393 7.67150 4.02393
4.02633 7.73872 4.02633
4.02874 7.80610 4.02874
4.03118 7.87361 4.03118
4.03365 7.94124 4.03365
4.03617 8.00896 4.03617
4.03875 8.07674 4.03875
4.04141 8.14454 4.04141
4.04415 8.21235 4.04415
4.04700 8.28010 4.04700
4.04999 8.34777 4.04999
4.05313 8.41529 4.05313
4.05646 8.48260 4.05646
4.06002 8.54961 4.06002
4.06386 8.61623 4.06386
4.06803 8.68234 4.06803
4.07251 8.74799 4.07251
4.07728 8.81320 4.07728
4.08237 8.87796 4.08237
4.08776 8.94223 4.08776
4.09348 9.00601 4.09348
4.09952 9.06930 4.09952
4.10588 9.13210 4.10588
4.11253 9.19446 4.11253
4.11945 9.25642 4.11945
4.12659 9.31806 4.12659
4.13390 9.37952 4.13390
4.14130 9.44094 4.14130
4.14868 9.50252 4.14868
4.15591 9.56453 4.15591
4.16285 9.62728 4.16285
4.16929 9.69113 4.16929
4.17502 9.75653 4.17502
4.17981 9.82394 4.17981
4.18341 9.89387 4.18341
4.18559 9.96675 4.18559
4.18617 10.04294 4.18617
4.18524 10.12228 4.18525
4.18374 10.20288 4.18374
4.18185 10.28438 4.18185
4.17957 10.36678 4.17957
4.17690 10.45007 4.17690
4.17382 10.53429 4.17382
4.17030 10.61950 4.17030
4.16630 10.70578 4.16630
4.16175 10.79326 4.16175
4.15657 10.88211 4.15657
4.15064 10.97256 4.15065
4.14380 11.06496 4.14380
4.13580 11.15977 4.13580
4.12627 11.25775 4.12626
4.11459 11.36011 4.11459
4.09968 11.46904 4.09968
4.07962 11.58836 4.07962
4.04934 11.72824 4.04934
4.00000 13.19120 4.00000
4.00000 13.19120 4.00000
4.00000 13.19120 4.00000
4.00000 13.19120 4.00000
4.00000 13.19120 4.00000
4.00000 13.19120 4.00000
4.00000 13.19120 4.00000
4.00000 13.19120 4.00000
4.00000 13.19120 4.00000
4.00000 13.19120 4.00000
4.00000 13.19120 4.00000
4.00000 13.19120 4.00000
4.00000 13.19120 4.00000
4.00000 13.19120 4.00000
4.00000 13.19121 4.00000
4.00000 13.19120 4.00000
4.00000 13.19120 4.00000
4.01268 13.24445 4.01268
4.02370 13.30337 4.02370
4.03268 13.36645 4.03268
4.03965 13.43360 4.03965
4.04468 13.50472 4.04468
4.04785 13.57963 4.04786
4.04971 13.65725 4.04971
4.05145 13.73517 4.05145
4.05314 13.81326 4.05314
4.05479 13.89150 4.05479
4.05640 13.96989 4.05640
4.05797 14.04842 4.05797
4.05952 14.12708 4.05952
4.06104 14.20586 4.06104
4.06254 14.28476 4.06254
4.06401 14.36377 4.06401
4.06546 14.44288 4.06546
4.06689 14.52210 4.06689
4.06831 14.60142 4.06831
4.06971 14.68083 4.06971
4.07109 14.76033 4.07109
4.07246 14.83993 4.07246
4.07382 14.91961 4.07382
4.07517 14.99937 4.07517
4.07651 15.07922 4.07651
4.07774 15.15934 4.07774
4.07875 15.23995 4.07875
4.07956 15.32103 4.07956
4.08018 15.40256 4.08018
4.08061 15.48449 4.08061
4.08088 15.56683 4.08088
4.08099 15.64953 4.08099
4.08096 15.73257 4.08096
4.08079 15.81594 4.08079
4.08050 15.89961 4.08050
4.08010 15.98357 4.08010
4.07959 16.06778 4.07959
4.07898 16.15224 4.07898
4.07829 16.23693 4.07829
4.07752 16.32182 4.07752
4.07668 16.40691 4.07668
4.07577 16.49218 4.07577
4.07481 16.57761 4.07481
4.07380 16.66319 4.07380
4.07274 16.74890 4.07274
4.07164 16.83475 4.07164
4.07051 16.92071 4.07051
4.06935 17.00678 4.06935
4.06817 17.09294 4.06817
4.06697 17.17919 4.06697
4.06575 17.26552 4.06575
4.06451 17.35191 4.06451
4.06327 17.43838 4.06327
4.06202 17.52489 4.06202
4.06077 17.61146 4.06077
4.05952 17.69808 4.05952
4.05827 17.78473 4.05827
4.05702 17.87143 4.05702
4.05578 17.95815 4.05578
4.05455 18.04490 4.05455
4.05333 18.13167 4.05333
4.05211 18.21846 4.05211
4.05091 18.30527 4.05091
4.04972 18.39210 4.04972
4.04855 18.47893 4.04855
4.04739 18.56578 4.04739
4.04625 18.65263 4.04625
4.04512 18.73949 4.04512
4.04401 18.82635 4.04401
4.04292 18.91322 4.04292
4.04184 19.00009 4.04184
4.04079 19.08696 4.04079
4.03975 19.17383 4.03975
4.03874 19.26070 4.03874
4.03774 19.34756 4.03774
4.03676 19.43443 4.03676
4.03580 19.52129 4.03580
4.03486 19.60815 4.03486
4.03394 19.69500 4.03394
4.03304 19.78185 4.03304
4.03216 19.86869 4.03216
4.03130 19.95554 4.03130
4.03045 20.04237 4.03045
4.02963 20.12921 4.02963
4.02882 20.21603 4.02882
4.02804 20.30286 4.02804
4.02727 20.38968 4.02727
4.02652 20.47650 4.02652
4.02579 20.56331 4.02579
4.02507 20.65012 4.02507
4.02438 20.73692 4.02438
4.02370 20.82373 4.02370
4.02304 20.91053 4.02304
4.02239 20.99733 4.02239
4.02176 21.08412 4.02176
4.02115 21.17092 4.02115
4.02055 21.25771 4.02055
4.01997 21.34450 4.01997
4.01940 21.43129 4.01940
4.01885 21.51808 4.01885
4.01831 21.60487 4.01831
4.01778 21.69167 4.01778
4.01727 21.77846 4.01727
4.01678 21.86525 4.01678
4.01629 21.95204 4.01629
4.01582 22.03884 4.01582
4.01537 22.12564 4.01537
4.01492 22.21244 4.01492
4.01449 22.29924 4.01449
4.01407 22.38605 4.01407
4.01366 22.47286 4.01366
4.01326 22.55967 4.01326
4.01287 22.64649 4.01287
4.01250 22.73331 4.01250
4.01213 22.82014 4.01213
4.01178 22.90697 4.01177
4.01143 22.99381 4.01143
4.01109 23.08065 4.01109
4.01077 23.16750 4.01077
4.01045 23.25436 4.01045
4.01014 23.34122 4.01014
4.00984 23.42809 4.00984
4.00955 23.51496 4.00955
4.00927 23.60185 4.00927
4.00899 23.68874 4.00899
4.00873 23.77563 4.00873
4.00847 23.86255 4.00846
4.00821 23.94946 4.00821
4.00797 24.03638 4.00797
4.00773 24.12331 4.00773
4.00750 24.21025 4.00750
4.00728 24.29720 4.00728
4.00706 24.38416 4.00706
4.00685 24.47113 4.00685
4.00664 24.55811 4.00664
4.00645 24.64509 4.00645
4.00625 24.73209 4.00625
4.00607 24.81910 4.00607
4.00588 24.90612 4.00588
4.00570 24.99315 4.00570
4.00553 25.08018 4.00554
4.00537 25.16723 4.00537
4.00521 25.25429 4.00521
4.00505 25.34136 4.00505
4.00490 25.42844 4.00490
4.00475 25.51553 4.00475
4.00461 25.60264 4.00460
4.00447 25.68975 4.00447
4.00433 25.77688 4.00433
4.00420 25.86401 4.00420
4.00407 25.95116 4.00408
4.00395 26.03832 4.00395
4.00383 26.12549 4.00383
4.00372 26.21268 4.00372
4.00360 26.29987 4.00360
4.00349 26.38708 4.00349
4.00339 26.47430 4.00339
4.00328 26.56153 4.00328
4.00318 26.64878 4.00318
4.00309 26.73603 4.00309
4.00300 26.82330 4.00299
4.00290 26.91057 4.00290
4.00281 26.99787 4.00282
4.00273 27.08517 4.00273
4.00265 27.17249 4.00265
4.00257 27.25981 4.00257
4.00249 27.34715 4.00249
4.00241 27.43451 4.00241
4.00234 27.52187 4.00234
4.00227 27.60925 4.00227
4.00220 27.69664 4.00220
4.00213 27.78404 4.00213
4.00207 27.87145 4.00206
4.00200 27.95888 4.00200
4.00194 28.04631 4.00194
4.00188 28.13376 4.00188
4.00183 28.22123 4.00182
4.00177 28.30870 4.00177
4.00172 28.39619 4.00171
4.00166 28.48369 4.00166
4.00161 28.57120 4.00161
4.00156 28.65872 4.00156
4.00151 28.74626 4.00151
4.00147 28.83381 4.00147
4.00142 28.92137 4.00142
4.00138 29.00894 4.00138
4.00134 29.09653 4.00134
4.00130 29.18412 4.00130
4.00126 29.27173 4.00126
4.00122 29.35936 4.00122
4.00118 29.44699 4.00118
4.00114 29.53463 4.00115
4.00111 29.62229 4.00111
4.00108 29.70996 4.00107
4.00104 29.79764 4.00104
4.00101 29.88533 4.00101
4.00098 29.97303 4.00098
4.00095 30.06075 4.00095
4.00092 30.14848 4.00092
4.00089 30.23621 4.00090
4.00086 30.32396 4.00087
4.00084 30.41173 4.00084
4.00081 30.49951 4.00081
4.00079 30.58729 4.00079
4.00076 30.67509 4.00076
4.00074 30.76289 4.00074
4.00072 30.85071 4.00072
4.00069 30.93855 4.00069
4.00067 31.02639 4.00067
4.00065 31.11425 4.00065
4.00063 31.20211 4.00064
4.00061 31.28999 4.00062
4.00060 31.37787 4.00059
4.00058 31.46578 4.00057
4.00056 31.55369 4.00056
4.00054 31.64161 4.00054
4.00052 31.72954 4.00052
4.00050 31.81748 4.00051
4.00049 31.90543 4.00049
4.00048 31.99340 4.00048
4.00046 32.08138 4.00046
4.00045 32.16936 4.00045
4.00043 32.25736 4.00043
4.00043 32.34536 4.00042
4.00041 32.43338 4.00041
4.00039 32.52141 4.00039
4.00038 32.60945 4.00038
4.00037 32.69750 4.00037
4.00036 32.78556 4.00036
4.00035 32.87363 4.00035
4.00034 32.96171 4.00034
4.00032 33.04980 4.00033
4.00032 33.13790 4.00032
4.00031 33.22601 4.00031

Angle 0.237555 1.826424

4.00000 7.03348 4.00000
4.00000 7.03348 4.00000
4.00000 7.03348 4.00000
4.00000 7.03348 4.00000
4.00000 7.03346 4.00000
4.00000 7.03346 4.00000
4.00000 7.03346 4.00000
4.00000 7.03346 4.00000
4.00000 7.03346 4.00000
4.00000 7.03346 4.00000
4.00000 7.03346 4.00000
4.00000 7.03347 4.00000
4.00000 7.03347 4.00000
4.00000 7.03347 4.00000
4.00000 7.03347 4.00000
4.00000 7.03347 4.00000
4.00000 7.03347 4.00000
4.00000 7.03347 4.00000
4.00000 7.03347 4.00000
4.00000 7.03347 4.00000
4.00000 7.03347 4.00000
4.00000 7.03347 4.00000
4.00000 7.03347 4.00000
4.00000 7.03347 4.00000
4.00000 7.03347 4.00000
4.00000 7.03348 4.00000
4.00000 7.03348 4.00000
4.00000 7.03348 4.00000
4.00000 7.03348 4.00000
4.00000 7.03348 4.00000
4.00000 7.03348 4.00000
4.00000 7.03348 4.00000
4.00000 7.03348 4.00000
4.00000 7.03348 4.00000
4.00000 7.03348 4.00000
4.00000 7.03348 4.00000
4.00000 7.03348 4.00000
4.00000 7.03348 4.00000
4.00000 7.03348 4.00000
4.00000 7.03348 4.00000
4.00000 7.03348 4.00000
4.00000 7.03348 4.00000
4.00000 7.03348 4.00000
4.00000 7.03348 4.00000
4.00000 7.03348 4.00000
4.00000 7.03348 4.00000
4.00000 7.03348 4.00000
4.00000 7.03348 4.00000
4.00000 7.03348 4.00000
4.00000 7.03347 4.00000
4.00000 7.03347 4.00000
4.00000 7.03347 4.00000
4.00000 7.03347 4.00000
4.00000 7.03347 4.00000
4.00000 7.03347 4.00000
4.00000 7.03346 4.00000
4.00000 7.03346 4.00000
4.00000 7.03348 4.00000
4.00000 7.03348 4.00000
4.00000 7.03348 4.00000
4.00000 7.03348 4.00000
4.00000 7.03348 4.00000
4.00000 7.03348 4.00000
4.00000 7.03348 4.00000
4.00000 7.03348 4.00000
4.00000 7.03348 4.00000
4.00000 7.03348 4.00000
4.00000 7.03348 4.00000
4.00000 7.03348 4.00000
4.00000 7.03348 4.00000
4.00000 7.03348 4.00000
4.00000 7.03348 4.00000
4.00000 7.03348 4.00000
4.00000 7.03348 4.00000
4.00000 7.03348 4.00000
4.00000 7.03348 4.00000
4.00000 7.03348 4.00000
4.00000 7.03348 4.00000
4.00000 7.03348 4.00000
4.00000 7.03348 4.00000
4.00000 7.03348 4.00000
4.00000 7.03348 4.00000
4.00000 7.03348 4.00000
4.00000 7.03348 4.00000
4.00000 7.03348 4.00000
4.00000 7.03348 4.00000
4.00000 7.03348 4.00000
4.00000 7.03348 4.00000
4.00000 7.03348 4.00000
4.00000 7.03348 4.00000
4.00000 7.03348 4.00000
4.00000 7.03348 4.00000
4.00000 7.03348 4.00000
4.00000 7.03348 4.00000
4.00000 7.03348 4.00000
4.00000 7.03348 4.00000
4.00000 7.03348 4.00000
4.00000 7.03348 4.00000
4.00000 7.03348 4.00000
4.00000 7.03348 4.00000
4.00000 7.03348 4.00000
4.00000 7.03348 4.00000
4.00000 7.03348 4.00000
4.00000 7.03348 4.00000
4.00000 7.03348 4.00000
4.00000 7.03348 4.00000
4.00000 7.03348 4.00000
4.00000 7.03348 4.00000
4.00000 7.03348 4.00000
4.00000 7.03348 4.00000
4.00000 7.03348 4.00000
4.00000 7.03348 4.00000
4.00000 7.03348 4.00000
4.00000 7.03348 4.00000
4.00000 7.03348 4.00000
4.00000 7.03348 4.00000
4.00000 7.03348 4.00000
4.00000 7.03348 4.00000
4.00000 7.03348 4.00000
4.00000 7.03348 4.00000
4.00000 7.03352 4.00000
4.00000 7.03348 4.00000
4.00000 7.03348 4.00000
4.00003 7.03408 4.00003
4.00283 7.10271 4.00283
4.00558 7.17197 4.00558
4.00826 7.24152 4.00826
4.01090 7.31135 4.01090
4.01350 7.38142 4.01350
4.01606 7.45171 4.01606
4.01861 7.52221 4.01861
4.02113 7.59290 4.02113
4.02366 7.66375 4.02366
4.02619 7.73475 4.02619
4.02873 7.80587 4.02873
4.03131 7.87709 4.03131
4.03392 7.94837 4.03392
4.03658 8.01970 4.03658
4.03931 8.09104 4.03931
4.04212 8.16236 4.04212
4.04503 8.23361 4.04503
4.04807 8.30475 4.04807
4.05127 8.37571 4.05127
4.05464 8.44644 4.05464
4.05825 8.51686 4.05825
4.06212 8.58685 4.06212
4.06634 8.65630 4.06634
4.07092 8.72515 4.07092
4.07581 8.79350 4.07581
4.08103 8.86131 4.08103
4.08659 8.92856 4.08659
4.09249 8.99525 4.09249
4.09875 9.06135 4.09875
4.10534 9.12690 4.10534
4.11225 9.19191 4.11225
4.11945 9.25646 4.11945
4.12690 9.32065 4.12690
4.13451 9.38459 4.13451
4.14221 9.44849 4.14221
4.14987 9.51256 4.14987
4.15734 9.57712 4.15734
4.16445 9.64252 4.16445
4.17097 9.70919 4.17097
4.17665 9.77763 4.17665
4.18123 9.84838 4.18123
4.18444 9.92198 4.18444
4.18604 9.99889 4.18604
4.18588 10.07941 4.18588
4.18455 10.16238 4.18455
4.18278 10.24631 4.18278
4.18060 10.33116 4.18060
4.17800 10.41693 4.17800
4.17498 10.50365 4.17498
4.17151 10.59136 4.17151
4.16753 10.68016 4.16753
4.16300 10.77016 4.16300
4.15782 10.86153 4.15782
4.15188 10.95452 4.15188
4.14501 11.04945 4.14501
4.13696 11.14684 4.13696
4.12734 11.24743 4.12734
4.11553 11.35248 4.11553
4.10040 11.46427 4.10040
4.07991 11.58683 4.07991
4.04863 11.73106 4.04863
4.00000 13.19120 4.00000
4.00000 13.19120 4.00000
4.00000 13.19120 4.00000
4.00000 13.19120 4.00000
4.00000 13.19120 4.00000
4.00000 13.19120 4.00000
4.00000 13.19120 4.00000
4.00000 13.19120 4.00000
4.00000 13.19120 4.00000
4.00000 13.19120 4.00000
4.00000 13.19120 4.00000
4.00000 13.19120 4.00000
4.00000 13.19120 4.00000
4.00000 13.19120 4.00000
4.00000 13.19120 4.00000
4.00000 13.19120 4.00000
4.00615 13.21551 4.00615
4.01851 13.27371 4.01851
4.02871 13.33630 4.02871
4.03679 13.40319 4.03679
4.04279 13.47428 4.04279
4.04681 13.54942 4.04681
4.04904 13.62818 4.04904
4.05084 13.70786 4.05084
4.05259 13.78771 4.05259
4.05429 13.86772 4.05429
4.05595 13.94785 4.05595
4.05757 14.02812 4.05757
4.05916 14.10851 4.05916
4.06072 14.18902 4.06072
4.06225 14.26963 4.06225
4.06376 14.35034 4.06376
4.06525 14.43115 4.06525
4.06671 14.51205 4.06671
4.06816 14.59304 4.06816
4.06959 14.67412 4.06959
4.07101 14.75528 4.07101
4.07241 14.83651 4.07241
4.07379 14.91782 4.07379
4.07517 14.99921 4.07517
4.07653 15.08066 4.07653
4.07778 15.16240 4.07778
4.07880 15.24463 4.07880
4.07962 15.32734 4.07962
4.08023 15.41048 4.08023
4.08065 15.49405 4.08065
4.08091 15.57801 4.08091
4.08100 15.66233 4.08100
4.08094 15.74700 4.08094
4.08075 15.83198 4.08075
4.08043 15.91726 4.08043
4.07999 16.00281 4.07999
4.07945 16.08863 4.07945
4.07881 16.17467 4.07881
4.07808 16.26093 4.07808
4.07728 16.34740 4.07728
4.07640 16.43404 4.07640
4.07546 16.52085 4.07546
4.07446 16.60782 4.07446
4.07341 16.69493 4.07341
4.07232 16.78216 4.07232
4.07119 16.86951 4.07119
4.07003 16.95696 4.07003
4.06884 17.04450 4.06884
4.06762 17.13213 4.06762
4.06639 17.21983 4.06639
4.06515 17.30760 4.06515
4.06389 17.39543 4.06389
4.06262 17.48331 4.06262
4.06135 17.57123 4.06135
4.06008 17.65920 4.06008
4.05881 17.74719 4.05881
4.05754 17.83522 4.05754
4.05628 17.92326 4.05628
4.05503 18.01133 4.05503
4.05378 18.09942 4.05378
4.05254 18.18751 4.05254
4.05132 18.27562 4.05132
4.05011 18.36373 4.05011
4.04891 18.45184 4.04891
4.04773 18.53996 4.04773
4.04657 18.62807 4.04657
4.04542 18.71619 4.04542
4.04429 18.80429 4.04429
4.04318 18.89239 4.04318
4.04208 18.98049 4.04208
4.04101 19.06858 4.04101
4.03996 19.15666 4.03996
4.03892 19.24473 4.03892
4.03791 19.33279 4.03791
4.03691 19.42084 4.03691
4.03594 19.50888 4.03593
4.03498 19.59690 4.03498
4.03405 19.68491 4.03404
4.03313 19.77291 4.03313
4.03224 19.86090 4.03224
4.03136 19.94888 4.03136
4.03051 20.03685 4.03051
4.02967 20.12480 4.02967
4.02885 20.21274 4.02885
4.02806 20.30067 4.02806
4.02728 20.38858 4.02728
4.02652 20.47649 4.02652
4.02578 20.56438 4.02578
4.02506 20.65227 4.02506
4.02435 20.74014 4.02435
4.02367 20.82800 4.02367
4.02300 20.91586 4.02300
4.02234 21.00370 4.02234
4.02171 21.09154 4.02171
4.02109 21.17936 4.02109
4.02048 21.26718 4.02048
4.01990 21.35499 4.01990
4.01932 21.44279 4.01932
4.01877 21.53059 4.01877
4.01823 21.61838 4.01823
4.01770 21.70616 4.01770
4.01718 21.79394 4.01718
4.01668 21.88171 4.01668
4.01620 21.96948 4.01620
4.01573 22.05725 4.01573
4.01527 22.14500 4.01527
4.01482 22.23276 4.01482
4.01438 22.32051 4.01438
4.01396 22.40826 4.01396
4.01355 22.49601 4.01355
4.01315 22.58376 4.01315
4.01276 22.67150 4.01276
4.01239 22.75925 4.01239
4.01202 22.84699 4.01202
4.01166 22.93473 4.01166
4.01132 23.02248 4.01132
4.01098 23.11022 4.01098
4.01065 23.19796 4.01065
4.01034 23.28570 4.01034
4.01003 23.37345 4.01003
4.00973 23.46120 4.00973
4.00944 23.54895 4.00944
4.00916 23.63670 4.00916
4.00888 23.72445 4.00888
4.00861 23.81221 4.00861
4.00836 23.89997 4.00836
4.00811 23.98773 4.00811
4.00786 24.07550 4.00786
4.00762 24.16327 4.00763
4.00739 24.25105 4.00740
4.00717 24.33883 4.00717
4.00696 24.42661 4.00696
4.00675 24.51440 4.00675
4.00654 24.60220 4.00654
4.00635 24.69000 4.00635
4.00615 24.77780 4.00615
4.00597 24.86561 4.00597
4.00579 24.95343 4.00579
4.00561 25.04125 4.00561
4.00544 25.12908 4.00544
4.00528 25.21691 4.00528
4.00512 25.30475 4.00512
4.00496 25.39260 4.00496
4.00481 25.48046 4.00481
4.00467 25.56832 4.00466
4.00452 25.65619 4.00452
4.00438 25.74406 4.00438
4.00425 25.83195 4.00425
4.00412 25.91984 4.00412
4.00399 26.00774 4.00399
4.00387 26.09565 4.00387
4.00375 26.18356 4.00375
4.00364 26.27148 4.00364
4.00353 26.35941 4.00353
4.00342 26.44735 4.00342
4.00331 26.53530 4.00332
4.00322 26.62325 4.00321
4.00312 26.71121 4.00312
4.00302 26.79918 4.00302
4.00293 26.88716 4.00293
4.00284 26.97515 4.00284
4.00275 27.06315 4.00275
4.00267 27.15115 4.00267
4.00259 27.23916 4.00259
4.00251 27.32719 4.00251
4.00243 27.41522 4.00243
4.00235 27.50326 4.00235
4.00228 27.59131 4.00228
4.00221 27.67937 4.00221
4.00214 27.76743 4.00214
4.00208 27.85551 4.00208
4.00201 27.94359 4.00202
4.00195 28.03169 4.00195
4.00189 28.11979 4.00189
4.00184 28.20790 4.00183
4.00178 28.29602 4.00178
4.00172 28.38415 4.00172
4.00167 28.47229 4.00167
4.00162 28.56044 4.00162
4.00157 28.64860 4.00157
4.00152 28.73676 4.00152
4.00147 28.82494 4.00147
4.00143 28.91312 4.00143
4.00138 29.00132 4.00138
4.00134 29.08951 4.00135
4.00130 29.17774 4.00129
4.00126 29.26596 4.00126
4.00122 29.35418 4.00122
4.00118 29.44242 4.00118
4.00115 29.53067 4.00115
4.00111 29.61893 4.00111
4.00108 29.70720 4.00108
4.00105 29.79547 4.00104
4.00101 29.88376 4.00101
4.00098 29.97205 4.00098
4.00095 30.06035 4.00095
4.00092 30.14866 4.00092
4.00089 30.23699 4.00089
4.00087 30.32532 4.00086

Angle 0.583491 5.904730

4.00000 7.03348 4.00000
4.00000 7.03348 4.00000
4.00000 7.03348 4.00000
4.00000 7.03348 4.00000
4.00000 7.03348 4.00000
4.00000 7.03348 4.00000
4.00000 7.03348 4.00000
4.00000 7.03349 4.00000
4.00000 7.03348 4.00000
4.00000 7.03348 4.00000
4.00000 7.03348 4.00000
4.00000 7.03348 4.00000
4.00000 7.03348 4.00000
4.00181 7.07743 4.00181
4.00498 7.15686 4.00498
4.00807 7.23651 4.00807
4.01109 7.31636 4.01109
4.01405 7.39639 4.01405
4.01696 7.47655 4.01696
4.01985 7.55683 4.01985
4.02271 7.63719 4.02271
4.02558 7.71760 4.02558
4.02845 7.79805 4.02845
4.03136 7.87848 4.03136
4.03430 7.95887 4.03431
4.03732 8.03919 4.03732
4.04041 8.11938 4.04041
4.04362 8.19939 4.04362
4.04696 8.27918 4.04696
4.05048 8.35866 4.05048
4.05422 8.43775 4.05422
4.05822 8.51635 4.05822
4.06256 8.59431 4.06256
4.06732 8.67148 4.06732
4.07250 8.74785 4.07250
4.07807 8.82348 4.07807
4.08404 8.89834 4.08404
4.09043 8.97241 4.09043
4.09723 9.04569 4.09723
4.10444 9.11819 4.10444
4.11204 9.18995 4.11204
4.11998 9.26107 4.11998
4.12820 9.33166 4.12820
4.13660 9.40192 4.13660
4.14505 9.47212 4.14505
4.15339 9.54258 4.15339
4.16139 9.61374 4.16139
4.16881 9.68611 4.16881
4.17532 9.76032 4.17532
4.18060 9.83704 4.18060
4.18427 9.91699 4.18427
4.18605 10.00076 4.18605
4.18575 10.08872 4.18575
4.18423 10.17917 4.18423
4.18219 10.27066 4.18219
4.17968 10.36315 4.17968
4.17667 10.45665 4.17667
4.17315 10.55120 4.17315
4.16908 10.64689 4.16908
4.16438 10.74385 4.16438
4.15897 10.84227 4.15897
4.15270 10.94244 4.15270
4.14537 11.04473 4.14537
4.13670 11.14977 4.13670
4.12619 11.25849 4.12619
4.11303 11.37254 4.11303
4.09569 11.49498 4.09569
4.07109 11.63196 4.07109
4.02838 11.80519 4.02838
4.00000 13.19120 4.00000
4.00000 13.19120 4.00000
4.00000 13.19120 4.00000
4.00000 13.19120 4.00000
4.00000 13.19120 4.00000
4.00000 13.19120 4.00000
4.00000 13.19120 4.00000
4.00000 13.19120 4.00000
4.00000 13.19120 4.00000
4.00000 13.19120 4.00000
4.00000 13.19120 4.00000
4.00000 13.19120 4.00000
4.00000 13.19120 4.00000
4.00000 13.19120 4.00000
4.00000 13.19120 4.00000
4.01271 13.24457 4.01271
4.02460 13.30896 4.02460
4.03408 13.37823 4.03408
4.04118 13.45224 4.04118
4.04601 13.53082 4.04601
4.04871 13.61369 4.04871
4.05063 13.69814 4.05063
4.05248 13.78273 4.05248
4.05428 13.86744 4.05428
4.05604 13.95227 4.05604
4.05775 14.03720 4.05775
4.05943 14.12222 4.05943
4.06107 14.20732 4.06107
4.06268 14.29251 4.06268
4.06427 14.37776 4.06427
4.06583 14.46308 4.06583
4.06736 14.54846 4.06736
4.06888 14.63390 4.06888
4.07038 14.71940 4.07038
4.07186 14.80494 4.07186
4.07333 14.89053 4.07333
4.07478 14.97617 4.07478
4.07622 15.06184 4.07622
4.07757 15.14770 4.07757
4.07869 15.23407 4.07869
4.07956 15.32092 4.07956
4.08021 15.40823 4.08021
4.08066 15.49596 4.08066
4.08092 15.58409 4.08092
4.08100 15.67259 4.08100
4.08092 15.76142 4.08092
4.08069 15.85057 4.08069
4.08032 15.94000 4.08032
4.07983 16.02970 4.07983
4.07923 16.11963 4.07923
4.07852 16.20979 4.07852
4.07773 16.30014 4.07773
4.07685 16.39067 4.07685
4.07589 16.48135 4.07589
4.07487 16.57218 4.07487
4.07380 16.66314 4.07380
4.07267 16.75421 4.07267
4.07151 16.84538 4.07151
4.07030 16.93664 4.07030
4.06906 17.02797 4.06906
4.06780 17.11936 4.06780
4.06652 17.21081 4.06652
4.06522 17.30229 4.06522
4.06391 17.39382 4.06391
4.06259 17.48537 4.06259
4.06127 17.57695 4.06127
4.05995 17.66853 4.05995
4.05862 17.76013 4.05862
4.05731 17.85173 4.05731
4.05599 17.94332 4.05599
4.05469 18.03491 4.05469
4.05340 18.12649 4.05340
4.05212 18.21806 4.05212
4.05085 18.30961 4.05085
4.04960 18.40114 4.04960
4.04836 18.49265 4.04836
4.04715 18.58413 4.04715
4.04595 18.67559 4.04595
4.04477 18.76701 4.04477
4.04360 18.85841 4.04360
4.04246 18.94978 4.04246
4.04134 19.04112 4.04134
4.04024 19.13242 4.04024
4.03917 19.22370 4.03917
4.03811 19.31493 4.03811
4.03708 19.40614 4.03708
4.03606 19.49731 4.03606
4.03507 19.58844 4.03507
4.03410 19.67954 4.03410
4.03315 19.77061 4.03315
4.03223 19.86164 4.03223
4.03132 19.95264 4.03132
4.03044 20.04360 4.03044
4.02958 20.13453 4.02958
4.02874 20.22543 4.02874
4.02792 20.31630 4.02792
4.02712 20.40713 4.02712
4.02634 20.49793 4.02634
4.02558 20.58870 4.02558
4.02484 20.67944 4.02484
4.02412 20.77015 4.02412
4.02341 20.86082 4.02341
4.02273 20.95147 4.02273
4.02206 21.04209 4.02206
4.02141 21.13269 4.02141
4.02078 21.22326 4.02078
4.02017 21.31380 4.02017
4.01957 21.40431 4.01957
4.01899 21.49480 4.01899
4.01843 21.58526 4.01843
4.01788 21.67570 4.01788
4.01735 21.76612 4.01735
4.01683 21.85652 4.01683
4.01632 21.94689 4.01632
4.01583 22.03724 4.01583
4.01536 22.12757 4.01536
4.01489 22.21788 4.01489
4.01444 22.30817 4.01444
4.01401 22.39845 4.01401
4.01358 22.48870 4.01358
4.01317 22.57894 4.01317
4.01277 22.66916 4.01277
4.01239 22.75936 4.01239
4.01201 22.84955 4.01201
4.01164 22.93972 4.01164
4.01128 23.02987 4.01129
4.01094 23.12002 4.01094
4.01061 23.21014 4.01061
4.01028 23.30026 4.01028
4.00997 23.39036 4.00997
4.00966 23.48045 4.00966
4.00937 23.57053 4.00937
4.00908 23.66059 4.00908
4.00880 23.75065 4.00880
4.00853 23.84069 4.00853
4.00827 23.93072 4.00827
4.00801 24.02075 4.00801
4.00777 24.11076 4.00777
4.00753 24.20077 4.00753
4.00729 24.29076 4.00729
4.00707 24.38075 4.00707
4.00685 24.47073 4.00685
4.00664 24.56071 4.00664
4.00643 24.65067 4.00643
4.00623 24.74063 4.00623
4.00604 24.83058 4.00604
4.00585 24.92053 4.00585
4.00567 25.01047 4.00567
4.00550 25.10040 4.00550
4.00533 25.19033 4.00533
4.00516 25.28025 4.00516
4.00500 25.37017 4.00500
4.00484 25.46009 4.00484
4.00469 25.54999 4.00469
4.00455 25.63990 4.00455
4.00441 25.72980 4.00441
4.00427 25.81970 4.00427
4.00413 25.90959 4.00413
4.00401 25.99948 4.00401
4.00388 26.08937 4.00388
4.00376 26.17926 4.00376
4.00364 26.26914 4.00364
4.00353 26.35902 4.00353
4.00342 26.44890 4.00342
4.00331 26.53877 4.00331
4.00321 26.62865 4.00321
4.00311 26.71852 4.00311
4.00301 26.80839 4.00301
4.00292 26.89826 4.00292
4.00283 26.98813 4.00283
4.00274 27.07799 4.00274
4.00265 27.16786 4.00265
4.00257 27.25772 4.00257
4.00249 27.34759 4.00249
4.00241 27.43745 4.00241
4.00233 27.52731 4.00233
4.00226 27.61717 4.00226
4.00219 27.70703 4.00219
4.00212 27.79690 4.00212
4.00205 27.88676 4.00205
4.00199 27.97662 4.00199
4.00193 28.06648 4.00193
4.00187 28.15634 4.00187
4.00181 28.24621 4.00181
4.00175 28.33607 4.00175
4.00170 28.42593 4.00170
4.00164 28.51580 4.00164
4.00159 28.60566 4.00159
4.00154 28.69553 4.00154
4.00149 28.78539 4.00149
4.00145 28.87526 4.00145
4.00140 28.96512 4.00140
4.00136 29.05499 4.00136
4.00131 29.14486 4.00131
4.00127 29.23473 4.00127
4.00123 29.32461 4.00123
4.00119 29.41448 4.00119
4.00116 29.50435 4.00116
4.00112 29.59423 4.00112
4.00109 29.68411 4.00109
4.00105 29.77398 4.00105
4.00102 29.86386 4.00102
4.00099 29.95375 4.00099
4.00095 30.04363 4.00096
4.00092 30.13351 4.00092
4.00090 30.22340 4.00090
4.00087 30.31329 4.00087
4.00084 30.40318 4.00084
4.00081 30.49307 4.00081
4.00079 30.58296 4.00079
4.00076 30.67285 4.00076
4.00074 30.76275 4.00074
4.00072 30.85265 4.00072
4.00069 30.94255 4.00069
4.00067 31.03245 4.00067
4.00065 31.12235 4.00065
4.00063 31.21226 4.00063
4.00061 31.30217 4.00061
4.00059 31.39207 4.00059
4.00057 31.48199 4.00057
4.00055 31.57190 4.00055
4.00054 31.66181 4.00054
4.00052 31.75173 4.00052
4.00050 31.84165 4.00050
4.00049 31.93157 4.00049
4.00047 32.02150 4.00047
4.00046 32.11142 4.00046
4.00044 32.20135 4.00044
4.00043 32.29128 4.00043
4.00042 32.38121 4.00042
4.00040 32.47114 4.00040
4.00039 32.56108 4.00039
4.00038 32.65101 4.00038
4.00037 32.74095 4.00037
4.00035 32.83090 4.00035
4.00034 32.92084 4.00034
4.00033 33.01079 4.00033
4.00032 33.10073 4.00032
4.00031 33.19069 4.00031
4.00030 33.28064 4.00030
4.00029 33.37059 4.00029
4.00028 33.46055 4.00028
4.00027 33.55051 4.00027
4.00027 33.64047 4.00027
4.00026 33.73043 4.00026
4.00025 33.82040 4.00025
4.00024 33.91036 4.00024
4.00023 34.00033 4.00023
4.00023 34.09031 4.00023
4.00022 34.18028 4.00022
4.00021 34.27026 4.00021
4.00021 34.36023 4.00021
4.00020 34.45021 4.00020
4.00019 34.54020 4.00019
4.00019 34.63018 4.00019
4.00018 34.72017 4.00018
4.00017 34.81015 4.00017
4.00017 34.90015 4.00017
4.00016 34.99014 4.00016
4.00016 35.08013 4.00016
4.00015 35.17013 4.00015
4.00015 35.26013 4.00015
4.00014 35.35013 4.00014
4.00014 35.44013 4.00014
4.00014 35.53014 4.00014
4.00013 35.62015 4.00013
4.00013 35.71016 4.00013
4.00012 35.80017 4.00012
4.00012 35.89018 4.00012
4.00012 35.98020 4.00012
4.00011 36.07022 4.00011
4.00011 36.16024 4.00011
4.00010 36.25026 4.00010
4.00010 36.34028 4.00010
4.00010 36.43031 4.00010
4.00010 36.52034 4.00009
4.00009 36.61037 4.00009
4.00009 36.70040 4.00009
4.00009 36.79043 4.00009
4.00008 36.88047 4.00008
4.00008 36.97051 4.00008
4.00008 37.06055 4.00008
4.00008 37.15059 4.00008
4.00007 37.24062 4.00007
4.00007 37.33067 4.00007
4.00007 37.42071 4.00007
4.00007 37.51076 4.00007
4.00006 37.60081 4.00006
4.00006 37.69087 4.00006
4.00006 37.78092 4.00006
4.00006 37.87098 4.00006
4.00006 37.96104 4.00006
4.00005 38.05110 4.00005
4.00005 38.14116 4.00005
4.00005 38.23122 4.00005
4.00005 38.32129 4.00005
4.00005 38.41136 4.00005
4.00005 38.50143 4.00005
4.00005 38.59150 4.00005
4.00004 38.68157 4.00004
4.00004 38.77165 4.00004
4.00004 38.86172 4.00004
4.00004 38.95180 4.00004
4.00004 39.04188 4.00004
4.00004 39.13197 4.00004
4.00004 39.22205 4.00004
4.00003 39.31214 4.00004
4.00003 39.40222 4.00003
4.00003 39.49231 4.00003
4.00003 39.58240 4.00003
4.00003 39.67250 4.00003
4.00003 39.76259 4.00003
4.00003 39.85269 4.00003
4.00003 39.94278 4.00003
4.00003 40.03288 4.00003
4.00003 40.12299 4.00003
4.00003 40.21309 4.00003
4.00002 40.30319 4.00002
4.00002 40.39330 4.00002
4.00002 40.48341 4.00002
4.00002 40.57352 4.00002
4.00002 40.66363 4.00002
4.00002 40.75374 4.00002
4.00002 40.84385 4.00002
4.00002 40.93397 4.00002
4.00002 41.02409 4.00002
4.00002 41.11421 4.00002
4.00002 41.20433 4.00002
4.00002 41.29445 4.00002
4.00002 41.38457 4.00002
4.00002 41.47470 4.00002

Angle 0.616193 3.123407

4.00000 7.03348 4.00000
4.00000 7.03348 4.00000
4.00000 7.03348 4.00000
4.00000 7.03348 4.00000
4.00000 7.03348 4.00000
4.00000 7.03348 4.00000
4.00000 7.03348 4.00000
4.00000 7.03348 4.00000
4.00000 7.03348 4.00000
4.00000 7.03348 4.00000
4.00000 7.03348 4.00000
4.00000 7.03348 4.00000
4.00000 7.03349 4.00000
4.00000 7.03348 4.00000
4.00000 7.03348 4.00000
4.00000 7.03348 4.00000
4.00000 7.03348 4.00000
4.00000 7.03348 4.00000
4.00000 7.03348 4.00000
4.00000 7.03348 4.00000
4.00000 7.03348 4.00000
4.00000 7.03348 4.00000
4.00000 7.03348 4.00000
4.00000 7.03348 4.00000
4.00000 7.03348 4.00000
4.00000 7.03348 4.00000
4.00000 7.03348 4.00000
4.00000 7.03348 4.00000
4.00000 7.03348 4.00000
4.00000 7.03348 4.00000
4.00000 7.03348 4.00000
4.00000 7.03348 4.00000
4.00000 7.03348 4.00000
4.00000 7.03348 4.00000
4.00000 7.03348 4.00000
4.00000 7.03348 4.00000
4.00000 7.03348 4.00000
4.00000 7.03348 4.00000
4.00000 7.03348 4.00000
4.00000 7.03348 4.00000
4.00000 7.03348 4.00000
4.00000 7.03348 4.00000
4.00000 7.03348 4.00000
4.00000 7.03348 4.00000
4.00000 7.03348 4.00000
4.00000 7.03348 4.00000
4.00000 7.03348 4.00000
4.00000 7.03348 4.00000
4.00000 7.03348 4.00000
4.00000 7.03348 4.00000
4.00000 7.03348 4.00000
4.00000 7.03348 4.00000
4.00000 7.03348 4.00000
4.00000 7.03348 4.00000
4.00000 7.03348 4.00000
4.00000 7.03348 4.00000
4.00000 7.03348 4.00000
4.00000 7.03348 4.00000
4.00000 7.03348 4.00000
4.00000 7.03348 4.00000
4.00000 7.03348 4.00000
4.00000 7.03348 4.00000
4.00000 7.03348 4.00000
4.00000 7.03348 4.00000
4.00000 7.03348 4.00000
4.00000 7.03348 4.00000
4.00000 7.03348 4.00000
4.00000 7.03348 4.00000
4.00000 7.03348 4.00000
4.00000 7.03348 4.00000
4.00000 7.03348 4.00000
4.00000 7.03348 4.00000
4.00000 7.03348 4.00000
4.00000 7.03348 4.00000
4.00000 7.03348 4.00000
4.00000 7.03348 4.00000
4.00000 7.03348 4.00000
4.00000 7.03348 4.00000
4.00000 7.03348 4.00000
4.00000 7.03348 4.00000
4.00000 7.03348 4.00000
4.00000 7.03348 4.00000
4.00000 7.03348 4.00000
4.00000 7.03348 4.00000
4.00000 7.03348 4.00000
4.00000 7.03348 4.00000
4.00000 7.03348 4.00000
4.00000 7.03348 4.00000
4.00000 7.03348 4.00000
4.00000 7.03348 4.00000
4.00000 7.03348 4.00000
4.00000 7.03348 4.00000
4.00000 7.03348 4.00000
4.00000 7.03348 4.00000
4.00000 7.03348 4.00000
4.00000 7.03348 4.00000
4.00000 7.03348 4.00000
4.00000 7.03348 4.00000
4.00000 7.03348 4.00000
4.00000 7.03348 4.00000
4.00000 7.03348 4.00000
4.00000 7.03348 4.00000
4.00000 7.03348 4.00000
4.00000 7.03348 4.00000
4.00000 7.03348 4.00000
4.00000 7.03348 4.00000
4.00000 7.03348 4.00000
4.00000 7.03348 4.00000
4.00000 7.03348 4.00000
4.00000 7.03348 4.00000
4.00000 7.03348 4.00000
4.00000 7.03348 4.00000
4.00000 7.03348 4.00000
4.00000 7.03348 4.00000
4.00000 7.03348 4.00000
4.00000 7.03348 4.00000
4.00000 7.03348 4.00000
4.00000 7.03348 4.00000
4.00000 7.03348 4.00000
4.00000 7.03348 4.00000
4.00000 7.03348 4.00000
4.00000 7.03348 4.00000
4.00000 7.03348 4.00000
4.00000 7.03348 4.00000
4.00000 7.03348 4.00000
4.00000 7.03348 4.00000
4.00000 7.03348 4.00000
4.00000 7.03348 4.00000
4.00000 7.03347 4.00000
4.00000 7.03348 4.00000
4.00000 7.03348 4.00000
4.00000 7.03348 4.00000
4.00000 7.03348 4.00000
4.00000 7.03348 4.00000
4.00000 7.03348 4.00000
4.00000 7.03348 4.00000
4.00000 7.03348 4.00000
4.00000 7.03348 4.00000
4.00000 7.03348 4.00000
4.00000 7.03348 4.00000
4.00000 7.03348 4.00000
4.00000 7.03348 4.00000
4.00000 7.03348 4.00000
4.00000 7.03348 4.00000
4.00000 7.03348 4.00000
4.00000 7.03348 4.00000
4.00000 7.03348 4.00000
4.00000 7.03348 4.00000
4.00000 7.03348 4.00000
4.00000 7.03348 4.00000
4.00000 7.03348 4.00000
4.00000 7.03348 4.00000
4.00000 7.03348 4.00000
4.00000 7.03348 4.00000
4.00000 7.03348 4.00000
4.00000 7.03348 4.00000
4.00000 7.03348 4.00000
4.00000 7.03348 4.00000
4.00000 7.03348 4.00000
4.00000 7.03348 4.00000
4.00000 7.03348 4.00000
4.00000 7.03348 4.00000
4.00000 7.03348 4.00000
4.00000 7.03348 4.00000
4.00000 7.03348 4.00000
4.00000 7.03348 4.00000
4.00000 7.03348 4.00000
4.00000 7.03348 4.00000
4.00000 7.03348 4.00000
4.00000 7.03348 4.00000
4.00000 7.03348 4.00000
4.00000 7.03348 4.00000
4.00000 7.03348 4.00000
4.00000 7.03348 4.00000
4.00000 7.03348 4.00000
4.00000 7.03349 4.00000
4.00000 7.03356 4.00000
4.00000 7.03348 4.00000
4.00214 7.08568 4.00214
4.00501 7.15742 4.00501
4.00780 7.22945 4.00780
4.01054 7.30173 4.01054
4.01324 7.37425 4.01324
4.01589 7.44697 4.01589
4.01852 7.51989 4.01852
4.02114 7.59297 4.02114
4.02375 7.66619 4.02375
4.02636 7.73953 4.02636
4.02899 7.81297 4.02899
4.03165 7.88648 4.03165
4.03435 7.96002 4.03435
4.03710 8.03358 4.03710
4.03993 8.10711 4.03993
4.04285 8.18058 4.04285
4.04589 8.25394 4.04589
4.04906 8.32713 4.04906
4.05241 8.40009 4.05241
4.05596 8.47275 4.05596
4.05977 8.54502 4.05977
4.06389 8.61676 4.06389
4.06839 8.68785 4.06839
4.07325 8.75834 4.07325
4.07844 8.82826 4.07844
4.08398 8.89759 4.08398
4.08988 8.96629 4.08988
4.09614 9.03436 4.09614
4.10277 9.10182 4.10277
4.10974 9.16868 4.10974
4.11703 9.23501 4.11703
4.12458 9.30089 4.12458
4.13234 9.36646 4.13234
4.14021 9.43189 4.14021
4.14808 9.49743 4.14808
4.15578 9.56337 4.15578
4.16315 9.63009 4.16315
4.16994 9.69804 4.16994
4.17590 9.76773 4.17590
4.18075 9.83974 4.18075
4.18419 9.91464 4.18419
4.18598 9.99294 4.18598
4.18593 10.07497 4.18593
4.18460 10.15968 4.18460
4.18280 10.24538 4.18280
4.18058 10.33202 4.18058
4.17792 10.41960 4.17792
4.17481 10.50814 4.17481
4.17124 10.59771 4.17124
4.16714 10.68840 4.16714
4.16245 10.78033 4.16245
4.15709 10.87370 4.15709
4.15091 10.96876 4.15091
4.14373 11.06590 4.14373
4.13526 11.16567 4.13526
4.12508 11.26896 4.12508
4.11243 11.37723 4.11243
4.09596 11.49322 4.09597
4.07309 11.62209 4.07309
4.03556 11.78033 4.03556
4.00000 13.19120 4.00000
4.00000 13.19120 4.00000
4.00000 13.19120 4.00000
4.00000 13.19120 4.00000
4.00000 13.19120 4.00000
4.00000 13.19120 4.00000
4.00000 13.19120 4.00000
4.00000 13.19120 4.00000
4.00000 13.19120 4.00000
4.00000 13.19120 4.00000
4.00000 13.19120 4.00000
4.00000 13.19120 4.00000
4.00000 13.19120 4.00000
4.00000 13.19120 4.00000
4.00000 13.19120 4.00000
4.00000 13.19121 4.00000
4.01341 13.24791 4.01341
4.02470 13.30955 4.02470
4.03378 13.37567 4.03378
4.04070 13.44615 4.04070
4.04554 13.52086 4.04554
4.04838 13.59959 4.04838
4.05023 13.68038 4.05023
4.05202 13.76132 4.05202
4.05376 13.84242 4.05376
4.05545 13.92365 4.05545
4.05711 14.00501 4.05711
4.05873 14.08649 4.05873
4.06032 14.16807 4.06032
4.06188 14.24976 4.06188
4.06341 14.33154 4.06341
4.06492 14.41341 4.06492
4.06641 14.49537 4.06641
4.06788 14.57742 4.06788
4.06933 14.65954 4.06933
4.07077 14.74173 4.07077
4.07219 14.82400 4.07219
4.07360 14.90634 4.07360
4.07499 14.98874 4.07499
4.07638 15.07121 4.07638
4.07766 15.15391 4.07766
4.07872 15.23711 4.07872
4.07956 15.32079 4.07956
4.08019 15.40491 4.08019
4.08063 15.48946 4.08063
4.08090 15.57440 4.08090
4.08100 15.65971 4.08100
4.08094 15.74536 4.08094
4.08075 15.83133 4.08075
4.08043 15.91759 4.08043
4.07998 16.00413 4.07998
4.07943 16.09092 4.07943
4.07878 16.17794 4.07878
4.07804 16.26518 4.07804
4.07723 16.35261 4.07723
4.07633 16.44022 4.07633
4.07538 16.52799 4.07538
4.07436 16.61591 4.07436
4.07330 16.70397 4.07330
4.07219 16.79215 4.07219
4.07105 16.88043 4.07105
4.06987 16.96881 4.06987
4.06866 17.05728 4.06866
4.06743 17.14583 4.06743
4.06619 17.23444 4.06619
4.06492 17.32311 4.06492
4.06365 17.41184 4.06365
4.06237 17.50061 4.06237
4.06109 17.58942 4.06109
4.05981 17.67826 4.05981
4.05852 17.76712 4.05852
4.05724 17.85601 4.05724
4.05597 17.94491 4.05597
4.05471 18.03383 4.05471
4.05345 18.12276 4.05345
4.05221 18.21169 4.05221
4.05097 18.30062 4.05097
4.04976 18.38955 4.04976
4.04855 18.47848 4.04855
4.04737 18.56741 4.04737
4.04620 18.65632 4.04620
4.04504 18.74523 4.04504
4.04391 18.83413 4.04391
4.04280 18.92302 4.04280
4.04170 19.01189 4.04170
4.04062 19.10075 4.04062
4.03957 19.18960 4.03957
4.03853 19.27843 4.03853
4.03751 19.36724 4.03751
4.03652 19.45604 4.03652
4.03554 19.54482 4.03554
4.03459 19.63358 4.03459
4.03365 19.72232 4.03365
4.03274 19.81105 4.03274
4.03185 19.89976 4.03185
4.03097 19.98846 4.03097
4.03012 20.07713 4.03012
4.02929 20.16579 4.02929
4.02847 20.25443 4.02847
4.02768 20.34306 4.02768
4.02691 20.43167 4.02691
4.02615 20.52026 4.02615
4.02541 20.60884 4.02541
4.02469 20.69740 4.02469
4.02399 20.78594 4.02399
4.02331 20.87448 4.02331
4.02264 20.96299 4.02264
4.02199 21.05150 4.02199
4.02136 21.13999 4.02136
4.02075 21.22847 4.02075
4.02015 21.31693 4.02015
4.01957 21.40539 4.01957
4.01900 21.49383 4.01900
4.01845 21.58226 4.01845
4.01791 21.67068 4.01791
4.01739 21.75909 4.01739
4.01688 21.84750 4.01688
4.01638 21.93589 4.01638
4.01590 22.02427 4.01590
4.01543 22.11265 4.01543
4.01498 22.20102 4.01498
4.01454 22.28938 4.01454
4.01411 22.37774 4.01411
4.01369 22.46608 4.01369
4.01328 22.55443 4.01328
4.01289 22.64276 4.01289
4.01251 22.73110 4.01251
4.01213 22.81943 4.01213
4.01177 22.90775 4.01177
4.01142 22.99607 4.01142
4.01108 23.08439 4.01108
4.01075 23.17270 4.01075
4.01043 23.26101 4.01042
4.01011 23.34932 4.01011
4.00981 23.43763 4.00981
4.00951 23.52594 4.00951
4.00923 23.61424 4.00923
4.00895 23.70255 4.00895
4.00868 23.79085 4.00868
4.00842 23.87916 4.00842
4.00816 23.96746 4.00816
4.00792 24.05577 4.00792
4.00768 24.14407 4.00768
4.00744 24.23238 4.00745
4.00722 24.32069 4.00722
4.00700 24.40900 4.00700
4.00679 24.49730 4.00679
4.00658 24.58562 4.00658
4.00638 24.67393 4.00638
4.00619 24.76225 4.00619
4.00600 24.85057 4.00600
4.00582 24.93890 4.00582
4.00564 25.02722 4.00564
4.00547 25.11555 4.00547
4.00530 25.20389 4.00530
4.00514 25.29222 4.00514
4.00498 25.38057 4.00498
4.00483 25.46891 4.00483
4.00468 25.55726 4.00468
4.00454 25.64561 4.00454
4.00440 25.73397 4.00440
4.00426 25.82234 4.00426

