Angle 0.272721 3.956612

4.00000 7.03348 4.00000
4.00000 7.03348 4.00000
4.00000 7.03348 4.00000
4.00000 7.03348 4.00000
4.00000 7.03348 4.00000
4.00000 7.03348 4.00000
4.00000 7.03348 4.00000
4.00000 7.03348 4.00000
4.00000 7.03348 4.00000
4.00000 7.03348 4.00000
4.00000 7.03348 4.00000
4.00000 7.03348 4.00000
4.00000 7.03348 4.00000
4.00000 7.03348 4.00000
4.00000 7.03347 4.00000
4.00000 7.03347 4.00000
4.00000 7.03347 4.00000
4.00000 7.03347 4.00000
4.00000 7.03347 4.00000
4.00000 7.03347 4.00000
4.00000 7.03347 4.00000
4.00000 7.03347 4.00000
4.00000 7.03348 4.00000
4.00000 7.03348 4.00000
4.00000 7.03348 4.00000
4.00000 7.03348 4.00000
4.00000 7.03348 4.00000
4.00000 7.03348 4.00000
4.00000 7.03348 4.00000
4.00000 7.03348 4.00000
4.00000 7.03348 4.00000
4.00000 7.03348 4.00000
4.00000 7.03348 4.00000
4.00000 7.03348 4.00000
4.00000 7.03348 4.00000
4.00000 7.03348 4.00000
4.00000 7.03348 4.00000
4.00000 7.03348 4.00000
4.00000 7.03348 4.00000
4.00000 7.03348 4.00000
4.00000 7.03348 4.00000
4.00000 7.03348 4.00000
4.00000 7.03348 4.00000
4.00000 7.03348 4.00000
4.00000 7.03348 4.00000
4.00000 7.03348 4.00000
4.00000 7.03348 4.00000
4.00000 7.03348 4.00000
4.00000 7.03348 4.00000
4.00000 7.03348 4.00000
4.00000 7.03348 4.00000
4.00000 7.03348 4.00000
4.00000 7.03348 4.00000
4.00000 7.03348 4.00000
4.00000 7.03348 4.00000
4.00000 7.03348 4.00000
4.00000 7.03348 4.00000
4.00000 7.03348 4.00000
4.00000 7.03348 4.00000
4.00000 7.03348 4.00000
4.00000 7.03348 4.00000
4.00000 7.03348 4.00000
4.00000 7.03348 4.00000
4.00000 7.03348 4.00000
4.00000 7.03348 4.00000
4.00000 7.03348 4.00000
4.00000 7.03348 4.00000
4.00000 7.03348 4.00000
4.00000 7.03348 4.00000
4.00000 7.03348 4.00000
4.00000 7.03348 4.00000
4.00000 7.03348 4.00000
4.00000 7.03348 4.00000
4.00000 7.03348 4.00000
4.00000 7.03348 4.00000
4.00000 7.03348 4.00000
4.00000 7.03348 4.00000
4.00000 7.03348 4.00000
4.00000 7.03348 4.00000
4.00000 7.03348 4.00000
4.00000 7.03348 4.00000
4.00000 7.03348 4.00000
4.00000 7.03348 4.00000
4.00000 7.03348 4.00000
4.00000 7.03348 4.00000
4.00000 7.03348 4.00000
4.00000 7.03348 4.00000
4.00000 7.03348 4.00000
4.00000 7.03348 4.00000
4.00000 7.03348 4.00000
4.00000 7.03348 4.00000
4.00000 7.03348 4.00000
4.00000 7.03348 4.00000
4.00000 7.03348 4.00000
4.00000 7.03348 4.00000
4.00000 7.03348 4.00000
4.00000 7.03348 4.00000
4.00000 7.03348 4.00000
4.00000 7.03348 4.00000
4.00000 7.03348 4.00000
4.00000 7.03348 4.00000
4.00000 7.03348 4.00000
4.00000 7.03348 4.00000
4.00000 7.03348 4.00000
4.00000 7.03348 4.00000
4.00000 7.03348 4.00000
4.00000 7.03348 4.00000
4.00000 7.03348 4.00000
4.00000 7.03348 4.00000
4.00000 7.03348 4.00000
4.00000 7.03348 4.00000
4.00000 7.03348 4.00000
4.00000 7.03348 4.00000
4.00000 7.03348 4.00000
4.00000 7.03348 4.00000
4.00000 7.03348 4.00000
4.00000 7.03348 4.00000
4.00000 7.03348 4.00000
4.00000 7.03348 4.00000
4.00000 7.03348 4.00000
4.00000 7.03348 4.00000
4.00000 7.03348 4.00000
4.00000 7.03348 4.00000
4.00000 7.03348 4.00000
4.00000 7.03348 4.00000
4.00000 7.03348 4.00000
4.00000 7.03348 4.00000
4.00000 7.03348 4.00000
4.00000 7.03348 4.00000
4.00000 7.03348 4.00000
4.00000 7.03348 4.00000
4.00000 7.03348 4.00000
4.00000 7.03348 4.00000
4.00000 7.03348 4.00000
4.00000 7.03348 4.00000
4.00000 7.03348 4.00000
4.00000 7.03348 4.00000
4.00000 7.03348 4.00000
4.00000 7.03348 4.00000
4.00000 7.03348 4.00000
4.00000 7.03348 4.00000
4.00000 7.03348 4.00000
4.00000 7.03348 4.00000
4.00000 7.03348 4.00000
4.00000 7.03348 4.00000
4.00000 7.03348 4.00000
4.00000 7.03348 4.00000
4.00000 7.03348 4.00000
4.00000 7.03348 4.00000
4.00000 7.03348 4.00000
4.00000 7.03348 4.00000
4.00000 7.03348 4.00000
4.00000 7.03348 4.00000
4.00000 7.03348 4.00000
4.00000 7.03348 4.00000
4.00000 7.03348 4.00000
4.00000 7.03348 4.00000
4.00000 7.03348 4.00000
4.00000 7.03348 4.00000
4.00000 7.03348 4.00000
4.00000 7.03348 4.00000
4.00000 7.03348 4.00000
4.00000 7.03348 4.00000
4.00000 7.03348 4.00000
4.00000 7.03348 4.00000
4.00000 7.03348 4.00000
4.00000 7.03348 4.00000
4.00000 7.03348 4.00000
4.00000 7.03348 4.00000
4.00000 7.03348 4.00000
4.00000 7.03348 4.00000
4.00000 7.03348 4.00000
4.00000 7.03348 4.00000
4.00000 7.03348 4.00000
4.00000 7.03348 4.00000
4.00000 7.03348 4.00000
4.00000 7.03348 4.00000
4.00000 7.03348 4.00000
4.00000 7.03348 4.00000
4.00000 7.03348 4.00000
4.00000 7.03348 4.00000
4.00000 7.03348 4.00000
4.00000 7.03348 4.00000
4.00000 7.03348 4.00000
4.00000 7.03347 4.00000
4.00000 7.03348 4.00000
4.00000 7.03349 4.00000
4.00000 7.03348 4.00000
4.00000 7.03348 4.00000
4.00000 7.03348 4.00000
4.00000 7.03348 4.00000
4.00000 7.03348 4.00000
4.00000 7.03348 4.00000
4.00000 7.03348 4.00000
4.00000 7.03348 4.00000
4.00000 7.03348 4.00000
4.00000 7.03348 4.00000
4.00000 7.03348 4.00000
4.00000 7.03348 4.00000
4.00000 7.03348 4.00000
4.00000 7.03348 4.00000
4.00000 7.03348 4.00000
4.00000 7.03348 4.00000
4.00000 7.03349 4.00000
4.00000 7.03349 4.00000
4.00000 7.03350 4.00000
4.00000 7.03348 4.00000
4.00000 7.03348 4.00000
4.00000 7.03348 4.00000
4.00000 7.03349 4.00000
4.00000 7.03348 4.00000
4.00016 7.03734 4.00016
4.00307 7.10863 4.00307
4.00590 7.18024 4.00590
4.00867 7.25212 4.00867
4.01138 7.32425 4.01138
4.01406 7.39661 4.01406
4.01670 7.46917 4.01670
4.01931 7.54192 4.01931
4.02192 7.61483 4.02192
4.02452 7.68787 4.02452
4.02713 7.76103 4.02713
4.02976 7.83428 4.02976
4.03242 7.90760 4.03242
4.03512 7.98095 4.03512
4.03789 8.05430 4.03789
4.04074 8.12761 4.04074
4.04368 8.20086 4.04368
4.04674 8.27398 4.04674
4.04995 8.34693 4.04995
4.05334 8.41963 4.05334
4.05694 8.49201 4.05694
4.06082 8.56396 4.06082
4.06502 8.63537 4.06503
4.06962 8.70611 4.06962
4.07454 8.77629 4.07454
4.07981 8.84590 4.07981
4.08542 8.91490 4.08542
4.09140 8.98329 4.09140
4.09774 9.05105 4.09774
4.10444 9.11820 4.10444
4.11147 9.18477 4.11147
4.11881 9.25083 4.11881
4.12641 9.31648 4.12641
4.13418 9.38186 4.13418
4.14205 9.44715 4.14205
4.14988 9.51261 4.14988
4.15751 9.57856 4.15751
4.16474 9.64538 4.16474
4.17136 9.71353 4.17136
4.17709 9.78354 4.17709
4.18164 9.85599 4.18164
4.18473 9.93145 4.18473
4.18612 10.01039 4.18613
4.18569 10.09306 4.18569
4.18425 10.17783 4.18425
4.18237 10.26357 4.18237
4.18006 10.35024 4.18006
4.17731 10.43785 4.17731
4.17412 10.52644 4.17412
4.17045 10.61606 4.17045
4.16624 10.70682 4.16624
4.16144 10.79886 4.16144
4.15593 10.89238 4.15593
4.14959 10.98765 4.14959
4.14219 11.08508 4.14219
4.13345 11.18527 4.13345
4.12288 11.28920 4.12288
4.10966 11.39850 4.10966
4.09228 11.51618 4.09228
4.06768 11.64837 4.06768
4.02470 11.81739 4.02470
4.00000 13.19120 4.00000
4.00000 13.19120 4.00000
4.00000 13.19120 4.00000
4.00000 13.19120 4.00000
4.00000 13.19120 4.00000
4.00000 13.19120 4.00000
4.00000 13.19120 4.00000
4.00000 13.19120 4.00000
4.00000 13.19120 4.00000
4.00000 13.19120 4.00000
4.00000 13.19120 4.00000
4.00000 13.19120 4.00000
4.00000 13.19120 4.00000
4.00000 13.19120 4.00000
4.00000 13.19120 4.00000
4.00220 13.19962 4.00220
4.01535 13.25740 4.01535
4.02627 13.31966 4.02627
4.03500 13.38638 4.03500
4.04158 13.45744 4.04158
4.04610 13.53267 4.04610
4.04867 13.61186 4.04867
4.05050 13.69256 4.05050
4.05228 13.77343 4.05228
4.05401 13.85444 4.05401
4.05570 13.93559 4.05570
4.05734 14.01686 4.05734
4.05896 14.09825 4.05896
4.06054 14.17974 4.06054
4.06209 14.26134 4.06209
4.06362 14.34304 4.06362
4.06513 14.42482 4.06513
4.06662 14.50670 4.06662
4.06808 14.58865 4.06808
4.06953 14.67069 4.06953
4.07096 14.75280 4.07096
4.07238 14.83498 4.07238
4.07378 14.91723 4.07378
4.07517 14.99955 4.07517
4.07655 15.08193 4.07655
4.07781 15.16460 4.07781
4.07884 15.24777 4.07884
4.07965 15.33141 4.07965
4.08026 15.41550 4.08026
4.08068 15.50000 4.08068
4.08092 15.58489 4.08092
4.08100 15.67015 4.08100
4.08093 15.75575 4.08093
4.08072 15.84167 4.08072
4.08038 15.92787 4.08038
4.07993 16.01435 4.07992
4.07936 16.10108 4.07936
4.07870 16.18804 4.07870
4.07795 16.27521 4.07795
4.07713 16.36257 4.07713
4.07623 16.45011 4.07623
4.07527 16.53782 4.07527
4.07425 16.62567 4.07425
4.07318 16.71365 4.07318
4.07207 16.80176 4.07207
4.07092 16.88997 4.07092
4.06974 16.97827 4.06974
4.06853 17.06667 4.06853
4.06730 17.15514 4.06730
4.06606 17.24367 4.06606
4.06479 17.33227 4.06479
4.06352 17.42092 4.06352
4.06224 17.50961 4.06224
4.06096 17.59834 4.06096
4.05968 17.68710 4.05968
4.05840 17.77589 4.05840
4.05712 17.86470 4.05712
4.05585 17.95353 4.05585
4.05459 18.04237 4.05458
4.05333 18.13122 4.05333
4.05209 18.22007 4.05209
4.05086 18.30893 4.05086
4.04964 18.39778 4.04964
4.04844 18.48664 4.04844
4.04726 18.57549 4.04726
4.04609 18.66433 4.04609
4.04494 18.75317 4.04494
4.04381 18.84199 4.04381
4.04270 18.93080 4.04270
4.04161 19.01960 4.04161
4.04053 19.10839 4.04053
4.03948 19.19716 4.03948
4.03844 19.28592 4.03844
4.03743 19.37466 4.03743
4.03644 19.46339 4.03644
4.03546 19.55210 4.03547
4.03451 19.64079 4.03451
4.03358 19.72946 4.03358
4.03267 19.81812 4.03267
4.03178 19.90677 4.03178
4.03091 19.99539 4.03091
4.03006 20.08400 4.03006
4.02922 20.17259 4.02923
4.02841 20.26117 4.02841
4.02762 20.34973 4.02762
4.02685 20.43827 4.02685
4.02609 20.52680 4.02609
4.02536 20.61531 4.02536
4.02464 20.70381 4.02464
4.02394 20.79229 4.02394
4.02326 20.88076 4.02326
4.02260 20.96921 4.02260
4.02195 21.05765 4.02195
4.02132 21.14608 4.02132
4.02071 21.23450 4.02071
4.02011 21.32290 4.02011
4.01953 21.41130 4.01953
4.01896 21.49968 4.01896
4.01841 21.58805 4.01841
4.01787 21.67641 4.01787
4.01735 21.76477 4.01735
4.01685 21.85311 4.01685
4.01635 21.94144 4.01635
4.01587 22.02977 4.01587
4.01541 22.11809 4.01541
4.01495 22.20640 4.01495
4.01451 22.29471 4.01451
4.01408 22.38301 4.01408
4.01367 22.47130 4.01367
4.01326 22.55959 4.01326
4.01287 22.64787 4.01287
4.01248 22.73615 4.01248
4.01211 22.82442 4.01211

Angle 0.448128 4.124646

4.00000 7.03348 4.00000
4.00000 7.03348 4.00000
4.00000 7.03348 4.00000
4.00000 7.03348 4.00000
4.00000 7.03348 4.00000
4.00000 7.03348 4.00000
4.00000 7.03348 4.00000
4.00000 7.03348 4.00000
4.00000 7.03348 4.00000
4.00000 7.03348 4.00000
4.00000 7.03348 4.00000
4.00000 7.03348 4.00000
4.00000 7.03348 4.00000
4.00000 7.03348 4.00000
4.00000 7.03348 4.00000
4.00000 7.03348 4.00000
4.00000 7.03348 4.00000
4.00000 7.03348 4.00000
4.00000 7.03348 4.00000
4.00000 7.03348 4.00000
4.00000 7.03348 4.00000
4.00000 7.03348 4.00000
4.00000 7.03348 4.00000
4.00000 7.03348 4.00000
4.00000 7.03348 4.00000
4.00000 7.03348 4.00000
4.00000 7.03348 4.00000
4.00000 7.03348 4.00000
4.00000 7.03348 4.00000
4.00000 7.03348 4.00000
4.00000 7.03348 4.00000
4.00000 7.03347 4.00000
4.00000 7.03348 4.00000
4.00000 7.03348 4.00000
4.00000 7.03348 4.00000
4.00000 7.03348 4.00000
4.00000 7.03348 4.00000
4.00000 7.03348 4.00000
4.00000 7.03348 4.00000
4.00000 7.03347 4.00000
4.00000 7.03347 4.00000
4.00000 7.03347 4.00000
4.00000 7.03347 4.00000
4.00000 7.03347 4.00000
4.00000 7.03347 4.00000
4.00000 7.03346 4.00000
4.00000 7.03346 4.00000
4.00000 7.03346 4.00000
4.00000 7.03346 4.00000
4.00000 7.03346 4.00000
4.00000 7.03346 4.00000
4.00000 7.03346 4.00000
4.00000 7.03346 4.00000
4.00000 7.03348 4.00000
4.00000 7.03348 4.00000
4.00000 7.03348 4.00000
4.00000 7.03348 4.00000
4.00000 7.03348 4.00000
4.00000 7.03348 4.00000
4.00000 7.03348 4.00000
4.00000 7.03348 4.00000
4.00000 7.03348 4.00000
4.00000 7.03348 4.00000
4.00000 7.03348 4.00000
4.00000 7.03348 4.00000
4.00000 7.03348 4.00000
4.00000 7.03348 4.00000
4.00000 7.03348 4.00000
4.00000 7.03348 4.00000
4.00000 7.03348 4.00000
4.00000 7.03348 4.00000
4.00000 7.03348 4.00000
4.00000 7.03348 4.00000
4.00000 7.03348 4.00000
4.00000 7.03348 4.00000
4.00000 7.03348 4.00000
4.00000 7.03348 4.00000
4.00000 7.03348 4.00000
4.00000 7.03349 4.00000
4.00000 7.03349 4.00000
4.00000 7.03349 4.00000
4.00000 7.03349 4.00000
4.00000 7.03348 4.00000
4.00000 7.03348 4.00000
4.00000 7.03348 4.00000
4.00000 7.03348 4.00000
4.00000 7.03348 4.00000
4.00000 7.03348 4.00000
4.00000 7.03348 4.00000
4.00000 7.03348 4.00000
4.00000 7.03348 4.00000
4.00000 7.03348 4.00000
4.00000 7.03348 4.00000
4.00000 7.03348 4.00000
4.00000 7.03348 4.00000
4.00000 7.03348 4.00000
4.00000 7.03348 4.00000
4.00000 7.03348 4.00000
4.00000 7.03348 4.00000
4.00000 7.03348 4.00000
4.00000 7.03348 4.00000
4.00000 7.03353 4.00000
4.00000 7.03348 4.00000
4.00000 7.03348 4.00000
4.00000 7.03348 4.00000
4.00000 7.03348 4.00000
4.00000 7.03348 4.00000
4.00000 7.03348 4.00000
4.00000 7.03348 4.00000
4.00000 7.03348 4.00000
4.00000 7.03348 4.00000
4.00000 7.03348 4.00000
4.00000 7.03348 4.00000
4.00000 7.03348 4.00000
4.00000 7.03348 4.00000
4.00000 7.03348 4.00000
4.00000 7.03348 4.00000
4.00000 7.03348 4.00000
4.00000 7.03348 4.00000
4.00000 7.03348 4.00000
4.00000 7.03348 4.00000
4.00000 7.03348 4.00000
4.00000 7.03348 4.00000
4.00000 7.03348 4.00000
4.00000 7.03348 4.00000
4.00000 7.03348 4.00000
4.00000 7.03348 4.00000
4.00000 7.03348 4.00000
4.00000 7.03348 4.00000
4.00000 7.03348 4.00000
4.00000 7.03348 4.00000
4.00000 7.03348 4.00000
4.00000 7.03348 4.00000
4.00000 7.03348 4.00000
4.00000 7.03348 4.00000
4.00000 7.03348 4.00000
4.00000 7.03348 4.00000
4.00000 7.03348 4.00000
4.00000 7.03348 4.00000
4.00000 7.03348 4.00000
4.00000 7.03348 4.00000
4.00000 7.03348 4.00000
4.00000 7.03348 4.00000
4.00000 7.03348 4.00000
4.00000 7.03348 4.00000
4.00000 7.03348 4.00000
4.00000 7.03348 4.00000
4.00000 7.03348 4.00000
4.00000 7.03348 4.00000
4.00000 7.03348 4.00000
4.00000 7.03348 4.00000
4.00000 7.03348 4.00000
4.00000 7.03348 4.00000
4.00000 7.03348 4.00000
4.00000 7.03348 4.00000
4.00000 7.03348 4.00000
4.00000 7.03348 4.00000
4.00000 7.03348 4.00000
4.00000 7.03348 4.00000
4.00000 7.03348 4.00000
4.00000 7.03348 4.00000
4.00000 7.03348 4.00000
4.00000 7.03348 4.00000
4.00000 7.03348 4.00000
4.00000 7.03348 4.00000
4.00000 7.03348 4.00000
4.00000 7.03348 4.00000
4.00000 7.03348 4.00000
4.00000 7.03348 4.00000
4.00000 7.03348 4.00000
4.00000 7.03348 4.00000
4.00000 7.03348 4.00000
4.00000 7.03348 4.00000
4.00000 7.03348 4.00000
4.00000 7.03348 4.00000
4.00000 7.03348 4.00000
4.00000 7.03348 4.00000
4.00000 7.03348 4.00000
4.00000 7.03348 4.00000
4.00000 7.03348 4.00000
4.00000 7.03348 4.00000
4.00000 7.03348 4.00000
4.00000 7.03348 4.00000
4.00000 7.03348 4.00000
4.00000 7.03348 4.00000
4.00000 7.03348 4.00000
4.00000 7.03347 4.00000
4.00000 7.03348 4.00000
4.00000 7.03348 4.00000
4.00000 7.03348 4.00000
4.00000 7.03348 4.00000
4.00000 7.03348 4.00000
4.00000 7.03348 4.00000
4.00000 7.03348 4.00000
4.00000 7.03348 4.00000
4.00000 7.03348 4.00000
4.00000 7.03348 4.00000
4.00000 7.03348 4.00000
4.00000 7.03348 4.00000
4.00000 7.03348 4.00000
4.00000 7.03348 4.00000
4.00000 7.03348 4.00000
4.00000 7.03348 4.00000
4.00000 7.03348 4.00000
4.00000 7.03347 4.00000
4.00000 7.03347 4.00000
4.00000 7.03348 4.00000
4.00000 7.03348 4.00000
4.00000 7.03348 4.00000
4.00000 7.03348 4.00000
4.00000 7.03348 4.00000
4.00000 7.03348 4.00000
4.00000 7.03348 4.00000
4.00000 7.03348 4.00000
4.00000 7.03348 4.00000
4.00000 7.03348 4.00000
4.00000 7.03348 4.00000
4.00000 7.03348 4.00000
4.00000 7.03348 4.00000
4.00000 7.03348 4.00000
4.00000 7.03348 4.00000
4.00000 7.03348 4.00000
4.00000 7.03348 4.00000
4.00000 7.03348 4.00000
4.00000 7.03348 4.00000
4.00000 7.03348 4.00000
4.00000 7.03348 4.00000
4.00000 7.03348 4.00000
4.00000 7.03348 4.00000
4.00000 7.03348 4.00000
4.00000 7.03348 4.00000
4.00000 7.03348 4.00000
4.00000 7.03348 4.00000
4.00000 7.03348 4.00000
4.00000 7.03348 4.00000
4.00000 7.03348 4.00000
4.00000 7.03348 4.00000
4.00000 7.03348 4.00000
4.00000 7.03348 4.00000
4.00000 7.03348 4.00000
4.00000 7.03348 4.00000
4.00000 7.03348 4.00000
4.00000 7.03348 4.00000
4.00000 7.03348 4.00000
4.00000 7.03348 4.00000
4.00000 7.03348 4.00000
4.00000 7.03348 4.00000
4.00000 7.03348 4.00000
4.00000 7.03348 4.00000
4.00000 7.03348 4.00000
4.00000 7.03348 4.00000
4.00000 7.03348 4.00000
4.00000 7.03348 4.00000
4.00000 7.03348 4.00000
4.00000 7.03348 4.00000
4.00000 7.03348 4.00000
4.00047 7.04474 4.00047
4.00350 7.11940 4.00350
4.00645 7.19434 4.00645
4.00933 7.26953 4.00933
4.01215 7.34494 4.01215
4.01493 7.42055 4.01493
4.01768 7.49633 4.01768
4.02040 7.57225 4.02040
4.02311 7.64830 4.02311
4.02582 7.72445 4.02582
4.02855 7.80066 4.02855
4.03130 7.87692 4.03130
4.03409 7.95319 4.03409
4.03695 8.02943 4.03695
4.03987 8.10562 4.03987
4.04290 8.18170 4.04290
4.04605 8.25763 4.04604
4.04934 8.33335 4.04934
4.05282 8.40879 4.05282
4.05653 8.48386 4.05653
4.06051 8.55845 4.06051
4.06484 8.63244 4.06484
4.06959 8.70568 4.06959
4.07469 8.77829 4.07469
4.08015 8.85025 4.08015
4.08599 8.92154 4.08599
4.09221 8.99214 4.09221
4.09881 9.06205 4.09881
4.10579 9.13128 4.10579
4.11312 9.19989 4.11312
4.12077 9.26794 4.12077
4.12866 9.33557 4.12866
4.13672 9.40293 4.13672
4.14483 9.47026 4.14483
4.15284 9.53786 4.15284
4.16056 9.60609 4.16056
4.16777 9.67543 4.16777
4.17420 9.74639 4.17420
4.17954 9.81959 4.17954
4.18348 9.89566 4.18348
4.18573 9.97516 4.18573
4.18609 10.05852 4.18609
4.18486 10.14511 4.18486
4.18309 10.23284 4.18309
4.18087 10.32155 4.18087
4.17819 10.41121 4.17819
4.17505 10.50186 4.17505
4.17141 10.59356 4.17141
4.16723 10.68640 4.16723
4.16244 10.78052 4.16244
4.15694 10.87612 4.15694
4.15058 10.97349 4.15058
4.14316 11.07303 4.14316
4.13438 11.17535 4.13438
4.12373 11.28144 4.12373
4.11039 11.39299 4.11039
4.09278 11.51311 4.09278
4.06771 11.64821 4.06771
4.02321 11.82223 4.02321
4.00000 13.19120 4.00000
4.00000 13.19120 4.00000
4.00000 13.19120 4.00000
4.00000 13.19120 4.00000
4.00000 13.19120 4.00000
4.00000 13.19120 4.00000
4.00000 13.19120 4.00000
4.00000 13.19120 4.00000
4.00000 13.19120 4.00000
4.00000 13.19120 4.00000
4.00000 13.19120 4.00000
4.00000 13.19120 4.00000
4.00000 13.19120 4.00000
4.00000 13.19120 4.00000
4.00000 13.19120 4.00000
4.00731 13.22040 4.00731
4.01986 13.28106 4.01986
4.03010 13.34638 4.03010
4.03808 13.41627 4.03808
4.04385 13.49059 4.04385
4.04753 13.56916 4.04753
4.04957 13.65104 4.04957
4.05141 13.73335 4.05141
4.05319 13.81580 4.05319
4.05493 13.89839 4.05493
4.05662 13.98110 4.05662
4.05828 14.06393 4.05828
4.05991 14.14685 4.05991
4.06150 14.22987 4.06150
4.06306 14.31298 4.06306
4.06461 14.39617 4.06461
4.06612 14.47944 4.06612
4.06762 14.56279 4.06762
4.06910 14.64620 4.06910
4.07056 14.72969 4.07056
4.07201 14.81323 4.07201
4.07344 14.89684 4.07344
4.07485 14.98051 4.07485
4.07626 15.06423 4.07626
4.07758 15.14815 4.07758
4.07867 15.23256 4.07867
4.07953 15.31747 4.07953
4.08018 15.40282 4.08018
4.08063 15.48860 4.08063
4.08090 15.57477 4.08090
4.08100 15.66131 4.08100
4.08094 15.74819 4.08094
4.08074 15.83539 4.08074
4.08040 15.92289 4.08040
4.07995 16.01065 4.07995
4.07938 16.09866 4.07938
4.07871 16.18690 4.07871
4.07795 16.27535 4.07795
4.07711 16.36399 4.07711
4.07620 16.45280 4.07620
4.07522 16.54176 4.07522
4.07419 16.63087 4.07419
4.07310 16.72010 4.07310
4.07197 16.80945 4.07197
4.07080 16.89889 4.07080
4.06960 16.98843 4.06960
4.06838 17.07804 4.06838
4.06713 17.16772 4.06713
4.06586 17.25746 4.06586
4.06458 17.34725 4.06458
4.06329 17.43708 4.06329
4.06199 17.52695 4.06199
4.06069 17.61684 4.06069
4.05939 17.70676 4.05939
4.05810 17.79670 4.05810
4.05680 17.88665 4.05680
4.05552 17.97661 4.05552
4.05424 18.06657 4.05424
4.05298 18.15653 4.05298
4.05172 18.24649 4.05172
4.05048 18.33644 4.05048
4.04926 18.42638 4.04926
4.04805 18.51632 4.04805
4.04685 18.60623 4.04685
4.04568 18.69614 4.04568
4.04452 18.78602 4.04452
4.04339 18.87589 4.04339
4.04227 18.96574 4.04227
4.04117 19.05557 4.04117
4.04009 19.14538 4.04009

Angle 0.116360 0.241149

4.00000 7.03348 4.00000
4.00000 7.03348 4.00000
4.00000 7.03348 4.00000
4.00000 7.03348 4.00000
4.00000 7.03348 4.00000
4.00000 7.03348 4.00000
4.00000 7.03348 4.00000
4.00000 7.03348 4.00000
4.00000 7.03348 4.00000
4.00000 7.03348 4.00000
4.00000 7.03348 4.00000
4.00000 7.03348 4.00000
4.00000 7.03348 4.00000
4.00000 7.03348 4.00000
4.00000 7.03348 4.00000
4.00000 7.03348 4.00000
4.00000 7.03348 4.00000
4.00000 7.03348 4.00000
4.00000 7.03348 4.00000
4.00000 7.03348 4.00000
4.00000 7.03348 4.00000
4.00000 7.03348 4.00000
4.00000 7.03348 4.00000
4.00000 7.03348 4.00000
4.00000 7.03348 4.00000
4.00000 7.03348 4.00000
4.00000 7.03348 4.00000
4.00000 7.03348 4.00000
4.00000 7.03348 4.00000
4.00000 7.03348 4.00000
4.00000 7.03348 4.00000
4.00000 7.03348 4.00000
4.00000 7.03348 4.00000
4.00000 7.03348 4.00000
4.00000 7.03348 4.00000
4.00000 7.03348 4.00000
4.00000 7.03348 4.00000
4.00000 7.03348 4.00000
4.00000 7.03348 4.00000
4.00000 7.03348 4.00000
4.00000 7.03348 4.00000
4.00000 7.03348 4.00000
4.00000 7.03348 4.00000
4.00000 7.03348 4.00000
4.00000 7.03348 4.00000
4.00000 7.03348 4.00000
4.00000 7.03348 4.00000
4.00000 7.03348 4.00000
4.00000 7.03348 4.00000
4.00058 7.04738 4.00058
4.00379 7.12681 4.00379
4.00692 7.20649 4.00692
4.00997 7.28638 4.00997
4.01295 7.36645 4.01295
4.01588 7.44667 4.01588
4.01878 7.52702 4.01878
4.02165 7.60745 4.02165
4.02452 7.68796 4.02452
4.02739 7.76849 4.02739
4.03029 7.84904 4.03029
4.03322 7.92955 4.03322
4.03621 8.00999 4.03621
4.03928 8.09033 4.03928
4.04245 8.17051 4.04245
4.04574 8.25048 4.04574
4.04920 8.33017 4.04920
4.05285 8.40950 4.05285
4.05676 8.48838 4.05676
4.06097 8.56668 4.06097
4.06558 8.64424 4.06558
4.07063 8.72094 4.07063
4.07606 8.79692 4.07606
4.08190 8.87214 4.08190
4.08814 8.94657 4.08814
4.09481 9.02020 4.09481
4.10188 9.09304 4.10188
4.10936 9.16513 4.10936
4.11720 9.23653 4.11720
4.12534 9.30735 4.12534
4.13369 9.37777 4.13369
4.14215 9.44803 4.14216
4.15056 9.51842 4.15056
4.15872 9.58936 4.15872
4.16637 9.66132 4.16637
4.17323 9.73490 4.17324
4.17897 9.81076 4.17897
4.18323 9.88962 4.18323
4.18568 9.97212 4.18568
4.18609 10.05874 4.18609
4.18479 10.14879 4.18479
4.18293 10.24001 4.18293
4.18057 10.33225 4.18057
4.17772 10.42549 4.17772
4.17438 10.51976 4.17438
4.17049 10.61515 4.17049
4.16600 10.71175 4.16600
4.16083 10.80975 4.16083
4.15486 10.90939 4.15486
4.14790 11.01102 4.14790
4.13970 11.11516 4.13970
4.12985 11.22263 4.12985
4.11767 11.33479 4.11767
4.10189 11.45415 4.10189
4.08017 11.58543 4.08017
4.04589 11.74187 4.04589
4.00000 13.19120 4.00000
4.00000 13.19120 4.00000
4.00000 13.19120 4.00000
4.00000 13.19120 4.00000
4.00000 13.19120 4.00000
4.00000 13.19120 4.00000
4.00000 13.19120 4.00000
4.00000 13.19120 4.00000
4.00000 13.19120 4.00000
4.00000 13.19120 4.00000
4.00000 13.19120 4.00000
4.00000 13.19120 4.00000
4.00000 13.19120 4.00000
4.00000 13.19120 4.00000
4.00000 13.19120 4.00000
4.00851 13.22556 4.00851
4.02118 13.28847 4.02118
4.03140 13.35627 4.03140
4.03924 13.42888 4.03924
4.04476 13.50612 4.04476
4.04809 13.58779 4.04809
4.05005 13.67220 4.05005
4.05192 13.75680 4.05192
4.05374 13.84153 4.05374
4.05551 13.92638 4.05551
4.05723 14.01133 4.05723
4.05892 14.09637 4.05892
4.06057 14.18151 4.06057
4.06220 14.26672 4.06220
4.06379 14.35200 4.06379
4.06536 14.43735 4.06536
4.06690 14.52277 4.06690
4.06843 14.60824 4.06843
4.06993 14.69376 4.06993
4.07142 14.77934 4.07142
4.07289 14.86497 4.07289
4.07435 14.95064 4.07435
4.07579 15.03635 4.07579
4.07720 15.12216 4.07720
4.07838 15.20842 4.07838
4.07932 15.29517 4.07932
4.08004 15.38240 4.08004
4.08055 15.47006 4.08055
4.08086 15.55812 4.08086
4.08099 15.64656 4.08099
4.08096 15.73534 4.08096
4.08077 15.82445 4.08077
4.08044 15.91384 4.08044
4.07999 16.00351 4.07999
4.07942 16.09342 4.07942
4.07874 16.18356 4.07874
4.07797 16.27390 4.07797
4.07711 16.36442 4.07711
4.07618 16.45511 4.07618
4.07517 16.54595 4.07517
4.07411 16.63691 4.07411
4.07300 16.72800 4.07300
4.07185 16.81918 4.07185
4.07065 16.91046 4.07065
4.06942 17.00181 4.06942
4.06817 17.09323 4.06817
4.06689 17.18470 4.06689
4.06559 17.27622 4.06559
4.06429 17.36778 4.06429
4.06297 17.45937 4.06297
4.06165 17.55098 4.06165
4.06032 17.64260 4.06032
4.05900 17.73424 4.05900
4.05768 17.82587 4.05768
4.05636 17.91751 4.05636
4.05506 18.00914 4.05506
4.05376 18.10077 4.05376
4.05248 18.19238 4.05248
4.05120 18.28397 4.05120
4.04995 18.37554 4.04995
4.04871 18.46709 4.04871
4.04749 18.55862 4.04749
4.04628 18.65012 4.04628
4.04509 18.74159 4.04510
4.04393 18.83304 4.04393
4.04278 18.92445 4.04278
4.04165 19.01583 4.04165
4.04055 19.10718 4.04055
4.03946 19.19850 4.03946
4.03840 19.28978 4.03840
4.03736 19.38103 4.03736
4.03634 19.47225 4.03634
4.03534 19.56343 4.03534
4.03437 19.65457 4.03437
4.03341 19.74568 4.03341
4.03248 19.83676 4.03248
4.03157 19.92780 4.03157
4.03068 20.01881 4.03068
4.02981 20.10978 4.02981
4.02897 20.20072 4.02897
4.02814 20.29163 4.02814
4.02733 20.38250 4.02734
4.02655 20.47334 4.02655
4.02578 20.56415 4.02578
4.02504 20.65493 4.02504
4.02431 20.74568 4.02431
4.02360 20.83640 4.02360
4.02291 20.92709 4.02291
4.02224 21.01775 4.02224
4.02159 21.10838 4.02159
4.02095 21.19899 4.02095
4.02033 21.28957 4.02034
4.01973 21.38012 4.01973
4.01915 21.47065 4.01915
4.01858 21.56115 4.01858
4.01802 21.65162 4.01802
4.01749 21.74208 4.01749
4.01696 21.83251 4.01696
4.01645 21.92292 4.01645
4.01596 22.01330 4.01596
4.01548 22.10367 4.01548
4.01502 22.19401 4.01501
4.01456 22.28434 4.01456
4.01412 22.37465 4.01412
4.01370 22.46493 4.01370
4.01328 22.55520 4.01328
4.01288 22.64545 4.01288
4.01249 22.73569 4.01249
4.01211 22.82591 4.01211
4.01174 22.91611 4.01174
4.01138 23.00630 4.01138
4.01103 23.09647 4.01103
4.01070 23.18663 4.01070
4.01037 23.27677 4.01037
4.01005 23.36691 4.01005
4.00974 23.45702 4.00974
4.00944 23.54713 4.00944
4.00916 23.63723 4.00915
4.00887 23.72731 4.00887
4.00860 23.81738 4.00860
4.00834 23.90744 4.00833
4.00808 23.99750 4.00808
4.00783 24.08754 4.00783
4.00759 24.17757 4.00759
4.00735 24.26760 4.00735
4.00713 24.35761 4.00713
4.00691 24.44762 4.00691
4.00669 24.53762 4.00669
4.00649 24.62761 4.00648
4.00628 24.71759 4.00628
4.00609 24.80757 4.00609
4.00590 24.89754 4.00590
4.00572 24.98751 4.00572
4.00554 25.07747 4.00554
4.00537 25.16742 4.00537
4.00520 25.25737 4.00520
4.00504 25.34731 4.00504
4.00488 25.43725 4.00488
4.00473 25.52719 4.00473
4.00458 25.61712 4.00458
4.00444 25.70704 4.00444
4.00430 25.79696 4.00430
4.00417 25.88688 4.00417
4.00404 25.97679 4.00404
4.00391 26.06670 4.00391
4.00379 26.15661 4.00379
4.00367 26.24652 4.00367
4.00356 26.33642 4.00356
4.00345 26.42632 4.00345
4.00334 26.51622 4.00334
4.00323 26.60611 4.00323
4.00313 26.69601 4.00313
4.00303 26.78590 4.00303
4.00294 26.87579 4.00294
4.00285 26.96568 4.00285
4.00276 27.05557 4.00276
4.00267 27.14546 4.00267
4.00259 27.23534 4.00259
4.00251 27.32523 4.00251
4.00243 27.41511 4.00243
4.00235 27.50499 4.00235
4.00228 27.59488 4.00228
4.00221 27.68476 4.00221
4.00214 27.77464 4.00214
4.00207 27.86452 4.00207
4.00201 27.95441 4.00201
4.00194 28.04429 4.00194
4.00188 28.13417 4.00188
4.00182 28.22405 4.00182
4.00177 28.31393 4.00177
4.00171 28.40382 4.00171
4.00166 28.49370 4.00166
4.00160 28.58358 4.00160
4.00155 28.67347 4.00155
4.00151 28.76335 4.00151
4.00146 28.85324 4.00146
4.00141 28.94312 4.00141
4.00137 29.03301 4.00137
4.00132 29.12290 4.00132
4.00128 29.21279 4.00128
4.00124 29.30268 4.00124
4.00120 29.39257 4.00120
4.00117 29.48246 4.00117
4.00113 29.57236 4.00113
4.00109 29.66225 4.00109
4.00106 29.75215 4.00106
4.00103 29.84205 4.00103
4.00099 29.93195 4.00099
4.00096 30.02185 4.00096
4.00093 30.11175 4.00093
4.00090 30.20165 4.00090
4.00087 30.29156 4.00087
4.00085 30.38146 4.00085
4.00082 30.47137 4.00082
4.00079 30.56128 4.00079
4.00077 30.65119 4.00077
4.00074 30.74110 4.00074
4.00072 30.83102 4.00072
4.00070 30.92094 4.00070
4.00068 31.01085 4.00068
4.00066 31.10077 4.00066
4.00063 31.19070 4.00063
4.00061 31.28062 4.00061
4.00060 31.37055 4.00060
4.00058 31.46047 4.00058
4.00056 31.55040 4.00056
4.00054 31.64033 4.00054
4.00052 31.73027 4.00052
4.00051 31.82020 4.00051
4.00049 31.91014 4.00049
4.00048 32.00008 4.00048
4.00046 32.09002 4.00046
4.00045 32.17996 4.00045
4.00043 32.26991 4.00043
4.00042 32.35985 4.00042
4.00041 32.44980 4.00041
4.00039 32.53975 4.00039
4.00038 32.62971 4.00038
4.00037 32.71966 4.00037
4.00036 32.80962 4.00036
4.00035 32.89958 4.00035
4.00033 32.98954 4.00033
4.00032 33.07950 4.00032
4.00031 33.16947 4.00031
4.00030 33.25944 4.00030
4.00029 33.34940 4.00029
4.00028 33.43937 4.00028
4.00028 33.52935 4.00028
4.00027 33.61932 4.00027
4.00026 33.70930 4.00026
4.00025 33.79928 4.00025
4.00024 33.88926 4.00024
4.00023 33.97925 4.00023
4.00023 34.06923 4.00023
4.00022 34.15922 4.00022
4.00021 34.24921 4.00021
4.00021 34.33920 4.00021
4.00020 34.42920 4.00020
4.00019 34.51920 4.00019
4.00019 34.60920 4.00019
4.00018 34.69920 4.00018
4.00018 34.78919 4.00018
4.00017 34.87920 4.00017
4.00016 34.96920 4.00016
4.00016 35.05921 4.00016
4.00015 35.14922 4.00015
4.00015 35.23924 4.00015
4.00015 35.32925 4.00015
4.00014 35.41927 4.00014
4.00014 35.50929 4.00014
4.00013 35.59931 4.00013
4.00013 35.68933 4.00013
4.00012 35.77936 4.00012
4.00012 35.86938 4.00012
4.00012 35.95941 4.00012
4.00011 36.04944 4.00011
4.00011 36.13948 4.00011
4.00011 36.22951 4.00011
4.00010 36.31955 4.00010
4.00010 36.40959 4.00010
4.00010 36.49963 4.00010
4.00009 36.58967 4.00009
4.00009 36.67972 4.00009
4.00009 36.76976 4.00009
4.00008 36.85981 4.00008
4.00008 36.94986 4.00008
4.00008 37.03991 4.00008
4.00008 37.12997 4.00008
4.00007 37.22002 4.00007
4.00007 37.31008 4.00007
4.00007 37.40014 4.00007
4.00007 37.49020 4.00007
4.00006 37.58027 4.00006
4.00006 37.67033 4.00006
4.00006 37.76040 4.00006
4.00006 37.85047 4.00006
4.00006 37.94054 4.00006
4.00006 38.03061 4.00006
4.00005 38.12068 4.00005
4.00005 38.21076 4.00005

Angle 0.656506 5.835531

4.00000 7.03348 4.00000
4.00000 7.03348 4.00000
4.00000 7.03348 4.00000
4.00000 7.03348 4.00000
4.00000 7.03348 4.00000
4.00000 7.03348 4.00000
4.00000 7.03348 4.00000
4.00000 7.03348 4.00000
4.00000 7.03348 4.00000
4.00000 7.03348 4.00000
4.00000 7.03348 4.00000
4.00000 7.03348 4.00000
4.00000 7.03348 4.00000
4.00000 7.03348 4.00000
4.00000 7.03348 4.00000
4.00000 7.03348 4.00000
4.00000 7.03348 4.00000
4.00000 7.03348 4.00000
4.00000 7.03348 4.00000
4.00000 7.03348 4.00000
4.00000 7.03348 4.00000
4.00000 7.03348 4.00000
4.00000 7.03348 4.00000
4.00000 7.03348 4.00000
4.00000 7.03348 4.00000
4.00000 7.03348 4.00000
4.00000 7.03348 4.00000
4.00000 7.03348 4.00000
4.00000 7.03347 4.00000
4.00000 7.03347 4.00000
4.00000 7.03347 4.00000
4.00000 7.03347 4.00000
4.00000 7.03348 4.00000
4.00000 7.03348 4.00000
4.00000 7.03348 4.00000
4.00000 7.03348 4.00000
4.00000 7.03348 4.00000
4.00000 7.03348 4.00000
4.00000 7.03348 4.00000
4.00000 7.03348 4.00000
4.00000 7.03348 4.00000
4.00000 7.03348 4.00000
4.00000 7.03348 4.00000
4.00000 7.03348 4.00000
4.00000 7.03348 4.00000
4.00000 7.03348 4.00000
4.00000 7.03348 4.00000
4.00000 7.03348 4.00000
4.00000 7.03348 4.00000
4.00000 7.03348 4.00000
4.00000 7.03348 4.00000
4.00000 7.03348 4.00000
4.00000 7.03348 4.00000
4.00000 7.03348 4.00000
4.00000 7.03348 4.00000
4.00000 7.03348 4.00000
4.00000 7.03348 4.00000
4.00000 7.03348 4.00000
4.00000 7.03348 4.00000
4.00000 7.03348 4.00000
4.00000 7.03348 4.00000
4.00000 7.03348 4.00000
4.00000 7.03348 4.00000
4.00000 7.03348 4.00000
4.00000 7.03348 4.00000
4.00000 7.03348 4.00000
4.00000 7.03348 4.00000
4.00000 7.03348 4.00000
4.00000 7.03348 4.00000
4.00000 7.03348 4.00000
4.00000 7.03348 4.00000
4.00000 7.03348 4.00000
4.00000 7.03348 4.00000
4.00000 7.03348 4.00000
4.00000 7.03348 4.00000
4.00000 7.03348 4.00000
4.00000 7.03348 4.00000
4.00000 7.03348 4.00000
4.00000 7.03348 4.00000
4.00000 7.03348 4.00000
4.00000 7.03348 4.00000
4.00000 7.03348 4.00000
4.00000 7.03348 4.00000
4.00000 7.03348 4.00000
4.00000 7.03348 4.00000
4.00000 7.03348 4.00000
4.00000 7.03348 4.00000
4.00000 7.03348 4.00000
4.00000 7.03348 4.00000
4.00000 7.03348 4.00000
4.00000 7.03348 4.00000
4.00000 7.03348 4.00000
4.00000 7.03348 4.00000
4.00000 7.03348 4.00000
4.00000 7.03348 4.00000
4.00000 7.03348 4.00000
4.00000 7.03348 4.00000
4.00000 7.03348 4.00000
4.00000 7.03348 4.00000
4.00000 7.03348 4.00000
4.00000 7.03348 4.00000
4.00000 7.03348 4.00000
4.00000 7.03348 4.00000
4.00000 7.03348 4.00000
4.00000 7.03348 4.00000
4.00000 7.03348 4.00000
4.00000 7.03348 4.00000
4.00000 7.03348 4.00000
4.00000 7.03348 4.00000
4.00000 7.03348 4.00000
4.00000 7.03348 4.00000
4.00000 7.03348 4.00000
4.00000 7.03348 4.00000
4.00000 7.03348 4.00000
4.00000 7.03348 4.00000
4.00000 7.03348 4.00000
4.00000 7.03348 4.00000
4.00000 7.03348 4.00000
4.00000 7.03348 4.00000
4.00000 7.03348 4.00000
4.00000 7.03348 4.00000
4.00000 7.03348 4.00000
4.00000 7.03348 4.00000
4.00000 7.03348 4.00000
4.00000 7.03348 4.00000
4.00000 7.03348 4.00000
4.00000 7.03348 4.00000
4.00000 7.03348 4.00000
4.00000 7.03348 4.00000
4.00000 7.03348 4.00000
4.00000 7.03348 4.00000
4.00000 7.03348 4.00000
4.00000 7.03348 4.00000
4.00000 7.03348 4.00000
4.00000 7.03348 4.00000
4.00000 7.03348 4.00000
4.00000 7.03348 4.00000
4.00000 7.03348 4.00000
4.00000 7.03348 4.00000
4.00000 7.03348 4.00000
4.00000 7.03348 4.00000
4.00000 7.03348 4.00000
4.00000 7.03348 4.00000
4.00000 7.03348 4.00000
4.00000 7.03348 4.00000
4.00000 7.03348 4.00000
4.00000 7.03348 4.00000
4.00000 7.03348 4.00000
4.00000 7.03348 4.00000
4.00000 7.03348 4.00000
4.00000 7.03348 4.00000
4.00000 7.03348 4.00000
4.00000 7.03348 4.00000
4.00000 7.03348 4.00000
4.00000 7.03348 4.00000
4.00000 7.03348 4.00000
4.00000 7.03348 4.00000
4.00000 7.03348 4.00000
4.00000 7.03348 4.00000
4.00000 7.03348 4.00000
4.00000 7.03348 4.00000
4.00000 7.03348 4.00000
4.00000 7.03348 4.00000
4.00000 7.03348 4.00000
4.00000 7.03348 4.00000
4.00000 7.03348 4.00000
4.00000 7.03348 4.00000
4.00000 7.03348 4.00000
4.00000 7.03348 4.00000
4.00000 7.03348 4.00000
4.00000 7.03348 4.00000
4.00000 7.03348 4.00000
4.00000 7.03348 4.00000
4.00000 7.03348 4.00000
4.00000 7.03348 4.00000
4.00000 7.03348 4.00000
4.00000 7.03348 4.00000
4.00000 7.03348 4.00000
4.00000 7.03348 4.00000
4.00000 7.03348 4.00000
4.00000 7.03352 4.00000
4.00000 7.03349 4.00000
4.00236 7.09094 4.00235
4.00552 7.17062 4.00552
4.00861 7.25054 4.00861
4.01162 7.33064 4.01162
4.01458 7.41091 4.01458
4.01749 7.49132 4.01750
4.02038 7.57182 4.02038
4.02325 7.65241 4.02325
4.02613 7.73304 4.02613
4.02902 7.81369 4.02902
4.03193 7.89433 4.03193
4.03490 7.97491 4.03490
4.03793 8.05540 4.03794
4.04106 8.13576 4.04106
4.04430 8.21592 4.04430
4.04769 8.29584 4.04769
4.05125 8.37543 4.05125
4.05505 8.45462 4.05505
4.05913 8.53327 4.05913
4.06356 8.61126 4.06356
4.06843 8.68841 4.06843
4.07371 8.76478 4.07371
4.07938 8.84041 4.07938
4.08546 8.91526 4.08546
4.09195 8.98931 4.09195
4.09886 9.06257 4.09886
4.10618 9.13504 4.10618
4.11388 9.20679 4.11388
4.12191 9.27791 4.12191
4.13020 9.34855 4.13020
4.13865 9.41892 4.13865
4.14710 9.48928 4.14710
4.15540 9.56001 4.15540
4.16330 9.63156 4.16330
4.17053 9.70447 4.17054
4.17678 9.77939 4.17678
4.18169 9.85701 4.18169
4.18492 9.93803 4.18492
4.18618 10.02301 4.18618
4.18541 10.11209 4.18541
4.18374 10.20298 4.18374
4.18158 10.29490 4.18158
4.17893 10.38781 4.17893
4.17578 10.48175 4.17578
4.17211 10.57676 4.17211
4.16787 10.67295 4.16787
4.16298 10.77045 4.16298
4.15734 10.86949 4.15734
4.15080 10.97036 4.15080
4.14312 11.07351 4.14312
4.13398 11.17963 4.13398
4.12282 11.28981 4.12282
4.10866 11.40601 4.10866
4.08967 11.53189 4.08967
4.06176 11.67565 4.06176
4.00502 11.87707 4.00502
4.00000 13.19120 4.00000
4.00000 13.19120 4.00000
4.00000 13.19120 4.00000
4.00000 13.19120 4.00000
4.00000 13.19120 4.00000
4.00000 13.19120 4.00000
4.00000 13.19120 4.00000
4.00000 13.19120 4.00000
4.00000 13.19120 4.00000
4.00000 13.19120 4.00000
4.00000 13.19120 4.00000
4.00000 13.19120 4.00000
4.00000 13.19120 4.00000
4.00000 13.19120 4.00000
4.00305 13.20294 4.00305
4.01666 13.26401 4.01666
4.02781 13.33001 4.02781
4.03655 13.40086 4.03655
4.04294 13.47643 4.04294
4.04709 13.55651 4.04708
4.04933 13.64041 4.04932
4.05122 13.72501 4.05122
4.05306 13.80975 4.05306
4.05485 13.89461 4.05485
4.05659 13.97958 4.05659
4.05830 14.06465 4.05830
4.05996 14.14980 4.05996
4.06160 14.23504 4.06160
4.06320 14.32035 4.06320
4.06478 14.40573 4.06478
4.06634 14.49117 4.06634
4.06787 14.57667 4.06787
4.06938 14.66223 4.06938
4.07088 14.74784 4.07088
4.07235 14.83350 4.07235
4.07382 14.91921 4.07382
4.07527 15.00495 4.07527
4.07670 15.09075 4.07670
4.07798 15.17687 4.07797
4.07901 15.26350 4.07900
4.07981 15.35061 4.07980
4.08039 15.43816 4.08038
4.08077 15.52613 4.08077
4.08096 15.61448 4.08096
4.08099 15.70319 4.08099
4.08086 15.79223 4.08086
4.08058 15.88157 4.08058
4.08017 15.97119 4.08017
4.07964 16.06107 4.07963
4.07900 16.15117 4.07899
4.07825 16.24149 4.07825
4.07742 16.33200 4.07742
4.07652 16.42268 4.07652
4.07554 16.51351 4.07554
4.07450 16.60448 4.07450
4.07340 16.69557 4.07340
4.07226 16.78676 4.07226
4.07108 16.87805 4.07108
4.06986 16.96943 4.06986
4.06861 17.06087 4.06861
4.06734 17.15237 4.06734
4.06605 17.24392 4.06605
4.06475 17.33550 4.06475
4.06343 17.42713 4.06343
4.06211 17.51877 4.06211
4.06079 17.61044 4.06079
4.05946 17.70211 4.05946
4.05814 17.79379 4.05814
4.05682 17.88547 4.05682
4.05551 17.97715 4.05551
4.05421 18.06881 4.05421
4.05292 18.16047 4.05292
4.05164 18.25211 4.05164
4.05038 18.34373 4.05038
4.04914 18.43533 4.04914
4.04791 18.52691 4.04791
4.04669 18.61846 4.04669
4.04550 18.70998 4.04550
4.04433 18.80148 4.04432
4.04317 18.89294 4.04317
4.04204 18.98437 4.04204
4.04093 19.07577 4.04092
4.03983 19.16714 4.03983
4.03876 19.25847 4.03876
4.03771 19.34977 4.03771
4.03669 19.44103 4.03668
4.03568 19.53226 4.03568
4.03470 19.62346 4.03470
4.03374 19.71461 4.03373
4.03280 19.80574 4.03279
4.03188 19.89683 4.03188
4.03098 19.98788 4.03098
4.03011 20.07890 4.03010
4.02925 20.16989 4.02925
4.02842 20.26084 4.02842
4.02760 20.35176 4.02760
4.02681 20.44265 4.02681
4.02604 20.53351 4.02604
4.02528 20.62433 4.02528
4.02455 20.71512 4.02455
4.02384 20.80589 4.02384
4.02314 20.89662 4.02314
4.02246 20.98732 4.02246
4.02180 21.07800 4.02180
4.02116 21.16864 4.02116
4.02054 21.25926 4.02054
4.01993 21.34985 4.01993
4.01934 21.44042 4.01934
4.01876 21.53096 4.01876
4.01821 21.62148 4.01821
4.01766 21.71197 4.01766
4.01714 21.80244 4.01714
4.01662 21.89289 4.01662
4.01612 21.98331 4.01612
4.01564 22.07372 4.01564
4.01517 22.16410 4.01517
4.01471 22.25446 4.01471
4.01427 22.34480 4.01427
4.01383 22.43513 4.01384
4.01342 22.52543 4.01342
4.01301 22.61572 4.01301
4.01261 22.70599 4.01261
4.01223 22.79624 4.01223
4.01186 22.88648 4.01186
4.01150 22.97670 4.01150
4.01115 23.06691 4.01115
4.01080 23.15710 4.01081
4.01047 23.24728 4.01048
4.01015 23.33744 4.01015
4.00984 23.42759 4.00984
4.00954 23.51773 4.00954
4.00925 23.60786 4.00925
4.00896 23.69797 4.00896
4.00869 23.78808 4.00869
4.00842 23.87817 4.00842
4.00816 23.96825 4.00816
4.00791 24.05832 4.00791
4.00767 24.14839 4.00767
4.00743 24.23844 4.00743
4.00720 24.32848 4.00720
4.00697 24.41852 4.00698
4.00676 24.50855 4.00676
4.00655 24.59857 4.00655
4.00635 24.68858 4.00635
4.00615 24.77859 4.00615
4.00596 24.86859 4.00596
4.00578 24.95858 4.00578
4.00560 25.04856 4.00560
4.00542 25.13855 4.00542
4.00525 25.22852 4.00525
4.00509 25.31849 4.00509
4.00493 25.40845 4.00493
4.00478 25.49841 4.00478
4.00463 25.58837 4.00463
4.00449 25.67832 4.00449
4.00435 25.76827 4.00435
4.00421 25.85821 4.00421
4.00408 25.94815 4.00408
4.00395 26.03809 4.00395
4.00383 26.12802 4.00383
4.00371 26.21795 4.00371
4.00359 26.30788 4.00359

Angle 0.559439 3.281886

4.00000 7.03348 4.00000
4.00000 7.03346 4.00000
4.00000 7.03346 4.00000
4.00000 7.03345 4.00000
4.00000 7.03345 4.00000
4.00000 7.03345 4.00000
4.00000 7.03345 4.00000
4.00000 7.03345 4.00000
4.00000 7.03348 4.00000
4.00000 7.03348 4.00000
4.00000 7.03348 4.00000
4.00000 7.03348 4.00000
4.00000 7.03348 4.00000
4.00000 7.03348 4.00000
4.00000 7.03348 4.00000
4.00000 7.03348 4.00000
4.00000 7.03348 4.00000
4.00000 7.03348 4.00000
4.00000 7.03348 4.00000
4.00000 7.03348 4.00000
4.00000 7.03348 4.00000
4.00000 7.03348 4.00000
4.00000 7.03348 4.00000
4.00000 7.03348 4.00000
4.00000 7.03348 4.00000
4.00000 7.03348 4.00000
4.00000 7.03348 4.00000
4.00000 7.03348 4.00000
4.00000 7.03348 4.00000
4.00000 7.03348 4.00000
4.00000 7.03348 4.00000
4.00000 7.03348 4.00000
4.00000 7.03348 4.00000
4.00000 7.03348 4.00000
4.00000 7.03348 4.00000
4.00000 7.03348 4.00000
4.00000 7.03348 4.00000
4.00000 7.03348 4.00000
4.00000 7.03348 4.00000
4.00000 7.03348 4.00000
4.00000 7.03348 4.00000
4.00000 7.03348 4.00000
4.00000 7.03348 4.00000
4.00000 7.03348 4.00000
4.00000 7.03348 4.00000
4.00000 7.03348 4.00000
4.00000 7.03348 4.00000
4.00000 7.03348 4.00000
4.00000 7.03348 4.00000
4.00000 7.03348 4.00000
4.00000 7.03348 4.00000
4.00000 7.03348 4.00000
4.00000 7.03348 4.00000
4.00000 7.03348 4.00000
4.00000 7.03348 4.00000
4.00000 7.03348 4.00000
4.00000 7.03348 4.00000
4.00000 7.03348 4.00000
4.00000 7.03348 4.00000
4.00000 7.03348 4.00000
4.00000 7.03348 4.00000
4.00000 7.03348 4.00000
4.00000 7.03348 4.00000
4.00000 7.03348 4.00000
4.00000 7.03348 4.00000
4.00000 7.03348 4.00000
4.00000 7.03348 4.00000
4.00000 7.03348 4.00000
4.00000 7.03348 4.00000
4.00000 7.03348 4.00000
4.00000 7.03348 4.00000
4.00000 7.03348 4.00000
4.00000 7.03348 4.00000
4.00000 7.03348 4.00000
4.00000 7.03348 4.00000
4.00000 7.03348 4.00000
4.00000 7.03348 4.00000
4.00000 7.03348 4.00000
4.00000 7.03348 4.00000
4.00000 7.03348 4.00000
4.00000 7.03348 4.00000
4.00000 7.03348 4.00000
4.00000 7.03348 4.00000
4.00000 7.03348 4.00000
4.00000 7.03348 4.00000
4.00000 7.03348 4.00000
4.00000 7.03348 4.00000
4.00000 7.03348 4.00000
4.00000 7.03348 4.00000
4.00000 7.03348 4.00000
4.00000 7.03348 4.00000
4.00000 7.03348 4.00000
4.00000 7.03348 4.00000
4.00000 7.03348 4.00000
4.00000 7.03348 4.00000
4.00000 7.03348 4.00000
4.00000 7.03348 4.00000
4.00000 7.03348 4.00000
4.00000 7.03348 4.00000
4.00000 7.03348 4.00000
4.00000 7.03348 4.00000
4.00000 7.03348 4.00000
4.00000 7.03348 4.00000
4.00000 7.03348 4.00000
4.00000 7.03348 4.00000
4.00000 7.03348 4.00000
4.00000 7.03348 4.00000
4.00000 7.03348 4.00000
4.00000 7.03348 4.00000
4.00000 7.03348 4.00000
4.00000 7.03348 4.00000
4.00000 7.03348 4.00000
4.00000 7.03348 4.00000
4.00000 7.03348 4.00000
4.00000 7.03348 4.00000
4.00000 7.03348 4.00000
4.00000 7.03348 4.00000
4.00000 7.03348 4.00000
4.00000 7.03348 4.00000
4.00000 7.03346 4.00000
4.00000 7.03347 4.00000
4.00000 7.03347 4.00000
4.00000 7.03347 4.00000
4.00000 7.03347 4.00000
4.00000 7.03347 4.00000
4.00000 7.03347 4.00000
4.00000 7.03347 4.00000
4.00000 7.03347 4.00000
4.00000 7.03347 4.00000
4.00000 7.03347 4.00000
4.00000 7.03348 4.00000
4.00000 7.03348 4.00000
4.00000 7.03348 4.00000
4.00000 7.03348 4.00000
4.00000 7.03348 4.00000
4.00000 7.03348 4.00000
4.00000 7.03348 4.00000
4.00000 7.03348 4.00000
4.00000 7.03348 4.00000
4.00000 7.03348 4.00000
4.00000 7.03348 4.00000
4.00000 7.03348 4.00000
4.00000 7.03348 4.00000
4.00000 7.03348 4.00000
4.00000 7.03348 4.00000
4.00000 7.03348 4.00000
4.00000 7.03348 4.00000
4.00000 7.03348 4.00000
4.00000 7.03348 4.00000
4.00000 7.03348 4.00000
4.00000 7.03348 4.00000
4.00000 7.03348 4.00000
4.00000 7.03348 4.00000
4.00000 7.03348 4.00000
4.00000 7.03347 4.00000
4.00000 7.03347 4.00000
4.00000 7.03347 4.00000
4.00000 7.03348 4.00000
4.00000 7.03348 4.00000
4.00000 7.03348 4.00000
4.00000 7.03348 4.00000
4.00000 7.03348 4.00000
4.00000 7.03348 4.00000
4.00000 7.03348 4.00000
4.00000 7.03348 4.00000
4.00000 7.03348 4.00000
4.00000 7.03348 4.00000
4.00000 7.03348 4.00000
4.00000 7.03348 4.00000
4.00000 7.03348 4.00000
4.00000 7.03346 4.00000
4.00000 7.03346 4.00000
4.00000 7.03347 4.00000
4.00000 7.03347 4.00000
4.00000 7.03347 4.00000
4.00000 7.03347 4.00000
4.00000 7.03347 4.00000
4.00000 7.03347 4.00000
4.00000 7.03347 4.00000
4.00000 7.03347 4.00000
4.00000 7.03348 4.00000
4.00000 7.03348 4.00000
4.00000 7.03348 4.00000
4.00000 7.03348 4.00000
4.00000 7.03348 4.00000
4.00000 7.03348 4.00000
4.00000 7.03348 4.00000
4.00000 7.03348 4.00000
4.00000 7.03348 4.00000
4.00000 7.03348 4.00000
4.00000 7.03348 4.00000
4.00000 7.03348 4.00000
4.00000 7.03348 4.00000
4.00000 7.03348 4.00000
4.00000 7.03348 4.00000
4.00000 7.03348 4.00000
4.00000 7.03348 4.00000
4.00000 7.03348 4.00000
4.00000 7.03348 4.00000
4.00000 7.03348 4.00000
4.00000 7.03348 4.00000
4.00000 7.03348 4.00000
4.00000 7.03348 4.00000
4.00000 7.03348 4.00000
4.00000 7.03348 4.00000
4.00000 7.03348 4.00000
4.00000 7.03348 4.00000
4.00000 7.03348 4.00000
4.00000 7.03348 4.00000
4.00000 7.03348 4.00000
4.00000 7.03348 4.00000
4.00000 7.03348 4.00000
4.00000 7.03348 4.00000
4.00000 7.03348 4.00000
4.00000 7.03348 4.00000
4.00000 7.03348 4.00000
4.00000 7.03348 4.00000
4.00000 7.03348 4.00000
4.00000 7.03348 4.00000
4.00000 7.03348 4.00000
4.00000 7.03348 4.00000
4.00000 7.03348 4.00000
4.00000 7.03348 4.00000
4.00000 7.03348 4.00000
4.00000 7.03348 4.00000
4.00000 7.03348 4.00000
4.00000 7.03348 4.00000
4.00000 7.03348 4.00000
4.00000 7.03348 4.00000
4.00000 7.03348 4.00000
4.00000 7.03348 4.00000
4.00000 7.03348 4.00000
4.00000 7.03348 4.00000
4.00000 7.03348 4.00000
4.00000 7.03348 4.00000
4.00000 7.03348 4.00000
4.00000 7.03348 4.00000
4.00000 7.03348 4.00000
4.00000 7.03348 4.00000
4.00000 7.03348 4.00000
4.00000 7.03348 4.00000
4.00000 7.03348 4.00000
4.00000 7.03348 4.00000
4.00000 7.03348 4.00000
4.00000 7.03348 4.00000
4.00000 7.03348 4.00000
4.00076 7.05185 4.00076
4.00396 7.13099 4.00396
4.00707 7.21038 4.00707
4.01010 7.28998 4.01010
4.01307 7.36976 4.01307
4.01599 7.44970 4.01599
4.01888 7.52975 4.01888
4.02174 7.60991 4.02174
4.02460 7.69013 4.02460
4.02746 7.77039 4.02746
4.03035 7.85065 4.03035
4.03327 7.93089 4.03327
4.03625 8.01106 4.03625
4.03931 8.09113 4.03931
4.04247 8.17105 4.04247
4.04575 8.25076 4.04575
4.04920 8.33019 4.04920
4.05284 8.40927 4.05284
4.05673 8.48791 4.05673
4.06093 8.56597 4.06093
4.06552 8.64330 4.06552
4.07055 8.71979 4.07055
4.07596 8.79555 4.07596
4.08177 8.87056 4.08177
4.08799 8.94479 4.08799
4.09462 9.01823 4.09462
4.10167 9.09088 4.10167
4.10911 9.16279 4.10911
4.11691 9.23401 4.11691
4.12502 9.30466 4.12502
4.13335 9.37490 4.13335
4.14179 9.44496 4.14179
4.15018 9.51515 4.15018
4.15833 9.58586 4.15833
4.16599 9.65757 4.16599
4.17289 9.73086 4.17289
4.17868 9.80638 4.17868
4.18303 9.88484 4.18303
4.18559 9.96690 4.18559
4.18613 10.05303 4.18613
4.18490 10.14273 4.18490
4.18307 10.23366 4.18307
4.18075 10.32560 4.18075
4.17795 10.41855 4.17795
4.17465 10.51252 4.17465
4.17081 10.60759 4.17081
4.16639 10.70387 4.16639
4.16129 10.80152 4.16129
4.15541 10.90078 4.15540
4.14856 11.00198 4.14856
4.14050 11.10564 4.14050
4.13084 11.21253 4.13084
4.11895 11.32392 4.11895
4.10363 11.44218 4.10363
4.08271 11.57167 4.08271
4.05041 11.72395 4.05041
4.00000 13.19120 4.00000
4.00000 13.19120 4.00000
4.00000 13.19120 4.00000
4.00000 13.19120 4.00000
4.00000 13.19120 4.00000
4.00000 13.19120 4.00000
4.00000 13.19120 4.00000
4.00000 13.19120 4.00000
4.00000 13.19120 4.00000
4.00000 13.19120 4.00000
4.00000 13.19120 4.00000
4.00000 13.19120 4.00000
4.00000 13.19120 4.00000
4.00000 13.19122 4.00000
4.00000 13.19120 4.00000
4.00664 13.21759 4.00664
4.01962 13.27972 4.01962
4.03015 13.34675 4.03015
4.03829 13.41857 4.03829
4.04412 13.49505 4.04412
4.04774 13.57596 4.04774
4.04977 13.66008 4.04977
4.05165 13.74451 4.05165
4.05347 13.82908 4.05347
4.05525 13.91377 4.05525
4.05698 13.99856 4.05698
4.05867 14.08345 4.05867
4.06032 14.16843 4.06032
4.06195 14.25349 4.06195
4.06354 14.33862 4.06354
4.06511 14.42382 4.06511
4.06666 14.50909 4.06666
4.06818 14.59441 4.06818
4.06969 14.67980 4.06969
4.07118 14.76523 4.07118
4.07265 14.85071 4.07265
4.07411 14.93625 4.07411
4.07555 15.02182 4.07555
4.07697 15.10746 4.07697
4.07820 15.19350 4.07820
4.07918 15.28004 4.07918
4.07993 15.36706 4.07993
4.08047 15.45451 4.08047
4.08082 15.54238 4.08082
4.08098 15.63062 4.08098
4.08098 15.71922 4.08098
4.08082 15.80814 4.08082
4.08051 15.89736 4.08051
4.08008 15.98685 4.08008
4.07953 16.07659 4.07953
4.07887 16.16657 4.07887
4.07812 16.25675 4.07812
4.07728 16.34711 4.07728
4.07636 16.43765 4.07636
4.07537 16.52833 4.07537
4.07433 16.61916 4.07432
4.07322 16.71009 4.07322
4.07208 16.80114 4.07208
4.07089 16.89228 4.07089
4.06967 16.98350 4.06967
4.06842 17.07479 4.06842
4.06715 17.16613 4.06715
4.06586 17.25753 4.06586
4.06456 17.34897 4.06455
4.06324 17.44043 4.06324
4.06192 17.53192 4.06192
4.06060 17.62343 4.06060
4.05928 17.71495 4.05928
4.05796 17.80648 4.05796
4.05664 17.89801 4.05664
4.05534 17.98953 4.05534
4.05404 18.08105 4.05404
4.05275 18.17255 4.05275
4.05148 18.26404 4.05148
4.05022 18.35551 4.05022
4.04898 18.44696 4.04898
4.04775 18.53839 4.04775
4.04654 18.62980 4.04654
4.04535 18.72117 4.04536
4.04418 18.81252 4.04419
4.04303 18.90384 4.04303
4.04190 18.99513 4.04190
4.04080 19.08638 4.04080
4.03971 19.17761 4.03971
4.03864 19.26880 4.03864
4.03760 19.35996 4.03760
4.03657 19.45108 4.03657
4.03557 19.54218 4.03557
4.03459 19.63323 4.03459
4.03363 19.72425 4.03363
4.03270 19.81524 4.03270
4.03178 19.90620 4.03178
4.03089 19.99712 4.03089
4.03002 20.08801 4.03002
4.02917 20.17887 4.02917
4.02834 20.26969 4.02834
4.02753 20.36048 4.02753
4.02674 20.45124 4.02674

Angle 0.011147 0.807189

4.00000 7.03348 4.00000
4.00000 7.03348 4.00000
4.00000 7.03348 4.00000
4.00000 7.03348 4.00000
4.00000 7.03348 4.00000
4.00000 7.03348 4.00000
4.00000 7.03348 4.00000
4.00000 7.03348 4.00000
4.00000 7.03348 4.00000
4.00000 7.03348 4.00000
4.00000 7.03348 4.00000
4.00000 7.03348 4.00000
4.00000 7.03348 4.00000
4.00000 7.03348 4.00000
4.00000 7.03348 4.00000
4.00000 7.03348 4.00000
4.00000 7.03348 4.00000
4.00000 7.03348 4.00000
4.00000 7.03348 4.00000
4.00000 7.03346 4.00000
4.00000 7.03346 4.00000
4.00000 7.03346 4.00000
4.00000 7.03347 4.00000
4.00000 7.03347 4.00000
4.00000 7.03347 4.00000
4.00000 7.03347 4.00000
4.00000 7.03347 4.00000
4.00000 7.03348 4.00000
4.00000 7.03348 4.00000
4.00000 7.03348 4.00000
4.00000 7.03348 4.00000
4.00000 7.03348 4.00000
4.00000 7.03348 4.00000
4.00000 7.03348 4.00000
4.00000 7.03348 4.00000
4.00000 7.03348 4.00000
4.00000 7.03348 4.00000
4.00000 7.03348 4.00000
4.00000 7.03348 4.00000
4.00000 7.03348 4.00000
4.00000 7.03348 4.00000
4.00000 7.03348 4.00000
4.00000 7.03348 4.00000
4.00000 7.03348 4.00000
4.00000 7.03348 4.00000
4.00000 7.03348 4.00000
4.00000 7.03348 4.00000
4.00000 7.03348 4.00000
4.00000 7.03348 4.00000
4.00000 7.03348 4.00000
4.00000 7.03348 4.00000
4.00000 7.03347 4.00000
4.00000 7.03348 4.00000
4.00000 7.03348 4.00000
4.00000 7.03348 4.00000
4.00000 7.03348 4.00000
4.00000 7.03348 4.00000
4.00000 7.03348 4.00000
4.00000 7.03348 4.00000
4.00000 7.03348 4.00000
4.00000 7.03348 4.00000
4.00000 7.03348 4.00000
4.00000 7.03348 4.00000
4.00000 7.03348 4.00000
4.00000 7.03348 4.00000
4.00000 7.03348 4.00000
4.00000 7.03348 4.00000
4.00000 7.03348 4.00000
4.00000 7.03348 4.00000
4.00000 7.03348 4.00000
4.00000 7.03348 4.00000
4.00000 7.03348 4.00000
4.00000 7.03348 4.00000
4.00000 7.03348 4.00000
4.00000 7.03348 4.00000
4.00000 7.03348 4.00000
4.00000 7.03348 4.00000
4.00000 7.03348 4.00000
4.00000 7.03348 4.00000
4.00000 7.03348 4.00000
4.00000 7.03348 4.00000
4.00000 7.03348 4.00000
4.00000 7.03348 4.00000
4.00000 7.03348 4.00000
4.00000 7.03348 4.00000
4.00000 7.03348 4.00000
4.00000 7.03348 4.00000
4.00000 7.03348 4.00000
4.00000 7.03348 4.00000
4.00000 7.03348 4.00000
4.00000 7.03348 4.00000
4.00000 7.03348 4.00000
4.00000 7.03348 4.00000
4.00000 7.03350 4.00000
4.00001 7.03371 4.00001
4.00296 7.10585 4.00296
4.00592 7.18074 4.00592
4.00881 7.25588 4.00881
4.01164 7.33124 4.01165
4.01443 7.40681 4.01443
4.01718 7.48255 4.01718
4.01990 7.55844 4.01990
4.02262 7.63446 4.02262
4.02533 7.71059 4.02533
4.02805 7.78678 4.02805
4.03080 7.86303 4.03080
4.03358 7.93929 4.03358
4.03642 8.01553 4.03642
4.03933 8.09173 4.03933
4.04234 8.16783 4.04234
4.04546 8.24378 4.04546
4.04873 8.31954 4.04872
4.05217 8.39503 4.05217
4.05583 8.47016 4.05583
4.05976 8.54485 4.05976
4.06402 8.61895 4.06402
4.06869 8.69232 4.06869
4.07373 8.76503 4.07373
4.07912 8.83711 4.07912
4.08489 8.90852 4.08489
4.09104 8.97924 4.09104
4.09757 9.04927 4.09757
4.10448 9.11862 4.10448
4.11175 9.18733 4.11175
4.11934 9.25548 4.11934
4.12719 9.32316 4.12719
4.13523 9.39055 4.13523
4.14334 9.45787 4.14334
4.15138 9.52538 4.15138
4.15917 9.59347 4.15917
4.16650 9.66255 4.16650
4.17309 9.73317 4.17309
4.17865 9.80591 4.17865
4.18287 9.88139 4.18287
4.18546 9.96022 4.18546
4.18617 10.04284 4.18617
4.18513 10.12903 4.18513
4.18345 10.21658 4.18345
4.18131 10.30509 4.18131
4.17872 10.39457 4.17872
4.17567 10.48503 4.17567
4.17212 10.57653 4.17212
4.16805 10.66914 4.16805
4.16338 10.76301 4.16338
4.15802 10.85831 4.15802
4.15183 10.95532 4.15183
4.14463 11.05441 4.14463
4.13612 11.15615 4.13612
4.12588 11.26144 4.12588
4.11313 11.37179 4.11313
4.09647 11.48999 4.09647
4.07321 11.62145 4.07321
4.03463 11.78361 4.03463
4.00000 13.19120 4.00000
4.00000 13.19120 4.00000
4.00000 13.19120 4.00000
4.00000 13.19120 4.00000
4.00000 13.19120 4.00000
4.00000 13.19120 4.00000
4.00000 13.19120 4.00000
4.00000 13.19120 4.00000
4.00000 13.19119 4.00000
4.00000 13.19120 4.00000
4.00000 13.19120 4.00000
4.00000 13.19120 4.00000
4.00000 13.19120 4.00000
4.00000 13.19120 4.00000
4.00000 13.19120 4.00000
4.00472 13.20962 4.00472
4.01770 13.26941 4.01770
4.02836 13.33386 4.02837
4.03676 13.40290 4.03676
4.04294 13.47641 4.04294
4.04700 13.55419 4.04700
4.04922 13.63570 4.04922
4.05107 13.71798 4.05107
4.05286 13.80040 4.05286
4.05461 13.88297 4.05461
4.05631 13.96565 4.05631
4.05797 14.04845 4.05798
4.05960 14.13135 4.05960
4.06120 14.21435 4.06120
4.06277 14.29744 4.06277
4.06432 14.38061 4.06432
4.06584 14.46386 4.06584
4.06734 14.54719 4.06734
4.06882 14.63059 4.06882
4.07029 14.71406 4.07029
4.07174 14.79759 4.07174
4.07317 14.88118 4.07317
4.07459 14.96484 4.07459
4.07600 15.04854 4.07600
4.07735 15.13239 4.07735
4.07848 15.21671 4.07848
4.07938 15.30152 4.07938
4.08007 15.38679 4.08007
4.08056 15.47249 4.08056
4.08086 15.55858 4.08086
4.08099 15.64505 4.08099
4.08096 15.73187 4.08096
4.08079 15.81901 4.08079
4.08048 15.90645 4.08047
4.08004 15.99416 4.08004
4.07949 16.08213 4.07949
4.07884 16.17032 4.07884
4.07810 16.25873 4.07810
4.07728 16.34733 4.07728
4.07638 16.43610 4.07638
4.07541 16.52504 4.07541
4.07439 16.61411 4.07439
4.07331 16.70332 4.07331
4.07219 16.79264 4.07219
4.07103 16.88207 4.07103
4.06983 16.97158 4.06983
4.06861 17.06118 4.06861
4.06736 17.15084 4.06736
4.06610 17.24057 4.06610
4.06482 17.33035 4.06482
4.06353 17.42017 4.06353
4.06224 17.51003 4.06224
4.06094 17.59992 4.06094
4.05964 17.68983 4.05964
4.05834 17.77976 4.05834
4.05705 17.86970 4.05705
4.05576 17.95966 4.05576
4.05448 18.04962 4.05448
4.05321 18.13958 4.05321
4.05196 18.22953 4.05196
4.05071 18.31948 4.05072
4.04949 18.40943 4.04949
4.04827 18.49936 4.04827
4.04708 18.58928 4.04708
4.04590 18.67918 4.04590
4.04474 18.76907 4.04474
4.04360 18.85894 4.04360
4.04248 18.94879 4.04248
4.04137 19.03862 4.04137
4.04029 19.12843 4.04029
4.03923 19.21821 4.03923
4.03819 19.30798 4.03819
4.03717 19.39772 4.03717
4.03617 19.48744 4.03617
4.03519 19.57713 4.03519
4.03424 19.66680 4.03424
4.03330 19.75645 4.03330
4.03239 19.84607 4.03239
4.03149 19.93567 4.03149
4.03062 20.02524 4.03062
4.02976 20.11479 4.02976
4.02893 20.20432 4.02893
4.02812 20.29383 4.02812
4.02733 20.38331 4.02733
4.02655 20.47277 4.02655
4.02580 20.56221 4.02580
4.02506 20.65162 4.02506
4.02435 20.74102 4.02435
4.02365 20.83039 4.02365
4.02297 20.91975 4.02297
4.02230 21.00908 4.02230
4.02166 21.09840 4.02166
4.02103 21.18770 4.02103
4.02042 21.27697 4.02042
4.01982 21.36624 4.01982
4.01924 21.45548 4.01924
4.01868 21.54471 4.01868
4.01813 21.63392 4.01813
4.01760 21.72312 4.01760
4.01708 21.81230 4.01708
4.01657 21.90147 4.01657
4.01608 21.99063 4.01608
4.01561 22.07977 4.01561
4.01514 22.16890 4.01514
4.01469 22.25801 4.01469
4.01426 22.34712 4.01426
4.01383 22.43621 4.01383
4.01342 22.52530 4.01342
4.01301 22.61437 4.01302
4.01262 22.70344 4.01262
4.01225 22.79249 4.01225
4.01188 22.88154 4.01188
4.01152 22.97057 4.01152
4.01117 23.05960 4.01117
4.01084 23.14863 4.01084
4.01051 23.23764 4.01051
4.01019 23.32665 4.01019
4.00988 23.41565 4.00988
4.00958 23.50465 4.00958
4.00929 23.59364 4.00929
4.00901 23.68263 4.00901
4.00874 23.77161 4.00874
4.00847 23.86059 4.00847
4.00821 23.94957 4.00821
4.00796 24.03854 4.00796
4.00772 24.12751 4.00772
4.00749 24.21647 4.00749
4.00726 24.30543 4.00726
4.00704 24.39439 4.00704
4.00682 24.48335 4.00682
4.00661 24.57231 4.00661
4.00641 24.66126 4.00641
4.00621 24.75022 4.00621
4.00602 24.83917 4.00602
4.00584 24.92812 4.00584
4.00566 25.01708 4.00566
4.00549 25.10603 4.00548
4.00532 25.19498 4.00532
4.00515 25.28393 4.00515
4.00500 25.37288 4.00499
4.00484 25.46184 4.00484
4.00469 25.55079 4.00469
4.00455 25.63975 4.00455
4.00441 25.72871 4.00441
4.00427 25.81766 4.00427
4.00414 25.90663 4.00414
4.00401 25.99559 4.00401
4.00389 26.08455 4.00389
4.00377 26.17352 4.00377
4.00365 26.26248 4.00365
4.00354 26.35146 4.00354
4.00343 26.44043 4.00343
4.00332 26.52940 4.00332
4.00322 26.61838 4.00322
4.00312 26.70736 4.00312
4.00302 26.79635 4.00302
4.00293 26.88534 4.00293
4.00284 26.97433 4.00284
4.00275 27.06332 4.00275
4.00266 27.15232 4.00267
4.00258 27.24132 4.00258
4.00250 27.33033 4.00250
4.00243 27.41934 4.00243
4.00235 27.50835 4.00235
4.00228 27.59737 4.00228
4.00221 27.68639 4.00221
4.00214 27.77541 4.00214
4.00207 27.86444 4.00207
4.00201 27.95348 4.00201
4.00195 28.04251 4.00194
4.00188 28.13156 4.00188
4.00182 28.22060 4.00183
4.00177 28.30965 4.00177
4.00171 28.39871 4.00171
4.00166 28.48777 4.00166
4.00161 28.57683 4.00161
4.00156 28.66590 4.00156
4.00151 28.75498 4.00151
4.00146 28.84405 4.00146
4.00142 28.93314 4.00142
4.00137 29.02223 4.00137
4.00133 29.11132 4.00133
4.00129 29.20042 4.00129
4.00125 29.28952 4.00125
4.00121 29.37863 4.00121
4.00117 29.46774 4.00117
4.00114 29.55686 4.00114
4.00110 29.64598 4.00110
4.00107 29.73511 4.00106
4.00103 29.82424 4.00103
4.00100 29.91338 4.00100
4.00097 30.00252 4.00097
4.00094 30.09166 4.00094
4.00091 30.18082 4.00091
4.00088 30.26998 4.00088
4.00085 30.35914 4.00085
4.00083 30.44830 4.00083
4.00080 30.53748 4.00080
4.00078 30.62666 4.00078
4.00075 30.71584 4.00075
4.00073 30.80503 4.00073
4.00071 30.89422 4.00071
4.00068 30.98342 4.00068
4.00066 31.07262 4.00066
4.00064 31.16183 4.00064
4.00062 31.25105 4.00062
4.00060 31.34027 4.00060
4.00058 31.42949 4.00058
4.00056 31.51872 4.00056
4.00055 31.60795 4.00055
4.00053 31.69719 4.00053
4.00051 31.78643 4.00051
4.00050 31.87568 4.00050
4.00048 31.96494 4.00048
4.00047 32.05420 4.00047
4.00045 32.14346 4.00045
4.00044 32.23273 4.00044
4.00042 32.32200 4.00042
4.00041 32.41128 4.00041
4.00040 32.50057 4.00040
4.00039 32.58986 4.00039
4.00037 32.67915 4.00037
4.00036 32.76845 4.00036
4.00035 32.85775 4.00035
4.00034 32.94706 4.00034
4.00033 33.03638 4.00033
4.00032 33.12569 4.00032
4.00031 33.21502 4.00031
4.00030 33.30435 4.00030
4.00029 33.39368 4.00029
4.00028 33.48302 4.00028
4.00027 33.57236 4.00027

Angle 0.581021 4.399669

4.00000 7.03348 4.00000
4.00000 7.03348 4.00000
4.00000 7.03348 4.00000
4.00000 7.03348 4.00000
4.00000 7.03348 4.00000
4.00000 7.03348 4.00000
4.00000 7.03348 4.00000
4.00000 7.03348 4.00000
4.00000 7.03348 4.00000
4.00000 7.03348 4.00000
4.00000 7.03348 4.00000
4.00000 7.03348 4.00000
4.00000 7.03348 4.00000
4.00000 7.03348 4.00000
4.00000 7.03348 4.00000
4.00000 7.03348 4.00000
4.00000 7.03348 4.00000
4.00000 7.03348 4.00000
4.00000 7.03348 4.00000
4.00000 7.03348 4.00000
4.00000 7.03348 4.00000
4.00000 7.03348 4.00000
4.00000 7.03348 4.00000
4.00000 7.03348 4.00000
4.00000 7.03348 4.00000
4.00000 7.03348 4.00000
4.00000 7.03348 4.00000
4.00000 7.03348 4.00000
4.00000 7.03348 4.00000
4.00000 7.03348 4.00000
4.00000 7.03348 4.00000
4.00000 7.03348 4.00000
4.00000 7.03348 4.00000
4.00000 7.03348 4.00000
4.00000 7.03348 4.00000
4.00000 7.03348 4.00000
4.00000 7.03348 4.00000
4.00000 7.03348 4.00000
4.00000 7.03348 4.00000
4.00000 7.03348 4.00000
4.00000 7.03348 4.00000
4.00000 7.03348 4.00000
4.00000 7.03348 4.00000
4.00000 7.03348 4.00000
4.00000 7.03348 4.00000
4.00000 7.03348 4.00000
4.00000 7.03348 4.00000
4.00000 7.03348 4.00000
4.00000 7.03348 4.00000
4.00000 7.03348 4.00000
4.00000 7.03348 4.00000
4.00000 7.03348 4.00000
4.00000 7.03348 4.00000
4.00000 7.03348 4.00000
4.00000 7.03348 4.00000
4.00000 7.03348 4.00000
4.00000 7.03348 4.00000
4.00000 7.03348 4.00000
4.00000 7.03348 4.00000
4.00000 7.03348 4.00000
4.00000 7.03348 4.00000
4.00000 7.03348 4.00000
4.00000 7.03348 4.00000
4.00000 7.03348 4.00000
4.00000 7.03348 4.00000
4.00000 7.03348 4.00000
4.00000 7.03348 4.00000
4.00000 7.03348 4.00000
4.00000 7.03348 4.00000
4.00000 7.03348 4.00000
4.00000 7.03348 4.00000
4.00000 7.03348 4.00000
4.00000 7.03348 4.00000
4.00000 7.03348 4.00000
4.00000 7.03348 4.00000
4.00000 7.03348 4.00000
4.00000 7.03348 4.00000
4.00000 7.03348 4.00000
4.00000 7.03348 4.00000
4.00000 7.03348 4.00000
4.00000 7.03348 4.00000
4.00000 7.03348 4.00000
4.00000 7.03348 4.00000
4.00000 7.03348 4.00000
4.00000 7.03348 4.00000
4.00000 7.03348 4.00000
4.00000 7.03348 4.00000
4.00000 7.03348 4.00000
4.00000 7.03348 4.00000
4.00000 7.03348 4.00000
4.00000 7.03348 4.00000
4.00000 7.03348 4.00000
4.00000 7.03348 4.00000
4.00000 7.03348 4.00000
4.00000 7.03348 4.00000
4.00000 7.03348 4.00000
4.00000 7.03348 4.00000
4.00000 7.03348 4.00000
4.00000 7.03348 4.00000
4.00000 7.03348 4.00000
4.00000 7.03348 4.00000
4.00000 7.03348 4.00000
4.00000 7.03348 4.00000
4.00000 7.03348 4.00000
4.00000 7.03348 4.00000
4.00000 7.03348 4.00000
4.00000 7.03348 4.00000
4.00000 7.03348 4.00000
4.00000 7.03348 4.00000
4.00000 7.03348 4.00000
4.00000 7.03348 4.00000
4.00000 7.03348 4.00000
4.00000 7.03348 4.00000
4.00000 7.03348 4.00000
4.00000 7.03348 4.00000
4.00000 7.03348 4.00000
4.00000 7.03348 4.00000
4.00000 7.03348 4.00000
4.00000 7.03348 4.00000
4.00000 7.03348 4.00000
4.00000 7.03348 4.00000
4.00000 7.03348 4.00000
4.00000 7.03348 4.00000
4.00000 7.03348 4.00000
4.00000 7.03348 4.00000
4.00000 7.03348 4.00000
4.00000 7.03348 4.00000
4.00000 7.03348 4.00000
4.00000 7.03348 4.00000
4.00000 7.03348 4.00000
4.00000 7.03348 4.00000
4.00000 7.03348 4.00000
4.00000 7.03348 4.00000
4.00000 7.03348 4.00000
4.00000 7.03348 4.00000
4.00000 7.03348 4.00000
4.00000 7.03348 4.00000
4.00000 7.03348 4.00000
4.00000 7.03348 4.00000
4.00000 7.03348 4.00000
4.00000 7.03348 4.00000
4.00000 7.03348 4.00000
4.00000 7.03348 4.00000
4.00000 7.03348 4.00000
4.00000 7.03348 4.00000
4.00000 7.03348 4.00000
4.00000 7.03348 4.00000
4.00000 7.03348 4.00000
4.00000 7.03348 4.00000
4.00000 7.03349 4.00000
4.00000 7.03349 4.00000
4.00000 7.03349 4.00000
4.00000 7.03349 4.00000
4.00000 7.03349 4.00000
4.00000 7.03349 4.00000
4.00000 7.03350 4.00000
4.00000 7.03350 4.00000
4.00000 7.03350 4.00000
4.00000 7.03348 4.00000
4.00000 7.03348 4.00000
4.00000 7.03348 4.00000
4.00000 7.03348 4.00000
4.00000 7.03348 4.00000
4.00000 7.03348 4.00000
4.00000 7.03348 4.00000
4.00000 7.03348 4.00000
4.00000 7.03348 4.00000
4.00000 7.03348 4.00000
4.00000 7.03348 4.00000
4.00000 7.03348 4.00000
4.00000 7.03348 4.00000
4.00000 7.03348 4.00000
4.00000 7.03348 4.00000
4.00000 7.03348 4.00000
4.00000 7.03348 4.00000
4.00000 7.03348 4.00000
4.00000 7.03348 4.00000
4.00000 7.03348 4.00000
4.00000 7.03349 4.00000
4.00000 7.03349 4.00000
4.00000 7.03349 4.00000
4.00000 7.03348 4.00000
4.00000 7.03348 4.00000
4.00000 7.03348 4.00000
4.00000 7.03349 4.00000
4.00000 7.03348 4.00000
4.00078 7.05237 4.00078
4.00371 7.12471 4.00371
4.00657 7.19735 4.00657
4.00936 7.27025 4.00936
4.01210 7.34338 4.01210
4.01479 7.41674 4.01479
4.01746 7.49028 4.01746
4.02010 7.56399 4.02010
4.02274 7.63785 4.02274
4.02537 7.71183 4.02537
4.02802 7.78590 4.02802
4.03069 7.86005 4.03069
4.03340 7.93424 4.03339
4.03615 8.00845 4.03615
4.03898 8.08263 4.03898
4.04189 8.15675 4.04189
4.04492 8.23077 4.04492
4.04807 8.30463 4.04807
4.05139 8.37828 4.05139
4.05490 8.45163 4.05490
4.05866 8.52460 4.05866
4.06272 8.59707 4.06272
4.06715 8.66890 4.06715
4.07195 8.74009 4.07195
4.07710 8.81070 4.07710
4.08259 8.88070 4.08259
4.08845 8.95007 4.08845
4.09467 9.01879 4.09467
4.10127 9.08688 4.10127
4.10821 9.15435 4.10821
4.11549 9.22126 4.11549
4.12304 9.28769 4.12304
4.13082 9.35376 4.13082
4.13873 9.41966 4.13873
4.14666 9.48560 4.14666
4.15446 9.55189 4.15446
4.16195 9.61889 4.16195
4.16890 9.68705 4.16890
4.17505 9.75688 4.17505
4.18012 9.82896 4.18012
4.18380 9.90389 4.18380
4.18584 9.98219 4.18584
4.18604 10.06423 4.18604
4.18479 10.14927 4.18479
4.18303 10.23537 4.18303
4.18084 10.32243 4.18084
4.17821 10.41043 4.17821
4.17514 10.49940 4.17514
4.17159 10.58939 4.17159
4.16752 10.68050 4.16752
4.16286 10.77284 4.16286
4.15752 10.86662 4.15752
4.15137 10.96208 4.15137
4.14422 11.05960 4.14422
4.13580 11.15974 4.13580
4.12567 11.26336 4.12567
4.11311 11.37191 4.11311
4.09677 11.48808 4.09677
4.07411 11.61695 4.07411
4.03723 11.77432 4.03723
4.00000 13.19120 4.00000
4.00000 13.19120 4.00000
4.00000 13.19120 4.00000
4.00000 13.19120 4.00000
4.00000 13.19120 4.00000
4.00000 13.19120 4.00000
4.00000 13.19120 4.00000
4.00000 13.19120 4.00000
4.00000 13.19120 4.00000
4.00000 13.19120 4.00000
4.00000 13.19120 4.00000
4.00000 13.19120 4.00000
4.00000 13.19120 4.00000
4.00000 13.19120 4.00000
4.00000 13.19120 4.00000
4.00054 13.19325 4.00054
4.01402 13.25084 4.01402
4.02524 13.31299 4.02524
4.03424 13.37964 4.03424
4.04106 13.45069 4.04106
4.04579 13.52598 4.04579
4.04852 13.60531 4.04852
4.05037 13.68645 4.05037
4.05216 13.76775 4.05216
4.05390 13.84919 4.05390
4.05560 13.93076 4.05560
4.05726 14.01246 4.05726
4.05888 14.09428 4.05888
4.06047 14.17619 4.06047
4.06204 14.25821 4.06204
4.06357 14.34033 4.06357
4.06509 14.42253 4.06509
4.06658 14.50481 4.06658
4.06806 14.58718 4.06806
4.06951 14.66962 4.06951
4.07095 14.75213 4.07095
4.07238 14.83471 4.07238
4.07379 14.91736 4.07379
4.07518 15.00008 4.07518
4.07657 15.08286 4.07657
4.07783 15.16592 4.07783
4.07886 15.24949 4.07886
4.07967 15.33353 4.07967
4.08027 15.41802 4.08027
4.08069 15.50292 4.08069
4.08093 15.58822 4.08093
4.08100 15.67387 4.08100
4.08092 15.75987 4.08092
4.08070 15.84618 4.08070
4.08036 15.93278 4.08036
4.07989 16.01965 4.07989
4.07932 16.10677 4.07932
4.07865 16.19412 4.07865
4.07790 16.28168 4.07790
4.07706 16.36942 4.07706
4.07615 16.45735 4.07615
4.07518 16.54543 4.07518
4.07415 16.63365 4.07415
4.07308 16.72201 4.07308
4.07196 16.81048 4.07196
4.07080 16.89906 4.07080
4.06961 16.98773 4.06961
4.06840 17.07648 4.06840
4.06716 17.16531 4.06716
4.06591 17.25420 4.06591
4.06464 17.34315 4.06464
4.06336 17.43214 4.06336
4.06208 17.52118 4.06208
4.06079 17.61025 4.06079
4.05950 17.69935 4.05950
4.05822 17.78848 4.05822
4.05693 17.87762 4.05693
4.05566 17.96678 4.05566
4.05439 18.05594 4.05439
4.05314 18.14512 4.05314
4.05189 18.23429 4.05189
4.05066 18.32347 4.05066
4.04944 18.41264 4.04944
4.04824 18.50181 4.04824
4.04706 18.59097 4.04706
4.04589 18.68012 4.04589
4.04474 18.76926 4.04474
4.04360 18.85839 4.04360
4.04249 18.94750 4.04249
4.04140 19.03660 4.04140
4.04032 19.12568 4.04032
4.03927 19.21475 4.03927
4.03824 19.30380 4.03824
4.03722 19.39283 4.03722
4.03623 19.48184 4.03623
4.03526 19.57083 4.03526
4.03431 19.65981 4.03431
4.03338 19.74876 4.03338
4.03247 19.83770 4.03247
4.03158 19.92662 4.03158
4.03071 20.01552 4.03071
4.02986 20.10440 4.02986
4.02903 20.19326 4.02903
4.02822 20.28211 4.02822
4.02743 20.37093 4.02743
4.02666 20.45974 4.02666
4.02591 20.54853 4.02591
4.02518 20.63731 4.02518
4.02446 20.72606 4.02446
4.02377 20.81480 4.02377
4.02309 20.90353 4.02309
4.02243 20.99224 4.02243
4.02178 21.08093 4.02178
4.02116 21.16961 4.02116
4.02054 21.25828 4.02054
4.01995 21.34693 4.01995
4.01937 21.43557 4.01937
4.01881 21.52420 4.01881
4.01826 21.61282 4.01826
4.01773 21.70142 4.01773
4.01721 21.79001 4.01721
4.01670 21.87859 4.01670
4.01621 21.96717 4.01621
4.01573 22.05573 4.01573
4.01527 22.14428 4.01527
4.01482 22.23283 4.01482
4.01438 22.32137 4.01438
4.01395 22.40990 4.01395
4.01354 22.49842 4.01354
4.01314 22.58694 4.01314
4.01275 22.67545 4.01275
4.01237 22.76395 4.01237
4.01200 22.85245 4.01200
4.01164 22.94094 4.01164
4.01129 23.02943 4.01129
4.01095 23.11792 4.01095
4.01062 23.20640 4.01062
4.01030 23.29487 4.01031
4.01000 23.38335 4.00999
4.00969 23.47182 4.00969
4.00940 23.56029 4.00940
4.00912 23.64876 4.00912
4.00884 23.73722 4.00884
4.00858 23.82569 4.00858
4.00832 23.91415 4.00832
4.00807 24.00261 4.00806
4.00782 24.09108 4.00782
4.00758 24.17954 4.00758
4.00735 24.26801 4.00735
4.00713 24.35647 4.00713
4.00691 24.44493 4.00691
4.00670 24.53340 4.00670
4.00650 24.62187 4.00650
4.00630 24.71033 4.00630
4.00611 24.79880 4.00611
4.00592 24.88728 4.00592
4.00574 24.97575 4.00574
4.00557 25.06422 4.00557
4.00540 25.15270 4.00539

Angle 0.407816 0.144522

4.00000 7.03348 4.00000
4.00000 7.03348 4.00000
4.00000 7.03348 4.00000
4.00000 7.03348 4.00000
4.00000 7.03348 4.00000
4.00000 7.03348 4.00000
4.00000 7.03348 4.00000
4.00000 7.03348 4.00000
4.00000 7.03348 4.00000
4.00000 7.03348 4.00000
4.00000 7.03348 4.00000
4.00000 7.03348 4.00000
4.00000 7.03348 4.00000
4.00000 7.03348 4.00000
4.00000 7.03348 4.00000
4.00000 7.03348 4.00000
4.00000 7.03348 4.00000
4.00000 7.03348 4.00000
4.00000 7.03348 4.00000
4.00000 7.03348 4.00000
4.00000 7.03348 4.00000
4.00000 7.03348 4.00000
4.00000 7.03351 4.00000
4.00000 7.03348 4.00000
4.00000 7.03348 4.00000
4.00000 7.03348 4.00000
4.00000 7.03348 4.00000
4.00000 7.03348 4.00000
4.00000 7.03348 4.00000
4.00000 7.03348 4.00000
4.00000 7.03348 4.00000
4.00000 7.03348 4.00000
4.00000 7.03348 4.00000
4.00000 7.03348 4.00000
4.00000 7.03348 4.00000
4.00000 7.03348 4.00000
4.00000 7.03349 4.00000
4.00000 7.03348 4.00000
4.00000 7.03348 4.00000
4.00000 7.03348 4.00000
4.00000 7.03349 4.00000
4.00037 7.04233 4.00037
4.00331 7.11472 4.00331
4.00618 7.18740 4.00618
4.00898 7.26034 4.00898
4.01173 7.33353 4.01173
4.01443 7.40693 4.01443
4.01711 7.48052 4.01711
4.01976 7.55429 4.01975
4.02239 7.62820 4.02239
4.02503 7.70224 4.02503
4.02768 7.77638 4.02768
4.03035 7.85059 4.03035
4.03305 7.92485 4.03305
4.03580 7.99913 4.03580
4.03863 8.07339 4.03862
4.04153 8.14759 4.04153
4.04454 8.22169 4.04454
4.04768 8.29564 4.04768
4.05098 8.36938 4.05097
4.05447 8.44284 4.05447
4.05820 8.51592 4.05820
4.06222 8.58852 4.06222
4.06661 8.66050 4.06661
4.07138 8.73181 4.07138
4.07648 8.80255 4.07648
4.08194 8.87268 4.08194
4.08776 8.94218 4.08776
4.09395 9.01103 4.09395
4.10051 9.07924 4.10051
4.10742 9.14683 4.10742
4.11466 9.21385 4.11466
4.12220 9.28038 4.12220
4.12996 9.34654 4.12996
4.13787 9.41249 4.13787
4.14581 9.47846 4.14581
4.15364 9.54475 4.15364
4.16117 9.61170 4.16117
4.16820 9.67976 4.16820
4.17445 9.74944 4.17445
4.17965 9.82131 4.17965
4.18349 9.89596 4.18349
4.18571 9.97395 4.18571
4.18611 10.05565 4.18611
4.18494 10.14056 4.18494
4.18323 10.22663 4.18323
4.18108 10.31365 4.18108
4.17850 10.40161 4.17850
4.17547 10.49054 4.17547
4.17196 10.58048 4.17196
4.16794 10.67153 4.16794
4.16334 10.76380 4.16334
4.15807 10.85749 4.15807
4.15200 10.95283 4.15200
4.14495 11.05019 4.14495
4.13667 11.15011 4.13666
4.12672 11.25341 4.12672
4.11442 11.36147 4.11442
4.09850 11.47685 4.09850
4.07660 11.60424 4.07660
4.04179 11.75750 4.04179
4.00000 13.19120 4.00000
4.00000 13.19120 4.00000
4.00000 13.19120 4.00000
4.00000 13.19120 4.00000
4.00000 13.19120 4.00000
4.00000 13.19120 4.00000
4.00000 13.19120 4.00000
4.00000 13.19120 4.00000
4.00000 13.19120 4.00000
4.00000 13.19120 4.00000
4.00000 13.19120 4.00000
4.00000 13.19120 4.00000
4.00000 13.19120 4.00000
4.00000 13.19120 4.00000
4.00000 13.19120 4.00000
4.00000 13.19120 4.00000
4.01298 13.24589 4.01298
4.02440 13.30769 4.02440
4.03358 13.37400 4.03358
4.04058 13.44473 4.04058
4.04548 13.51972 4.04548
4.04836 13.59877 4.04836
4.05022 13.67993 4.05022
4.05202 13.76125 4.05202
4.05376 13.84272 4.05376
4.05547 13.92432 4.05547
4.05713 14.00605 4.05713
4.05875 14.08789 4.05875
4.06035 14.16984 4.06035
4.06192 14.25188 4.06192
4.06346 14.33402 4.06346
4.06497 14.41625 4.06497
4.06647 14.49857 4.06647
4.06794 14.58096 4.06794
4.06940 14.66343 4.06940
4.07084 14.74597 4.07084
4.07227 14.82858 4.07227
4.07368 14.91126 4.07368
4.07508 14.99400 4.07508
4.07647 15.07681 4.07647
4.07775 15.15987 4.07775
4.07879 15.24344 4.07879
4.07962 15.32748 4.07962
4.08024 15.41196 4.08024
4.08066 15.49687 4.08066
4.08091 15.58217 4.08091
4.08100 15.66784 4.08100
4.08093 15.75384 4.08093
4.08072 15.84016 4.08072
4.08038 15.92678 4.08038
4.07993 16.01366 4.07993
4.07936 16.10080 4.07936
4.07870 16.18816 4.07870
4.07795 16.27573 4.07795
4.07712 16.36350 4.07712
4.07622 16.45144 4.07621
4.07525 16.53954 4.07525
4.07422 16.62779 4.07422
4.07315 16.71617 4.07315
4.07203 16.80466 4.07203
4.07088 16.89326 4.07088
4.06969 16.98196 4.06969
4.06848 17.07073 4.06848
4.06724 17.15959 4.06724
4.06599 17.24850 4.06599
4.06472 17.33747 4.06472
4.06344 17.42650 4.06344
4.06216 17.51556 4.06216
4.06087 17.60466 4.06087
4.05958 17.69378 4.05958
4.05830 17.78293 4.05830
4.05701 17.87210 4.05701
4.05574 17.96129 4.05574
4.05447 18.05048 4.05447
4.05321 18.13968 4.05321
4.05197 18.22888 4.05197
4.05073 18.31808 4.05073
4.04952 18.40728 4.04952
4.04831 18.49648 4.04831
4.04713 18.58566 4.04713
4.04596 18.67484 4.04596
4.04480 18.76401 4.04480
4.04367 18.85316 4.04367
4.04256 18.94230 4.04256
4.04146 19.03143 4.04146
4.04039 19.12053 4.04039
4.03933 19.20963 4.03933
4.03830 19.29870 4.03830
4.03728 19.38776 4.03728
4.03629 19.47679 4.03629
4.03532 19.56581 4.03532
4.03436 19.65481 4.03436
4.03343 19.74380 4.03343
4.03252 19.83276 4.03252
4.03163 19.92170 4.03163
4.03076 20.01062 4.03076
4.02991 20.09953 4.02991
4.02908 20.18841 4.02908
4.02827 20.27728 4.02827
4.02748 20.36613 4.02748
4.02670 20.45496 4.02670
4.02595 20.54378 4.02595
4.02522 20.63257 4.02522
4.02450 20.72135 4.02450
4.02380 20.81012 4.02380
4.02312 20.89886 4.02312
4.02246 20.98760 4.02246
4.02182 21.07631 4.02182
4.02119 21.16501 4.02119
4.02058 21.25370 4.02058
4.01998 21.34238 4.01998
4.01940 21.43104 4.01940
4.01884 21.51969 4.01884
4.01829 21.60832 4.01829
4.01775 21.69695 4.01775
4.01723 21.78556 4.01723
4.01673 21.87417 4.01673
4.01624 21.96276 4.01624
4.01576 22.05134 4.01576
4.01529 22.13992 4.01529
4.01484 22.22848 4.01484
4.01440 22.31704 4.01440
4.01397 22.40559 4.01397
4.01356 22.49413 4.01356
4.01316 22.58267 4.01316
4.01276 22.67120 4.01276
4.01238 22.75972 4.01238
4.01201 22.84824 4.01201
4.01165 22.93675 4.01166
4.01131 23.02526 4.01131
4.01097 23.11376 4.01097
4.01064 23.20226 4.01064
4.01032 23.29076 4.01032
4.01001 23.37925 4.01001
4.00971 23.46774 4.00971
4.00941 23.55623 4.00941
4.00913 23.64471 4.00913
4.00885 23.73320 4.00885
4.00859 23.82168 4.00859
4.00833 23.91016 4.00833
4.00808 23.99864 4.00808
4.00783 24.08712 4.00783
4.00759 24.17560 4.00759
4.00736 24.26408 4.00736
4.00714 24.35256 4.00714
4.00692 24.44104 4.00692
4.00671 24.52953 4.00671
4.00651 24.61801 4.00651
4.00631 24.70649 4.00631
4.00612 24.79498 4.00612
4.00593 24.88347 4.00593
4.00575 24.97196 4.00575
4.00557 25.06045 4.00557
4.00540 25.14895 4.00540
4.00524 25.23744 4.00524
4.00508 25.32595 4.00508
4.00492 25.41445 4.00492
4.00477 25.50296 4.00477
4.00463 25.59147 4.00463
4.00448 25.67998 4.00448
4.00435 25.76850 4.00435
4.00421 25.85702 4.00421
4.00408 25.94555 4.00408
4.00396 26.03408 4.00396
4.00384 26.12261 4.00384
4.00372 26.21115 4.00372
4.00360 26.29969 4.00360
4.00349 26.38824 4.00349
4.00338 26.47680 4.00338
4.00328 26.56535 4.00328
4.00318 26.65392 4.00318
4.00308 26.74249 4.00308
4.00299 26.83106 4.00299
4.00289 26.91964 4.00289
4.00281 27.00822 4.00281
4.00272 27.09681 4.00272
4.00263 27.18541 4.00263
4.00255 27.27401 4.00255
4.00247 27.36262 4.00247
4.00240 27.45123 4.00240
4.00232 27.53985 4.00232
4.00225 27.62847 4.00225
4.00218 27.71710 4.00218
4.00211 27.80574 4.00211
4.00205 27.89438 4.00205
4.00199 27.98303 4.00199
4.00192 28.07169 4.00192
4.00186 28.16035 4.00186
4.00181 28.24902 4.00181
4.00175 28.33769 4.00175
4.00170 28.42638 4.00170
4.00164 28.51506 4.00164
4.00159 28.60376 4.00159
4.00154 28.69246 4.00154
4.00150 28.78116 4.00150
4.00145 28.86988 4.00145
4.00140 28.95860 4.00140
4.00136 29.04732 4.00136
4.00132 29.13606 4.00132
4.00128 29.22479 4.00128
4.00124 29.31354 4.00124
4.00120 29.40229 4.00120
4.00116 29.49105 4.00116
4.00113 29.57982 4.00113
4.00109 29.66859 4.00109
4.00106 29.75737 4.00106
4.00102 29.84616 4.00102
4.00099 29.93495 4.00099
4.00096 30.02375 4.00096
4.00093 30.11255 4.00093
4.00090 30.20137 4.00090
4.00087 30.29019 4.00087
4.00085 30.37901 4.00085
4.00082 30.46785 4.00082
4.00080 30.55669 4.00080
4.00077 30.64553 4.00077
4.00075 30.73438 4.00075
4.00072 30.82324 4.00072
4.00070 30.91211 4.00070
4.00068 31.00098 4.00068
4.00066 31.08986 4.00066
4.00064 31.17875 4.00064
4.00062 31.26764 4.00062
4.00060 31.35654 4.00060
4.00058 31.44544 4.00058
4.00056 31.53436 4.00056
4.00054 31.62327 4.00054
4.00053 31.71220 4.00053
4.00051 31.80113 4.00051
4.00049 31.89007 4.00049
4.00048 31.97901 4.00048
4.00046 32.06796 4.00046
4.00045 32.15692 4.00045
4.00044 32.24588 4.00044
4.00042 32.33485 4.00042
4.00041 32.42383 4.00041
4.00040 32.51281 4.00040
4.00038 32.60180 4.00038
4.00037 32.69080 4.00037
4.00036 32.77980 4.00036
4.00035 32.86880 4.00035
4.00034 32.95782 4.00034
4.00033 33.04684 4.00033
4.00032 33.13586 4.00032
4.00031 33.22490 4.00031
4.00030 33.31394 4.00030
4.00029 33.40298 4.00029
4.00028 33.49203 4.00028
4.00027 33.58109 4.00027
4.00026 33.67015 4.00026
4.00025 33.75922 4.00025
4.00025 33.84829 4.00025
4.00024 33.93737 4.00024
4.00023 34.02646 4.00023
4.00022 34.11555 4.00022
4.00022 34.20465 4.00022
4.00021 34.29375 4.00021
4.00020 34.38287 4.00020
4.00020 34.47198 4.00020
4.00019 34.56111 4.00019
4.00018 34.65024 4.00018
4.00018 34.73936 4.00018
4.00017 34.82850 4.00017
4.00017 34.91764 4.00017
4.00016 35.00679 4.00016
4.00016 35.09595 4.00016
4.00015 35.18511 4.00015
4.00015 35.27428 4.00015
4.00014 35.36345 4.00014
4.00014 35.45263 4.00014
4.00013 35.54181 4.00013
4.00013 35.63100 4.00013
4.00013 35.72019 4.00013
4.00012 35.80939 4.00012
4.00012 35.89860 4.00012
4.00011 35.98781 4.00011
4.00011 36.07702 4.00011
4.00011 36.16624 4.00011
4.00010 36.25547 4.00010
4.00010 36.34470 4.00010
4.00010 36.43394 4.00010
4.00009 36.52318 4.00009
4.00009 36.61243 4.00009
4.00009 36.70168 4.00009
4.00009 36.79094 4.00009
4.00008 36.88020 4.00008
4.00008 36.96947 4.00008
4.00008 37.05874 4.00008
4.00008 37.14802 4.00008
4.00007 37.23730 4.00007
4.00007 37.32658 4.00007
4.00007 37.41587 4.00007
4.00007 37.50517 4.00007
4.00006 37.59447 4.00006
4.00006 37.68377 4.00006
4.00006 37.77309 4.00006
4.00006 37.86240 4.00006
4.00006 37.95172 4.00006
4.00006 38.04105 4.00006

