0.3861
0.3877
0.3892
0.3907
0.3920
0.3933
0.3946
0.3959
0.3972
0.3985
0.3998
0.4011
0.4020
0.4029
0.4038
0.4048
0.4058
0.4069
0.4080
0.4091
0.4103
0.4115
0.4127
0.4139
0.4149
0.4158
0.4166
0.4173
0.4180
0.4191
0.4202
0.4212
0.4222
0.4232
0.4242
0.4252
0.4262
0.4272
0.4281
0.4291
0.4302
0.4312
0.4323
0.4333
0.4345
0.4356
0.4368
0.4380
0.4393
0.4406
0.4420
0.4434
0.4450
0.4467
0.4483
0.4500
0.4518
0.4535
0.4554
0.4574
0.4595
0.4616
0.4640
0.4664
0.4691
0.4721
0.4754
0.4796
0.4816
0.4829
0.4843
0.4856
0.4870
0.4884
0.4898
0.4912
0.4926
0.4940
0.4953
0.4966
0.4977
0.4974
0.4975
0.4976
0.4977
0.4978
0.4979
0.4979
0.4980
0.4981
0.4982
0.4983
0.4983
0.4984
0.4984
0.4984
0.4985
0.4985
0.4985
0.4986
0.4986
0.4987
0.4987
0.4988
0.4981
0.4978
0.4978
0.4977
0.4970
0.4959
0.4951
0.4947
0.4963
0.4979
0.4995
0.5012
0.5030
0.5049
0.5068
0.5087
0.5108
0.5129
0.5150
0.5173
0.5196
0.5220
0.5244
0.5270
0.5296
0.5323
0.5350
0.5379
0.5408
0.5439
0.5470
0.5502
0.5535
0.5669
0.5788
0.5823
0.5857
0.5889
0.5918
0.5942
0.5971
0.5999
0.6027
0.6054
0.6080
0.6103
0.6123
0.6138
0.6139
0.6114
0.6146
0.6182
0.6218
0.6255
0.6291
0.6328
0.6365
0.6402
0.6440
0.6477
0.6516
0.6554
0.6594
0.6635
0.6677
0.6504
0.6558
0.6635
0.6703
0.6742
0.6781
0.6821
0.6861
0.6902
0.6944
0.6987
0.7031
0.7078
0.7128
0.7184
0.7256
0.7289
0.7321
0.7354
0.7388
0.7422
0.7456
0.7491
0.7526
0.7561
0.7597
0.7634
0.7671
0.7709
0.7747
0.7786
0.7826
0.7867
0.7908
0.7951
0.7994
0.8039
0.8085
0.8135
0.8187
0.8408
0.8467
0.8568
0.8577
0.8595
0.8612
0.8630
0.8647
0.8664
0.8681
0.8697
0.8712
0.8727
0.8738
0.8746
0.8741
0.8736
0.8763
0.8782
0.8613
0.8653
0.8694
0.8734
0.8776
0.8817
0.8858
0.8900
0.8931
0.8952
0.8973
0.8994
0.9015
0.9021
0.9054
0.9086
0.9094
0.9101
0.9108
0.9115
0.9121
0.9128
0.9135
0.9141
0.9148
0.9154
0.9161
0.9167
0.9173
0.9179
0.9185
0.9191
0.9197
0.9203
0.9209
0.9215
0.9220
0.9226
0.9232
0.9237
0.9029
0.9045
0.9061
0.9078
0.9094
0.9111
0.9128
0.9145
0.9162
0.9180
0.9198
0.9217
0.9238
0.9260
0.9295
0.9318
0.9322
0.9327
0.9331
0.9336
0.9340
0.9345
0.9349
0.9353
0.9156
0.9171
0.9185
0.9200
0.9215
0.9230
0.9244
0.9259
0.9274
0.9290
0.9306
0.9324
0.9343
0.9362
0.9383
0.9417
0.9420
0.9424
0.9427
0.9431
0.9434
0.9438
0.9441
0.9445
0.9448
0.9451
0.9455
0.9458
0.9461
0.9465
0.9468
0.9471
0.9474
0.9477
0.9480
0.9483
0.9486
0.9489
0.9492
0.9495
0.9498
0.9501
0.9504
0.9507
0.9510
0.9513
0.9515
0.9518
0.9521
0.9524
0.9526
0.9529
0.9532
0.9534
0.9537
0.9539
0.9542
0.9544
0.9547
0.9549
0.9552
0.9554
0.9557
0.9559
0.9562
0.9564
0.9566
0.9569
0.9571
0.9573
0.9576
0.9578
0.9580
0.9582
0.9584
0.9587
0.9589
0.9591
0.9593
0.9595
0.9597
0.9599
0.9602
0.9604
0.9606
0.9608
0.9610
0.9612
0.9614
0.9616
0.9618
0.9619
0.9621
0.9623
0.9625
0.9627
0.9629
0.9631
0.9633
0.9634
0.9636
0.9638
0.9640
0.9642
0.9643
0.9645
0.9647
0.9648
