0.5366
0.5336
0.5306
0.5276
0.5247
0.5224
0.5206
0.5189
0.5172
0.5154
0.5136
0.5119
0.5100
0.5082
0.5064
0.5045
0.5026
0.5006
0.4986
0.4965
0.4943
0.4921
0.4897
0.4872
0.4845
0.4815
0.4781
0.4739
0.4667
0.4673
0.4660
0.4647
0.4634
0.4622
0.4609
0.4597
0.4585
0.4574
0.4562
0.4551
0.4540
0.4529
0.4518
0.4508
0.4497
0.4487
0.4478
0.4468
0.4459
0.4450
0.4442
0.4433
0.4425
0.4418
0.4410
0.4403
0.4397
0.4391
0.4385
0.4380
0.4375
0.4370
0.4366
0.4363
0.4360
0.4357
0.4355
0.4354
0.4353
0.4353
0.4346
0.4339
0.4341
0.4344
0.4348
0.4353
0.4358
0.4365
0.4372
0.4380
0.4389
0.4399
0.4509
0.4516
0.4524
0.4611
0.4620
0.4624
0.4598
0.4605
0.4613
0.4621
0.4629
0.4638
0.4647
0.4655
0.4662
0.4667
0.4667
0.4653
0.4634
0.4653
0.4673
0.4690
0.4707
0.4726
0.4745
0.4766
0.4789
0.4814
0.4846
0.4865
0.4872
0.4879
0.4888
0.4897
0.4907
0.4918
0.4929
0.4942
0.4957
0.4972
0.4989
0.5007
0.5026
0.5048
0.5071
0.5096
0.5124
0.5154
0.5189
0.5228
0.5274
0.5334
0.5445
0.5470
0.5476
0.5482
0.5488
0.5495
0.5502
0.5509
0.5518
0.5527
0.5536
0.5545
0.5555
0.5565
0.5576
0.5588
0.5599
0.5612
0.5624
0.5638
0.5652
0.5666
0.5682
0.5698
0.5714
0.5732
0.5750
0.5769
0.5789
0.5892
0.5910
0.5930
0.5950
0.5972
0.6094
0.6116
0.6138
0.6160
0.6184
0.6208
0.6232
0.6257
0.6283
0.6308
0.6333
0.6357
0.6372
0.6398
0.6415
0.6446
0.6494
0.6546
0.6601
0.6660
0.6726
0.6801
0.6895
0.7034
0.7075
0.7123
0.7180
0.7191
0.7202
0.7392
0.7398
0.7404
0.7409
0.7415
0.7420
0.7425
0.7429
0.7434
0.7437
0.7441
0.7443
0.7444
0.7444
0.7440
0.7435
0.7407
0.7420
0.7434
0.7449
0.7463
0.7478
0.7492
0.7508
0.7523
0.7539
0.7554
0.7571
0.7587
0.7604
0.7621
0.7638
0.7656
0.7674
0.7692
0.7710
0.7729
0.7748
0.7768
0.7788
0.7808
0.7828
0.7849
0.7871
0.7893
0.7915
0.7937
0.7960
0.7984
0.8008
0.8032
0.8056
0.8080
0.8106
0.7897
0.7935
0.7975
0.8161
0.8200
0.8241
0.8282
0.8324
0.8368
0.8415
0.8464
0.8517
0.8575
0.8641
0.8731
0.8864
0.8862
0.8856
0.8839
0.8817
0.8825
0.8834
0.8842
0.8851
0.8859
0.8867
0.8875
0.8883
0.8891
0.8899
0.8907
0.8915
0.8922
0.8930
0.8937
0.8945
0.8952
0.8959
0.8966
0.8973
0.8980
0.8987
0.8994
0.9001
0.9008
0.9014
0.9021
0.9027
0.9034
0.9040
0.9047
0.9053
0.9059
0.9065
0.9071
0.9077
0.9083
0.9089
0.9095
0.9101
0.9106
0.9112
0.9118
0.9123
0.9129
0.9134
0.9140
0.9145
0.9150
0.9156
0.9161
0.9166
0.9171
0.9176
0.9330
0.9331
0.9333
0.9334
0.9335
0.9335
0.9336
0.9335
0.9334
0.9332
0.9330
0.9326
0.9321
0.9313
0.9300
0.9267
0.9256
0.9260
0.9264
0.9268
0.9273
0.9277
0.9281
0.9285
0.9289
0.9293
0.9297
0.9301
0.9305
0.9309
0.9313
0.9316
0.9320
0.9324
0.9328
0.9331
0.9335
0.9339
0.9342
0.9346
0.9349
0.9353
0.9356
0.9360
0.9363
0.9367
0.9370
0.9373
0.9377
0.9380
0.9383
0.9386
0.9389
0.9393
0.9396
0.9399
0.9402
0.9405
0.9408
0.9411
0.9414
0.9417
0.9420
0.9423
0.9426
0.9429
0.9432
0.9435
0.9438
0.9441
0.9443
0.9446
0.9449
0.9452
0.9454
