0.4232
0.4242
0.4255
0.4267
0.4280
0.4293
0.4306
0.4319
0.4333
0.4346
0.4360
0.4375
0.4389
0.4404
0.4419
0.4434
0.4450
0.4464
0.4480
0.4495
0.4512
0.4528
0.4545
0.4562
0.4577
0.4587
0.4558
0.4624
0.4719
0.4748
0.4777
0.4807
0.4837
0.4867
0.4898
0.4930
0.4962
0.4994
0.5027
0.5061
0.5095
0.5130
0.5166
0.5202
0.5239
0.5276
0.5314
0.5353
0.5393
0.5432
0.5472
0.5512
0.5554
0.5582
0.5602
0.5622
0.5643
0.5663
0.5683
0.5703
0.5723
0.5743
0.5763
0.5783
0.5803
0.5823
0.5843
0.5863
0.5883
0.5902
0.5922
0.5941
0.5961
0.5979
0.5998
0.6017
0.6037
0.6056
0.6075
0.6093
0.6112
0.6130
0.6148
0.6166
0.6183
0.6201
0.6219
0.6237
0.6255
0.6273
0.6290
0.6308
0.6325
0.6343
0.6360
0.6377
0.6393
0.6410
0.6417
0.6424
0.6430
0.6436
0.6441
0.6448
0.6457
0.6465
0.6460
0.6471
0.6485
0.6597
0.6610
0.6618
0.6623
0.6688
0.6688
0.6689
0.6688
0.6687
0.6685
0.6682
0.6677
0.6668
0.6657
0.6638
0.6607
0.6604
0.6599
0.6593
0.6582
0.6563
0.6526
0.6460
0.6471
0.6489
0.6507
0.6524
0.6542
0.6560
0.6578
0.6597
0.6615
0.6634
0.6652
0.6670
0.6688
0.6707
0.6735
0.6766
0.6799
0.6837
0.6880
0.6919
0.6926
0.6933
0.6939
0.6946
0.6953
0.6961
0.6968
0.6976
0.6984
0.6992
0.7000
0.7008
0.7017
0.7027
0.7036
0.7046
0.7057
0.7068
0.7080
0.7092
0.7105
0.7119
0.7133
0.7147
0.7161
0.7176
0.7190
0.7203
0.7212
0.7205
0.7215
0.7225
0.7234
0.7245
0.7255
0.7266
0.7277
0.7288
0.7300
0.7312
0.7482
0.7490
0.7498
0.7506
0.7514
0.7521
0.7529
0.7536
0.7544
0.7611
0.7617
0.7623
0.7627
0.7629
0.7633
0.7680
0.7654
0.7671
0.7687
0.7703
0.7718
0.7731
0.7741
0.7744
0.7739
0.7754
0.7769
0.7783
0.7793
0.7792
0.7794
0.7813
0.7832
0.7852
0.7872
0.7892
0.7913
0.7933
0.7954
0.7976
0.7997
0.8019
0.8041
0.8063
0.8086
0.8108
0.8131
0.8155
0.8179
0.8203
0.8227
0.8251
0.7985
0.8021
0.8059
0.8096
0.8134
0.8173
0.8213
0.8255
0.8298
0.8343
0.8390
0.8440
0.8493
0.8551
0.8617
0.8718
0.8755
0.8796
0.8840
0.8892
0.8964
0.9013
0.9020
0.9027
0.9033
0.9040
0.9046
0.9052
0.9059
0.9065
0.9071
0.9077
0.9083
0.9089
0.9095
0.9101
0.9107
0.9113
0.9118
0.9124
0.9129
0.9135
0.9140
0.9146
0.9151
0.9156
0.9162
0.9167
0.9172
0.9177
0.9182
0.9187
0.9192
0.9197
0.9202
0.9207
0.9212
0.9216
0.9221
0.9226
0.9230
0.9235
0.9239
0.9244
0.9248
0.9253
0.9257
0.9261
0.9266
0.9270
0.9274
0.9278
0.9283
0.9287
0.9291
0.9295
0.9212
0.9222
0.9232
0.9242
0.9251
0.9261
0.9271
0.9281
0.9291
0.9301
0.9311
0.9321
0.9333
0.9345
0.9352
0.9355
0.9358
0.9362
0.9365
0.9369
0.9372
0.9375
0.9379
0.9382
0.9385
0.9388
0.9392
0.9395
0.9398
0.9401
0.9404
0.9407
0.9410
0.9413
0.9417
0.9419
0.9422
0.9425
0.9428
0.9431
0.9434
0.9437
0.9440
0.9443
0.9445
0.9448
0.9451
0.9454
0.9456
0.9459
0.9462
0.9464
0.9467
0.9470
0.9472
0.9475
0.9477
0.9480
0.9482
0.9485
0.9487
0.9490
0.9492
0.9495
0.9497
0.9499
0.9502
0.9504
0.9507
0.9509
0.9511
0.9513
0.9516
0.9518
0.9520
0.9522
0.9524
0.9526
0.9529
0.9531
