0.4872
0.4899
0.4926
0.4952
0.4978
0.5004
0.5030
0.5056
0.5081
0.5106
0.5131
0.5156
0.5181
0.5205
0.5229
0.5252
0.5275
0.5302
0.5317
0.5338
0.5354
0.5372
0.5390
0.5411
0.5431
0.5450
0.5469
0.5487
0.5505
0.5523
0.5539
0.5555
0.5569
0.5582
0.5580
0.5605
0.5619
0.5632
0.5646
0.5660
0.5677
0.5695
0.5712
0.5731
0.5750
0.5770
0.5791
0.5812
0.5835
0.5858
0.5882
0.5906
0.5932
0.5959
0.5987
0.6016
0.6047
0.6079
0.6113
0.6150
0.6190
0.6237
0.6298
0.6350
0.6375
0.6400
0.6424
0.6449
0.6473
0.6497
0.6520
0.6543
0.6565
0.6585
0.6604
0.6622
0.6638
0.6649
0.6666
0.6696
0.6725
0.6755
0.6785
0.6816
0.6846
0.6877
0.6909
0.6941
0.6973
0.7006
0.7034
0.7072
0.7113
0.7155
0.7199
0.7248
0.7307
0.7330
0.7354
0.7376
0.7395
0.7406
0.7427
0.7451
0.7465
0.7463
0.7488
0.7513
0.7539
0.7564
0.7588
0.7613
0.7637
0.7661
0.7685
0.7709
0.7732
0.7755
0.7777
0.7800
0.7822
0.7843
0.7865
0.7886
0.7906
0.7926
0.7946
0.7965
0.7984
0.8002
0.8020
0.8037
0.8054
0.8070
0.7929
0.7954
0.7977
0.8000
0.8022
0.8041
0.8061
0.8080
0.8099
0.8118
0.8126
0.8134
0.8138
0.8124
0.8193
0.8179
0.8167
0.8155
0.8141
0.8128
0.8114
0.8100
0.8088
0.8077
0.7844
0.7841
0.7837
0.7831
0.7825
0.7816
0.7810
0.7804
0.7792
0.7805
0.7808
0.7811
0.7788
0.7803
0.7838
0.7835
0.7833
0.7840
0.7849
0.7846
0.7844
0.7841
0.7838
0.7834
0.7830
0.7825
0.7819
0.7812
0.7804
0.7799
0.7798
0.7794
0.7789
0.7785
0.7781
0.7777
0.7773
0.7770
0.7767
0.7764
0.7762
0.7760
0.7759
0.7758
0.7757
0.7810
0.7813
0.7815
0.7817
0.7819
0.7821
0.7823
0.7824
0.7826
0.7827
0.7827
0.7827
0.7826
0.7823
0.7814
0.7794
0.7800
0.7806
0.7812
0.7818
0.7825
0.7832
0.7840
0.7847
0.7856
0.7864
0.7873
0.7882
0.7891
0.7901
0.8017
0.8025
0.8034
0.8043
0.8052
0.8060
0.8069
0.8077
0.8086
0.8093
0.8100
0.8106
0.8109
0.8109
0.8092
0.8094
0.8109
0.8124
0.8139
0.8154
0.8170
0.8186
0.8202
0.8218
0.8235
0.8252
0.8269
0.8287
0.8305
0.8323
0.8342
0.8360
0.8379
0.8399
0.8419
0.8439
0.8459
0.8480
0.8501
0.8522
0.8544
0.8566
0.8589
0.8611
0.8635
0.8658
0.8683
0.8707
0.8732
0.8758
0.8784
0.8811
0.8839
0.8867
0.8896
0.8927
0.8958
0.8990
0.9025
0.9061
0.9101
0.9145
0.9200
0.9287
0.9292
0.9297
0.9301
0.9306
0.9310
0.9315
0.9319
0.9323
0.9328
0.9332
0.9336
0.9340
0.9345
0.9349
0.9353
0.9357
0.9361
0.9365
0.9369
0.9373
0.9376
0.9380
0.9384
0.9388
0.9391
0.9395
0.9399
0.9402
0.9406
0.9409
0.9413
0.9416
0.9420
0.9423
0.9426
0.9430
0.9433
0.9436
0.9439
0.9443
0.9446
0.9449
0.9452
0.9455
0.9458
0.9461
0.9464
0.9467
0.9470
0.9473
0.9476
0.9479
0.9482
0.9485
0.9487
0.9548
0.9552
0.9557
0.9561
0.9564
0.9567
0.9569
0.9571
0.9573
0.9573
0.9572
0.9571
0.9567
0.9561
0.9545
0.9529
0.9532
0.9534
0.9537
0.9539
0.9541
0.9544
0.9546
0.9549
0.9551
0.9553
0.9555
0.9558
0.9560
0.9562
0.9564
0.9566
0.9569
0.9571
0.9573
0.9575
0.9577
0.9579
0.9581
0.9583
0.9585
0.9587
0.9589
0.9591
0.9593
0.9595
0.9597
0.9599
