0.3856
0.3798
0.3749
0.3704
0.3659
0.3616
0.3573
0.3529
0.3486
0.3443
0.3401
0.3360
0.3319
0.3280
0.3242
0.3205
0.3169
0.3133
0.3099
0.3066
0.3033
0.3001
0.2969
0.2938
0.2907
0.2878
0.2849
0.2821
0.2795
0.2769
0.2745
0.2721
0.2698
0.2678
0.2658
0.2641
0.2626
0.2612
0.2600
0.2589
0.2581
0.2574
0.2568
0.2563
0.2559
0.2556
0.2553
0.2551
0.2550
0.2548
0.2546
0.2543
0.2538
0.2531
0.2504
0.2487
0.2502
0.2520
0.2538
0.2558
0.2579
0.2603
0.2630
0.2660
0.2696
0.2741
0.2775
0.2781
0.2788
0.2796
0.2804
0.2813
0.2822
0.2832
0.2843
0.2855
0.2867
0.2880
0.2894
0.2908
0.2923
0.2939
0.2955
0.2971
0.2988
0.3005
0.3023
0.3040
0.3060
0.3077
0.3095
0.3112
0.3130
0.3148
0.3166
0.3184
0.3203
0.3221
0.3240
0.3259
0.3279
0.3299
0.3319
0.3338
0.3358
0.3377
0.3397
0.3416
0.3436
0.3456
0.3476
0.3496
0.3516
0.3536
0.3557
0.3578
0.3333
0.3364
0.3395
0.3428
0.3461
0.3495
0.3529
0.3676
0.3711
0.3746
0.3782
0.3820
0.3860
0.3903
0.3954
0.4031
0.4051
0.4071
0.4091
0.4111
0.4131
0.4147
0.4137
0.4165
0.4199
0.4239
0.4288
0.4363
0.4431
0.4440
0.4450
0.4460
0.4472
0.4484
0.4498
0.4511
0.4526
0.4541
0.4555
0.4570
0.4585
0.4599
0.4614
0.4631
0.4641
0.4632
0.4651
0.4669
0.4688
0.4708
0.4727
0.4747
0.4767
0.4787
0.4808
0.4828
0.4849
0.4870
0.4891
0.4913
0.4934
0.4956
0.4979
0.5002
0.5025
0.5050
0.5077
0.5104
0.5135
0.5168
0.5206
0.5251
0.5309
0.5335
0.5344
0.5354
0.5363
0.5373
0.5383
0.5393
0.5403
0.5414
0.5425
0.5436
0.5448
0.5575
0.5585
0.5596
0.5606
0.5617
0.5628
0.5639
0.5649
0.5660
0.5670
0.5680
0.5690
0.5698
0.5703
0.5703
0.5684
0.5703
0.5722
0.5742
0.5763
0.5784
0.5805
0.5828
0.5972
0.5992
0.6012
0.6033
0.6057
0.6081
0.6106
0.6131
0.6157
0.6184
0.6210
0.6237
0.6263
0.6289
0.6313
0.6332
0.6332
0.6371
0.6411
0.6452
0.6495
0.6539
0.6585
0.6395
0.6454
0.6516
0.6581
0.6650
0.6725
0.6812
0.6947
0.6986
0.7025
0.7066
0.7108
0.7153
0.7200
0.7252
0.7319
0.7373
0.7404
0.7436
0.7469
0.7502
0.7536
0.7571
0.7606
0.7642
0.7678
0.7715
0.7753
0.7791
0.7830
0.7870
0.7910
0.7950
0.7991
0.8033
0.8076
0.8120
0.8163
0.8210
0.8258
0.8308
0.8360
0.8414
0.8471
0.8528
0.8587
0.8646
0.8703
0.8758
0.8809
0.8859
0.8909
0.8937
0.8970
0.9010
0.9068
0.9130
0.9137
0.9144
0.9151
0.9158
0.9165
0.9172
0.9179
0.9186
0.9192
0.9326
0.9329
0.9332
0.9335
0.9337
0.9339
0.9341
0.9342
0.9342
0.9342
0.9341
0.9339
0.9336
0.9330
0.9319
0.9290
0.9293
0.9298
0.9303
0.9308
0.9313
0.9318
0.9323
0.9328
0.9333
0.9338
0.9343
0.9348
0.9352
0.9357
0.9361
0.9366
0.9371
0.9375
0.9379
0.9384
0.9388
0.9392
0.9396
0.9401
0.9405
0.9408
0.9414
0.9421
0.9427
0.9434
0.9440
0.9546
0.9550
0.9555
0.9558
0.9561
0.9563
0.9564
0.9564
0.9560
0.9543
0.9542
0.9539
0.9535
0.9529
0.9516
0.9485
0.9488
0.9492
0.9495
0.9498
0.9501
0.9504
0.9507
0.9510
0.9513
0.9516
0.9519
0.9522
0.9525
0.9528
0.9531
0.9534
0.9536
0.9539
0.9542
0.9545
0.9547
0.9550
0.9553
0.9555
