0.3558
0.3554
0.3552
0.3550
0.3548
0.3547
0.3546
0.3546
0.3544
0.3543
0.3541
0.3541
0.3542
0.3543
0.3545
0.3547
0.3548
0.3550
0.3553
0.3556
0.3559
0.3562
0.3565
0.3569
0.3573
0.3577
0.3582
0.3586
0.3590
0.3595
0.3599
0.3604
0.3610
0.3615
0.3621
0.3628
0.3635
0.3642
0.3649
0.3657
0.3665
0.3674
0.3684
0.3694
0.3704
0.3715
0.3726
0.3738
0.3743
0.3751
0.3762
0.3776
0.3790
0.3803
0.3812
0.3819
0.3825
0.3839
0.3852
0.3865
0.3879
0.3891
0.3905
0.3919
0.3935
0.3954
0.3979
0.4028
0.4029
0.4025
0.4021
0.4017
0.4013
0.4010
0.4006
0.4003
0.4000
0.3998
0.3995
0.3993
0.3991
0.3989
0.3987
0.3986
0.3984
0.3983
0.3981
0.3978
0.3975
0.3972
0.3968
0.3964
0.3958
0.3951
0.3943
0.3936
0.3932
0.3928
0.3922
0.3913
0.3899
0.3892
0.3906
0.3921
0.3938
0.3956
0.3975
0.3996
0.4019
0.4043
0.4070
0.4098
0.4129
0.4161
0.4194
0.4226
0.4256
0.4281
0.4300
0.4312
0.4302
0.4322
0.4343
0.4364
0.4472
0.4496
0.4520
0.4546
0.4573
0.4600
0.4629
0.4659
0.4691
0.4723
0.4755
0.4788
0.4822
0.4854
0.4883
0.4897
0.4944
0.4994
0.5045
0.5100
0.5157
0.5217
0.5281
0.5349
0.5423
0.5500
0.5590
0.5682
0.5728
0.5777
0.5827
0.5878
0.5930
0.5982
0.5807
0.5866
0.5923
0.5980
0.6037
0.6095
0.6156
0.6219
0.6274
0.6332
0.6393
0.6455
0.6518
0.6581
0.6650
0.6725
0.6763
0.6803
0.6828
0.6855
0.6883
0.6913
0.6946
0.6746
0.6793
0.6846
0.6906
0.6984
0.7105
0.7133
0.7162
0.7191
0.7220
0.7250
0.7280
0.7311
0.7346
0.7386
0.7437
0.7486
0.7505
0.7525
0.7545
0.7565
0.7586
0.7607
0.7628
0.7649
0.7670
0.7692
0.7715
0.7737
0.7760
0.7886
0.7906
0.7927
0.7947
0.7969
0.7990
0.8015
0.8039
0.8064
0.8087
0.7977
0.8008
0.8037
0.8064
0.8086
0.8091
0.8121
0.8160
0.8199
0.8239
0.8088
0.8140
0.8194
0.8250
0.8310
0.8366
0.8415
0.8465
0.8519
0.8581
0.8657
0.8781
0.8806
0.8833
0.8875
0.8884
0.8893
0.8901
0.8910
0.8919
0.8927
0.8936
0.8944
0.8952
0.8960
0.8968
0.8656
0.8674
0.8692
0.8711
0.8730
0.8749
0.8769
0.8790
0.8812
0.8834
0.8858
0.8883
0.8910
0.8939
0.8972
0.9010
0.9086
0.9099
0.9106
0.9112
0.9119
0.9125
0.9132
0.9138
0.9144
0.9150
0.9156
0.9162
0.9168
0.9174
0.9180
0.9185
0.9191
0.9197
0.9202
0.9208
0.9213
0.9219
0.9224
0.9229
0.9235
0.9240
0.9245
0.9362
0.9364
0.9367
0.9369
0.9370
0.9372
0.9372
0.9373
0.9373
0.9372
0.9370
0.9367
0.9362
0.9355
0.9340
0.9321
0.9325
0.9329
0.9334
0.9338
0.9342
0.9346
0.9350
0.9355
0.9359
0.9363
0.9367
0.9371
0.9374
0.9378
0.9382
0.9386
0.9390
0.9394
0.9397
0.9401
0.9405
0.9408
0.9412
0.9415
0.9419
0.9422
0.9426
0.9429
0.9433
0.9436
0.9439
0.9443
0.9446
0.9449
0.9452
0.9455
0.9459
0.9462
0.9465
0.9468
0.9471
0.9474
0.9477
0.9480
0.9483
0.9486
0.9489
0.9492
0.9495
0.9497
0.9500
0.9503
0.9506
0.9509
0.9511
0.9514
0.9517
0.9519
0.9522
0.9525
0.9527
0.9530
0.9532
0.9535
0.9537
0.9540
0.9542
0.9545
0.9547
0.9550
0.9552
0.9554
0.9557
0.9559
0.9561
0.9564
0.9566
0.9568
0.9570
0.9573
0.9575
0.9577
0.9579
0.9581
