0.4984
0.4984
0.4983
0.4983
0.4984
0.4989
0.4994
0.5002
0.5013
0.5026
0.5040
0.5054
0.5067
0.5079
0.5090
0.5103
0.5117
0.5133
0.5150
0.5168
0.5187
0.5206
0.5226
0.5246
0.5265
0.5285
0.5304
0.5324
0.5344
0.5364
0.5384
0.5404
0.5425
0.5445
0.5466
0.5487
0.5508
0.5528
0.5549
0.5571
0.5592
0.5614
0.5636
0.5659
0.5681
0.5703
0.5725
0.5747
0.5770
0.5792
0.5814
0.5836
0.5858
0.5879
0.5900
0.5921
0.5941
0.5962
0.5982
0.6002
0.6022
0.6041
0.6060
0.6078
0.6095
0.6112
0.6127
0.6142
0.6157
0.6172
0.6187
0.6201
0.6216
0.6230
0.6242
0.6253
0.6263
0.6273
0.6282
0.6284
0.6283
0.6312
0.6304
0.6305
0.6304
0.6302
0.6298
0.6294
0.6288
0.6284
0.6280
0.6276
0.6272
0.6268
0.6264
0.6259
0.6254
0.6250
0.6246
0.6241
0.6237
0.6233
0.6228
0.6222
0.6216
0.6210
0.6205
0.6201
0.6196
0.6191
0.6186
0.6178
0.6164
0.6136
0.6127
0.6120
0.6113
0.6106
0.6097
0.6087
0.6075
0.6062
0.6049
0.6034
0.6020
0.6004
0.5988
0.5970
0.5952
0.5933
0.5912
0.5888
0.5858
0.5806
0.5800
0.5794
0.5790
0.5581
0.5590
0.5599
0.5608
0.5745
0.5718
0.5729
0.5739
0.5750
0.5761
0.5774
0.5788
0.5803
0.5821
0.5854
0.5851
0.5847
0.5839
0.5825
0.5800
0.5807
0.5815
0.5824
0.5832
0.5841
0.5851
0.5862
0.5872
0.5884
0.5896
0.5909
0.5922
0.5936
0.5951
0.5967
0.5983
0.6000
0.6019
0.6038
0.6059
0.6081
0.6104
0.5860
0.5896
0.5934
0.5974
0.6016
0.6062
0.6110
0.6163
0.6222
0.6294
0.6411
0.6459
0.6481
0.6249
0.6291
0.6342
0.6433
0.6457
0.6480
0.6562
0.6586
0.6613
0.6641
0.6668
0.6696
0.6728
0.6764
0.6811
0.6854
0.6865
0.6876
0.6885
0.6892
0.6892
0.6886
0.6903
0.6920
0.6938
0.6956
0.6975
0.6994
0.7014
0.7034
0.7055
0.7077
0.7099
0.7122
0.7145
0.7168
0.7193
0.7218
0.7243
0.7269
0.7295
0.7323
0.7350
0.7378
0.7407
0.7436
0.7466
0.7496
0.7527
0.7558
0.7590
0.7623
0.7656
0.7690
0.7724
0.7759
0.7795
0.7954
0.7988
0.8023
0.8059
0.8097
0.8135
0.8177
0.8221
0.8267
0.8315
0.8366
0.8420
0.8478
0.8545
0.8597
0.8600
0.8632
0.8664
0.8697
0.8731
0.8766
0.8802
0.8840
0.8882
0.8930
0.8990
0.9088
0.9095
0.9103
0.9110
0.9117
0.9125
0.9132
0.9139
0.9146
0.9152
0.9159
0.9166
0.9173
0.9179
0.9186
0.9192
0.9198
0.9204
0.9211
0.9217
0.9223
0.9229
0.9235
0.9240
0.9246
0.9252
0.9257
0.9263
0.9268
0.9274
0.9279
0.9285
0.9290
0.9295
0.9300
0.9305
0.9310
0.9315
0.9320
0.9325
0.9330
0.9335
0.9339
0.9344
0.9348
0.9353
0.9358
0.9362
0.9519
0.9520
0.9520
0.9520
0.9519
0.9519
0.9518
0.9517
0.9596
0.9593
0.9589
0.9584
0.9576
0.9565
0.9548
0.9500
0.9502
0.9502
0.9502
0.9500
0.9498
0.9493
0.9483
0.9456
0.9460
0.9463
0.9467
0.9470
0.9473
0.9477
0.9480
0.9483
0.9486
0.9490
0.9493
0.9496
0.9499
0.9502
0.9505
0.9508
0.9511
0.9514
0.9517
0.9520
0.9523
0.9526
0.9528
0.9531
0.9534
0.9537
0.9539
0.9542
0.9545
0.9547
0.9550
0.9553
0.9555
0.9558
0.9560
0.9563
0.9565
0.9568
0.9570
0.9573
0.9575
0.9577
0.9580
0.9582
0.9584
0.9587
0.9589
0.9591
0.9594
0.9596
0.9598
0.9600
0.9602
