0.4154
0.4132
0.4110
0.4089
0.4067
0.4047
0.4026
0.4007
0.3988
0.3970
0.3954
0.3940
0.3926
0.3913
0.3899
0.3886
0.3872
0.3858
0.3845
0.3833
0.3822
0.3812
0.3804
0.3798
0.3793
0.3791
0.3791
0.3794
0.3800
0.3811
0.3829
0.3860
0.3913
0.3895
0.3877
0.3858
0.3839
0.3820
0.3801
0.3784
0.3767
0.3750
0.3732
0.3715
0.3697
0.3680
0.3663
0.3648
0.3633
0.3618
0.3603
0.3586
0.3568
0.3548
0.3527
0.3505
0.3483
0.3460
0.3437
0.3414
0.3390
0.3368
0.3345
0.3323
0.3303
0.3283
0.3265
0.3248
0.3232
0.3217
0.3204
0.3191
0.3180
0.3170
0.3161
0.3152
0.3145
0.3139
0.3133
0.3129
0.3126
0.3123
0.3121
0.3121
0.3121
0.3121
0.3123
0.3126
0.3131
0.3138
0.3146
0.3153
0.3161
0.3170
0.3180
0.3191
0.3205
0.3220
0.3329
0.3345
0.3364
0.3386
0.3413
0.3445
0.3487
0.3547
0.3587
0.3596
0.3605
0.3615
0.3625
0.3635
0.3644
0.3652
0.3654
0.3665
0.3684
0.3704
0.3724
0.3745
0.3766
0.3788
0.3811
0.3834
0.3858
0.3882
0.3908
0.3934
0.3962
0.3992
0.4025
0.4063
0.4105
0.4145
0.4187
0.4235
0.4290
0.4352
0.4419
0.4412
0.4451
0.4492
0.4538
0.4588
0.4645
0.4713
0.4834
0.4852
0.4871
0.4899
0.4928
0.4955
0.4977
0.4959
0.4979
0.5001
0.5022
0.5045
0.5068
0.5091
0.5116
0.5140
0.5166
0.5192
0.5218
0.5301
0.5330
0.5359
0.5392
0.5426
0.5461
0.5495
0.5529
0.5562
0.5594
0.5625
0.5655
0.5684
0.5711
0.5735
0.5748
0.5768
0.5806
0.5845
0.5885
0.5925
0.5966
0.6008
0.6050
0.6094
0.6138
0.6182
0.6227
0.6274
0.6322
0.6371
0.6420
0.6240
0.6301
0.6364
0.6427
0.6492
0.6558
0.6715
0.6784
0.6855
0.6928
0.7004
0.7083
0.7166
0.7255
0.7356
0.7489
0.7608
0.7644
0.7679
0.7712
0.7739
0.7758
0.7804
0.7852
0.7685
0.7749
0.7821
0.7905
0.8019
0.8048
0.8076
0.8105
0.8133
0.8162
0.8190
0.8219
0.8248
0.8278
0.8311
0.8350
0.8418
0.8475
0.8496
0.8518
0.8540
0.8563
0.8585
0.8608
0.8630
0.8649
0.8670
0.8693
0.8717
0.8742
0.8769
0.8796
0.8824
0.8853
0.8883
0.8914
0.8944
0.8974
0.9000
0.9024
0.9043
0.9059
0.9072
0.9084
0.9094
0.9104
0.9112
0.9120
0.8917
0.8934
0.8950
0.8967
0.8984
0.9001
0.9018
0.9035
0.9052
0.9070
0.9087
0.9105
0.9124
0.9234
0.9259
0.9296
0.9301
0.9305
0.9308
0.9311
0.9314
0.9316
0.9317
0.9317
0.9316
0.9312
0.9304
0.9272
0.9279
0.9283
0.9288
0.9293
0.9298
0.9303
0.9307
0.9312
0.9316
0.9321
0.9325
0.9330
0.9334
0.9339
0.9343
0.9347
0.9351
0.9356
0.9360
0.9364
0.9368
0.9372
0.9376
0.9380
0.9384
0.9388
0.9391
0.9395
0.9196
0.9210
0.9224
0.9238
0.9252
0.9267
0.9282
0.9297
0.9313
0.9330
0.9349
0.9368
0.9389
0.9412
0.9448
0.9451
0.9455
0.9458
0.9461
0.9464
0.9467
0.9470
0.9473
0.9476
0.9480
0.9483
0.9485
0.9488
0.9491
0.9494
0.9497
0.9500
0.9503
0.9506
0.9508
0.9511
0.9514
0.9516
0.9519
0.9522
0.9524
0.9527
0.9530
0.9532
0.9535
0.9537
0.9540
0.9542
0.9545
0.9547
0.9550
0.9552
0.9554
0.9557
0.9559
0.9561
0.9564
0.9566
0.9568
0.9571
0.9573
0.9575
0.9577
0.9579
0.9582
0.9584
0.9586
0.9588
0.9590
0.9592
0.9594
0.9596
0.9598
0.9600
0.9602
