0.2511
0.2484
0.2456
0.2430
0.2403
0.2377
0.2352
0.2327
0.2303
0.2280
0.2258
0.2238
0.2219
0.2201
0.2184
0.2166
0.2149
0.2131
0.2114
0.2097
0.2081
0.2065
0.2051
0.2027
0.2012
0.1994
0.1977
0.1960
0.1944
0.1929
0.1914
0.1899
0.1886
0.1873
0.1860
0.1849
0.1837
0.1827
0.1816
0.1807
0.1799
0.1791
0.1785
0.1779
0.1774
0.1771
0.1768
0.1766
0.1765
0.1765
0.1765
0.1767
0.1770
0.1774
0.1779
0.1785
0.1792
0.1800
0.1809
0.1820
0.1831
0.1844
0.1858
0.1874
0.1892
0.1912
0.1932
0.1952
0.1973
0.1994
0.2017
0.2041
0.2067
0.2093
0.2121
0.2150
0.2180
0.2212
0.2244
0.2279
0.2314
0.2351
0.2389
0.2429
0.2469
0.2511
0.2554
0.2598
0.2643
0.2689
0.2737
0.2785
0.2836
0.2887
0.2941
0.2997
0.3055
0.3221
0.3277
0.3338
0.3400
0.3465
0.3534
0.3608
0.3691
0.3791
0.3914
0.3961
0.4009
0.4058
0.4109
0.4160
0.4211
0.4261
0.4294
0.4352
0.4417
0.4483
0.4550
0.4619
0.4689
0.4760
0.4833
0.4907
0.4982
0.5054
0.5130
0.5206
0.5285
0.5337
0.5388
0.5440
0.5491
0.5543
0.5593
0.5640
0.5649
0.5737
0.5814
0.5897
0.5989
0.6103
0.6218
0.6264
0.6311
0.6359
0.6409
0.6460
0.6513
0.6567
0.6623
0.6681
0.6741
0.6804
0.6869
0.6936
0.7007
0.7082
0.7162
0.7248
0.7343
0.7456
0.7609
0.7663
0.7717
0.7909
0.7957
0.8000
0.8026
0.8021
0.8046
0.8070
0.8094
0.8118
0.8142
0.8164
0.8186
0.8208
0.8228
0.8242
0.8231
0.8262
0.8294
0.8327
0.8425
0.8462
0.8501
0.8541
0.8578
0.8611
0.8639
0.8662
0.8680
0.8695
0.8709
0.8459
0.8475
0.8489
0.8495
0.8501
0.8656
0.8678
0.8699
0.8720
0.8742
0.8763
0.8786
0.8810
0.8838
0.8877
0.8907
0.8909
0.8908
0.8905
0.8894
0.8866
0.8875
0.8884
0.8893
0.8901
0.8910
0.8918
0.8927
0.8660
0.8679
0.8698
0.8717
0.8737
0.8756
0.8488
0.8519
0.8552
0.8586
0.8622
0.8661
0.8702
0.8747
0.8802
0.8872
0.8894
0.8917
0.8943
0.8970
0.9002
0.9043
0.9096
0.9102
0.9109
0.9115
0.9121
0.9128
0.8942
0.8958
0.8975
0.8992
0.9009
0.9026
0.9043
0.9060
0.9078
0.9095
0.9113
0.9131
0.9151
0.9172
0.9193
0.9218
0.9224
0.9229
0.9234
0.9239
0.9244
0.9249
0.9254
0.9259
0.9263
0.9268
0.9273
0.9278
0.9282
0.9287
0.9291
0.9296
0.9300
0.9305
0.9309
0.9313
0.9318
0.9322
0.9326
0.9330
0.9334
0.9339
0.9343
0.9347
0.9351
0.9355
0.9359
0.9362
0.9366
0.9370
0.9374
0.9378
0.9381
0.9385
0.9389
0.9392
0.9396
0.9399
0.9403
0.9406
0.9410
0.9413
0.9417
0.9420
0.9423
0.9427
0.9430
0.9433
0.9436
0.9440
0.9443
0.9446
0.9449
0.9452
0.9455
0.9458
0.9461
0.9464
0.9467
0.9470
0.9473
0.9476
0.9479
0.9482
0.9485
0.9487
0.9490
0.9493
0.9496
0.9498
0.9501
0.9504
0.9506
0.9509
0.9512
0.9514
0.9517
0.9519
0.9522
0.9524
0.9527
0.9529
0.9532
0.9534
0.9537
0.9539
0.9541
0.9544
0.9546
0.9549
0.9551
0.9553
0.9555
0.9558
0.9560
0.9562
0.9564
0.9566
0.9569
0.9571
0.9573
0.9575
0.9577
0.9579
0.9581
0.9583
0.9585
0.9587
0.9589
0.9591
0.9593
0.9595
0.9597
0.9599
0.9601
0.9603
0.9605
0.9607
0.9609
0.9611
0.9613
0.9614
0.9616
0.9618
0.9620
0.9622
0.9623
0.9625
0.9627
