0.3584
0.3581
0.3573
0.3566
0.3560
0.3554
0.3550
0.3546
0.3543
0.3540
0.3527
0.3525
0.3524
0.3524
0.3524
0.3524
0.3525
0.3532
0.3540
0.3547
0.3555
0.3564
0.3573
0.3582
0.3592
0.3601
0.3611
0.3621
0.3632
0.3642
0.3651
0.3662
0.3673
0.3687
0.3701
0.3717
0.3734
0.3751
0.3770
0.3791
0.3813
0.3837
0.3863
0.3891
0.3923
0.3958
0.3999
0.4047
0.4107
0.4201
0.4256
0.4268
0.4281
0.4294
0.4310
0.4327
0.4348
0.4367
0.4376
0.4387
0.4399
0.4412
0.4425
0.4440
0.4455
0.4471
0.4488
0.4505
0.4523
0.4542
0.4561
0.4580
0.4600
0.4620
0.4641
0.4662
0.4683
0.4704
0.4725
0.4747
0.4768
0.4789
0.4810
0.4830
0.4848
0.4864
0.4882
0.4904
0.4931
0.4952
0.4969
0.4985
0.5001
0.5017
0.5032
0.5047
0.5062
0.5077
0.5092
0.5107
0.5121
0.5136
0.5150
0.5165
0.5179
0.5193
0.5206
0.5220
0.5233
0.5246
0.5259
0.5414
0.5422
0.5430
0.5438
0.5446
0.5454
0.5460
0.5465
0.5469
0.5473
0.5476
0.5477
0.5477
0.5475
0.5469
0.5462
0.5432
0.5437
0.5442
0.5446
0.5450
0.5454
0.5458
0.5465
0.5473
0.5484
0.5498
0.5515
0.5534
0.5557
0.5587
0.5622
0.5629
0.5626
0.5626
0.5626
0.5626
0.5353
0.5364
0.5483
0.5491
0.5501
0.5511
0.5521
0.5534
0.5548
0.5561
0.5584
0.5596
0.5610
0.5626
0.5644
0.5678
0.5694
0.5670
0.5645
0.5648
0.5652
0.5656
0.5660
0.5664
0.5669
0.5675
0.5682
0.5691
0.5698
0.5705
0.5754
0.5767
0.5780
0.5794
0.5809
0.5825
0.5841
0.5858
0.5876
0.5894
0.5912
0.5931
0.5951
0.5972
0.5994
0.6016
0.6040
0.6065
0.6091
0.6117
0.6145
0.6173
0.6203
0.6233
0.6265
0.6297
0.6331
0.6366
0.6220
0.6264
0.6309
0.6356
0.6405
0.6455
0.6506
0.6557
0.6607
0.6658
0.6708
0.6758
0.6809
0.6863
0.6921
0.6986
0.7070
0.7092
0.7120
0.7133
0.7164
0.7166
0.7205
0.7246
0.7287
0.7329
0.7372
0.7415
0.7459
0.7502
0.7545
0.7590
0.7641
0.7705
0.7807
0.7828
0.7849
0.7870
0.7892
0.7914
0.7936
0.7958
0.7981
0.8004
0.8027
0.8051
0.8074
0.8098
0.8123
0.8148
0.8173
0.8198
0.8224
0.8250
0.8276
0.8303
0.8331
0.8358
0.8387
0.8415
0.8444
0.8474
0.8505
0.8536
0.8568
0.8602
0.8636
0.8671
0.8708
0.8748
0.8791
0.8840
0.8900
0.8989
0.8996
0.9003
0.9010
0.9075
0.9082
0.9089
0.9096
0.9102
0.9109
0.9115
0.9120
0.9126
0.9131
0.9136
0.9140
0.9142
0.9141
0.8900
0.8889
0.8905
0.8922
0.8939
0.8956
0.8974
0.8992
0.9011
0.9031
0.9051
0.9073
0.9096
0.9123
0.9160
0.9188
0.9193
0.9199
0.9203
0.9208
0.9213
0.9218
0.9223
0.9228
0.9232
0.9237
0.9242
0.9246
0.9251
0.9255
0.9260
0.9264
0.9268
0.9273
0.9277
0.9281
0.9285
0.9290
0.9355
0.9360
0.9365
0.9369
0.9373
0.9377
0.9380
0.9383
0.9386
0.9388
0.9389
0.9389
0.9387
0.9382
0.9369
0.9352
0.9355
0.9359
0.9362
0.9366
0.9369
0.9373
0.9376
0.9380
0.9383
0.9386
0.9390
0.9393
0.9396
0.9399
0.9403
0.9406
0.9409
0.9412
0.9415
0.9418
0.9421
0.9424
0.9427
0.9430
0.9433
0.9436
0.9439
0.9442
0.9445
0.9448
0.9450
0.9453
0.9456
0.9459
0.9461
0.9464
0.9467
0.9470
0.9472
0.9475
0.9477
0.9480
0.9483
0.9485
0.9488
0.9490
0.9493
0.9495
0.9498
