0.3577
0.3610
0.3644
0.3678
0.3712
0.3746
0.3781
0.3815
0.3850
0.3886
0.3924
0.3963
0.4004
0.4047
0.4092
0.4140
0.4189
0.4242
0.4296
0.4351
0.4405
0.4459
0.4514
0.4569
0.4625
0.4687
0.4763
0.4824
0.4863
0.4903
0.4944
0.4985
0.5028
0.5071
0.5114
0.5159
0.5205
0.5252
0.5299
0.5345
0.5391
0.5437
0.5481
0.5524
0.5565
0.5603
0.5639
0.5674
0.5708
0.5742
0.5769
0.5788
0.5796
0.5743
0.5793
0.5803
0.5813
0.5822
0.5829
0.5831
0.5839
0.5825
0.5823
0.5830
0.5837
0.5842
0.5847
0.5852
0.5857
0.5861
0.5864
0.5868
0.5871
0.5874
0.5876
0.5879
0.5881
0.5883
0.5885
0.5887
0.5888
0.5890
0.5891
0.5952
0.5954
0.5955
0.5957
0.5958
0.5959
0.5957
0.5954
0.5950
0.5945
0.5941
0.5936
0.5927
0.5914
0.5880
0.5877
0.5874
0.5874
0.5877
0.5884
0.5888
0.5887
0.5886
0.5886
0.5886
0.5887
0.5877
0.5884
0.5893
0.5904
0.5656
0.5678
0.5702
0.5728
0.5755
0.5860
0.5889
0.5921
0.5954
0.5984
0.6013
0.6033
0.6068
0.6105
0.6148
0.6202
0.6253
0.6274
0.6291
0.6301
0.6288
0.6291
0.6311
0.6333
0.6365
0.6385
0.6406
0.6428
0.6451
0.6474
0.6499
0.6525
0.6552
0.6581
0.6612
0.6644
0.6678
0.6715
0.6754
0.6797
0.6843
0.6894
0.6953
0.7025
0.7133
0.7150
0.7168
0.7185
0.7204
0.7222
0.7240
0.7259
0.7278
0.7297
0.7316
0.7336
0.7356
0.7376
0.7396
0.7417
0.7437
0.7459
0.7480
0.7501
0.7523
0.7546
0.7568
0.7591
0.7614
0.7637
0.7661
0.7685
0.7710
0.7735
0.7760
0.7786
0.7812
0.7839
0.7866
0.7894
0.7923
0.7952
0.7982
0.8013
0.8045
0.8078
0.7833
0.7878
0.7926
0.7975
0.8028
0.8084
0.8145
0.8214
0.8300
0.8420
0.8446
0.8473
0.8502
0.8534
0.8572
0.8621
0.8672
0.8682
0.8692
0.8822
0.8827
0.8832
0.8837
0.8841
0.8846
0.8852
0.8858
0.8864
0.8869
0.8873
0.8876
0.8878
0.8877
0.8872
0.8850
0.8843
0.8851
0.8859
0.8867
0.8875
0.8883
0.8890
0.8898
0.8906
0.8913
0.8920
0.8928
0.8935
0.8942
0.8949
0.8956
0.8963
0.8970
0.8977
0.8984
0.8991
0.8997
0.9004
0.9010
0.9017
0.9023
0.9030
0.9036
0.9042
0.9048
0.9054
0.9060
0.9066
0.9215
0.9218
0.9220
0.9223
0.9224
0.9226
0.9227
0.9227
0.9227
0.9226
0.9224
0.9221
0.9215
0.9207
0.9191
0.9155
0.9160
0.9165
0.9170
0.9175
0.9180
0.9185
0.9190
0.9195
0.9200
0.9204
0.9209
0.9214
0.9218
0.9223
0.9227
0.9232
0.9236
0.9241
0.9245
0.9250
0.9254
0.9258
0.9262
0.9267
0.9271
0.9275
0.9279
0.9283
0.9287
0.9291
0.9295
0.9299
0.9303
0.9307
0.9311
0.9314
0.9318
0.9322
0.9326
0.9329
0.9333
0.9337
0.9340
0.9344
0.9347
0.9351
0.9354
0.9358
0.9361
0.9365
0.9368
0.9371
0.9375
0.9378
0.9381
0.9385
0.9388
0.9391
0.9394
0.9397
0.9400
0.9403
0.9407
0.9410
0.9413
0.9416
0.9419
0.9422
0.9425
0.9428
0.9430
0.9433
0.9436
0.9439
0.9442
0.9445
0.9447
0.9450
0.9453
0.9456
0.9458
0.9461
0.9464
0.9466
0.9469
0.9471
0.9474
0.9477
0.9479
0.9482
0.9484
0.9487
0.9489
0.9492
0.9494
0.9496
0.9499
0.9501
0.9503
0.9506
0.9508
0.9510
0.9513
0.9515
0.9517
0.9520
0.9522
0.9524
0.9526
0.9529
0.9531
0.9533
0.9535
0.9537
0.9539
0.9541
0.9543
