0.00000
0.09056
0.18112
0.27169
0.36225
0.45281
0.54337
0.63393
0.72449
0.81506
0.90562
0.99618
1.08674
1.17730
1.26786
1.35843
1.44899
1.53955
1.63011
1.72067
1.81123
1.90180
1.99236
2.08292
2.17348
2.26404
2.35460
2.44517
2.53573
2.62629
2.71685
2.80741
2.89797
2.98854
3.07910
3.16966
3.26022
3.35078
3.44134
3.53191
3.62247
3.71303
3.80359
3.89415
3.98471
4.07528
4.16584
4.25640
4.34696
4.43752
4.52809
4.61865
4.70921
4.79977
4.89033
4.98089
5.07146
5.16202
5.25258
5.34314
5.43370
5.52426
5.61483
5.70539
5.79595
5.88651
5.97707
6.06763
6.15820
6.24876
6.33932
6.42988
6.52044
6.61100
6.70157
6.79213
6.88269
6.97325
7.06381
7.15437
7.24494
7.33550
7.42606
7.51662
7.60718
7.69774
7.78831
7.87887
7.96943
8.05999
8.15055
8.24111
8.33168
8.42224
8.51280
8.60336
8.69392
8.78449
8.87505
8.96561
9.05617
9.14673
9.23729
9.32786
9.41842
9.50898
9.59954
9.69010
9.78066
9.87123
9.96179
10.05235
10.14291
10.23347
10.32403
10.41460
10.50516
10.59572
10.68628
10.77684
10.86740
10.95797
11.04853
11.13909
11.22965
11.32021
11.41077
11.50134
11.59190
11.68246
11.77302
11.86358
11.95414
12.04471
12.13527
12.22583
12.31639
12.40695
12.49751
12.58808
12.67864
12.76920
12.85976
12.95032
13.04088
13.13145
13.22201
13.31257
13.40313
13.49369
13.58426
13.67482
13.76538
13.85594
13.94650
14.03706
14.12763
14.21819
14.30875
14.39931
14.48987
14.58043
14.67100
14.76156
14.85212
14.94268
15.03324
15.12380
15.21437
15.30493
15.39549
15.48605
15.57661
15.66717
15.75774
15.84830
15.93886
16.02942
16.11998
16.21054
16.30111
16.39167
16.48223
16.57279
16.66335
16.75391
16.84448
16.93504
17.02560
17.11616
17.20672
17.29728
17.38785
17.47841
17.56897
17.65953
17.75009
17.84066
17.93122
18.02178
18.11234
18.20290
18.29346
18.38403
18.47459
18.56515
18.65571
18.74627
18.83683
18.92740
19.01796
19.10852
19.19908
19.28964
19.38020
19.47077
19.56133
19.65189
19.74245
19.83301
19.92357
20.01414
20.10470
20.19526
20.28582
20.37638
20.46694
20.55751
20.64807
20.73863
20.82919
20.91975
21.01031
21.10088
21.19144
21.28200
21.37256
21.46312
21.55368
21.64425
21.73481
21.82537
21.91593
22.00649
22.09706
22.18762
22.27818
22.36874
22.45930
22.54986
22.64043
22.73099
22.82155
22.91211
23.00267
23.09323
23.18380
23.27436
23.36492
23.45548
23.54604
23.63660
23.72717
23.81773
23.90829
23.99885
24.08941
24.17997
24.27054
24.36110
24.45166
24.54222
24.63278
24.72334
24.81391
24.90447
24.99503
25.08559
25.17615
25.26671
25.35728
25.44784
25.53840
25.62896
25.71952
25.81008
25.90065
25.99121
26.08177
26.17233
26.26289
26.35346
26.44402
26.53458
26.62514
26.71570
26.80626
26.89683
26.98739
27.07795
27.16851
27.25907
27.34963
27.44020
27.53076
27.62132
27.71188
27.80244
27.89300
27.98357
28.07413
28.16469
28.25525
28.34581
28.43637
28.52694
28.61750
28.70806
28.79862
28.88918
28.97974
29.07031
29.16087
29.25143
29.34199
29.43255
29.52311
29.61368
29.70424
29.79480
29.88536
29.97592
30.06648
30.15705
30.24761
30.33817
30.42873
30.51929
30.60986
30.70042
30.79098
30.88154
30.97210
31.06266
31.15323
31.24379
31.33435
31.42491
31.51547
31.60603
31.69660
31.78716
31.87772
31.96828
32.05884
32.14940
32.23997
32.33053
32.42109
32.51165
32.60221
32.69277
32.78334
32.87390
32.96446
33.05502
33.14558
33.23614
33.32671
33.41727
33.50783
33.59839
33.68895
33.77951
33.87008
33.96064
34.05120
34.14176
34.23232
34.32288
34.41345
34.50401
34.59457
34.68513
34.77569
34.86625
34.95682
35.04738
35.13794
35.22850
35.31906
35.40963
35.50019
35.59075
35.68131
35.77187
35.86243
35.95300
36.04356
36.13412
